---------------------------------------------------------------
>>> ========= '/mnt/ramdisk/mysandbox/test-2017-03-23_07-28-21/SingleSource/Benchmarks/Shootout-C++/ackermann' Program
---------------------------------------------------------------

TEST-PASS: compile /mnt/ramdisk/mysandbox/test-2017-03-23_07-28-21/SingleSource/Benchmarks/Shootout-C++/ackermann
TEST-RESULT-compile-success: pass
TEST-RESULT-compile-hash: 328ffe6aa31d1e2142532205e15da27c
TEST-RESULT-compile-time: user       0.1120
TEST-RESULT-compile-real-time: real       0.1321

TEST-PASS: exec /mnt/ramdisk/mysandbox/test-2017-03-23_07-28-21/SingleSource/Benchmarks/Shootout-C++/ackermann
TEST-RESULT-exec-success: pass
TEST-RESULT-exec-time: user       0.6560
TEST-RESULT-exec-real-time: real       0.6574
