---------------------------------------------------------------
>>> ========= '/mnt/ramdisk/mysandbox/test-2017-03-23_07-28-21/SingleSource/Benchmarks/Shootout-C++/ary3' Program
---------------------------------------------------------------

TEST-PASS: compile /mnt/ramdisk/mysandbox/test-2017-03-23_07-28-21/SingleSource/Benchmarks/Shootout-C++/ary3
TEST-RESULT-compile-success: pass
TEST-RESULT-compile-hash: 31bd871e1d71c03ae49d6bda1335f18b
TEST-RESULT-compile-time: user       0.1680
TEST-RESULT-compile-real-time: real       0.1786

TEST-PASS: exec /mnt/ramdisk/mysandbox/test-2017-03-23_07-28-21/SingleSource/Benchmarks/Shootout-C++/ary3
TEST-RESULT-exec-success: pass
TEST-RESULT-exec-time: user       0.5320
TEST-RESULT-exec-real-time: real       0.5331
