
TEST-PASS: compile /mnt/ramdisk/mysandbox/test-2017-03-23_07-28-21/SingleSource/Benchmarks/Shootout-C++/lists
TEST-RESULT-compile-success: pass
TEST-RESULT-compile-hash: 59da0dabc34e6693b7135b69d58d91d2
TEST-RESULT-compile-time: user       0.1600
TEST-RESULT-compile-real-time: real       0.1784
