---------------------------------------------------------------
>>> ========= '/mnt/ramdisk/mysandbox/test-2017-03-23_07-28-21/SingleSource/Benchmarks/Shootout-C++/lists1' Program
---------------------------------------------------------------

TEST-PASS: compile /mnt/ramdisk/mysandbox/test-2017-03-23_07-28-21/SingleSource/Benchmarks/Shootout-C++/lists1
TEST-RESULT-compile-success: pass
TEST-RESULT-compile-hash: ca6cac1aef1673b02eabd98edc2511a1
TEST-RESULT-compile-time: user       0.1920
TEST-RESULT-compile-real-time: real       0.2107

TEST-PASS: exec /mnt/ramdisk/mysandbox/test-2017-03-23_07-28-21/SingleSource/Benchmarks/Shootout-C++/lists1
TEST-RESULT-exec-success: pass
TEST-RESULT-exec-time: user       0.1120
TEST-RESULT-exec-real-time: real       0.1301
