---------------------------------------------------------------
>>> ========= '/mnt/ramdisk/mysandbox/test-2017-03-23_07-28-21/SingleSource/Benchmarks/Shootout-C++/matrix' Program
---------------------------------------------------------------

TEST-PASS: compile /mnt/ramdisk/mysandbox/test-2017-03-23_07-28-21/SingleSource/Benchmarks/Shootout-C++/matrix
TEST-RESULT-compile-success: pass
TEST-RESULT-compile-hash: a613e7769e4c047f3448025202e28832
TEST-RESULT-compile-time: user       0.1920
TEST-RESULT-compile-real-time: real       0.2148

TEST-PASS: exec /mnt/ramdisk/mysandbox/test-2017-03-23_07-28-21/SingleSource/Benchmarks/Shootout-C++/matrix
TEST-RESULT-exec-success: pass
TEST-RESULT-exec-time: user       1.6680
TEST-RESULT-exec-real-time: real       1.6697
