
TEST-PASS: compile /mnt/ramdisk/mysandbox/test-2017-03-23_07-28-21/SingleSource/Benchmarks/Shootout-C++/methcall
TEST-RESULT-compile-success: pass
TEST-RESULT-compile-hash: f61feab4852e77e755e69a11a4e0c9a0
TEST-RESULT-compile-time: user       0.1240
TEST-RESULT-compile-real-time: real       0.1404
