---------------------------------------------------------------
>>> ========= '/mnt/ramdisk/mysandbox/test-2017-03-23_07-28-21/SingleSource/Benchmarks/Shootout-C++/objinst' Program
---------------------------------------------------------------

TEST-PASS: compile /mnt/ramdisk/mysandbox/test-2017-03-23_07-28-21/SingleSource/Benchmarks/Shootout-C++/objinst
TEST-RESULT-compile-success: pass
TEST-RESULT-compile-hash: 354494da65092f2ea9614e0b04fc4b1b
TEST-RESULT-compile-time: user       0.1440
TEST-RESULT-compile-real-time: real       0.1565

TEST-PASS: exec /mnt/ramdisk/mysandbox/test-2017-03-23_07-28-21/SingleSource/Benchmarks/Shootout-C++/objinst
TEST-RESULT-exec-success: pass
TEST-RESULT-exec-time: user       0.0000
TEST-RESULT-exec-real-time: real       0.0008
