---------------------------------------------------------------
>>> ========= '/mnt/ramdisk/mysandbox/test-2017-03-23_07-28-21/SingleSource/Benchmarks/Shootout-C++/sieve' Program
---------------------------------------------------------------

TEST-PASS: compile /mnt/ramdisk/mysandbox/test-2017-03-23_07-28-21/SingleSource/Benchmarks/Shootout-C++/sieve
TEST-RESULT-compile-success: pass
TEST-RESULT-compile-hash: 15372c467cd515cb08a8998204df6fc5
TEST-RESULT-compile-time: user       0.1680
TEST-RESULT-compile-real-time: real       0.1978

TEST-PASS: exec /mnt/ramdisk/mysandbox/test-2017-03-23_07-28-21/SingleSource/Benchmarks/Shootout-C++/sieve
TEST-RESULT-exec-success: pass
TEST-RESULT-exec-time: user       1.2840
TEST-RESULT-exec-real-time: real       1.2846
