Benchmarks,/mnt/freezedisk/llvm-intptr-base-release/bin/clang,median
MultiSource/Applications/ALAC/decode/alacconvert-decode, 0.0131,0.0131
MultiSource/Applications/ALAC/encode/alacconvert-encode, 0.0265,0.0265
MultiSource/Applications/ClamAV/clamscan, 0.2073,0.2073
MultiSource/Applications/JM/ldecod/ldecod, 0.0489,0.0489
MultiSource/Applications/JM/lencod/lencod, 3.1724,3.1724
MultiSource/Applications/SIBsim4/SIBsim4, 2.0829,2.0829
MultiSource/Applications/SPASS/SPASS, 6.7320,6.732
MultiSource/Applications/aha/aha, 1.0660,1.066
MultiSource/Applications/d/make_dparser, 0.0161,0.0161
MultiSource/Applications/hbd/hbd, 0.0019,0.0019
MultiSource/Applications/hexxagon/hexxagon, 6.5794,6.5794
MultiSource/Applications/kimwitu++/kc, 0.0282,0.0282
MultiSource/Applications/lambda-0.1.3/lambda, 2.5835,2.5835
MultiSource/Applications/lua/lua,11.6040,11.604
MultiSource/Applications/minisat/minisat, 4.0869,4.0869
MultiSource/Applications/obsequi/Obsequi, 1.0707,1.0707
MultiSource/Applications/oggenc/oggenc, 0.0757,0.0757
MultiSource/Applications/sgefa/sgefa, 0.1153,0.1153
MultiSource/Applications/siod/siod, 1.1092,1.1092
MultiSource/Applications/spiff/spiff, 1.3052,1.3052
MultiSource/Applications/sqlite3/sqlite3, 1.8079,1.8079
MultiSource/Applications/viterbi/viterbi, 1.3198,1.3198
MultiSource/Benchmarks/7zip/7zip-benchmark, 6.3300,6.33
MultiSource/Benchmarks/ASCI_Purple/SMG2000/smg2000, 1.1743,1.1743
MultiSource/Benchmarks/ASC_Sequoia/AMGmk/AMGmk, 5.0377,5.0377
MultiSource/Benchmarks/ASC_Sequoia/CrystalMk/CrystalMk, 6.6766,6.6766
MultiSource/Benchmarks/ASC_Sequoia/IRSmk/IRSmk, 2.9944,2.9944
MultiSource/Benchmarks/BitBench/drop3/drop3, 0.1854,0.1854
MultiSource/Benchmarks/BitBench/five11/five11, 1.1164,1.1164
MultiSource/Benchmarks/BitBench/uudecode/uudecode, 0.0597,0.0597
MultiSource/Benchmarks/BitBench/uuencode/uuencode, 0.0110,0.011
MultiSource/Benchmarks/Bullet/bullet, 3.3048,3.3048
MultiSource/Benchmarks/DOE-ProxyApps-C/XSBench/XSBench, 2.4283,2.4283
MultiSource/Benchmarks/Fhourstones-3.1/fhourstones3.1, 0.8110,0.811
MultiSource/Benchmarks/Fhourstones/fhourstones, 0.6090,0.609
MultiSource/Benchmarks/FreeBench/analyzer/analyzer, 0.0404,0.0404
MultiSource/Benchmarks/FreeBench/distray/distray, 0.1382,0.1382
MultiSource/Benchmarks/FreeBench/fourinarow/fourinarow, 0.1774,0.1774
MultiSource/Benchmarks/FreeBench/mason/mason, 0.1300,0.13
MultiSource/Benchmarks/FreeBench/neural/neural, 0.1648,0.1648
MultiSource/Benchmarks/FreeBench/pcompress2/pcompress2, 0.1032,0.1032
MultiSource/Benchmarks/FreeBench/pifft/pifft, 0.0645,0.0645
MultiSource/Benchmarks/MallocBench/cfrac/cfrac, 0.7722,0.7722
MultiSource/Benchmarks/MallocBench/espresso/espresso, 0.3078,0.3078
MultiSource/Benchmarks/MallocBench/gs/gs, 0.0236,0.0236
MultiSource/Benchmarks/McCat/01-qbsort/qbsort, 0.0395,0.0395
MultiSource/Benchmarks/McCat/03-testtrie/testtrie, 0.0065,0.0065
MultiSource/Benchmarks/McCat/04-bisect/bisect, 0.0790,0.079
MultiSource/Benchmarks/McCat/05-eks/eks, 0.0036,0.0036
MultiSource/Benchmarks/McCat/08-main/main, 0.0429,0.0429
MultiSource/Benchmarks/McCat/09-vor/vor, 0.0837,0.0837
MultiSource/Benchmarks/McCat/12-IOtest/iotest, 0.2138,0.2138
MultiSource/Benchmarks/McCat/17-bintr/bintr, 0.0801,0.0801
MultiSource/Benchmarks/McCat/18-imp/imp, 0.0729,0.0729
MultiSource/Benchmarks/MiBench/automotive-basicmath/automotive-basicmath, 0.2226,0.2226
MultiSource/Benchmarks/MiBench/automotive-bitcount/automotive-bitcount, 0.0594,0.0594
MultiSource/Benchmarks/MiBench/automotive-susan/automotive-susan, 0.0283,0.0283
MultiSource/Benchmarks/MiBench/consumer-jpeg/consumer-jpeg, 0.0030,0.003
MultiSource/Benchmarks/MiBench/consumer-lame/consumer-lame, 0.1185,0.1185
MultiSource/Benchmarks/MiBench/consumer-typeset/consumer-typeset, 0.1052,0.1052
MultiSource/Benchmarks/MiBench/network-dijkstra/network-dijkstra, 0.0249,0.0249
MultiSource/Benchmarks/MiBench/network-patricia/network-patricia, 0.0708,0.0708
MultiSource/Benchmarks/MiBench/security-rijndael/security-rijndael, 0.0219,0.0219
MultiSource/Benchmarks/MiBench/security-sha/security-sha, 0.0480,0.048
MultiSource/Benchmarks/MiBench/telecomm-CRC32/telecomm-CRC32, 0.2018,0.2018
MultiSource/Benchmarks/MiBench/telecomm-FFT/telecomm-fft, 0.0385,0.0385
MultiSource/Benchmarks/MiBench/telecomm-adpcm/telecomm-adpcm, 0.0711,0.0711
MultiSource/Benchmarks/MiBench/telecomm-gsm/telecomm-gsm, 0.1110,0.111
MultiSource/Benchmarks/NPB-serial/is/is, 5.1832,5.1832
MultiSource/Benchmarks/Olden/bh/bh, 1.2690,1.269
MultiSource/Benchmarks/Olden/bisort/bisort, 0.3700,0.37
MultiSource/Benchmarks/Olden/em3d/em3d, 1.7045,1.7045
MultiSource/Benchmarks/Olden/health/health, 0.1457,0.1457
MultiSource/Benchmarks/Olden/mst/mst, 0.0530,0.053
MultiSource/Benchmarks/Olden/perimeter/perimeter, 0.1230,0.123
MultiSource/Benchmarks/Olden/power/power, 1.0749,1.0749
MultiSource/Benchmarks/Olden/treeadd/treeadd, 0.1268,0.1268
MultiSource/Benchmarks/Olden/tsp/tsp, 1.1802,1.1802
MultiSource/Benchmarks/Olden/voronoi/voronoi, 0.2104,0.2104
MultiSource/Benchmarks/PAQ8p/paq8p,43.8603,43.8603
MultiSource/Benchmarks/Prolangs-C++/city/city, 0.0051,0.0051
MultiSource/Benchmarks/Prolangs-C++/employ/employ, 0.0050,0.005
MultiSource/Benchmarks/Prolangs-C++/life/life, 0.7085,0.7085
MultiSource/Benchmarks/Prolangs-C++/ocean/ocean, 0.0361,0.0361
MultiSource/Benchmarks/Prolangs-C++/primes/primes, 0.2130,0.213
MultiSource/Benchmarks/Prolangs-C++/simul/simul, 0.0040,0.004
MultiSource/Benchmarks/Prolangs-C/agrep/agrep, 0.0029,0.0029
MultiSource/Benchmarks/Prolangs-C/bison/mybison, 0.0022,0.0022
MultiSource/Benchmarks/Prolangs-C/gnugo/gnugo, 0.0235,0.0235
MultiSource/Benchmarks/Ptrdist/anagram/anagram, 0.6656,0.6656
MultiSource/Benchmarks/Ptrdist/bc/bc, 0.3577,0.3577
MultiSource/Benchmarks/Ptrdist/ft/ft, 0.6392,0.6392
MultiSource/Benchmarks/Ptrdist/ks/ks, 0.6197,0.6197
MultiSource/Benchmarks/Ptrdist/yacr2/yacr2, 0.5118,0.5118
MultiSource/Benchmarks/SciMark2-C/scimark2,43.2838,43.2838
MultiSource/Benchmarks/TSVC/ControlFlow-dbl/ControlFlow-dbl, 3.8033,3.8033
MultiSource/Benchmarks/TSVC/ControlFlow-flt/ControlFlow-flt, 3.6012,3.6012
MultiSource/Benchmarks/TSVC/ControlLoops-dbl/ControlLoops-dbl, 2.5301,2.5301
MultiSource/Benchmarks/TSVC/ControlLoops-flt/ControlLoops-flt, 2.3537,2.3537
MultiSource/Benchmarks/TSVC/CrossingThresholds-dbl/CrossingThresholds-dbl, 2.1489,2.1489
MultiSource/Benchmarks/TSVC/CrossingThresholds-flt/CrossingThresholds-flt, 1.6172,1.6172
MultiSource/Benchmarks/TSVC/Equivalencing-dbl/Equivalencing-dbl, 1.3796,1.3796
MultiSource/Benchmarks/TSVC/Equivalencing-flt/Equivalencing-flt, 0.9688,0.9688
MultiSource/Benchmarks/TSVC/Expansion-dbl/Expansion-dbl, 1.9838,1.9838
MultiSource/Benchmarks/TSVC/Expansion-flt/Expansion-flt, 1.1606,1.1606
MultiSource/Benchmarks/TSVC/GlobalDataFlow-dbl/GlobalDataFlow-dbl, 2.8511,2.8511
MultiSource/Benchmarks/TSVC/GlobalDataFlow-flt/GlobalDataFlow-flt, 1.5022,1.5022
MultiSource/Benchmarks/TSVC/IndirectAddressing-dbl/IndirectAddressing-dbl, 2.4876,2.4876
MultiSource/Benchmarks/TSVC/IndirectAddressing-flt/IndirectAddressing-flt, 2.3032,2.3032
MultiSource/Benchmarks/TSVC/InductionVariable-dbl/InductionVariable-dbl, 3.0313,3.0313
MultiSource/Benchmarks/TSVC/InductionVariable-flt/InductionVariable-flt, 2.5533,2.5533
MultiSource/Benchmarks/TSVC/LinearDependence-dbl/LinearDependence-dbl, 5.8488,5.8488
MultiSource/Benchmarks/TSVC/LinearDependence-flt/LinearDependence-flt, 5.1298,5.1298
MultiSource/Benchmarks/TSVC/LoopRerolling-dbl/LoopRerolling-dbl, 4.5993,4.5993
MultiSource/Benchmarks/TSVC/LoopRerolling-flt/LoopRerolling-flt, 3.8247,3.8247
MultiSource/Benchmarks/TSVC/LoopRestructuring-dbl/LoopRestructuring-dbl, 3.6472,3.6472
MultiSource/Benchmarks/TSVC/LoopRestructuring-flt/LoopRestructuring-flt, 2.9252,2.9252
MultiSource/Benchmarks/TSVC/NodeSplitting-dbl/NodeSplitting-dbl, 5.0275,5.0275
MultiSource/Benchmarks/TSVC/NodeSplitting-flt/NodeSplitting-flt, 4.6406,4.6406
MultiSource/Benchmarks/TSVC/Packing-dbl/Packing-dbl, 2.2798,2.2798
MultiSource/Benchmarks/TSVC/Packing-flt/Packing-flt, 2.0764,2.0764
MultiSource/Benchmarks/TSVC/Recurrences-dbl/Recurrences-dbl, 3.5011,3.5011
MultiSource/Benchmarks/TSVC/Recurrences-flt/Recurrences-flt, 3.5008,3.5008
MultiSource/Benchmarks/TSVC/Reductions-dbl/Reductions-dbl, 3.4765,3.4765
MultiSource/Benchmarks/TSVC/Reductions-flt/Reductions-flt, 5.9694,5.9694
MultiSource/Benchmarks/TSVC/Searching-dbl/Searching-dbl, 2.2887,2.2887
MultiSource/Benchmarks/TSVC/Searching-flt/Searching-flt, 2.4470,2.447
MultiSource/Benchmarks/TSVC/StatementReordering-dbl/StatementReordering-dbl, 2.2414,2.2414
MultiSource/Benchmarks/TSVC/StatementReordering-flt/StatementReordering-flt, 1.8196,1.8196
MultiSource/Benchmarks/TSVC/Symbolics-dbl/Symbolics-dbl, 2.4426,2.4426
MultiSource/Benchmarks/TSVC/Symbolics-flt/Symbolics-flt, 1.3895,1.3895
MultiSource/Benchmarks/Trimaran/enc-3des/enc-3des, 1.2776,1.2776
MultiSource/Benchmarks/Trimaran/enc-md5/enc-md5, 1.3929,1.3929
MultiSource/Benchmarks/Trimaran/enc-pc1/enc-pc1, 0.3533,0.3533
MultiSource/Benchmarks/Trimaran/enc-rc4/enc-rc4, 0.7247,0.7247
MultiSource/Benchmarks/Trimaran/netbench-crc/netbench-crc, 0.6209,0.6209
MultiSource/Benchmarks/Trimaran/netbench-url/netbench-url, 2.9791,2.9791
MultiSource/Benchmarks/VersaBench/8b10b/8b10b, 3.5870,3.587
MultiSource/Benchmarks/VersaBench/beamformer/beamformer, 0.7500,0.75
MultiSource/Benchmarks/VersaBench/bmm/bmm, 1.6967,1.6967
MultiSource/Benchmarks/VersaBench/dbms/dbms, 0.8972,0.8972
MultiSource/Benchmarks/VersaBench/ecbdes/ecbdes, 1.6923,1.6923
MultiSource/Benchmarks/llubenchmark/llu, 4.1347,4.1347
MultiSource/Benchmarks/mafft/pairlocalalign,24.8270,24.827
MultiSource/Benchmarks/mediabench/adpcm/rawcaudio/rawcaudio, 0.0030,0.003
MultiSource/Benchmarks/mediabench/adpcm/rawdaudio/rawdaudio, 0.0018,0.0018
MultiSource/Benchmarks/mediabench/g721/g721encode/encode, 0.0290,0.029
MultiSource/Benchmarks/mediabench/gsm/toast/toast, 0.0146,0.0146
MultiSource/Benchmarks/mediabench/jpeg/jpeg-6a/cjpeg, 0.0032,0.0032
MultiSource/Benchmarks/mediabench/mpeg2/mpeg2dec/mpeg2decode, 0.0156,0.0156
MultiSource/Benchmarks/nbench/nbench, 1.1878,1.1878
MultiSource/Benchmarks/sim/sim, 2.5946,2.5946
MultiSource/Benchmarks/tramp3d-v4/tramp3d-v4, 0.2641,0.2641
SingleSource/Benchmarks/Adobe-C++/functionobjects, 2.9977,2.9977
SingleSource/Benchmarks/Adobe-C++/loop_unroll, 1.8206,1.8206
SingleSource/Benchmarks/Adobe-C++/simple_types_constant_folding, 0.6691,0.6691
SingleSource/Benchmarks/Adobe-C++/simple_types_loop_invariant, 1.6069,1.6069
SingleSource/Benchmarks/Adobe-C++/stepanov_abstraction, 4.2376,4.2376
SingleSource/Benchmarks/Adobe-C++/stepanov_vector, 2.2597,2.2597
SingleSource/Benchmarks/BenchmarkGame/Large/fasta, 0.6499,0.6499
SingleSource/Benchmarks/BenchmarkGame/fannkuch, 1.8643,1.8643
SingleSource/Benchmarks/BenchmarkGame/n-body, 1.3719,1.3719
SingleSource/Benchmarks/BenchmarkGame/nsieve-bits, 0.4978,0.4978
SingleSource/Benchmarks/BenchmarkGame/partialsums, 0.5687,0.5687
SingleSource/Benchmarks/BenchmarkGame/puzzle, 0.1139,0.1139
SingleSource/Benchmarks/BenchmarkGame/recursive, 0.7044,0.7044
SingleSource/Benchmarks/BenchmarkGame/spectral-norm, 0.9733,0.9733
SingleSource/Benchmarks/CoyoteBench/almabench,12.6490,12.649
SingleSource/Benchmarks/CoyoteBench/fftbench, 0.6448,0.6448
SingleSource/Benchmarks/CoyoteBench/huffbench, 9.2889,9.2889
SingleSource/Benchmarks/CoyoteBench/lpbench, 1.8259,1.8259
SingleSource/Benchmarks/Dhrystone/dry, 0.3351,0.3351
SingleSource/Benchmarks/Dhrystone/fldry, 0.3655,0.3655
SingleSource/Benchmarks/Linpack/linpack-pc, 1.2599,1.2599
SingleSource/Benchmarks/McGill/chomp, 1.3057,1.3057
SingleSource/Benchmarks/McGill/misr, 0.1012,0.1012
SingleSource/Benchmarks/McGill/queens, 1.5486,1.5486
SingleSource/Benchmarks/Misc-C++-EH/spirit, 2.6246,2.6246
SingleSource/Benchmarks/Misc-C++/Large/ray, 3.1386,3.1386
SingleSource/Benchmarks/Misc-C++/Large/sphereflake, 6.2819,6.2819
SingleSource/Benchmarks/Misc-C++/bigfib, 0.1919,0.1919
SingleSource/Benchmarks/Misc-C++/mandel-text, 1.6110,1.611
SingleSource/Benchmarks/Misc-C++/oopack_v1p8, 0.1618,0.1618
SingleSource/Benchmarks/Misc-C++/stepanov_container, 3.0819,3.0819
SingleSource/Benchmarks/Misc-C++/stepanov_v1p2, 7.9034,7.9034
SingleSource/Benchmarks/Misc/ReedSolomon, 3.1272,3.1272
SingleSource/Benchmarks/Misc/dt, 0.6919,0.6919
SingleSource/Benchmarks/Misc/fbench, 1.7523,1.7523
SingleSource/Benchmarks/Misc/ffbench, 0.5878,0.5878
SingleSource/Benchmarks/Misc/flops,10.6391,10.6391
SingleSource/Benchmarks/Misc/flops-1, 3.6290,3.629
SingleSource/Benchmarks/Misc/flops-2, 0.8628,0.8628
SingleSource/Benchmarks/Misc/flops-3, 5.5082,5.5082
SingleSource/Benchmarks/Misc/flops-4, 2.2798,2.2798
SingleSource/Benchmarks/Misc/flops-5, 4.2776,4.2776
SingleSource/Benchmarks/Misc/flops-6, 3.1819,3.1819
SingleSource/Benchmarks/Misc/flops-7, 1.5900,1.59
SingleSource/Benchmarks/Misc/flops-8, 3.7516,3.7516
SingleSource/Benchmarks/Misc/fp-convert, 3.0626,3.0626
SingleSource/Benchmarks/Misc/himenobmtxpa, 0.5922,0.5922
SingleSource/Benchmarks/Misc/lowercase, 0.0009,0.0009
SingleSource/Benchmarks/Misc/mandel, 0.8338,0.8338
SingleSource/Benchmarks/Misc/mandel-2, 1.2779,1.2779
SingleSource/Benchmarks/Misc/matmul_f64_4x4, 1.2953,1.2953
SingleSource/Benchmarks/Misc/oourafft, 6.0807,6.0807
SingleSource/Benchmarks/Misc/perlin, 3.8538,3.8538
SingleSource/Benchmarks/Misc/pi, 0.6944,0.6944
SingleSource/Benchmarks/Misc/richards_benchmark, 0.5315,0.5315
SingleSource/Benchmarks/Misc/salsa20, 4.8177,4.8177
SingleSource/Benchmarks/Misc/whetstone, 1.0277,1.0277
SingleSource/Benchmarks/Polybench/datamining/correlation/correlation, 1.6532,1.6532
SingleSource/Benchmarks/Polybench/datamining/covariance/covariance, 1.6431,1.6431
SingleSource/Benchmarks/Polybench/linear-algebra/kernels/atax/atax, 0.1705,0.1705
SingleSource/Benchmarks/Polybench/linear-algebra/kernels/bicg/bicg, 0.2128,0.2128
SingleSource/Benchmarks/Polybench/linear-algebra/kernels/cholesky/cholesky, 0.5722,0.5722
SingleSource/Benchmarks/Polybench/linear-algebra/kernels/doitgen/doitgen, 0.7907,0.7907
SingleSource/Benchmarks/Polybench/linear-algebra/kernels/gemver/gemver, 0.3184,0.3184
SingleSource/Benchmarks/Polybench/linear-algebra/kernels/gesummv/gesummv, 0.3065,0.3065
SingleSource/Benchmarks/Polybench/linear-algebra/kernels/mvt/mvt, 0.2465,0.2465
SingleSource/Benchmarks/Polybench/linear-algebra/kernels/symm/symm,17.2390,17.239
SingleSource/Benchmarks/Polybench/linear-algebra/kernels/syr2k/syr2k, 8.7802,8.7802
SingleSource/Benchmarks/Polybench/linear-algebra/kernels/syrk/syrk, 4.4136,4.4136
SingleSource/Benchmarks/Polybench/linear-algebra/kernels/trisolv/trisolv, 0.1640,0.164
SingleSource/Benchmarks/Polybench/linear-algebra/kernels/trmm/trmm, 2.3477,2.3477
SingleSource/Benchmarks/Polybench/linear-algebra/solvers/durbin/durbin, 0.3985,0.3985
SingleSource/Benchmarks/Polybench/linear-algebra/solvers/dynprog/dynprog, 0.2806,0.2806
SingleSource/Benchmarks/Polybench/linear-algebra/solvers/gramschmidt/gramschmidt, 1.7218,1.7218
SingleSource/Benchmarks/Polybench/linear-algebra/solvers/lu/lu, 0.0023,0.0023
SingleSource/Benchmarks/Polybench/medley/floyd-warshall/floyd-warshall, 3.4470,3.447
SingleSource/Benchmarks/Polybench/medley/reg_detect/reg_detect, 0.0175,0.0175
SingleSource/Benchmarks/Polybench/stencils/adi/adi, 2.7988,2.7988
SingleSource/Benchmarks/Polybench/stencils/fdtd-2d/fdtd-2d, 0.4072,0.4072
SingleSource/Benchmarks/Polybench/stencils/fdtd-apml/fdtd-apml, 0.7244,0.7244
SingleSource/Benchmarks/Polybench/stencils/jacobi-1d-imper/jacobi-1d-imper, 0.0038,0.0038
SingleSource/Benchmarks/Polybench/stencils/jacobi-2d-imper/jacobi-2d-imper, 0.1432,0.1432
SingleSource/Benchmarks/Polybench/stencils/seidel-2d/seidel-2d, 0.6474,0.6474
SingleSource/Benchmarks/Shootout-C++/EH/except, 0.1202,0.1202
SingleSource/Benchmarks/Shootout-C++/ackermann, 0.6573,0.6573
SingleSource/Benchmarks/Shootout-C++/ary, 0.0143,0.0143
SingleSource/Benchmarks/Shootout-C++/ary2, 0.0150,0.015
SingleSource/Benchmarks/Shootout-C++/ary3, 0.5420,0.542
SingleSource/Benchmarks/Shootout-C++/fibo, 1.4747,1.4747
SingleSource/Benchmarks/Shootout-C++/hash, 0.3221,0.3221
SingleSource/Benchmarks/Shootout-C++/hash2, 1.7366,1.7366
SingleSource/Benchmarks/Shootout-C++/heapsort, 2.0393,2.0393
SingleSource/Benchmarks/Shootout-C++/lists, 2.9720,2.972
SingleSource/Benchmarks/Shootout-C++/lists1, 0.1305,0.1305
SingleSource/Benchmarks/Shootout-C++/matrix, 1.7079,1.7079
SingleSource/Benchmarks/Shootout-C++/methcall, 3.5490,3.549
SingleSource/Benchmarks/Shootout-C++/moments, 0.0505,0.0505
SingleSource/Benchmarks/Shootout-C++/nestedloop, 0.0009,0.0009
SingleSource/Benchmarks/Shootout-C++/objinst, 0.0010,0.001
SingleSource/Benchmarks/Shootout-C++/random, 1.7450,1.745
SingleSource/Benchmarks/Shootout-C++/sieve, 1.5163,1.5163
SingleSource/Benchmarks/Shootout-C++/strcat, 0.0405,0.0405
SingleSource/Benchmarks/Shootout/ackermann, 0.0034,0.0034
SingleSource/Benchmarks/Shootout/ary3, 0.5879,0.5879
SingleSource/Benchmarks/Shootout/fib2, 1.4724,1.4724
SingleSource/Benchmarks/Shootout/hash, 2.7496,2.7496
SingleSource/Benchmarks/Shootout/heapsort, 2.0208,2.0208
SingleSource/Benchmarks/Shootout/lists, 4.1161,4.1161
SingleSource/Benchmarks/Shootout/matrix, 1.0906,1.0906
SingleSource/Benchmarks/Shootout/methcall, 3.2761,3.2761
SingleSource/Benchmarks/Shootout/nestedloop, 0.0009,0.0009
SingleSource/Benchmarks/Shootout/objinst, 0.0009,0.0009
SingleSource/Benchmarks/Shootout/random, 1.7449,1.7449
SingleSource/Benchmarks/Shootout/sieve, 3.4643,3.4643
SingleSource/Benchmarks/Shootout/strcat, 0.1052,0.1052
SingleSource/Benchmarks/SmallPT/smallpt, 7.5902,7.5902
SingleSource/Benchmarks/Stanford/Bubblesort, 0.0161,0.0161
SingleSource/Benchmarks/Stanford/FloatMM, 0.2021,0.2021
SingleSource/Benchmarks/Stanford/Oscar, 0.0034,0.0034
SingleSource/Benchmarks/Stanford/Perm, 0.0147,0.0147
SingleSource/Benchmarks/Stanford/Puzzle, 0.0773,0.0773
SingleSource/Benchmarks/Stanford/Queens, 0.0076,0.0076
SingleSource/Benchmarks/Stanford/Quicksort, 0.0304,0.0304
SingleSource/Benchmarks/Stanford/RealMM, 0.0016,0.0016
SingleSource/Benchmarks/Stanford/Towers, 0.0082,0.0082
SingleSource/Benchmarks/Stanford/Treesort, 0.0546,0.0546
SingleSource/Regression/C/2004-08-12-InlinerAndAllocas, 0.0015,0.0015
SingleSource/Regression/C/uint64_to_float, 0.2603,0.2603
Total elapsed time,-,573.8288999999999
Total failure,-,0
