Benchmarks,base-4.0,base-4.0,base-4.0,median,insts2,insts2,insts2,median,Slowdown(%)
MultiSource/Benchmarks/Olden/voronoi/voronoi, 0.2045, 0.2049, 0.2050,0.2049, 0.2104, 0.2108, 0.2103,0.2104,2.684236212786728
SingleSource/Benchmarks/Shootout-C++/hash2, 1.7883, 1.7859, 1.7878,1.7878, 1.8220, 1.8223, 1.8220,1.822,1.912965656113652
SingleSource/Benchmarks/Shootout-C++/hash, 0.3199, 0.3209, 0.3220,0.3209, 0.3247, 0.3248, 0.3247,0.3247,1.1841695232159388
MultiSource/Applications/lambda-0.1.3/lambda, 2.6527, 2.6449, 2.6437,2.6449, 2.6751, 2.6727, 2.6740,2.674,1.1002306325381017
MultiSource/Applications/minisat/minisat, 4.1539, 4.1623, 4.1553,4.1553, 4.1716, 4.2151, 4.1963,4.1963,0.9866916949437865
MultiSource/Benchmarks/Olden/mst/mst, 0.0524, 0.0521, 0.0524,0.0524, 0.0528, 0.0527, 0.0531,0.0528,0.7633587786259444
MultiSource/Applications/kimwitu++/kc, 0.0278, 0.0281, 0.0280,0.028, 0.0282, 0.0282, 0.0282,0.0282,0.7142857142857117
SingleSource/Benchmarks/Misc-C++-EH/spirit, 2.6087, 2.6127, 2.6093,2.6093, 2.6228, 2.6229, 2.6217,2.6228,0.5173801402674982
MultiSource/Benchmarks/TSVC/Expansion-flt/Expansion-flt, 1.1535, 1.1635, 1.1537,1.1537, 1.1555, 1.1638, 1.1594,1.1594,0.49406258126030167
SingleSource/Benchmarks/CoyoteBench/fftbench, 0.6316, 0.6304, 0.6280,0.6304, 0.6330, 0.6314, 0.6357,0.633,0.4124365482233605
MultiSource/Benchmarks/McCat/12-IOtest/iotest, 0.2148, 0.2134, 0.2140,0.214, 0.2142, 0.2150, 0.2148,0.2148,0.37383177570093906
MultiSource/Benchmarks/ASC_Sequoia/IRSmk/IRSmk, 2.9961, 2.9911, 3.0136,2.9961, 3.0071, 3.0177, 2.9902,3.0071,0.3671439538066146
MultiSource/Benchmarks/mediabench/g721/g721encode/encode, 0.0290, 0.0291, 0.0291,0.0291, 0.0291, 0.0293, 0.0292,0.0292,0.3436426116838476
SingleSource/Benchmarks/Stanford/Quicksort, 0.0303, 0.0302, 0.0303,0.0303, 0.0304, 0.0304, 0.0303,0.0304,0.3300330033003229
SingleSource/Benchmarks/Shootout/hash, 2.7853, 2.7757, 2.7788,2.7788, 2.7876, 2.7747, 2.8021,2.7876,0.3166834604865443
MultiSource/Benchmarks/Olden/treeadd/treeadd, 0.1266, 0.1265, 0.1265,0.1265, 0.1269, 0.1270, 0.1267,0.1269,0.3162055335968361
MultiSource/Benchmarks/MallocBench/cfrac/cfrac, 0.7706, 0.7705, 0.7707,0.7706, 0.7730, 0.7727, 0.7728,0.7728,0.2854918245523086
MultiSource/Benchmarks/Prolangs-C++/ocean/ocean, 0.0361, 0.0361, 0.0361,0.0361, 0.0362, 0.0362, 0.0362,0.0362,0.27700831024930483
MultiSource/Benchmarks/TSVC/CrossingThresholds-flt/CrossingThresholds-flt, 1.6132, 1.6235, 1.6247,1.6235, 1.6160, 1.6307, 1.6279,1.6279,0.27101940252540757
MultiSource/Benchmarks/mafft/pairlocalalign,26.2159,26.2173,26.2173,26.2173,26.2883,26.2876,26.2873,26.2876,0.26814355406543644
SingleSource/Benchmarks/Misc-C++/bigfib, 0.1908, 0.1912, 0.1915,0.1912, 0.1917, 0.1917, 0.1935,0.1917,0.26150627615062483
SingleSource/Benchmarks/Polybench/datamining/correlation/correlation, 1.6771, 1.6736, 1.6807,1.6771, 1.6776, 1.6831, 1.6812,1.6812,0.2444696201776786
MultiSource/Benchmarks/Olden/perimeter/perimeter, 0.1229, 0.1228, 0.1227,0.1228, 0.1231, 0.1231, 0.1230,0.1231,0.24429967426708998
SingleSource/Benchmarks/Polybench/stencils/fdtd-apml/fdtd-apml, 0.7229, 0.7220, 0.7228,0.7228, 0.7232, 0.7245, 0.7268,0.7245,0.23519645821805657
SingleSource/Benchmarks/Misc/ffbench, 0.5771, 0.5770, 0.5786,0.5771, 0.5800, 0.5783, 0.5767,0.5783,0.20793623288859475
SingleSource/Benchmarks/Shootout-C++/moments, 0.0504, 0.0505, 0.0505,0.0505, 0.0506, 0.0506, 0.0507,0.0506,0.1980198019801982
MultiSource/Benchmarks/ASC_Sequoia/AMGmk/AMGmk, 5.0462, 5.0469, 5.0387,5.0462, 5.0494, 5.0750, 5.0556,5.0556,0.18627878403552067
SingleSource/Benchmarks/Stanford/Treesort, 0.0544, 0.0546, 0.0546,0.0546, 0.0546, 0.0547, 0.0548,0.0547,0.1831501831501825
MultiSource/Applications/sgefa/sgefa, 0.1153, 0.1152, 0.1153,0.1153, 0.1155, 0.1155, 0.1152,0.1155,0.17346053772766545
MultiSource/Benchmarks/Olden/bisort/bisort, 0.3672, 0.3653, 0.3653,0.3653, 0.3657, 0.3668, 0.3659,0.3659,0.1642485628250645
MultiSource/Benchmarks/Olden/tsp/tsp, 1.0828, 1.0831, 1.0826,1.0828, 1.0845, 1.0856, 1.0843,1.0845,0.15700036941264095
MultiSource/Benchmarks/BitBench/five11/five11, 1.1173, 1.1161, 1.1163,1.1163, 1.1180, 1.1214, 1.1151,1.118,0.15228881125146643
MultiSource/Benchmarks/Olden/health/health, 0.1449, 0.1453, 0.1454,0.1453, 0.1455, 0.1454, 0.1455,0.1455,0.13764624913970014
MultiSource/Benchmarks/Olden/em3d/em3d, 1.7033, 1.7034, 1.7036,1.7034, 1.7054, 1.7058, 1.7057,1.7057,0.13502406950804957
MultiSource/Benchmarks/MiBench/automotive-basicmath/automotive-basicmath, 0.2227, 0.2228, 0.2227,0.2227, 0.2226, 0.2230, 0.2234,0.223,0.13471037269869868
MultiSource/Benchmarks/VersaBench/8b10b/8b10b, 3.7821, 3.7686, 3.7693,3.7693, 3.7802, 3.7607, 3.7743,3.7743,0.13265062478444722
MultiSource/Benchmarks/VersaBench/dbms/dbms, 0.8949, 0.8906, 0.8888,0.8906, 0.8928, 0.8854, 0.8917,0.8917,0.12351223894004892
SingleSource/Benchmarks/Shootout/lists, 4.0595, 4.0572, 4.0564,4.0572, 4.0601, 4.0618, 4.0633,4.0618,0.11337868480725266
MultiSource/Benchmarks/TSVC/Searching-flt/Searching-flt, 2.4433, 2.4416, 2.4432,2.4432, 2.4457, 2.4455, 2.4465,2.4457,0.102324819908306
MultiSource/Benchmarks/nbench/nbench, 1.1950, 1.1956, 1.1954,1.1954, 1.1972, 1.1966, 1.1965,1.1966,0.10038480843233
MultiSource/Benchmarks/TSVC/LoopRerolling-flt/LoopRerolling-flt, 3.8170, 3.8236, 3.8314,3.8236, 3.8273, 3.8162, 3.8278,3.8273,0.09676744429334416
SingleSource/Benchmarks/Shootout/strcat, 0.1052, 0.1053, 0.1052,0.1052, 0.1053, 0.1052, 0.1053,0.1053,0.0950570342205248
MultiSource/Benchmarks/Bullet/bullet, 3.2598, 3.2598, 3.2883,3.2598, 3.2556, 3.2876, 3.2628,3.2628,0.092030185900982
SingleSource/Benchmarks/CoyoteBench/almabench,12.5850,12.5853,12.6081,12.5853,12.5986,12.5954,12.5964,12.5964,0.08819813592046977
SingleSource/Benchmarks/CoyoteBench/lpbench, 1.8213, 1.8188, 1.8247,1.8213, 1.8229, 1.8206, 1.8234,1.8229,0.08784933838468234
SingleSource/Benchmarks/Shootout-C++/lists, 2.9682, 2.9776, 2.9734,2.9734, 2.9682, 2.9807, 2.9760,2.976,0.08744198560570737
MultiSource/Benchmarks/Olden/bh/bh, 1.2608, 1.2599, 1.2601,1.2601, 1.2633, 1.2612, 1.2607,1.2612,0.08729465915404688
MultiSource/Benchmarks/MiBench/telecomm-gsm/telecomm-gsm, 0.1179, 0.1180, 0.1178,0.1179, 0.1180, 0.1180, 0.1180,0.118,0.08481764206953457
MultiSource/Benchmarks/TSVC/Equivalencing-flt/Equivalencing-flt, 0.9672, 0.9675, 0.9686,0.9675, 0.9694, 0.9669, 0.9683,0.9683,0.08268733850129717
MultiSource/Benchmarks/TSVC/ControlFlow-dbl/ControlFlow-dbl, 3.6762, 3.6748, 3.6725,3.6748, 3.6910, 3.6776, 3.6726,3.6776,0.07619462283661171
MultiSource/Benchmarks/FreeBench/mason/mason, 0.1317, 0.1317, 0.1318,0.1317, 0.1318, 0.1317, 0.1318,0.1318,0.07593014426725553
MultiSource/Benchmarks/Trimaran/netbench-crc/netbench-crc, 0.6203, 0.6211, 0.6205,0.6205, 0.6209, 0.6209, 0.6210,0.6209,0.06446414182110782
MultiSource/Benchmarks/NPB-serial/is/is, 5.2039, 5.2043, 5.2123,5.2043, 5.2049, 5.2076, 5.2105,5.2076,0.0634091040101481
SingleSource/Benchmarks/Polybench/linear-algebra/kernels/atax/atax, 0.1702, 0.1703, 0.1706,0.1703, 0.1704, 0.1704, 0.1702,0.1704,0.05871990604815469
SingleSource/Benchmarks/Shootout-C++/heapsort, 2.0345, 2.0392, 2.0351,2.0351, 2.0361, 2.0347, 2.0370,2.0361,0.04913763451426245
SingleSource/Benchmarks/Misc-C++/mandel-text, 1.6049, 1.6052, 1.6049,1.6049, 1.6052, 1.6055, 1.6058,1.6055,0.03738550688516806
MultiSource/Benchmarks/TSVC/NodeSplitting-dbl/NodeSplitting-dbl, 5.0228, 5.0201, 5.0216,5.0216, 5.0203, 5.0234, 5.0291,5.0234,0.0358451489564926
SingleSource/Benchmarks/Polybench/stencils/adi/adi, 2.8093, 2.8104, 2.8095,2.8095, 2.8091, 2.8104, 2.8108,2.8104,0.032034169781103294
MultiSource/Benchmarks/Ptrdist/bc/bc, 0.3586, 0.3583, 0.3585,0.3585, 0.3587, 0.3586, 0.3583,0.3586,0.02789400278939702
MultiSource/Benchmarks/TSVC/StatementReordering-flt/StatementReordering-flt, 1.8252, 1.8243, 1.8247,1.8247, 1.8235, 1.8252, 1.8272,1.8252,0.027401764673640194
MultiSource/Benchmarks/TSVC/InductionVariable-flt/InductionVariable-flt, 2.5619, 2.5606, 2.5674,2.5619, 2.5619, 2.5703, 2.5625,2.5625,0.02342011788125653
SingleSource/Benchmarks/Adobe-C++/simple_types_loop_invariant, 1.5950, 1.5949, 1.5949,1.5949, 1.5948, 1.5960, 1.5952,1.5952,0.018809956737086964
SingleSource/Benchmarks/Misc/flops-2, 0.8627, 0.8627, 0.8627,0.8627, 0.8628, 0.8628, 0.8628,0.8628,0.011591515011000197
MultiSource/Benchmarks/ASC_Sequoia/CrystalMk/CrystalMk, 6.7167, 6.7171, 6.7166,6.7167, 6.7156, 6.7182, 6.7173,6.7173,0.00893295814907713
MultiSource/Benchmarks/TSVC/Searching-dbl/Searching-dbl, 2.2836, 2.2839, 2.2845,2.2839, 2.2841, 2.2844, 2.2833,2.2841,0.008756950829713617
MultiSource/Benchmarks/Trimaran/enc-3des/enc-3des, 1.2821, 1.2817, 1.2819,1.2819, 1.2820, 1.2819, 1.2821,1.282,0.007800920508627129
MultiSource/Benchmarks/TSVC/CrossingThresholds-dbl/CrossingThresholds-dbl, 2.1494, 2.1485, 2.1495,2.1494, 2.1495, 2.1490, 2.1501,2.1495,0.004652461151954945
MultiSource/Benchmarks/TSVC/Symbolics-dbl/Symbolics-dbl, 2.4421, 2.4429, 2.4567,2.4429, 2.4430, 2.4574, 2.4420,2.443,0.004093495435752992
MultiSource/Benchmarks/Trimaran/netbench-url/netbench-url, 2.9793, 2.9791, 2.9799,2.9793, 2.9794, 2.9792, 2.9796,2.9794,0.0033564931359864048
SingleSource/Benchmarks/Shootout-C++/methcall, 3.5459, 3.5508, 3.5459,3.5459, 3.5460, 3.5460, 3.5460,3.546,0.0028201584929110624
SingleSource/Benchmarks/Misc/perlin, 3.9910, 3.9907, 3.9905,3.9907, 3.9908, 3.9913, 3.9904,3.9908,0.0025058260455512738
SingleSource/Regression/C/uint64_to_float, 0.2608, 0.2608, 0.2608,0.2608, 0.2608, 0.2608, 0.2608,0.2608,0.0
SingleSource/Regression/C/2004-08-12-InlinerAndAllocas, 0.0015, 0.0015, 0.0015,0.0015, 0.0015, 0.0015, 0.0015,0.0015,0.0
SingleSource/Benchmarks/Stanford/RealMM, 0.0020, 0.0020, 0.0020,0.002, 0.0020, 0.0020, 0.0020,0.002,0.0
SingleSource/Benchmarks/Stanford/Puzzle, 0.0875, 0.0874, 0.0876,0.0875, 0.0877, 0.0875, 0.0874,0.0875,0.0
SingleSource/Benchmarks/Stanford/Oscar, 0.0034, 0.0034, 0.0034,0.0034, 0.0034, 0.0034, 0.0034,0.0034,0.0
SingleSource/Benchmarks/Stanford/FloatMM, 0.5467, 0.5466, 0.5466,0.5466, 0.5468, 0.5466, 0.5466,0.5466,0.0
SingleSource/Benchmarks/Stanford/Bubblesort, 0.0161, 0.0161, 0.0162,0.0161, 0.0162, 0.0161, 0.0161,0.0161,0.0
SingleSource/Benchmarks/SmallPT/smallpt, 7.3920, 7.3910, 7.3923,7.392, 7.3930, 7.3920, 7.3870,7.392,0.0
SingleSource/Benchmarks/Shootout/random, 1.7449, 1.7449, 1.7449,1.7449, 1.7449, 1.7450, 1.7449,1.7449,0.0
SingleSource/Benchmarks/Shootout/objinst, 0.0009, 0.0009, 0.0009,0.0009, 0.0009, 0.0009, 0.0009,0.0009,0.0
SingleSource/Benchmarks/Shootout/ackermann, 0.0035, 0.0035, 0.0035,0.0035, 0.0035, 0.0035, 0.0035,0.0035,0.0
SingleSource/Benchmarks/Shootout-C++/strcat, 0.0406, 0.0405, 0.0406,0.0406, 0.0408, 0.0406, 0.0406,0.0406,0.0
SingleSource/Benchmarks/Shootout-C++/random, 1.7450, 1.7451, 1.7450,1.745, 1.7450, 1.7450, 1.7450,1.745,0.0
SingleSource/Benchmarks/Shootout-C++/ary, 0.0142, 0.0143, 0.0143,0.0143, 0.0143, 0.0144, 0.0142,0.0143,0.0
SingleSource/Benchmarks/Shootout-C++/ackermann, 0.6572, 0.6573, 0.6573,0.6573, 0.6573, 0.6572, 0.6573,0.6573,0.0
SingleSource/Benchmarks/Shootout-C++/EH/except, 0.1207, 0.1204, 0.1206,0.1206, 0.1206, 0.1206, 0.1204,0.1206,0.0
SingleSource/Benchmarks/Polybench/stencils/seidel-2d/seidel-2d, 0.6465, 0.6465, 0.6465,0.6465, 0.6465, 0.6465, 0.6465,0.6465,0.0
SingleSource/Benchmarks/Polybench/medley/reg_detect/reg_detect, 0.0145, 0.0145, 0.0145,0.0145, 0.0145, 0.0144, 0.0145,0.0145,0.0
SingleSource/Benchmarks/Polybench/linear-algebra/kernels/trisolv/trisolv, 0.1737, 0.1737, 0.1736,0.1737, 0.1737, 0.1738, 0.1737,0.1737,0.0
SingleSource/Benchmarks/Polybench/linear-algebra/kernels/bicg/bicg, 0.2122, 0.2122, 0.2123,0.2122, 0.2122, 0.2122, 0.2122,0.2122,0.0
SingleSource/Benchmarks/Misc/whetstone, 1.0275, 1.0198, 1.0275,1.0275, 1.0275, 1.0275, 1.0198,1.0275,0.0
SingleSource/Benchmarks/Misc/richards_benchmark, 0.5317, 0.5316, 0.5323,0.5317, 0.5309, 0.5332, 0.5317,0.5317,0.0
SingleSource/Benchmarks/Misc/pi, 0.6943, 0.6943, 0.6944,0.6943, 0.6943, 0.6944, 0.6943,0.6943,0.0
SingleSource/Benchmarks/Misc/matmul_f64_4x4, 1.2953, 1.2953, 1.2951,1.2953, 1.2953, 1.2953, 1.2953,1.2953,0.0
SingleSource/Benchmarks/Misc/mandel-2, 1.2781, 1.2780, 1.2781,1.2781, 1.2781, 1.2781, 1.2781,1.2781,0.0
SingleSource/Benchmarks/Misc/fp-convert, 3.0626, 3.0626, 3.0626,3.0626, 3.0626, 3.0627, 3.0626,3.0626,0.0
SingleSource/Benchmarks/Misc/flops-6, 3.4395, 3.4395, 3.4394,3.4395, 3.4395, 3.4199, 3.4396,3.4395,0.0
SingleSource/Benchmarks/Misc/flops-5, 4.2778, 4.2776, 4.2775,4.2776, 4.2775, 4.2777, 4.2776,4.2776,0.0
SingleSource/Benchmarks/Misc/fbench, 1.7531, 1.7530, 1.7531,1.7531, 1.7531, 1.7531, 1.7531,1.7531,0.0
SingleSource/Benchmarks/Misc/dt, 0.6919, 0.6919, 0.6919,0.6919, 0.6919, 0.6919, 0.6920,0.6919,0.0
SingleSource/Benchmarks/Misc-C++/stepanov_v1p2, 7.9034, 7.9033, 7.9035,7.9034, 7.9034, 7.9035, 7.9034,7.9034,0.0
SingleSource/Benchmarks/Misc-C++/Large/sphereflake, 5.5044, 5.5043, 5.5042,5.5043, 5.5043, 5.5043, 5.5044,5.5043,0.0
SingleSource/Benchmarks/Misc-C++/Large/ray, 2.8211, 2.8212, 2.8212,2.8212, 2.8211, 2.8212, 2.8212,2.8212,0.0
SingleSource/Benchmarks/McGill/queens, 1.5489, 1.5491, 1.5486,1.5489, 1.5495, 1.5485, 1.5489,1.5489,0.0
SingleSource/Benchmarks/Dhrystone/fldry, 0.3655, 0.3655, 0.3655,0.3655, 0.3655, 0.3655, 0.3655,0.3655,0.0
SingleSource/Benchmarks/Dhrystone/dry, 0.3351, 0.3351, 0.3351,0.3351, 0.3351, 0.3351, 0.3351,0.3351,0.0
SingleSource/Benchmarks/BenchmarkGame/spectral-norm, 0.9732, 0.9733, 0.9733,0.9733, 0.9733, 0.9733, 0.9732,0.9733,0.0
SingleSource/Benchmarks/BenchmarkGame/puzzle, 0.1143, 0.1143, 0.1143,0.1143, 0.1141, 0.1144, 0.1143,0.1143,0.0
SingleSource/Benchmarks/BenchmarkGame/partialsums, 0.5688, 0.5688, 0.5687,0.5688, 0.5688, 0.5688, 0.5687,0.5688,0.0
SingleSource/Benchmarks/BenchmarkGame/n-body, 1.3713, 1.3713, 1.3713,1.3713, 1.3713, 1.3713, 1.3713,1.3713,0.0
SingleSource/Benchmarks/Adobe-C++/simple_types_constant_folding, 0.6684, 0.6684, 0.6684,0.6684, 0.6684, 0.6684, 0.6684,0.6684,0.0
MultiSource/Benchmarks/VersaBench/ecbdes/ecbdes, 1.6837, 1.6837, 1.6837,1.6837, 1.6837, 1.6837, 1.6837,1.6837,0.0
MultiSource/Benchmarks/Trimaran/enc-pc1/enc-pc1, 0.3528, 0.3528, 0.3529,0.3528, 0.3528, 0.3529, 0.3527,0.3528,0.0
MultiSource/Benchmarks/Trimaran/enc-md5/enc-md5, 1.3939, 1.3939, 1.3939,1.3939, 1.3939, 1.3937, 1.3939,1.3939,0.0
MultiSource/Benchmarks/TSVC/Reductions-flt/Reductions-flt, 5.9694, 5.9694, 5.9694,5.9694, 5.9694, 5.9694, 5.9697,5.9694,0.0
MultiSource/Benchmarks/TSVC/Reductions-dbl/Reductions-dbl, 3.4749, 3.4749, 3.4750,3.4749, 3.4749, 3.4749, 3.4748,3.4749,0.0
MultiSource/Benchmarks/Prolangs-C/gnugo/gnugo, 0.0241, 0.0242, 0.0240,0.0241, 0.0241, 0.0241, 0.0240,0.0241,0.0
MultiSource/Benchmarks/Prolangs-C++/simul/simul, 0.0040, 0.0040, 0.0040,0.004, 0.0040, 0.0040, 0.0040,0.004,0.0
MultiSource/Benchmarks/Olden/power/power, 0.9765, 0.9765, 0.9765,0.9765, 0.9765, 0.9766, 0.9765,0.9765,0.0
MultiSource/Benchmarks/MiBench/telecomm-FFT/telecomm-fft, 0.0386, 0.0387, 0.0386,0.0386, 0.0386, 0.0386, 0.0386,0.0386,0.0
MultiSource/Benchmarks/McCat/05-eks/eks, 0.0036, 0.0036, 0.0036,0.0036, 0.0036, 0.0036, 0.0036,0.0036,0.0
MultiSource/Benchmarks/FreeBench/pifft/pifft, 0.0641, 0.0640, 0.0640,0.064, 0.0640, 0.0639, 0.0641,0.064,0.0
MultiSource/Benchmarks/FreeBench/pcompress2/pcompress2, 0.1031, 0.1030, 0.1030,0.103, 0.1030, 0.1029, 0.1030,0.103,0.0
MultiSource/Benchmarks/FreeBench/neural/neural, 0.1644, 0.1645, 0.1644,0.1644, 0.1644, 0.1646, 0.1644,0.1644,0.0
MultiSource/Benchmarks/FreeBench/distray/distray, 0.1332, 0.1331, 0.1331,0.1331, 0.1331, 0.1331, 0.1333,0.1331,0.0
MultiSource/Applications/d/make_dparser, 0.0159, 0.0159, 0.0159,0.0159, 0.0160, 0.0159, 0.0159,0.0159,0.0
MultiSource/Applications/JM/ldecod/ldecod, 0.0364, 0.0362, 0.0363,0.0363, 0.0365, 0.0363, 0.0363,0.0363,0.0
MultiSource/Applications/hexxagon/hexxagon, 6.8369, 6.8363, 6.8376,6.8369, 6.8370, 6.8363, 6.8368,6.8368,-0.0014626512015669668
MultiSource/Benchmarks/TSVC/Recurrences-dbl/Recurrences-dbl, 3.5012, 3.5012, 3.5012,3.5012, 3.5011, 3.5013, 3.5011,3.5011,-0.002856163601039352
MultiSource/Benchmarks/TSVC/Recurrences-flt/Recurrences-flt, 3.5010, 3.5010, 3.5009,3.501, 3.5009, 3.5007, 3.5010,3.5009,-0.0028563267637782275
SingleSource/Benchmarks/Misc/oourafft, 6.0595, 6.0621, 6.0626,6.0621, 6.0650, 6.0613, 6.0619,6.0619,-0.0032991867504716943
MultiSource/Benchmarks/VersaBench/bmm/bmm, 1.6827, 1.6828, 1.6826,1.6827, 1.6826, 1.6826, 1.6826,1.6826,-0.005942829975635888
SingleSource/Benchmarks/Misc/flops-7, 1.5902, 1.5901, 1.5902,1.5902, 1.5899, 1.5902, 1.5901,1.5901,-0.006288517167651886
SingleSource/Benchmarks/Shootout/fib2, 1.4728, 1.4735, 1.4741,1.4735, 1.4728, 1.4745, 1.4734,1.4734,-0.006786562606042601
SingleSource/Benchmarks/Shootout-C++/matrix, 1.3230, 1.3224, 1.3226,1.3226, 1.3225, 1.3224, 1.3226,1.3225,-0.007560864962952163
SingleSource/Benchmarks/Shootout/methcall, 3.2764, 3.2765, 3.2762,3.2764, 3.2761, 3.2761, 3.2762,3.2761,-0.009156391161035948
MultiSource/Applications/aha/aha, 1.0720, 1.0734, 1.0741,1.0734, 1.0739, 1.0733, 1.0731,1.0733,-0.009316191540897911
SingleSource/Benchmarks/Misc/ReedSolomon, 3.1974, 3.1979, 3.1975,3.1975, 3.1978, 3.1971, 3.1972,3.1972,-0.009382329945262224
SingleSource/Benchmarks/Misc/mandel, 0.8022, 0.8023, 0.8023,0.8023, 0.8023, 0.8022, 0.8022,0.8022,-0.012464165524117554
SingleSource/Benchmarks/BenchmarkGame/fannkuch, 2.2526, 2.2521, 2.2505,2.2521, 2.2510, 2.2524, 2.2518,2.2518,-0.013320900492885812
MultiSource/Benchmarks/VersaBench/beamformer/beamformer, 0.6731, 0.6733, 0.6733,0.6733, 0.6732, 0.6732, 0.6731,0.6732,-0.014852220406946781
MultiSource/Benchmarks/TSVC/LinearDependence-dbl/LinearDependence-dbl, 5.1474, 5.1473, 5.1562,5.1474, 5.1466, 5.1480, 5.1466,5.1466,-0.01554182694175621
MultiSource/Benchmarks/TSVC/ControlLoops-flt/ControlLoops-flt, 2.3450, 2.3448, 2.3514,2.345, 2.3506, 2.3446, 2.3418,2.3446,-0.017057569296397013
MultiSource/Benchmarks/TSVC/LinearDependence-flt/LinearDependence-flt, 4.6174, 4.6187, 4.6184,4.6184, 4.6193, 4.6165, 4.6176,4.6176,-0.017322016282694808
SingleSource/Benchmarks/Shootout/matrix, 1.0675, 1.0667, 1.0672,1.0672, 1.0670, 1.0671, 1.0668,1.067,-0.018740629685154442
SingleSource/Benchmarks/Shootout/heapsort, 2.0209, 2.0237, 2.0248,2.0237, 2.0233, 2.0339, 2.0209,2.0233,-0.019765775559621446
MultiSource/Benchmarks/TSVC/GlobalDataFlow-dbl/GlobalDataFlow-dbl, 2.8390, 2.8388, 2.8391,2.839, 2.8396, 2.8384, 2.8384,2.8384,-0.021134202183870077
MultiSource/Benchmarks/TSVC/InductionVariable-dbl/InductionVariable-dbl, 3.0349, 3.0344, 3.0504,3.0349, 3.0311, 3.0486, 3.0341,3.0341,-0.02636001186200332
MultiSource/Benchmarks/PAQ8p/paq8p,43.9231,43.9353,43.9853,43.9353,43.9224,43.9033,43.9389,43.9224,-0.029361356358093005
SingleSource/Benchmarks/Shootout/sieve, 3.4732, 3.4735, 3.4745,3.4735, 3.4728, 3.4718, 3.4724,3.4724,-0.03166834604865221
MultiSource/Benchmarks/TSVC/ControlLoops-dbl/ControlLoops-dbl, 2.5302, 2.5309, 2.5379,2.5309, 2.5292, 2.5298, 2.5301,2.5298,-0.043462799794546925
MultiSource/Benchmarks/FreeBench/fourinarow/fourinarow, 0.1756, 0.1756, 0.1758,0.1756, 0.1757, 0.1755, 0.1755,0.1755,-0.05694760820046385
MultiSource/Benchmarks/TSVC/LoopRerolling-dbl/LoopRerolling-dbl, 4.5879, 4.5918, 4.6038,4.5918, 4.6119, 4.5880, 4.5889,4.5889,-0.06315606080404823
MultiSource/Benchmarks/TSVC/Symbolics-flt/Symbolics-flt, 1.3911, 1.3914, 1.3990,1.3914, 1.3891, 1.3905, 1.3937,1.3905,-0.06468305304009325
MultiSource/Applications/obsequi/Obsequi, 1.0799, 1.0787, 1.0780,1.0787, 1.0780, 1.0791, 1.0779,1.078,-0.06489292667098967
MultiSource/Benchmarks/Trimaran/enc-rc4/enc-rc4, 0.7355, 0.7353, 0.7355,0.7355, 0.7350, 0.7350, 0.7354,0.735,-0.06798096532971698
SingleSource/Benchmarks/Polybench/stencils/jacobi-2d-imper/jacobi-2d-imper, 0.1466, 0.1467, 0.1463,0.1466, 0.1465, 0.1464, 0.1465,0.1465,-0.06821282401092699
MultiSource/Benchmarks/TSVC/IndirectAddressing-dbl/IndirectAddressing-dbl, 2.4772, 2.4773, 2.4740,2.4772, 2.4755, 2.4867, 2.4733,2.4755,-0.06862586791539504
SingleSource/Benchmarks/Polybench/medley/floyd-warshall/floyd-warshall, 3.4402, 3.4392, 3.4410,3.4402, 3.4379, 3.4357, 3.4378,3.4378,-0.06976338584965269
SingleSource/Benchmarks/Polybench/linear-algebra/solvers/dynprog/dynprog, 0.2682, 0.2686, 0.2677,0.2682, 0.2689, 0.2680, 0.2679,0.268,-0.07457121551079915
SingleSource/Benchmarks/Shootout-C++/fibo, 1.4747, 1.4748, 1.4762,1.4748, 1.4743, 1.4737, 1.4732,1.4737,-0.0745863845945327
MultiSource/Benchmarks/sim/sim, 2.6128, 2.6106, 2.6144,2.6128, 2.6105, 2.6100, 2.6111,2.6105,-0.08802816901408717
MultiSource/Benchmarks/Prolangs-C++/primes/primes, 0.2134, 0.2125, 0.2136,0.2134, 0.2132, 0.2126, 0.2134,0.2132,-0.09372071227741197
MultiSource/Benchmarks/MallocBench/espresso/espresso, 0.3067, 0.3064, 0.3066,0.3066, 0.3061, 0.3064, 0.3063,0.3063,-0.09784735812131684
SingleSource/Benchmarks/McGill/misr, 0.1016, 0.1015, 0.1016,0.1016, 0.1014, 0.1015, 0.1016,0.1015,-0.09842519685038242
SingleSource/Benchmarks/Misc/flops,10.6638,10.6946,10.7190,10.6946,10.7166,10.6257,10.6828,10.6828,-0.11033605744954489
MultiSource/Benchmarks/DOE-ProxyApps-C/XSBench/XSBench, 2.4462, 2.4456, 2.4425,2.4456, 2.4503, 2.4429, 2.4406,2.4429,-0.11040235525026088
MultiSource/Benchmarks/tramp3d-v4/tramp3d-v4, 0.2666, 0.2668, 0.2669,0.2668, 0.2664, 0.2665, 0.2665,0.2665,-0.11244377811092665
SingleSource/Benchmarks/Misc-C++/oopack_v1p8, 0.1640, 0.1637, 0.1628,0.1637, 0.1643, 0.1628, 0.1635,0.1635,-0.12217470983506562
MultiSource/Benchmarks/McCat/04-bisect/bisect, 0.0790, 0.0791, 0.0791,0.0791, 0.0790, 0.0791, 0.0790,0.079,-0.12642225031606058
MultiSource/Benchmarks/TSVC/StatementReordering-dbl/StatementReordering-dbl, 2.2367, 2.2318, 2.2351,2.2351, 2.2306, 2.2476, 2.2322,2.2322,-0.1297481097042641
MultiSource/Benchmarks/TSVC/Equivalencing-dbl/Equivalencing-dbl, 1.3791, 1.3862, 1.3816,1.3816, 1.3798, 1.3860, 1.3798,1.3798,-0.1302837290098502
SingleSource/Benchmarks/Polybench/linear-algebra/kernels/doitgen/doitgen, 0.7872, 0.7856, 0.7897,0.7872, 0.7858, 0.7913, 0.7861,0.7861,-0.1397357723577186
SingleSource/Benchmarks/Polybench/datamining/covariance/covariance, 1.6473, 1.6544, 1.6476,1.6476, 1.6452, 1.6524, 1.6430,1.6452,-0.1456664238892902
MultiSource/Benchmarks/TSVC/NodeSplitting-flt/NodeSplitting-flt, 4.6528, 4.6528, 4.6494,4.6528, 4.6447, 4.6471, 4.6456,4.6456,-0.15474552957359666
MultiSource/Benchmarks/7zip/7zip-benchmark, 6.4059, 6.4138, 6.4061,6.4061, 6.3954, 6.4023, 6.3955,6.3955,-0.16546728899018426
MultiSource/Applications/JM/lencod/lencod, 3.2635, 3.2623, 3.2629,3.2629, 3.2619, 3.2575, 3.2561,3.2575,-0.165496950565458
MultiSource/Benchmarks/TSVC/IndirectAddressing-flt/IndirectAddressing-flt, 2.3058, 2.3043, 2.3057,2.3057, 2.3048, 2.3007, 2.3018,2.3018,-0.16914602940537593
MultiSource/Benchmarks/Ptrdist/yacr2/yacr2, 0.5097, 0.5095, 0.5093,0.5095, 0.5086, 0.5087, 0.5085,0.5086,-0.1766437684003752
MultiSource/Benchmarks/TSVC/GlobalDataFlow-flt/GlobalDataFlow-flt, 1.4943, 1.4980, 1.4997,1.498, 1.4903, 1.4994, 1.4953,1.4953,-0.18024032042722737
SingleSource/Benchmarks/Misc/salsa20, 4.8265, 4.8285, 4.8173,4.8265, 4.8176, 4.8286, 4.8175,4.8176,-0.1843986325494762
SingleSource/Benchmarks/Linpack/linpack-pc, 1.2891, 1.2880, 1.2901,1.2891, 1.2909, 1.2867, 1.2853,1.2867,-0.18617640214102504
MultiSource/Benchmarks/McCat/08-main/main, 0.0429, 0.0429, 0.0429,0.0429, 0.0428, 0.0429, 0.0428,0.0428,-0.2331002331002363
SingleSource/Benchmarks/Polybench/linear-algebra/kernels/cholesky/cholesky, 0.4624, 0.4596, 0.4558,0.4596, 0.4581, 0.4596, 0.4585,0.4585,-0.23933855526544479
SingleSource/Benchmarks/Adobe-C++/loop_unroll, 1.8932, 1.8885, 1.8937,1.8932, 1.8941, 1.8878, 1.8885,1.8885,-0.2482569195013662
MultiSource/Applications/lua/lua,11.5138,11.5571,11.5145,11.5145,11.4803,11.4689,11.4894,11.4803,-0.29701680489817583
MultiSource/Benchmarks/MiBench/consumer-lame/consumer-lame, 0.1183, 0.1181, 0.1183,0.1183, 0.1179, 0.1178, 0.1180,0.1179,-0.33812341504648735
MultiSource/Benchmarks/Fhourstones-3.1/fhourstones3.1, 0.7981, 0.7951, 0.7983,0.7981, 0.7966, 0.7951, 0.7951,0.7951,-0.37589274527001226
MultiSource/Benchmarks/MallocBench/gs/gs, 0.0233, 0.0234, 0.0234,0.0234, 0.0231, 0.0233, 0.0233,0.0233,-0.42735042735042583
MultiSource/Applications/siod/siod, 1.1073, 1.1030, 1.1052,1.1052, 1.1002, 1.0993, 1.1016,1.1002,-0.45240680419832424
SingleSource/Benchmarks/BenchmarkGame/recursive, 0.7078, 0.7126, 0.7045,0.7078, 0.7045, 0.7045, 0.7046,0.7045,-0.4662333992653256
SingleSource/Benchmarks/CoyoteBench/huffbench, 9.3780, 9.3792, 9.3790,9.379, 9.3345, 9.3344, 9.3342,9.3344,-0.4755304403454397
SingleSource/Benchmarks/Shootout-C++/ary3, 0.5382, 0.5332, 0.5360,0.536, 0.5347, 0.5297, 0.5333,0.5333,-0.5037313432835866
SingleSource/Benchmarks/Adobe-C++/stepanov_abstraction, 4.2296, 4.2305, 4.2298,4.2298, 4.2060, 4.2055, 4.2069,4.206,-0.5626743581256699
MultiSource/Benchmarks/mediabench/gsm/toast/toast, 0.0154, 0.0154, 0.0155,0.0154, 0.0154, 0.0153, 0.0153,0.0153,-0.6493506493506551
SingleSource/Benchmarks/Adobe-C++/functionobjects, 3.0280, 3.0251, 3.0278,3.0278, 3.0070, 3.0085, 3.0072,3.0072,-0.680361978994648
MultiSource/Benchmarks/TSVC/ControlFlow-flt/ControlFlow-flt, 3.4992, 3.4944, 3.4979,3.4979, 3.4731, 3.4663, 3.4698,3.4698,-0.8033391463449391
MultiSource/Applications/sqlite3/sqlite3, 1.8121, 1.8122, 1.8146,1.8122, 1.7950, 1.7929, 1.8031,1.795,-0.9491226133980901
SingleSource/Benchmarks/Adobe-C++/stepanov_vector, 2.2684, 2.2682, 2.2682,2.2682, 2.2395, 2.2412, 2.2391,2.2395,-1.2653205184728011
Total elapsed time,-,-,-,571.5158000000001,-,-,-,572.5894999999999,0.18786882182431075
Total failure,-,-,-,0,-,-,-,0,
Geom. avg slowdown,,,,,,,,,0.0287977875428%
