Benchmarks,base,base,base,base,base,median,intptr,intptr,intptr,intptr,intptr,median,Slowdown(%)
SingleSource/Benchmarks/CoyoteBench/almabench, 0.1040, 0.1014, 0.1015, 0.1013, 0.1043,0.1015, 0.1066, 0.1051, 0.1042, 0.1040, 0.1070,0.1051,3.5467980295566415
SingleSource/Benchmarks/Misc/flops-7, 0.0432, 0.0414, 0.0413, 0.0414, 0.0435,0.0414, 0.0418, 0.0420, 0.0413, 0.0419, 0.0442,0.0419,1.2077294685990392
SingleSource/Regression/C/uint64_to_float, 0.0633, 0.0567, 0.0569, 0.0570, 0.0877,0.057, 0.0599, 0.0573, 0.0569, 0.0575, 0.0880,0.0575,0.8771929824561431
SingleSource/Benchmarks/Shootout/hash, 0.0786, 0.0764, 0.0763, 0.0764, 0.0792,0.0764, 0.0765, 0.0770, 0.0767, 0.0770, 0.0795,0.077,0.7853403141361293
SingleSource/Benchmarks/Misc/flops-1, 0.0440, 0.0415, 0.0419, 0.0421, 0.0444,0.0421, 0.0425, 0.0421, 0.0424, 0.0421, 0.0444,0.0424,0.7125890736342066
SingleSource/Benchmarks/BenchmarkGame/spectral-norm, 0.0916, 0.0900, 0.0899, 0.0897, 0.0921,0.09, 0.0906, 0.0906, 0.0905, 0.0899, 0.0928,0.0906,0.6666666666666599
SingleSource/Benchmarks/Shootout-C++/ary, 0.2884, 0.2858, 0.2864, 0.2860, 0.2889,0.2864, 0.2882, 0.2879, 0.2883, 0.2883, 0.2905,0.2883,0.6634078212290451
SingleSource/Benchmarks/Stanford/Perm, 0.0485, 0.0467, 0.0465, 0.0464, 0.0494,0.0467, 0.0467, 0.0470, 0.0470, 0.0468, 0.0496,0.047,0.6423982869379063
SingleSource/Benchmarks/Shootout-C++/sieve, 0.3269, 0.3241, 0.3237, 0.3246, 0.3274,0.3246, 0.3263, 0.3262, 0.3265, 0.3260, 0.3285,0.3263,0.5237215033887743
SingleSource/Benchmarks/Shootout-C++/ary3, 0.2945, 0.2923, 0.2926, 0.2920, 0.2945,0.2926, 0.2936, 0.2950, 0.2934, 0.2941, 0.2969,0.2941,0.5126452494873313
SingleSource/Benchmarks/Dhrystone/dry, 0.0622, 0.0597, 0.0598, 0.0599, 0.0622,0.0599, 0.0598, 0.0597, 0.0602, 0.0603, 0.0628,0.0602,0.5008347245408995
MultiSource/Benchmarks/Trimaran/netbench-crc/netbench-crc, 0.1273, 0.1226, 0.1226, 0.1222, 0.1274,0.1226, 0.1232, 0.1233, 0.1231, 0.1225, 0.1294,0.1232,0.4893964110929794
SingleSource/Benchmarks/Misc/flops-4, 0.0447, 0.0421, 0.0423, 0.0424, 0.0445,0.0424, 0.0427, 0.0423, 0.0426, 0.0423, 0.0452,0.0426,0.4716981132075526
SingleSource/Benchmarks/Shootout-C++/fibo, 0.2165, 0.2138, 0.2139, 0.2143, 0.2171,0.2143, 0.2155, 0.2153, 0.2151, 0.2152, 0.2184,0.2153,0.46663555762949116
SingleSource/Benchmarks/Shootout-C++/moments, 0.5147, 0.4360, 0.4358, 0.4364, 0.5124,0.4364, 0.4383, 0.4387, 0.4378, 0.4375, 0.5155,0.4383,0.43538038496793163
SingleSource/Benchmarks/Polybench/medley/floyd-warshall/floyd-warshall, 0.1439, 0.1414, 0.1415, 0.1410, 0.1441,0.1415, 0.1418, 0.1414, 0.1421, 0.1421, 0.1448,0.1421,0.4240282685512575
MultiSource/Benchmarks/DOE-ProxyApps-C/XSBench/XSBench, 0.5866, 0.5741, 0.5747, 0.5731, 0.5892,0.5747, 0.5771, 0.5747, 0.5774, 0.5767, 0.5936,0.5771,0.4176091874021237
SingleSource/Benchmarks/Shootout-C++/objinst, 0.2594, 0.2586, 0.2581, 0.2578, 0.2603,0.2586, 0.2596, 0.2597, 0.2586, 0.2595, 0.2619,0.2596,0.3866976024748725
MultiSource/Benchmarks/TSVC/CrossingThresholds-flt/CrossingThresholds-flt, 3.6656, 3.6625, 3.6626, 3.6638, 3.6680,3.6638, 3.6787, 3.6769, 3.6760, 3.6776, 3.6872,3.6776,0.37665811452589626
SingleSource/Benchmarks/Misc/dt, 0.0554, 0.0527, 0.0532, 0.0534, 0.0555,0.0534, 0.0536, 0.0530, 0.0534, 0.0538, 0.0562,0.0536,0.3745318352059934
MultiSource/Benchmarks/Trimaran/enc-pc1/enc-pc1, 0.1096, 0.1066, 0.1068, 0.1069, 0.1092,0.1069, 0.1065, 0.1073, 0.1073, 0.1074, 0.1084,0.1073,0.374181478016844
SingleSource/Benchmarks/Shootout-C++/ackermann, 0.2181, 0.2172, 0.2165, 0.2172, 0.2204,0.2172, 0.2176, 0.2178, 0.2180, 0.2184, 0.2209,0.218,0.36832412523020164
SingleSource/Benchmarks/Misc/richards_benchmark, 0.0945, 0.0920, 0.0918, 0.0919, 0.0948,0.092, 0.0921, 0.0927, 0.0923, 0.0920, 0.0949,0.0923,0.3260869565217428
SingleSource/Benchmarks/Shootout-C++/nestedloop, 0.2177, 0.2155, 0.2152, 0.2159, 0.2184,0.2159, 0.2156, 0.2166, 0.2169, 0.2158, 0.2188,0.2166,0.3242241778601107
SingleSource/Benchmarks/Misc-C++-EH/spirit, 5.4502, 5.3988, 5.3950, 5.3971, 5.4302,5.3988, 5.4152, 5.4163, 5.4188, 5.4163, 5.4442,5.4163,0.3241461065421891
SingleSource/Benchmarks/Shootout/matrix, 0.1331, 0.1312, 0.1315, 0.1312, 0.1334,0.1315, 0.1320, 0.1318, 0.1315, 0.1319, 0.1344,0.1319,0.3041825095057016
MultiSource/Benchmarks/McCat/08-main/main, 0.3738, 0.3647, 0.3644, 0.3636, 0.3748,0.3647, 0.3659, 0.3658, 0.3651, 0.3658, 0.3769,0.3658,0.30161776802850593
SingleSource/Benchmarks/Shootout-C++/hash, 0.4755, 0.4733, 0.4727, 0.4727, 0.4753,0.4733, 0.4750, 0.4737, 0.4743, 0.4747, 0.4773,0.4747,0.2957954785548278
MultiSource/Benchmarks/TSVC/LoopRerolling-flt/LoopRerolling-flt, 3.5975, 3.5930, 3.5930, 3.5935, 3.5975,3.5935, 3.6045, 3.5579, 3.6026, 3.6035, 3.6103,3.6035,0.2782802281897867
SingleSource/Benchmarks/BenchmarkGame/recursive, 0.0386, 0.0365, 0.0363, 0.0363, 0.0382,0.0365, 0.0366, 0.0362, 0.0366, 0.0361, 0.0388,0.0366,0.273972602739736
MultiSource/Benchmarks/TSVC/Expansion-flt/Expansion-flt, 3.7587, 3.7577, 3.7555, 3.7590, 3.7615,3.7587, 3.7692, 3.7688, 3.7687, 3.7640, 3.7776,3.7688,0.26870992630430024
MultiSource/Benchmarks/TSVC/Searching-flt/Searching-flt, 3.5262, 3.5476, 3.5197, 3.5459, 3.5089,3.5262, 3.5301, 3.5557, 3.5353, 3.5311, 3.5634,3.5353,0.2580681753729275
MultiSource/Benchmarks/TSVC/Packing-flt/Packing-flt, 3.5738, 3.5552, 3.5710, 3.5707, 3.5745,3.571, 3.5802, 3.5771, 3.5779, 3.5808, 3.5856,3.5802,0.2576309157098722
MultiSource/Benchmarks/Prolangs-C++/ocean/ocean, 0.1631, 0.1584, 0.1588, 0.1586, 0.1631,0.1588, 0.1592, 0.1588, 0.1593, 0.1585, 0.1629,0.1592,0.25188916876575096
MultiSource/Benchmarks/McCat/04-bisect/bisect, 0.2090, 0.2027, 0.2029, 0.2027, 0.2103,0.2029, 0.2034, 0.2031, 0.2030, 0.2034, 0.2111,0.2034,0.2464268112370549
SingleSource/Benchmarks/McGill/misr, 0.0838, 0.0821, 0.0822, 0.0822, 0.0844,0.0822, 0.0824, 0.0821, 0.0822, 0.0824, 0.0852,0.0824,0.24330900243310083
MultiSource/Benchmarks/TSVC/GlobalDataFlow-flt/GlobalDataFlow-flt, 3.7440, 3.7420, 3.7395, 3.7411, 3.7444,3.742, 3.7514, 3.7177, 3.7506, 3.7511, 3.7581,3.7511,0.24318546231962834
SingleSource/Benchmarks/Misc/flops-3, 0.0437, 0.0418, 0.0417, 0.0418, 0.0439,0.0418, 0.0419, 0.0419, 0.0421, 0.0415, 0.0446,0.0419,0.23923444976077235
SingleSource/Benchmarks/Polybench/stencils/adi/adi, 0.1731, 0.1704, 0.1699, 0.1700, 0.1734,0.1704, 0.1699, 0.1708, 0.1706, 0.1710, 0.1739,0.1708,0.23474178403757318
MultiSource/Benchmarks/TSVC/IndirectAddressing-flt/IndirectAddressing-flt, 3.6370, 3.6345, 3.6362, 3.6359, 3.6364,3.6362, 3.6424, 3.6446, 3.6469, 3.6406, 3.6539,3.6446,0.2310103954678011
SingleSource/Benchmarks/Shootout-C++/methcall, 0.2319, 0.2299, 0.2309, 0.2304, 0.2319,0.2309, 0.2310, 0.2314, 0.2304, 0.2314, 0.2331,0.2314,0.2165439584235651
MultiSource/Applications/d/make_dparser, 4.1137, 4.0880, 4.0870, 4.0857, 4.1224,4.088, 4.0948, 4.0968, 4.0948, 4.0977, 4.1360,4.0968,0.21526418786692592
SingleSource/Benchmarks/Shootout-C++/random, 0.2360, 0.2338, 0.2338, 0.2342, 0.2376,0.2342, 0.2347, 0.2347, 0.2344, 0.2344, 0.2373,0.2347,0.2134927412468013
MultiSource/Benchmarks/TSVC/Symbolics-flt/Symbolics-flt, 3.6620, 3.6561, 3.6455, 3.6560, 3.6606,3.6561, 3.6652, 3.6636, 3.6475, 3.6480, 3.6703,3.6636,0.20513662098957663
SingleSource/Benchmarks/Shootout-C++/matrix, 0.3515, 0.3490, 0.3493, 0.3489, 0.3514,0.3493, 0.3500, 0.3501, 0.3498, 0.3500, 0.3533,0.35,0.2004008016031955
SingleSource/Benchmarks/Polybench/linear-algebra/kernels/mvt/mvt, 0.1525, 0.1499, 0.1495, 0.1504, 0.1531,0.1504, 0.1505, 0.1507, 0.1504, 0.1508, 0.1534,0.1507,0.19946808510638014
MultiSource/Benchmarks/TSVC/Equivalencing-flt/Equivalencing-flt, 3.6781, 3.6733, 3.6737, 3.6641, 3.6791,3.6737, 3.6813, 3.6804, 3.6805, 3.6802, 3.6838,3.6805,0.18509949097638145
SingleSource/Benchmarks/Polybench/linear-algebra/kernels/gemver/gemver, 0.1787, 0.1768, 0.1768, 0.1764, 0.1792,0.1768, 0.1766, 0.1768, 0.1771, 0.1772, 0.1806,0.1771,0.16968325791855143
MultiSource/Applications/SPASS/SPASS,19.7451,19.6086,19.6055,19.6028,19.7822,19.6086,19.6393,19.6381,19.6415,19.6415,19.8393,19.6415,0.16778352355599768
SingleSource/Benchmarks/Adobe-C++/simple_types_loop_invariant, 2.8864, 2.8844, 2.8827, 2.8841, 2.8877,2.8844, 2.8896, 2.8892, 2.8888, 2.8890, 2.8966,2.8892,0.16641242546111545
MultiSource/Benchmarks/MiBench/consumer-typeset/consumer-typeset,16.1611,16.0465,16.0378,16.0490,16.1868,16.049,16.0782,16.0748,16.0755,16.0746,16.2267,16.0755,0.165119322076146
SingleSource/Benchmarks/BenchmarkGame/n-body, 0.1259, 0.1232, 0.1235, 0.1234, 0.1260,0.1235, 0.1238, 0.1237, 0.1233, 0.1234, 0.1264,0.1237,0.16194331983805377
SingleSource/Benchmarks/Polybench/linear-algebra/kernels/doitgen/doitgen, 0.1883, 0.1857, 0.1854, 0.1856, 0.1890,0.1857, 0.1860, 0.1858, 0.1862, 0.1859, 0.1896,0.186,0.1615508885298933
MultiSource/Benchmarks/TSVC/InductionVariable-flt/InductionVariable-flt, 3.7047, 3.6994, 3.7011, 3.6994, 3.7053,3.7011, 3.7079, 3.7054, 3.7045, 3.7070, 3.7134,3.707,0.15941206668288466
SingleSource/Benchmarks/Shootout/heapsort, 0.0651, 0.0631, 0.0627, 0.0627, 0.0655,0.0631, 0.0632, 0.0631, 0.0634, 0.0630, 0.0661,0.0632,0.15847860538826808
SingleSource/Benchmarks/Polybench/stencils/seidel-2d/seidel-2d, 0.1289, 0.1269, 0.1270, 0.1270, 0.1296,0.127, 0.1271, 0.1272, 0.1269, 0.1277, 0.1301,0.1272,0.15748031496063408
MultiSource/Benchmarks/Olden/mst/mst, 0.1998, 0.1904, 0.1909, 0.1906, 0.1996,0.1909, 0.1919, 0.1911, 0.1910, 0.1912, 0.2014,0.1912,0.15715034049241794
MultiSource/Benchmarks/ASCI_Purple/SMG2000/smg2000,10.2204,10.1137,10.1136,10.1124,10.2513,10.1137,10.1314,10.1178,10.1231,10.1287,10.2849,10.1287,0.14831367353194125
MultiSource/Applications/ClamAV/clamscan,20.6648,20.4210,20.4304,20.4277,20.6698,20.4304,20.4527,20.4616,20.4547,20.4606,20.7356,20.4606,0.14781893648680988
SingleSource/Benchmarks/Polybench/linear-algebra/kernels/trmm/trmm, 0.1397, 0.1376, 0.1372, 0.1367, 0.1402,0.1376, 0.1379, 0.1378, 0.1371, 0.1376, 0.1411,0.1378,0.14534883720931369
MultiSource/Benchmarks/MiBench/security-sha/security-sha, 0.2130, 0.2090, 0.2087, 0.2087, 0.2135,0.209, 0.2093, 0.2094, 0.2090, 0.2091, 0.2154,0.2093,0.14354066985646785
SingleSource/Benchmarks/Polybench/linear-algebra/solvers/dynprog/dynprog, 0.1438, 0.1412, 0.1409, 0.1411, 0.1438,0.1412, 0.1405, 0.1417, 0.1408, 0.1414, 0.1443,0.1414,0.14164305949009304
MultiSource/Benchmarks/TSVC/ControlLoops-flt/ControlLoops-flt, 3.7649, 3.7483, 3.7634, 3.7609, 3.7660,3.7634, 3.7724, 3.7687, 3.7677, 3.7668, 3.7750,3.7687,0.14083010044110278
SingleSource/Benchmarks/McGill/queens, 0.0732, 0.0712, 0.0713, 0.0707, 0.0734,0.0713, 0.0717, 0.0714, 0.0708, 0.0711, 0.0736,0.0714,0.14025245441795509
SingleSource/Benchmarks/Misc/mandel, 0.0788, 0.0713, 0.0718, 0.0706, 0.0746,0.0718, 0.0741, 0.0719, 0.0715, 0.0714, 0.0744,0.0719,0.139275766016711
MultiSource/Applications/hexxagon/hexxagon, 1.2400, 1.2277, 1.2285, 1.2287, 1.2423,1.2287, 1.2295, 1.2296, 1.2304, 1.2306, 1.2461,1.2304,0.13835761373810485
MultiSource/Benchmarks/TSVC/LoopRestructuring-flt/LoopRestructuring-flt, 3.7084, 3.7065, 3.7054, 3.7049, 3.7090,3.7065, 3.7119, 3.7102, 3.7116, 3.7100, 3.7171,3.7116,0.137596114933225
MultiSource/Benchmarks/FreeBench/mason/mason, 0.0763, 0.0738, 0.0739, 0.0740, 0.0768,0.074, 0.0738, 0.0742, 0.0739, 0.0741, 0.0772,0.0741,0.13513513513514486
MultiSource/Benchmarks/ASC_Sequoia/AMGmk/AMGmk, 0.9438, 0.9285, 0.9273, 0.9285, 0.9475,0.9285, 0.9282, 0.9283, 0.9298, 0.9297, 0.9509,0.9297,0.12924071082389688
MultiSource/Benchmarks/tramp3d-v4/tramp3d-v4,30.4263,30.3578,30.4017,30.3830,30.4319,30.4017,30.4403,30.4542,30.4281,30.4246,30.4563,30.4403,0.12696658410549233
MultiSource/Benchmarks/Trimaran/enc-rc4/enc-rc4, 0.0812, 0.0785, 0.0788, 0.0788, 0.0815,0.0788, 0.0794, 0.0785, 0.0789, 0.0788, 0.0819,0.0789,0.12690355329949554
MultiSource/Benchmarks/Olden/bh/bh, 0.4112, 0.4021, 0.4018, 0.4027, 0.4128,0.4027, 0.4035, 0.4032, 0.4025, 0.4026, 0.4132,0.4032,0.12416190712689623
MultiSource/Benchmarks/TSVC/ControlFlow-flt/ControlFlow-flt, 3.9390, 3.9359, 3.8884, 3.9363, 3.9405,3.9363, 3.9418, 3.9411, 3.9407, 3.9392, 3.9485,3.9411,0.12194192515813107
SingleSource/Benchmarks/Misc-C++/stepanov_container, 1.1494, 1.0763, 1.0749, 1.0762, 1.1204,1.0763, 1.0770, 1.0776, 1.0777, 1.0773, 1.1489,1.0776,0.12078416798289027
SingleSource/Benchmarks/Shootout-C++/lists1, 0.3478, 0.3457, 0.3453, 0.3459, 0.3477,0.3459, 0.3463, 0.3463, 0.3461, 0.3466, 0.3491,0.3463,0.1156403584851251
SingleSource/Benchmarks/McGill/chomp, 0.2743, 0.2715, 0.2713, 0.2717, 0.2742,0.2717, 0.2718, 0.2718, 0.2720, 0.2722, 0.2751,0.272,0.11041589988958211
MultiSource/Benchmarks/MiBench/consumer-lame/consumer-lame, 7.0207, 6.9408, 6.9391, 6.9410, 7.0279,6.941, 6.9470, 6.9432, 6.9482, 6.9485, 7.0467,6.9482,0.10373145079960455
MultiSource/Applications/spiff/spiff, 1.1678, 1.1299, 1.1309, 1.1310, 1.1707,1.131, 1.1316, 1.1321, 1.1323, 1.1318, 1.1780,1.1321,0.09725906277631147
MultiSource/Benchmarks/TSVC/Symbolics-dbl/Symbolics-dbl, 4.0158, 4.0265, 4.0094, 4.0190, 4.0284,4.019, 4.0248, 4.0229, 4.0229, 4.0216, 4.0043,4.0229,0.09703906444389343
MultiSource/Benchmarks/Prolangs-C++/city/city, 1.6716, 1.6511, 1.6527, 1.6514, 1.6737,1.6527, 1.6543, 1.6539, 1.6542, 1.6550, 1.6796,1.6543,0.09681127851395299
SingleSource/Benchmarks/Polybench/stencils/jacobi-2d-imper/jacobi-2d-imper, 0.2143, 0.2122, 0.2119, 0.2120, 0.2152,0.2122, 0.2124, 0.2125, 0.2123, 0.2122, 0.2161,0.2124,0.09425070688029447
MultiSource/Benchmarks/McCat/18-imp/imp, 0.5403, 0.5314, 0.5309, 0.5320, 0.5426,0.532, 0.5325, 0.5326, 0.5321, 0.5322, 0.5444,0.5325,0.09398496240600185
MultiSource/Benchmarks/TSVC/NodeSplitting-flt/NodeSplitting-flt, 3.6426, 3.6377, 3.6408, 3.6387, 3.6447,3.6408, 3.6453, 3.6441, 3.6428, 3.6435, 3.6525,3.6441,0.09063941990770097
SingleSource/Benchmarks/Polybench/linear-algebra/kernels/trisolv/trisolv, 0.1164, 0.1141, 0.1139, 0.1140, 0.1164,0.1141, 0.1137, 0.1144, 0.1138, 0.1142, 0.1175,0.1142,0.08764241893075564
MultiSource/Benchmarks/MallocBench/espresso/espresso, 8.0457, 7.9519, 7.9536, 7.9514, 8.0607,7.9536, 7.9632, 7.9605, 7.9584, 7.9586, 8.0796,7.9605,0.08675316837658542
SingleSource/Benchmarks/Polybench/stencils/fdtd-apml/fdtd-apml, 0.2496, 0.2470, 0.2463, 0.2465, 0.2493,0.247, 0.2472, 0.2469, 0.2472, 0.2472, 0.2505,0.2472,0.08097165991902688
SingleSource/Benchmarks/Misc-C++/Large/sphereflake, 0.3777, 0.3759, 0.3759, 0.3759, 0.3783,0.3759, 0.3756, 0.3762, 0.3758, 0.3771, 0.3797,0.3762,0.07980845969672856
SingleSource/Benchmarks/Shootout-C++/hash2, 0.5447, 0.5289, 0.5301, 0.5286, 0.5440,0.5301, 0.5305, 0.5305, 0.5300, 0.5313, 0.5473,0.5305,0.07545746085644289
SingleSource/Benchmarks/Polybench/linear-algebra/kernels/symm/symm, 0.1437, 0.1406, 0.1405, 0.1404, 0.1435,0.1406, 0.1405, 0.1407, 0.1407, 0.1405, 0.1445,0.1407,0.07112375533426807
SingleSource/Benchmarks/Polybench/linear-algebra/kernels/bicg/bicg, 0.1438, 0.1414, 0.1416, 0.1409, 0.1444,0.1416, 0.1420, 0.1417, 0.1417, 0.1413, 0.1451,0.1417,0.07062146892653498
SingleSource/Benchmarks/Polybench/linear-algebra/kernels/syr2k/syr2k, 0.1477, 0.1452, 0.1455, 0.1447, 0.1479,0.1455, 0.1455, 0.1450, 0.1456, 0.1459, 0.1486,0.1456,0.06872852233679172
SingleSource/Benchmarks/Misc-C++/bigfib, 0.7416, 0.7393, 0.7387, 0.7382, 0.7422,0.7393, 0.7410, 0.7390, 0.7388, 0.7398, 0.7562,0.7398,0.06763154335183152
MultiSource/Benchmarks/Prolangs-C/agrep/agrep, 2.1330, 2.1022, 2.1043, 2.1051, 2.1360,2.1051, 2.1053, 2.1061, 2.1065, 2.1074, 2.1428,2.1065,0.06650515414943214
MultiSource/Benchmarks/mediabench/mpeg2/mpeg2dec/mpeg2decode, 2.1505, 2.1127, 2.1137, 2.1127, 2.1519,2.1137, 2.1142, 2.1141, 2.1153, 2.1151, 2.1563,2.1151,0.06623456498082714
MultiSource/Applications/JM/lencod/lencod,24.7719,24.6374,24.6383,24.6243,24.7879,24.6383,24.6516,24.6539,24.6546,24.6568,24.8474,24.6546,0.0661571618171708
MultiSource/Benchmarks/mafft/pairlocalalign,15.2789,15.2150,15.2129,15.2142,15.2877,15.215,15.2276,15.2184,15.2213,15.2245,15.3214,15.2245,0.06243838317450123
MultiSource/Benchmarks/TSVC/Recurrences-flt/Recurrences-flt, 3.5780, 3.5738, 3.5752, 3.5413, 3.5787,3.5752, 3.5787, 3.5774, 3.5764, 3.5785, 3.5631,3.5774,0.06153501901990932
SingleSource/Benchmarks/Polybench/datamining/covariance/covariance, 0.1665, 0.1640, 0.1642, 0.1645, 0.1666,0.1645, 0.1646, 0.1648, 0.1644, 0.1646, 0.1676,0.1646,0.06079027355623268
MultiSource/Benchmarks/TSVC/Reductions-flt/Reductions-flt, 3.7668, 3.7638, 3.7628, 3.7607, 3.7679,3.7638, 3.7674, 3.7639, 3.7657, 3.7660, 3.7750,3.766,0.05845156490780212
MultiSource/Applications/obsequi/Obsequi, 1.6296, 1.6006, 1.6017, 1.6009, 1.6337,1.6017, 1.6021, 1.6026, 1.6010, 1.6037, 1.6410,1.6026,0.05619029780858931
MultiSource/Benchmarks/ASC_Sequoia/CrystalMk/CrystalMk, 0.3793, 0.3679, 0.3678, 0.3681, 0.3811,0.3681, 0.3678, 0.3683, 0.3667, 0.3691, 0.3851,0.3683,0.05433306166804375
SingleSource/Benchmarks/Polybench/linear-algebra/kernels/cholesky/cholesky, 0.1905, 0.1884, 0.1878, 0.1876, 0.1912,0.1884, 0.1885, 0.1881, 0.1880, 0.1885, 0.1916,0.1885,0.053078556263264076
MultiSource/Benchmarks/mediabench/gsm/toast/toast, 1.7764, 1.7272, 1.7301, 1.7292, 1.7816,1.7301, 1.7319, 1.7302, 1.7310, 1.7289, 1.7954,1.731,0.05202011444425114
MultiSource/Benchmarks/Ptrdist/ks/ks, 0.2201, 0.2152, 0.2155, 0.2155, 0.2218,0.2155, 0.2160, 0.2156, 0.2153, 0.2148, 0.2216,0.2156,0.046403712296982924
MultiSource/Benchmarks/TSVC/StatementReordering-flt/StatementReordering-flt, 3.5835, 3.5799, 3.5799, 3.5800, 3.5864,3.58, 3.5816, 3.5795, 3.5819, 3.5811, 3.5879,3.5816,0.04469273743015201
MultiSource/Benchmarks/MiBench/telecomm-FFT/telecomm-fft, 0.2319, 0.2273, 0.2278, 0.2274, 0.2348,0.2278, 0.2277, 0.2279, 0.2273, 0.2283, 0.2361,0.2279,0.04389815627743321
SingleSource/Benchmarks/Shootout-C++/EH/except, 0.2386, 0.2364, 0.2354, 0.2356, 0.2395,0.2364, 0.2368, 0.2363, 0.2360, 0.2365, 0.2508,0.2365,0.04230118443315778
MultiSource/Applications/lambda-0.1.3/lambda, 0.8322, 0.8232, 0.8222, 0.8231, 0.8335,0.8232, 0.8229, 0.8238, 0.8229, 0.8235, 0.8359,0.8235,0.03644314868804788
MultiSource/Benchmarks/SciMark2-C/scimark2, 0.6015, 0.5757, 0.5761, 0.5762, 0.6009,0.5762, 0.5766, 0.5760, 0.5757, 0.5764, 0.6055,0.5764,0.03471017007983246
SingleSource/Benchmarks/Shootout-C++/lists, 0.3065, 0.2907, 0.2899, 0.2898, 0.2935,0.2907, 0.2903, 0.2907, 0.2911, 0.2908, 0.2951,0.2908,0.03439972480219211
MultiSource/Applications/sqlite3/sqlite3,20.1198,20.1227,20.1189,19.8849,20.0097,20.1189,20.1265,20.1258,20.1255,20.0664,20.1505,20.1258,0.03429610962826235
MultiSource/Applications/JM/ldecod/ldecod,10.6618,10.5465,10.5324,10.5409,10.6809,10.5465,10.5405,10.5501,10.5488,10.5530,10.6870,10.5501,0.03413454700611496
MultiSource/Applications/sgefa/sgefa, 0.6268, 0.6178, 0.6168, 0.6178, 0.6280,0.6178, 0.6170, 0.6180, 0.6176, 0.6181, 0.6297,0.618,0.03237293622531112
SingleSource/Benchmarks/Adobe-C++/loop_unroll, 7.4999, 7.5546, 7.5497, 7.5526, 7.5521,7.5521, 7.5540, 7.5516, 7.5553, 7.5542, 7.5624,7.5542,0.02780683518490701
MultiSource/Benchmarks/Ptrdist/bc/bc, 1.6275, 1.6067, 1.6065, 1.6058, 1.6305,1.6067, 1.6073, 1.6065, 1.6069, 1.6071, 1.6338,1.6071,0.024895749050846128
MultiSource/Applications/oggenc/oggenc, 7.8070, 7.8007, 7.8001, 7.7774, 7.8104,7.8007, 7.8022, 7.8023, 7.8026, 7.8031, 7.8227,7.8026,0.024356788493351544
MultiSource/Benchmarks/MiBench/consumer-jpeg/consumer-jpeg, 6.9938, 6.8780, 6.8842, 6.8801, 7.0140,6.8842, 6.8902, 6.8818, 6.8858, 6.8797, 7.0339,6.8858,0.02324162575171318
MultiSource/Benchmarks/Prolangs-C/bison/mybison, 2.5015, 2.4640, 2.4649, 2.4622, 2.5101,2.4649, 2.4653, 2.4640, 2.4656, 2.4645, 2.5139,2.4653,0.01622783885755208
MultiSource/Benchmarks/TSVC/InductionVariable-dbl/InductionVariable-dbl, 4.0722, 4.0653, 4.0660, 4.0470, 4.0735,4.066, 4.0669, 4.0468, 4.0665, 4.0674, 4.0580,4.0665,0.012297097884883534
SingleSource/Benchmarks/Shootout/nestedloop, 0.0372, 0.0353, 0.0348, 0.0352, 0.0374,0.0353, 0.0349, 0.0353, 0.0351, 0.0354, 0.0373,0.0353,0.0
SingleSource/Benchmarks/Polybench/stencils/fdtd-2d/fdtd-2d, 0.2719, 0.2696, 0.2696, 0.2690, 0.2724,0.2696, 0.2695, 0.2702, 0.2696, 0.2692, 0.2729,0.2696,0.0
SingleSource/Benchmarks/Polybench/linear-algebra/kernels/atax/atax, 0.1483, 0.1460, 0.1458, 0.1456, 0.1486,0.146, 0.1456, 0.1460, 0.1456, 0.1464, 0.1489,0.146,0.0
SingleSource/Benchmarks/Polybench/datamining/correlation/correlation, 0.1419, 0.1391, 0.1391, 0.1383, 0.1425,0.1391, 0.1391, 0.1391, 0.1389, 0.1388, 0.1432,0.1391,0.0
SingleSource/Benchmarks/Misc/salsa20, 0.0921, 0.0894, 0.0894, 0.0899, 0.0923,0.0899, 0.0899, 0.0902, 0.0899, 0.0896, 0.0921,0.0899,0.0
SingleSource/Benchmarks/Misc/flops-8, 0.0451, 0.0426, 0.0431, 0.0426, 0.0452,0.0431, 0.0429, 0.0431, 0.0430, 0.0434, 0.0455,0.0431,0.0
SingleSource/Benchmarks/Misc/flops-6, 0.0455, 0.0435, 0.0434, 0.0437, 0.0460,0.0437, 0.0437, 0.0437, 0.0441, 0.0436, 0.0463,0.0437,0.0
SingleSource/Benchmarks/Misc/flops-2, 0.0468, 0.0444, 0.0446, 0.0448, 0.0465,0.0448, 0.0448, 0.0444, 0.0446, 0.0449, 0.0475,0.0448,0.0
SingleSource/Benchmarks/Misc/fbench, 0.0888, 0.0861, 0.0872, 0.0869, 0.0892,0.0872, 0.0866, 0.0873, 0.0868, 0.0872, 0.0897,0.0872,0.0
SingleSource/Benchmarks/Misc/ReedSolomon, 0.3576, 0.3555, 0.3556, 0.3555, 0.3582,0.3556, 0.3554, 0.3555, 0.3556, 0.3559, 0.3582,0.3556,0.0
SingleSource/Benchmarks/BenchmarkGame/nsieve-bits, 0.0520, 0.0505, 0.0500, 0.0503, 0.0527,0.0505, 0.0507, 0.0505, 0.0505, 0.0503, 0.0524,0.0505,0.0
SingleSource/Benchmarks/BenchmarkGame/Large/fasta, 0.0685, 0.0665, 0.0661, 0.0662, 0.0687,0.0665, 0.0665, 0.0665, 0.0664, 0.0665, 0.0694,0.0665,0.0
MultiSource/Benchmarks/mediabench/g721/g721encode/encode, 0.2971, 0.2843, 0.2844, 0.2842, 0.2980,0.2844, 0.2844, 0.2840, 0.2853, 0.2837, 0.2992,0.2844,0.0
MultiSource/Benchmarks/Trimaran/enc-md5/enc-md5, 0.2831, 0.2814, 0.2810, 0.2804, 0.2834,0.2814, 0.2814, 0.2811, 0.2815, 0.2809, 0.2841,0.2814,0.0
MultiSource/Benchmarks/Trimaran/enc-3des/enc-3des, 0.4446, 0.4421, 0.4421, 0.4415, 0.4441,0.4421, 0.4420, 0.4419, 0.4421, 0.4424, 0.4443,0.4421,0.0
MultiSource/Benchmarks/Olden/treeadd/treeadd, 0.0809, 0.0737, 0.0735, 0.0738, 0.0804,0.0738, 0.0738, 0.0738, 0.0741, 0.0733, 0.0813,0.0738,0.0
MultiSource/Benchmarks/Olden/health/health, 0.2166, 0.2073, 0.2077, 0.2083, 0.2180,0.2083, 0.2083, 0.2072, 0.2082, 0.2084, 0.2196,0.2083,0.0
MultiSource/Benchmarks/McCat/05-eks/eks, 0.9696, 0.9533, 0.9517, 0.9522, 0.9712,0.9533, 0.9543, 0.9527, 0.9526, 0.9533, 0.9755,0.9533,0.0
MultiSource/Benchmarks/Fhourstones-3.1/fhourstones3.1, 0.2061, 0.2036, 0.2029, 0.2029, 0.2059,0.2036, 0.2033, 0.2032, 0.2036, 0.2036, 0.2071,0.2036,0.0
MultiSource/Benchmarks/BitBench/uuencode/uuencode, 0.0690, 0.0666, 0.0673, 0.0672, 0.0699,0.0673, 0.0672, 0.0675, 0.0670, 0.0673, 0.0701,0.0673,0.0
MultiSource/Benchmarks/TSVC/Packing-dbl/Packing-dbl, 3.9436, 3.9366, 3.9338, 3.9381, 3.9407,3.9381, 3.9371, 3.9382, 3.9379, 3.9352, 3.9475,3.9379,-0.005078591198803828
MultiSource/Benchmarks/mediabench/jpeg/jpeg-6a/cjpeg, 7.0373, 6.9184, 6.9225, 6.9215, 7.0566,6.9225, 6.9225, 6.9204, 6.9209, 6.9220, 7.0705,6.922,-0.007222824124242244
MultiSource/Benchmarks/TSVC/LoopRerolling-dbl/LoopRerolling-dbl, 3.9692, 3.9628, 3.9619, 3.9635, 3.9653,3.9635, 3.9632, 3.9413, 3.9604, 3.9636, 3.9699,3.9632,-0.007569067743151692
SingleSource/Benchmarks/Adobe-C++/simple_types_constant_folding, 3.6315, 3.6307, 3.6289, 3.6285, 3.6328,3.6307, 3.6299, 3.6301, 3.6314, 3.6051, 3.6373,3.6301,-0.016525738838235604
MultiSource/Benchmarks/TSVC/LoopRestructuring-dbl/LoopRestructuring-dbl, 4.0764, 4.0319, 4.0672, 4.0688, 4.0718,4.0688, 4.0623, 4.0680, 4.0726, 4.0636, 4.0761,4.068,-0.01966181675189249
MultiSource/Benchmarks/McCat/09-vor/vor, 0.4182, 0.4055, 0.4044, 0.4058, 0.4198,0.4058, 0.4044, 0.4055, 0.4057, 0.4058, 0.4209,0.4057,-0.02464268112369883
MultiSource/Benchmarks/nbench/nbench, 1.9631, 1.9503, 1.9497, 1.9495, 1.9638,1.9503, 1.9468, 1.9498, 1.9497, 1.9507, 1.9675,1.9498,-0.025637081474638723
MultiSource/Benchmarks/Bullet/bullet,38.5330,38.1924,38.1953,38.1937,38.5448,38.1953,38.1854,38.1681,38.1720,38.1847,38.6371,38.1847,-0.02775210562556696
MultiSource/Benchmarks/VersaBench/ecbdes/ecbdes, 0.3683, 0.3591, 0.3593, 0.3585, 0.3697,0.3593, 0.3592, 0.3588, 0.3603, 0.3592, 0.3718,0.3592,-0.027831895352070646
MultiSource/Applications/kimwitu++/kc,18.1389,18.0203,18.0213,18.0192,18.1628,18.0213,18.0266,18.0149,18.0159,18.0161,18.1753,18.0161,-0.028854744108353092
MultiSource/Benchmarks/MiBench/telecomm-gsm/telecomm-gsm, 1.7777, 1.7319, 1.7308, 1.7322, 1.7849,1.7322, 1.7337, 1.7317, 1.7307, 1.7311, 1.7921,1.7317,-0.028865027133118115
MultiSource/Benchmarks/MallocBench/gs/gs, 5.6814, 5.5354, 5.5394, 5.5360, 5.6935,5.5394, 5.5377, 5.5345, 5.5353, 5.5406, 5.7115,5.5377,-0.030689244322479325
MultiSource/Benchmarks/TSVC/Equivalencing-dbl/Equivalencing-dbl, 4.0469, 4.0461, 4.0415, 4.0406, 4.0410,4.0415, 4.0402, 3.9925, 4.0370, 4.0410, 4.0491,4.0402,-0.03216627489794899
SingleSource/Benchmarks/Adobe-C++/functionobjects, 0.7591, 0.7567, 0.7561, 0.7566, 0.7602,0.7567, 0.7558, 0.7564, 0.7569, 0.7562, 0.7608,0.7564,-0.03964583058015947
MultiSource/Benchmarks/MiBench/security-rijndael/security-rijndael, 0.7014, 0.6964, 0.6971, 0.6971, 0.7018,0.6971, 0.6968, 0.6968, 0.6966, 0.6959, 0.7027,0.6968,-0.04303543250611108
MultiSource/Benchmarks/MiBench/automotive-basicmath/automotive-basicmath, 0.2385, 0.2313, 0.2298, 0.2303, 0.2413,0.2313, 0.2307, 0.2312, 0.2315, 0.2305, 0.2429,0.2312,-0.043233895373984144
SingleSource/Benchmarks/Polybench/linear-algebra/solvers/gramschmidt/gramschmidt, 0.2089, 0.2056, 0.2062, 0.2063, 0.2089,0.2063, 0.2057, 0.2062, 0.2063, 0.2060, 0.2101,0.2062,-0.04847309743093442
SingleSource/Benchmarks/Misc/oourafft, 0.4019, 0.3840, 0.3841, 0.3838, 0.3973,0.3841, 0.3839, 0.3834, 0.3840, 0.3839, 0.3877,0.3839,-0.05206977349647701
SingleSource/Benchmarks/Stanford/Puzzle, 0.1875, 0.1856, 0.1860, 0.1853, 0.1880,0.186, 0.1858, 0.1859, 0.1859, 0.1851, 0.1882,0.1859,-0.053763440860210565
MultiSource/Benchmarks/TSVC/ControlFlow-dbl/ControlFlow-dbl, 4.3127, 4.3071, 4.3062, 4.2829, 4.3093,4.3071, 4.3047, 4.3037, 4.3061, 4.3072, 4.2750,4.3047,-0.055721947482056944
MultiSource/Benchmarks/TSVC/Expansion-dbl/Expansion-dbl, 4.1370, 4.1164, 4.1278, 4.1290, 4.1308,4.129, 4.1253, 4.1238, 4.1276, 4.1266, 4.1327,4.1266,-0.05812545410510683
SingleSource/Benchmarks/Polybench/linear-algebra/solvers/lu/lu, 0.1706, 0.1702, 0.1704, 0.1707, 0.1733,0.1706, 0.1705, 0.1700, 0.1711, 0.1705, 0.1737,0.1705,-0.05861664712777381
MultiSource/Benchmarks/MallocBench/cfrac/cfrac, 1.2949, 1.2329, 1.2372, 1.2370, 1.2993,1.2372, 1.2364, 1.2339, 1.2358, 1.2386, 1.3051,1.2364,-0.06466214031685125
MultiSource/Applications/aha/aha, 0.1533, 0.1482, 0.1485, 0.1486, 0.1526,0.1486, 0.1481, 0.1491, 0.1481, 0.1485, 0.1535,0.1485,-0.06729475100942794
MultiSource/Benchmarks/TSVC/ControlLoops-dbl/ControlLoops-dbl, 4.0853, 4.1323, 4.0833, 4.1318, 4.1348,4.1318, 4.1277, 4.1263, 4.1299, 4.1290, 4.1386,4.129,-0.06776707488262979
MultiSource/Benchmarks/TSVC/Searching-dbl/Searching-dbl, 3.9061, 3.9132, 3.9001, 3.9140, 3.9145,3.9132, 3.9106, 3.9105, 3.9102, 3.9116, 3.8893,3.9105,-0.0689972401103911
SingleSource/Benchmarks/Polybench/linear-algebra/kernels/syrk/syrk, 0.1451, 0.1434, 0.1441, 0.1429, 0.1470,0.1441, 0.1440, 0.1443, 0.1435, 0.1435, 0.1473,0.144,-0.0693962526023717
MultiSource/Applications/minisat/minisat, 0.9773, 0.9706, 0.9712, 0.9710, 0.9882,0.9712, 0.9705, 0.9697, 0.9713, 0.9700, 0.9910,0.9705,-0.07207578253706215
MultiSource/Benchmarks/MiBench/automotive-bitcount/automotive-bitcount, 0.4103, 0.3911, 0.3919, 0.3920, 0.4141,0.392, 0.3907, 0.3917, 0.3918, 0.3907, 0.4164,0.3917,-0.0765306122449072
MultiSource/Applications/ALAC/encode/alacconvert-encode, 1.5825, 1.5548, 1.5555, 1.5570, 1.5858,1.557, 1.5549, 1.5555, 1.5558, 1.5580, 1.5896,1.5558,-0.07707129094411957
MultiSource/Benchmarks/FreeBench/analyzer/analyzer, 0.3926, 0.3804, 0.3815, 0.3803, 0.3929,0.3815, 0.3816, 0.3801, 0.3805, 0.3812, 0.3953,0.3812,-0.07863695937091464
SingleSource/Benchmarks/Shootout-C++/strcat, 0.2324, 0.2316, 0.2313, 0.2311, 0.2329,0.2316, 0.2311, 0.2314, 0.2314, 0.2323, 0.2342,0.2314,-0.08635578583765513
MultiSource/Benchmarks/sim/sim, 0.4651, 0.4628, 0.4623, 0.4623, 0.4655,0.4628, 0.4624, 0.4624, 0.4627, 0.4617, 0.4657,0.4624,-0.08643042350907626
SingleSource/Benchmarks/Shootout/lists, 0.1162, 0.1141, 0.1138, 0.1137, 0.1164,0.1141, 0.1137, 0.1140, 0.1140, 0.1140, 0.1165,0.114,-0.08764241893075564
SingleSource/Benchmarks/Misc/whetstone, 0.1159, 0.1138, 0.1136, 0.1134, 0.1164,0.1138, 0.1141, 0.1135, 0.1137, 0.1137, 0.1168,0.1137,-0.08787346221441616
MultiSource/Benchmarks/TSVC/IndirectAddressing-dbl/IndirectAddressing-dbl, 3.9978, 4.0131, 3.9933, 4.0108, 4.0157,4.0108, 4.0062, 4.0074, 4.0072, 4.0042, 4.0155,4.0072,-0.08975765433328897
SingleSource/Benchmarks/Stanford/Oscar, 0.1046, 0.1024, 0.1021, 0.1026, 0.1047,0.1026, 0.1027, 0.1020, 0.1023, 0.1025, 0.1046,0.1025,-0.09746588693957392
MultiSource/Benchmarks/TSVC/Reductions-dbl/Reductions-dbl, 4.1378, 4.1313, 4.1290, 4.1308, 4.1342,4.1313, 4.1272, 4.1107, 4.1301, 4.1265, 4.1353,4.1272,-0.09924236923003482
MultiSource/Benchmarks/Ptrdist/yacr2/yacr2, 0.9862, 0.9691, 0.9709, 0.9692, 0.9875,0.9709, 0.9699, 0.9690, 0.9701, 0.9695, 0.9912,0.9699,-0.10299721907508497
MultiSource/Benchmarks/Olden/power/power, 0.1984, 0.1919, 0.1922, 0.1920, 0.1994,0.1922, 0.1922, 0.1920, 0.1913, 0.1920, 0.2003,0.192,-0.10405827263267886
MultiSource/Benchmarks/FreeBench/neural/neural, 0.2890, 0.2866, 0.2872, 0.2863, 0.2893,0.2872, 0.2867, 0.2874, 0.2867, 0.2869, 0.2898,0.2869,-0.10445682451254434
SingleSource/Benchmarks/Misc-C++/Large/ray, 0.3922, 0.3720, 0.3724, 0.3728, 0.3964,0.3728, 0.3719, 0.3724, 0.3718, 0.3724, 0.3884,0.3724,-0.10729613733906351
MultiSource/Benchmarks/7zip/7zip-benchmark,56.6348,56.0778,56.0787,56.0894,56.6327,56.0894,56.0434,56.0135,56.0214,56.0273,56.7692,56.0273,-0.11071610678666799
SingleSource/Benchmarks/CoyoteBench/fftbench, 0.8695, 0.5364, 0.5363, 0.5374, 0.8939,0.5374, 0.5366, 0.5368, 0.5368, 0.5363, 0.9422,0.5368,-0.11164867882395013
MultiSource/Benchmarks/Olden/bisort/bisort, 0.0940, 0.0890, 0.0887, 0.0883, 0.0936,0.089, 0.0892, 0.0884, 0.0889, 0.0886, 0.0940,0.0889,-0.11235955056178026
MultiSource/Applications/SIBsim4/SIBsim4, 2.0206, 2.0105, 2.0102, 2.0118, 2.0215,2.0118, 2.0090, 2.0094, 2.0105, 2.0095, 2.0233,2.0095,-0.11432547966994111
SingleSource/Benchmarks/Shootout-C++/heapsort, 0.2501, 0.2483, 0.2481, 0.2481, 0.2499,0.2483, 0.2486, 0.2480, 0.2480, 0.2480, 0.2508,0.248,-0.1208215867901763
MultiSource/Benchmarks/TSVC/Recurrences-dbl/Recurrences-dbl, 3.9478, 3.9430, 3.9426, 3.9307, 3.9454,3.943, 3.9388, 3.9382, 3.9412, 3.9376, 3.9224,3.9382,-0.12173471975652772
MultiSource/Benchmarks/FreeBench/pifft/pifft, 1.7186, 1.7132, 1.7134, 1.7140, 1.7188,1.714, 1.7113, 1.7113, 1.7123, 1.7119, 1.7197,1.7119,-0.12252042007001585
MultiSource/Benchmarks/Trimaran/netbench-url/netbench-url, 0.3289, 0.3187, 0.3204, 0.3198, 0.3306,0.3204, 0.3197, 0.3201, 0.3200, 0.3200, 0.3324,0.32,-0.12484394506866447
MultiSource/Applications/lua/lua, 5.0137, 4.9447, 4.9455, 4.9461, 5.0253,4.9461, 4.9380, 4.9422, 4.9399, 4.9393, 5.0261,4.9399,-0.1253512868724993
MultiSource/Benchmarks/VersaBench/beamformer/beamformer, 0.6144, 0.6125, 0.6139, 0.6123, 0.6144,0.6139, 0.6128, 0.6125, 0.6131, 0.6131, 0.6166,0.6131,-0.13031438345008084
MultiSource/Benchmarks/TSVC/NodeSplitting-dbl/NodeSplitting-dbl, 4.0063, 3.9711, 4.0032, 4.0028, 4.0031,4.0031, 3.9994, 3.9973, 3.9961, 3.9978, 4.0063,3.9978,-0.1323973920211885
MultiSource/Benchmarks/VersaBench/dbms/dbms, 1.4273, 1.3363, 1.3386, 1.3370, 1.4342,1.3386, 1.3377, 1.3362, 1.3355, 1.3368, 1.4431,1.3368,-0.13446884805020654
SingleSource/Benchmarks/Misc/perlin, 0.0746, 0.0727, 0.0720, 0.0725, 0.0745,0.0727, 0.0726, 0.0726, 0.0724, 0.0718, 0.0752,0.0726,-0.13755158184319827
MultiSource/Applications/ALAC/decode/alacconvert-decode, 1.5839, 1.5548, 1.5572, 1.5565, 1.5850,1.5572, 1.5549, 1.5555, 1.5550, 1.5550, 1.5896,1.555,-0.14127921911122332
MultiSource/Benchmarks/McCat/01-qbsort/qbsort, 0.1465, 0.1407, 0.1408, 0.1412, 0.1484,0.1412, 0.1410, 0.1408, 0.1408, 0.1414, 0.1488,0.141,-0.14164305949009304
SingleSource/Benchmarks/Stanford/Towers, 0.0718, 0.0694, 0.0693, 0.0699, 0.0720,0.0699, 0.0696, 0.0698, 0.0697, 0.0699, 0.0724,0.0698,-0.14306151645208098
MultiSource/Benchmarks/PAQ8p/paq8p, 3.4358, 3.4316, 3.4320, 3.4032, 3.4271,3.4316, 3.4268, 3.4264, 3.4264, 3.4259, 3.4344,3.4264,-0.15153281268213137
SingleSource/Benchmarks/Misc/ffbench, 0.1303, 0.1280, 0.1282, 0.1285, 0.1307,0.1285, 0.1283, 0.1282, 0.1286, 0.1282, 0.1315,0.1283,-0.15564202334630295
MultiSource/Benchmarks/MiBench/network-patricia/network-patricia, 0.1302, 0.1256, 0.1262, 0.1255, 0.1304,0.1262, 0.1260, 0.1255, 0.1269, 0.1254, 0.1316,0.126,-0.15847860538827918
MultiSource/Benchmarks/Fhourstones/fhourstones, 0.2538, 0.2453, 0.2448, 0.2452, 0.2546,0.2453, 0.2449, 0.2456, 0.2445, 0.2444, 0.2552,0.2449,-0.16306563391764728
SingleSource/Benchmarks/Polybench/medley/reg_detect/reg_detect, 1.8850, 1.8816, 1.8820, 1.8769, 1.8819,1.8819, 1.8791, 1.8761, 1.8788, 1.8754, 1.8837,1.8788,-0.16472713746744638
MultiSource/Benchmarks/TSVC/CrossingThresholds-dbl/CrossingThresholds-dbl, 4.0448, 4.0400, 4.0409, 4.0398, 4.0406,4.0406, 4.0347, 4.0022, 4.0328, 4.0339, 4.0407,4.0339,-0.16581695787755146
MultiSource/Benchmarks/TSVC/GlobalDataFlow-dbl/GlobalDataFlow-dbl, 4.1167, 4.1123, 4.1143, 4.0736, 4.1149,4.1143, 4.1079, 4.0973, 4.1082, 4.1073, 4.0700,4.1073,-0.1701382981309063
SingleSource/Benchmarks/Linpack/linpack-pc, 0.6360, 0.6336, 0.6334, 0.6338, 0.6361,0.6338, 0.6326, 0.6323, 0.6324, 0.6326, 0.6362,0.6326,-0.1893341748185562
MultiSource/Benchmarks/Ptrdist/anagram/anagram, 0.1555, 0.1536, 0.1536, 0.1532, 0.1557,0.1536, 0.1530, 0.1533, 0.1537, 0.1533, 0.1560,0.1533,-0.1953125
MultiSource/Benchmarks/McCat/17-bintr/bintr, 0.1049, 0.1008, 0.1001, 0.1001, 0.1063,0.1008, 0.0999, 0.1012, 0.1001, 0.1006, 0.1062,0.1006,-0.1984126984127088
SingleSource/Benchmarks/Adobe-C++/stepanov_abstraction, 0.9810, 0.9801, 0.9791, 0.9792, 0.9806,0.9801, 0.9783, 0.9779, 0.9781, 0.9777, 0.9822,0.9781,-0.2040608101214203
SingleSource/Benchmarks/Stanford/FloatMM, 0.0968, 0.0948, 0.0944, 0.0946, 0.0966,0.0948, 0.0947, 0.0944, 0.0943, 0.0946, 0.0970,0.0946,-0.21097046413500742
MultiSource/Benchmarks/Olden/tsp/tsp, 0.1846, 0.1751, 0.1762, 0.1765, 0.1851,0.1765, 0.1761, 0.1761, 0.1755, 0.1762, 0.1861,0.1761,-0.22662889518412221
SingleSource/Benchmarks/Misc/matmul_f64_4x4, 0.0454, 0.0435, 0.0434, 0.0434, 0.0456,0.0435, 0.0431, 0.0434, 0.0431, 0.0437, 0.0458,0.0434,-0.22988505747125743
MultiSource/Benchmarks/Prolangs-C++/employ/employ, 0.3499, 0.3441, 0.3424, 0.3428, 0.3497,0.3441, 0.3439, 0.3432, 0.3431, 0.3433, 0.3503,0.3433,-0.23249055507120753
MultiSource/Benchmarks/McCat/12-IOtest/iotest, 0.1370, 0.1287, 0.1286, 0.1282, 0.1386,0.1287, 0.1284, 0.1280, 0.1291, 0.1280, 0.1381,0.1284,-0.2331002331002474
MultiSource/Benchmarks/MiBench/telecomm-adpcm/telecomm-adpcm, 0.0929, 0.0832, 0.0830, 0.0835, 0.0883,0.0835, 0.0833, 0.0831, 0.0833, 0.0835, 0.0885,0.0833,-0.23952095808383866
SingleSource/Benchmarks/Shootout/strcat, 0.0425, 0.0408, 0.0410, 0.0404, 0.0434,0.041, 0.0404, 0.0410, 0.0409, 0.0404, 0.0431,0.0409,-0.24390243902440156
SingleSource/Benchmarks/SmallPT/smallpt, 0.1643, 0.1620, 0.1622, 0.1625, 0.1643,0.1625, 0.1616, 0.1619, 0.1622, 0.1621, 0.1644,0.1621,-0.2461538461538515
SingleSource/Benchmarks/Adobe-C++/stepanov_vector, 1.2483, 1.2438, 1.2425, 1.2419, 1.2486,1.2438, 1.2406, 1.2407, 1.2415, 1.2401, 1.2473,1.2407,-0.24923621160959364
SingleSource/Benchmarks/Misc/himenobmtxpa, 0.3902, 0.3885, 0.3879, 0.3881, 0.3898,0.3885, 0.3875, 0.3875, 0.3877, 0.3872, 0.3903,0.3875,-0.2574002574002532
MultiSource/Benchmarks/Olden/em3d/em3d, 0.2809, 0.2684, 0.2694, 0.2698, 0.2820,0.2698, 0.2691, 0.2690, 0.2684, 0.2700, 0.2835,0.2691,-0.25945144551519084
SingleSource/Benchmarks/BenchmarkGame/fannkuch, 0.0775, 0.0754, 0.0759, 0.0753, 0.0780,0.0759, 0.0757, 0.0757, 0.0754, 0.0756, 0.0779,0.0757,-0.26350461133068936
MultiSource/Benchmarks/FreeBench/pcompress2/pcompress2, 0.3873, 0.3767, 0.3770, 0.3781, 0.3895,0.3781, 0.3778, 0.3764, 0.3763, 0.3771, 0.3909,0.3771,-0.26448029621792823
MultiSource/Benchmarks/FreeBench/distray/distray, 0.1532, 0.1509, 0.1506, 0.1510, 0.1534,0.151, 0.1501, 0.1502, 0.1506, 0.1506, 0.1538,0.1506,-0.26490066225164366
SingleSource/Benchmarks/Polybench/stencils/jacobi-1d-imper/jacobi-1d-imper, 0.1519, 0.1495, 0.1500, 0.1497, 0.1521,0.15, 0.1495, 0.1496, 0.1495, 0.1502, 0.1526,0.1496,-0.2666666666666595
MultiSource/Applications/viterbi/viterbi, 0.2604, 0.2526, 0.2524, 0.2528, 0.2615,0.2528, 0.2521, 0.2517, 0.2515, 0.2523, 0.2628,0.2521,-0.2768987341772333
MultiSource/Benchmarks/Prolangs-C/gnugo/gnugo, 1.1281, 1.0772, 1.0763, 1.0797, 1.1353,1.0797, 1.0767, 1.0763, 1.0771, 1.0760, 1.1416,1.0767,-0.27785495971104357
MultiSource/Benchmarks/BitBench/uudecode/uudecode, 0.0708, 0.0684, 0.0685, 0.0688, 0.0711,0.0688, 0.0686, 0.0685, 0.0685, 0.0687, 0.0711,0.0686,-0.29069767441861627
MultiSource/Benchmarks/McCat/03-testtrie/testtrie, 0.1390, 0.1329, 0.1335, 0.1336, 0.1403,0.1336, 0.1332, 0.1330, 0.1328, 0.1332, 0.1408,0.1332,-0.2994011976047761
MultiSource/Benchmarks/MiBench/network-dijkstra/network-dijkstra, 0.0652, 0.0632, 0.0637, 0.0628, 0.0655,0.0637, 0.0632, 0.0635, 0.0634, 0.0635, 0.0654,0.0635,-0.3139717425431843
MultiSource/Benchmarks/TSVC/LinearDependence-dbl/LinearDependence-dbl, 4.1924, 4.1875, 4.1906, 4.1871, 4.1909,4.1906, 4.1770, 4.1557, 4.1744, 4.1768, 4.1833,4.1768,-0.3293084522502654
MultiSource/Benchmarks/TSVC/LinearDependence-flt/LinearDependence-flt, 3.8150, 3.8086, 3.8097, 3.8102, 3.8166,3.8102, 3.7973, 3.8172, 3.7759, 3.7690, 3.8298,3.7973,-0.33856490472941037
SingleSource/Benchmarks/BenchmarkGame/puzzle, 0.0868, 0.0845, 0.0847, 0.0849, 0.0870,0.0849, 0.0842, 0.0844, 0.0846, 0.0852, 0.0870,0.0846,-0.35335689045937757
MultiSource/Benchmarks/VersaBench/bmm/bmm, 0.0868, 0.0842, 0.0848, 0.0848, 0.0865,0.0848, 0.0845, 0.0843, 0.0847, 0.0844, 0.0871,0.0845,-0.3537735849056589
MultiSource/Benchmarks/BitBench/five11/five11, 0.0852, 0.0832, 0.0835, 0.0838, 0.0863,0.0838, 0.0836, 0.0835, 0.0835, 0.0834, 0.0861,0.0835,-0.35799522673030104
MultiSource/Benchmarks/mediabench/adpcm/rawdaudio/rawdaudio, 0.0879, 0.0835, 0.0836, 0.0833, 0.0883,0.0836, 0.0833, 0.0833, 0.0838, 0.0832, 0.0886,0.0833,-0.3588516746411474
MultiSource/Benchmarks/MiBench/automotive-susan/automotive-susan, 1.4395, 1.4236, 1.4243, 1.4247, 1.4426,1.4247, 1.4195, 1.4195, 1.4185, 1.4183, 1.4360,1.4195,-0.36498912051660115
MultiSource/Benchmarks/NPB-serial/is/is, 0.1108, 0.1087, 0.1093, 0.1092, 0.1114,0.1093, 0.1096, 0.1087, 0.1089, 0.1089, 0.1116,0.1089,-0.36596523330283404
SingleSource/Benchmarks/Stanford/Bubblesort, 0.0548, 0.0528, 0.0527, 0.0531, 0.0553,0.0531, 0.0530, 0.0527, 0.0529, 0.0528, 0.0553,0.0529,-0.37664783427494575
SingleSource/Regression/C/2004-08-12-InlinerAndAllocas, 0.0283, 0.0262, 0.0263, 0.0263, 0.0284,0.0263, 0.0262, 0.0261, 0.0261, 0.0264, 0.0286,0.0262,-0.3802281368821214
SingleSource/Benchmarks/Shootout/ary3, 0.0536, 0.0512, 0.0515, 0.0517, 0.0537,0.0517, 0.0514, 0.0515, 0.0512, 0.0518, 0.0542,0.0515,-0.3868471953578423
MultiSource/Benchmarks/Prolangs-C++/simul/simul, 0.0802, 0.0767, 0.0769, 0.0769, 0.0798,0.0769, 0.0767, 0.0764, 0.0765, 0.0766, 0.0799,0.0766,-0.39011703511052653
SingleSource/Benchmarks/Polybench/linear-algebra/solvers/durbin/durbin, 0.1787, 0.1762, 0.1761, 0.1769, 0.1791,0.1769, 0.1762, 0.1761, 0.1759, 0.1763, 0.1798,0.1762,-0.3957037874505409
SingleSource/Benchmarks/Misc-C++/oopack_v1p8, 0.2022, 0.2009, 0.2006, 0.2001, 0.2161,0.2009, 0.2001, 0.2008, 0.2000, 0.2001, 0.2034,0.2001,-0.3982080637132901
MultiSource/Benchmarks/Ptrdist/ft/ft, 0.3110, 0.2998, 0.2991, 0.3008, 0.3122,0.3008, 0.3002, 0.2996, 0.2988, 0.2991, 0.3136,0.2996,-0.3989361702127825
SingleSource/Benchmarks/Misc/flops, 0.1235, 0.1218, 0.1215, 0.1212, 0.1237,0.1218, 0.1211, 0.1212, 0.1213, 0.1214, 0.1242,0.1213,-0.4105090311986914
MultiSource/Benchmarks/Prolangs-C++/life/life, 0.0987, 0.0966, 0.0965, 0.0961, 0.0988,0.0966, 0.0965, 0.0962, 0.0961, 0.0961, 0.0985,0.0962,-0.41407867494824835
SingleSource/Benchmarks/Polybench/linear-algebra/kernels/gesummv/gesummv, 0.1201, 0.1184, 0.1180, 0.1178, 0.1208,0.1184, 0.1179, 0.1182, 0.1178, 0.1179, 0.1208,0.1179,-0.4222972972973027
MultiSource/Benchmarks/FreeBench/fourinarow/fourinarow, 0.6496, 0.6473, 0.6471, 0.6478, 0.6498,0.6478, 0.6449, 0.6457, 0.6450, 0.6450, 0.6486,0.645,-0.4322321704229748
SingleSource/Benchmarks/Misc-C++/stepanov_v1p2, 0.2787, 0.2768, 0.2774, 0.2766, 0.2787,0.2774, 0.2761, 0.2762, 0.2759, 0.2764, 0.2792,0.2762,-0.43258832011534576
MultiSource/Benchmarks/Olden/voronoi/voronoi, 0.3726, 0.3644, 0.3638, 0.3643, 0.3738,0.3644, 0.3628, 0.3628, 0.3626, 0.3636, 0.3733,0.3628,-0.4390779363336983
SingleSource/Benchmarks/Misc/mandel-2, 0.0766, 0.0453, 0.0449, 0.0450, 0.0768,0.0453, 0.0451, 0.0449, 0.0454, 0.0450, 0.0844,0.0451,-0.44150110375276164
SingleSource/Benchmarks/Misc/flops-5, 0.0461, 0.0439, 0.0435, 0.0437, 0.0460,0.0439, 0.0435, 0.0432, 0.0438, 0.0437, 0.0463,0.0437,-0.4555808656036442
MultiSource/Applications/hbd/hbd, 1.9477, 1.8990, 1.8992, 1.8996, 1.9540,1.8996, 1.8885, 1.8925, 1.8884, 1.8909, 1.9538,1.8909,-0.45799115603284424
SingleSource/Benchmarks/Shootout-C++/ary2, 0.3002, 0.2999, 0.2986, 0.2980, 0.3011,0.2999, 0.2981, 0.2980, 0.2985, 0.2985, 0.3012,0.2985,-0.4668222740913719
MultiSource/Benchmarks/TSVC/StatementReordering-dbl/StatementReordering-dbl, 3.9428, 3.9447, 3.9389, 3.9423, 3.9189,3.9423, 3.9160, 3.9461, 3.9229, 3.9184, 3.9534,3.9229,-0.4920985211678497
MultiSource/Applications/siod/siod, 3.0171, 2.9616, 2.9593, 2.9585, 3.0234,2.9616, 2.9361, 2.9464, 2.9488, 2.9440, 3.0316,2.9464,-0.5132360886007437
MultiSource/Benchmarks/llubenchmark/llu, 0.0786, 0.0762, 0.0763, 0.0766, 0.0786,0.0766, 0.0763, 0.0761, 0.0762, 0.0760, 0.0789,0.0762,-0.5221932114882422
SingleSource/Benchmarks/Shootout/objinst, 0.0576, 0.0551, 0.0554, 0.0547, 0.0574,0.0554, 0.0551, 0.0553, 0.0546, 0.0550, 0.0577,0.0551,-0.5415162454873501
SingleSource/Benchmarks/Stanford/RealMM, 0.0898, 0.0883, 0.0877, 0.0879, 0.0908,0.0883, 0.0881, 0.0877, 0.0876, 0.0878, 0.0904,0.0878,-0.5662514156285381
SingleSource/Benchmarks/Misc-C++/mandel-text, 0.0361, 0.0342, 0.0338, 0.0342, 0.0360,0.0342, 0.0338, 0.0334, 0.0341, 0.0340, 0.0366,0.034,-0.5847953216374213
MultiSource/Benchmarks/mediabench/adpcm/rawcaudio/rawcaudio, 0.0884, 0.0838, 0.0842, 0.0838, 0.0887,0.0842, 0.0842, 0.0831, 0.0834, 0.0837, 0.0896,0.0837,-0.5938242280285055
SingleSource/Benchmarks/Dhrystone/fldry, 0.0668, 0.0656, 0.0651, 0.0652, 0.0672,0.0656, 0.0652, 0.0648, 0.0651, 0.0656, 0.0674,0.0652,-0.6097560975609984
SingleSource/Benchmarks/Misc/fp-convert, 0.0494, 0.0474, 0.0478, 0.0472, 0.0497,0.0478, 0.0477, 0.0471, 0.0467, 0.0475, 0.0498,0.0475,-0.6276150627615107
SingleSource/Benchmarks/Shootout/random, 0.0474, 0.0477, 0.0472, 0.0476, 0.0492,0.0476, 0.0473, 0.0475, 0.0473, 0.0471, 0.0499,0.0473,-0.630252100840345
SingleSource/Benchmarks/BenchmarkGame/partialsums, 0.0475, 0.0454, 0.0458, 0.0460, 0.0477,0.046, 0.0457, 0.0452, 0.0457, 0.0454, 0.0482,0.0457,-0.6521739130434856
SingleSource/Benchmarks/Misc/pi, 0.0308, 0.0291, 0.0291, 0.0287, 0.0315,0.0291, 0.0287, 0.0289, 0.0290, 0.0287, 0.0315,0.0289,-0.6872852233677063
SingleSource/Benchmarks/Stanford/Quicksort, 0.0572, 0.0552, 0.0548, 0.0555, 0.0578,0.0555, 0.0551, 0.0546, 0.0550, 0.0554, 0.0577,0.0551,-0.7207207207207134
MultiSource/Benchmarks/VersaBench/8b10b/8b10b, 0.1138, 0.1070, 0.1070, 0.1076, 0.1142,0.1076, 0.1069, 0.1068, 0.1064, 0.1068, 0.1149,0.1068,-0.7434944237918129
SingleSource/Benchmarks/Misc/lowercase, 0.0406, 0.0382, 0.0385, 0.0383, 0.0406,0.0385, 0.0378, 0.0382, 0.0381, 0.0385, 0.0406,0.0382,-0.7792207792207795
MultiSource/Benchmarks/ASC_Sequoia/IRSmk/IRSmk, 0.1582, 0.1525, 0.1518, 0.1524, 0.1593,0.1525, 0.1509, 0.1512, 0.1511, 0.1525, 0.1590,0.1512,-0.8524590163934365
SingleSource/Benchmarks/CoyoteBench/lpbench, 0.3175, 0.3149, 0.3152, 0.3147, 0.3169,0.3152, 0.3119, 0.3123, 0.3125, 0.3132, 0.3154,0.3125,-0.8565989847715727
SingleSource/Benchmarks/Shootout/ackermann, 0.0358, 0.0334, 0.0338, 0.0337, 0.0359,0.0338, 0.0335, 0.0336, 0.0335, 0.0334, 0.0356,0.0335,-0.8875739644970237
MultiSource/Benchmarks/Olden/perimeter/perimeter, 0.1150, 0.1074, 0.1072, 0.1082, 0.1145,0.1082, 0.1074, 0.1068, 0.1072, 0.1072, 0.1158,0.1072,-0.9242144177449174
MultiSource/Benchmarks/MiBench/telecomm-CRC32/telecomm-CRC32, 0.0547, 0.0522, 0.0522, 0.0517, 0.0552,0.0522, 0.0516, 0.0525, 0.0517, 0.0516, 0.0555,0.0517,-0.9578544061302652
MultiSource/Benchmarks/BitBench/drop3/drop3, 0.0689, 0.0674, 0.0673, 0.0672, 0.0691,0.0674, 0.0665, 0.0667, 0.0670, 0.0667, 0.0700,0.0667,-1.0385756676557945
SingleSource/Benchmarks/Stanford/Treesort, 0.0578, 0.0561, 0.0564, 0.0562, 0.0584,0.0564, 0.0555, 0.0555, 0.0558, 0.0563, 0.0582,0.0558,-1.0638297872340385
SingleSource/Benchmarks/Shootout/fib2, 0.0291, 0.0268, 0.0271, 0.0269, 0.0290,0.0271, 0.0268, 0.0268, 0.0268, 0.0270, 0.0294,0.0268,-1.1070110701106972
SingleSource/Benchmarks/Stanford/Queens, 0.0720, 0.0712, 0.0710, 0.0703, 0.0726,0.0712, 0.0704, 0.0705, 0.0703, 0.0704, 0.0730,0.0704,-1.1235955056179692
SingleSource/Benchmarks/Shootout/methcall, 0.0483, 0.0464, 0.0466, 0.0464, 0.0483,0.0466, 0.0459, 0.0460, 0.0459, 0.0463, 0.0488,0.046,-1.2875536480686733
SingleSource/Benchmarks/Shootout/sieve, 0.0394, 0.0373, 0.0376, 0.0381, 0.0399,0.0381, 0.0375, 0.0375, 0.0374, 0.0377, 0.0401,0.0375,-1.5748031496063075
SingleSource/Benchmarks/CoyoteBench/huffbench, 0.1444, 0.1420, 0.1418, 0.1422, 0.1450,0.1422, 0.1418, 0.1398, 0.1395, 0.1395, 0.1433,0.1398,-1.6877637130801593
MultiSource/Benchmarks/Prolangs-C++/primes/primes, 0.0364, 0.0347, 0.0343, 0.0343, 0.0367,0.0347, 0.0347, 0.0341, 0.0341, 0.0341, 0.0365,0.0341,-1.729106628242083
Total elapsed time,-,-,-,-,-,574.8684999999999,-,-,-,-,-,574.9820999999997,0.019761041003252267
Total failure,-,-,-,-,-,0,-,-,-,-,-,0,
