Benchmarks,base-4.0,base-4.0,base-4.0,median,restrict,restrict,restrict,median,Slowdown(%)
SingleSource/Benchmarks/Shootout-C++/moments, 0.0747, 0.0753, 0.0746,0.0747, 0.0767, 0.0766, 0.0761,0.0766,2.5435073627844806
SingleSource/Benchmarks/Adobe-C++/stepanov_abstraction, 4.3909, 4.3917, 4.3914,4.3914, 4.4466, 4.4457, 4.4479,4.4466,1.2570023227216787
SingleSource/Benchmarks/Misc-C++/stepanov_v1p2, 6.5974, 6.6011, 6.5984,6.5984, 6.6831, 6.6809, 6.6810,6.681,1.25181862269641
SingleSource/Benchmarks/Misc-C++/stepanov_container, 3.6604, 3.6573, 3.6581,3.6581, 3.6801, 3.7270, 3.7020,3.702,1.2000765424673876
MultiSource/Benchmarks/Prolangs-C++/ocean/ocean, 0.0558, 0.0560, 0.0558,0.0558, 0.0564, 0.0564, 0.0560,0.0564,1.0752688172043001
SingleSource/Benchmarks/Adobe-C++/stepanov_vector, 2.5972, 2.5976, 2.5981,2.5976, 2.6245, 2.6223, 2.6222,2.6223,0.9508777332922769
MultiSource/Applications/kimwitu++/kc, 0.0444, 0.0442, 0.0442,0.0442, 0.0447, 0.0445, 0.0444,0.0445,0.6787330316742057
SingleSource/Benchmarks/Polybench/medley/reg_detect/reg_detect, 0.0170, 0.0170, 0.0170,0.017, 0.0171, 0.0171, 0.0171,0.0171,0.588235294117645
SingleSource/Benchmarks/CoyoteBench/lpbench, 3.3971, 3.3894, 3.3934,3.3934, 3.4460, 3.4126, 3.3998,3.4126,0.5658042081687853
SingleSource/Benchmarks/Misc-C++-EH/spirit, 4.3211, 4.3236, 4.3212,4.3212, 4.3448, 4.3467, 4.3451,4.3451,0.5530871054336917
MultiSource/Benchmarks/TSVC/NodeSplitting-flt/NodeSplitting-flt, 2.9855, 3.0138, 3.0310,3.0138, 3.0303, 3.0318, 3.0255,3.0303,0.5474815847103409
SingleSource/Benchmarks/Polybench/stencils/fdtd-apml/fdtd-apml, 1.1070, 1.1048, 1.1099,1.107, 1.1072, 1.1149, 1.1128,1.1128,0.5239385727190626
MultiSource/Applications/ALAC/decode/alacconvert-decode, 0.0211, 0.0211, 0.0212,0.0211, 0.0212, 0.0212, 0.0212,0.0212,0.4739336492890933
MultiSource/Benchmarks/MiBench/automotive-susan/automotive-susan, 0.0430, 0.0428, 0.0429,0.0429, 0.0428, 0.0433, 0.0431,0.0431,0.4662004662004726
SingleSource/Benchmarks/Misc/fbench, 1.6249, 1.6334, 1.6365,1.6334, 1.6408, 1.6261, 1.6423,1.6408,0.4530427329496822
SingleSource/Benchmarks/Misc-C++/Large/ray, 2.7255, 2.7260, 2.7246,2.7255, 2.7408, 2.7357, 2.7373,2.7373,0.432948082920559
MultiSource/Benchmarks/MiBench/telecomm-CRC32/telecomm-CRC32, 0.2675, 0.2688, 0.2676,0.2676, 0.2687, 0.2686, 0.2689,0.2687,0.4110612855007467
MultiSource/Benchmarks/mediabench/gsm/toast/toast, 0.0249, 0.0250, 0.0250,0.025, 0.0252, 0.0250, 0.0251,0.0251,0.40000000000000036
SingleSource/Benchmarks/McGill/chomp, 1.6910, 1.7018, 1.6942,1.6942, 1.7048, 1.6951, 1.7008,1.7008,0.38956439617519045
SingleSource/Benchmarks/Shootout-C++/EH/except, 0.2219, 0.2230, 0.2220,0.222, 0.2221, 0.2228, 0.2239,0.2228,0.3603603603603567
SingleSource/Benchmarks/Adobe-C++/functionobjects, 3.5379, 3.5385, 3.5386,3.5385, 3.5501, 3.5460, 3.5505,3.5501,0.32782252366823084
MultiSource/Benchmarks/FreeBench/pifft/pifft, 0.0975, 0.0978, 0.0975,0.0975, 0.0978, 0.0975, 0.0978,0.0978,0.3076923076922977
SingleSource/Benchmarks/Shootout/sieve, 5.6067, 5.6373, 5.6478,5.6373, 5.6542, 5.6539, 5.6231,5.6539,0.2944672094797207
SingleSource/Benchmarks/Stanford/Queens, 0.0348, 0.0345, 0.0343,0.0345, 0.0343, 0.0347, 0.0346,0.0346,0.28985507246375164
MultiSource/Benchmarks/McCat/17-bintr/bintr, 0.1050, 0.1047, 0.1048,0.1048, 0.1051, 0.1051, 0.1052,0.1051,0.2862595419847347
SingleSource/Benchmarks/BenchmarkGame/recursive, 0.8877, 0.8922, 0.8972,0.8922, 0.8970, 0.8947, 0.8893,0.8947,0.280206231786595
SingleSource/Benchmarks/Shootout/fib2, 2.7137, 2.7218, 2.6893,2.7137, 2.7212, 2.7215, 2.7196,2.7212,0.2763754283819253
MultiSource/Benchmarks/Bullet/bullet, 4.9062, 4.9026, 4.8980,4.9026, 4.9178, 4.9161, 4.9132,4.9161,0.2753640925223566
MultiSource/Benchmarks/McCat/09-vor/vor, 0.1171, 0.1172, 0.1178,0.1172, 0.1174, 0.1177, 0.1175,0.1175,0.25597269624573205
MultiSource/Benchmarks/tramp3d-v4/tramp3d-v4, 0.4046, 0.4043, 0.4043,0.4043, 0.4058, 0.4053, 0.4050,0.4053,0.2473410833539358
MultiSource/Benchmarks/TSVC/ControlLoops-flt/ControlLoops-flt, 3.0539, 3.0710, 3.0474,3.0539, 3.0613, 3.0586, 3.0788,3.0613,0.24231310782933946
SingleSource/Benchmarks/Polybench/linear-algebra/kernels/trmm/trmm, 1.2220, 1.2224, 1.2336,1.2224, 1.2251, 1.2327, 1.2203,1.2251,0.2208769633508023
MultiSource/Benchmarks/TSVC/IndirectAddressing-flt/IndirectAddressing-flt, 4.4243, 4.4099, 4.4137,4.4137, 4.4228, 4.4265, 4.4191,4.4228,0.20617622402969715
SingleSource/Benchmarks/Polybench/linear-algebra/kernels/cholesky/cholesky, 0.3960, 0.3965, 0.3957,0.396, 0.3971, 0.3968, 0.3961,0.3968,0.20202020202020332
MultiSource/Benchmarks/TSVC/Packing-flt/Packing-flt, 3.2010, 3.2082, 3.2021,3.2021, 3.2003, 3.2078, 3.2084,3.2078,0.17800818213047354
SingleSource/Benchmarks/Polybench/linear-algebra/kernels/gemver/gemver, 0.3640, 0.3624, 0.3636,0.3636, 0.3647, 0.3642, 0.3629,0.3642,0.16501650165017256
MultiSource/Benchmarks/McCat/12-IOtest/iotest, 0.2678, 0.2664, 0.2670,0.267, 0.2674, 0.2673, 0.2686,0.2674,0.1498127340824107
MultiSource/Benchmarks/FreeBench/distray/distray, 0.1504, 0.1507, 0.1506,0.1506, 0.1508, 0.1504, 0.1511,0.1508,0.13280212483397502
MultiSource/Benchmarks/Olden/mst/mst, 0.0800, 0.0799, 0.0804,0.08, 0.0801, 0.0797, 0.0801,0.0801,0.12499999999999734
MultiSource/Applications/JM/lencod/lencod, 5.3059, 5.3135, 5.3159,5.3135, 5.3206, 5.3186, 5.3199,5.3199,0.12044791568643909
MultiSource/Benchmarks/MiBench/automotive-bitcount/automotive-bitcount, 0.0848, 0.0848, 0.0847,0.0848, 0.0849, 0.0849, 0.0846,0.0849,0.1179245283018826
MultiSource/Benchmarks/TSVC/InductionVariable-flt/InductionVariable-flt, 3.3084, 3.3099, 3.3149,3.3099, 3.3138, 3.3138, 3.3021,3.3138,0.11782833318227937
MultiSource/Benchmarks/TSVC/IndirectAddressing-dbl/IndirectAddressing-dbl, 4.6097, 4.6061, 4.6067,4.6067, 4.6117, 4.6133, 4.6065,4.6117,0.10853756485118549
SingleSource/Benchmarks/Polybench/stencils/adi/adi, 3.7289, 3.7321, 3.7354,3.7321, 3.7320, 3.7362, 3.7360,3.736,0.1044988076418063
SingleSource/Benchmarks/Polybench/datamining/covariance/covariance, 3.0791, 3.0857, 3.0797,3.0797, 3.0794, 3.0839, 3.0827,3.0827,0.09741208559275183
MultiSource/Benchmarks/McCat/04-bisect/bisect, 0.1067, 0.1065, 0.1065,0.1065, 0.1066, 0.1068, 0.1064,0.1066,0.09389671361501595
MultiSource/Benchmarks/MiBench/network-patricia/network-patricia, 0.1095, 0.1094, 0.1096,0.1095, 0.1097, 0.1096, 0.1092,0.1096,0.09132420091324533
MultiSource/Benchmarks/TSVC/LinearDependence-flt/LinearDependence-flt, 2.3880, 2.3951, 2.3870,2.388, 2.3908, 2.3888, 2.3901,2.3901,0.08793969849245631
SingleSource/Benchmarks/BenchmarkGame/nsieve-bits, 0.7042, 0.7107, 0.7072,0.7072, 0.7078, 0.7041, 0.7089,0.7078,0.08484162895927572
SingleSource/Benchmarks/Misc-C++/oopack_v1p8, 0.1208, 0.1211, 0.1210,0.121, 0.1211, 0.1211, 0.1211,0.1211,0.08264462809917106
MultiSource/Benchmarks/TSVC/Recurrences-flt/Recurrences-flt, 3.2944, 3.2927, 3.2929,3.2929, 3.2955, 3.2959, 3.2951,3.2955,0.07895775759969581
MultiSource/Benchmarks/MallocBench/cfrac/cfrac, 1.1446, 1.1436, 1.1437,1.1437, 1.1451, 1.1436, 1.1446,1.1446,0.07869196467606976
MultiSource/Benchmarks/Fhourstones/fhourstones, 0.8953, 0.8899, 0.8887,0.8899, 0.8906, 0.8916, 0.8895,0.8906,0.07866052365432807
SingleSource/Benchmarks/Polybench/linear-algebra/kernels/mvt/mvt, 0.2784, 0.2786, 0.2788,0.2786, 0.2791, 0.2788, 0.2787,0.2788,0.071787508973431
MultiSource/Benchmarks/Trimaran/netbench-crc/netbench-crc, 0.7025, 0.7023, 0.7027,0.7025, 0.7022, 0.7040, 0.7030,0.703,0.0711743772241924
SingleSource/Benchmarks/Shootout-C++/lists, 4.9638, 4.9702, 4.9657,4.9657, 4.9671, 4.9691, 4.9694,4.9691,0.0684697021567926
SingleSource/Benchmarks/Polybench/linear-algebra/solvers/durbin/durbin, 0.4569, 0.4571, 0.4571,0.4571, 0.4574, 0.4576, 0.4570,0.4574,0.06563115292057553
MultiSource/Benchmarks/MiBench/telecomm-adpcm/telecomm-adpcm, 0.1565, 0.1561, 0.1569,0.1565, 0.1566, 0.1570, 0.1566,0.1566,0.06389776357826893
MultiSource/Benchmarks/TSVC/ControlFlow-dbl/ControlFlow-dbl, 4.4525, 4.4488, 4.4499,4.4499, 4.4527, 4.4526, 4.4504,4.4526,0.06067552079822569
MultiSource/Benchmarks/FreeBench/mason/mason, 0.1726, 0.1727, 0.1729,0.1727, 0.1729, 0.1728, 0.1727,0.1728,0.05790387955995069
MultiSource/Benchmarks/TSVC/Equivalencing-dbl/Equivalencing-dbl, 2.3093, 2.3063, 2.3071,2.3071, 2.3097, 2.3084, 2.3070,2.3084,0.05634779593426398
MultiSource/Applications/hexxagon/hexxagon,10.9248,10.8335,10.9148,10.9148,10.9276,10.9193,10.9209,10.9209,0.05588741891744409
MultiSource/Benchmarks/TSVC/NodeSplitting-dbl/NodeSplitting-dbl, 4.0761, 4.0748, 4.0744,4.0748, 4.0774, 4.0770, 4.0748,4.077,0.05399037989595179
SingleSource/Benchmarks/McGill/misr, 0.1878, 0.1879, 0.1881,0.1879, 0.1882, 0.1880, 0.1879,0.188,0.0532197977647586
MultiSource/Benchmarks/TSVC/LoopRerolling-dbl/LoopRerolling-dbl, 4.2104, 4.2086, 4.2083,4.2086, 4.2108, 4.2123, 4.2082,4.2108,0.0522739153162588
MultiSource/Benchmarks/TSVC/ControlLoops-dbl/ControlLoops-dbl, 3.8317, 3.8296, 3.8288,3.8296, 3.8316, 3.8317, 3.8294,3.8316,0.0522247754334515
MultiSource/Benchmarks/Olden/power/power, 1.7423, 1.7408, 1.7409,1.7409, 1.7418, 1.7411, 1.7592,1.7418,0.05169739789765426
MultiSource/Benchmarks/TSVC/CrossingThresholds-dbl/CrossingThresholds-dbl, 3.6559, 3.6545, 3.6540,3.6545, 3.6565, 3.6563, 3.6531,3.6563,0.0492543439595039
MultiSource/Applications/minisat/minisat, 7.2107, 7.2160, 7.2162,7.216, 7.2158, 7.2195, 7.2196,7.2195,0.04850332594235063
MultiSource/Applications/obsequi/Obsequi, 1.6853, 1.6838, 1.6837,1.6838, 1.6846, 1.6848, 1.6840,1.6846,0.04751158094786767
SingleSource/Benchmarks/Polybench/linear-algebra/solvers/dynprog/dynprog, 0.6720, 0.6741, 0.6715,0.672, 0.6723, 0.6708, 0.6736,0.6723,0.04464285714285143
SingleSource/Benchmarks/BenchmarkGame/n-body, 1.1305, 1.1305, 1.1313,1.1305, 1.1322, 1.1310, 1.1310,1.131,0.044228217602815256
SingleSource/Benchmarks/Adobe-C++/loop_unroll, 1.1448, 1.1448, 1.1455,1.1448, 1.1461, 1.1453, 1.1450,1.1453,0.043675751222926884
MultiSource/Benchmarks/TSVC/StatementReordering-flt/StatementReordering-flt, 2.7602, 2.7622, 2.7608,2.7608, 2.7435, 2.7627, 2.7620,2.762,0.04346566212691805
MultiSource/Benchmarks/TSVC/StatementReordering-dbl/StatementReordering-dbl, 3.8540, 3.8527, 3.8527,3.8527, 3.8548, 3.8543, 3.8525,3.8543,0.04152931710228458
MultiSource/Benchmarks/PAQ8p/paq8p,49.5463,49.5444,49.5411,49.5444,49.5643,49.5768,49.5297,49.5643,0.040165992523877314
SingleSource/Benchmarks/Shootout-C++/ackermann, 0.9981, 0.9998, 0.9984,0.9984, 0.9985, 0.9988, 1.0002,0.9988,0.040064102564119075
SingleSource/Benchmarks/Misc/dt, 1.0121, 1.0127, 1.0120,1.0121, 1.0128, 1.0125, 1.0122,1.0125,0.039521786384733026
SingleSource/Benchmarks/Shootout-C++/random, 3.0339, 3.0361, 3.0340,3.034, 3.0351, 3.0351, 3.0344,3.0351,0.03625576796308927
SingleSource/Benchmarks/BenchmarkGame/partialsums, 1.1249, 1.1248, 1.1257,1.1249, 1.1259, 1.1253, 1.1253,1.1253,0.03555871633034169
MultiSource/Applications/lua/lua,22.1202,22.0903,22.0935,22.0935,22.1163,22.1009,22.0830,22.1009,0.033494014076551615
MultiSource/Benchmarks/Olden/bh/bh, 1.5042, 1.5056, 1.5054,1.5054, 1.5063, 1.5054, 1.5059,1.5059,0.03321376378371266
MultiSource/Applications/spiff/spiff, 2.1219, 2.1220, 2.1232,2.122, 2.1227, 2.1227, 2.1251,2.1227,0.032987747408119716
MultiSource/Benchmarks/MiBench/automotive-basicmath/automotive-basicmath, 0.3040, 0.3033, 0.3034,0.3034, 0.3041, 0.3035, 0.3035,0.3035,0.03295978905735186
MultiSource/Benchmarks/TSVC/GlobalDataFlow-dbl/GlobalDataFlow-dbl, 4.0319, 4.0292, 4.0303,4.0303, 4.0322, 4.0316, 4.0289,4.0316,0.03225566335012253
MultiSource/Benchmarks/TSVC/Recurrences-dbl/Recurrences-dbl, 3.8318, 3.8311, 3.8301,3.8311, 3.8326, 3.8323, 3.8319,3.8323,0.03132259664326842
SingleSource/Benchmarks/Shootout/random, 3.0473, 3.0485, 3.0483,3.0483, 3.0497, 3.0492, 3.0483,3.0492,0.02952465308532215
MultiSource/Benchmarks/TSVC/LoopRestructuring-dbl/LoopRestructuring-dbl, 4.4875, 4.4893, 4.4878,4.4878, 4.4891, 4.4834, 4.4898,4.4891,0.028967422790660002
SingleSource/Benchmarks/Shootout/methcall, 4.1059, 4.1083, 4.1062,4.1062, 4.1073, 4.1081, 4.1060,4.1073,0.02678875846282569
SingleSource/Benchmarks/Adobe-C++/simple_types_constant_folding, 0.7685, 0.7684, 0.7684,0.7684, 0.7686, 0.7682, 0.7686,0.7686,0.026028110359188616
MultiSource/Benchmarks/TSVC/Reductions-dbl/Reductions-dbl, 3.5639, 3.5639, 3.5628,3.5639, 3.5648, 3.5648, 3.5630,3.5648,0.025253233816879828
SingleSource/Benchmarks/McGill/queens, 2.2125, 2.2134, 2.2122,2.2125, 2.2130, 2.2134, 2.2118,2.213,0.022598870056511622
SingleSource/Benchmarks/BenchmarkGame/Large/fasta, 0.8996, 0.8996, 0.8999,0.8996, 0.9026, 0.8995, 0.8998,0.8998,0.02223210315697166
SingleSource/Benchmarks/Shootout/lists, 6.1977, 6.2018, 6.1978,6.1978, 6.2069, 6.1991, 6.1979,6.1991,0.020975184742977326
MultiSource/Benchmarks/TSVC/Reductions-flt/Reductions-flt, 6.6831, 6.6873, 6.6853,6.6853, 6.6893, 6.6867, 6.6855,6.6867,0.020941468595281343
MultiSource/Benchmarks/VersaBench/ecbdes/ecbdes, 2.6321, 2.6314, 2.6305,2.6314, 2.6311, 2.6326, 2.6319,2.6319,0.019001292087850175
MultiSource/Benchmarks/TSVC/Searching-flt/Searching-flt, 2.6642, 2.6442, 2.6441,2.6442, 2.6462, 2.6447, 2.6442,2.6447,0.018909310944703606
MultiSource/Benchmarks/Prolangs-C++/life/life, 1.0959, 1.0954, 1.0953,1.0954, 1.0956, 1.0963, 1.0953,1.0956,0.01825817053131562
MultiSource/Benchmarks/VersaBench/beamformer/beamformer, 1.1562, 1.1556, 1.1553,1.1556, 1.1554, 1.1559, 1.1558,1.1558,0.01730702665281303
SingleSource/Benchmarks/Polybench/stencils/seidel-2d/seidel-2d, 0.5903, 0.5904, 0.5900,0.5903, 0.5903, 0.5904, 0.5908,0.5904,0.01694053870913148
MultiSource/Benchmarks/TSVC/LinearDependence-dbl/LinearDependence-dbl, 3.6874, 3.6818, 3.6776,3.6818, 3.6875, 3.6800, 3.6824,3.6824,0.01629637677222906
MultiSource/Benchmarks/Trimaran/enc-pc1/enc-pc1, 0.6508, 0.6505, 0.6505,0.6505, 0.6504, 0.6506, 0.6506,0.6506,0.01537279016141646
SingleSource/Benchmarks/Misc/flops-2, 1.3385, 1.3388, 1.3379,1.3385, 1.3409, 1.3387, 1.3380,1.3387,0.014942099364967376
MultiSource/Benchmarks/Trimaran/enc-md5/enc-md5, 1.5694, 1.5688, 1.5688,1.5688, 1.5689, 1.5691, 1.5690,1.569,0.012748597654255178
MultiSource/Benchmarks/ASC_Sequoia/AMGmk/AMGmk, 7.8580, 7.8333, 7.8478,7.8478, 7.8485, 7.8487, 7.8579,7.8487,0.011468182165708107
MultiSource/Benchmarks/nbench/nbench, 1.7799, 1.7770, 1.7769,1.777, 1.7775, 1.7772, 1.7768,1.7772,0.011254924029269198
SingleSource/Benchmarks/Shootout-C++/matrix, 2.7815, 2.7837, 2.7821,2.7821, 2.7824, 2.7828, 2.7817,2.7824,0.01078322130765308
MultiSource/Benchmarks/BitBench/five11/five11, 2.0332, 2.0321, 2.0323,2.0323, 2.0358, 2.0323, 2.0325,2.0325,0.009841066771643092
SingleSource/Benchmarks/BenchmarkGame/spectral-norm, 1.2606, 1.2601, 1.2606,1.2606, 1.2613, 1.2604, 1.2607,1.2607,0.007932730445814329
SingleSource/Benchmarks/Misc/perlin, 4.5104, 4.5169, 4.5130,4.513, 4.5133, 4.5152, 4.5130,4.5133,0.0066474628850121675
MultiSource/Applications/lambda-0.1.3/lambda, 4.3021, 4.3017, 4.3011,4.3017, 4.3039, 4.3019, 4.2992,4.3019,0.004649324685579437
MultiSource/Benchmarks/Olden/em3d/em3d, 2.7304, 2.7287, 2.7284,2.7287, 2.7288, 2.7296, 2.7281,2.7288,0.0036647487814844837
SingleSource/Benchmarks/SmallPT/smallpt, 9.9077, 9.9053, 9.9057,9.9057, 9.9055, 9.9059, 9.9069,9.9059,0.0020190395429109387
SingleSource/Benchmarks/Misc/ReedSolomon, 5.6603, 5.6637, 5.6605,5.6605, 5.6618, 5.6602, 5.6606,5.6606,0.0017666283897099788
SingleSource/Regression/C/uint64_to_float, 0.3996, 0.3996, 0.3994,0.3996, 0.4020, 0.3993, 0.3996,0.3996,0.0
SingleSource/Benchmarks/Stanford/Quicksort, 0.0383, 0.0381, 0.0382,0.0382, 0.0384, 0.0382, 0.0380,0.0382,0.0
SingleSource/Benchmarks/Stanford/FloatMM, 0.3377, 0.3375, 0.3375,0.3375, 0.3374, 0.3375, 0.3375,0.3375,0.0
SingleSource/Benchmarks/Stanford/Bubblesort, 0.0391, 0.0391, 0.0394,0.0391, 0.0392, 0.0391, 0.0391,0.0391,0.0
SingleSource/Benchmarks/Shootout/hash, 4.0971, 4.0944, 4.0902,4.0944, 4.0944, 4.0970, 4.0895,4.0944,0.0
SingleSource/Benchmarks/Shootout-C++/strcat, 0.0630, 0.0627, 0.0633,0.063, 0.0630, 0.0629, 0.0631,0.063,0.0
SingleSource/Benchmarks/Shootout-C++/objinst, 0.0015, 0.0015, 0.0015,0.0015, 0.0015, 0.0015, 0.0015,0.0015,0.0
SingleSource/Benchmarks/Shootout-C++/lists1, 0.2189, 0.2190, 0.2195,0.219, 0.2188, 0.2190, 0.2191,0.219,0.0
SingleSource/Benchmarks/Polybench/linear-algebra/kernels/trisolv/trisolv, 0.1561, 0.1562, 0.1571,0.1562, 0.1564, 0.1562, 0.1558,0.1562,0.0
SingleSource/Benchmarks/Misc/pi, 0.5933, 0.5940, 0.5935,0.5935, 0.5962, 0.5934, 0.5935,0.5935,0.0
SingleSource/Benchmarks/Misc/matmul_f64_4x4, 0.7799, 0.7801, 0.7801,0.7801, 0.7812, 0.7801, 0.7800,0.7801,0.0
SingleSource/Benchmarks/Misc/mandel, 0.8816, 0.8819, 0.8817,0.8817, 0.8824, 0.8817, 0.8817,0.8817,0.0
SingleSource/Benchmarks/Misc/himenobmtxpa, 0.8837, 0.8850, 0.8861,0.885, 0.8850, 0.8847, 0.8857,0.885,0.0
SingleSource/Benchmarks/Misc/flops-8, 1.7654, 1.7673, 1.7656,1.7656, 1.7653, 1.7665, 1.7656,1.7656,0.0
SingleSource/Benchmarks/Misc/flops-7, 2.3532, 2.3546, 2.3536,2.3536, 2.3529, 2.3536, 2.3536,2.3536,0.0
MultiSource/Benchmarks/mediabench/mpeg2/mpeg2dec/mpeg2decode, 0.0138, 0.0138, 0.0139,0.0138, 0.0138, 0.0137, 0.0139,0.0138,0.0
MultiSource/Benchmarks/TSVC/Symbolics-dbl/Symbolics-dbl, 3.2988, 3.2997, 3.3008,3.2997, 3.2959, 3.2997, 3.2998,3.2997,0.0
MultiSource/Benchmarks/MiBench/security-rijndael/security-rijndael, 0.0378, 0.0377, 0.0377,0.0377, 0.0379, 0.0376, 0.0377,0.0377,0.0
MultiSource/Benchmarks/MiBench/network-dijkstra/network-dijkstra, 0.0395, 0.0392, 0.0392,0.0392, 0.0391, 0.0392, 0.0392,0.0392,0.0
MultiSource/Benchmarks/McCat/03-testtrie/testtrie, 0.0114, 0.0114, 0.0114,0.0114, 0.0113, 0.0114, 0.0114,0.0114,0.0
MultiSource/Benchmarks/McCat/01-qbsort/qbsort, 0.0687, 0.0689, 0.0687,0.0687, 0.0688, 0.0687, 0.0687,0.0687,0.0
MultiSource/Benchmarks/FreeBench/pcompress2/pcompress2, 0.1385, 0.1383, 0.1383,0.1383, 0.1383, 0.1384, 0.1383,0.1383,0.0
MultiSource/Benchmarks/FreeBench/fourinarow/fourinarow, 0.2647, 0.2644, 0.2643,0.2644, 0.2647, 0.2644, 0.2641,0.2644,0.0
MultiSource/Benchmarks/BitBench/uudecode/uudecode, 0.1001, 0.1001, 0.1002,0.1001, 0.1003, 0.1000, 0.1001,0.1001,0.0
MultiSource/Applications/sgefa/sgefa, 0.2600, 0.2601, 0.2599,0.26, 0.2600, 0.2600, 0.2602,0.26,0.0
MultiSource/Applications/ALAC/encode/alacconvert-encode, 0.0425, 0.0425, 0.0427,0.0425, 0.0424, 0.0425, 0.0427,0.0425,0.0
SingleSource/Benchmarks/CoyoteBench/almabench,13.6829,13.6881,13.6799,13.6829,13.6894,13.6827,13.6816,13.6827,-0.00146167844535805
SingleSource/Benchmarks/Misc/salsa20, 6.6475, 6.6506, 6.6480,6.648, 6.6487, 6.6472, 6.6479,6.6479,-0.0015042117930130772
MultiSource/Benchmarks/Trimaran/netbench-url/netbench-url, 2.9451, 2.9440, 2.9437,2.944, 2.9439, 2.9439, 2.9446,2.9439,-0.0033967391304234873
MultiSource/Benchmarks/NPB-serial/is/is, 7.3153, 7.3125, 7.3123,7.3125, 7.3122, 7.3138, 7.3121,7.3122,-0.004102564102570483
SingleSource/Benchmarks/Misc/flops, 7.9150, 7.9198, 7.9157,7.9157, 7.9153, 7.9145, 7.9153,7.9153,-0.0050532486072008
MultiSource/Benchmarks/TSVC/Packing-dbl/Packing-dbl, 3.7914, 3.7922, 3.7899,3.7914, 3.7912, 3.7913, 3.7894,3.7912,-0.005275096270507262
SingleSource/Benchmarks/Misc-C++/mandel-text, 1.6619, 1.6626, 1.6623,1.6623, 1.6632, 1.6622, 1.6621,1.6622,-0.00601576129460879
MultiSource/Benchmarks/mafft/pairlocalalign,24.2198,24.2155,24.2175,24.2175,24.2159,24.2247,24.2094,24.2159,-0.006606792608654377
SingleSource/Benchmarks/Misc/flops-6, 1.3780, 1.3788, 1.3780,1.378, 1.3807, 1.3779, 1.3779,1.3779,-0.007256894049345597
MultiSource/Benchmarks/VersaBench/8b10b/8b10b, 4.9477, 4.9456, 4.9392,4.9456, 4.9452, 4.9462, 4.9180,4.9452,-0.008087997411843073
SingleSource/Benchmarks/Misc/flops-1, 2.3535, 2.3550, 2.3536,2.3536, 2.3535, 2.3534, 2.3534,2.3534,-0.008497620666214623
MultiSource/Benchmarks/sim/sim, 5.0068, 5.0051, 5.0089,5.0068, 5.0089, 5.0063, 5.0059,5.0063,-0.009986418470875336
MultiSource/Benchmarks/SciMark2-C/scimark2,41.1783,41.1649,41.1564,41.1649,41.1634,41.1605,41.1583,41.1605,-0.010688717815432458
MultiSource/Benchmarks/TSVC/Expansion-dbl/Expansion-dbl, 3.8649, 3.8593, 3.8639,3.8639, 3.8676, 3.8632, 3.8634,3.8634,-0.012940293485863563
SingleSource/Benchmarks/Misc/fp-convert, 1.4978, 1.4986, 1.4979,1.4979, 1.4978, 1.4977, 1.4975,1.4977,-0.013352026169966003
MultiSource/Benchmarks/Ptrdist/yacr2/yacr2, 0.7065, 0.7060, 0.7061,0.7061, 0.7063, 0.7060, 0.7060,0.706,-0.014162299957509727
SingleSource/Benchmarks/Polybench/stencils/fdtd-2d/fdtd-2d, 0.6726, 0.6740, 0.6707,0.6726, 0.6712, 0.6725, 0.6735,0.6725,-0.014867677668750634
MultiSource/Benchmarks/Trimaran/enc-3des/enc-3des, 1.9467, 1.9453, 1.9455,1.9455, 1.9451, 1.9452, 1.9461,1.9452,-0.015420200462601397
SingleSource/Benchmarks/Polybench/linear-algebra/kernels/syrk/syrk, 2.3733, 2.3746, 2.3777,2.3746, 2.3799, 2.3742, 2.3708,2.3742,-0.016844942306071253
SingleSource/Benchmarks/Shootout-C++/methcall, 4.7144, 4.7168, 4.7151,4.7151, 4.7133, 4.7159, 4.7143,4.7143,-0.016966766346415696
MultiSource/Benchmarks/VersaBench/bmm/bmm, 1.7434, 1.7448, 1.7450,1.7448, 1.7444, 1.7453, 1.7445,1.7445,-0.017193947730398396
SingleSource/Benchmarks/Adobe-C++/simple_types_loop_invariant, 2.2288, 2.2287, 2.2288,2.2288, 2.2294, 2.2284, 2.2284,2.2284,-0.01794687724335775
MultiSource/Benchmarks/Trimaran/enc-rc4/enc-rc4, 1.0499, 1.0494, 1.0493,1.0494, 1.0492, 1.0492, 1.0494,1.0492,-0.019058509624569897
SingleSource/Benchmarks/Shootout-C++/fibo, 2.6215, 2.6216, 2.6220,2.6216, 2.6213, 2.6199, 2.6211,2.6211,-0.019072322245949902
MultiSource/Applications/viterbi/viterbi, 1.9320, 1.9309, 1.9305,1.9309, 1.9315, 1.9305, 1.9303,1.9305,-0.02071572841679803
SingleSource/Benchmarks/Linpack/linpack-pc, 2.2774, 2.2782, 2.2788,2.2782, 2.2772, 2.2777, 2.2789,2.2777,-0.021947151259771314
SingleSource/Benchmarks/Misc/flops-3, 1.8186, 1.8202, 1.8192,1.8192, 1.8188, 1.8186, 1.8189,1.8188,-0.021987686895341696
MultiSource/Applications/SIBsim4/SIBsim4, 3.5555, 3.5512, 3.5553,3.5553, 3.5569, 3.5545, 3.5541,3.5545,-0.022501617303738453
MultiSource/Benchmarks/DOE-ProxyApps-C/XSBench/XSBench, 3.0534, 3.0534, 3.0521,3.0534, 3.0525, 3.0537, 3.0516,3.0525,-0.02947533896638932
SingleSource/Benchmarks/Misc/whetstone, 1.3211, 1.3223, 1.3215,1.3215, 1.3218, 1.3207, 1.3211,1.3211,-0.030268634127883498
MultiSource/Benchmarks/BitBench/drop3/drop3, 0.3293, 0.3293, 0.3292,0.3293, 0.3292, 0.3288, 0.3293,0.3292,-0.03036744609777875
SingleSource/Benchmarks/Misc/mandel-2, 0.9142, 0.9147, 0.9143,0.9143, 0.9140, 0.9140, 0.9144,0.914,-0.03281198731269752
MultiSource/Benchmarks/Prolangs-C++/primes/primes, 0.3034, 0.3026, 0.3020,0.3026, 0.3023, 0.3033, 0.3025,0.3025,-0.033046926635815765
SingleSource/Benchmarks/Misc/flops-5, 1.3917, 1.3924, 1.3920,1.392, 1.3915, 1.3955, 1.3912,1.3915,-0.03591954022987842
MultiSource/Benchmarks/Olden/bisort/bisort, 0.4754, 0.4756, 0.4758,0.4756, 0.4754, 0.4749, 0.4756,0.4754,-0.042052144659388
SingleSource/Benchmarks/Misc-C++/Large/sphereflake, 5.6457, 5.6492, 5.6425,5.6457, 5.6447, 5.6413, 5.6433,5.6433,-0.04251022902385104
MultiSource/Benchmarks/TSVC/InductionVariable-dbl/InductionVariable-dbl, 4.4559, 4.4573, 4.4532,4.4559, 4.4561, 4.4539, 4.4533,4.4539,-0.04488431068919718
SingleSource/Benchmarks/Shootout/heapsort, 2.1459, 2.1448, 2.1456,2.1456, 2.1397, 2.1446, 2.1467,2.1446,-0.04660700969425502
SingleSource/Benchmarks/Shootout-C++/heapsort, 2.1444, 2.1439, 2.1405,2.1439, 2.1429, 2.1440, 2.1409,2.1429,-0.04664396660291059
MultiSource/Benchmarks/TSVC/Searching-dbl/Searching-dbl, 2.9757, 2.9732, 2.9770,2.9757, 2.9742, 2.9784, 2.9710,2.9742,-0.05040830728902934
MultiSource/Benchmarks/Ptrdist/ks/ks, 1.9847, 1.9828, 1.9836,1.9836, 1.9843, 1.9826, 1.9756,1.9826,-0.05041338979633325
SingleSource/Benchmarks/Shootout/matrix, 2.5289, 2.5300, 2.5305,2.53, 2.5287, 2.5319, 2.5283,2.5287,-0.051383399209470326
MultiSource/Benchmarks/Olden/tsp/tsp, 1.1630, 1.1626, 1.1638,1.163, 1.1617, 1.1624, 1.1633,1.1624,-0.05159071367153434
MultiSource/Benchmarks/MiBench/telecomm-gsm/telecomm-gsm, 0.1774, 0.1770, 0.1772,0.1772, 0.1772, 0.1771, 0.1770,0.1771,-0.05643340857787171
SingleSource/Benchmarks/Polybench/linear-algebra/kernels/doitgen/doitgen, 0.8793, 0.8781, 0.8785,0.8785, 0.8780, 0.8774, 0.8782,0.878,-0.05691519635742104
MultiSource/Benchmarks/ASC_Sequoia/CrystalMk/CrystalMk, 5.5202, 5.5210, 5.5183,5.5202, 5.5170, 5.5189, 5.5165,5.517,-0.05796891416977035
SingleSource/Benchmarks/Polybench/datamining/correlation/correlation, 3.1016, 3.0956, 3.0926,3.0956, 3.0891, 3.0938, 3.0973,3.0938,-0.058147047422152376
MultiSource/Benchmarks/TSVC/ControlFlow-flt/ControlFlow-flt, 3.8114, 3.8127, 3.8067,3.8114, 3.8090, 3.8211, 3.8045,3.809,-0.06296898777351512
MultiSource/Benchmarks/MallocBench/espresso/espresso, 0.4564, 0.4554, 0.4559,0.4559, 0.4556, 0.4557, 0.4551,0.4556,-0.06580390436500272
SingleSource/Benchmarks/BenchmarkGame/puzzle, 0.1339, 0.1340, 0.1339,0.1339, 0.1334, 0.1338, 0.1339,0.1338,-0.07468259895443419
SingleSource/Benchmarks/Polybench/linear-algebra/kernels/gesummv/gesummv, 0.2651, 0.2649, 0.2650,0.265, 0.2647, 0.2649, 0.2648,0.2648,-0.07547169811321641
SingleSource/Benchmarks/BenchmarkGame/fannkuch, 2.5197, 2.5191, 2.5153,2.5191, 2.5199, 2.5171, 2.5150,2.5171,-0.07939343416298872
SingleSource/Benchmarks/Polybench/linear-algebra/kernels/bicg/bicg, 0.2497, 0.2498, 0.2500,0.2498, 0.2496, 0.2496, 0.2498,0.2496,-0.08006405124099114
SingleSource/Benchmarks/Misc/richards_benchmark, 0.9889, 0.9885, 0.9889,0.9889, 0.9884, 0.9877, 0.9881,0.9881,-0.08089796743857569
SingleSource/Benchmarks/Stanford/Puzzle, 0.1208, 0.1208, 0.1205,0.1208, 0.1207, 0.1206, 0.1209,0.1207,-0.08278145695364003
SingleSource/Benchmarks/Polybench/linear-algebra/solvers/gramschmidt/gramschmidt, 5.2273, 5.2264, 5.2285,5.2273, 5.2260, 5.2194, 5.2229,5.2229,-0.0841734738775135
MultiSource/Benchmarks/Olden/perimeter/perimeter, 0.2178, 0.2179, 0.2183,0.2179, 0.2177, 0.2177, 0.2179,0.2177,-0.09178522257916599
MultiSource/Benchmarks/Fhourstones-3.1/fhourstones3.1, 1.0685, 1.0684, 1.0688,1.0685, 1.0692, 1.0674, 1.0675,1.0675,-0.09358914365934501
SingleSource/Benchmarks/Misc/flops-4, 0.9041, 0.9027, 0.9035,0.9035, 0.9032, 0.9026, 0.9019,0.9026,-0.09961261759823259
MultiSource/Benchmarks/ASCI_Purple/SMG2000/smg2000, 2.3922, 2.3933, 2.3938,2.3933, 2.3902, 2.3907, 2.3925,2.3907,-0.10863661053776008
MultiSource/Benchmarks/Olden/treeadd/treeadd, 0.2187, 0.2184, 0.2185,0.2185, 0.2179, 0.2182, 0.2185,0.2182,-0.13729977116704317
SingleSource/Benchmarks/Stanford/Treesort, 0.0699, 0.0696, 0.0696,0.0696, 0.0696, 0.0694, 0.0695,0.0695,-0.1436781609195248
MultiSource/Benchmarks/McCat/18-imp/imp, 0.0628, 0.0627, 0.0629,0.0628, 0.0628, 0.0624, 0.0627,0.0627,-0.15923566878979223
MultiSource/Benchmarks/Olden/voronoi/voronoi, 0.2925, 0.2930, 0.2929,0.2929, 0.2922, 0.2924, 0.2925,0.2924,-0.17070672584499347
MultiSource/Applications/aha/aha, 2.3758, 2.3784, 2.3703,2.3758, 2.3753, 2.3714, 2.3676,2.3714,-0.18520077447596872
SingleSource/Benchmarks/Misc/ffbench, 0.7185, 0.7204, 0.7170,0.7185, 0.7175, 0.7169, 0.7171,0.7171,-0.1948503827418291
SingleSource/Benchmarks/Polybench/linear-algebra/kernels/atax/atax, 0.1974, 0.1968, 0.1974,0.1974, 0.1970, 0.1970, 0.1967,0.197,-0.20263424518742745
MultiSource/Benchmarks/FreeBench/neural/neural, 0.0985, 0.0982, 0.0985,0.0985, 0.0983, 0.0982, 0.0987,0.0983,-0.20304568527919065
MultiSource/Benchmarks/Ptrdist/ft/ft, 0.6072, 0.6102, 0.6088,0.6088, 0.6075, 0.6044, 0.6128,0.6075,-0.2135348226018352
SingleSource/Benchmarks/Shootout/strcat, 0.1351, 0.1353, 0.1347,0.1351, 0.1348, 0.1349, 0.1348,0.1348,-0.22205773501109416
MultiSource/Benchmarks/Prolangs-C/gnugo/gnugo, 0.0434, 0.0434, 0.0434,0.0434, 0.0433, 0.0433, 0.0434,0.0433,-0.23041474654378336
SingleSource/Benchmarks/Misc-C++/bigfib, 0.3353, 0.3354, 0.3361,0.3354, 0.3346, 0.3346, 0.3354,0.3346,-0.23852116875371365
MultiSource/Benchmarks/7zip/7zip-benchmark, 8.0985, 8.0953, 8.0976,8.0976, 8.0779, 8.0794, 8.0734,8.0779,-0.24328196008693848
MultiSource/Benchmarks/MiBench/telecomm-FFT/telecomm-fft, 0.0409, 0.0407, 0.0406,0.0407, 0.0406, 0.0405, 0.0408,0.0406,-0.24570024570025328
MultiSource/Benchmarks/McCat/08-main/main, 0.0402, 0.0403, 0.0405,0.0403, 0.0405, 0.0402, 0.0402,0.0402,-0.2481389578163795
SingleSource/Benchmarks/Polybench/linear-algebra/kernels/symm/symm,18.2262,18.4293,18.3658,18.3658,18.4527,18.2775,18.2985,18.2985,-0.366441973668441
MultiSource/Benchmarks/TSVC/Equivalencing-flt/Equivalencing-flt, 1.4799, 1.4784, 1.4690,1.4784, 1.4686, 1.4761, 1.4728,1.4728,-0.37878787878786735
MultiSource/Applications/oggenc/oggenc, 0.1247, 0.1251, 0.1249,0.1249, 0.1242, 0.1244, 0.1248,0.1244,-0.4003202562049668
SingleSource/Benchmarks/Shootout-C++/hash2, 2.7705, 2.7727, 2.7710,2.771, 2.7588, 2.7586, 2.7580,2.7586,-0.44749188018765595
SingleSource/Benchmarks/Shootout-C++/hash, 0.5386, 0.5392, 0.5392,0.5392, 0.5367, 0.5367, 0.5393,0.5367,-0.4636498516320531
MultiSource/Benchmarks/MiBench/security-sha/security-sha, 0.0214, 0.0213, 0.0211,0.0213, 0.0212, 0.0212, 0.0211,0.0212,-0.46948356807511304
SingleSource/Benchmarks/Stanford/Perm, 0.0210, 0.0209, 0.0209,0.0209, 0.0210, 0.0208, 0.0206,0.0208,-0.4784688995215336
MultiSource/Benchmarks/Olden/health/health, 0.2761, 0.2785, 0.2790,0.2785, 0.2768, 0.2771, 0.2795,0.2771,-0.502692998204668
SingleSource/Benchmarks/CoyoteBench/huffbench,18.8043,18.8252,18.7959,18.8043,18.6944,18.8195,18.7093,18.7093,-0.5052035970496194
SingleSource/Benchmarks/Shootout-C++/sieve, 1.5076, 1.4987, 1.5169,1.5076, 1.4929, 1.4993, 1.5001,1.4993,-0.5505439108516863
MultiSource/Benchmarks/TSVC/CrossingThresholds-flt/CrossingThresholds-flt, 2.5629, 2.5675, 2.5707,2.5675, 2.5574, 2.5514, 2.5529,2.5529,-0.5686465433300758
MultiSource/Benchmarks/mediabench/g721/g721encode/encode, 0.0424, 0.0420, 0.0424,0.0424, 0.0421, 0.0418, 0.0424,0.0421,-0.7075471698113289
MultiSource/Benchmarks/MiBench/consumer-lame/consumer-lame, 0.2142, 0.2135, 0.2145,0.2142, 0.2126, 0.2127, 0.2121,0.2126,-0.7469654528478031
MultiSource/Benchmarks/Ptrdist/bc/bc, 0.5799, 0.5799, 0.5794,0.5799, 0.5739, 0.5727, 0.5734,0.5734,-1.1208829108466878
MultiSource/Applications/siod/siod, 2.8151, 2.8148, 2.8148,2.8148, 2.7630, 2.7628, 2.7630,2.763,-1.8402728435412796
Total elapsed time,-,-,-,686.9956999999997,-,-,-,687.0466999999995,0.0074236272512129275
Total failure,-,-,-,0,-,-,-,0,
