Benchmarks,/mnt/freezedisk/llvm-intptr-base-4.0-release/bin/clang,/mnt/freezedisk/llvm-intptr-base-4.0-release/bin/clang,/mnt/freezedisk/llvm-intptr-base-4.0-release/bin/clang,median,/mnt/freezedisk/llvm-intptr-restrict-release/bin/clang,/mnt/freezedisk/llvm-intptr-restrict-release/bin/clang,/mnt/freezedisk/llvm-intptr-restrict-release/bin/clang,median
MultiSource/Applications/ALAC/decode/alacconvert-decode, 1.0097, 1.0099, 1.0092,1.0097, 1.0136, 1.0110, 1.0106,1.011
MultiSource/Applications/ALAC/encode/alacconvert-encode, 1.0200, 1.0104, 1.0226,1.02, 1.0118, 1.0104, 1.0121,1.0118
MultiSource/Applications/ClamAV/clamscan,12.5410,12.5688,12.5678,12.5678,12.5148,12.5256,12.5318,12.5256
MultiSource/Applications/JM/ldecod/ldecod, 6.0278, 6.0265, 6.0234,6.0265, 6.0405, 6.0394, 6.0483,6.0405
MultiSource/Applications/JM/lencod/lencod,13.3776,13.3800,13.3762,13.3776,13.4198,13.3791,13.3926,13.3926
MultiSource/Applications/SIBsim4/SIBsim4, 1.2722, 1.2930, 1.2820,1.282, 1.2601, 1.2807, 1.2736,1.2736
MultiSource/Applications/SPASS/SPASS,11.7456,11.7580,11.7511,11.7511,11.7340,11.7079,11.7098,11.7098
MultiSource/Applications/aha/aha, 0.1084, 0.1057, 0.1007,0.1057, 0.1021, 0.1048, 0.1099,0.1048
MultiSource/Applications/d/make_dparser, 2.5502, 2.5436, 2.5440,2.544, 2.5667, 2.5669, 2.5670,2.5669
MultiSource/Applications/hbd/hbd, 1.2004, 1.1981, 1.1990,1.199, 1.2316, 1.2122, 1.2142,1.2142
MultiSource/Applications/hexxagon/hexxagon, 0.7047, 0.7049, 0.7037,0.7047, 0.7191, 0.7210, 0.7195,0.7195
MultiSource/Applications/kimwitu++/kc,10.2544,10.2870,10.2268,10.2544,10.3756,10.2425,10.1949,10.2425
MultiSource/Applications/lambda-0.1.3/lambda, 0.5096, 0.5096, 0.5096,0.5096, 0.5412, 0.5423, 0.5424,0.5423
MultiSource/Applications/lua/lua, 3.1099, 3.1190, 3.1101,3.1101, 3.0981, 3.0946, 3.1039,3.0981
MultiSource/Applications/minisat/minisat, 0.6098, 0.6109, 0.6208,0.6109, 0.5819, 0.5841, 0.5826,0.5826
MultiSource/Applications/obsequi/Obsequi, 1.0215, 1.0322, 1.0140,1.0215, 1.0129, 1.0371, 1.0312,1.0312
MultiSource/Applications/oggenc/oggenc, 4.7610, 4.7564, 4.7690,4.761, 4.7058, 4.7094, 4.7075,4.7075
MultiSource/Applications/sgefa/sgefa, 0.4279, 0.4283, 0.4277,0.4279, 0.4280, 0.4281, 0.4275,0.428
MultiSource/Applications/siod/siod, 1.8197, 1.8106, 1.8112,1.8112, 1.6850, 1.6851, 1.6827,1.685
MultiSource/Applications/spiff/spiff, 0.7498, 0.7510, 0.7532,0.751, 0.7413, 0.7508, 0.7478,0.7478
MultiSource/Applications/sqlite3/sqlite3,12.6665,12.6519,12.6792,12.6665,10.3422,10.3458,10.3059,10.3422
MultiSource/Applications/viterbi/viterbi, 0.1812, 0.1650, 0.1650,0.165, 0.1909, 0.1649, 0.1652,0.1652
MultiSource/Benchmarks/7zip/7zip-benchmark,33.2052,33.2224,33.2320,33.2224,33.2334,33.2121,33.2404,33.2334
MultiSource/Benchmarks/ASCI_Purple/SMG2000/smg2000, 6.2165, 6.2121, 6.2379,6.2165, 6.2682, 6.2216, 6.2155,6.2216
MultiSource/Benchmarks/ASC_Sequoia/AMGmk/AMGmk, 0.6190, 0.6206, 0.6135,0.619, 0.6186, 0.6234, 0.6079,0.6186
MultiSource/Benchmarks/ASC_Sequoia/CrystalMk/CrystalMk, 0.2384, 0.2387, 0.2387,0.2387, 0.2387, 0.2384, 0.2382,0.2384
MultiSource/Benchmarks/ASC_Sequoia/IRSmk/IRSmk, 0.1125, 0.1122, 0.1104,0.1122, 0.1051, 0.1087, 0.1061,0.1061
MultiSource/Benchmarks/BitBench/drop3/drop3, 0.0424, 0.0426, 0.0424,0.0424, 0.0427, 0.0425, 0.0425,0.0425
MultiSource/Benchmarks/BitBench/five11/five11, 0.0557, 0.0558, 0.0560,0.0558, 0.0561, 0.0561, 0.0561,0.0561
MultiSource/Benchmarks/BitBench/uudecode/uudecode, 0.0453, 0.0451, 0.0450,0.0451, 0.0451, 0.0452, 0.0453,0.0452
MultiSource/Benchmarks/BitBench/uuencode/uuencode, 0.0437, 0.0438, 0.0440,0.0438, 0.0441, 0.0440, 0.0441,0.0441
MultiSource/Benchmarks/Bullet/bullet,22.3166,22.3275,22.3223,22.3223,22.4161,22.3909,22.3881,22.3909
MultiSource/Benchmarks/DOE-ProxyApps-C/XSBench/XSBench, 0.3308, 0.3311, 0.3309,0.3309, 0.3309, 0.3309, 0.3308,0.3309
MultiSource/Benchmarks/Fhourstones-3.1/fhourstones3.1, 0.1413, 0.1342, 0.1373,0.1373, 0.1386, 0.1379, 0.1339,0.1379
MultiSource/Benchmarks/Fhourstones/fhourstones, 0.1653, 0.1653, 0.1651,0.1653, 0.1656, 0.1647, 0.1652,0.1652
MultiSource/Benchmarks/FreeBench/analyzer/analyzer, 0.2427, 0.2436, 0.2426,0.2427, 0.2449, 0.2446, 0.2442,0.2446
MultiSource/Benchmarks/FreeBench/distray/distray, 0.0948, 0.0951, 0.0945,0.0948, 0.0950, 0.0949, 0.0949,0.0949
MultiSource/Benchmarks/FreeBench/fourinarow/fourinarow, 0.2844, 0.2842, 0.2852,0.2844, 0.2853, 0.2856, 0.2853,0.2853
MultiSource/Benchmarks/FreeBench/mason/mason, 0.0482, 0.0484, 0.0481,0.0482, 0.0484, 0.0483, 0.0482,0.0483
MultiSource/Benchmarks/FreeBench/neural/neural, 0.1766, 0.1767, 0.1768,0.1767, 0.1776, 0.1780, 0.1780,0.178
MultiSource/Benchmarks/FreeBench/pcompress2/pcompress2, 0.2445, 0.2449, 0.2444,0.2445, 0.2450, 0.2443, 0.2446,0.2446
MultiSource/Benchmarks/FreeBench/pifft/pifft, 1.0545, 1.0535, 1.0548,1.0545, 1.0526, 1.0538, 1.0539,1.0538
MultiSource/Benchmarks/MallocBench/cfrac/cfrac, 0.8672, 0.8730, 0.8707,0.8707, 0.8421, 0.8370, 0.8416,0.8416
MultiSource/Benchmarks/MallocBench/espresso/espresso, 4.7763, 4.7801, 4.7888,4.7801, 4.7171, 4.7138, 4.7070,4.7138
MultiSource/Benchmarks/MallocBench/gs/gs, 3.6495, 3.6510, 3.6491,3.6495, 3.6566, 3.6285, 3.6322,3.6322
MultiSource/Benchmarks/McCat/01-qbsort/qbsort, 0.1078, 0.1087, 0.1004,0.1078, 0.0991, 0.0978, 0.1055,0.0991
MultiSource/Benchmarks/McCat/03-testtrie/testtrie, 0.0910, 0.0910, 0.0909,0.091, 0.0912, 0.0907, 0.0911,0.0911
MultiSource/Benchmarks/McCat/04-bisect/bisect, 0.1313, 0.1312, 0.1311,0.1312, 0.1312, 0.1311, 0.1310,0.1311
MultiSource/Benchmarks/McCat/05-eks/eks, 0.5632, 0.5582, 0.5669,0.5632, 0.5609, 0.5643, 0.5598,0.5609
MultiSource/Benchmarks/McCat/08-main/main, 0.2379, 0.2438, 0.2405,0.2405, 0.2309, 0.2446, 0.2331,0.2331
MultiSource/Benchmarks/McCat/09-vor/vor, 0.2700, 0.2703, 0.2698,0.27, 0.2741, 0.2727, 0.2736,0.2736
MultiSource/Benchmarks/McCat/12-IOtest/iotest, 0.1085, 0.1129, 0.1141,0.1129, 0.1040, 0.1107, 0.1112,0.1107
MultiSource/Benchmarks/McCat/17-bintr/bintr, 0.0693, 0.0696, 0.0694,0.0694, 0.0698, 0.0692, 0.0691,0.0692
MultiSource/Benchmarks/McCat/18-imp/imp, 0.3308, 0.3292, 0.3303,0.3303, 0.3349, 0.3299, 0.3266,0.3299
MultiSource/Benchmarks/MiBench/automotive-basicmath/automotive-basicmath, 0.1362, 0.1367, 0.1362,0.1362, 0.1367, 0.1363, 0.1365,0.1365
MultiSource/Benchmarks/MiBench/automotive-bitcount/automotive-bitcount, 0.2567, 0.2577, 0.2523,0.2567, 0.2520, 0.2533, 0.2512,0.252
MultiSource/Benchmarks/MiBench/automotive-susan/automotive-susan, 0.7800, 0.7711, 0.7717,0.7717, 0.7740, 0.7749, 0.7882,0.7749
MultiSource/Benchmarks/MiBench/consumer-jpeg/consumer-jpeg, 4.1540, 4.1600, 4.1669,4.16, 4.1812, 4.1590, 4.1589,4.159
MultiSource/Benchmarks/MiBench/consumer-lame/consumer-lame, 3.8855, 3.8829, 3.8748,3.8829, 3.8913, 3.8712, 3.8627,3.8712
MultiSource/Benchmarks/MiBench/consumer-typeset/consumer-typeset, 9.8283, 9.8282, 9.8302,9.8283, 9.9568, 9.9388, 9.9712,9.9568
MultiSource/Benchmarks/MiBench/network-dijkstra/network-dijkstra, 0.0434, 0.0434, 0.0433,0.0434, 0.0436, 0.0438, 0.0437,0.0437
MultiSource/Benchmarks/MiBench/network-patricia/network-patricia, 0.0772, 0.0775, 0.0774,0.0774, 0.0992, 0.0891, 0.0893,0.0893
MultiSource/Benchmarks/MiBench/security-rijndael/security-rijndael, 0.4105, 0.4130, 0.4089,0.4105, 0.4070, 0.3979, 0.4065,0.4065
MultiSource/Benchmarks/MiBench/security-sha/security-sha, 0.0928, 0.1000, 0.0978,0.0978, 0.0984, 0.0949, 0.0983,0.0983
MultiSource/Benchmarks/MiBench/telecomm-CRC32/telecomm-CRC32, 0.0349, 0.0350, 0.0351,0.035, 0.0350, 0.0351, 0.0349,0.035
MultiSource/Benchmarks/MiBench/telecomm-FFT/telecomm-fft, 0.1442, 0.1443, 0.1445,0.1443, 0.1418, 0.1418, 0.1423,0.1418
MultiSource/Benchmarks/MiBench/telecomm-adpcm/telecomm-adpcm, 0.0602, 0.0629, 0.0694,0.0629, 0.0626, 0.0627, 0.0684,0.0627
MultiSource/Benchmarks/MiBench/telecomm-gsm/telecomm-gsm, 1.1758, 1.1784, 1.1775,1.1775, 1.1804, 1.1783, 1.1791,1.1791
MultiSource/Benchmarks/NPB-serial/is/is, 0.0722, 0.0719, 0.0720,0.072, 0.0720, 0.0720, 0.0719,0.072
MultiSource/Benchmarks/Olden/bh/bh, 0.2558, 0.2563, 0.2556,0.2558, 0.2572, 0.2571, 0.2577,0.2572
MultiSource/Benchmarks/Olden/bisort/bisort, 0.0633, 0.0634, 0.0633,0.0633, 0.0636, 0.0636, 0.0635,0.0636
MultiSource/Benchmarks/Olden/em3d/em3d, 0.1865, 0.1861, 0.1918,0.1865, 0.2104, 0.1914, 0.1944,0.1944
MultiSource/Benchmarks/Olden/health/health, 0.1335, 0.1336, 0.1334,0.1335, 0.1443, 0.1338, 0.1343,0.1343
MultiSource/Benchmarks/Olden/mst/mst, 0.1327, 0.1330, 0.1326,0.1327, 0.1440, 0.1337, 0.1335,0.1337
MultiSource/Benchmarks/Olden/perimeter/perimeter, 0.0776, 0.0774, 0.0777,0.0776, 0.0775, 0.0770, 0.0769,0.077
MultiSource/Benchmarks/Olden/power/power, 0.1387, 0.1459, 0.1379,0.1387, 0.1206, 0.1359, 0.1261,0.1261
MultiSource/Benchmarks/Olden/treeadd/treeadd, 0.0571, 0.0573, 0.0571,0.0571, 0.0574, 0.0571, 0.0570,0.0571
MultiSource/Benchmarks/Olden/tsp/tsp, 0.1225, 0.1231, 0.1223,0.1225, 0.1342, 0.1230, 0.1231,0.1231
MultiSource/Benchmarks/Olden/voronoi/voronoi, 0.2308, 0.2315, 0.2313,0.2313, 0.2319, 0.2321, 0.2318,0.2319
MultiSource/Benchmarks/PAQ8p/paq8p, 2.0657, 2.0630, 2.0631,2.0631, 2.0228, 2.0199, 2.0159,2.0199
MultiSource/Benchmarks/Prolangs-C++/city/city, 0.9337, 0.9421, 0.9362,0.9362, 0.9504, 0.9352, 0.9480,0.948
MultiSource/Benchmarks/Prolangs-C++/employ/employ, 0.2134, 0.2109, 0.2162,0.2134, 0.2287, 0.2152, 0.2183,0.2183
MultiSource/Benchmarks/Prolangs-C++/life/life, 0.0654, 0.0657, 0.0657,0.0657, 0.0658, 0.0653, 0.0655,0.0655
MultiSource/Benchmarks/Prolangs-C++/ocean/ocean, 0.1138, 0.1156, 0.1157,0.1156, 0.1247, 0.1162, 0.1158,0.1162
MultiSource/Benchmarks/Prolangs-C++/primes/primes, 0.0250, 0.0251, 0.0251,0.0251, 0.0252, 0.0250, 0.0249,0.025
MultiSource/Benchmarks/Prolangs-C++/simul/simul, 0.0504, 0.0503, 0.0507,0.0504, 0.0530, 0.0530, 0.0524,0.053
MultiSource/Benchmarks/Prolangs-C/agrep/agrep, 1.3412, 1.3404, 1.3411,1.3411, 1.3428, 1.3405, 1.3390,1.3405
MultiSource/Benchmarks/Prolangs-C/bison/mybison, 1.6196, 1.6211, 1.6195,1.6196, 1.4542, 1.4379, 1.4398,1.4398
MultiSource/Benchmarks/Prolangs-C/gnugo/gnugo, 0.6913, 0.6996, 0.6850,0.6913, 0.7243, 0.6973, 0.6922,0.6973
MultiSource/Benchmarks/Ptrdist/anagram/anagram, 0.0862, 0.0861, 0.0859,0.0861, 0.0865, 0.0865, 0.0867,0.0865
MultiSource/Benchmarks/Ptrdist/bc/bc, 1.0239, 1.0242, 1.0234,1.0239, 1.0158, 1.0151, 1.0154,1.0154
MultiSource/Benchmarks/Ptrdist/ft/ft, 0.2132, 0.2091, 0.2086,0.2091, 0.2174, 0.2123, 0.2121,0.2123
MultiSource/Benchmarks/Ptrdist/ks/ks, 0.1394, 0.1395, 0.1393,0.1394, 0.1408, 0.1408, 0.1408,0.1408
MultiSource/Benchmarks/Ptrdist/yacr2/yacr2, 0.6233, 0.6229, 0.6237,0.6233, 0.6223, 0.6221, 0.6215,0.6221
MultiSource/Benchmarks/SciMark2-C/scimark2, 0.3821, 0.3825, 0.3821,0.3821, 0.3837, 0.3825, 0.3821,0.3825
MultiSource/Benchmarks/TSVC/ControlFlow-dbl/ControlFlow-dbl, 2.2142, 2.2361, 2.2374,2.2361, 2.2410, 2.2357, 2.2378,2.2378
MultiSource/Benchmarks/TSVC/ControlFlow-flt/ControlFlow-flt, 2.4859, 2.4885, 2.4944,2.4885, 2.4918, 2.4816, 2.4907,2.4907
MultiSource/Benchmarks/TSVC/ControlLoops-dbl/ControlLoops-dbl, 2.1457, 2.1365, 2.1344,2.1365, 2.1420, 2.1332, 2.1456,2.142
MultiSource/Benchmarks/TSVC/ControlLoops-flt/ControlLoops-flt, 2.3756, 2.3803, 2.3888,2.3803, 2.3868, 2.3845, 2.3967,2.3868
MultiSource/Benchmarks/TSVC/CrossingThresholds-dbl/CrossingThresholds-dbl, 2.0794, 2.0868, 2.0903,2.0868, 2.0878, 2.0793, 2.0812,2.0812
MultiSource/Benchmarks/TSVC/CrossingThresholds-flt/CrossingThresholds-flt, 2.3360, 2.3237, 2.3290,2.329, 2.3376, 2.3308, 2.3285,2.3308
MultiSource/Benchmarks/TSVC/Equivalencing-dbl/Equivalencing-dbl, 2.0803, 2.0797, 2.0778,2.0797, 2.0887, 2.0826, 2.0892,2.0887
MultiSource/Benchmarks/TSVC/Equivalencing-flt/Equivalencing-flt, 2.3316, 2.3408, 2.3441,2.3408, 2.3377, 2.3336, 2.3388,2.3377
MultiSource/Benchmarks/TSVC/Expansion-dbl/Expansion-dbl, 2.1354, 2.1311, 2.1326,2.1326, 2.1423, 2.1329, 2.1345,2.1345
MultiSource/Benchmarks/TSVC/Expansion-flt/Expansion-flt, 2.3858, 2.3858, 2.3972,2.3858, 2.3867, 2.3499, 2.3841,2.3841
MultiSource/Benchmarks/TSVC/GlobalDataFlow-dbl/GlobalDataFlow-dbl, 2.1270, 2.1443, 2.1347,2.1347, 2.1256, 2.1268, 2.1260,2.126
MultiSource/Benchmarks/TSVC/GlobalDataFlow-flt/GlobalDataFlow-flt, 2.3721, 2.3772, 2.3777,2.3772, 2.3877, 2.3794, 2.3762,2.3794
MultiSource/Benchmarks/TSVC/IndirectAddressing-dbl/IndirectAddressing-dbl, 2.0636, 2.0608, 2.0641,2.0636, 2.0602, 2.0666, 2.0631,2.0631
MultiSource/Benchmarks/TSVC/IndirectAddressing-flt/IndirectAddressing-flt, 2.2676, 2.3161, 2.3062,2.3062, 2.3072, 2.3048, 2.3063,2.3063
MultiSource/Benchmarks/TSVC/InductionVariable-dbl/InductionVariable-dbl, 2.1026, 2.1046, 2.1095,2.1046, 2.1032, 2.1121, 2.1141,2.1121
MultiSource/Benchmarks/TSVC/InductionVariable-flt/InductionVariable-flt, 2.3586, 2.3492, 2.3644,2.3586, 2.3505, 2.3466, 2.3501,2.3501
MultiSource/Benchmarks/TSVC/LinearDependence-dbl/LinearDependence-dbl, 2.1686, 2.1712, 2.1730,2.1712, 2.1675, 2.1686, 2.1691,2.1686
MultiSource/Benchmarks/TSVC/LinearDependence-flt/LinearDependence-flt, 2.4310, 2.4278, 2.4239,2.4278, 2.4233, 2.4373, 2.4218,2.4233
MultiSource/Benchmarks/TSVC/LoopRerolling-dbl/LoopRerolling-dbl, 2.0316, 2.0318, 2.0334,2.0318, 2.0401, 2.0135, 2.0315,2.0315
MultiSource/Benchmarks/TSVC/LoopRerolling-flt/LoopRerolling-flt, 2.2638, 2.2796, 2.2873,2.2796, 2.2908, 2.2890, 2.2815,2.289
MultiSource/Benchmarks/TSVC/LoopRestructuring-dbl/LoopRestructuring-dbl, 2.0970, 2.1052, 2.1027,2.1027, 2.1003, 2.1052, 2.0935,2.1003
MultiSource/Benchmarks/TSVC/LoopRestructuring-flt/LoopRestructuring-flt, 2.3508, 2.3601, 2.3523,2.3523, 2.3505, 2.3561, 2.3526,2.3526
MultiSource/Benchmarks/TSVC/NodeSplitting-dbl/NodeSplitting-dbl, 2.0771, 2.0676, 2.0600,2.0676, 2.0670, 2.0647, 2.0627,2.0647
MultiSource/Benchmarks/TSVC/NodeSplitting-flt/NodeSplitting-flt, 2.3221, 2.3113, 2.3135,2.3135, 2.3166, 2.3119, 2.3120,2.312
MultiSource/Benchmarks/TSVC/Packing-dbl/Packing-dbl, 2.0320, 2.0247, 2.0274,2.0274, 2.0224, 2.0222, 2.0284,2.0224
MultiSource/Benchmarks/TSVC/Packing-flt/Packing-flt, 2.2828, 2.2753, 2.2703,2.2753, 2.2737, 2.2725, 2.2722,2.2725
MultiSource/Benchmarks/TSVC/Recurrences-dbl/Recurrences-dbl, 2.0214, 2.0274, 2.0241,2.0241, 2.0217, 2.0203, 2.0221,2.0217
MultiSource/Benchmarks/TSVC/Recurrences-flt/Recurrences-flt, 2.2610, 2.2606, 2.2533,2.2606, 2.2710, 2.2691, 2.2674,2.2691
MultiSource/Benchmarks/TSVC/Reductions-dbl/Reductions-dbl, 2.1479, 2.1375, 2.1397,2.1397, 2.1359, 2.1395, 2.1349,2.1359
MultiSource/Benchmarks/TSVC/Reductions-flt/Reductions-flt, 2.3849, 2.3969, 2.3819,2.3849, 2.3828, 2.3801, 2.3797,2.3801
MultiSource/Benchmarks/TSVC/Searching-dbl/Searching-dbl, 2.0304, 2.0012, 2.0023,2.0023, 2.0071, 1.9965, 2.0055,2.0055
MultiSource/Benchmarks/TSVC/Searching-flt/Searching-flt, 2.2525, 2.2502, 2.2518,2.2518, 2.2491, 2.2477, 2.2481,2.2481
MultiSource/Benchmarks/TSVC/StatementReordering-dbl/StatementReordering-dbl, 2.0166, 2.0226, 2.0166,2.0166, 2.0245, 2.0268, 2.0196,2.0245
MultiSource/Benchmarks/TSVC/StatementReordering-flt/StatementReordering-flt, 2.2710, 2.2775, 2.2744,2.2744, 2.2746, 2.2771, 2.2729,2.2746
MultiSource/Benchmarks/TSVC/Symbolics-dbl/Symbolics-dbl, 2.0877, 2.0863, 2.0825,2.0863, 2.0754, 2.0717, 2.0716,2.0717
MultiSource/Benchmarks/TSVC/Symbolics-flt/Symbolics-flt, 2.3294, 2.3306, 2.3280,2.3294, 2.3382, 2.3508, 2.3327,2.3382
MultiSource/Benchmarks/Trimaran/enc-3des/enc-3des, 0.2746, 0.2643, 0.2737,0.2737, 0.2641, 0.2718, 0.2776,0.2718
MultiSource/Benchmarks/Trimaran/enc-md5/enc-md5, 0.1630, 0.1633, 0.1629,0.163, 0.1629, 0.1631, 0.1630,0.163
MultiSource/Benchmarks/Trimaran/enc-pc1/enc-pc1, 0.0741, 0.0806, 0.0804,0.0804, 0.0826, 0.0764, 0.0727,0.0764
MultiSource/Benchmarks/Trimaran/enc-rc4/enc-rc4, 0.0519, 0.0517, 0.0518,0.0518, 0.0519, 0.0517, 0.0517,0.0517
MultiSource/Benchmarks/Trimaran/netbench-crc/netbench-crc, 0.0913, 0.0880, 0.0829,0.088, 0.0836, 0.0881, 0.0845,0.0845
MultiSource/Benchmarks/Trimaran/netbench-url/netbench-url, 0.2087, 0.2090, 0.2081,0.2087, 0.2090, 0.2096, 0.2091,0.2091
MultiSource/Benchmarks/VersaBench/8b10b/8b10b, 0.0793, 0.0792, 0.0878,0.0793, 0.0868, 0.0826, 0.0782,0.0826
MultiSource/Benchmarks/VersaBench/beamformer/beamformer, 0.2090, 0.2095, 0.2117,0.2095, 0.2092, 0.2062, 0.2090,0.209
MultiSource/Benchmarks/VersaBench/bmm/bmm, 0.0571, 0.0575, 0.0572,0.0572, 0.0572, 0.0573, 0.0572,0.0572
MultiSource/Benchmarks/VersaBench/dbms/dbms, 1.0246, 1.0375, 1.0379,1.0375, 1.0520, 1.0213, 1.0392,1.0392
MultiSource/Benchmarks/VersaBench/ecbdes/ecbdes, 0.2252, 0.2296, 0.2301,0.2296, 0.2305, 0.2313, 0.2213,0.2305
MultiSource/Benchmarks/llubenchmark/llu, 0.0513, 0.0512, 0.0511,0.0512, 0.0463, 0.0461, 0.0463,0.0463
MultiSource/Benchmarks/mafft/pairlocalalign, 9.4516, 9.4584, 9.4662,9.4584, 9.4719, 9.4522, 9.4477,9.4522
MultiSource/Benchmarks/mediabench/adpcm/rawcaudio/rawcaudio, 0.0677, 0.0599, 0.0700,0.0677, 0.0695, 0.0682, 0.0658,0.0682
MultiSource/Benchmarks/mediabench/adpcm/rawdaudio/rawdaudio, 0.0646, 0.0642, 0.0682,0.0646, 0.0700, 0.0675, 0.0650,0.0675
MultiSource/Benchmarks/mediabench/g721/g721encode/encode, 0.2053, 0.2131, 0.2053,0.2053, 0.2048, 0.2122, 0.2138,0.2122
MultiSource/Benchmarks/mediabench/gsm/toast/toast, 1.2245, 1.2145, 1.2157,1.2157, 1.2298, 1.2168, 1.2160,1.2168
MultiSource/Benchmarks/mediabench/jpeg/jpeg-6a/cjpeg, 4.2059, 4.2087, 4.1958,4.2059, 4.2528, 4.2133, 4.2119,4.2133
MultiSource/Benchmarks/mediabench/mpeg2/mpeg2dec/mpeg2decode, 1.3055, 1.3043, 1.3130,1.3055, 1.3448, 1.3151, 1.3156,1.3156
MultiSource/Benchmarks/nbench/nbench, 1.1804, 1.1778, 1.1778,1.1778, 1.1792, 1.1801, 1.1797,1.1797
MultiSource/Benchmarks/sim/sim, 0.2937, 0.2935, 0.2938,0.2937, 0.2954, 0.2952, 0.2953,0.2953
MultiSource/Benchmarks/tramp3d-v4/tramp3d-v4,18.0728,18.1290,18.1142,18.1142,16.6915,16.6901,16.7371,16.6915
SingleSource/Benchmarks/Adobe-C++/functionobjects, 0.4387, 0.4385, 0.4390,0.4387, 0.3951, 0.3948, 0.3954,0.3951
SingleSource/Benchmarks/Adobe-C++/loop_unroll, 4.6924, 4.6709, 4.6961,4.6924, 4.6990, 4.7260, 4.7004,4.7004
SingleSource/Benchmarks/Adobe-C++/simple_types_constant_folding, 2.3692, 2.3558, 2.3549,2.3558, 2.2217, 2.2295, 2.2287,2.2287
SingleSource/Benchmarks/Adobe-C++/simple_types_loop_invariant, 1.8085, 1.8047, 1.8085,1.8085, 1.7806, 1.7846, 1.7905,1.7846
SingleSource/Benchmarks/Adobe-C++/stepanov_abstraction, 0.6012, 0.6012, 0.6021,0.6012, 0.3558, 0.3581, 0.3568,0.3568
SingleSource/Benchmarks/Adobe-C++/stepanov_vector, 0.7826, 0.7847, 0.7936,0.7847, 0.5290, 0.5355, 0.5323,0.5323
SingleSource/Benchmarks/BenchmarkGame/Large/fasta, 0.0438, 0.0437, 0.0439,0.0438, 0.0441, 0.0439, 0.0440,0.044
SingleSource/Benchmarks/BenchmarkGame/fannkuch, 0.0515, 0.0515, 0.0516,0.0515, 0.0518, 0.0517, 0.0516,0.0517
SingleSource/Benchmarks/BenchmarkGame/n-body, 0.0664, 0.0664, 0.0664,0.0664, 0.0663, 0.0665, 0.0664,0.0664
SingleSource/Benchmarks/BenchmarkGame/nsieve-bits, 0.0335, 0.0334, 0.0334,0.0334, 0.0334, 0.0334, 0.0333,0.0334
SingleSource/Benchmarks/BenchmarkGame/partialsums, 0.0302, 0.0301, 0.0299,0.0301, 0.0301, 0.0301, 0.0301,0.0301
SingleSource/Benchmarks/BenchmarkGame/puzzle, 0.0572, 0.0571, 0.0570,0.0571, 0.0572, 0.0572, 0.0571,0.0572
SingleSource/Benchmarks/BenchmarkGame/recursive, 0.0268, 0.0271, 0.0269,0.0269, 0.0269, 0.0269, 0.0268,0.0269
SingleSource/Benchmarks/BenchmarkGame/spectral-norm, 0.0582, 0.0583, 0.0582,0.0582, 0.0585, 0.0583, 0.0582,0.0583
SingleSource/Benchmarks/CoyoteBench/almabench, 0.0577, 0.0578, 0.0575,0.0577, 0.0577, 0.0578, 0.0576,0.0577
SingleSource/Benchmarks/CoyoteBench/fftbench, 0.5527, 0.6212, 0.5867,0.5867, 0.5934, 0.5949, 0.6008,0.5949
SingleSource/Benchmarks/CoyoteBench/huffbench, 0.0889, 0.0889, 0.0891,0.0889, 0.0888, 0.0887, 0.0891,0.0888
SingleSource/Benchmarks/CoyoteBench/lpbench, 0.1893, 0.1894, 0.1897,0.1894, 0.1895, 0.1898, 0.1893,0.1895
SingleSource/Benchmarks/Dhrystone/dry, 0.0525, 0.0406, 0.0429,0.0429, 0.0407, 0.0407, 0.0407,0.0407
SingleSource/Benchmarks/Dhrystone/fldry, 0.0429, 0.0427, 0.0426,0.0427, 0.0434, 0.0425, 0.0427,0.0427
SingleSource/Benchmarks/Linpack/linpack-pc, 0.3776, 0.3911, 0.3774,0.3776, 0.3765, 0.3854, 0.3779,0.3779
SingleSource/Benchmarks/McGill/chomp, 0.1917, 0.1910, 0.1909,0.191, 0.1911, 0.1916, 0.1919,0.1916
SingleSource/Benchmarks/McGill/misr, 0.0541, 0.0544, 0.0540,0.0541, 0.0542, 0.0541, 0.0543,0.0542
SingleSource/Benchmarks/McGill/queens, 0.0439, 0.0440, 0.0440,0.044, 0.0439, 0.0441, 0.0440,0.044
SingleSource/Benchmarks/Misc-C++-EH/spirit, 3.1236, 3.1111, 3.1119,3.1119, 3.0527, 3.0591, 3.0665,3.0591
SingleSource/Benchmarks/Misc-C++/Large/ray, 0.2218, 0.2181, 0.2036,0.2181, 0.2208, 0.2061, 0.2061,0.2061
SingleSource/Benchmarks/Misc-C++/Large/sphereflake, 0.2119, 0.2117, 0.2120,0.2119, 0.2172, 0.2177, 0.2170,0.2172
SingleSource/Benchmarks/Misc-C++/bigfib, 0.4213, 0.4211, 0.4225,0.4213, 0.4594, 0.4241, 0.4245,0.4245
SingleSource/Benchmarks/Misc-C++/mandel-text, 0.0249, 0.0249, 0.0249,0.0249, 0.0249, 0.0249, 0.0248,0.0249
SingleSource/Benchmarks/Misc-C++/oopack_v1p8, 0.1332, 0.1203, 0.1360,0.1332, 0.1323, 0.1356, 0.1322,0.1323
SingleSource/Benchmarks/Misc-C++/stepanov_container, 0.6337, 0.6491, 0.6460,0.646, 0.6264, 0.6279, 0.6010,0.6264
SingleSource/Benchmarks/Misc-C++/stepanov_v1p2, 0.1708, 0.1711, 0.1705,0.1708, 0.1320, 0.1312, 0.1322,0.132
SingleSource/Benchmarks/Misc/ReedSolomon, 0.2007, 0.2013, 0.2009,0.2009, 0.2013, 0.2012, 0.2018,0.2013
SingleSource/Benchmarks/Misc/dt, 0.0341, 0.0342, 0.0343,0.0342, 0.0346, 0.0342, 0.0343,0.0343
SingleSource/Benchmarks/Misc/fbench, 0.0543, 0.0540, 0.0542,0.0542, 0.0543, 0.0544, 0.0542,0.0543
SingleSource/Benchmarks/Misc/ffbench, 0.0719, 0.0722, 0.0719,0.0719, 0.0720, 0.0721, 0.0718,0.072
SingleSource/Benchmarks/Misc/flops, 0.0757, 0.0757, 0.0757,0.0757, 0.0760, 0.0759, 0.0758,0.0759
SingleSource/Benchmarks/Misc/flops-1, 0.0276, 0.0276, 0.0277,0.0276, 0.0276, 0.0276, 0.0275,0.0276
SingleSource/Benchmarks/Misc/flops-2, 0.0293, 0.0294, 0.0293,0.0293, 0.0295, 0.0293, 0.0294,0.0294
SingleSource/Benchmarks/Misc/flops-3, 0.0276, 0.0275, 0.0275,0.0275, 0.0275, 0.0274, 0.0275,0.0275
SingleSource/Benchmarks/Misc/flops-4, 0.0279, 0.0280, 0.0280,0.028, 0.0278, 0.0277, 0.0278,0.0278
SingleSource/Benchmarks/Misc/flops-5, 0.0286, 0.0288, 0.0288,0.0288, 0.0288, 0.0287, 0.0286,0.0287
SingleSource/Benchmarks/Misc/flops-6, 0.0287, 0.0289, 0.0287,0.0287, 0.0287, 0.0287, 0.0288,0.0287
SingleSource/Benchmarks/Misc/flops-7, 0.0274, 0.0274, 0.0274,0.0274, 0.0274, 0.0271, 0.0273,0.0273
SingleSource/Benchmarks/Misc/flops-8, 0.0355, 0.0355, 0.0384,0.0355, 0.0315, 0.0317, 0.0373,0.0317
SingleSource/Benchmarks/Misc/fp-convert, 0.0329, 0.0328, 0.0328,0.0328, 0.0329, 0.0328, 0.0328,0.0328
SingleSource/Benchmarks/Misc/himenobmtxpa, 0.2366, 0.2362, 0.2366,0.2366, 0.2375, 0.2376, 0.2370,0.2375
SingleSource/Benchmarks/Misc/lowercase, 0.0259, 0.0259, 0.0258,0.0259, 0.0261, 0.0258, 0.0258,0.0258
SingleSource/Benchmarks/Misc/mandel, 0.0367, 0.0368, 0.0367,0.0367, 0.0566, 0.0371, 0.0373,0.0373
SingleSource/Benchmarks/Misc/mandel-2, 0.0319, 0.0319, 0.0317,0.0319, 0.0534, 0.0315, 0.0317,0.0317
SingleSource/Benchmarks/Misc/matmul_f64_4x4, 0.0308, 0.0310, 0.0307,0.0308, 0.0309, 0.0309, 0.0309,0.0309
SingleSource/Benchmarks/Misc/oourafft, 0.2374, 0.2373, 0.2374,0.2374, 0.2371, 0.2376, 0.2366,0.2371
SingleSource/Benchmarks/Misc/perlin, 0.0462, 0.0463, 0.0462,0.0462, 0.0462, 0.0462, 0.0462,0.0462
SingleSource/Benchmarks/Misc/pi, 0.0219, 0.0221, 0.0220,0.022, 0.0221, 0.0219, 0.0219,0.0219
SingleSource/Benchmarks/Misc/richards_benchmark, 0.0601, 0.0601, 0.0600,0.0601, 0.0618, 0.0616, 0.0616,0.0616
SingleSource/Benchmarks/Misc/salsa20, 0.0491, 0.0491, 0.0491,0.0491, 0.0491, 0.0490, 0.0491,0.0491
SingleSource/Benchmarks/Misc/whetstone, 0.0680, 0.0682, 0.0681,0.0681, 0.0682, 0.0680, 0.0682,0.0682
SingleSource/Benchmarks/Polybench/datamining/correlation/correlation, 0.0849, 0.0854, 0.0852,0.0852, 0.0853, 0.0853, 0.0855,0.0853
SingleSource/Benchmarks/Polybench/datamining/covariance/covariance, 0.1008, 0.1014, 0.1011,0.1011, 0.1013, 0.1017, 0.1015,0.1015
SingleSource/Benchmarks/Polybench/linear-algebra/kernels/atax/atax, 0.0901, 0.0899, 0.0904,0.0901, 0.0900, 0.0900, 0.0900,0.09
SingleSource/Benchmarks/Polybench/linear-algebra/kernels/bicg/bicg, 0.0859, 0.0858, 0.0859,0.0859, 0.0861, 0.0861, 0.0860,0.0861
SingleSource/Benchmarks/Polybench/linear-algebra/kernels/cholesky/cholesky, 0.1109, 0.1108, 0.1109,0.1109, 0.1117, 0.1118, 0.1111,0.1117
SingleSource/Benchmarks/Polybench/linear-algebra/kernels/doitgen/doitgen, 0.1064, 0.1067, 0.1063,0.1064, 0.1075, 0.1068, 0.1071,0.1071
SingleSource/Benchmarks/Polybench/linear-algebra/kernels/gemver/gemver, 0.1083, 0.1084, 0.1083,0.1083, 0.1086, 0.1091, 0.1089,0.1089
SingleSource/Benchmarks/Polybench/linear-algebra/kernels/gesummv/gesummv, 0.0718, 0.0713, 0.0713,0.0713, 0.0718, 0.0715, 0.0718,0.0718
SingleSource/Benchmarks/Polybench/linear-algebra/kernels/mvt/mvt, 0.0907, 0.0908, 0.0905,0.0907, 0.0912, 0.0910, 0.0914,0.0912
SingleSource/Benchmarks/Polybench/linear-algebra/kernels/symm/symm, 0.0866, 0.0871, 0.0869,0.0869, 0.0876, 0.0882, 0.0879,0.0879
SingleSource/Benchmarks/Polybench/linear-algebra/kernels/syr2k/syr2k, 0.0891, 0.0892, 0.0893,0.0892, 0.0895, 0.0896, 0.0895,0.0895
SingleSource/Benchmarks/Polybench/linear-algebra/kernels/syrk/syrk, 0.0887, 0.0886, 0.0887,0.0887, 0.0888, 0.0890, 0.0888,0.0888
SingleSource/Benchmarks/Polybench/linear-algebra/kernels/trisolv/trisolv, 0.0700, 0.0699, 0.0699,0.0699, 0.0760, 0.0705, 0.0703,0.0705
SingleSource/Benchmarks/Polybench/linear-algebra/kernels/trmm/trmm, 0.0847, 0.0847, 0.0847,0.0847, 0.0854, 0.0855, 0.0850,0.0854
SingleSource/Benchmarks/Polybench/linear-algebra/solvers/durbin/durbin, 0.1084, 0.1083, 0.1083,0.1083, 0.1091, 0.1091, 0.1093,0.1091
SingleSource/Benchmarks/Polybench/linear-algebra/solvers/dynprog/dynprog, 0.0853, 0.0855, 0.0855,0.0855, 0.0859, 0.0860, 0.0862,0.086
SingleSource/Benchmarks/Polybench/linear-algebra/solvers/gramschmidt/gramschmidt, 0.1285, 0.1284, 0.1286,0.1285, 0.1295, 0.1290, 0.1297,0.1295
SingleSource/Benchmarks/Polybench/linear-algebra/solvers/lu/lu, 0.1051, 0.1052, 0.1053,0.1052, 0.1057, 0.1057, 0.1056,0.1057
SingleSource/Benchmarks/Polybench/medley/floyd-warshall/floyd-warshall, 0.0862, 0.0861, 0.0861,0.0861, 0.0865, 0.0866, 0.0862,0.0865
SingleSource/Benchmarks/Polybench/medley/reg_detect/reg_detect, 0.4042, 0.4047, 0.4053,0.4047, 0.4057, 0.4055, 0.4065,0.4057
SingleSource/Benchmarks/Polybench/stencils/adi/adi, 0.1049, 0.1052, 0.1054,0.1052, 0.1052, 0.1050, 0.1051,0.1051
SingleSource/Benchmarks/Polybench/stencils/fdtd-2d/fdtd-2d, 0.1706, 0.1708, 0.1705,0.1706, 0.1707, 0.1703, 0.1711,0.1707
SingleSource/Benchmarks/Polybench/stencils/fdtd-apml/fdtd-apml, 0.1502, 0.1505, 0.1499,0.1502, 0.1513, 0.1509, 0.1516,0.1513
SingleSource/Benchmarks/Polybench/stencils/jacobi-1d-imper/jacobi-1d-imper, 0.0922, 0.0925, 0.0919,0.0922, 0.0923, 0.0923, 0.0922,0.0923
SingleSource/Benchmarks/Polybench/stencils/jacobi-2d-imper/jacobi-2d-imper, 0.1276, 0.1278, 0.1273,0.1276, 0.1276, 0.1275, 0.1278,0.1276
SingleSource/Benchmarks/Polybench/stencils/seidel-2d/seidel-2d, 0.0775, 0.0774, 0.0773,0.0774, 0.0779, 0.0777, 0.0778,0.0778
SingleSource/Benchmarks/Shootout-C++/EH/except, 0.1271, 0.1272, 0.1275,0.1272, 0.1298, 0.1296, 0.1297,0.1297
SingleSource/Benchmarks/Shootout-C++/ackermann, 0.1161, 0.1159, 0.1164,0.1161, 0.1178, 0.1171, 0.1176,0.1176
SingleSource/Benchmarks/Shootout-C++/ary, 0.1545, 0.1551, 0.1548,0.1548, 0.1567, 0.1565, 0.1560,0.1565
SingleSource/Benchmarks/Shootout-C++/ary2, 0.1621, 0.1614, 0.1622,0.1621, 0.1634, 0.1633, 0.1629,0.1633
SingleSource/Benchmarks/Shootout-C++/ary3, 0.1584, 0.1590, 0.1589,0.1589, 0.1612, 0.1608, 0.1611,0.1611
SingleSource/Benchmarks/Shootout-C++/fibo, 0.1143, 0.1139, 0.1146,0.1143, 0.1159, 0.1152, 0.1153,0.1153
SingleSource/Benchmarks/Shootout-C++/hash, 0.2584, 0.2576, 0.2572,0.2576, 0.2499, 0.2510, 0.2498,0.2499
SingleSource/Benchmarks/Shootout-C++/hash2, 0.2921, 0.3071, 0.3023,0.3023, 0.3031, 0.3026, 0.2773,0.3026
SingleSource/Benchmarks/Shootout-C++/heapsort, 0.1318, 0.1316, 0.1320,0.1318, 0.1331, 0.1323, 0.1326,0.1326
SingleSource/Benchmarks/Shootout-C++/lists, 0.1576, 0.1574, 0.1581,0.1576, 0.1606, 0.1597, 0.1601,0.1601
SingleSource/Benchmarks/Shootout-C++/lists1, 0.1902, 0.1896, 0.1914,0.1902, 0.1939, 0.1940, 0.1940,0.194
SingleSource/Benchmarks/Shootout-C++/matrix, 0.1721, 0.1726, 0.1716,0.1721, 0.1749, 0.1735, 0.1742,0.1742
SingleSource/Benchmarks/Shootout-C++/methcall, 0.1231, 0.1230, 0.1227,0.123, 0.1248, 0.1246, 0.1247,0.1247
SingleSource/Benchmarks/Shootout-C++/moments, 0.2387, 0.2390, 0.2397,0.239, 0.2298, 0.2304, 0.2300,0.23
SingleSource/Benchmarks/Shootout-C++/nestedloop, 0.1148, 0.1147, 0.1158,0.1148, 0.1161, 0.1155, 0.1160,0.116
SingleSource/Benchmarks/Shootout-C++/objinst, 0.1275, 0.1278, 0.1284,0.1278, 0.1284, 0.1282, 0.1295,0.1284
SingleSource/Benchmarks/Shootout-C++/random, 0.1243, 0.1240, 0.1237,0.124, 0.1250, 0.1250, 0.1247,0.125
SingleSource/Benchmarks/Shootout-C++/sieve, 0.1794, 0.1791, 0.1796,0.1794, 0.1814, 0.1814, 0.1824,0.1814
SingleSource/Benchmarks/Shootout-C++/strcat, 0.1230, 0.1240, 0.1243,0.124, 0.1240, 0.1239, 0.1248,0.124
SingleSource/Benchmarks/Shootout/ackermann, 0.0239, 0.0241, 0.0240,0.024, 0.0239, 0.0239, 0.0240,0.0239
SingleSource/Benchmarks/Shootout/ary3, 0.0352, 0.0355, 0.0354,0.0354, 0.0354, 0.0354, 0.0355,0.0354
SingleSource/Benchmarks/Shootout/fib2, 0.0206, 0.0206, 0.0206,0.0206, 0.0207, 0.0205, 0.0207,0.0207
SingleSource/Benchmarks/Shootout/hash, 0.0501, 0.0501, 0.0501,0.0501, 0.0507, 0.0505, 0.0509,0.0507
SingleSource/Benchmarks/Shootout/heapsort, 0.0405, 0.0406, 0.0407,0.0406, 0.0406, 0.0407, 0.0407,0.0407
SingleSource/Benchmarks/Shootout/lists, 0.0734, 0.0737, 0.0735,0.0735, 0.0740, 0.0740, 0.0740,0.074
SingleSource/Benchmarks/Shootout/matrix, 0.0761, 0.0764, 0.0760,0.0761, 0.0760, 0.0761, 0.0761,0.0761
SingleSource/Benchmarks/Shootout/methcall, 0.0314, 0.0316, 0.0314,0.0314, 0.0316, 0.0315, 0.0316,0.0316
SingleSource/Benchmarks/Shootout/nestedloop, 0.0249, 0.0249, 0.0249,0.0249, 0.0248, 0.0247, 0.0248,0.0248
SingleSource/Benchmarks/Shootout/objinst, 0.0363, 0.0366, 0.0364,0.0364, 0.0366, 0.0364, 0.0363,0.0364
SingleSource/Benchmarks/Shootout/random, 0.0303, 0.0303, 0.0302,0.0303, 0.0302, 0.0302, 0.0303,0.0302
SingleSource/Benchmarks/Shootout/sieve, 0.0261, 0.0263, 0.0262,0.0262, 0.0264, 0.0261, 0.0262,0.0262
SingleSource/Benchmarks/Shootout/strcat, 0.0274, 0.0274, 0.0274,0.0274, 0.0275, 0.0274, 0.0274,0.0274
SingleSource/Benchmarks/SmallPT/smallpt, 0.0956, 0.0956, 0.0955,0.0956, 0.0957, 0.0955, 0.0957,0.0957
SingleSource/Benchmarks/Stanford/Bubblesort, 0.0364, 0.0362, 0.0361,0.0362, 0.0364, 0.0362, 0.0362,0.0362
SingleSource/Benchmarks/Stanford/FloatMM, 0.0445, 0.0448, 0.0447,0.0447, 0.0448, 0.0448, 0.0447,0.0448
SingleSource/Benchmarks/Stanford/Oscar, 0.0666, 0.0668, 0.0666,0.0666, 0.0669, 0.0667, 0.0666,0.0667
SingleSource/Benchmarks/Stanford/Perm, 0.0312, 0.0312, 0.0311,0.0312, 0.0311, 0.0310, 0.0310,0.031
SingleSource/Benchmarks/Stanford/Puzzle, 0.1194, 0.1199, 0.1195,0.1195, 0.1196, 0.1195, 0.1200,0.1196
SingleSource/Benchmarks/Stanford/Queens, 0.0471, 0.0473, 0.0472,0.0472, 0.0473, 0.0471, 0.0471,0.0471
SingleSource/Benchmarks/Stanford/Quicksort, 0.0376, 0.0378, 0.0376,0.0376, 0.0378, 0.0377, 0.0377,0.0377
SingleSource/Benchmarks/Stanford/RealMM, 0.0441, 0.0443, 0.0440,0.0441, 0.0440, 0.0441, 0.0442,0.0441
SingleSource/Benchmarks/Stanford/Towers, 0.0415, 0.0418, 0.0415,0.0415, 0.0417, 0.0413, 0.0414,0.0414
SingleSource/Benchmarks/Stanford/Treesort, 0.0382, 0.0382, 0.0382,0.0382, 0.0384, 0.0384, 0.0383,0.0384
SingleSource/Regression/C/2004-08-12-InlinerAndAllocas, 0.0203, 0.0203, 0.0203,0.0203, 0.0203, 0.0203, 0.0203,0.0203
SingleSource/Regression/C/uint64_to_float, 0.0586, 0.0859, 0.0849,0.0849, 0.0821, 0.0773, 0.0676,0.0773
Total elapsed time,-,-,-,341.5327000000001,-,-,-,336.6857000000002
Total failure,-,-,-,0,-,-,-,0
