Benchmarks,base-4.0,base-4.0,base-4.0,median,restrict,restrict,restrict,median,Slowdown(%)
SingleSource/Benchmarks/Adobe-C++/simple_types_constant_folding, 0.6683, 0.6684, 0.6684,0.6684, 0.9012, 0.9245, 0.9358,0.9245,38.315380011968884
SingleSource/Benchmarks/Adobe-C++/simple_types_loop_invariant, 1.5956, 1.5944, 1.5956,1.5956, 1.9968, 1.9977, 1.9955,1.9968,25.14414640260718
MultiSource/Benchmarks/McCat/08-main/main, 0.0429, 0.0428, 0.0430,0.0429, 0.0470, 0.0470, 0.0469,0.047,9.557109557109555
MultiSource/Benchmarks/Prolangs-C++/city/city, 0.0052, 0.0052, 0.0051,0.0052, 0.0056, 0.0056, 0.0056,0.0056,7.692307692307687
SingleSource/Benchmarks/Misc-C++-EH/spirit, 2.6100, 2.6095, 2.6101,2.61, 2.7215, 2.7210, 2.7200,2.721,4.252873563218396
SingleSource/Benchmarks/Polybench/linear-algebra/solvers/gramschmidt/gramschmidt, 1.5078, 1.5770, 1.5776,1.577, 1.6905, 1.6437, 1.6275,1.6437,4.229549778059605
MultiSource/Benchmarks/Ptrdist/anagram/anagram, 0.6862, 0.6800, 0.6896,0.6862, 0.7145, 0.7109, 0.7081,0.7109,3.599533663654908
MultiSource/Benchmarks/VersaBench/dbms/dbms, 0.8954, 0.9071, 0.8880,0.8954, 0.9304, 0.9257, 0.9244,0.9257,3.38396247487156
MultiSource/Benchmarks/BitBench/drop3/drop3, 0.1791, 0.1820, 0.1820,0.182, 0.1864, 0.1866, 0.1787,0.1864,2.417582417582431
SingleSource/Benchmarks/Misc/flops-4, 2.2797, 2.2798, 2.2798,2.2798, 2.3272, 2.2799, 2.3272,2.3272,2.0791297482235294
MultiSource/Benchmarks/MiBench/telecomm-CRC32/telecomm-CRC32, 0.2047, 0.2025, 0.2111,0.2047, 0.2089, 0.2114, 0.2042,0.2089,2.0517830972154316
MultiSource/Applications/spiff/spiff, 1.2785, 1.2795, 1.2760,1.2785, 1.3039, 1.3015, 1.3015,1.3015,1.798983183418068
MultiSource/Applications/ALAC/encode/alacconvert-encode, 0.0284, 0.0284, 0.0283,0.0284, 0.0289, 0.0289, 0.0289,0.0289,1.7605633802816767
MultiSource/Benchmarks/TSVC/LoopRestructuring-dbl/LoopRestructuring-dbl, 3.5716, 3.5834, 3.5806,3.5806, 3.5787, 3.6401, 3.6418,3.6401,1.6617326705021362
SingleSource/Benchmarks/Polybench/linear-algebra/kernels/gesummv/gesummv, 0.3067, 0.3018, 0.3018,0.3018, 0.3018, 0.3068, 0.3067,0.3067,1.6235917826374902
SingleSource/Benchmarks/Misc/ffbench, 0.5799, 0.5761, 0.5757,0.5761, 0.5865, 0.5853, 0.5820,0.5853,1.596944974830783
MultiSource/Benchmarks/Olden/bisort/bisort, 0.3672, 0.3663, 0.3668,0.3668, 0.3722, 0.3704, 0.3724,0.3722,1.4721919302071784
MultiSource/Benchmarks/Fhourstones/fhourstones, 0.6021, 0.6083, 0.6069,0.6069, 0.6152, 0.6275, 0.6072,0.6152,1.367605865875765
MultiSource/Benchmarks/TSVC/CrossingThresholds-dbl/CrossingThresholds-dbl, 2.1491, 2.1725, 2.1494,2.1494, 2.1726, 2.1728, 2.1497,2.1726,1.0793709872522594
MultiSource/Benchmarks/Olden/perimeter/perimeter, 0.1233, 0.1232, 0.1229,0.1232, 0.1247, 0.1244, 0.1243,0.1244,0.9740259740259605
MultiSource/Benchmarks/BitBench/uuencode/uuencode, 0.0110, 0.0110, 0.0110,0.011, 0.0110, 0.0112, 0.0111,0.0111,0.909090909090926
SingleSource/Benchmarks/Shootout-C++/lists1, 0.1299, 0.1321, 0.1315,0.1315, 0.1326, 0.1328, 0.1321,0.1326,0.8365019011406849
MultiSource/Benchmarks/Ptrdist/ks/ks, 0.6597, 0.6623, 0.6587,0.6597, 0.6650, 0.6663, 0.6576,0.665,0.8033954827952217
MultiSource/Applications/lambda-0.1.3/lambda, 2.6490, 2.6464, 2.6455,2.6464, 2.6670, 2.6649, 2.6666,2.6666,0.7633010882708513
MultiSource/Benchmarks/Olden/mst/mst, 0.0531, 0.0525, 0.0527,0.0527, 0.0534, 0.0531, 0.0530,0.0531,0.7590132827324458
SingleSource/Benchmarks/Shootout-C++/ary, 0.0143, 0.0142, 0.0142,0.0142, 0.0143, 0.0141, 0.0143,0.0143,0.7042253521126751
SingleSource/Benchmarks/Polybench/linear-algebra/kernels/symm/symm,16.0468,16.1027,15.7792,16.0468,16.1545,16.2357,15.8700,16.1545,0.6711618515841122
MultiSource/Benchmarks/mediabench/gsm/toast/toast, 0.0154, 0.0155, 0.0153,0.0154, 0.0155, 0.0155, 0.0155,0.0155,0.6493506493506551
MultiSource/Applications/d/make_dparser, 0.0158, 0.0159, 0.0159,0.0159, 0.0160, 0.0160, 0.0159,0.016,0.6289308176100628
SingleSource/Benchmarks/Adobe-C++/stepanov_abstraction, 4.2299, 4.2303, 4.2298,4.2299, 4.2562, 4.2561, 4.2572,4.2562,0.621764107898537
MultiSource/Benchmarks/Olden/health/health, 0.1455, 0.1456, 0.1456,0.1456, 0.1472, 0.1465, 0.1465,0.1465,0.6181318681318659
SingleSource/Benchmarks/Shootout-C++/moments, 0.0505, 0.0507, 0.0506,0.0506, 0.0509, 0.0509, 0.0510,0.0509,0.5928853754940677
MultiSource/Applications/JM/ldecod/ldecod, 0.0365, 0.0367, 0.0364,0.0365, 0.0368, 0.0367, 0.0365,0.0367,0.547945205479472
MultiSource/Benchmarks/Ptrdist/bc/bc, 0.3585, 0.3587, 0.3583,0.3585, 0.3604, 0.3603, 0.3605,0.3604,0.52998605299861
MultiSource/Benchmarks/MallocBench/espresso/espresso, 0.3069, 0.3063, 0.3064,0.3064, 0.3083, 0.3080, 0.3079,0.308,0.5221932114882533
SingleSource/Benchmarks/Polybench/linear-algebra/kernels/doitgen/doitgen, 0.7896, 0.7862, 0.7857,0.7862, 0.7899, 0.7899, 0.7972,0.7899,0.47061816331721573
MultiSource/Benchmarks/Prolangs-C++/primes/primes, 0.2134, 0.2127, 0.2127,0.2127, 0.2145, 0.2137, 0.2133,0.2137,0.4701457451810054
MultiSource/Benchmarks/TSVC/GlobalDataFlow-dbl/GlobalDataFlow-dbl, 2.8391, 2.8376, 2.8396,2.8391, 2.8515, 2.8385, 2.8511,2.8511,0.42266915571835817
SingleSource/Benchmarks/Polybench/stencils/jacobi-2d-imper/jacobi-2d-imper, 0.1455, 0.1466, 0.1461,0.1461, 0.1467, 0.1467, 0.1461,0.1467,0.4106776180698102
MultiSource/Benchmarks/TSVC/GlobalDataFlow-flt/GlobalDataFlow-flt, 1.4910, 1.4939, 1.4983,1.4939, 1.5000, 1.5002, 1.4955,1.5,0.40832719726888733
MultiSource/Applications/kimwitu++/kc, 0.0281, 0.0281, 0.0280,0.0281, 0.0284, 0.0282, 0.0281,0.0282,0.3558718861209842
MultiSource/Benchmarks/VersaBench/8b10b/8b10b, 3.7654, 3.7655, 3.7674,3.7655, 3.7863, 3.7789, 3.7698,3.7789,0.3558624352675732
SingleSource/Benchmarks/Stanford/Quicksort, 0.0303, 0.0303, 0.0303,0.0303, 0.0304, 0.0304, 0.0303,0.0304,0.3300330033003229
MultiSource/Benchmarks/TSVC/Symbolics-flt/Symbolics-flt, 1.3879, 1.3883, 1.3858,1.3879, 1.3930, 1.3903, 1.3924,1.3924,0.3242308523669024
SingleSource/Benchmarks/Misc/himenobmtxpa, 0.5100, 0.5060, 0.5072,0.5072, 0.5088, 0.5100, 0.5061,0.5088,0.3154574132492094
MultiSource/Benchmarks/TSVC/LoopRerolling-dbl/LoopRerolling-dbl, 4.5926, 4.5925, 4.6042,4.5926, 4.6061, 4.6056, 4.6074,4.6061,0.293951138788473
SingleSource/Benchmarks/Linpack/linpack-pc, 1.2885, 1.2893, 1.2887,1.2887, 1.2909, 1.2975, 1.2923,1.2923,0.27935128423992595
SingleSource/Benchmarks/Shootout-C++/heapsort, 2.0331, 2.0353, 2.0334,2.0334, 2.0488, 2.0379, 2.0390,2.039,0.27540080653094545
SingleSource/Benchmarks/CoyoteBench/lpbench, 1.8206, 1.8188, 1.8174,1.8188, 1.8237, 1.8270, 1.8185,1.8237,0.26940840114362263
MultiSource/Benchmarks/Bullet/bullet, 3.2755, 3.2844, 3.2654,3.2755, 3.2941, 3.2836, 3.2842,3.2842,0.2656083040757151
MultiSource/Benchmarks/TSVC/ControlLoops-dbl/ControlLoops-dbl, 2.5311, 2.5305, 2.5399,2.5311, 2.5376, 2.5291, 2.5390,2.5376,0.2568053415511029
MultiSource/Benchmarks/MiBench/telecomm-gsm/telecomm-gsm, 0.1179, 0.1179, 0.1179,0.1179, 0.1182, 0.1181, 0.1182,0.1182,0.2544529262086481
SingleSource/Benchmarks/Polybench/stencils/fdtd-2d/fdtd-2d, 0.3953, 0.3943, 0.3972,0.3953, 0.3963, 0.3943, 0.4072,0.3963,0.252972426005571
MultiSource/Benchmarks/TSVC/StatementReordering-dbl/StatementReordering-dbl, 2.2376, 2.2370, 2.2346,2.237, 2.2426, 2.2422, 2.2426,2.2426,0.25033527045148496
MultiSource/Benchmarks/TSVC/InductionVariable-flt/InductionVariable-flt, 2.5657, 2.5776, 2.5689,2.5689, 2.5787, 2.5692, 2.5750,2.575,0.23745572034723494
SingleSource/Benchmarks/McGill/chomp, 1.2854, 1.2829, 1.2825,1.2829, 1.2859, 1.3129, 1.2495,1.2859,0.23384519448126362
SingleSource/Benchmarks/Polybench/datamining/covariance/covariance, 1.6539, 1.6535, 1.6479,1.6535, 1.6468, 1.6572, 1.6576,1.6572,0.22376776534622778
MultiSource/Benchmarks/Fhourstones-3.1/fhourstones3.1, 0.7950, 0.7950, 0.7965,0.795, 0.7983, 0.7966, 0.7951,0.7966,0.20125786163520676
MultiSource/Benchmarks/7zip/7zip-benchmark, 6.4153, 6.4020, 6.4135,6.4135, 6.4229, 6.4264, 6.4273,6.4264,0.2011382240586279
MultiSource/Benchmarks/Prolangs-C++/life/life, 0.7052, 0.7047, 0.7050,0.705, 0.7064, 0.7108, 0.7046,0.7064,0.1985815602836949
SingleSource/Benchmarks/Stanford/Treesort, 0.0546, 0.0546, 0.0547,0.0546, 0.0547, 0.0547, 0.0547,0.0547,0.1831501831501825
MultiSource/Benchmarks/FreeBench/fourinarow/fourinarow, 0.1757, 0.1755, 0.1755,0.1755, 0.1758, 0.1759, 0.1755,0.1758,0.17094017094019254
MultiSource/Benchmarks/TSVC/ControlFlow-dbl/ControlFlow-dbl, 3.6778, 3.6933, 3.6816,3.6816, 3.6876, 3.6795, 3.6921,3.6876,0.16297262059974393
MultiSource/Benchmarks/FreeBench/pifft/pifft, 0.0640, 0.0640, 0.0639,0.064, 0.0641, 0.0643, 0.0641,0.0641,0.15625000000001332
SingleSource/Benchmarks/BenchmarkGame/fannkuch, 2.2514, 2.2520, 2.2513,2.2514, 2.2551, 2.2549, 2.2541,2.2549,0.15545882561962543
MultiSource/Applications/minisat/minisat, 4.1588, 4.1610, 4.1304,4.1588, 4.1182, 4.1831, 4.1652,4.1652,0.15389054534959978
MultiSource/Benchmarks/ASC_Sequoia/AMGmk/AMGmk, 5.0398, 5.0470, 5.0336,5.0398, 5.0489, 5.0458, 5.0475,5.0475,0.15278384062860084
MultiSource/Benchmarks/TSVC/Searching-flt/Searching-flt, 2.4390, 2.4391, 2.4423,2.4391, 2.4444, 2.4411, 2.4428,2.4428,0.15169529744578636
SingleSource/Benchmarks/Shootout-C++/ary3, 0.5436, 0.5378, 0.5407,0.5407, 0.5434, 0.5415, 0.5279,0.5415,0.1479563528758998
SingleSource/Benchmarks/Shootout-C++/lists, 2.9738, 2.9703, 2.9666,2.9703, 2.9715, 2.9794, 2.9744,2.9744,0.1380331953001468
MultiSource/Benchmarks/TSVC/LoopRerolling-flt/LoopRerolling-flt, 3.8206, 3.8284, 3.8228,3.8228, 3.8322, 3.8244, 3.8277,3.8277,0.12817829862927788
MultiSource/Benchmarks/McCat/04-bisect/bisect, 0.0791, 0.0790, 0.0790,0.079, 0.0791, 0.0790, 0.0791,0.0791,0.12658227848101333
MultiSource/Benchmarks/tramp3d-v4/tramp3d-v4, 0.2665, 0.2666, 0.2665,0.2665, 0.2668, 0.2665, 0.2670,0.2668,0.11257035647278535
MultiSource/Benchmarks/TSVC/Equivalencing-flt/Equivalencing-flt, 0.9666, 0.9692, 0.9670,0.967, 0.9680, 0.9680, 0.9681,0.968,0.10341261633919352
SingleSource/Benchmarks/Shootout/strcat, 0.1053, 0.1052, 0.1052,0.1052, 0.1053, 0.1052, 0.1053,0.1053,0.0950570342205248
SingleSource/Benchmarks/BenchmarkGame/puzzle, 0.1142, 0.1141, 0.1140,0.1141, 0.1139, 0.1143, 0.1142,0.1142,0.08764241893075564
MultiSource/Benchmarks/MiBench/consumer-lame/consumer-lame, 0.1182, 0.1180, 0.1181,0.1181, 0.1181, 0.1184, 0.1182,0.1182,0.08467400508043177
SingleSource/Benchmarks/Shootout-C++/EH/except, 0.1205, 0.1207, 0.1208,0.1207, 0.1208, 0.1208, 0.1206,0.1208,0.08285004142503105
MultiSource/Benchmarks/ASCI_Purple/SMG2000/smg2000, 1.1728, 1.1840, 1.1729,1.1729, 1.1824, 1.1738, 1.1734,1.1738,0.07673288430385394
MultiSource/Applications/lua/lua,11.5447,11.5510,11.5311,11.5447,11.5533,11.5729,11.5501,11.5533,0.07449305742028844
MultiSource/Benchmarks/sim/sim, 2.6122, 2.6095, 2.6098,2.6098, 2.6146, 2.6101, 2.6114,2.6114,0.06130737987586343
SingleSource/Benchmarks/Polybench/linear-algebra/kernels/atax/atax, 0.1703, 0.1703, 0.1704,0.1703, 0.1704, 0.1702, 0.1704,0.1704,0.05871990604815469
MultiSource/Benchmarks/TSVC/NodeSplitting-flt/NodeSplitting-flt, 4.6477, 4.6535, 4.6476,4.6477, 4.6503, 4.6542, 4.6466,4.6503,0.055941648557333856
MultiSource/Benchmarks/Olden/tsp/tsp, 1.0836, 1.0830, 1.0829,1.083, 1.0836, 1.0833, 1.0839,1.0836,0.055401662049847644
SingleSource/Benchmarks/Shootout-C++/fibo, 1.4743, 1.4750, 1.4747,1.4747, 1.4738, 1.4755, 1.4760,1.4755,0.05424832169256266
MultiSource/Benchmarks/ASC_Sequoia/IRSmk/IRSmk, 3.0093, 3.0050, 3.0128,3.0093, 3.0109, 3.0182, 2.9910,3.0109,0.05316851094938624
MultiSource/Benchmarks/Olden/bh/bh, 1.2610, 1.2625, 1.2603,1.261, 1.2640, 1.2616, 1.2614,1.2616,0.04758128469470879
MultiSource/Benchmarks/TSVC/Expansion-dbl/Expansion-dbl, 1.9844, 1.9597, 1.9617,1.9617, 1.9594, 1.9626, 1.9853,1.9626,0.04587857470561563
MultiSource/Benchmarks/DOE-ProxyApps-C/XSBench/XSBench, 2.4409, 2.4403, 2.4512,2.4409, 2.4420, 2.4512, 2.4415,2.442,0.045065344749883884
MultiSource/Benchmarks/PAQ8p/paq8p,43.9371,43.9029,43.9173,43.9173,43.8731,44.0002,43.9357,43.9357,0.041896929000651006
MultiSource/Applications/viterbi/viterbi, 1.2672, 1.2670, 1.2672,1.2672, 1.2702, 1.2672, 1.2677,1.2677,0.03945707070707183
SingleSource/Benchmarks/Polybench/stencils/adi/adi, 2.8089, 2.8101, 2.8091,2.8091, 2.8093, 2.8110, 2.8102,2.8102,0.03915844932540491
SingleSource/Benchmarks/Misc-C++/Large/ray, 2.8210, 2.8211, 2.8211,2.8211, 2.8217, 2.8220, 2.8216,2.8217,0.021268299599452867
SingleSource/Benchmarks/Shootout/heapsort, 2.0244, 2.0300, 2.0223,2.0244, 2.0248, 2.0236, 2.0263,2.0248,0.019758940920766577
SingleSource/Benchmarks/Misc/pi, 0.6943, 0.6943, 0.6942,0.6943, 0.6944, 0.6944, 0.6943,0.6944,0.01440299582313731
SingleSource/Benchmarks/Shootout/methcall, 3.2762, 3.2759, 3.2759,3.2759, 3.2765, 3.2763, 3.2762,3.2763,0.01221038493237625
SingleSource/Benchmarks/Polybench/linear-algebra/kernels/syr2k/syr2k, 9.1856, 9.1862, 8.9021,9.1856, 9.1853, 9.1880, 9.1867,9.1867,0.011975265633146215
MultiSource/Benchmarks/VersaBench/bmm/bmm, 1.6826, 1.6825, 1.6826,1.6826, 1.6828, 1.6829, 1.6827,1.6828,0.011886366337798826
SingleSource/Benchmarks/Misc/flops-2, 0.8627, 0.8627, 0.8628,0.8627, 0.8628, 0.8628, 0.8627,0.8628,0.011591515011000197
MultiSource/Benchmarks/Trimaran/netbench-url/netbench-url, 2.9801, 2.9793, 2.9791,2.9793, 2.9908, 2.9796, 2.9790,2.9796,0.010069479407914805
MultiSource/Benchmarks/TSVC/Packing-flt/Packing-flt, 2.1050, 2.1292, 2.0884,2.105, 2.1052, 2.0947, 2.1104,2.1052,0.009501187648464082
MultiSource/Benchmarks/TSVC/Searching-dbl/Searching-dbl, 2.2839, 2.2843, 2.2841,2.2841, 2.2837, 2.2845, 2.2843,2.2843,0.00875618405498102
MultiSource/Benchmarks/TSVC/Reductions-dbl/Reductions-dbl, 3.4748, 3.4748, 3.4748,3.4748, 3.4748, 3.4750, 3.4750,3.475,0.005755726948319939
SingleSource/Benchmarks/Misc/flops-5, 4.2775, 4.2776, 4.2775,4.2775, 4.2775, 4.2778, 4.2777,4.2777,0.004675628287564848
MultiSource/Benchmarks/TSVC/ControlLoops-flt/ControlLoops-flt, 2.3427, 2.3471, 2.3434,2.3434, 2.3484, 2.3412, 2.3435,2.3435,0.004267303917404597
MultiSource/Benchmarks/TSVC/Symbolics-dbl/Symbolics-dbl, 2.4416, 2.4421, 2.4425,2.4421, 2.4420, 2.4422, 2.4424,2.4422,0.004094836411283609
MultiSource/Benchmarks/TSVC/Recurrences-dbl/Recurrences-dbl, 3.5012, 3.5012, 3.5012,3.5012, 3.5013, 3.5012, 3.5013,3.5013,0.0028561636010504543
SingleSource/Benchmarks/Misc/flops-1, 3.6289, 3.6290, 3.6289,3.6289, 3.6290, 3.6291, 3.6289,3.629,0.0027556559839103656
SingleSource/Regression/C/uint64_to_float, 0.2608, 0.2608, 0.2609,0.2608, 0.2608, 0.2608, 0.2608,0.2608,0.0
SingleSource/Benchmarks/Stanford/RealMM, 0.0020, 0.0020, 0.0019,0.002, 0.0020, 0.0020, 0.0019,0.002,0.0
SingleSource/Benchmarks/Stanford/Perm, 0.0147, 0.0147, 0.0147,0.0147, 0.0147, 0.0147, 0.0147,0.0147,0.0
SingleSource/Benchmarks/Stanford/FloatMM, 0.5466, 0.5466, 0.5466,0.5466, 0.5466, 0.5468, 0.5466,0.5466,0.0
SingleSource/Benchmarks/Stanford/Bubblesort, 0.0160, 0.0161, 0.0162,0.0161, 0.0161, 0.0161, 0.0161,0.0161,0.0
SingleSource/Benchmarks/Shootout/random, 1.7449, 1.7449, 1.7449,1.7449, 1.7449, 1.7449, 1.7449,1.7449,0.0
SingleSource/Benchmarks/Shootout/objinst, 0.0009, 0.0009, 0.0009,0.0009, 0.0009, 0.0009, 0.0009,0.0009,0.0
SingleSource/Benchmarks/Shootout/nestedloop, 0.0009, 0.0009, 0.0009,0.0009, 0.0009, 0.0009, 0.0009,0.0009,0.0
SingleSource/Benchmarks/Shootout/matrix, 1.0671, 1.0667, 1.0668,1.0668, 1.0664, 1.0668, 1.0670,1.0668,0.0
SingleSource/Benchmarks/Shootout/lists, 4.0574, 4.0568, 4.0574,4.0574, 4.0574, 4.0560, 4.0580,4.0574,0.0
SingleSource/Benchmarks/Shootout/hash, 2.8068, 2.7981, 2.7918,2.7981, 2.7916, 2.8124, 2.7981,2.7981,0.0
SingleSource/Benchmarks/Shootout/ackermann, 0.0035, 0.0034, 0.0035,0.0035, 0.0035, 0.0035, 0.0035,0.0035,0.0
SingleSource/Benchmarks/Shootout-C++/strcat, 0.0407, 0.0405, 0.0405,0.0405, 0.0405, 0.0405, 0.0406,0.0405,0.0
SingleSource/Benchmarks/Shootout-C++/random, 1.7449, 1.7450, 1.7450,1.745, 1.7450, 1.7448, 1.7450,1.745,0.0
SingleSource/Benchmarks/Shootout-C++/matrix, 1.3227, 1.3228, 1.3227,1.3227, 1.3222, 1.3227, 1.3228,1.3227,0.0
SingleSource/Benchmarks/Polybench/medley/reg_detect/reg_detect, 0.0145, 0.0145, 0.0145,0.0145, 0.0145, 0.0144, 0.0145,0.0145,0.0
SingleSource/Benchmarks/Polybench/linear-algebra/solvers/lu/lu, 0.0022, 0.0023, 0.0023,0.0023, 0.0023, 0.0023, 0.0023,0.0023,0.0
SingleSource/Benchmarks/Polybench/linear-algebra/kernels/trisolv/trisolv, 0.1738, 0.1737, 0.1737,0.1737, 0.1737, 0.1737, 0.1738,0.1737,0.0
SingleSource/Benchmarks/Misc/perlin, 3.9905, 3.9909, 3.9907,3.9907, 3.9906, 3.9907, 3.9909,3.9907,0.0
SingleSource/Benchmarks/Misc/matmul_f64_4x4, 1.2952, 1.2953, 1.2953,1.2953, 1.2953, 1.2953, 1.2952,1.2953,0.0
SingleSource/Benchmarks/Misc/mandel, 0.8022, 0.8023, 0.8023,0.8023, 0.8022, 0.8023, 0.8023,0.8023,0.0
SingleSource/Benchmarks/Misc/lowercase, 0.0009, 0.0009, 0.0009,0.0009, 0.0009, 0.0009, 0.0009,0.0009,0.0
SingleSource/Benchmarks/Misc/fp-convert, 3.0626, 3.0626, 3.0626,3.0626, 3.0626, 3.0628, 3.0625,3.0626,0.0
SingleSource/Benchmarks/Misc/flops-7, 1.5901, 1.5901, 1.5900,1.5901, 1.5901, 1.5903, 1.5900,1.5901,0.0
SingleSource/Benchmarks/Misc/fbench, 1.7531, 1.7530, 1.7531,1.7531, 1.7531, 1.7532, 1.7531,1.7531,0.0
SingleSource/Benchmarks/Misc/dt, 0.6919, 0.6918, 0.6919,0.6919, 0.6919, 0.6920, 0.6919,0.6919,0.0
SingleSource/Benchmarks/Misc-C++/mandel-text, 1.6053, 1.6054, 1.6049,1.6053, 1.6053, 1.6060, 1.6038,1.6053,0.0
SingleSource/Benchmarks/McGill/queens, 1.5489, 1.5492, 1.5487,1.5489, 1.5489, 1.5489, 1.5489,1.5489,0.0
SingleSource/Benchmarks/McGill/misr, 0.1016, 0.1016, 0.1015,0.1016, 0.1016, 0.1016, 0.1016,0.1016,0.0
SingleSource/Benchmarks/Dhrystone/fldry, 0.3655, 0.3655, 0.3655,0.3655, 0.3655, 0.3655, 0.3655,0.3655,0.0
SingleSource/Benchmarks/Dhrystone/dry, 0.3351, 0.3351, 0.3351,0.3351, 0.3351, 0.3351, 0.3351,0.3351,0.0
SingleSource/Benchmarks/BenchmarkGame/spectral-norm, 0.9733, 0.9733, 0.9732,0.9733, 0.9733, 0.9733, 0.9733,0.9733,0.0
SingleSource/Benchmarks/BenchmarkGame/recursive, 0.7045, 0.7045, 0.7044,0.7045, 0.7045, 0.7044, 0.7045,0.7045,0.0
SingleSource/Benchmarks/BenchmarkGame/partialsums, 0.5687, 0.5687, 0.5687,0.5687, 0.5688, 0.5687, 0.5686,0.5687,0.0
SingleSource/Benchmarks/BenchmarkGame/n-body, 1.3711, 1.3713, 1.3713,1.3713, 1.3713, 1.3714, 1.3713,1.3713,0.0
MultiSource/Benchmarks/VersaBench/ecbdes/ecbdes, 1.6837, 1.6838, 1.6837,1.6837, 1.6837, 1.6836, 1.6837,1.6837,0.0
MultiSource/Benchmarks/VersaBench/beamformer/beamformer, 0.6732, 0.6733, 0.6732,0.6732, 0.6733, 0.6732, 0.6732,0.6732,0.0
MultiSource/Benchmarks/Trimaran/enc-pc1/enc-pc1, 0.3528, 0.3527, 0.3528,0.3528, 0.3528, 0.3528, 0.3529,0.3528,0.0
MultiSource/Benchmarks/Trimaran/enc-md5/enc-md5, 1.3939, 1.3940, 1.3939,1.3939, 1.3938, 1.3939, 1.3939,1.3939,0.0
MultiSource/Benchmarks/TSVC/Reductions-flt/Reductions-flt, 5.9694, 5.9693, 5.9694,5.9694, 5.9694, 5.9694, 5.9693,5.9694,0.0
MultiSource/Benchmarks/TSVC/LinearDependence-dbl/LinearDependence-dbl, 5.1483, 5.1466, 5.1469,5.1469, 5.1457, 5.1469, 5.1553,5.1469,0.0
MultiSource/Benchmarks/Ptrdist/yacr2/yacr2, 0.5095, 0.5096, 0.5096,0.5096, 0.5097, 0.5096, 0.5096,0.5096,0.0
MultiSource/Benchmarks/Prolangs-C/bison/mybison, 0.0021, 0.0021, 0.0022,0.0021, 0.0021, 0.0021, 0.0021,0.0021,0.0
MultiSource/Benchmarks/Prolangs-C++/simul/simul, 0.0040, 0.0040, 0.0040,0.004, 0.0040, 0.0040, 0.0039,0.004,0.0
MultiSource/Benchmarks/Prolangs-C++/employ/employ, 0.0051, 0.0050, 0.0050,0.005, 0.0050, 0.0050, 0.0050,0.005,0.0
MultiSource/Benchmarks/Olden/treeadd/treeadd, 0.1275, 0.1271, 0.1270,0.1271, 0.1276, 0.1271, 0.1270,0.1271,0.0
MultiSource/Benchmarks/MiBench/telecomm-FFT/telecomm-fft, 0.0386, 0.0386, 0.0386,0.0386, 0.0387, 0.0386, 0.0386,0.0386,0.0
MultiSource/Benchmarks/MiBench/network-dijkstra/network-dijkstra, 0.0238, 0.0239, 0.0238,0.0238, 0.0238, 0.0238, 0.0238,0.0238,0.0
MultiSource/Benchmarks/MiBench/automotive-basicmath/automotive-basicmath, 0.2227, 0.2227, 0.2227,0.2227, 0.2227, 0.2232, 0.2227,0.2227,0.0
MultiSource/Benchmarks/McCat/05-eks/eks, 0.0036, 0.0035, 0.0036,0.0036, 0.0036, 0.0036, 0.0036,0.0036,0.0
MultiSource/Benchmarks/McCat/03-testtrie/testtrie, 0.0065, 0.0064, 0.0065,0.0065, 0.0065, 0.0064, 0.0065,0.0065,0.0
MultiSource/Benchmarks/FreeBench/neural/neural, 0.1645, 0.1643, 0.1644,0.1644, 0.1645, 0.1644, 0.1644,0.1644,0.0
MultiSource/Benchmarks/FreeBench/mason/mason, 0.1316, 0.1318, 0.1317,0.1317, 0.1317, 0.1317, 0.1318,0.1317,0.0
MultiSource/Benchmarks/FreeBench/distray/distray, 0.1332, 0.1331, 0.1331,0.1331, 0.1331, 0.1331, 0.1331,0.1331,0.0
MultiSource/Applications/sgefa/sgefa, 0.1153, 0.1154, 0.1151,0.1153, 0.1153, 0.1157, 0.1150,0.1153,0.0
MultiSource/Applications/aha/aha, 1.0749, 1.0732, 1.0730,1.0732, 1.0732, 1.0730, 1.0750,1.0732,0.0
SingleSource/Benchmarks/SmallPT/smallpt, 7.3920, 7.3909, 7.3957,7.392, 7.3914, 7.3919, 7.3924,7.3919,-0.0013528138528173805
SingleSource/Benchmarks/Misc/oourafft, 6.0626, 6.0594, 6.0622,6.0622, 6.0597, 6.0629, 6.0621,6.0621,-0.0016495661640969494
SingleSource/Benchmarks/CoyoteBench/huffbench, 9.3789, 9.3794, 9.3801,9.3794, 9.3804, 9.3792, 9.3779,9.3792,-0.002132332558579808
MultiSource/Benchmarks/TSVC/Recurrences-flt/Recurrences-flt, 3.5010, 3.5009, 3.5009,3.5009, 3.5006, 3.5008, 3.5010,3.5008,-0.0028564083521476213
SingleSource/Benchmarks/Misc/flops-6, 3.4395, 3.4396, 3.4396,3.4396, 3.4395, 3.4397, 3.4395,3.4395,-0.0029073148040570373
MultiSource/Benchmarks/TSVC/LinearDependence-flt/LinearDependence-flt, 4.6186, 4.6201, 4.6186,4.6186, 4.6179, 4.6211, 4.6184,4.6184,-0.004330316546130586
MultiSource/Benchmarks/Olden/em3d/em3d, 1.7044, 1.7043, 1.7037,1.7043, 1.7042, 1.7046, 1.7041,1.7042,-0.005867511588331098
MultiSource/Benchmarks/TSVC/NodeSplitting-dbl/NodeSplitting-dbl, 5.0226, 5.0225, 5.0333,5.0226, 5.0223, 5.0303, 5.0204,5.0223,-0.005973002030801311
SingleSource/Benchmarks/Misc-C++/stepanov_v1p2, 7.9036, 7.9034, 7.9034,7.9034, 7.9028, 7.9031, 7.9027,7.9028,-0.007591669408102408
MultiSource/Benchmarks/Trimaran/enc-3des/enc-3des, 1.2818, 1.2819, 1.2820,1.2819, 1.2821, 1.2818, 1.2816,1.2818,-0.007800920508616027
SingleSource/Benchmarks/Misc/mandel-2, 1.2780, 1.2781, 1.2781,1.2781, 1.2780, 1.2780, 1.2780,1.278,-0.007824113919097098
SingleSource/Benchmarks/Polybench/medley/floyd-warshall/floyd-warshall, 3.4343, 3.4404, 3.4375,3.4375, 3.4372, 3.4359, 3.4390,3.4372,-0.008727272727282465
MultiSource/Benchmarks/Olden/power/power, 0.9765, 0.9765, 0.9764,0.9765, 0.9765, 0.9764, 0.9764,0.9764,-0.010240655401949628
MultiSource/Benchmarks/ASC_Sequoia/CrystalMk/CrystalMk, 6.7160, 6.7171, 6.7170,6.717, 6.7175, 6.7162, 6.7161,6.7162,-0.011910078904275867
SingleSource/Benchmarks/Shootout/sieve, 3.4714, 3.4733, 3.4722,3.4722, 3.4702, 3.4726, 3.4717,3.4717,-0.01440009216059357
SingleSource/Benchmarks/Shootout-C++/ackermann, 0.6574, 0.6574, 0.6574,0.6574, 0.6574, 0.6573, 0.6573,0.6573,-0.015211439002127403
SingleSource/Benchmarks/Polybench/stencils/seidel-2d/seidel-2d, 0.6466, 0.6465, 0.6466,0.6466, 0.6466, 0.6465, 0.6465,0.6465,-0.015465511908441254
MultiSource/Benchmarks/Trimaran/netbench-crc/netbench-crc, 0.6215, 0.6215, 0.6213,0.6215, 0.6215, 0.6214, 0.6214,0.6214,-0.016090104585697595
SingleSource/Benchmarks/Misc/ReedSolomon, 3.1981, 3.1970, 3.1978,3.1978, 3.1968, 3.1973, 3.1971,3.1971,-0.021890049408967993
MultiSource/Benchmarks/mafft/pairlocalalign,26.2172,26.2152,26.2159,26.2159,26.2094,26.2083,26.2101,26.2094,-0.024794113496018344
SingleSource/Benchmarks/Shootout-C++/hash, 0.3212, 0.3222, 0.3216,0.3216, 0.3215, 0.3222, 0.3213,0.3215,-0.031094527363184632
SingleSource/Benchmarks/Polybench/linear-algebra/kernels/trmm/trmm, 2.2476, 2.2487, 2.2331,2.2476, 2.2469, 2.2493, 2.2459,2.2469,-0.031144331731614017
MultiSource/Benchmarks/Olden/voronoi/voronoi, 0.2060, 0.2058, 0.2058,0.2058, 0.2064, 0.2057, 0.2057,0.2057,-0.04859086491740827
SingleSource/Benchmarks/Misc/flops,10.7186,10.6861,10.6798,10.6861,10.6624,10.6809,10.6820,10.6809,-0.04866134511187781
MultiSource/Benchmarks/nbench/nbench, 1.1960, 1.1965, 1.1961,1.1961, 1.1945, 1.1955, 1.1954,1.1954,-0.058523534821497414
MultiSource/Benchmarks/TSVC/StatementReordering-flt/StatementReordering-flt, 1.8226, 1.8296, 1.8260,1.826, 1.8237, 1.8252, 1.8249,1.8249,-0.0602409638554291
MultiSource/Benchmarks/NPB-serial/is/is, 5.2109, 5.2099, 5.2095,5.2099, 5.2064, 5.2067, 5.2064,5.2064,-0.06717979231847249
MultiSource/Benchmarks/TSVC/Equivalencing-dbl/Equivalencing-dbl, 1.3777, 1.3811, 1.3834,1.3811, 1.3806, 1.3795, 1.3801,1.3801,-0.07240605314603465
MultiSource/Benchmarks/TSVC/IndirectAddressing-dbl/IndirectAddressing-dbl, 2.4789, 2.4733, 2.4752,2.4752, 2.4734, 2.4905, 2.4728,2.4734,-0.07272139625081886
SingleSource/Benchmarks/BenchmarkGame/Large/fasta, 0.6495, 0.6499, 0.6494,0.6495, 0.6497, 0.6456, 0.6490,0.649,-0.07698229407235857
MultiSource/Benchmarks/TSVC/IndirectAddressing-flt/IndirectAddressing-flt, 2.3062, 2.2994, 2.3018,2.3018, 2.2989, 2.3046, 2.3000,2.3,-0.07819966982363091
SingleSource/Benchmarks/CoyoteBench/almabench,12.5849,12.5959,12.6086,12.5959,12.5853,12.5851,12.6002,12.5853,-0.08415436769108053
SingleSource/Benchmarks/Adobe-C++/loop_unroll, 1.8926, 1.8904, 1.8896,1.8904, 1.8886, 1.8893, 1.8888,1.8888,-0.0846381718154876
MultiSource/Benchmarks/SciMark2-C/scimark2,43.0508,43.0700,43.0165,43.0508,43.0140,42.8513,43.0836,43.014,-0.08548040919099664
SingleSource/Benchmarks/Shootout/fib2, 1.4738, 1.4722, 1.4738,1.4738, 1.4739, 1.4724, 1.4724,1.4724,-0.0949925363007198
SingleSource/Benchmarks/Misc-C++/Large/sphereflake, 5.5041, 5.5042, 5.5041,5.5041, 5.4988, 5.4991, 5.4988,5.4988,-0.09629185516251137
MultiSource/Benchmarks/FreeBench/pcompress2/pcompress2, 0.1030, 0.1030, 0.1030,0.103, 0.1031, 0.1029, 0.1029,0.1029,-0.09708737864077
SingleSource/Benchmarks/Misc-C++/bigfib, 0.1927, 0.1920, 0.1922,0.1922, 0.1920, 0.1920, 0.1916,0.192,-0.10405827263267886
SingleSource/Benchmarks/Stanford/Puzzle, 0.0874, 0.0872, 0.0876,0.0874, 0.0873, 0.0873, 0.0871,0.0873,-0.11441647597254523
MultiSource/Benchmarks/MallocBench/cfrac/cfrac, 0.7707, 0.7714, 0.7703,0.7707, 0.7695, 0.7701, 0.7698,0.7698,-0.11677695601401972
SingleSource/Benchmarks/Polybench/linear-algebra/kernels/mvt/mvt, 0.2480, 0.2477, 0.2475,0.2477, 0.2474, 0.2424, 0.2478,0.2474,-0.12111425111021035
MultiSource/Benchmarks/BitBench/five11/five11, 1.1199, 1.1393, 1.1166,1.1199, 1.1139, 1.1184, 1.1428,1.1184,-0.13394053040448606
SingleSource/Benchmarks/Polybench/stencils/fdtd-apml/fdtd-apml, 0.7234, 0.7273, 0.7242,0.7242, 0.7232, 0.7220, 0.7249,0.7232,-0.13808340237503325
MultiSource/Benchmarks/TSVC/InductionVariable-dbl/InductionVariable-dbl, 3.0331, 3.0378, 3.0536,3.0378, 3.0335, 3.0347, 3.0328,3.0335,-0.14154980578049425
MultiSource/Applications/obsequi/Obsequi, 1.0802, 1.0798, 1.0791,1.0798, 1.0781, 1.0781, 1.0789,1.0781,-0.15743656232636294
SingleSource/Benchmarks/Shootout/ary3, 0.5945, 0.5971, 0.5881,0.5945, 0.5939, 0.5870, 0.5933,0.5933,-0.20185029436501356
MultiSource/Applications/JM/lencod/lencod, 3.2641, 3.2699, 3.2606,3.2641, 3.2506, 3.2569, 3.2577,3.2569,-0.22058147728317712
SingleSource/Benchmarks/Misc/salsa20, 4.8175, 4.8288, 4.8286,4.8286, 4.8175, 4.8288, 4.8171,4.8175,-0.22988029656628717
SingleSource/Benchmarks/Misc/whetstone, 1.0275, 1.0275, 1.0275,1.0275, 1.0249, 1.0276, 1.0250,1.025,-0.24330900243311193
SingleSource/Benchmarks/Adobe-C++/stepanov_vector, 2.2680, 2.2684, 2.2683,2.2683, 2.2625, 2.2626, 2.2634,2.2626,-0.2512895119693215
SingleSource/Benchmarks/Polybench/linear-algebra/solvers/dynprog/dynprog, 0.2690, 0.2697, 0.2689,0.269, 0.2682, 0.2683, 0.2701,0.2683,-0.26022304832714616
MultiSource/Applications/sqlite3/sqlite3, 1.8210, 1.8114, 1.8194,1.8194, 1.8131, 1.8146, 1.8147,1.8146,-0.2638232384302497
MultiSource/Benchmarks/Prolangs-C++/ocean/ocean, 0.0363, 0.0362, 0.0363,0.0363, 0.0364, 0.0362, 0.0362,0.0362,-0.2754820936639035
MultiSource/Benchmarks/TSVC/ControlFlow-flt/ControlFlow-flt, 3.5017, 3.5261, 3.4922,3.5017, 3.4682, 3.4987, 3.4918,3.4918,-0.28271982180083643
MultiSource/Benchmarks/TSVC/Expansion-flt/Expansion-flt, 1.1626, 1.1596, 1.1648,1.1626, 1.1592, 1.1544, 1.1696,1.1592,-0.29244796146569163
SingleSource/Benchmarks/Polybench/datamining/correlation/correlation, 1.6858, 1.6815, 1.6828,1.6828, 1.6797, 1.6777, 1.6729,1.6777,-0.3030663180413673
MultiSource/Benchmarks/mediabench/g721/g721encode/encode, 0.0291, 0.0292, 0.0293,0.0292, 0.0291, 0.0292, 0.0291,0.0291,-0.3424657534246589
SingleSource/Benchmarks/Misc-C++/oopack_v1p8, 0.1640, 0.1643, 0.1643,0.1643, 0.1637, 0.1636, 0.1637,0.1637,-0.36518563603163967
MultiSource/Benchmarks/McCat/12-IOtest/iotest, 0.2139, 0.2152, 0.2158,0.2152, 0.2143, 0.2149, 0.2144,0.2144,-0.371747211895912
SingleSource/Benchmarks/BenchmarkGame/nsieve-bits, 0.4885, 0.4846, 0.4916,0.4885, 0.4974, 0.4808, 0.4865,0.4865,-0.4094165813715467
MultiSource/Benchmarks/Prolangs-C/gnugo/gnugo, 0.0241, 0.0242, 0.0240,0.0241, 0.0240, 0.0240, 0.0241,0.024,-0.4149377593360981
MultiSource/Benchmarks/MallocBench/gs/gs, 0.0232, 0.0235, 0.0235,0.0235, 0.0233, 0.0234, 0.0234,0.0234,-0.42553191489361764
MultiSource/Benchmarks/MiBench/security-sha/security-sha, 0.0159, 0.0158, 0.0157,0.0158, 0.0156, 0.0157, 0.0158,0.0157,-0.6329113924050778
MultiSource/Benchmarks/mediabench/mpeg2/mpeg2dec/mpeg2decode, 0.0153, 0.0153, 0.0152,0.0153, 0.0154, 0.0152, 0.0152,0.0152,-0.6535947712418277
SingleSource/Benchmarks/Shootout-C++/ary2, 0.0151, 0.0150, 0.0151,0.0151, 0.0150, 0.0151, 0.0150,0.015,-0.6622516556291425
MultiSource/Benchmarks/TSVC/CrossingThresholds-flt/CrossingThresholds-flt, 1.6269, 1.6273, 1.6255,1.6269, 1.6155, 1.6070, 1.6234,1.6155,-0.7007191591370088
MultiSource/Benchmarks/llubenchmark/llu, 4.1486, 4.1429, 4.0717,4.1429, 4.1130, 4.1176, 4.0541,4.113,-0.7217166718964885
SingleSource/Benchmarks/CoyoteBench/fftbench, 0.6347, 0.6330, 0.6331,0.6331, 0.6259, 0.6279, 0.6315,0.6279,-0.8213552361396315
SingleSource/Benchmarks/Polybench/linear-algebra/kernels/cholesky/cholesky, 0.4629, 0.4590, 0.4612,0.4612, 0.4582, 0.4571, 0.4556,0.4571,-0.888985255854291
SingleSource/Benchmarks/Stanford/Towers, 0.0089, 0.0088, 0.0089,0.0089, 0.0088, 0.0088, 0.0089,0.0088,-1.1235955056179692
SingleSource/Benchmarks/Misc/richards_benchmark, 0.5319, 0.5323, 0.5316,0.5319, 0.5241, 0.5253, 0.5254,0.5253,-1.2408347433728206
SingleSource/Benchmarks/Stanford/Queens, 0.0079, 0.0077, 0.0078,0.0078, 0.0078, 0.0077, 0.0077,0.0077,-1.2820512820512775
SingleSource/Benchmarks/Adobe-C++/functionobjects, 3.0276, 3.0268, 3.0265,3.0268, 2.9875, 2.9872, 2.9877,2.9875,-1.298400951499945
MultiSource/Benchmarks/McCat/18-imp/imp, 0.0777, 0.0761, 0.0763,0.0763, 0.0767, 0.0753, 0.0730,0.0753,-1.3106159895150737
SingleSource/Benchmarks/Polybench/linear-algebra/kernels/gemver/gemver, 0.3264, 0.3221, 0.3268,0.3264, 0.3213, 0.3181, 0.3268,0.3213,-1.562500000000011
MultiSource/Benchmarks/BitBench/uudecode/uudecode, 0.0793, 0.0820, 0.0814,0.0814, 0.0794, 0.0837, 0.0800,0.08,-1.7199017199017175
SingleSource/Benchmarks/Misc/flops-3, 5.5081, 5.4132, 5.5082,5.5081, 5.4133, 5.5084, 5.4132,5.4133,-1.7211016502968413
MultiSource/Benchmarks/TSVC/Packing-dbl/Packing-dbl, 2.3265, 2.2791, 2.3278,2.3265, 2.3269, 2.2783, 2.2788,2.2788,-2.0502901353965153
MultiSource/Benchmarks/MiBench/automotive-bitcount/automotive-bitcount, 0.0629, 0.0641, 0.0611,0.0629, 0.0616, 0.0621, 0.0587,0.0616,-2.0667726550079424
MultiSource/Applications/ALAC/decode/alacconvert-decode, 0.0141, 0.0142, 0.0143,0.0142, 0.0139, 0.0139, 0.0139,0.0139,-2.1126760563380365
SingleSource/Benchmarks/Polybench/linear-algebra/solvers/durbin/durbin, 0.4074, 0.4072, 0.4076,0.4074, 0.3983, 0.3979, 0.4078,0.3983,-2.2336769759450203
SingleSource/Benchmarks/Polybench/linear-algebra/kernels/bicg/bicg, 0.2122, 0.2122, 0.2121,0.2122, 0.2073, 0.2073, 0.2074,0.2073,-2.309142318567381
MultiSource/Applications/SIBsim4/SIBsim4, 2.1274, 2.1035, 2.1758,2.1274, 2.0770, 2.1099, 2.0755,2.077,-2.3690890288615263
SingleSource/Benchmarks/Misc/flops-8, 3.8464, 3.8465, 3.7516,3.8464, 3.8465, 3.7517, 3.7515,3.7517,-2.4620424292845278
MultiSource/Benchmarks/mediabench/jpeg/jpeg-6a/cjpeg, 0.0031, 0.0032, 0.0032,0.0032, 0.0032, 0.0030, 0.0031,0.0031,-3.125000000000011
MultiSource/Benchmarks/MiBench/consumer-jpeg/consumer-jpeg, 0.0032, 0.0030, 0.0031,0.0031, 0.0030, 0.0030, 0.0029,0.003,-3.2258064516129004
MultiSource/Benchmarks/mediabench/adpcm/rawcaudio/rawcaudio, 0.0030, 0.0029, 0.0030,0.003, 0.0029, 0.0030, 0.0028,0.0029,-3.3333333333333437
MultiSource/Applications/hexxagon/hexxagon, 6.8370, 6.8368, 6.8367,6.8368, 6.5383, 6.5379, 6.5380,6.538,-4.3704657149543635
SingleSource/Benchmarks/Shootout-C++/methcall, 3.5508, 3.5460, 3.5460,3.546, 3.3452, 3.3435, 3.3433,3.3435,-5.710659898477144
Total elapsed time,-,-,-,572.6215000000004,-,-,-,572.9236000000001,0.05275736241123763
Total failure,-,-,-,0,-,-,-,0,
