Benchmarks,/mnt/freezedisk/llvm-intptr-base-5.0-release/bin/clang,/mnt/freezedisk/llvm-intptr-base-5.0-release/bin/clang,/mnt/freezedisk/llvm-intptr-base-5.0-release/bin/clang,median,/mnt/freezedisk/llvm-intptr-insts-opt-noprov-5.0-release/bin/clang,/mnt/freezedisk/llvm-intptr-insts-opt-noprov-5.0-release/bin/clang,/mnt/freezedisk/llvm-intptr-insts-opt-noprov-5.0-release/bin/clang,median
MultiSource/Applications/ALAC/decode/alacconvert-decode, 0.9340, 0.9356, 0.9337,0.934, 0.9355, 0.9362, 0.9346,0.9355
MultiSource/Applications/ALAC/encode/alacconvert-encode, 0.9229, 0.9235, 0.9222,0.9229, 0.9232, 0.9228, 0.9233,0.9232
MultiSource/Applications/ClamAV/clamscan,14.2364,14.2558,14.2457,14.2457,14.2489,14.2276,14.2272,14.2276
MultiSource/Applications/JM/ldecod/ldecod, 6.2299, 6.2295, 6.2276,6.2295, 6.2358, 6.2115, 6.2139,6.2139
MultiSource/Applications/JM/lencod/lencod,14.6309,14.6229,14.6109,14.6229,14.6152,14.6099,14.6181,14.6152
MultiSource/Applications/SIBsim4/SIBsim4, 1.1360, 1.1361, 1.1358,1.136, 1.1536, 1.1342, 1.1346,1.1346
MultiSource/Applications/SPASS/SPASS,12.0595,12.0593,12.0540,12.0593,11.9565,11.9444,11.9532,11.9532
MultiSource/Applications/aha/aha, 0.1024, 0.1016, 0.1011,0.1016, 0.1061, 0.1073, 0.1040,0.1061
MultiSource/Applications/d/make_dparser, 2.5747, 2.5765, 2.5755,2.5755, 2.5811, 2.5673, 2.5752,2.5752
MultiSource/Applications/hbd/hbd, 1.1683, 1.1715, 1.1674,1.1683, 1.1597, 1.1582, 1.1626,1.1597
MultiSource/Applications/hexxagon/hexxagon, 0.6553, 0.6579, 0.6558,0.6558, 0.6533, 0.6528, 0.6536,0.6533
MultiSource/Applications/kimwitu++/kc,10.9953,11.0139,11.0106,11.0106,10.9045,10.9361,10.9049,10.9049
MultiSource/Applications/lambda-0.1.3/lambda, 0.5712, 0.5449, 0.5439,0.5449, 0.5419, 0.5416, 0.5425,0.5419
MultiSource/Applications/lua/lua, 3.1828, 3.1866, 3.1769,3.1828, 3.1839, 3.1889, 3.1929,3.1889
MultiSource/Applications/minisat/minisat, 0.6059, 0.6097, 0.5994,0.6059, 0.6179, 0.6121, 0.6107,0.6121
MultiSource/Applications/obsequi/Obsequi, 0.9460, 0.9530, 0.9593,0.953, 0.9471, 0.9457, 0.9547,0.9471
MultiSource/Applications/oggenc/oggenc, 4.8087, 4.7926, 4.8026,4.8026, 4.7839, 4.7819, 4.7928,4.7839
MultiSource/Applications/sgefa/sgefa, 0.3836, 0.3836, 0.3830,0.3836, 0.3829, 0.3825, 0.3827,0.3827
MultiSource/Applications/siod/siod, 1.9353, 1.9376, 1.9455,1.9376, 1.9267, 1.9281, 1.9250,1.9267
MultiSource/Applications/spiff/spiff, 0.7330, 0.7287, 0.7309,0.7309, 0.7338, 0.7311, 0.7355,0.7338
MultiSource/Applications/sqlite3/sqlite3,14.5631,14.5803,14.5780,14.578,14.5750,14.5370,14.5235,14.537
MultiSource/Applications/viterbi/viterbi, 0.1623, 0.1620, 0.1622,0.1622, 0.1621, 0.1621, 0.1621,0.1621
MultiSource/Benchmarks/7zip/7zip-benchmark,33.4213,33.4405,33.4126,33.4213,33.4298,33.3962,33.4107,33.4107
MultiSource/Benchmarks/ASCI_Purple/SMG2000/smg2000, 5.5712, 5.5506, 5.5630,5.563, 5.5664, 5.5570, 5.5635,5.5635
MultiSource/Benchmarks/ASC_Sequoia/AMGmk/AMGmk, 0.5833, 0.5811, 0.5775,0.5811, 0.5804, 0.5749, 0.5749,0.5749
MultiSource/Benchmarks/ASC_Sequoia/CrystalMk/CrystalMk, 0.2137, 0.2132, 0.2131,0.2132, 0.2137, 0.2136, 0.2375,0.2137
MultiSource/Benchmarks/ASC_Sequoia/IRSmk/IRSmk, 0.0989, 0.0989, 0.0987,0.0989, 0.0989, 0.0990, 0.0991,0.099
MultiSource/Benchmarks/BitBench/drop3/drop3, 0.0417, 0.0417, 0.0416,0.0417, 0.0418, 0.0418, 0.0418,0.0418
MultiSource/Benchmarks/BitBench/five11/five11, 0.0525, 0.0525, 0.0524,0.0525, 0.0525, 0.0524, 0.0525,0.0525
MultiSource/Benchmarks/BitBench/uudecode/uudecode, 0.0425, 0.0424, 0.0423,0.0424, 0.0423, 0.0424, 0.0422,0.0423
MultiSource/Benchmarks/BitBench/uuencode/uuencode, 0.0417, 0.0415, 0.0416,0.0416, 0.0417, 0.0416, 0.0416,0.0416
MultiSource/Benchmarks/Bullet/bullet,22.7947,22.7656,22.7647,22.7656,22.6881,22.6740,22.6843,22.6843
MultiSource/Benchmarks/DOE-ProxyApps-C++/CLAMR/CLAMR,17.8268,17.8052,17.8187,17.8187,17.5812,17.5663,17.5804,17.5804
MultiSource/Benchmarks/DOE-ProxyApps-C++/HPCCG/HPCCG, 1.3850, 1.3834, 1.3838,1.3838, 1.3765, 1.3771, 1.3775,1.3771
MultiSource/Benchmarks/DOE-ProxyApps-C++/PENNANT/PENNANT, 4.0357, 4.0390, 4.0341,4.0357, 4.0033, 4.0027, 4.0070,4.0033
MultiSource/Benchmarks/DOE-ProxyApps-C++/miniFE/miniFE, 2.5495, 2.5492, 2.5478,2.5492, 2.5244, 2.5231, 2.5257,2.5244
MultiSource/Benchmarks/DOE-ProxyApps-C/Pathfinder/PathFinder, 0.7995, 0.7965, 0.7953,0.7965, 0.7943, 0.7937, 0.7964,0.7943
MultiSource/Benchmarks/DOE-ProxyApps-C/RSBench/rsbench, 0.3929, 0.3918, 0.3912,0.3918, 0.3959, 0.3923, 0.3926,0.3926
MultiSource/Benchmarks/DOE-ProxyApps-C/SimpleMOC/SimpleMOC, 0.8434, 0.8427, 0.8431,0.8431, 0.8470, 0.8458, 0.8477,0.847
MultiSource/Benchmarks/DOE-ProxyApps-C/XSBench/XSBench, 0.3400, 0.3392, 0.3393,0.3393, 0.3423, 0.3421, 0.3424,0.3423
MultiSource/Benchmarks/DOE-ProxyApps-C/miniAMR/miniAMR, 1.3190, 1.3192, 1.3193,1.3192, 1.3184, 1.3171, 1.3184,1.3184
MultiSource/Benchmarks/DOE-ProxyApps-C/miniGMG/miniGMG, 0.9584, 0.9580, 0.9586,0.9584, 0.9583, 0.9570, 0.9587,0.9583
MultiSource/Benchmarks/Fhourstones-3.1/fhourstones3.1, 0.1146, 0.1145, 0.1144,0.1145, 0.1152, 0.1149, 0.1150,0.115
MultiSource/Benchmarks/Fhourstones/fhourstones, 0.1558, 0.1553, 0.1555,0.1555, 0.1554, 0.1554, 0.1555,0.1554
MultiSource/Benchmarks/FreeBench/analyzer/analyzer, 0.2301, 0.2297, 0.2299,0.2299, 0.2324, 0.2324, 0.2321,0.2324
MultiSource/Benchmarks/FreeBench/distray/distray, 0.0919, 0.0918, 0.0918,0.0918, 0.0912, 0.0912, 0.0911,0.0912
MultiSource/Benchmarks/FreeBench/fourinarow/fourinarow, 0.3345, 0.3341, 0.3345,0.3345, 0.3336, 0.3336, 0.3333,0.3336
MultiSource/Benchmarks/FreeBench/mason/mason, 0.0485, 0.0483, 0.0484,0.0484, 0.0483, 0.0483, 0.0483,0.0483
MultiSource/Benchmarks/FreeBench/neural/neural, 0.1741, 0.1742, 0.1744,0.1742, 0.1744, 0.1741, 0.1743,0.1743
MultiSource/Benchmarks/FreeBench/pcompress2/pcompress2, 0.2466, 0.2438, 0.2465,0.2465, 0.2468, 0.2439, 0.2443,0.2443
MultiSource/Benchmarks/FreeBench/pifft/pifft, 0.9149, 0.9150, 0.9157,0.915, 0.9156, 0.9142, 0.9148,0.9148
MultiSource/Benchmarks/MallocBench/cfrac/cfrac, 0.8411, 0.8453, 0.8361,0.8411, 0.8357, 0.8452, 0.8351,0.8357
MultiSource/Benchmarks/MallocBench/espresso/espresso, 4.5032, 4.5013, 4.5052,4.5032, 4.5189, 4.5067, 4.5135,4.5135
MultiSource/Benchmarks/MallocBench/gs/gs, 3.6434, 3.6384, 3.6404,3.6404, 3.6352, 3.6354, 3.6343,3.6352
MultiSource/Benchmarks/McCat/01-qbsort/qbsort, 0.0978, 0.0954, 0.1009,0.0978, 0.1013, 0.1026, 0.0971,0.1013
MultiSource/Benchmarks/McCat/03-testtrie/testtrie, 0.0870, 0.0868, 0.0869,0.0869, 0.0871, 0.0867, 0.0868,0.0868
MultiSource/Benchmarks/McCat/04-bisect/bisect, 0.1246, 0.1243, 0.1241,0.1243, 0.1247, 0.1246, 0.1246,0.1246
MultiSource/Benchmarks/McCat/05-eks/eks, 0.5082, 0.5066, 0.5075,0.5075, 0.5073, 0.5065, 0.5071,0.5071
MultiSource/Benchmarks/McCat/08-main/main, 0.2318, 0.2318, 0.2318,0.2318, 0.2347, 0.2346, 0.2350,0.2347
MultiSource/Benchmarks/McCat/09-vor/vor, 0.2651, 0.2647, 0.2649,0.2649, 0.2622, 0.2621, 0.2623,0.2622
MultiSource/Benchmarks/McCat/12-IOtest/iotest, 0.0888, 0.0889, 0.0887,0.0888, 0.0888, 0.0890, 0.0890,0.089
MultiSource/Benchmarks/McCat/17-bintr/bintr, 0.0671, 0.0669, 0.0668,0.0669, 0.0671, 0.0671, 0.0669,0.0671
MultiSource/Benchmarks/McCat/18-imp/imp, 0.3218, 0.3221, 0.3221,0.3221, 0.3213, 0.3212, 0.3213,0.3213
MultiSource/Benchmarks/MiBench/automotive-basicmath/automotive-basicmath, 0.1392, 0.1388, 0.1390,0.139, 0.1386, 0.1386, 0.1387,0.1386
MultiSource/Benchmarks/MiBench/automotive-bitcount/automotive-bitcount, 0.2447, 0.2441, 0.2445,0.2445, 0.2449, 0.2450, 0.2446,0.2449
MultiSource/Benchmarks/MiBench/automotive-susan/automotive-susan, 0.6331, 0.6383, 0.6404,0.6383, 0.6356, 0.6300, 0.6342,0.6342
MultiSource/Benchmarks/MiBench/consumer-jpeg/consumer-jpeg, 4.3415, 4.3409, 4.3388,4.3409, 4.3310, 4.3282, 4.3329,4.331
MultiSource/Benchmarks/MiBench/consumer-lame/consumer-lame, 3.8825, 3.8817, 3.8816,3.8817, 3.8979, 3.8973, 3.8956,3.8973
MultiSource/Benchmarks/MiBench/consumer-typeset/consumer-typeset, 9.6940, 9.6975, 9.7000,9.6975, 9.6423, 9.6455, 9.6392,9.6423
MultiSource/Benchmarks/MiBench/network-dijkstra/network-dijkstra, 0.0408, 0.0406, 0.0407,0.0407, 0.0406, 0.0406, 0.0407,0.0406
MultiSource/Benchmarks/MiBench/network-patricia/network-patricia, 0.0836, 0.0864, 0.0858,0.0858, 0.0839, 0.0834, 0.0825,0.0834
MultiSource/Benchmarks/MiBench/security-rijndael/security-rijndael, 0.3923, 0.3929, 0.3929,0.3929, 0.3908, 0.3908, 0.3911,0.3908
MultiSource/Benchmarks/MiBench/security-sha/security-sha, 0.1145, 0.1144, 0.1141,0.1144, 0.1149, 0.1148, 0.1147,0.1148
MultiSource/Benchmarks/MiBench/telecomm-CRC32/telecomm-CRC32, 0.0339, 0.0338, 0.0338,0.0338, 0.0339, 0.0338, 0.0339,0.0339
MultiSource/Benchmarks/MiBench/telecomm-FFT/telecomm-fft, 0.1356, 0.1355, 0.1355,0.1355, 0.1357, 0.1356, 0.1356,0.1356
MultiSource/Benchmarks/MiBench/telecomm-adpcm/telecomm-adpcm, 0.0531, 0.0530, 0.0529,0.053, 0.0531, 0.0671, 0.0532,0.0532
MultiSource/Benchmarks/MiBench/telecomm-gsm/telecomm-gsm, 1.0120, 1.0060, 1.0114,1.0114, 1.0051, 1.0063, 1.0111,1.0063
MultiSource/Benchmarks/NPB-serial/is/is, 0.0631, 0.0630, 0.0630,0.063, 0.0634, 0.0632, 0.0634,0.0634
MultiSource/Benchmarks/Olden/bh/bh, 0.2495, 0.2497, 0.2499,0.2497, 0.2491, 0.2489, 0.2493,0.2491
MultiSource/Benchmarks/Olden/bisort/bisort, 0.0609, 0.0609, 0.0608,0.0609, 0.0610, 0.0611, 0.0611,0.0611
MultiSource/Benchmarks/Olden/em3d/em3d, 0.1699, 0.1693, 0.1695,0.1695, 0.1690, 0.1693, 0.1692,0.1692
MultiSource/Benchmarks/Olden/health/health, 0.1319, 0.1314, 0.1316,0.1316, 0.1316, 0.1315, 0.1314,0.1315
MultiSource/Benchmarks/Olden/mst/mst, 0.1169, 0.1164, 0.1165,0.1165, 0.1201, 0.1203, 0.1201,0.1201
MultiSource/Benchmarks/Olden/perimeter/perimeter, 0.0742, 0.0742, 0.0741,0.0742, 0.0741, 0.0742, 0.0743,0.0742
MultiSource/Benchmarks/Olden/power/power, 0.1233, 0.1234, 0.1232,0.1233, 0.1233, 0.1232, 0.1234,0.1233
MultiSource/Benchmarks/Olden/treeadd/treeadd, 0.0521, 0.0520, 0.0520,0.052, 0.0521, 0.0522, 0.0522,0.0522
MultiSource/Benchmarks/Olden/tsp/tsp, 0.1229, 0.1225, 0.1226,0.1226, 0.1218, 0.1219, 0.1219,0.1219
MultiSource/Benchmarks/Olden/voronoi/voronoi, 0.2349, 0.2349, 0.2349,0.2349, 0.2121, 0.2121, 0.2122,0.2121
MultiSource/Benchmarks/PAQ8p/paq8p, 1.8882, 1.8919, 1.8950,1.8919, 1.8889, 1.8852, 1.8864,1.8864
MultiSource/Benchmarks/Prolangs-C++/city/city, 0.8922, 0.8920, 0.8925,0.8922, 0.8853, 0.8865, 0.8845,0.8853
MultiSource/Benchmarks/Prolangs-C++/employ/employ, 0.1975, 0.1978, 0.1973,0.1975, 0.1961, 0.1962, 0.1969,0.1962
MultiSource/Benchmarks/Prolangs-C++/life/life, 0.0581, 0.0581, 0.0581,0.0581, 0.0583, 0.0582, 0.0584,0.0583
MultiSource/Benchmarks/Prolangs-C++/ocean/ocean, 0.1064, 0.1064, 0.1064,0.1064, 0.1065, 0.1064, 0.1068,0.1065
MultiSource/Benchmarks/Prolangs-C++/primes/primes, 0.0239, 0.0238, 0.0238,0.0238, 0.0239, 0.0239, 0.0238,0.0239
MultiSource/Benchmarks/Prolangs-C++/simul/simul, 0.0514, 0.0511, 0.0516,0.0514, 0.0512, 0.0513, 0.0515,0.0513
MultiSource/Benchmarks/Prolangs-C/agrep/agrep, 1.3141, 1.3183, 1.3114,1.3141, 1.3146, 1.3108, 1.3086,1.3108
MultiSource/Benchmarks/Prolangs-C/bison/mybison, 1.5772, 1.5772, 1.5762,1.5772, 1.5763, 1.5750, 1.5754,1.5754
MultiSource/Benchmarks/Prolangs-C/gnugo/gnugo, 0.6955, 0.6939, 0.6938,0.6939, 0.6962, 0.6965, 0.6959,0.6962
MultiSource/Benchmarks/Ptrdist/anagram/anagram, 0.0981, 0.0980, 0.0979,0.098, 0.0977, 0.0973, 0.0976,0.0976
MultiSource/Benchmarks/Ptrdist/bc/bc, 0.9888, 0.9885, 0.9891,0.9888, 0.9851, 0.9841, 0.9844,0.9844
MultiSource/Benchmarks/Ptrdist/ft/ft, 0.2004, 0.2004, 0.2006,0.2004, 0.1996, 0.1996, 0.1998,0.1996
MultiSource/Benchmarks/Ptrdist/ks/ks, 0.1413, 0.1414, 0.1410,0.1413, 0.1412, 0.1410, 0.1412,0.1412
MultiSource/Benchmarks/Ptrdist/yacr2/yacr2, 0.5918, 0.5915, 0.5910,0.5915, 0.5929, 0.5917, 0.5921,0.5921
MultiSource/Benchmarks/SciMark2-C/scimark2, 0.3563, 0.3560, 0.3554,0.356, 0.3568, 0.3576, 0.3569,0.3569
MultiSource/Benchmarks/TSVC/ControlFlow-dbl/ControlFlow-dbl, 2.1298, 2.1484, 2.1293,2.1298, 2.1264, 2.1249, 2.1251,2.1251
MultiSource/Benchmarks/TSVC/ControlFlow-flt/ControlFlow-flt, 1.7957, 1.8013, 1.7921,1.7957, 1.7871, 1.7874, 1.7867,1.7871
MultiSource/Benchmarks/TSVC/ControlLoops-dbl/ControlLoops-dbl, 2.0432, 2.0424, 2.0402,2.0424, 2.0319, 2.0306, 2.0279,2.0306
MultiSource/Benchmarks/TSVC/ControlLoops-flt/ControlLoops-flt, 1.7054, 1.7024, 1.7019,1.7024, 1.6999, 1.6956, 1.7017,1.6999
MultiSource/Benchmarks/TSVC/CrossingThresholds-dbl/CrossingThresholds-dbl, 1.9979, 1.9951, 1.9954,1.9954, 1.9868, 1.9835, 1.9853,1.9853
MultiSource/Benchmarks/TSVC/CrossingThresholds-flt/CrossingThresholds-flt, 1.6611, 1.6632, 1.6603,1.6611, 1.6542, 1.6532, 1.6518,1.6532
MultiSource/Benchmarks/TSVC/Equivalencing-dbl/Equivalencing-dbl, 2.0037, 2.0015, 2.0034,2.0034, 1.9984, 1.9959, 1.9976,1.9976
MultiSource/Benchmarks/TSVC/Equivalencing-flt/Equivalencing-flt, 1.6673, 1.6681, 1.6667,1.6673, 1.6639, 1.6610, 1.6628,1.6628
MultiSource/Benchmarks/TSVC/Expansion-dbl/Expansion-dbl, 2.0348, 2.0361, 2.0358,2.0358, 2.0259, 2.0268, 2.0268,2.0268
MultiSource/Benchmarks/TSVC/Expansion-flt/Expansion-flt, 1.6988, 1.7002, 1.7011,1.7002, 1.7024, 1.6958, 1.6970,1.697
MultiSource/Benchmarks/TSVC/GlobalDataFlow-dbl/GlobalDataFlow-dbl, 2.0243, 2.0231, 2.0247,2.0243, 2.0242, 2.0235, 2.0214,2.0235
MultiSource/Benchmarks/TSVC/GlobalDataFlow-flt/GlobalDataFlow-flt, 1.6937, 1.6968, 1.6931,1.6937, 1.6957, 1.6909, 1.6885,1.6909
MultiSource/Benchmarks/TSVC/IndirectAddressing-dbl/IndirectAddressing-dbl, 1.9796, 1.9766, 1.9812,1.9796, 1.9800, 1.9786, 1.9794,1.9794
MultiSource/Benchmarks/TSVC/IndirectAddressing-flt/IndirectAddressing-flt, 1.6493, 1.6465, 1.6459,1.6465, 1.6415, 1.6370, 1.6490,1.6415
MultiSource/Benchmarks/TSVC/InductionVariable-dbl/InductionVariable-dbl, 2.0148, 2.0120, 2.0116,2.012, 2.0042, 2.0014, 2.0027,2.0027
MultiSource/Benchmarks/TSVC/InductionVariable-flt/InductionVariable-flt, 1.6721, 1.6716, 1.6733,1.6721, 1.6711, 1.6678, 1.6687,1.6687
MultiSource/Benchmarks/TSVC/LinearDependence-dbl/LinearDependence-dbl, 2.0478, 2.0549, 2.0516,2.0516, 2.0413, 2.0487, 2.0473,2.0473
MultiSource/Benchmarks/TSVC/LinearDependence-flt/LinearDependence-flt, 1.7305, 1.7282, 1.7243,1.7282, 1.7192, 1.7208, 1.7173,1.7192
MultiSource/Benchmarks/TSVC/LoopRerolling-dbl/LoopRerolling-dbl, 1.9593, 1.9452, 1.9558,1.9558, 1.9586, 1.9576, 1.9597,1.9586
MultiSource/Benchmarks/TSVC/LoopRerolling-flt/LoopRerolling-flt, 1.6242, 1.6263, 1.6198,1.6242, 1.6259, 1.6202, 1.6218,1.6218
MultiSource/Benchmarks/TSVC/LoopRestructuring-dbl/LoopRestructuring-dbl, 2.0043, 2.0127, 2.0058,2.0058, 2.0020, 1.9986, 1.9922,1.9986
MultiSource/Benchmarks/TSVC/LoopRestructuring-flt/LoopRestructuring-flt, 1.6725, 1.6705, 1.6781,1.6725, 1.6699, 1.6657, 1.6677,1.6677
MultiSource/Benchmarks/TSVC/NodeSplitting-dbl/NodeSplitting-dbl, 1.9784, 1.9525, 1.9796,1.9784, 1.9774, 1.9779, 1.9788,1.9779
MultiSource/Benchmarks/TSVC/NodeSplitting-flt/NodeSplitting-flt, 1.6419, 1.6352, 1.6459,1.6419, 1.6412, 1.6418, 1.6434,1.6418
MultiSource/Benchmarks/TSVC/Packing-dbl/Packing-dbl, 1.9292, 1.9505, 1.9514,1.9505, 1.9454, 1.9465, 1.9218,1.9454
MultiSource/Benchmarks/TSVC/Packing-flt/Packing-flt, 1.6237, 1.6196, 1.6140,1.6196, 1.6136, 1.6090, 1.6089,1.609
MultiSource/Benchmarks/TSVC/Recurrences-dbl/Recurrences-dbl, 1.9472, 1.9529, 1.9489,1.9489, 1.9513, 1.9414, 1.9426,1.9426
MultiSource/Benchmarks/TSVC/Recurrences-flt/Recurrences-flt, 1.6142, 1.6137, 1.6142,1.6142, 1.6087, 1.6149, 1.6105,1.6105
MultiSource/Benchmarks/TSVC/Reductions-dbl/Reductions-dbl, 2.0416, 2.0413, 2.0388,2.0413, 2.0439, 2.0395, 2.0435,2.0435
MultiSource/Benchmarks/TSVC/Reductions-flt/Reductions-flt, 1.7099, 1.7063, 1.7110,1.7099, 1.7139, 1.7076, 1.7106,1.7106
MultiSource/Benchmarks/TSVC/Searching-dbl/Searching-dbl, 1.9374, 1.9364, 1.9347,1.9364, 1.9281, 1.9256, 1.9347,1.9281
MultiSource/Benchmarks/TSVC/Searching-flt/Searching-flt, 1.6016, 1.6040, 1.6013,1.6016, 1.5955, 1.5976, 1.5952,1.5955
MultiSource/Benchmarks/TSVC/StatementReordering-dbl/StatementReordering-dbl, 1.9611, 1.9493, 1.9503,1.9503, 1.9443, 1.9493, 1.9442,1.9443
MultiSource/Benchmarks/TSVC/StatementReordering-flt/StatementReordering-flt, 1.6146, 1.6241, 1.6141,1.6146, 1.6096, 1.6095, 1.6089,1.6095
MultiSource/Benchmarks/TSVC/Symbolics-dbl/Symbolics-dbl, 1.9919, 1.9862, 1.9879,1.9879, 1.9854, 1.9806, 1.9822,1.9822
MultiSource/Benchmarks/TSVC/Symbolics-flt/Symbolics-flt, 1.6556, 1.6603, 1.6529,1.6556, 1.6519, 1.6497, 1.6481,1.6497
MultiSource/Benchmarks/Trimaran/enc-3des/enc-3des, 0.2373, 0.2374, 0.2369,0.2373, 0.2364, 0.2373, 0.2371,0.2371
MultiSource/Benchmarks/Trimaran/enc-md5/enc-md5, 0.1472, 0.1471, 0.1471,0.1471, 0.1476, 0.1475, 0.1474,0.1475
MultiSource/Benchmarks/Trimaran/enc-pc1/enc-pc1, 0.0633, 0.0631, 0.0632,0.0632, 0.0632, 0.0633, 0.0633,0.0633
MultiSource/Benchmarks/Trimaran/enc-rc4/enc-rc4, 0.0484, 0.0484, 0.0483,0.0484, 0.0485, 0.0484, 0.0484,0.0484
MultiSource/Benchmarks/Trimaran/netbench-crc/netbench-crc, 0.0745, 0.0741, 0.0744,0.0744, 0.0746, 0.0747, 0.0747,0.0747
MultiSource/Benchmarks/Trimaran/netbench-url/netbench-url, 0.1999, 0.1992, 0.2000,0.1999, 0.1999, 0.2000, 0.2001,0.2
MultiSource/Benchmarks/VersaBench/8b10b/8b10b, 0.0708, 0.0705, 0.0706,0.0706, 0.0709, 0.0708, 0.0709,0.0709
MultiSource/Benchmarks/VersaBench/beamformer/beamformer, 0.3020, 0.3081, 0.3100,0.3081, 0.3039, 0.3096, 0.3041,0.3041
MultiSource/Benchmarks/VersaBench/bmm/bmm, 0.0496, 0.0495, 0.0494,0.0495, 0.0496, 0.0495, 0.0495,0.0495
MultiSource/Benchmarks/VersaBench/dbms/dbms, 0.9203, 0.9415, 0.9315,0.9315, 0.9334, 0.9308, 0.9302,0.9308
MultiSource/Benchmarks/VersaBench/ecbdes/ecbdes, 0.2053, 0.2054, 0.2052,0.2053, 0.2056, 0.2052, 0.2055,0.2055
MultiSource/Benchmarks/llubenchmark/llu, 0.0457, 0.0458, 0.0457,0.0457, 0.0459, 0.0460, 0.0459,0.0459
MultiSource/Benchmarks/mafft/pairlocalalign, 8.6469, 8.6488, 8.6447,8.6469, 8.6119, 8.6022, 8.6092,8.6092
MultiSource/Benchmarks/mediabench/adpcm/rawcaudio/rawcaudio, 0.0534, 0.0533, 0.0533,0.0533, 0.0533, 0.0534, 0.0534,0.0534
MultiSource/Benchmarks/mediabench/adpcm/rawdaudio/rawdaudio, 0.0532, 0.0531, 0.0532,0.0532, 0.0532, 0.0532, 0.0534,0.0532
MultiSource/Benchmarks/mediabench/g721/g721encode/encode, 0.1883, 0.1881, 0.1881,0.1881, 0.1883, 0.1882, 0.1884,0.1883
MultiSource/Benchmarks/mediabench/gsm/toast/toast, 1.0007, 0.9998, 0.9996,0.9998, 1.0026, 1.0024, 1.0032,1.0026
MultiSource/Benchmarks/mediabench/jpeg/jpeg-6a/cjpeg, 4.3914, 4.3910, 4.3876,4.391, 4.3781, 4.3821, 4.3804,4.3804
MultiSource/Benchmarks/mediabench/mpeg2/mpeg2dec/mpeg2decode, 1.3002, 1.3075, 1.3033,1.3033, 1.3068, 1.3041, 1.3050,1.305
MultiSource/Benchmarks/nbench/nbench, 1.1022, 1.1048, 1.1034,1.1034, 1.1034, 1.1028, 1.1035,1.1034
MultiSource/Benchmarks/sim/sim, 0.2807, 0.2811, 0.2806,0.2807, 0.2800, 0.2800, 0.2798,0.28
MultiSource/Benchmarks/tramp3d-v4/tramp3d-v4,19.9512,19.9657,19.9427,19.9512,19.7888,19.7799,19.8250,19.7888
SingleSource/Benchmarks/Adobe-C++/functionobjects, 0.4526, 0.4520, 0.4519,0.452, 0.4368, 0.4371, 0.4373,0.4371
SingleSource/Benchmarks/Adobe-C++/loop_unroll, 4.2995, 4.3144, 4.3039,4.3039, 4.3089, 4.3015, 4.3068,4.3068
SingleSource/Benchmarks/Adobe-C++/simple_types_constant_folding, 2.4279, 2.4322, 2.4298,2.4298, 2.4339, 2.4285, 2.4324,2.4324
SingleSource/Benchmarks/Adobe-C++/simple_types_loop_invariant, 1.9672, 1.9705, 1.9637,1.9672, 1.9683, 1.9695, 1.9629,1.9683
SingleSource/Benchmarks/Adobe-C++/stepanov_abstraction, 0.6047, 0.6091, 0.6049,0.6049, 0.5386, 0.5389, 0.5391,0.5389
SingleSource/Benchmarks/Adobe-C++/stepanov_vector, 0.7304, 0.7314, 0.7294,0.7304, 0.8404, 0.8394, 0.8388,0.8394
SingleSource/Benchmarks/BenchmarkGame/Large/fasta, 0.0399, 0.0398, 0.0468,0.0399, 0.0437, 0.0398, 0.0451,0.0437
SingleSource/Benchmarks/BenchmarkGame/fannkuch, 0.0504, 0.0502, 0.0502,0.0502, 0.0505, 0.0506, 0.0505,0.0505
SingleSource/Benchmarks/BenchmarkGame/n-body, 0.0696, 0.0695, 0.0695,0.0695, 0.0696, 0.0694, 0.0697,0.0696
SingleSource/Benchmarks/BenchmarkGame/nsieve-bits, 0.0309, 0.0309, 0.0309,0.0309, 0.0309, 0.0310, 0.0310,0.031
SingleSource/Benchmarks/BenchmarkGame/partialsums, 0.0288, 0.0287, 0.0325,0.0288, 0.0321, 0.0287, 0.0400,0.0321
SingleSource/Benchmarks/BenchmarkGame/puzzle, 0.0544, 0.0543, 0.0542,0.0543, 0.0546, 0.0545, 0.0546,0.0546
SingleSource/Benchmarks/BenchmarkGame/recursive, 0.0253, 0.0252, 0.0299,0.0253, 0.0369, 0.0253, 0.0314,0.0314
SingleSource/Benchmarks/BenchmarkGame/spectral-norm, 0.0534, 0.0533, 0.0533,0.0533, 0.0533, 0.0533, 0.0533,0.0533
SingleSource/Benchmarks/CoyoteBench/almabench, 0.0651, 0.0650, 0.0650,0.065, 0.0679, 0.0678, 0.0678,0.0678
SingleSource/Benchmarks/CoyoteBench/fftbench, 0.5466, 0.5400, 0.5535,0.5466, 0.6115, 0.5526, 0.5592,0.5592
SingleSource/Benchmarks/CoyoteBench/huffbench, 0.0837, 0.0836, 0.0837,0.0837, 0.0828, 0.0828, 0.0829,0.0828
SingleSource/Benchmarks/CoyoteBench/lpbench, 0.1494, 0.1492, 0.1488,0.1492, 0.1481, 0.1479, 0.1483,0.1481
SingleSource/Benchmarks/Dhrystone/dry, 0.0397, 0.0397, 0.0398,0.0397, 0.0397, 0.0398, 0.0398,0.0398
SingleSource/Benchmarks/Dhrystone/fldry, 0.0428, 0.0427, 0.0428,0.0428, 0.0430, 0.0429, 0.0429,0.0429
SingleSource/Benchmarks/Linpack/linpack-pc, 0.3047, 0.3042, 0.3043,0.3043, 0.3050, 0.3054, 0.3050,0.305
SingleSource/Benchmarks/McGill/chomp, 0.1844, 0.1847, 0.1847,0.1847, 0.1847, 0.1839, 0.1844,0.1844
SingleSource/Benchmarks/McGill/misr, 0.0520, 0.0519, 0.0520,0.052, 0.0520, 0.0519, 0.0520,0.052
SingleSource/Benchmarks/McGill/queens, 0.0436, 0.0434, 0.0434,0.0434, 0.0436, 0.0436, 0.0437,0.0436
SingleSource/Benchmarks/Misc-C++-EH/spirit, 3.5765, 3.6039, 3.5727,3.5765, 3.5340, 3.5773, 3.5306,3.534
SingleSource/Benchmarks/Misc-C++/Large/ray, 0.2247, 0.2260, 0.2279,0.226, 0.2093, 0.2241, 0.2279,0.2241
SingleSource/Benchmarks/Misc-C++/Large/sphereflake, 0.2193, 0.2189, 0.2191,0.2191, 0.2189, 0.2186, 0.2186,0.2186
SingleSource/Benchmarks/Misc-C++/bigfib, 0.4414, 0.4424, 0.4552,0.4424, 0.4537, 0.4355, 0.4595,0.4537
SingleSource/Benchmarks/Misc-C++/mandel-text, 0.0231, 0.0230, 0.0230,0.023, 0.0229, 0.0230, 0.0230,0.023
SingleSource/Benchmarks/Misc-C++/oopack_v1p8, 0.1268, 0.1295, 0.1259,0.1268, 0.1101, 0.1282, 0.1293,0.1282
SingleSource/Benchmarks/Misc-C++/stepanov_container, 0.7024, 0.6892, 0.6867,0.6892, 0.6709, 0.6476, 0.6463,0.6476
SingleSource/Benchmarks/Misc-C++/stepanov_v1p2, 0.1704, 0.1700, 0.1703,0.1703, 0.1701, 0.1700, 0.1703,0.1701
SingleSource/Benchmarks/Misc/ReedSolomon, 0.1860, 0.1862, 0.1860,0.186, 0.1871, 0.1869, 0.1871,0.1871
SingleSource/Benchmarks/Misc/dt, 0.0313, 0.0312, 0.0312,0.0312, 0.0312, 0.0311, 0.0312,0.0312
SingleSource/Benchmarks/Misc/evalloop, 0.0351, 0.0351, 0.0351,0.0351, 0.0349, 0.0349, 0.0349,0.0349
SingleSource/Benchmarks/Misc/fbench, 0.0525, 0.0525, 0.0524,0.0525, 0.0526, 0.0526, 0.0526,0.0526
SingleSource/Benchmarks/Misc/ffbench, 0.0659, 0.0657, 0.0658,0.0658, 0.0659, 0.0658, 0.0659,0.0659
SingleSource/Benchmarks/Misc/flops, 0.0757, 0.0756, 0.0757,0.0757, 0.0757, 0.0756, 0.0757,0.0757
SingleSource/Benchmarks/Misc/flops-1, 0.0261, 0.0260, 0.0261,0.0261, 0.0260, 0.0260, 0.0260,0.026
SingleSource/Benchmarks/Misc/flops-2, 0.0270, 0.0269, 0.0269,0.0269, 0.0270, 0.0269, 0.0269,0.0269
SingleSource/Benchmarks/Misc/flops-3, 0.0259, 0.0258, 0.0259,0.0259, 0.0258, 0.0258, 0.0259,0.0258
SingleSource/Benchmarks/Misc/flops-4, 0.0264, 0.0262, 0.0264,0.0264, 0.0263, 0.0263, 0.0263,0.0263
SingleSource/Benchmarks/Misc/flops-5, 0.0271, 0.0269, 0.0270,0.027, 0.0269, 0.0270, 0.0270,0.027
SingleSource/Benchmarks/Misc/flops-6, 0.0270, 0.0269, 0.0269,0.0269, 0.0269, 0.0269, 0.0269,0.0269
SingleSource/Benchmarks/Misc/flops-7, 0.0258, 0.0257, 0.0258,0.0258, 0.0257, 0.0257, 0.0258,0.0257
SingleSource/Benchmarks/Misc/flops-8, 0.0271, 0.0270, 0.0270,0.027, 0.0269, 0.0270, 0.0269,0.0269
SingleSource/Benchmarks/Misc/fp-convert, 0.0290, 0.0290, 0.0289,0.029, 0.0290, 0.0290, 0.0290,0.029
SingleSource/Benchmarks/Misc/himenobmtxpa, 0.1703, 0.1699, 0.1699,0.1699, 0.1747, 0.1744, 0.1750,0.1747
SingleSource/Benchmarks/Misc/lowercase, 0.0242, 0.0241, 0.0241,0.0241, 0.0242, 0.0242, 0.0242,0.0242
SingleSource/Benchmarks/Misc/mandel, 0.0431, 0.0429, 0.0642,0.0431, 0.0561, 0.0427, 0.0567,0.0561
SingleSource/Benchmarks/Misc/mandel-2, 0.0553, 0.0527, 0.0501,0.0527, 0.0312, 0.0309, 0.0310,0.031
SingleSource/Benchmarks/Misc/matmul_f64_4x4, 0.0272, 0.0271, 0.0272,0.0272, 0.0272, 0.0272, 0.0273,0.0272
SingleSource/Benchmarks/Misc/oourafft, 0.2198, 0.2086, 0.2090,0.209, 0.2088, 0.2086, 0.2085,0.2086
SingleSource/Benchmarks/Misc/perlin, 0.0439, 0.0439, 0.0439,0.0439, 0.0439, 0.0439, 0.0440,0.0439
SingleSource/Benchmarks/Misc/pi, 0.0199, 0.0199, 0.0199,0.0199, 0.0200, 0.0200, 0.0200,0.02
SingleSource/Benchmarks/Misc/revertBits, 0.0244, 0.0244, 0.0243,0.0244, 0.0244, 0.0245, 0.0244,0.0244
SingleSource/Benchmarks/Misc/richards_benchmark, 0.0623, 0.0621, 0.0621,0.0621, 0.0621, 0.0621, 0.0620,0.0621
SingleSource/Benchmarks/Misc/salsa20, 0.0529, 0.0529, 0.0529,0.0529, 0.0531, 0.0531, 0.0530,0.0531
SingleSource/Benchmarks/Misc/whetstone, 0.0660, 0.0660, 0.0658,0.066, 0.0658, 0.0656, 0.0659,0.0658
SingleSource/Benchmarks/Polybench/datamining/correlation/correlation, 0.0748, 0.0748, 0.0749,0.0748, 0.0751, 0.0748, 0.0750,0.075
SingleSource/Benchmarks/Polybench/datamining/covariance/covariance, 0.0825, 0.0824, 0.0824,0.0824, 0.0825, 0.0822, 0.0823,0.0823
SingleSource/Benchmarks/Polybench/linear-algebra/kernels/atax/atax, 0.0788, 0.0786, 0.0786,0.0786, 0.0788, 0.0786, 0.0787,0.0787
SingleSource/Benchmarks/Polybench/linear-algebra/kernels/bicg/bicg, 0.0774, 0.0773, 0.0772,0.0773, 0.0773, 0.0772, 0.0773,0.0773
SingleSource/Benchmarks/Polybench/linear-algebra/kernels/cholesky/cholesky, 0.0912, 0.0910, 0.0908,0.091, 0.0910, 0.0907, 0.0907,0.0907
SingleSource/Benchmarks/Polybench/linear-algebra/kernels/doitgen/doitgen, 0.0958, 0.0958, 0.0959,0.0958, 0.0959, 0.0959, 0.0959,0.0959
SingleSource/Benchmarks/Polybench/linear-algebra/kernels/gemver/gemver, 0.0894, 0.0895, 0.0893,0.0894, 0.0894, 0.0891, 0.0892,0.0892
SingleSource/Benchmarks/Polybench/linear-algebra/kernels/gesummv/gesummv, 0.0659, 0.0659, 0.0660,0.0659, 0.0657, 0.0655, 0.0657,0.0657
SingleSource/Benchmarks/Polybench/linear-algebra/kernels/mvt/mvt, 0.0800, 0.0799, 0.0800,0.08, 0.0796, 0.0796, 0.0794,0.0796
SingleSource/Benchmarks/Polybench/linear-algebra/kernels/symm/symm, 0.0756, 0.0755, 0.0757,0.0756, 0.0754, 0.0755, 0.0755,0.0755
SingleSource/Benchmarks/Polybench/linear-algebra/kernels/syr2k/syr2k, 0.0768, 0.0768, 0.0769,0.0768, 0.0768, 0.0766, 0.0765,0.0766
SingleSource/Benchmarks/Polybench/linear-algebra/kernels/syrk/syrk, 0.0753, 0.0752, 0.0751,0.0752, 0.0750, 0.0749, 0.0750,0.075
SingleSource/Benchmarks/Polybench/linear-algebra/kernels/trisolv/trisolv, 0.0621, 0.0619, 0.0620,0.062, 0.0621, 0.0620, 0.0621,0.0621
SingleSource/Benchmarks/Polybench/linear-algebra/kernels/trmm/trmm, 0.0710, 0.0710, 0.0710,0.071, 0.0712, 0.0711, 0.0712,0.0712
SingleSource/Benchmarks/Polybench/linear-algebra/solvers/durbin/durbin, 0.0869, 0.0867, 0.0868,0.0868, 0.0866, 0.0865, 0.0865,0.0865
SingleSource/Benchmarks/Polybench/linear-algebra/solvers/dynprog/dynprog, 0.0717, 0.0718, 0.0719,0.0718, 0.0716, 0.0717, 0.0715,0.0716
SingleSource/Benchmarks/Polybench/linear-algebra/solvers/gramschmidt/gramschmidt, 0.1007, 0.1008, 0.1006,0.1007, 0.1010, 0.1008, 0.1008,0.1008
SingleSource/Benchmarks/Polybench/linear-algebra/solvers/lu/lu, 0.0884, 0.0881, 0.0880,0.0881, 0.0885, 0.0882, 0.0883,0.0883
SingleSource/Benchmarks/Polybench/medley/floyd-warshall/floyd-warshall, 0.0741, 0.0741, 0.0857,0.0741, 0.0843, 0.0743, 0.0896,0.0843
SingleSource/Benchmarks/Polybench/medley/reg_detect/reg_detect, 0.4178, 0.4181, 0.4177,0.4178, 0.4161, 0.4159, 0.4162,0.4161
SingleSource/Benchmarks/Polybench/stencils/adi/adi, 0.0889, 0.0888, 0.0886,0.0888, 0.0885, 0.0882, 0.0882,0.0882
SingleSource/Benchmarks/Polybench/stencils/fdtd-2d/fdtd-2d, 0.1368, 0.1369, 0.1368,0.1368, 0.1368, 0.1366, 0.1369,0.1368
SingleSource/Benchmarks/Polybench/stencils/fdtd-apml/fdtd-apml, 0.1299, 0.1298, 0.1298,0.1298, 0.1299, 0.1296, 0.1298,0.1298
SingleSource/Benchmarks/Polybench/stencils/jacobi-1d-imper/jacobi-1d-imper, 0.0824, 0.0825, 0.0825,0.0825, 0.0827, 0.0826, 0.0825,0.0826
SingleSource/Benchmarks/Polybench/stencils/jacobi-2d-imper/jacobi-2d-imper, 0.1113, 0.1111, 0.1110,0.1111, 0.1114, 0.1111, 0.1111,0.1111
SingleSource/Benchmarks/Polybench/stencils/seidel-2d/seidel-2d, 0.0686, 0.0684, 0.0684,0.0684, 0.0686, 0.0688, 0.0687,0.0687
SingleSource/Benchmarks/Shootout-C++/EH/except, 0.1293, 0.1294, 0.1296,0.1294, 0.1288, 0.1290, 0.1290,0.129
SingleSource/Benchmarks/Shootout-C++/ackermann, 0.1161, 0.1165, 0.1161,0.1161, 0.1157, 0.1161, 0.1160,0.116
SingleSource/Benchmarks/Shootout-C++/ary, 0.1540, 0.1546, 0.1544,0.1544, 0.1531, 0.1530, 0.1535,0.1531
SingleSource/Benchmarks/Shootout-C++/ary2, 0.1558, 0.1562, 0.1557,0.1558, 0.1545, 0.1549, 0.1547,0.1547
SingleSource/Benchmarks/Shootout-C++/ary3, 0.1576, 0.1582, 0.1576,0.1576, 0.1575, 0.1576, 0.1569,0.1575
SingleSource/Benchmarks/Shootout-C++/fibo, 0.1146, 0.1146, 0.1142,0.1146, 0.1139, 0.1144, 0.1138,0.1139
SingleSource/Benchmarks/Shootout-C++/hash, 0.2694, 0.2697, 0.2686,0.2694, 0.2661, 0.2652, 0.2660,0.266
SingleSource/Benchmarks/Shootout-C++/hash2, 0.3288, 0.3301, 0.3370,0.3301, 0.3248, 0.3090, 0.3164,0.3164
SingleSource/Benchmarks/Shootout-C++/heapsort, 0.1311, 0.1307, 0.1307,0.1307, 0.1304, 0.1299, 0.1303,0.1303
SingleSource/Benchmarks/Shootout-C++/lists, 0.1610, 0.1609, 0.1604,0.1609, 0.1593, 0.1590, 0.1595,0.1593
SingleSource/Benchmarks/Shootout-C++/lists1, 0.2086, 0.2207, 0.2117,0.2117, 0.2035, 0.2150, 0.2002,0.2035
SingleSource/Benchmarks/Shootout-C++/matrix, 0.1832, 0.1827, 0.1827,0.1827, 0.1827, 0.1826, 0.1828,0.1827
SingleSource/Benchmarks/Shootout-C++/methcall, 0.1245, 0.1246, 0.1245,0.1245, 0.1230, 0.1231, 0.1233,0.1231
SingleSource/Benchmarks/Shootout-C++/moments, 0.2441, 0.2436, 0.2442,0.2441, 0.2369, 0.2368, 0.2367,0.2368
SingleSource/Benchmarks/Shootout-C++/nestedloop, 0.1218, 0.1245, 0.1203,0.1218, 0.1202, 0.1240, 0.1167,0.1202
SingleSource/Benchmarks/Shootout-C++/objinst, 0.1530, 0.1574, 0.1535,0.1535, 0.1496, 0.1569, 0.1484,0.1496
SingleSource/Benchmarks/Shootout-C++/random, 0.1243, 0.1242, 0.1241,0.1242, 0.1240, 0.1239, 0.1237,0.1239
SingleSource/Benchmarks/Shootout-C++/sieve, 0.1840, 0.1839, 0.1843,0.184, 0.1823, 0.1824, 0.1827,0.1824
SingleSource/Benchmarks/Shootout-C++/strcat, 0.1249, 0.1253, 0.1247,0.1249, 0.1249, 0.1246, 0.1245,0.1246
SingleSource/Benchmarks/Shootout/ackermann, 0.0223, 0.0222, 0.0221,0.0222, 0.0223, 0.0223, 0.0224,0.0223
SingleSource/Benchmarks/Shootout/ary3, 0.0333, 0.0332, 0.0333,0.0333, 0.0334, 0.0334, 0.0335,0.0334
SingleSource/Benchmarks/Shootout/fib2, 0.0187, 0.0185, 0.0186,0.0186, 0.0186, 0.0187, 0.0187,0.0187
SingleSource/Benchmarks/Shootout/hash, 0.0500, 0.0499, 0.0499,0.0499, 0.0501, 0.0499, 0.0500,0.05
SingleSource/Benchmarks/Shootout/heapsort, 0.0379, 0.0377, 0.0378,0.0378, 0.0378, 0.0377, 0.0378,0.0378
SingleSource/Benchmarks/Shootout/lists, 0.0657, 0.0655, 0.0656,0.0656, 0.0656, 0.0655, 0.0655,0.0655
SingleSource/Benchmarks/Shootout/matrix, 0.0810, 0.0809, 0.0810,0.081, 0.0813, 0.0813, 0.0813,0.0813
SingleSource/Benchmarks/Shootout/methcall, 0.0303, 0.0304, 0.0303,0.0303, 0.0305, 0.0306, 0.0305,0.0305
SingleSource/Benchmarks/Shootout/nestedloop, 0.0230, 0.0229, 0.0229,0.0229, 0.0231, 0.0231, 0.0231,0.0231
SingleSource/Benchmarks/Shootout/objinst, 0.0363, 0.0361, 0.0361,0.0361, 0.0363, 0.0362, 0.0363,0.0363
SingleSource/Benchmarks/Shootout/random, 0.0289, 0.0287, 0.0287,0.0287, 0.0288, 0.0288, 0.0289,0.0288
SingleSource/Benchmarks/Shootout/sieve, 0.0242, 0.0242, 0.0242,0.0242, 0.0243, 0.0243, 0.0243,0.0243
SingleSource/Benchmarks/Shootout/strcat, 0.0262, 0.0261, 0.0261,0.0261, 0.0262, 0.0261, 0.0261,0.0261
SingleSource/Benchmarks/SmallPT/smallpt, 0.0982, 0.0983, 0.0983,0.0983, 0.0977, 0.0975, 0.0978,0.0977
SingleSource/Benchmarks/Stanford/Bubblesort, 0.0327, 0.0326, 0.0326,0.0326, 0.0328, 0.0328, 0.0328,0.0328
SingleSource/Benchmarks/Stanford/FloatMM, 0.0518, 0.0518, 0.0518,0.0518, 0.0518, 0.0518, 0.0518,0.0518
SingleSource/Benchmarks/Stanford/Oscar, 0.0613, 0.0611, 0.0612,0.0612, 0.0660, 0.0661, 0.0662,0.0661
SingleSource/Benchmarks/Stanford/Perm, 0.0301, 0.0301, 0.0407,0.0301, 0.0316, 0.0301, 0.0311,0.0311
SingleSource/Benchmarks/Stanford/Puzzle, 0.1087, 0.1087, 0.1086,0.1087, 0.1090, 0.1090, 0.1090,0.109
SingleSource/Benchmarks/Stanford/Queens, 0.0434, 0.0433, 0.0434,0.0434, 0.0435, 0.0434, 0.0434,0.0434
SingleSource/Benchmarks/Stanford/Quicksort, 0.0361, 0.0361, 0.0442,0.0361, 0.0375, 0.0362, 0.0387,0.0375
SingleSource/Benchmarks/Stanford/RealMM, 0.0489, 0.0490, 0.0489,0.0489, 0.0489, 0.0488, 0.0490,0.0489
SingleSource/Benchmarks/Stanford/Towers, 0.0468, 0.0468, 0.0547,0.0468, 0.0569, 0.0468, 0.0573,0.0569
SingleSource/Benchmarks/Stanford/Treesort, 0.0372, 0.0372, 0.0372,0.0372, 0.0372, 0.0372, 0.0373,0.0372
SingleSource/Regression/C/2004-08-12-InlinerAndAllocas, 0.0185, 0.0184, 0.0183,0.0184, 0.0184, 0.0184, 0.0184,0.0184
SingleSource/Regression/C/uint64_to_float, 0.0692, 0.0690, 0.0783,0.0692, 0.0721, 0.0831, 0.0798,0.0798
Total elapsed time,-,-,-,362.8894000000005,-,-,-,361.6580999999998
Total failure,-,-,-,0,-,-,-,0
