Benchmarks,/mnt/freezedisk/llvm-intptr-base-5.0-release/bin/clang,/mnt/freezedisk/llvm-intptr-base-5.0-release/bin/clang,/mnt/freezedisk/llvm-intptr-base-5.0-release/bin/clang,median,/mnt/freezedisk/llvm-intptr-nocapture-opt-5.0-release/bin/clang,/mnt/freezedisk/llvm-intptr-nocapture-opt-5.0-release/bin/clang,/mnt/freezedisk/llvm-intptr-nocapture-opt-5.0-release/bin/clang,median
MultiSource/Applications/ALAC/decode/alacconvert-decode, 0.8694, 0.8700, 0.8693,0.8694, 0.8730, 0.8736, 0.8729,0.873
MultiSource/Applications/ALAC/encode/alacconvert-encode, 0.8692, 0.8701, 0.8690,0.8692, 0.8729, 0.8737, 0.8728,0.8729
MultiSource/Applications/ClamAV/clamscan,13.2865,13.2963,13.2992,13.2963,13.3238,13.3374,13.3280,13.328
MultiSource/Applications/JM/ldecod/ldecod, 5.8177, 5.8360, 5.8115,5.8177, 5.8291, 5.8409, 5.8494,5.8409
MultiSource/Applications/JM/lencod/lencod,13.4737,13.4890,13.4571,13.4737,13.5839,13.5981,13.5811,13.5839
MultiSource/Applications/SIBsim4/SIBsim4, 1.0623, 1.0634, 1.0693,1.0634, 1.0648, 1.0554, 1.0671,1.0648
MultiSource/Applications/SPASS/SPASS,11.1781,11.1941,11.1776,11.1781,11.1923,11.2096,11.1978,11.1978
MultiSource/Applications/aha/aha, 0.0910, 0.0912, 0.0910,0.091, 0.0915, 0.0914, 0.0915,0.0915
MultiSource/Applications/d/make_dparser, 2.4186, 2.4579, 2.3905,2.4186, 2.4257, 2.4296, 2.4367,2.4296
MultiSource/Applications/hbd/hbd, 1.1092, 1.1092, 1.1095,1.1092, 1.1125, 1.1135, 1.1134,1.1134
MultiSource/Applications/hexxagon/hexxagon, 0.6090, 0.6094, 0.6092,0.6092, 0.6125, 0.6137, 0.6133,0.6133
MultiSource/Applications/kimwitu++/kc,10.0798,10.1225,10.0980,10.098,10.0980,10.0974,10.0907,10.0974
MultiSource/Applications/lambda-0.1.3/lambda, 0.5077, 0.5082, 0.5080,0.508, 0.5096, 0.5096, 0.5096,0.5096
MultiSource/Applications/lua/lua, 2.9670, 2.9700, 2.9682,2.9682, 2.9844, 2.9876, 2.9844,2.9844
MultiSource/Applications/minisat/minisat, 0.5702, 0.5643, 0.5675,0.5675, 0.5759, 0.5790, 0.5822,0.579
MultiSource/Applications/obsequi/Obsequi, 0.9100, 0.9021, 0.9033,0.9033, 0.9050, 0.9158, 0.9096,0.9096
MultiSource/Applications/oggenc/oggenc, 4.3714, 4.3788, 4.3688,4.3714, 4.3788, 4.3825, 4.3771,4.3788
MultiSource/Applications/sgefa/sgefa, 0.3589, 0.3597, 0.3584,0.3589, 0.3601, 0.3605, 0.3600,0.3601
MultiSource/Applications/siod/siod, 1.8275, 1.8297, 1.8324,1.8297, 1.8199, 1.8226, 1.8257,1.8226
MultiSource/Applications/spiff/spiff, 0.6928, 0.6932, 0.6932,0.6932, 0.7008, 0.7005, 0.7006,0.7006
MultiSource/Applications/sqlite3/sqlite3,13.3405,13.2667,13.3368,13.3368,13.3769,13.3495,13.3773,13.3769
MultiSource/Applications/viterbi/viterbi, 0.1564, 0.1562, 0.1563,0.1563, 0.1574, 0.1572, 0.1573,0.1573
MultiSource/Benchmarks/7zip/7zip-benchmark,31.1266,31.1495,31.1207,31.1266,31.3162,31.3614,31.3338,31.3338
MultiSource/Benchmarks/ASCI_Purple/SMG2000/smg2000, 5.1736, 5.1781, 5.1694,5.1736, 5.2224, 5.2300, 5.2266,5.2266
MultiSource/Benchmarks/ASC_Sequoia/AMGmk/AMGmk, 0.5407, 0.5408, 0.5396,0.5407, 0.5437, 0.5448, 0.5434,0.5437
MultiSource/Benchmarks/ASC_Sequoia/CrystalMk/CrystalMk, 0.2070, 0.2066, 0.2066,0.2066, 0.2085, 0.2087, 0.2084,0.2085
MultiSource/Benchmarks/ASC_Sequoia/IRSmk/IRSmk, 0.0959, 0.0960, 0.0958,0.0959, 0.0970, 0.0970, 0.0970,0.097
MultiSource/Benchmarks/BitBench/drop3/drop3, 0.0401, 0.0402, 0.0401,0.0401, 0.0402, 0.0402, 0.0402,0.0402
MultiSource/Benchmarks/BitBench/five11/five11, 0.0499, 0.0500, 0.0499,0.0499, 0.0502, 0.0503, 0.0503,0.0503
MultiSource/Benchmarks/BitBench/uudecode/uudecode, 0.0407, 0.0407, 0.0407,0.0407, 0.0410, 0.0410, 0.0409,0.041
MultiSource/Benchmarks/BitBench/uuencode/uuencode, 0.0400, 0.0400, 0.0400,0.04, 0.0403, 0.0403, 0.0402,0.0403
MultiSource/Benchmarks/Bullet/bullet,21.1125,21.1155,21.1081,21.1125,21.2476,21.2660,21.2517,21.2517
MultiSource/Benchmarks/DOE-ProxyApps-C++/CLAMR/CLAMR,16.4089,16.4459,16.4073,16.4089,16.3113,16.3124,16.2995,16.3113
MultiSource/Benchmarks/DOE-ProxyApps-C++/HPCCG/HPCCG, 1.2980, 1.2990, 1.2985,1.2985, 1.3098, 1.3142, 1.3125,1.3125
MultiSource/Benchmarks/DOE-ProxyApps-C++/PENNANT/PENNANT, 3.7238, 3.7274, 3.7236,3.7238, 3.7349, 3.7400, 3.7351,3.7351
MultiSource/Benchmarks/DOE-ProxyApps-C++/miniFE/miniFE, 2.3499, 2.3523, 2.3498,2.3499, 2.3482, 2.3489, 2.3466,2.3482
MultiSource/Benchmarks/DOE-ProxyApps-C/Pathfinder/PathFinder, 0.7454, 0.7455, 0.7455,0.7455, 0.7489, 0.7490, 0.7489,0.7489
MultiSource/Benchmarks/DOE-ProxyApps-C/RSBench/rsbench, 0.3625, 0.3628, 0.3624,0.3625, 0.3715, 0.3720, 0.3717,0.3717
MultiSource/Benchmarks/DOE-ProxyApps-C/SimpleMOC/SimpleMOC, 0.7931, 0.7935, 0.7923,0.7931, 0.8023, 0.8036, 0.8022,0.8023
MultiSource/Benchmarks/DOE-ProxyApps-C/XSBench/XSBench, 0.3228, 0.3228, 0.3225,0.3228, 0.3285, 0.3292, 0.3287,0.3287
MultiSource/Benchmarks/DOE-ProxyApps-C/miniAMR/miniAMR, 1.2348, 1.2356, 1.2333,1.2348, 1.2468, 1.2474, 1.2465,1.2468
MultiSource/Benchmarks/DOE-ProxyApps-C/miniGMG/miniGMG, 0.8903, 0.8903, 0.8889,0.8903, 0.8980, 0.8991, 0.8977,0.898
MultiSource/Benchmarks/Fhourstones-3.1/fhourstones3.1, 0.1076, 0.1078, 0.1076,0.1076, 0.1080, 0.1083, 0.1079,0.108
MultiSource/Benchmarks/Fhourstones/fhourstones, 0.1504, 0.1505, 0.1504,0.1504, 0.1515, 0.1514, 0.1515,0.1515
MultiSource/Benchmarks/FreeBench/analyzer/analyzer, 0.2207, 0.2208, 0.2207,0.2207, 0.2239, 0.2240, 0.2239,0.2239
MultiSource/Benchmarks/FreeBench/distray/distray, 0.0861, 0.0860, 0.0860,0.086, 0.0863, 0.0864, 0.0862,0.0863
MultiSource/Benchmarks/FreeBench/fourinarow/fourinarow, 0.3079, 0.3079, 0.3076,0.3079, 0.3080, 0.3079, 0.3077,0.3079
MultiSource/Benchmarks/FreeBench/mason/mason, 0.0463, 0.0464, 0.0463,0.0463, 0.0465, 0.0465, 0.0465,0.0465
MultiSource/Benchmarks/FreeBench/neural/neural, 0.1616, 0.1618, 0.1615,0.1616, 0.1623, 0.1623, 0.1622,0.1623
MultiSource/Benchmarks/FreeBench/pcompress2/pcompress2, 0.2283, 0.2286, 0.2285,0.2285, 0.2299, 0.2296, 0.2298,0.2298
MultiSource/Benchmarks/FreeBench/pifft/pifft, 0.8416, 0.8420, 0.8398,0.8416, 0.8451, 0.8455, 0.8435,0.8451
MultiSource/Benchmarks/MallocBench/cfrac/cfrac, 0.8156, 0.8159, 0.8161,0.8159, 0.8201, 0.8205, 0.8205,0.8205
MultiSource/Benchmarks/MallocBench/espresso/espresso, 4.1907, 4.1945, 4.1869,4.1907, 4.2207, 4.2255, 4.2208,4.2208
MultiSource/Benchmarks/MallocBench/gs/gs, 3.4501, 3.4530, 3.4521,3.4521, 3.4667, 3.4683, 3.4661,3.4667
MultiSource/Benchmarks/McCat/01-qbsort/qbsort, 0.0906, 0.0906, 0.0905,0.0906, 0.0914, 0.0914, 0.0912,0.0914
MultiSource/Benchmarks/McCat/03-testtrie/testtrie, 0.0853, 0.0855, 0.0853,0.0853, 0.0862, 0.0861, 0.0860,0.0861
MultiSource/Benchmarks/McCat/04-bisect/bisect, 0.1197, 0.1199, 0.1198,0.1198, 0.1206, 0.1207, 0.1208,0.1207
MultiSource/Benchmarks/McCat/05-eks/eks, 0.4792, 0.4790, 0.4787,0.479, 0.4829, 0.4833, 0.4827,0.4829
MultiSource/Benchmarks/McCat/08-main/main, 0.2204, 0.2201, 0.2201,0.2201, 0.2254, 0.2256, 0.2255,0.2255
MultiSource/Benchmarks/McCat/09-vor/vor, 0.2540, 0.2544, 0.2546,0.2544, 0.2542, 0.2541, 0.2542,0.2542
MultiSource/Benchmarks/McCat/12-IOtest/iotest, 0.0887, 0.0887, 0.0892,0.0887, 0.0900, 0.0898, 0.0899,0.0899
MultiSource/Benchmarks/McCat/17-bintr/bintr, 0.0655, 0.0654, 0.0656,0.0655, 0.0659, 0.0659, 0.0660,0.0659
MultiSource/Benchmarks/McCat/18-imp/imp, 0.3030, 0.3031, 0.3031,0.3031, 0.3052, 0.3054, 0.3050,0.3052
MultiSource/Benchmarks/MiBench/automotive-basicmath/automotive-basicmath, 0.1349, 0.1352, 0.1349,0.1349, 0.1362, 0.1364, 0.1361,0.1362
MultiSource/Benchmarks/MiBench/automotive-bitcount/automotive-bitcount, 0.2409, 0.2411, 0.2410,0.241, 0.2434, 0.2431, 0.2433,0.2433
MultiSource/Benchmarks/MiBench/automotive-susan/automotive-susan, 0.5729, 0.5753, 0.5809,0.5753, 0.5812, 0.5732, 0.5792,0.5792
MultiSource/Benchmarks/MiBench/consumer-jpeg/consumer-jpeg, 4.0866, 4.0892, 4.0839,4.0866, 4.1025, 4.1052, 4.1008,4.1025
MultiSource/Benchmarks/MiBench/consumer-lame/consumer-lame, 3.6175, 3.6197, 3.6129,3.6175, 3.6647, 3.6671, 3.6619,3.6647
MultiSource/Benchmarks/MiBench/consumer-typeset/consumer-typeset, 8.9720, 8.9778, 8.9740,8.974, 8.9669, 8.9754, 8.9737,8.9737
MultiSource/Benchmarks/MiBench/network-dijkstra/network-dijkstra, 0.0393, 0.0392, 0.0392,0.0392, 0.0395, 0.0395, 0.0395,0.0395
MultiSource/Benchmarks/MiBench/network-patricia/network-patricia, 0.0754, 0.0755, 0.0755,0.0755, 0.0760, 0.0760, 0.0761,0.076
MultiSource/Benchmarks/MiBench/security-rijndael/security-rijndael, 0.3631, 0.3634, 0.3636,0.3634, 0.3638, 0.3632, 0.3634,0.3634
MultiSource/Benchmarks/MiBench/security-sha/security-sha, 0.1085, 0.1085, 0.1085,0.1085, 0.1094, 0.1095, 0.1093,0.1094
MultiSource/Benchmarks/MiBench/telecomm-CRC32/telecomm-CRC32, 0.0329, 0.0331, 0.0329,0.0329, 0.0332, 0.0333, 0.0333,0.0333
MultiSource/Benchmarks/MiBench/telecomm-FFT/telecomm-fft, 0.1300, 0.1299, 0.1298,0.1299, 0.1312, 0.1313, 0.1312,0.1312
MultiSource/Benchmarks/MiBench/telecomm-adpcm/telecomm-adpcm, 0.0526, 0.0526, 0.0525,0.0526, 0.0530, 0.0530, 0.0530,0.053
MultiSource/Benchmarks/MiBench/telecomm-gsm/telecomm-gsm, 0.9594, 0.9605, 0.9603,0.9603, 0.9677, 0.9686, 0.9681,0.9681
MultiSource/Benchmarks/NPB-serial/is/is, 0.0597, 0.0599, 0.0597,0.0597, 0.0601, 0.0601, 0.0601,0.0601
MultiSource/Benchmarks/Olden/bh/bh, 0.2366, 0.2366, 0.2365,0.2366, 0.2381, 0.2389, 0.2385,0.2385
MultiSource/Benchmarks/Olden/bisort/bisort, 0.0599, 0.0600, 0.0601,0.06, 0.0604, 0.0604, 0.0604,0.0604
MultiSource/Benchmarks/Olden/em3d/em3d, 0.1651, 0.1649, 0.1648,0.1649, 0.1657, 0.1659, 0.1657,0.1657
MultiSource/Benchmarks/Olden/health/health, 0.1280, 0.1282, 0.1283,0.1282, 0.1293, 0.1296, 0.1295,0.1295
MultiSource/Benchmarks/Olden/mst/mst, 0.1146, 0.1145, 0.1146,0.1146, 0.1187, 0.1188, 0.1188,0.1188
MultiSource/Benchmarks/Olden/perimeter/perimeter, 0.0736, 0.0735, 0.0737,0.0736, 0.0742, 0.0742, 0.0742,0.0742
MultiSource/Benchmarks/Olden/power/power, 0.1186, 0.1185, 0.1187,0.1186, 0.1196, 0.1199, 0.1198,0.1198
MultiSource/Benchmarks/Olden/treeadd/treeadd, 0.0534, 0.0533, 0.0533,0.0533, 0.0540, 0.0539, 0.0539,0.0539
MultiSource/Benchmarks/Olden/tsp/tsp, 0.1200, 0.1202, 0.1203,0.1202, 0.1206, 0.1203, 0.1205,0.1205
MultiSource/Benchmarks/Olden/voronoi/voronoi, 0.2229, 0.2232, 0.2232,0.2232, 0.2327, 0.2330, 0.2328,0.2328
MultiSource/Benchmarks/PAQ8p/paq8p, 1.7285, 1.7320, 1.7278,1.7285, 1.7358, 1.7373, 1.7346,1.7358
MultiSource/Benchmarks/Prolangs-C++/city/city, 0.8302, 0.8313, 0.8305,0.8305, 0.8347, 0.8369, 0.8360,0.836
MultiSource/Benchmarks/Prolangs-C++/employ/employ, 0.1845, 0.1849, 0.1848,0.1848, 0.1868, 0.1871, 0.1871,0.1871
MultiSource/Benchmarks/Prolangs-C++/life/life, 0.0554, 0.0554, 0.0553,0.0554, 0.0556, 0.0556, 0.0556,0.0556
MultiSource/Benchmarks/Prolangs-C++/ocean/ocean, 0.1006, 0.1007, 0.1006,0.1006, 0.1010, 0.1009, 0.1009,0.1009
MultiSource/Benchmarks/Prolangs-C++/primes/primes, 0.0238, 0.0238, 0.0238,0.0238, 0.0239, 0.0239, 0.0238,0.0239
MultiSource/Benchmarks/Prolangs-C++/simul/simul, 0.0492, 0.0495, 0.0494,0.0494, 0.0496, 0.0497, 0.0496,0.0496
MultiSource/Benchmarks/Prolangs-C/agrep/agrep, 1.2218, 1.2230, 1.2215,1.2218, 1.2273, 1.2280, 1.2267,1.2273
MultiSource/Benchmarks/Prolangs-C/bison/mybison, 1.4809, 1.4817, 1.4796,1.4809, 1.4873, 1.4876, 1.4862,1.4873
MultiSource/Benchmarks/Prolangs-C/gnugo/gnugo, 0.6857, 0.6858, 0.6864,0.6858, 0.6920, 0.6918, 0.6918,0.6918
MultiSource/Benchmarks/Ptrdist/anagram/anagram, 0.0917, 0.0918, 0.0918,0.0918, 0.0922, 0.0923, 0.0921,0.0922
MultiSource/Benchmarks/Ptrdist/bc/bc, 0.9267, 0.9279, 0.9264,0.9267, 0.9261, 0.9272, 0.9261,0.9261
MultiSource/Benchmarks/Ptrdist/ft/ft, 0.1941, 0.1941, 0.1940,0.1941, 0.1942, 0.1945, 0.1943,0.1943
MultiSource/Benchmarks/Ptrdist/ks/ks, 0.1332, 0.1336, 0.1332,0.1332, 0.1341, 0.1342, 0.1341,0.1341
MultiSource/Benchmarks/Ptrdist/yacr2/yacr2, 0.5568, 0.5576, 0.5568,0.5568, 0.5577, 0.5580, 0.5575,0.5577
MultiSource/Benchmarks/SciMark2-C/scimark2, 0.3460, 0.3460, 0.3454,0.346, 0.3489, 0.3489, 0.3487,0.3489
MultiSource/Benchmarks/TSVC/ControlFlow-dbl/ControlFlow-dbl, 1.9279, 1.9470, 1.9441,1.9441, 1.9578, 1.9597, 1.9574,1.9578
MultiSource/Benchmarks/TSVC/ControlFlow-flt/ControlFlow-flt, 1.6457, 1.6520, 1.6408,1.6457, 1.6457, 1.6475, 1.6466,1.6466
MultiSource/Benchmarks/TSVC/ControlLoops-dbl/ControlLoops-dbl, 1.8688, 1.8670, 1.8565,1.867, 1.8724, 1.8736, 1.8715,1.8724
MultiSource/Benchmarks/TSVC/ControlLoops-flt/ControlLoops-flt, 1.5650, 1.5642, 1.5604,1.5642, 1.5785, 1.5637, 1.5633,1.5637
MultiSource/Benchmarks/TSVC/CrossingThresholds-dbl/CrossingThresholds-dbl, 1.8159, 1.8148, 1.8112,1.8148, 1.8313, 1.8335, 1.8311,1.8313
MultiSource/Benchmarks/TSVC/CrossingThresholds-flt/CrossingThresholds-flt, 1.5136, 1.5141, 1.5108,1.5136, 1.5196, 1.5205, 1.5184,1.5196
MultiSource/Benchmarks/TSVC/Equivalencing-dbl/Equivalencing-dbl, 1.8302, 1.8285, 1.8255,1.8285, 1.8371, 1.8388, 1.8375,1.8375
MultiSource/Benchmarks/TSVC/Equivalencing-flt/Equivalencing-flt, 1.5266, 1.5216, 1.5180,1.5216, 1.5289, 1.5244, 1.5279,1.5279
MultiSource/Benchmarks/TSVC/Expansion-dbl/Expansion-dbl, 1.8660, 1.8610, 1.8572,1.861, 1.8732, 1.8739, 1.8712,1.8732
MultiSource/Benchmarks/TSVC/Expansion-flt/Expansion-flt, 1.5608, 1.5632, 1.5583,1.5608, 1.5560, 1.5576, 1.5552,1.556
MultiSource/Benchmarks/TSVC/GlobalDataFlow-dbl/GlobalDataFlow-dbl, 1.8540, 1.8552, 1.8316,1.854, 1.8585, 1.8596, 1.8581,1.8585
MultiSource/Benchmarks/TSVC/GlobalDataFlow-flt/GlobalDataFlow-flt, 1.5585, 1.5531, 1.5513,1.5531, 1.5539, 1.5528, 1.5504,1.5528
MultiSource/Benchmarks/TSVC/IndirectAddressing-dbl/IndirectAddressing-dbl, 1.8125, 1.8106, 1.8076,1.8106, 1.8227, 1.8253, 1.8242,1.8242
MultiSource/Benchmarks/TSVC/IndirectAddressing-flt/IndirectAddressing-flt, 1.5058, 1.4925, 1.5037,1.5037, 1.5092, 1.4943, 1.5088,1.5088
MultiSource/Benchmarks/TSVC/InductionVariable-dbl/InductionVariable-dbl, 1.8304, 1.8300, 1.8267,1.83, 1.8409, 1.8417, 1.8403,1.8409
MultiSource/Benchmarks/TSVC/InductionVariable-flt/InductionVariable-flt, 1.5276, 1.5280, 1.5373,1.528, 1.5311, 1.5328, 1.5294,1.5311
MultiSource/Benchmarks/TSVC/LinearDependence-dbl/LinearDependence-dbl, 1.8727, 1.8716, 1.8684,1.8716, 1.8842, 1.8828, 1.8828,1.8828
MultiSource/Benchmarks/TSVC/LinearDependence-flt/LinearDependence-flt, 1.5714, 1.5711, 1.5677,1.5711, 1.5713, 1.5753, 1.5696,1.5713
MultiSource/Benchmarks/TSVC/LoopRerolling-dbl/LoopRerolling-dbl, 1.7946, 1.7949, 1.7905,1.7946, 1.7985, 1.8011, 1.7973,1.7985
MultiSource/Benchmarks/TSVC/LoopRerolling-flt/LoopRerolling-flt, 1.4913, 1.4910, 1.4902,1.491, 1.4944, 1.4862, 1.4843,1.4862
MultiSource/Benchmarks/TSVC/LoopRestructuring-dbl/LoopRestructuring-dbl, 1.8314, 1.8298, 1.8261,1.8298, 1.8414, 1.8410, 1.8418,1.8414
MultiSource/Benchmarks/TSVC/LoopRestructuring-flt/LoopRestructuring-flt, 1.5291, 1.5293, 1.5241,1.5291, 1.5330, 1.5358, 1.5311,1.533
MultiSource/Benchmarks/TSVC/NodeSplitting-dbl/NodeSplitting-dbl, 1.8053, 1.8022, 1.7991,1.8022, 1.8181, 1.8187, 1.8172,1.8181
MultiSource/Benchmarks/TSVC/NodeSplitting-flt/NodeSplitting-flt, 1.5041, 1.5028, 1.5009,1.5028, 1.5030, 1.5034, 1.5020,1.503
MultiSource/Benchmarks/TSVC/Packing-dbl/Packing-dbl, 1.7808, 1.7807, 1.7774,1.7807, 1.7906, 1.7913, 1.7898,1.7906
MultiSource/Benchmarks/TSVC/Packing-flt/Packing-flt, 1.4790, 1.4868, 1.4832,1.4832, 1.4775, 1.4814, 1.4791,1.4791
MultiSource/Benchmarks/TSVC/Recurrences-dbl/Recurrences-dbl, 1.7797, 1.7794, 1.7758,1.7794, 1.7888, 1.7894, 1.7878,1.7888
MultiSource/Benchmarks/TSVC/Recurrences-flt/Recurrences-flt, 1.4766, 1.4763, 1.4740,1.4763, 1.4769, 1.4794, 1.4770,1.477
MultiSource/Benchmarks/TSVC/Reductions-dbl/Reductions-dbl, 1.8690, 1.8672, 1.8633,1.8672, 1.8803, 1.8862, 1.8796,1.8803
MultiSource/Benchmarks/TSVC/Reductions-flt/Reductions-flt, 1.5666, 1.5646, 1.5651,1.5651, 1.5789, 1.5684, 1.5666,1.5684
MultiSource/Benchmarks/TSVC/Searching-dbl/Searching-dbl, 1.7676, 1.7666, 1.7694,1.7676, 1.7798, 1.7857, 1.7800,1.78
MultiSource/Benchmarks/TSVC/Searching-flt/Searching-flt, 1.4725, 1.4686, 1.4643,1.4686, 1.4687, 1.4709, 1.4711,1.4709
MultiSource/Benchmarks/TSVC/StatementReordering-dbl/StatementReordering-dbl, 1.7797, 1.7796, 1.7756,1.7796, 1.7854, 1.7883, 1.7893,1.7883
MultiSource/Benchmarks/TSVC/StatementReordering-flt/StatementReordering-flt, 1.4756, 1.4753, 1.4746,1.4753, 1.4830, 1.4825, 1.4815,1.4825
MultiSource/Benchmarks/TSVC/Symbolics-dbl/Symbolics-dbl, 1.8141, 1.8150, 1.8091,1.8141, 1.8244, 1.8265, 1.8265,1.8265
MultiSource/Benchmarks/TSVC/Symbolics-flt/Symbolics-flt, 1.5111, 1.5111, 1.5140,1.5111, 1.5119, 1.5166, 1.5124,1.5124
MultiSource/Benchmarks/Trimaran/enc-3des/enc-3des, 0.2197, 0.2185, 0.2185,0.2185, 0.2199, 0.2194, 0.2192,0.2194
MultiSource/Benchmarks/Trimaran/enc-md5/enc-md5, 0.1362, 0.1365, 0.1362,0.1362, 0.1373, 0.1373, 0.1372,0.1373
MultiSource/Benchmarks/Trimaran/enc-pc1/enc-pc1, 0.0598, 0.0599, 0.0599,0.0599, 0.0601, 0.0602, 0.0602,0.0602
MultiSource/Benchmarks/Trimaran/enc-rc4/enc-rc4, 0.0464, 0.0464, 0.0464,0.0464, 0.0467, 0.0466, 0.0467,0.0467
MultiSource/Benchmarks/Trimaran/netbench-crc/netbench-crc, 0.0718, 0.0717, 0.0719,0.0718, 0.0725, 0.0725, 0.0724,0.0725
MultiSource/Benchmarks/Trimaran/netbench-url/netbench-url, 0.1908, 0.1910, 0.1910,0.191, 0.1920, 0.1922, 0.1918,0.192
MultiSource/Benchmarks/VersaBench/8b10b/8b10b, 0.0705, 0.0704, 0.0705,0.0705, 0.0710, 0.0710, 0.0710,0.071
MultiSource/Benchmarks/VersaBench/beamformer/beamformer, 0.2754, 0.2757, 0.2748,0.2754, 0.2772, 0.2774, 0.2770,0.2772
MultiSource/Benchmarks/VersaBench/bmm/bmm, 0.0474, 0.0473, 0.0473,0.0473, 0.0475, 0.0475, 0.0475,0.0475
MultiSource/Benchmarks/VersaBench/dbms/dbms, 0.9039, 0.9040, 0.9050,0.904, 0.9127, 0.9126, 0.9128,0.9127
MultiSource/Benchmarks/VersaBench/ecbdes/ecbdes, 0.1958, 0.1958, 0.1956,0.1958, 0.1973, 0.1973, 0.1971,0.1973
MultiSource/Benchmarks/llubenchmark/llu, 0.0440, 0.0440, 0.0440,0.044, 0.0441, 0.0441, 0.0441,0.0441
MultiSource/Benchmarks/mafft/pairlocalalign, 7.9662, 7.9707, 7.9531,7.9662, 7.9782, 7.9857, 7.9748,7.9782
MultiSource/Benchmarks/mediabench/adpcm/rawcaudio/rawcaudio, 0.0526, 0.0526, 0.0528,0.0526, 0.0532, 0.0532, 0.0534,0.0532
MultiSource/Benchmarks/mediabench/adpcm/rawdaudio/rawdaudio, 0.0526, 0.0526, 0.0525,0.0526, 0.0531, 0.0530, 0.0532,0.0531
MultiSource/Benchmarks/mediabench/g721/g721encode/encode, 0.1838, 0.1839, 0.1841,0.1839, 0.1856, 0.1852, 0.1852,0.1852
MultiSource/Benchmarks/mediabench/gsm/toast/toast, 0.9602, 0.9604, 0.9596,0.9602, 0.9679, 0.9686, 0.9684,0.9684
MultiSource/Benchmarks/mediabench/jpeg/jpeg-6a/cjpeg, 4.1256, 4.1294, 4.1233,4.1256, 4.1414, 4.1443, 4.1397,4.1414
MultiSource/Benchmarks/mediabench/mpeg2/mpeg2dec/mpeg2decode, 1.2207, 1.2224, 1.2199,1.2207, 1.2292, 1.2296, 1.2285,1.2292
MultiSource/Benchmarks/nbench/nbench, 1.0201, 1.0211, 1.0199,1.0201, 1.0276, 1.0283, 1.0268,1.0276
MultiSource/Benchmarks/sim/sim, 0.2589, 0.2594, 0.2589,0.2589, 0.2603, 0.2604, 0.2601,0.2603
MultiSource/Benchmarks/tramp3d-v4/tramp3d-v4,18.3453,18.3408,18.3390,18.3408,18.3165,18.3051,18.2728,18.3051
SingleSource/Benchmarks/Adobe-C++/functionobjects, 0.4180, 0.4200, 0.4181,0.4181, 0.4055, 0.4059, 0.4054,0.4055
SingleSource/Benchmarks/Adobe-C++/loop_unroll, 3.9309, 3.9321, 3.9221,3.9309, 3.9380, 3.9433, 3.9349,3.938
SingleSource/Benchmarks/Adobe-C++/simple_types_constant_folding, 2.2287, 2.2310, 2.2263,2.2287, 2.2318, 2.2362, 2.2322,2.2322
SingleSource/Benchmarks/Adobe-C++/simple_types_loop_invariant, 1.8034, 1.8057, 1.8023,1.8034, 1.8069, 1.8098, 1.8078,1.8078
SingleSource/Benchmarks/Adobe-C++/stepanov_abstraction, 0.5581, 0.5585, 0.5576,0.5581, 0.4983, 0.4988, 0.4980,0.4983
SingleSource/Benchmarks/Adobe-C++/stepanov_vector, 0.6803, 0.6865, 0.6831,0.6831, 0.7976, 0.7900, 0.7874,0.79
SingleSource/Benchmarks/BenchmarkGame/Large/fasta, 0.0482, 0.0493, 0.0509,0.0493, 0.0482, 0.0510, 0.0550,0.051
SingleSource/Benchmarks/BenchmarkGame/fannkuch, 0.0479, 0.0480, 0.0480,0.048, 0.0484, 0.0485, 0.0484,0.0484
SingleSource/Benchmarks/BenchmarkGame/n-body, 0.0656, 0.0657, 0.0655,0.0656, 0.0662, 0.0662, 0.0662,0.0662
SingleSource/Benchmarks/BenchmarkGame/nsieve-bits, 0.0303, 0.0302, 0.0302,0.0302, 0.0305, 0.0304, 0.0304,0.0304
SingleSource/Benchmarks/BenchmarkGame/partialsums, 0.0282, 0.0281, 0.0282,0.0282, 0.0285, 0.0286, 0.0285,0.0285
SingleSource/Benchmarks/BenchmarkGame/puzzle, 0.0518, 0.0518, 0.0516,0.0518, 0.0520, 0.0520, 0.0520,0.052
SingleSource/Benchmarks/BenchmarkGame/recursive, 0.0250, 0.0251, 0.0250,0.025, 0.0253, 0.0253, 0.0253,0.0253
SingleSource/Benchmarks/BenchmarkGame/spectral-norm, 0.0507, 0.0508, 0.0506,0.0507, 0.0511, 0.0512, 0.0511,0.0511
SingleSource/Benchmarks/CoyoteBench/almabench, 0.0617, 0.0615, 0.0616,0.0616, 0.0640, 0.0641, 0.0641,0.0641
SingleSource/Benchmarks/CoyoteBench/fftbench, 0.5675, 0.5591, 0.5658,0.5658, 0.5599, 0.5650, 0.5592,0.5599
SingleSource/Benchmarks/CoyoteBench/huffbench, 0.0787, 0.0788, 0.0785,0.0787, 0.0782, 0.0781, 0.0780,0.0781
SingleSource/Benchmarks/CoyoteBench/lpbench, 0.1385, 0.1387, 0.1384,0.1385, 0.1381, 0.1383, 0.1381,0.1381
SingleSource/Benchmarks/Dhrystone/dry, 0.0422, 0.0577, 0.0457,0.0457, 0.0425, 0.0476, 0.0416,0.0425
SingleSource/Benchmarks/Dhrystone/fldry, 0.0412, 0.0412, 0.0412,0.0412, 0.0414, 0.0415, 0.0415,0.0415
SingleSource/Benchmarks/Linpack/linpack-pc, 0.2813, 0.2833, 0.2804,0.2813, 0.2816, 0.2819, 0.2815,0.2816
SingleSource/Benchmarks/McGill/chomp, 0.1711, 0.1713, 0.1709,0.1711, 0.1716, 0.1717, 0.1714,0.1716
SingleSource/Benchmarks/McGill/misr, 0.0496, 0.0496, 0.0497,0.0496, 0.0499, 0.0499, 0.0498,0.0499
SingleSource/Benchmarks/McGill/queens, 0.0419, 0.0419, 0.0419,0.0419, 0.0421, 0.0421, 0.0422,0.0421
SingleSource/Benchmarks/Misc-C++-EH/spirit, 3.3841, 3.3762, 3.3801,3.3801, 3.3815, 3.3906, 3.3779,3.3815
SingleSource/Benchmarks/Misc-C++/Large/ray, 0.2073, 0.2126, 0.2178,0.2126, 0.2143, 0.2064, 0.2196,0.2143
SingleSource/Benchmarks/Misc-C++/Large/sphereflake, 0.2018, 0.2020, 0.2018,0.2018, 0.2033, 0.2037, 0.2036,0.2036
SingleSource/Benchmarks/Misc-C++/bigfib, 0.4296, 0.4263, 0.4236,0.4263, 0.4276, 0.4334, 0.4263,0.4276
SingleSource/Benchmarks/Misc-C++/mandel-text, 0.0230, 0.0230, 0.0230,0.023, 0.0232, 0.0231, 0.0231,0.0231
SingleSource/Benchmarks/Misc-C++/oopack_v1p8, 0.1179, 0.1146, 0.1476,0.1179, 0.1183, 0.1187, 0.1191,0.1187
SingleSource/Benchmarks/Misc-C++/stepanov_container, 0.6571, 0.6685, 0.6645,0.6645, 0.6506, 0.6557, 0.6598,0.6557
SingleSource/Benchmarks/Misc-C++/stepanov_v1p2, 0.1584, 0.1587, 0.1585,0.1585, 0.1586, 0.1588, 0.1589,0.1588
SingleSource/Benchmarks/Misc/ReedSolomon, 0.1724, 0.1726, 0.1721,0.1724, 0.1737, 0.1739, 0.1738,0.1738
SingleSource/Benchmarks/Misc/dt, 0.0303, 0.0304, 0.0303,0.0303, 0.0307, 0.0308, 0.0308,0.0308
SingleSource/Benchmarks/Misc/evalloop, 0.0339, 0.0340, 0.0339,0.0339, 0.0341, 0.0341, 0.0342,0.0341
SingleSource/Benchmarks/Misc/fbench, 0.0500, 0.0501, 0.0500,0.05, 0.0505, 0.0504, 0.0504,0.0504
SingleSource/Benchmarks/Misc/ffbench, 0.0622, 0.0622, 0.0621,0.0622, 0.0624, 0.0624, 0.0624,0.0624
SingleSource/Benchmarks/Misc/flops, 0.0710, 0.0710, 0.0710,0.071, 0.0717, 0.0716, 0.0715,0.0716
SingleSource/Benchmarks/Misc/flops-1, 0.0256, 0.0256, 0.0255,0.0256, 0.0261, 0.0261, 0.0260,0.0261
SingleSource/Benchmarks/Misc/flops-2, 0.0264, 0.0265, 0.0265,0.0265, 0.0268, 0.0269, 0.0269,0.0269
SingleSource/Benchmarks/Misc/flops-3, 0.0254, 0.0254, 0.0254,0.0254, 0.0258, 0.0259, 0.0258,0.0258
SingleSource/Benchmarks/Misc/flops-4, 0.0258, 0.0258, 0.0258,0.0258, 0.0264, 0.0265, 0.0263,0.0264
SingleSource/Benchmarks/Misc/flops-5, 0.0264, 0.0264, 0.0264,0.0264, 0.0269, 0.0270, 0.0268,0.0269
SingleSource/Benchmarks/Misc/flops-6, 0.0264, 0.0264, 0.0264,0.0264, 0.0269, 0.0270, 0.0269,0.0269
SingleSource/Benchmarks/Misc/flops-7, 0.0253, 0.0253, 0.0253,0.0253, 0.0257, 0.0257, 0.0257,0.0257
SingleSource/Benchmarks/Misc/flops-8, 0.0265, 0.0265, 0.0265,0.0265, 0.0269, 0.0270, 0.0269,0.0269
SingleSource/Benchmarks/Misc/fp-convert, 0.0284, 0.0284, 0.0284,0.0284, 0.0287, 0.0287, 0.0287,0.0287
SingleSource/Benchmarks/Misc/himenobmtxpa, 0.1582, 0.1581, 0.1578,0.1581, 0.1620, 0.1620, 0.1619,0.162
SingleSource/Benchmarks/Misc/lowercase, 0.0240, 0.0240, 0.0240,0.024, 0.0242, 0.0242, 0.0242,0.0242
SingleSource/Benchmarks/Misc/mandel, 0.0412, 0.0412, 0.0412,0.0412, 0.0417, 0.0417, 0.0417,0.0417
SingleSource/Benchmarks/Misc/mandel-2, 0.0526, 0.0493, 0.0503,0.0503, 0.0452, 0.0561, 0.0507,0.0507
SingleSource/Benchmarks/Misc/matmul_f64_4x4, 0.0267, 0.0267, 0.0267,0.0267, 0.0271, 0.0271, 0.0270,0.0271
SingleSource/Benchmarks/Misc/oourafft, 0.1997, 0.2002, 0.2002,0.2002, 0.2070, 0.2011, 0.2063,0.2063
SingleSource/Benchmarks/Misc/perlin, 0.0422, 0.0423, 0.0422,0.0422, 0.0425, 0.0424, 0.0424,0.0424
SingleSource/Benchmarks/Misc/pi, 0.0201, 0.0202, 0.0201,0.0201, 0.0204, 0.0203, 0.0204,0.0204
SingleSource/Benchmarks/Misc/revertBits, 0.0241, 0.0242, 0.0242,0.0242, 0.0244, 0.0244, 0.0244,0.0244
SingleSource/Benchmarks/Misc/richards_benchmark, 0.0590, 0.0590, 0.0590,0.059, 0.0594, 0.0594, 0.0593,0.0594
SingleSource/Benchmarks/Misc/salsa20, 0.0505, 0.0504, 0.0505,0.0505, 0.0508, 0.0509, 0.0509,0.0509
SingleSource/Benchmarks/Misc/whetstone, 0.0623, 0.0623, 0.0622,0.0623, 0.0627, 0.0628, 0.0627,0.0627
SingleSource/Benchmarks/Polybench/datamining/correlation/correlation, 0.0706, 0.0707, 0.0707,0.0707, 0.0712, 0.0713, 0.0711,0.0712
SingleSource/Benchmarks/Polybench/datamining/covariance/covariance, 0.0775, 0.0774, 0.0773,0.0774, 0.0778, 0.0780, 0.0778,0.0778
SingleSource/Benchmarks/Polybench/linear-algebra/kernels/atax/atax, 0.0740, 0.0741, 0.0739,0.074, 0.0744, 0.0746, 0.0745,0.0745
SingleSource/Benchmarks/Polybench/linear-algebra/kernels/bicg/bicg, 0.0725, 0.0726, 0.0724,0.0725, 0.0732, 0.0732, 0.0733,0.0732
SingleSource/Benchmarks/Polybench/linear-algebra/kernels/cholesky/cholesky, 0.0849, 0.0851, 0.0847,0.0849, 0.0857, 0.0857, 0.0856,0.0857
SingleSource/Benchmarks/Polybench/linear-algebra/kernels/doitgen/doitgen, 0.0898, 0.0898, 0.0896,0.0898, 0.0904, 0.0907, 0.0905,0.0905
SingleSource/Benchmarks/Polybench/linear-algebra/kernels/gemver/gemver, 0.0838, 0.0838, 0.0836,0.0838, 0.0845, 0.0845, 0.0845,0.0845
SingleSource/Benchmarks/Polybench/linear-algebra/kernels/gesummv/gesummv, 0.0622, 0.0622, 0.0620,0.0622, 0.0628, 0.0628, 0.0628,0.0628
SingleSource/Benchmarks/Polybench/linear-algebra/kernels/mvt/mvt, 0.0747, 0.0747, 0.0746,0.0747, 0.0754, 0.0755, 0.0755,0.0755
SingleSource/Benchmarks/Polybench/linear-algebra/kernels/symm/symm, 0.0708, 0.0710, 0.0707,0.0708, 0.0714, 0.0715, 0.0715,0.0715
SingleSource/Benchmarks/Polybench/linear-algebra/kernels/syr2k/syr2k, 0.0723, 0.0723, 0.0721,0.0723, 0.0727, 0.0729, 0.0729,0.0729
SingleSource/Benchmarks/Polybench/linear-algebra/kernels/syrk/syrk, 0.0706, 0.0706, 0.0705,0.0706, 0.0711, 0.0713, 0.0712,0.0712
SingleSource/Benchmarks/Polybench/linear-algebra/kernels/trisolv/trisolv, 0.0588, 0.0589, 0.0588,0.0588, 0.0592, 0.0592, 0.0593,0.0592
SingleSource/Benchmarks/Polybench/linear-algebra/kernels/trmm/trmm, 0.0670, 0.0670, 0.0668,0.067, 0.0675, 0.0677, 0.0676,0.0676
SingleSource/Benchmarks/Polybench/linear-algebra/solvers/durbin/durbin, 0.0812, 0.0813, 0.0812,0.0812, 0.0820, 0.0821, 0.0820,0.082
SingleSource/Benchmarks/Polybench/linear-algebra/solvers/dynprog/dynprog, 0.0675, 0.0675, 0.0673,0.0675, 0.0680, 0.0681, 0.0680,0.068
SingleSource/Benchmarks/Polybench/linear-algebra/solvers/gramschmidt/gramschmidt, 0.0945, 0.0944, 0.0941,0.0944, 0.0946, 0.0948, 0.0947,0.0947
SingleSource/Benchmarks/Polybench/linear-algebra/solvers/lu/lu, 0.0825, 0.0827, 0.0828,0.0827, 0.0833, 0.0833, 0.0833,0.0833
SingleSource/Benchmarks/Polybench/medley/floyd-warshall/floyd-warshall, 0.0698, 0.0699, 0.0697,0.0698, 0.0703, 0.0705, 0.0703,0.0703
SingleSource/Benchmarks/Polybench/medley/reg_detect/reg_detect, 0.3836, 0.3845, 0.3827,0.3836, 0.3853, 0.3857, 0.3852,0.3853
SingleSource/Benchmarks/Polybench/stencils/adi/adi, 0.0832, 0.0833, 0.0830,0.0832, 0.0836, 0.0836, 0.0836,0.0836
SingleSource/Benchmarks/Polybench/stencils/fdtd-2d/fdtd-2d, 0.1268, 0.1268, 0.1264,0.1268, 0.1274, 0.1276, 0.1274,0.1274
SingleSource/Benchmarks/Polybench/stencils/fdtd-apml/fdtd-apml, 0.1209, 0.1211, 0.1208,0.1209, 0.1215, 0.1217, 0.1214,0.1215
SingleSource/Benchmarks/Polybench/stencils/jacobi-1d-imper/jacobi-1d-imper, 0.0774, 0.0775, 0.0774,0.0774, 0.0779, 0.0782, 0.0781,0.0781
SingleSource/Benchmarks/Polybench/stencils/jacobi-2d-imper/jacobi-2d-imper, 0.1038, 0.1039, 0.1035,0.1038, 0.1043, 0.1043, 0.1041,0.1043
SingleSource/Benchmarks/Polybench/stencils/seidel-2d/seidel-2d, 0.0645, 0.0646, 0.0646,0.0646, 0.0653, 0.0654, 0.0654,0.0654
SingleSource/Benchmarks/Shootout-C++/EH/except, 0.1397, 0.1363, 0.1478,0.1397, 0.1403, 0.1421, 0.1415,0.1415
SingleSource/Benchmarks/Shootout-C++/ackermann, 0.1084, 0.1084, 0.1083,0.1084, 0.1091, 0.1094, 0.1093,0.1093
SingleSource/Benchmarks/Shootout-C++/ary, 0.1427, 0.1428, 0.1426,0.1427, 0.1437, 0.1440, 0.1439,0.1439
SingleSource/Benchmarks/Shootout-C++/ary2, 0.1441, 0.1442, 0.1441,0.1441, 0.1452, 0.1456, 0.1455,0.1455
SingleSource/Benchmarks/Shootout-C++/ary3, 0.1460, 0.1461, 0.1460,0.146, 0.1470, 0.1473, 0.1470,0.147
SingleSource/Benchmarks/Shootout-C++/fibo, 0.1065, 0.1067, 0.1067,0.1067, 0.1074, 0.1076, 0.1076,0.1076
SingleSource/Benchmarks/Shootout-C++/hash, 0.2475, 0.2478, 0.2475,0.2475, 0.2472, 0.2477, 0.2474,0.2474
SingleSource/Benchmarks/Shootout-C++/hash2, 0.3174, 0.3182, 0.3187,0.3182, 0.3129, 0.3156, 0.3175,0.3156
SingleSource/Benchmarks/Shootout-C++/heapsort, 0.1214, 0.1216, 0.1215,0.1215, 0.1223, 0.1224, 0.1224,0.1224
SingleSource/Benchmarks/Shootout-C++/lists, 0.1603, 0.1613, 0.1602,0.1603, 0.1557, 0.1605, 0.1546,0.1557
SingleSource/Benchmarks/Shootout-C++/lists1, 0.1787, 0.1790, 0.1788,0.1788, 0.1790, 0.1793, 0.1792,0.1792
SingleSource/Benchmarks/Shootout-C++/matrix, 0.1695, 0.1695, 0.1695,0.1695, 0.1707, 0.1708, 0.1708,0.1708
SingleSource/Benchmarks/Shootout-C++/methcall, 0.1154, 0.1155, 0.1154,0.1154, 0.1162, 0.1164, 0.1163,0.1163
SingleSource/Benchmarks/Shootout-C++/moments, 0.3519, 0.3497, 0.3517,0.3517, 0.3433, 0.3564, 0.3470,0.347
SingleSource/Benchmarks/Shootout-C++/nestedloop, 0.1071, 0.1074, 0.1072,0.1072, 0.1080, 0.1082, 0.1081,0.1081
SingleSource/Benchmarks/Shootout-C++/objinst, 0.1307, 0.1309, 0.1307,0.1307, 0.1309, 0.1311, 0.1311,0.1311
SingleSource/Benchmarks/Shootout-C++/random, 0.1155, 0.1155, 0.1155,0.1155, 0.1165, 0.1168, 0.1166,0.1166
SingleSource/Benchmarks/Shootout-C++/sieve, 0.1664, 0.1666, 0.1664,0.1664, 0.1667, 0.1672, 0.1670,0.167
SingleSource/Benchmarks/Shootout-C++/strcat, 0.1162, 0.1163, 0.1163,0.1163, 0.1172, 0.1173, 0.1172,0.1172
SingleSource/Benchmarks/Shootout/ackermann, 0.0223, 0.0223, 0.0223,0.0223, 0.0225, 0.0226, 0.0226,0.0226
SingleSource/Benchmarks/Shootout/ary3, 0.0325, 0.0325, 0.0324,0.0325, 0.0327, 0.0327, 0.0326,0.0327
SingleSource/Benchmarks/Shootout/fib2, 0.0189, 0.0189, 0.0190,0.0189, 0.0190, 0.0191, 0.0191,0.0191
SingleSource/Benchmarks/Shootout/hash, 0.0477, 0.0478, 0.0478,0.0478, 0.0479, 0.0479, 0.0479,0.0479
SingleSource/Benchmarks/Shootout/heapsort, 0.0365, 0.0366, 0.0365,0.0365, 0.0370, 0.0369, 0.0369,0.0369
SingleSource/Benchmarks/Shootout/lists, 0.0622, 0.0623, 0.0621,0.0622, 0.0623, 0.0624, 0.0624,0.0624
SingleSource/Benchmarks/Shootout/matrix, 0.0762, 0.0763, 0.0761,0.0762, 0.0766, 0.0766, 0.0765,0.0766
SingleSource/Benchmarks/Shootout/methcall, 0.0298, 0.0297, 0.0298,0.0298, 0.0300, 0.0300, 0.0300,0.03
SingleSource/Benchmarks/Shootout/nestedloop, 0.0231, 0.0231, 0.0230,0.0231, 0.0232, 0.0232, 0.0233,0.0232
SingleSource/Benchmarks/Shootout/objinst, 0.0351, 0.0351, 0.0351,0.0351, 0.0354, 0.0355, 0.0354,0.0354
SingleSource/Benchmarks/Shootout/random, 0.0283, 0.0283, 0.0283,0.0283, 0.0285, 0.0286, 0.0285,0.0285
SingleSource/Benchmarks/Shootout/sieve, 0.0240, 0.0241, 0.0241,0.0241, 0.0243, 0.0243, 0.0243,0.0243
SingleSource/Benchmarks/Shootout/strcat, 0.0259, 0.0259, 0.0259,0.0259, 0.0260, 0.0261, 0.0261,0.0261
SingleSource/Benchmarks/SmallPT/smallpt, 0.0919, 0.0919, 0.0919,0.0919, 0.0926, 0.0928, 0.0927,0.0927
SingleSource/Benchmarks/Stanford/Bubblesort, 0.0318, 0.0318, 0.0318,0.0318, 0.0321, 0.0321, 0.0321,0.0321
SingleSource/Benchmarks/Stanford/FloatMM, 0.0495, 0.0494, 0.0494,0.0494, 0.0495, 0.0496, 0.0496,0.0496
SingleSource/Benchmarks/Stanford/Oscar, 0.0580, 0.0580, 0.0580,0.058, 0.0627, 0.0628, 0.0627,0.0627
SingleSource/Benchmarks/Stanford/Perm, 0.0294, 0.0295, 0.0295,0.0295, 0.0297, 0.0297, 0.0297,0.0297
SingleSource/Benchmarks/Stanford/Puzzle, 0.1018, 0.1018, 0.1017,0.1018, 0.1022, 0.1023, 0.1022,0.1022
SingleSource/Benchmarks/Stanford/Queens, 0.0416, 0.0416, 0.0416,0.0416, 0.0419, 0.0418, 0.0419,0.0419
SingleSource/Benchmarks/Stanford/Quicksort, 0.0350, 0.0351, 0.0350,0.035, 0.0354, 0.0353, 0.0354,0.0354
SingleSource/Benchmarks/Stanford/RealMM, 0.0466, 0.0466, 0.0465,0.0466, 0.0470, 0.0470, 0.0471,0.047
SingleSource/Benchmarks/Stanford/Towers, 0.0448, 0.0447, 0.0448,0.0448, 0.0451, 0.0451, 0.0451,0.0451
SingleSource/Benchmarks/Stanford/Treesort, 0.0359, 0.0360, 0.0360,0.036, 0.0363, 0.0363, 0.0362,0.0363
SingleSource/Regression/C/2004-08-12-InlinerAndAllocas, 0.0187, 0.0187, 0.0187,0.0187, 0.0189, 0.0189, 0.0190,0.0189
SingleSource/Regression/C/uint64_to_float, 0.1284, 0.0710, 0.0542,0.071, 0.0568, 0.0653, 0.0569,0.0569
Total elapsed time,-,-,-,336.25460000000044,-,-,-,337.49079999999964
Total failure,-,-,-,0,-,-,-,0
