Benchmarks,/mnt/freezedisk/llvm-intptr-insts-opt-5.0-release/bin/clang,/mnt/freezedisk/llvm-intptr-insts-opt-5.0-release/bin/clang,/mnt/freezedisk/llvm-intptr-insts-opt-5.0-release/bin/clang,median,/mnt/freezedisk/llvm-intptr-nocapture-opt-5.0-release/bin/clang,/mnt/freezedisk/llvm-intptr-nocapture-opt-5.0-release/bin/clang,/mnt/freezedisk/llvm-intptr-nocapture-opt-5.0-release/bin/clang,median
MultiSource/Applications/ALAC/decode/alacconvert-decode, 0.0130, 0.0130, 0.0130,0.013, 0.0130, 0.0130, 0.0130,0.013
MultiSource/Applications/ALAC/encode/alacconvert-encode, 0.0265, 0.0265, 0.0265,0.0265, 0.0265, 0.0265, 0.0265,0.0265
MultiSource/Applications/ClamAV/clamscan, 0.1846, 0.1716, 0.1718,0.1718, 0.1571, 0.1872, 0.2057,0.1872
MultiSource/Applications/JM/ldecod/ldecod, 0.0360, 0.0358, 0.0358,0.0358, 0.0361, 0.0360, 0.0359,0.036
MultiSource/Applications/JM/lencod/lencod, 3.1507, 3.1635, 3.1631,3.1631, 3.1596, 3.1624, 3.1500,3.1596
MultiSource/Applications/SIBsim4/SIBsim4, 2.1276, 2.0601, 2.0653,2.0653, 2.1847, 2.0751, 2.0817,2.0817
MultiSource/Applications/SPASS/SPASS, 6.6854, 6.6670, 6.6618,6.667, 6.6816, 6.6898, 6.6736,6.6816
MultiSource/Applications/aha/aha, 1.0368, 1.0364, 1.0376,1.0368, 1.0374, 1.0365, 1.0364,1.0365
MultiSource/Applications/d/make_dparser, 0.0158, 0.0156, 0.0158,0.0158, 0.0159, 0.0158, 0.0159,0.0159
MultiSource/Applications/hbd/hbd, 0.0017, 0.0017, 0.0016,0.0017, 0.0017, 0.0017, 0.0017,0.0017
MultiSource/Applications/hexxagon/hexxagon, 7.0581, 7.0578, 7.0629,7.0581, 7.0585, 7.0588, 7.0581,7.0585
MultiSource/Applications/kimwitu++/kc, 0.0283, 0.0281, 0.0281,0.0281, 0.0282, 0.0281, 0.0281,0.0281
MultiSource/Applications/lambda-0.1.3/lambda, 2.6982, 2.7007, 2.7003,2.7003, 2.7034, 2.7014, 2.7000,2.7014
MultiSource/Applications/lua/lua,11.2062,11.2093,11.2024,11.2062,11.1420,11.1177,11.1342,11.1342
MultiSource/Applications/minisat/minisat, 4.2049, 4.1543, 4.2232,4.2049, 4.2028, 4.1639, 4.1918,4.1918
MultiSource/Applications/obsequi/Obsequi, 1.0925, 1.0932, 1.0924,1.0925, 1.0928, 1.0923, 1.0932,1.0928
MultiSource/Applications/oggenc/oggenc, 0.0763, 0.0763, 0.0764,0.0763, 0.0764, 0.0764, 0.0764,0.0764
MultiSource/Applications/sgefa/sgefa, 0.1526, 0.1526, 0.1526,0.1526, 0.1527, 0.1526, 0.1526,0.1526
MultiSource/Applications/siod/siod, 1.4862, 1.0935, 1.0939,1.0939, 1.0930, 1.0928, 1.0936,1.093
MultiSource/Applications/spiff/spiff, 1.2747, 1.2737, 1.2735,1.2737, 1.2679, 1.2687, 1.2683,1.2683
MultiSource/Applications/sqlite3/sqlite3, 1.7731, 1.7728, 1.7951,1.7731, 1.7776, 1.7734, 1.7837,1.7776
MultiSource/Applications/viterbi/viterbi, 1.2833, 1.2855, 1.2848,1.2848, 1.2833, 1.2831, 1.2841,1.2833
MultiSource/Benchmarks/7zip/7zip-benchmark, 6.3641, 6.3644, 6.3652,6.3644, 6.3641, 6.3640, 6.3650,6.3641
MultiSource/Benchmarks/ASCI_Purple/SMG2000/smg2000, 1.1677, 1.1675, 1.1646,1.1675, 1.1686, 1.1652, 1.1651,1.1652
MultiSource/Benchmarks/ASC_Sequoia/AMGmk/AMGmk, 4.9785, 4.9960, 4.9955,4.9955, 4.9862, 4.9860, 4.9942,4.9862
MultiSource/Benchmarks/ASC_Sequoia/CrystalMk/CrystalMk, 7.2730, 7.2732, 7.2733,7.2732, 7.2731, 7.2731, 7.2732,7.2731
MultiSource/Benchmarks/ASC_Sequoia/IRSmk/IRSmk, 3.0100, 3.0299, 2.9911,3.01, 3.0129, 3.0091, 3.0080,3.0091
MultiSource/Benchmarks/BitBench/drop3/drop3, 0.1848, 0.1877, 0.1870,0.187, 0.1796, 0.1843, 0.1888,0.1843
MultiSource/Benchmarks/BitBench/five11/five11, 1.1084, 1.1282, 1.1077,1.1084, 1.1104, 1.1146, 1.1160,1.1146
MultiSource/Benchmarks/BitBench/uudecode/uudecode, 0.0596, 0.0596, 0.0596,0.0596, 0.0596, 0.0596, 0.0596,0.0596
MultiSource/Benchmarks/BitBench/uuencode/uuencode, 0.0104, 0.0105, 0.0104,0.0104, 0.0104, 0.0104, 0.0105,0.0104
MultiSource/Benchmarks/Bullet/bullet, 3.3324, 3.3299, 3.3234,3.3299, 3.3289, 3.3291, 3.3310,3.3291
MultiSource/Benchmarks/DOE-ProxyApps-C++/CLAMR/CLAMR, 1.1201, 1.1201, 1.1201,1.1201, 1.1202, 1.1201, 1.1201,1.1201
MultiSource/Benchmarks/DOE-ProxyApps-C++/HPCCG/HPCCG, 0.9043, 0.9043, 0.9042,0.9043, 0.9043, 0.9041, 0.9045,0.9043
MultiSource/Benchmarks/DOE-ProxyApps-C++/PENNANT/PENNANT, 0.3696, 0.3700, 0.3694,0.3696, 0.3696, 0.3692, 0.3708,0.3696
MultiSource/Benchmarks/DOE-ProxyApps-C++/miniFE/miniFE, 2.4622, 2.4548, 2.4603,2.4603, 2.4591, 2.4579, 2.4596,2.4591
MultiSource/Benchmarks/DOE-ProxyApps-C/Pathfinder/PathFinder, 2.0644, 2.0699, 2.0653,2.0653, 2.0698, 2.0673, 2.0709,2.0698
MultiSource/Benchmarks/DOE-ProxyApps-C/RSBench/rsbench, 0.5744, 0.5846, 0.5787,0.5787, 0.5820, 0.5767, 0.5731,0.5767
MultiSource/Benchmarks/DOE-ProxyApps-C/SimpleMOC/SimpleMOC, 3.7856, 3.7915, 3.7882,3.7882, 3.7903, 3.7991, 3.7826,3.7903
MultiSource/Benchmarks/DOE-ProxyApps-C/XSBench/XSBench, 2.4354, 2.4409, 2.4368,2.4368, 2.4393, 2.4357, 2.4359,2.4359
MultiSource/Benchmarks/DOE-ProxyApps-C/miniAMR/miniAMR, 0.7714, 0.7717, 0.7724,0.7717, 0.7716, 0.7706, 0.7714,0.7714
MultiSource/Benchmarks/DOE-ProxyApps-C/miniGMG/miniGMG, 5.2019, 5.2024, 5.2025,5.2024, 5.2031, 5.2018, 5.2016,5.2018
MultiSource/Benchmarks/Fhourstones-3.1/fhourstones3.1, 0.7717, 0.7718, 0.7718,0.7718, 0.7716, 0.7715, 0.7717,0.7716
MultiSource/Benchmarks/Fhourstones/fhourstones, 0.5772, 0.5849, 0.5706,0.5772, 0.5739, 0.5735, 0.5680,0.5735
MultiSource/Benchmarks/FreeBench/analyzer/analyzer, 0.0404, 0.0401, 0.0398,0.0401, 0.0409, 0.0400, 0.0403,0.0403
MultiSource/Benchmarks/FreeBench/distray/distray, 0.1345, 0.1345, 0.1346,0.1345, 0.1345, 0.1345, 0.1346,0.1345
MultiSource/Benchmarks/FreeBench/fourinarow/fourinarow, 0.1756, 0.1756, 0.1756,0.1756, 0.1756, 0.1756, 0.1756,0.1756
MultiSource/Benchmarks/FreeBench/mason/mason, 0.1302, 0.1302, 0.1303,0.1302, 0.1303, 0.1302, 0.1303,0.1303
MultiSource/Benchmarks/FreeBench/neural/neural, 0.1152, 0.1153, 0.1152,0.1152, 0.1153, 0.1154, 0.1153,0.1153
MultiSource/Benchmarks/FreeBench/pcompress2/pcompress2, 0.1052, 0.1052, 0.1052,0.1052, 0.1052, 0.1053, 0.1051,0.1052
MultiSource/Benchmarks/FreeBench/pifft/pifft, 0.0652, 0.0652, 0.0652,0.0652, 0.0652, 0.0652, 0.0652,0.0652
MultiSource/Benchmarks/MallocBench/cfrac/cfrac, 0.7616, 0.7618, 0.7621,0.7618, 0.7618, 0.7616, 0.7620,0.7618
MultiSource/Benchmarks/MallocBench/espresso/espresso, 0.2982, 0.2981, 0.2984,0.2982, 0.2984, 0.2977, 0.2977,0.2977
MultiSource/Benchmarks/MallocBench/gs/gs, 0.0274, 0.0274, 0.0274,0.0274, 0.0274, 0.0274, 0.0273,0.0274
MultiSource/Benchmarks/McCat/01-qbsort/qbsort, 0.0391, 0.0390, 0.0391,0.0391, 0.0391, 0.0391, 0.0392,0.0391
MultiSource/Benchmarks/McCat/03-testtrie/testtrie, 0.0063, 0.0063, 0.0062,0.0063, 0.0063, 0.0062, 0.0062,0.0062
MultiSource/Benchmarks/McCat/04-bisect/bisect, 0.0748, 0.0748, 0.0748,0.0748, 0.0749, 0.0748, 0.0749,0.0749
MultiSource/Benchmarks/McCat/05-eks/eks, 0.0034, 0.0034, 0.0034,0.0034, 0.0034, 0.0034, 0.0034,0.0034
MultiSource/Benchmarks/McCat/08-main/main, 0.0426, 0.0427, 0.0427,0.0427, 0.0427, 0.0426, 0.0427,0.0427
MultiSource/Benchmarks/McCat/09-vor/vor, 0.0830, 0.0831, 0.0835,0.0831, 0.0833, 0.0832, 0.0832,0.0832
MultiSource/Benchmarks/McCat/12-IOtest/iotest, 0.2143, 0.2156, 0.2153,0.2153, 0.2140, 0.2141, 0.2145,0.2141
MultiSource/Benchmarks/McCat/17-bintr/bintr, 0.0816, 0.0820, 0.0811,0.0816, 0.0813, 0.0812, 0.0812,0.0812
MultiSource/Benchmarks/McCat/18-imp/imp, 0.0554, 0.0555, 0.0554,0.0554, 0.0556, 0.0554, 0.0555,0.0555
MultiSource/Benchmarks/MiBench/automotive-basicmath/automotive-basicmath, 0.2224, 0.2224, 0.2225,0.2224, 0.2225, 0.2230, 0.2230,0.223
MultiSource/Benchmarks/MiBench/automotive-bitcount/automotive-bitcount, 0.0546, 0.0624, 0.0546,0.0546, 0.0546, 0.0546, 0.0546,0.0546
MultiSource/Benchmarks/MiBench/automotive-susan/automotive-susan, 0.0283, 0.0284, 0.0284,0.0284, 0.0284, 0.0284, 0.0286,0.0284
MultiSource/Benchmarks/MiBench/consumer-jpeg/consumer-jpeg, 0.0030, 0.0030, 0.0030,0.003, 0.0030, 0.0030, 0.0029,0.003
MultiSource/Benchmarks/MiBench/consumer-lame/consumer-lame, 0.1170, 0.1170, 0.1169,0.117, 0.1170, 0.1168, 0.1170,0.117
MultiSource/Benchmarks/MiBench/consumer-typeset/consumer-typeset, 0.0821, 0.0822, 0.0822,0.0822, 0.0821, 0.0827, 0.0826,0.0826
MultiSource/Benchmarks/MiBench/network-dijkstra/network-dijkstra, 0.0245, 0.0245, 0.0246,0.0245, 0.0245, 0.0245, 0.0245,0.0245
MultiSource/Benchmarks/MiBench/network-patricia/network-patricia, 0.0710, 0.0710, 0.0710,0.071, 0.0710, 0.0710, 0.0711,0.071
MultiSource/Benchmarks/MiBench/security-rijndael/security-rijndael, 0.0219, 0.0218, 0.0218,0.0218, 0.0219, 0.0219, 0.0220,0.0219
MultiSource/Benchmarks/MiBench/security-sha/security-sha, 0.0340, 0.0333, 0.0272,0.0333, 0.0293, 0.0347, 0.0250,0.0293
MultiSource/Benchmarks/MiBench/telecomm-CRC32/telecomm-CRC32, 0.2052, 0.2055, 0.1993,0.2052, 0.2045, 0.2058, 0.2065,0.2058
MultiSource/Benchmarks/MiBench/telecomm-FFT/telecomm-fft, 0.0381, 0.0381, 0.0381,0.0381, 0.0381, 0.0381, 0.0382,0.0381
MultiSource/Benchmarks/MiBench/telecomm-adpcm/telecomm-adpcm, 0.0748, 0.0830, 0.0746,0.0748, 0.0829, 0.0761, 0.0760,0.0761
MultiSource/Benchmarks/MiBench/telecomm-gsm/telecomm-gsm, 0.1049, 0.0994, 0.1020,0.102, 0.1035, 0.1034, 0.1055,0.1035
MultiSource/Benchmarks/NPB-serial/is/is, 5.0221, 5.1448, 5.1445,5.1445, 5.0303, 5.0630, 5.0224,5.0303
MultiSource/Benchmarks/Olden/bh/bh, 1.3319, 1.3353, 1.3331,1.3331, 1.3341, 1.3338, 1.3326,1.3338
MultiSource/Benchmarks/Olden/bisort/bisort, 0.3613, 0.3622, 0.3619,0.3619, 0.3619, 0.3614, 0.3621,0.3619
MultiSource/Benchmarks/Olden/em3d/em3d, 1.7017, 1.7018, 1.7019,1.7018, 1.7021, 1.7018, 1.7019,1.7019
MultiSource/Benchmarks/Olden/health/health, 0.1432, 0.1434, 0.1435,0.1434, 0.1434, 0.1437, 0.1437,0.1437
MultiSource/Benchmarks/Olden/mst/mst, 0.0517, 0.0518, 0.0518,0.0518, 0.0519, 0.0517, 0.0518,0.0518
MultiSource/Benchmarks/Olden/perimeter/perimeter, 0.1218, 0.1221, 0.1218,0.1218, 0.1219, 0.1222, 0.1218,0.1219
MultiSource/Benchmarks/Olden/power/power, 1.0534, 1.0535, 1.0533,1.0534, 1.0533, 1.0534, 1.0532,1.0533
MultiSource/Benchmarks/Olden/treeadd/treeadd, 0.1265, 0.1263, 0.1264,0.1264, 0.1265, 0.1266, 0.1266,0.1266
MultiSource/Benchmarks/Olden/tsp/tsp, 1.1723, 1.1722, 1.1722,1.1722, 1.1721, 1.1723, 1.1721,1.1721
MultiSource/Benchmarks/Olden/voronoi/voronoi, 0.2157, 0.2153, 0.2154,0.2154, 0.2106, 0.2105, 0.2105,0.2105
MultiSource/Benchmarks/PAQ8p/paq8p,42.6397,42.6445,42.5975,42.6397,42.6016,42.6216,42.6175,42.6175
MultiSource/Benchmarks/Prolangs-C++/city/city, 0.0050, 0.0050, 0.0050,0.005, 0.0050, 0.0050, 0.0050,0.005
MultiSource/Benchmarks/Prolangs-C++/employ/employ, 0.0048, 0.0048, 0.0048,0.0048, 0.0048, 0.0048, 0.0048,0.0048
MultiSource/Benchmarks/Prolangs-C++/life/life, 0.7165, 0.7149, 0.7161,0.7161, 0.7158, 0.7177, 0.7169,0.7169
MultiSource/Benchmarks/Prolangs-C++/ocean/ocean, 0.0360, 0.0359, 0.0359,0.0359, 0.0360, 0.0359, 0.0360,0.036
MultiSource/Benchmarks/Prolangs-C++/primes/primes, 0.2136, 0.2123, 0.2122,0.2123, 0.2135, 0.2120, 0.2128,0.2128
MultiSource/Benchmarks/Prolangs-C++/simul/simul, 0.0038, 0.0038, 0.0038,0.0038, 0.0038, 0.0038, 0.0038,0.0038
MultiSource/Benchmarks/Prolangs-C/agrep/agrep, 0.0030, 0.0029, 0.0028,0.0029, 0.0030, 0.0030, 0.0030,0.003
MultiSource/Benchmarks/Prolangs-C/bison/mybison, 0.0019, 0.0019, 0.0019,0.0019, 0.0021, 0.0021, 0.0019,0.0021
MultiSource/Benchmarks/Prolangs-C/gnugo/gnugo, 0.0251, 0.0252, 0.0252,0.0252, 0.0252, 0.0252, 0.0251,0.0252
MultiSource/Benchmarks/Ptrdist/anagram/anagram, 0.6004, 0.6003, 0.6001,0.6003, 0.6001, 0.6001, 0.6004,0.6001
MultiSource/Benchmarks/Ptrdist/bc/bc, 0.3648, 0.3650, 0.3648,0.3648, 0.3650, 0.3648, 0.3649,0.3649
MultiSource/Benchmarks/Ptrdist/ft/ft, 0.6655, 0.6482, 0.6113,0.6482, 0.6132, 0.6416, 0.6588,0.6416
MultiSource/Benchmarks/Ptrdist/ks/ks, 0.6564, 0.6530, 0.6561,0.6561, 0.6564, 0.6538, 0.6582,0.6564
MultiSource/Benchmarks/Ptrdist/yacr2/yacr2, 0.5298, 0.5307, 0.5302,0.5302, 0.5301, 0.5302, 0.5302,0.5302
MultiSource/Benchmarks/SciMark2-C/scimark2,42.0943,42.0919,42.1046,42.0943,42.1203,42.1160,42.1132,42.116
MultiSource/Benchmarks/TSVC/ControlFlow-dbl/ControlFlow-dbl, 3.7430, 3.7428, 3.7430,3.743, 3.7452, 3.7418, 3.7417,3.7418
MultiSource/Benchmarks/TSVC/ControlFlow-flt/ControlFlow-flt, 3.5861, 3.5696, 3.5837,3.5837, 3.5565, 3.5721, 3.5842,3.5721
MultiSource/Benchmarks/TSVC/ControlLoops-dbl/ControlLoops-dbl, 2.5398, 2.5418, 2.5410,2.541, 2.5406, 2.5408, 2.5409,2.5408
MultiSource/Benchmarks/TSVC/ControlLoops-flt/ControlLoops-flt, 2.3496, 2.3455, 2.3512,2.3496, 2.3552, 2.3490, 2.3537,2.3537
MultiSource/Benchmarks/TSVC/CrossingThresholds-dbl/CrossingThresholds-dbl, 2.1493, 2.1497, 2.1491,2.1493, 2.1496, 2.1493, 2.1488,2.1493
MultiSource/Benchmarks/TSVC/CrossingThresholds-flt/CrossingThresholds-flt, 1.6324, 1.6135, 1.6257,1.6257, 1.6362, 1.6251, 1.6152,1.6251
MultiSource/Benchmarks/TSVC/Equivalencing-dbl/Equivalencing-dbl, 1.3853, 1.3868, 1.3869,1.3868, 1.3866, 1.3860, 1.3852,1.386
MultiSource/Benchmarks/TSVC/Equivalencing-flt/Equivalencing-flt, 0.9677, 0.9708, 0.9674,0.9677, 0.9692, 0.9709, 0.9708,0.9708
MultiSource/Benchmarks/TSVC/Expansion-dbl/Expansion-dbl, 1.9851, 1.9859, 1.9839,1.9851, 1.9866, 1.9865, 1.9839,1.9865
MultiSource/Benchmarks/TSVC/Expansion-flt/Expansion-flt, 1.1806, 1.1758, 1.1802,1.1802, 1.1829, 1.1791, 1.1747,1.1791
MultiSource/Benchmarks/TSVC/GlobalDataFlow-dbl/GlobalDataFlow-dbl, 2.8513, 2.8520, 2.8505,2.8513, 2.8505, 2.8504, 2.8508,2.8505
MultiSource/Benchmarks/TSVC/GlobalDataFlow-flt/GlobalDataFlow-flt, 1.5018, 1.5001, 1.5051,1.5018, 1.4992, 1.4954, 1.4976,1.4976
MultiSource/Benchmarks/TSVC/IndirectAddressing-dbl/IndirectAddressing-dbl, 2.4778, 2.4811, 2.4765,2.4778, 2.4714, 2.4812, 2.4748,2.4748
MultiSource/Benchmarks/TSVC/IndirectAddressing-flt/IndirectAddressing-flt, 2.2471, 2.2489, 2.2469,2.2471, 2.2482, 2.2467, 2.2475,2.2475
MultiSource/Benchmarks/TSVC/InductionVariable-dbl/InductionVariable-dbl, 3.0479, 3.0485, 3.0487,3.0485, 3.0500, 3.0483, 3.0488,3.0488
MultiSource/Benchmarks/TSVC/InductionVariable-flt/InductionVariable-flt, 2.5562, 2.5592, 2.5545,2.5562, 2.5598, 2.5547, 2.5580,2.558
MultiSource/Benchmarks/TSVC/LinearDependence-dbl/LinearDependence-dbl, 5.7068, 5.7084, 5.7033,5.7068, 5.7093, 5.7076, 5.7100,5.7093
MultiSource/Benchmarks/TSVC/LinearDependence-flt/LinearDependence-flt, 4.9934, 5.0031, 4.9890,4.9934, 4.9875, 4.9943, 4.9880,4.988
MultiSource/Benchmarks/TSVC/LoopRerolling-dbl/LoopRerolling-dbl, 4.6104, 4.6109, 4.6108,4.6108, 4.6105, 4.6109, 4.6104,4.6105
MultiSource/Benchmarks/TSVC/LoopRerolling-flt/LoopRerolling-flt, 3.8215, 3.8263, 3.8268,3.8263, 3.8266, 3.8233, 3.8287,3.8266
MultiSource/Benchmarks/TSVC/LoopRestructuring-dbl/LoopRestructuring-dbl, 3.6548, 3.6402, 3.6343,3.6402, 3.6407, 3.6379, 3.6431,3.6407
MultiSource/Benchmarks/TSVC/LoopRestructuring-flt/LoopRestructuring-flt, 2.8547, 2.8872, 2.9368,2.8872, 3.0290, 2.8693, 2.9508,2.9508
MultiSource/Benchmarks/TSVC/NodeSplitting-dbl/NodeSplitting-dbl, 5.0283, 5.0277, 5.0272,5.0277, 5.0275, 5.0256, 5.0262,5.0262
MultiSource/Benchmarks/TSVC/NodeSplitting-flt/NodeSplitting-flt, 4.6470, 4.6465, 4.6442,4.6465, 4.6471, 4.6445, 4.6507,4.6471
MultiSource/Benchmarks/TSVC/Packing-dbl/Packing-dbl, 2.3249, 2.3232, 2.3240,2.324, 2.3232, 2.3260, 2.3251,2.3251
MultiSource/Benchmarks/TSVC/Packing-flt/Packing-flt, 2.1164, 2.1318, 2.1361,2.1318, 2.1209, 2.1023, 2.1027,2.1027
MultiSource/Benchmarks/TSVC/Recurrences-dbl/Recurrences-dbl, 3.5010, 3.5011, 3.5011,3.5011, 3.5013, 3.5012, 3.5011,3.5012
MultiSource/Benchmarks/TSVC/Recurrences-flt/Recurrences-flt, 3.5009, 3.5008, 3.5006,3.5008, 3.5008, 3.5008, 3.5008,3.5008
MultiSource/Benchmarks/TSVC/Reductions-dbl/Reductions-dbl, 3.4400, 3.4399, 3.4399,3.4399, 3.4400, 3.4399, 3.4399,3.4399
MultiSource/Benchmarks/TSVC/Reductions-flt/Reductions-flt, 5.9349, 5.9350, 5.9348,5.9349, 5.9349, 5.9348, 5.9350,5.9349
MultiSource/Benchmarks/TSVC/Searching-dbl/Searching-dbl, 2.2756, 2.2757, 2.2755,2.2756, 2.2756, 2.2753, 2.2758,2.2756
MultiSource/Benchmarks/TSVC/Searching-flt/Searching-flt, 2.4342, 2.4319, 2.4342,2.4342, 2.4344, 2.4327, 2.4337,2.4337
MultiSource/Benchmarks/TSVC/StatementReordering-dbl/StatementReordering-dbl, 2.2431, 2.2447, 2.2410,2.2431, 2.2474, 2.2474, 2.2458,2.2474
MultiSource/Benchmarks/TSVC/StatementReordering-flt/StatementReordering-flt, 1.8273, 1.8286, 1.8269,1.8273, 1.8254, 1.8246, 1.8255,1.8254
MultiSource/Benchmarks/TSVC/Symbolics-dbl/Symbolics-dbl, 2.4543, 2.4552, 2.4550,2.455, 2.4550, 2.4552, 2.4550,2.455
MultiSource/Benchmarks/TSVC/Symbolics-flt/Symbolics-flt, 1.3920, 1.3899, 1.3931,1.392, 1.3882, 1.3931, 1.3905,1.3905
MultiSource/Benchmarks/Trimaran/enc-3des/enc-3des, 1.2894, 1.2897, 1.2896,1.2896, 1.2894, 1.2893, 1.2896,1.2894
MultiSource/Benchmarks/Trimaran/enc-md5/enc-md5, 1.2243, 1.2243, 1.2243,1.2243, 1.2243, 1.2243, 1.2244,1.2243
MultiSource/Benchmarks/Trimaran/enc-pc1/enc-pc1, 0.3440, 0.3440, 0.3440,0.344, 0.3440, 0.3440, 0.3440,0.344
MultiSource/Benchmarks/Trimaran/enc-rc4/enc-rc4, 0.7276, 0.7277, 0.7277,0.7277, 0.7276, 0.7276, 0.7273,0.7276
MultiSource/Benchmarks/Trimaran/netbench-crc/netbench-crc, 0.6211, 0.6209, 0.6209,0.6209, 0.6214, 0.6210, 0.6209,0.621
MultiSource/Benchmarks/Trimaran/netbench-url/netbench-url, 2.9797, 2.9797, 2.9797,2.9797, 2.9796, 2.9795, 2.9799,2.9796
MultiSource/Benchmarks/VersaBench/8b10b/8b10b, 3.6112, 3.6104, 3.5983,3.6104, 3.6071, 3.5939, 3.6109,3.6071
MultiSource/Benchmarks/VersaBench/beamformer/beamformer, 0.7488, 0.7486, 0.7488,0.7488, 0.7488, 0.7486, 0.7487,0.7487
MultiSource/Benchmarks/VersaBench/bmm/bmm, 1.6459, 1.6460, 1.6460,1.646, 1.6459, 1.6460, 1.6460,1.646
MultiSource/Benchmarks/VersaBench/dbms/dbms, 0.8978, 0.8846, 0.8932,0.8932, 0.8966, 0.8979, 0.8881,0.8966
MultiSource/Benchmarks/VersaBench/ecbdes/ecbdes, 1.6932, 1.6931, 1.6932,1.6932, 1.6931, 1.6932, 1.6932,1.6932
MultiSource/Benchmarks/llubenchmark/llu, 4.1375, 4.2281, 4.2383,4.2281, 4.1191, 4.1324, 4.1250,4.125
MultiSource/Benchmarks/mafft/pairlocalalign,24.7201,24.7199,24.7193,24.7199,24.7193,24.7203,24.7193,24.7193
MultiSource/Benchmarks/mediabench/adpcm/rawcaudio/rawcaudio, 0.0099, 0.0104, 0.0106,0.0104, 0.0124, 0.0125, 0.0057,0.0124
MultiSource/Benchmarks/mediabench/adpcm/rawdaudio/rawdaudio, 0.0016, 0.0016, 0.0016,0.0016, 0.0017, 0.0016, 0.0106,0.0017
MultiSource/Benchmarks/mediabench/g721/g721encode/encode, 0.0296, 0.0296, 0.0296,0.0296, 0.0296, 0.0296, 0.0297,0.0296
MultiSource/Benchmarks/mediabench/gsm/toast/toast, 0.0133, 0.0133, 0.0131,0.0133, 0.0131, 0.0131, 0.0132,0.0131
MultiSource/Benchmarks/mediabench/jpeg/jpeg-6a/cjpeg, 0.0034, 0.0032, 0.0034,0.0034, 0.0034, 0.0033, 0.0030,0.0033
MultiSource/Benchmarks/mediabench/mpeg2/mpeg2dec/mpeg2decode, 0.0130, 0.0130, 0.0130,0.013, 0.0130, 0.0130, 0.0130,0.013
MultiSource/Benchmarks/nbench/nbench, 1.2716, 1.2718, 1.2719,1.2718, 1.2720, 1.2718, 1.2731,1.272
MultiSource/Benchmarks/sim/sim, 2.6302, 2.6317, 2.6302,2.6302, 2.6316, 2.6306, 2.6316,2.6316
MultiSource/Benchmarks/tramp3d-v4/tramp3d-v4, 0.2396, 0.2397, 0.2394,0.2396, 0.2398, 0.2397, 0.2402,0.2398
SingleSource/Benchmarks/Adobe-C++/functionobjects, 3.0365, 3.0365, 3.0379,3.0365, 3.0362, 3.0373, 3.0370,3.037
SingleSource/Benchmarks/Adobe-C++/loop_unroll, 1.7731, 1.7787, 1.7714,1.7731, 1.7749, 1.7738, 1.7780,1.7749
SingleSource/Benchmarks/Adobe-C++/simple_types_constant_folding, 0.6645, 0.6645, 0.6651,0.6645, 0.6646, 0.6645, 0.6647,0.6646
SingleSource/Benchmarks/Adobe-C++/simple_types_loop_invariant, 1.5947, 1.5944, 1.5937,1.5944, 1.5942, 1.5945, 1.5942,1.5942
SingleSource/Benchmarks/Adobe-C++/stepanov_abstraction, 4.2400, 4.2394, 4.2401,4.24, 4.2401, 4.2401, 4.2393,4.2401
SingleSource/Benchmarks/Adobe-C++/stepanov_vector, 2.2493, 2.2493, 2.2498,2.2493, 2.2489, 2.2496, 2.2506,2.2496
SingleSource/Benchmarks/BenchmarkGame/Large/fasta, 0.6493, 0.6445, 0.6497,0.6493, 0.6445, 0.6476, 0.6477,0.6476
SingleSource/Benchmarks/BenchmarkGame/fannkuch, 2.0915, 2.0920, 2.0888,2.0915, 2.0888, 2.0882, 2.0897,2.0888
SingleSource/Benchmarks/BenchmarkGame/n-body, 1.3732, 1.3732, 1.3732,1.3732, 1.3732, 1.3732, 1.3732,1.3732
SingleSource/Benchmarks/BenchmarkGame/nsieve-bits, 0.4821, 0.4830, 0.4853,0.483, 0.4844, 0.4846, 0.4902,0.4846
SingleSource/Benchmarks/BenchmarkGame/partialsums, 0.5685, 0.5685, 0.5685,0.5685, 0.5685, 0.5685, 0.5685,0.5685
SingleSource/Benchmarks/BenchmarkGame/puzzle, 0.1294, 0.1290, 0.1292,0.1292, 0.1293, 0.1293, 0.1290,0.1293
SingleSource/Benchmarks/BenchmarkGame/recursive, 0.7066, 0.7040, 0.7148,0.7066, 0.7042, 0.7042, 0.7074,0.7042
SingleSource/Benchmarks/BenchmarkGame/spectral-norm, 0.9768, 0.9768, 0.9768,0.9768, 0.9768, 0.9768, 0.9768,0.9768
SingleSource/Benchmarks/CoyoteBench/almabench,12.6314,12.6494,12.6322,12.6322,12.6427,12.6332,12.6321,12.6332
SingleSource/Benchmarks/CoyoteBench/fftbench, 0.6369, 0.6352, 0.6392,0.6369, 0.6353, 0.6385, 0.6707,0.6385
SingleSource/Benchmarks/CoyoteBench/huffbench, 9.0066, 9.0061, 9.0065,9.0065, 9.0068, 9.0126, 9.0078,9.0078
SingleSource/Benchmarks/CoyoteBench/lpbench, 1.8237, 1.8175, 1.8208,1.8208, 1.8196, 1.8208, 1.8177,1.8196
SingleSource/Benchmarks/Dhrystone/dry, 0.3046, 0.3046, 0.3046,0.3046, 0.3046, 0.3046, 0.3046,0.3046
SingleSource/Benchmarks/Dhrystone/fldry, 0.3654, 0.3654, 0.3654,0.3654, 0.3654, 0.3654, 0.3654,0.3654
SingleSource/Benchmarks/Linpack/linpack-pc, 1.2396, 1.2419, 1.2418,1.2418, 1.2415, 1.2405, 1.2414,1.2414
SingleSource/Benchmarks/McGill/chomp, 1.3021, 1.3043, 1.3036,1.3036, 1.3006, 1.2963, 1.3025,1.3006
SingleSource/Benchmarks/McGill/misr, 0.1013, 0.1013, 0.1013,0.1013, 0.1013, 0.1013, 0.1013,0.1013
SingleSource/Benchmarks/McGill/queens, 1.7517, 1.7517, 1.7516,1.7517, 1.7515, 1.7511, 1.7518,1.7515
SingleSource/Benchmarks/Misc-C++-EH/spirit, 2.6485, 2.6495, 2.6498,2.6495, 2.6489, 2.6492, 2.6487,2.6489
SingleSource/Benchmarks/Misc-C++/Large/ray, 3.1398, 3.1474, 3.1400,3.14, 3.1398, 3.1399, 3.1400,3.1399
SingleSource/Benchmarks/Misc-C++/Large/sphereflake, 5.6072, 5.6072, 5.6075,5.6072, 5.6075, 5.6074, 5.6075,5.6075
SingleSource/Benchmarks/Misc-C++/bigfib, 0.1909, 0.1910, 0.1910,0.191, 0.1914, 0.1912, 0.1911,0.1912
SingleSource/Benchmarks/Misc-C++/mandel-text, 1.6106, 1.6137, 1.6108,1.6108, 1.6095, 1.6090, 1.6114,1.6095
SingleSource/Benchmarks/Misc-C++/oopack_v1p8, 0.1619, 0.1619, 0.1619,0.1619, 0.1619, 0.1619, 0.1619,0.1619
SingleSource/Benchmarks/Misc-C++/stepanov_container, 3.1119, 3.1027, 2.8809,3.1027, 3.0941, 3.1082, 3.0914,3.0941
SingleSource/Benchmarks/Misc-C++/stepanov_v1p2, 7.9035, 7.9036, 7.9039,7.9036, 7.9037, 7.9036, 7.9040,7.9037
SingleSource/Benchmarks/Misc/ReedSolomon, 3.1537, 3.1537, 3.1536,3.1537, 3.1544, 3.1537, 3.1539,3.1539
SingleSource/Benchmarks/Misc/dt, 0.6668, 0.6668, 0.6668,0.6668, 0.6668, 0.6668, 0.6668,0.6668
SingleSource/Benchmarks/Misc/evalloop, 0.3685, 0.3678, 0.3673,0.3678, 0.3687, 0.3679, 0.3679,0.3679
SingleSource/Benchmarks/Misc/fbench, 1.7135, 1.7135, 1.7136,1.7135, 1.7135, 1.7135, 1.7136,1.7135
SingleSource/Benchmarks/Misc/ffbench, 0.5824, 0.5832, 0.5861,0.5832, 0.5855, 0.5835, 0.5873,0.5855
SingleSource/Benchmarks/Misc/flops,10.6415,10.5631,10.6728,10.6415,10.6439,10.6679,10.6698,10.6679
SingleSource/Benchmarks/Misc/flops-1, 3.5821, 3.5823, 3.5820,3.5821, 3.5823, 3.5827, 3.5817,3.5823
SingleSource/Benchmarks/Misc/flops-2, 0.8625, 0.8625, 0.8625,0.8625, 0.8625, 0.8625, 0.8625,0.8625
SingleSource/Benchmarks/Misc/flops-3, 5.4130, 5.5079, 5.4131,5.4131, 5.4130, 5.5080, 5.4132,5.4132
SingleSource/Benchmarks/Misc/flops-4, 2.3270, 2.3271, 2.3272,2.3271, 2.3271, 2.3271, 2.3272,2.3271
SingleSource/Benchmarks/Misc/flops-5, 4.2756, 4.2756, 4.2746,4.2756, 4.2756, 4.2756, 4.3233,4.2756
SingleSource/Benchmarks/Misc/flops-6, 3.4194, 3.4194, 3.4195,3.4194, 3.4194, 3.4418, 3.3721,3.4194
SingleSource/Benchmarks/Misc/flops-7, 1.5900, 1.5900, 1.5900,1.59, 1.5900, 1.5900, 1.5900,1.59
SingleSource/Benchmarks/Misc/flops-8, 2.8968, 2.8968, 2.8968,2.8968, 2.8968, 2.8968, 2.8494,2.8968
SingleSource/Benchmarks/Misc/fp-convert, 2.6301, 2.6301, 2.6302,2.6301, 2.6302, 2.6302, 2.6303,2.6302
SingleSource/Benchmarks/Misc/himenobmtxpa, 0.5217, 0.5208, 0.5227,0.5217, 0.5260, 0.5214, 0.5236,0.5236
SingleSource/Benchmarks/Misc/lowercase, 0.0007, 0.0007, 0.0007,0.0007, 0.0007, 0.0007, 0.0007,0.0007
SingleSource/Benchmarks/Misc/mandel, 0.8337, 0.8336, 0.8336,0.8336, 0.8336, 0.8336, 0.8337,0.8336
SingleSource/Benchmarks/Misc/mandel-2, 1.2779, 1.2779, 1.2779,1.2779, 1.2779, 1.2779, 1.2779,1.2779
SingleSource/Benchmarks/Misc/matmul_f64_4x4, 1.2951, 1.2951, 1.2951,1.2951, 1.2951, 1.2951, 1.2952,1.2951
SingleSource/Benchmarks/Misc/oourafft, 6.0195, 6.0170, 6.0176,6.0176, 6.0200, 6.0177, 6.0179,6.0179
SingleSource/Benchmarks/Misc/perlin, 3.8807, 3.8805, 3.8807,3.8807, 3.8801, 3.8808, 3.8808,3.8808
SingleSource/Benchmarks/Misc/pi, 0.6941, 0.6941, 0.6942,0.6941, 0.6942, 0.6941, 0.6942,0.6942
SingleSource/Benchmarks/Misc/revertBits, 0.3294, 0.3294, 0.3294,0.3294, 0.3294, 0.3294, 0.3294,0.3294
SingleSource/Benchmarks/Misc/richards_benchmark, 0.4971, 0.4976, 0.4975,0.4975, 0.4976, 0.4973, 0.4973,0.4973
SingleSource/Benchmarks/Misc/salsa20, 4.6180, 4.6181, 4.6178,4.618, 4.6178, 4.1613, 4.6183,4.6178
SingleSource/Benchmarks/Misc/whetstone, 1.0197, 1.0274, 1.0198,1.0198, 1.0249, 1.0197, 1.0274,1.0249
SingleSource/Benchmarks/Polybench/datamining/correlation/correlation, 1.6624, 1.6591, 1.6642,1.6624, 1.6630, 1.6621, 1.6644,1.663
SingleSource/Benchmarks/Polybench/datamining/covariance/covariance, 1.6548, 1.6560, 1.6527,1.6548, 1.6520, 1.6491, 1.6496,1.6496
SingleSource/Benchmarks/Polybench/linear-algebra/kernels/atax/atax, 0.1701, 0.1703, 0.1701,0.1701, 0.1703, 0.1704, 0.1703,0.1703
SingleSource/Benchmarks/Polybench/linear-algebra/kernels/bicg/bicg, 0.2125, 0.2125, 0.2125,0.2125, 0.2125, 0.2124, 0.2125,0.2125
SingleSource/Benchmarks/Polybench/linear-algebra/kernels/cholesky/cholesky, 0.4579, 0.4606, 0.4564,0.4579, 0.4605, 0.4600, 0.4583,0.46
SingleSource/Benchmarks/Polybench/linear-algebra/kernels/doitgen/doitgen, 0.7805, 0.7881, 0.7844,0.7844, 0.7807, 0.7863, 0.7903,0.7863
SingleSource/Benchmarks/Polybench/linear-algebra/kernels/gemver/gemver, 0.3171, 0.3266, 0.3260,0.326, 0.3173, 0.3217, 0.3213,0.3213
SingleSource/Benchmarks/Polybench/linear-algebra/kernels/gesummv/gesummv, 0.3064, 0.3064, 0.3015,0.3064, 0.3016, 0.3064, 0.3015,0.3016
SingleSource/Benchmarks/Polybench/linear-algebra/kernels/mvt/mvt, 0.2482, 0.2482, 0.2434,0.2482, 0.2480, 0.2481, 0.2481,0.2481
SingleSource/Benchmarks/Polybench/linear-algebra/kernels/symm/symm,16.4661,16.2852,16.5523,16.4661,16.4425,16.2226,16.4693,16.4425
SingleSource/Benchmarks/Polybench/linear-algebra/kernels/syr2k/syr2k, 9.1873, 9.1504, 9.1851,9.1851, 9.1855, 9.1860, 8.9140,9.1855
SingleSource/Benchmarks/Polybench/linear-algebra/kernels/syrk/syrk, 4.6330, 4.6346, 4.3786,4.633, 4.3779, 4.3771, 4.6340,4.3779
SingleSource/Benchmarks/Polybench/linear-algebra/kernels/trisolv/trisolv, 0.1638, 0.1638, 0.1639,0.1638, 0.1735, 0.1639, 0.1638,0.1639
SingleSource/Benchmarks/Polybench/linear-algebra/kernels/trmm/trmm, 2.3609, 2.3602, 2.3624,2.3609, 2.3473, 2.3617, 2.2345,2.3473
SingleSource/Benchmarks/Polybench/linear-algebra/solvers/durbin/durbin, 0.4067, 0.4068, 0.4071,0.4068, 0.4069, 0.4074, 0.4070,0.407
SingleSource/Benchmarks/Polybench/linear-algebra/solvers/dynprog/dynprog, 0.2808, 0.2805, 0.2806,0.2806, 0.2818, 0.2813, 0.2811,0.2813
SingleSource/Benchmarks/Polybench/linear-algebra/solvers/gramschmidt/gramschmidt, 1.6479, 1.6482, 1.6329,1.6479, 1.6157, 1.5634, 1.6486,1.6157
SingleSource/Benchmarks/Polybench/linear-algebra/solvers/lu/lu, 0.0021, 0.0021, 0.0021,0.0021, 0.0021, 0.0021, 0.0021,0.0021
SingleSource/Benchmarks/Polybench/medley/floyd-warshall/floyd-warshall, 5.9735, 5.9747, 5.9735,5.9735, 5.9735, 5.9755, 5.9780,5.9755
SingleSource/Benchmarks/Polybench/medley/reg_detect/reg_detect, 0.0155, 0.0155, 0.0155,0.0155, 0.0155, 0.0155, 0.0155,0.0155
SingleSource/Benchmarks/Polybench/stencils/adi/adi, 2.8035, 2.8054, 2.8054,2.8054, 2.8039, 2.8038, 2.8035,2.8038
SingleSource/Benchmarks/Polybench/stencils/fdtd-2d/fdtd-2d, 0.4123, 0.4090, 0.4053,0.409, 0.4098, 0.4099, 0.4060,0.4098
SingleSource/Benchmarks/Polybench/stencils/fdtd-apml/fdtd-apml, 0.7222, 0.7234, 0.7216,0.7222, 0.7233, 0.7249, 0.7250,0.7249
SingleSource/Benchmarks/Polybench/stencils/jacobi-1d-imper/jacobi-1d-imper, 0.0036, 0.0036, 0.0036,0.0036, 0.0036, 0.0036, 0.0036,0.0036
SingleSource/Benchmarks/Polybench/stencils/jacobi-2d-imper/jacobi-2d-imper, 0.1495, 0.1491, 0.1491,0.1491, 0.1493, 0.1480, 0.1498,0.1493
SingleSource/Benchmarks/Polybench/stencils/seidel-2d/seidel-2d, 0.6587, 0.6593, 0.6593,0.6593, 0.6593, 0.6593, 0.6593,0.6593
SingleSource/Benchmarks/Shootout-C++/EH/except, 0.1203, 0.1207, 0.1201,0.1203, 0.1202, 0.1202, 0.1208,0.1202
SingleSource/Benchmarks/Shootout-C++/ackermann, 0.6571, 0.6571, 0.6573,0.6571, 0.6572, 0.6570, 0.6571,0.6571
SingleSource/Benchmarks/Shootout-C++/ary, 0.0141, 0.0142, 0.0141,0.0141, 0.0141, 0.0141, 0.0141,0.0141
SingleSource/Benchmarks/Shootout-C++/ary2, 0.0149, 0.0149, 0.0149,0.0149, 0.0149, 0.0149, 0.0149,0.0149
SingleSource/Benchmarks/Shootout-C++/ary3, 0.5425, 0.5353, 0.5421,0.5421, 0.5333, 0.5382, 0.5388,0.5382
SingleSource/Benchmarks/Shootout-C++/fibo, 1.4773, 1.4777, 1.4782,1.4777, 1.4776, 1.4776, 1.4765,1.4776
SingleSource/Benchmarks/Shootout-C++/hash, 0.3065, 0.3072, 0.3064,0.3065, 0.3077, 0.3075, 0.3065,0.3075
SingleSource/Benchmarks/Shootout-C++/hash2, 1.7273, 1.7246, 1.7270,1.727, 1.7272, 1.7258, 1.7249,1.7258
SingleSource/Benchmarks/Shootout-C++/heapsort, 2.0269, 2.0270, 2.0281,2.027, 2.0266, 2.0260, 2.0287,2.0266
SingleSource/Benchmarks/Shootout-C++/lists, 2.9706, 2.9646, 2.9705,2.9705, 2.9485, 2.9669, 2.9512,2.9512
SingleSource/Benchmarks/Shootout-C++/lists1, 0.1326, 0.1341, 0.1322,0.1326, 0.1323, 0.1331, 0.1323,0.1323
SingleSource/Benchmarks/Shootout-C++/matrix, 1.1247, 1.1246, 1.1248,1.1247, 1.1243, 1.1261, 1.1516,1.1261
SingleSource/Benchmarks/Shootout-C++/methcall, 3.4496, 3.4496, 3.4548,3.4496, 3.4496, 3.4496, 3.4497,3.4496
SingleSource/Benchmarks/Shootout-C++/moments, 0.0441, 0.0441, 0.0442,0.0441, 0.0441, 0.0441, 0.0441,0.0441
SingleSource/Benchmarks/Shootout-C++/nestedloop, 0.0008, 0.0008, 0.0008,0.0008, 0.0008, 0.0008, 0.0008,0.0008
SingleSource/Benchmarks/Shootout-C++/objinst, 0.0008, 0.0008, 0.0008,0.0008, 0.0008, 0.0008, 0.0008,0.0008
SingleSource/Benchmarks/Shootout-C++/random, 1.7448, 1.7448, 1.7448,1.7448, 1.7448, 1.7448, 1.7449,1.7448
SingleSource/Benchmarks/Shootout-C++/sieve, 1.3190, 1.4034, 1.3359,1.3359, 1.2937, 1.3694, 1.2924,1.2937
SingleSource/Benchmarks/Shootout-C++/strcat, 0.0405, 0.0405, 0.0405,0.0405, 0.0406, 0.0405, 0.0405,0.0405
SingleSource/Benchmarks/Shootout/ackermann, 0.0033, 0.0033, 0.0033,0.0033, 0.0033, 0.0033, 0.0033,0.0033
SingleSource/Benchmarks/Shootout/ary3, 0.5908, 0.6086, 0.5945,0.5945, 0.5978, 0.5930, 0.5900,0.593
SingleSource/Benchmarks/Shootout/fib2, 1.4772, 1.4773, 1.4759,1.4772, 1.4771, 1.4787, 1.4782,1.4782
SingleSource/Benchmarks/Shootout/hash, 2.7479, 2.7636, 2.7492,2.7492, 2.7586, 2.7493, 2.7492,2.7493
SingleSource/Benchmarks/Shootout/heapsort, 2.0378, 2.0372, 2.0400,2.0378, 2.0370, 2.0378, 2.0348,2.037
SingleSource/Benchmarks/Shootout/lists, 4.0805, 4.0816, 4.0799,4.0805, 4.0817, 4.0818, 4.0827,4.0818
SingleSource/Benchmarks/Shootout/matrix, 1.0572, 1.0580, 1.0570,1.0572, 1.0573, 1.0571, 1.0573,1.0573
SingleSource/Benchmarks/Shootout/methcall, 3.2760, 3.2763, 3.2760,3.276, 3.2759, 3.2757, 3.2759,3.2759
SingleSource/Benchmarks/Shootout/nestedloop, 0.0007, 0.0007, 0.0007,0.0007, 0.0007, 0.0007, 0.0007,0.0007
SingleSource/Benchmarks/Shootout/objinst, 0.0007, 0.0007, 0.0007,0.0007, 0.0007, 0.0007, 0.0007,0.0007
SingleSource/Benchmarks/Shootout/random, 1.7447, 1.7447, 1.7447,1.7447, 1.7447, 1.7447, 1.7448,1.7447
SingleSource/Benchmarks/Shootout/sieve, 3.4677, 3.4682, 3.4713,3.4682, 3.4687, 3.4680, 3.4668,3.468
SingleSource/Benchmarks/Shootout/strcat, 0.1050, 0.1052, 0.1051,0.1051, 0.1050, 0.1052, 0.1051,0.1051
SingleSource/Benchmarks/SmallPT/smallpt, 7.5489, 7.5540, 7.5529,7.5529, 7.5470, 7.5463, 7.5602,7.547
SingleSource/Benchmarks/Stanford/Bubblesort, 0.0157, 0.0158, 0.0157,0.0157, 0.0157, 0.0157, 0.0158,0.0157
SingleSource/Benchmarks/Stanford/FloatMM, 0.2011, 0.2011, 0.2012,0.2011, 0.2011, 0.2012, 0.2011,0.2011
SingleSource/Benchmarks/Stanford/Oscar, 0.0024, 0.0024, 0.0024,0.0024, 0.0024, 0.0024, 0.0024,0.0024
SingleSource/Benchmarks/Stanford/Perm, 0.0145, 0.0146, 0.0145,0.0145, 0.0145, 0.0145, 0.0145,0.0145
SingleSource/Benchmarks/Stanford/Puzzle, 0.0793, 0.0794, 0.0793,0.0793, 0.0793, 0.0794, 0.0794,0.0794
SingleSource/Benchmarks/Stanford/Queens, 0.0072, 0.0072, 0.0072,0.0072, 0.0072, 0.0072, 0.0072,0.0072
SingleSource/Benchmarks/Stanford/Quicksort, 0.0302, 0.0302, 0.0302,0.0302, 0.0301, 0.0302, 0.0301,0.0301
SingleSource/Benchmarks/Stanford/RealMM, 0.0014, 0.0014, 0.0014,0.0014, 0.0014, 0.0014, 0.0014,0.0014
SingleSource/Benchmarks/Stanford/Towers, 0.0083, 0.0083, 0.0083,0.0083, 0.0083, 0.0083, 0.0083,0.0083
SingleSource/Benchmarks/Stanford/Treesort, 0.0545, 0.0547, 0.0545,0.0545, 0.0545, 0.0545, 0.0545,0.0545
SingleSource/Regression/C/2004-08-12-InlinerAndAllocas, 0.0013, 0.0013, 0.0013,0.0013, 0.0013, 0.0013, 0.0013,0.0013
SingleSource/Regression/C/uint64_to_float, 0.2465, 0.2465, 0.2465,0.2465, 0.2465, 0.2464, 0.2465,0.2465
Total elapsed time,-,-,-,588.5510000000005,-,-,-,587.9138000000003
Total failure,-,-,-,0,-,-,-,0
