Benchmarks,/mnt/freezedisk/llvm-intptr-base-5.0-release/bin/clang,/mnt/freezedisk/llvm-intptr-base-5.0-release/bin/clang,/mnt/freezedisk/llvm-intptr-base-5.0-release/bin/clang,median,/mnt/freezedisk/llvm-intptr-insts-opt-5.0-release/bin/clang,/mnt/freezedisk/llvm-intptr-insts-opt-5.0-release/bin/clang,/mnt/freezedisk/llvm-intptr-insts-opt-5.0-release/bin/clang,median
MultiSource/Applications/ALAC/decode/alacconvert-decode, 0.0130, 0.0130, 0.0130,0.013, 0.0130, 0.0130, 0.0130,0.013
MultiSource/Applications/ALAC/encode/alacconvert-encode, 0.0265, 0.0265, 0.0265,0.0265, 0.0265, 0.0265, 0.0265,0.0265
MultiSource/Applications/ClamAV/clamscan, 0.1527, 0.2020, 0.1822,0.1822, 0.1846, 0.1716, 0.1718,0.1718
MultiSource/Applications/JM/ldecod/ldecod, 0.0361, 0.0363, 0.0361,0.0361, 0.0360, 0.0358, 0.0358,0.0358
MultiSource/Applications/JM/lencod/lencod, 3.1663, 3.1622, 3.1617,3.1622, 3.1507, 3.1635, 3.1631,3.1631
MultiSource/Applications/SIBsim4/SIBsim4, 2.1090, 2.1011, 2.0918,2.1011, 2.1276, 2.0601, 2.0653,2.0653
MultiSource/Applications/SPASS/SPASS, 6.2063, 6.6601, 6.3239,6.3239, 6.6854, 6.6670, 6.6618,6.667
MultiSource/Applications/aha/aha, 1.0373, 1.0371, 1.0377,1.0373, 1.0368, 1.0364, 1.0376,1.0368
MultiSource/Applications/d/make_dparser, 0.0158, 0.0158, 0.0158,0.0158, 0.0158, 0.0156, 0.0158,0.0158
MultiSource/Applications/hbd/hbd, 0.0018, 0.0017, 0.0017,0.0017, 0.0017, 0.0017, 0.0016,0.0017
MultiSource/Applications/hexxagon/hexxagon, 7.0582, 7.0583, 7.0585,7.0583, 7.0581, 7.0578, 7.0629,7.0581
MultiSource/Applications/kimwitu++/kc, 0.0282, 0.0281, 0.0281,0.0281, 0.0283, 0.0281, 0.0281,0.0281
MultiSource/Applications/lambda-0.1.3/lambda, 2.6398, 2.6485, 2.6596,2.6485, 2.6982, 2.7007, 2.7003,2.7003
MultiSource/Applications/lua/lua,11.1149,11.0874,11.1027,11.1027,11.2062,11.2093,11.2024,11.2062
MultiSource/Applications/minisat/minisat, 4.1172, 3.9614, 4.1554,4.1172, 4.2049, 4.1543, 4.2232,4.2049
MultiSource/Applications/obsequi/Obsequi, 1.0943, 1.0935, 1.0935,1.0935, 1.0925, 1.0932, 1.0924,1.0925
MultiSource/Applications/oggenc/oggenc, 0.0764, 0.0764, 0.0764,0.0764, 0.0763, 0.0763, 0.0764,0.0763
MultiSource/Applications/sgefa/sgefa, 0.1526, 0.1526, 0.1526,0.1526, 0.1526, 0.1526, 0.1526,0.1526
MultiSource/Applications/siod/siod, 1.1307, 1.1325, 1.1321,1.1321, 1.4862, 1.0935, 1.0939,1.0939
MultiSource/Applications/spiff/spiff, 1.2845, 1.2805, 1.2817,1.2817, 1.2747, 1.2737, 1.2735,1.2737
MultiSource/Applications/sqlite3/sqlite3, 1.7780, 1.7811, 1.7754,1.778, 1.7731, 1.7728, 1.7951,1.7731
MultiSource/Applications/viterbi/viterbi, 1.2781, 1.2776, 1.2783,1.2781, 1.2833, 1.2855, 1.2848,1.2848
MultiSource/Benchmarks/7zip/7zip-benchmark, 6.3323, 6.3313, 6.3309,6.3313, 6.3641, 6.3644, 6.3652,6.3644
MultiSource/Benchmarks/ASCI_Purple/SMG2000/smg2000, 1.1664, 1.1696, 1.1669,1.1669, 1.1677, 1.1675, 1.1646,1.1675
MultiSource/Benchmarks/ASC_Sequoia/AMGmk/AMGmk, 4.9884, 5.0004, 4.9982,4.9982, 4.9785, 4.9960, 4.9955,4.9955
MultiSource/Benchmarks/ASC_Sequoia/CrystalMk/CrystalMk, 7.2733, 7.2732, 7.2731,7.2732, 7.2730, 7.2732, 7.2733,7.2732
MultiSource/Benchmarks/ASC_Sequoia/IRSmk/IRSmk, 2.9897, 2.9978, 3.0031,2.9978, 3.0100, 3.0299, 2.9911,3.01
MultiSource/Benchmarks/BitBench/drop3/drop3, 0.1784, 0.1856, 0.1818,0.1818, 0.1848, 0.1877, 0.1870,0.187
MultiSource/Benchmarks/BitBench/five11/five11, 1.1100, 1.1100, 1.1110,1.11, 1.1084, 1.1282, 1.1077,1.1084
MultiSource/Benchmarks/BitBench/uudecode/uudecode, 0.0595, 0.0596, 0.0596,0.0596, 0.0596, 0.0596, 0.0596,0.0596
MultiSource/Benchmarks/BitBench/uuencode/uuencode, 0.0104, 0.0105, 0.0104,0.0104, 0.0104, 0.0105, 0.0104,0.0104
MultiSource/Benchmarks/Bullet/bullet, 3.2502, 3.2491, 3.2454,3.2491, 3.3324, 3.3299, 3.3234,3.3299
MultiSource/Benchmarks/DOE-ProxyApps-C++/CLAMR/CLAMR, 1.1202, 1.1202, 1.1201,1.1202, 1.1201, 1.1201, 1.1201,1.1201
MultiSource/Benchmarks/DOE-ProxyApps-C++/HPCCG/HPCCG, 0.9021, 0.9005, 0.8995,0.9005, 0.9043, 0.9043, 0.9042,0.9043
MultiSource/Benchmarks/DOE-ProxyApps-C++/PENNANT/PENNANT, 0.3697, 0.3698, 0.3696,0.3697, 0.3696, 0.3700, 0.3694,0.3696
MultiSource/Benchmarks/DOE-ProxyApps-C++/miniFE/miniFE, 2.4659, 2.4619, 2.4673,2.4659, 2.4622, 2.4548, 2.4603,2.4603
MultiSource/Benchmarks/DOE-ProxyApps-C/Pathfinder/PathFinder, 2.0973, 2.1028, 2.0949,2.0973, 2.0644, 2.0699, 2.0653,2.0653
MultiSource/Benchmarks/DOE-ProxyApps-C/RSBench/rsbench, 0.5767, 0.5773, 0.5788,0.5773, 0.5744, 0.5846, 0.5787,0.5787
MultiSource/Benchmarks/DOE-ProxyApps-C/SimpleMOC/SimpleMOC, 3.7957, 3.7806, 3.7866,3.7866, 3.7856, 3.7915, 3.7882,3.7882
MultiSource/Benchmarks/DOE-ProxyApps-C/XSBench/XSBench, 2.4328, 2.4420, 2.4411,2.4411, 2.4354, 2.4409, 2.4368,2.4368
MultiSource/Benchmarks/DOE-ProxyApps-C/miniAMR/miniAMR, 0.7731, 0.7720, 0.7710,0.772, 0.7714, 0.7717, 0.7724,0.7717
MultiSource/Benchmarks/DOE-ProxyApps-C/miniGMG/miniGMG, 5.2020, 5.2021, 5.2014,5.202, 5.2019, 5.2024, 5.2025,5.2024
MultiSource/Benchmarks/Fhourstones-3.1/fhourstones3.1, 0.7712, 0.7713, 0.7714,0.7713, 0.7717, 0.7718, 0.7718,0.7718
MultiSource/Benchmarks/Fhourstones/fhourstones, 0.5836, 0.5675, 0.5610,0.5675, 0.5772, 0.5849, 0.5706,0.5772
MultiSource/Benchmarks/FreeBench/analyzer/analyzer, 0.0404, 0.0401, 0.0403,0.0403, 0.0404, 0.0401, 0.0398,0.0401
MultiSource/Benchmarks/FreeBench/distray/distray, 0.1346, 0.1346, 0.1345,0.1346, 0.1345, 0.1345, 0.1346,0.1345
MultiSource/Benchmarks/FreeBench/fourinarow/fourinarow, 0.1756, 0.1756, 0.1756,0.1756, 0.1756, 0.1756, 0.1756,0.1756
MultiSource/Benchmarks/FreeBench/mason/mason, 0.1305, 0.1305, 0.1304,0.1305, 0.1302, 0.1302, 0.1303,0.1302
MultiSource/Benchmarks/FreeBench/neural/neural, 0.1153, 0.1153, 0.1153,0.1153, 0.1152, 0.1153, 0.1152,0.1152
MultiSource/Benchmarks/FreeBench/pcompress2/pcompress2, 0.1052, 0.1052, 0.1052,0.1052, 0.1052, 0.1052, 0.1052,0.1052
MultiSource/Benchmarks/FreeBench/pifft/pifft, 0.0650, 0.0652, 0.0650,0.065, 0.0652, 0.0652, 0.0652,0.0652
MultiSource/Benchmarks/MallocBench/cfrac/cfrac, 0.7592, 0.7591, 0.7593,0.7592, 0.7616, 0.7618, 0.7621,0.7618
MultiSource/Benchmarks/MallocBench/espresso/espresso, 0.3012, 0.2986, 0.2983,0.2986, 0.2982, 0.2981, 0.2984,0.2982
MultiSource/Benchmarks/MallocBench/gs/gs, 0.0275, 0.0274, 0.0276,0.0275, 0.0274, 0.0274, 0.0274,0.0274
MultiSource/Benchmarks/McCat/01-qbsort/qbsort, 0.0391, 0.0391, 0.0391,0.0391, 0.0391, 0.0390, 0.0391,0.0391
MultiSource/Benchmarks/McCat/03-testtrie/testtrie, 0.0063, 0.0061, 0.0062,0.0062, 0.0063, 0.0063, 0.0062,0.0063
MultiSource/Benchmarks/McCat/04-bisect/bisect, 0.0748, 0.0749, 0.0749,0.0749, 0.0748, 0.0748, 0.0748,0.0748
MultiSource/Benchmarks/McCat/05-eks/eks, 0.0034, 0.0034, 0.0034,0.0034, 0.0034, 0.0034, 0.0034,0.0034
MultiSource/Benchmarks/McCat/08-main/main, 0.0426, 0.0427, 0.0427,0.0427, 0.0426, 0.0427, 0.0427,0.0427
MultiSource/Benchmarks/McCat/09-vor/vor, 0.0828, 0.0828, 0.0830,0.0828, 0.0830, 0.0831, 0.0835,0.0831
MultiSource/Benchmarks/McCat/12-IOtest/iotest, 0.2143, 0.2145, 0.2146,0.2145, 0.2143, 0.2156, 0.2153,0.2153
MultiSource/Benchmarks/McCat/17-bintr/bintr, 0.0817, 0.0794, 0.0809,0.0809, 0.0816, 0.0820, 0.0811,0.0816
MultiSource/Benchmarks/McCat/18-imp/imp, 0.0554, 0.0555, 0.0555,0.0555, 0.0554, 0.0555, 0.0554,0.0554
MultiSource/Benchmarks/MiBench/automotive-basicmath/automotive-basicmath, 0.2227, 0.2224, 0.2226,0.2226, 0.2224, 0.2224, 0.2225,0.2224
MultiSource/Benchmarks/MiBench/automotive-bitcount/automotive-bitcount, 0.0546, 0.0546, 0.0586,0.0546, 0.0546, 0.0624, 0.0546,0.0546
MultiSource/Benchmarks/MiBench/automotive-susan/automotive-susan, 0.0284, 0.0290, 0.0285,0.0285, 0.0283, 0.0284, 0.0284,0.0284
MultiSource/Benchmarks/MiBench/consumer-jpeg/consumer-jpeg, 0.0030, 0.0030, 0.0030,0.003, 0.0030, 0.0030, 0.0030,0.003
MultiSource/Benchmarks/MiBench/consumer-lame/consumer-lame, 0.1168, 0.1169, 0.1172,0.1169, 0.1170, 0.1170, 0.1169,0.117
MultiSource/Benchmarks/MiBench/consumer-typeset/consumer-typeset, 0.0843, 0.0839, 0.0840,0.084, 0.0821, 0.0822, 0.0822,0.0822
MultiSource/Benchmarks/MiBench/network-dijkstra/network-dijkstra, 0.0245, 0.0245, 0.0246,0.0245, 0.0245, 0.0245, 0.0246,0.0245
MultiSource/Benchmarks/MiBench/network-patricia/network-patricia, 0.0710, 0.0709, 0.0710,0.071, 0.0710, 0.0710, 0.0710,0.071
MultiSource/Benchmarks/MiBench/security-rijndael/security-rijndael, 0.0219, 0.0219, 0.0219,0.0219, 0.0219, 0.0218, 0.0218,0.0218
MultiSource/Benchmarks/MiBench/security-sha/security-sha, 0.0294, 0.0253, 0.0295,0.0294, 0.0340, 0.0333, 0.0272,0.0333
MultiSource/Benchmarks/MiBench/telecomm-CRC32/telecomm-CRC32, 0.2068, 0.2045, 0.2040,0.2045, 0.2052, 0.2055, 0.1993,0.2052
MultiSource/Benchmarks/MiBench/telecomm-FFT/telecomm-fft, 0.0382, 0.0381, 0.0381,0.0381, 0.0381, 0.0381, 0.0381,0.0381
MultiSource/Benchmarks/MiBench/telecomm-adpcm/telecomm-adpcm, 0.0803, 0.0745, 0.0819,0.0803, 0.0748, 0.0830, 0.0746,0.0748
MultiSource/Benchmarks/MiBench/telecomm-gsm/telecomm-gsm, 0.1048, 0.0999, 0.0999,0.0999, 0.1049, 0.0994, 0.1020,0.102
MultiSource/Benchmarks/NPB-serial/is/is, 5.0305, 5.0635, 5.0634,5.0634, 5.0221, 5.1448, 5.1445,5.1445
MultiSource/Benchmarks/Olden/bh/bh, 1.2799, 1.2789, 1.2771,1.2789, 1.3319, 1.3353, 1.3331,1.3331
MultiSource/Benchmarks/Olden/bisort/bisort, 0.3626, 0.3620, 0.3616,0.362, 0.3613, 0.3622, 0.3619,0.3619
MultiSource/Benchmarks/Olden/em3d/em3d, 1.7024, 1.7018, 1.7019,1.7019, 1.7017, 1.7018, 1.7019,1.7018
MultiSource/Benchmarks/Olden/health/health, 0.1434, 0.1435, 0.1435,0.1435, 0.1432, 0.1434, 0.1435,0.1434
MultiSource/Benchmarks/Olden/mst/mst, 0.0522, 0.0520, 0.0522,0.0522, 0.0517, 0.0518, 0.0518,0.0518
MultiSource/Benchmarks/Olden/perimeter/perimeter, 0.1217, 0.1220, 0.1219,0.1219, 0.1218, 0.1221, 0.1218,0.1218
MultiSource/Benchmarks/Olden/power/power, 1.0535, 1.0534, 1.0532,1.0534, 1.0534, 1.0535, 1.0533,1.0534
MultiSource/Benchmarks/Olden/treeadd/treeadd, 0.1264, 0.1266, 0.1264,0.1264, 0.1265, 0.1263, 0.1264,0.1264
MultiSource/Benchmarks/Olden/tsp/tsp, 1.1718, 1.1719, 1.1720,1.1719, 1.1723, 1.1722, 1.1722,1.1722
MultiSource/Benchmarks/Olden/voronoi/voronoi, 0.2137, 0.2136, 0.2133,0.2136, 0.2157, 0.2153, 0.2154,0.2154
MultiSource/Benchmarks/PAQ8p/paq8p,42.6637,42.6306,42.6766,42.6637,42.6397,42.6445,42.5975,42.6397
MultiSource/Benchmarks/Prolangs-C++/city/city, 0.0050, 0.0050, 0.0050,0.005, 0.0050, 0.0050, 0.0050,0.005
MultiSource/Benchmarks/Prolangs-C++/employ/employ, 0.0048, 0.0048, 0.0048,0.0048, 0.0048, 0.0048, 0.0048,0.0048
MultiSource/Benchmarks/Prolangs-C++/life/life, 0.7136, 0.7145, 0.7148,0.7145, 0.7165, 0.7149, 0.7161,0.7161
MultiSource/Benchmarks/Prolangs-C++/ocean/ocean, 0.0361, 0.0360, 0.0360,0.036, 0.0360, 0.0359, 0.0359,0.0359
MultiSource/Benchmarks/Prolangs-C++/primes/primes, 0.2125, 0.2125, 0.2144,0.2125, 0.2136, 0.2123, 0.2122,0.2123
MultiSource/Benchmarks/Prolangs-C++/simul/simul, 0.0038, 0.0038, 0.0038,0.0038, 0.0038, 0.0038, 0.0038,0.0038
MultiSource/Benchmarks/Prolangs-C/agrep/agrep, 0.0030, 0.0028, 0.0028,0.0028, 0.0030, 0.0029, 0.0028,0.0029
MultiSource/Benchmarks/Prolangs-C/bison/mybison, 0.0021, 0.0021, 0.0019,0.0021, 0.0019, 0.0019, 0.0019,0.0019
MultiSource/Benchmarks/Prolangs-C/gnugo/gnugo, 0.0251, 0.0252, 0.0252,0.0252, 0.0251, 0.0252, 0.0252,0.0252
MultiSource/Benchmarks/Ptrdist/anagram/anagram, 0.6001, 0.6001, 0.6002,0.6001, 0.6004, 0.6003, 0.6001,0.6003
MultiSource/Benchmarks/Ptrdist/bc/bc, 0.3640, 0.3634, 0.3636,0.3636, 0.3648, 0.3650, 0.3648,0.3648
MultiSource/Benchmarks/Ptrdist/ft/ft, 0.6431, 0.6290, 0.6041,0.629, 0.6655, 0.6482, 0.6113,0.6482
MultiSource/Benchmarks/Ptrdist/ks/ks, 0.6496, 0.6531, 0.6505,0.6505, 0.6564, 0.6530, 0.6561,0.6561
MultiSource/Benchmarks/Ptrdist/yacr2/yacr2, 0.5304, 0.5300, 0.5299,0.53, 0.5298, 0.5307, 0.5302,0.5302
MultiSource/Benchmarks/SciMark2-C/scimark2,42.0700,42.0691,42.0903,42.07,42.0943,42.0919,42.1046,42.0943
MultiSource/Benchmarks/TSVC/ControlFlow-dbl/ControlFlow-dbl, 3.7408, 3.7433, 3.7446,3.7433, 3.7430, 3.7428, 3.7430,3.743
MultiSource/Benchmarks/TSVC/ControlFlow-flt/ControlFlow-flt, 3.5461, 3.5591, 3.5630,3.5591, 3.5861, 3.5696, 3.5837,3.5837
MultiSource/Benchmarks/TSVC/ControlLoops-dbl/ControlLoops-dbl, 2.5416, 2.5407, 2.5405,2.5407, 2.5398, 2.5418, 2.5410,2.541
MultiSource/Benchmarks/TSVC/ControlLoops-flt/ControlLoops-flt, 2.3515, 2.3463, 2.3487,2.3487, 2.3496, 2.3455, 2.3512,2.3496
MultiSource/Benchmarks/TSVC/CrossingThresholds-dbl/CrossingThresholds-dbl, 2.1488, 2.1494, 2.1491,2.1491, 2.1493, 2.1497, 2.1491,2.1493
MultiSource/Benchmarks/TSVC/CrossingThresholds-flt/CrossingThresholds-flt, 1.6260, 1.6366, 1.6295,1.6295, 1.6324, 1.6135, 1.6257,1.6257
MultiSource/Benchmarks/TSVC/Equivalencing-dbl/Equivalencing-dbl, 1.3880, 1.3857, 1.3856,1.3857, 1.3853, 1.3868, 1.3869,1.3868
MultiSource/Benchmarks/TSVC/Equivalencing-flt/Equivalencing-flt, 0.9709, 0.9692, 0.9674,0.9692, 0.9677, 0.9708, 0.9674,0.9677
MultiSource/Benchmarks/TSVC/Expansion-dbl/Expansion-dbl, 1.9862, 1.9844, 1.9893,1.9862, 1.9851, 1.9859, 1.9839,1.9851
MultiSource/Benchmarks/TSVC/Expansion-flt/Expansion-flt, 1.1878, 1.1751, 1.1832,1.1832, 1.1806, 1.1758, 1.1802,1.1802
MultiSource/Benchmarks/TSVC/GlobalDataFlow-dbl/GlobalDataFlow-dbl, 2.8519, 2.8510, 2.8505,2.851, 2.8513, 2.8520, 2.8505,2.8513
MultiSource/Benchmarks/TSVC/GlobalDataFlow-flt/GlobalDataFlow-flt, 1.5012, 1.5077, 1.5047,1.5047, 1.5018, 1.5001, 1.5051,1.5018
MultiSource/Benchmarks/TSVC/IndirectAddressing-dbl/IndirectAddressing-dbl, 2.4798, 2.4752, 2.4756,2.4756, 2.4778, 2.4811, 2.4765,2.4778
MultiSource/Benchmarks/TSVC/IndirectAddressing-flt/IndirectAddressing-flt, 2.2425, 2.2463, 2.2442,2.2442, 2.2471, 2.2489, 2.2469,2.2471
MultiSource/Benchmarks/TSVC/InductionVariable-dbl/InductionVariable-dbl, 3.0478, 3.0493, 3.0492,3.0492, 3.0479, 3.0485, 3.0487,3.0485
MultiSource/Benchmarks/TSVC/InductionVariable-flt/InductionVariable-flt, 2.5598, 2.5539, 2.5578,2.5578, 2.5562, 2.5592, 2.5545,2.5562
MultiSource/Benchmarks/TSVC/LinearDependence-dbl/LinearDependence-dbl, 5.7071, 5.7067, 5.7073,5.7071, 5.7068, 5.7084, 5.7033,5.7068
MultiSource/Benchmarks/TSVC/LinearDependence-flt/LinearDependence-flt, 4.9821, 4.9762, 4.9843,4.9821, 4.9934, 5.0031, 4.9890,4.9934
MultiSource/Benchmarks/TSVC/LoopRerolling-dbl/LoopRerolling-dbl, 4.6104, 4.6104, 4.6112,4.6104, 4.6104, 4.6109, 4.6108,4.6108
MultiSource/Benchmarks/TSVC/LoopRerolling-flt/LoopRerolling-flt, 3.8328, 3.8259, 3.8352,3.8328, 3.8215, 3.8263, 3.8268,3.8263
MultiSource/Benchmarks/TSVC/LoopRestructuring-dbl/LoopRestructuring-dbl, 3.6397, 3.6377, 3.6432,3.6397, 3.6548, 3.6402, 3.6343,3.6402
MultiSource/Benchmarks/TSVC/LoopRestructuring-flt/LoopRestructuring-flt, 2.8297, 2.8890, 2.9380,2.889, 2.8547, 2.8872, 2.9368,2.8872
MultiSource/Benchmarks/TSVC/NodeSplitting-dbl/NodeSplitting-dbl, 5.0289, 5.0261, 5.0289,5.0289, 5.0283, 5.0277, 5.0272,5.0277
MultiSource/Benchmarks/TSVC/NodeSplitting-flt/NodeSplitting-flt, 4.6537, 4.6590, 4.6560,4.656, 4.6470, 4.6465, 4.6442,4.6465
MultiSource/Benchmarks/TSVC/Packing-dbl/Packing-dbl, 2.3235, 2.3243, 2.3244,2.3243, 2.3249, 2.3232, 2.3240,2.324
MultiSource/Benchmarks/TSVC/Packing-flt/Packing-flt, 2.1436, 2.1274, 2.1036,2.1274, 2.1164, 2.1318, 2.1361,2.1318
MultiSource/Benchmarks/TSVC/Recurrences-dbl/Recurrences-dbl, 3.5012, 3.5011, 3.5010,3.5011, 3.5010, 3.5011, 3.5011,3.5011
MultiSource/Benchmarks/TSVC/Recurrences-flt/Recurrences-flt, 3.5009, 3.5009, 3.5006,3.5009, 3.5009, 3.5008, 3.5006,3.5008
MultiSource/Benchmarks/TSVC/Reductions-dbl/Reductions-dbl, 3.4400, 3.4399, 3.4399,3.4399, 3.4400, 3.4399, 3.4399,3.4399
MultiSource/Benchmarks/TSVC/Reductions-flt/Reductions-flt, 5.9350, 5.9349, 5.9349,5.9349, 5.9349, 5.9350, 5.9348,5.9349
MultiSource/Benchmarks/TSVC/Searching-dbl/Searching-dbl, 2.2752, 2.2751, 2.2753,2.2752, 2.2756, 2.2757, 2.2755,2.2756
MultiSource/Benchmarks/TSVC/Searching-flt/Searching-flt, 2.4315, 2.4327, 2.4343,2.4327, 2.4342, 2.4319, 2.4342,2.4342
MultiSource/Benchmarks/TSVC/StatementReordering-dbl/StatementReordering-dbl, 2.2453, 2.2455, 2.2457,2.2455, 2.2431, 2.2447, 2.2410,2.2431
MultiSource/Benchmarks/TSVC/StatementReordering-flt/StatementReordering-flt, 1.8292, 1.8265, 1.8263,1.8265, 1.8273, 1.8286, 1.8269,1.8273
MultiSource/Benchmarks/TSVC/Symbolics-dbl/Symbolics-dbl, 2.4549, 2.4550, 2.4550,2.455, 2.4543, 2.4552, 2.4550,2.455
MultiSource/Benchmarks/TSVC/Symbolics-flt/Symbolics-flt, 1.3884, 1.3954, 1.3875,1.3884, 1.3920, 1.3899, 1.3931,1.392
MultiSource/Benchmarks/Trimaran/enc-3des/enc-3des, 1.2894, 1.2895, 1.2893,1.2894, 1.2894, 1.2897, 1.2896,1.2896
MultiSource/Benchmarks/Trimaran/enc-md5/enc-md5, 1.2243, 1.2242, 1.2243,1.2243, 1.2243, 1.2243, 1.2243,1.2243
MultiSource/Benchmarks/Trimaran/enc-pc1/enc-pc1, 0.3440, 0.3440, 0.3440,0.344, 0.3440, 0.3440, 0.3440,0.344
MultiSource/Benchmarks/Trimaran/enc-rc4/enc-rc4, 0.7276, 0.7280, 0.7273,0.7276, 0.7276, 0.7277, 0.7277,0.7277
MultiSource/Benchmarks/Trimaran/netbench-crc/netbench-crc, 0.6214, 0.6210, 0.6209,0.621, 0.6211, 0.6209, 0.6209,0.6209
MultiSource/Benchmarks/Trimaran/netbench-url/netbench-url, 2.9798, 2.9796, 2.9815,2.9798, 2.9797, 2.9797, 2.9797,2.9797
MultiSource/Benchmarks/VersaBench/8b10b/8b10b, 3.6024, 3.6152, 3.6037,3.6037, 3.6112, 3.6104, 3.5983,3.6104
MultiSource/Benchmarks/VersaBench/beamformer/beamformer, 0.7488, 0.7487, 0.7488,0.7488, 0.7488, 0.7486, 0.7488,0.7488
MultiSource/Benchmarks/VersaBench/bmm/bmm, 1.6459, 1.6459, 1.6460,1.6459, 1.6459, 1.6460, 1.6460,1.646
MultiSource/Benchmarks/VersaBench/dbms/dbms, 0.8882, 0.8969, 0.8906,0.8906, 0.8978, 0.8846, 0.8932,0.8932
MultiSource/Benchmarks/VersaBench/ecbdes/ecbdes, 1.6932, 1.6931, 1.6931,1.6931, 1.6932, 1.6931, 1.6932,1.6932
MultiSource/Benchmarks/llubenchmark/llu, 4.1436, 4.1147, 4.0668,4.1147, 4.1375, 4.2281, 4.2383,4.2281
MultiSource/Benchmarks/mafft/pairlocalalign,24.6627,24.6616,24.6617,24.6617,24.7201,24.7199,24.7193,24.7199
MultiSource/Benchmarks/mediabench/adpcm/rawcaudio/rawcaudio, 0.0088, 0.0054, 0.0113,0.0088, 0.0099, 0.0104, 0.0106,0.0104
MultiSource/Benchmarks/mediabench/adpcm/rawdaudio/rawdaudio, 0.0016, 0.0054, 0.0016,0.0016, 0.0016, 0.0016, 0.0016,0.0016
MultiSource/Benchmarks/mediabench/g721/g721encode/encode, 0.0296, 0.0296, 0.0296,0.0296, 0.0296, 0.0296, 0.0296,0.0296
MultiSource/Benchmarks/mediabench/gsm/toast/toast, 0.0133, 0.0132, 0.0133,0.0133, 0.0133, 0.0133, 0.0131,0.0133
MultiSource/Benchmarks/mediabench/jpeg/jpeg-6a/cjpeg, 0.0032, 0.0032, 0.0032,0.0032, 0.0034, 0.0032, 0.0034,0.0034
MultiSource/Benchmarks/mediabench/mpeg2/mpeg2dec/mpeg2decode, 0.0130, 0.0130, 0.0130,0.013, 0.0130, 0.0130, 0.0130,0.013
MultiSource/Benchmarks/nbench/nbench, 1.2713, 1.2717, 1.2722,1.2717, 1.2716, 1.2718, 1.2719,1.2718
MultiSource/Benchmarks/sim/sim, 2.6894, 2.6875, 2.6903,2.6894, 2.6302, 2.6317, 2.6302,2.6302
MultiSource/Benchmarks/tramp3d-v4/tramp3d-v4, 0.2395, 0.2397, 0.2396,0.2396, 0.2396, 0.2397, 0.2394,0.2396
SingleSource/Benchmarks/Adobe-C++/functionobjects, 3.0294, 3.0298, 3.0288,3.0294, 3.0365, 3.0365, 3.0379,3.0365
SingleSource/Benchmarks/Adobe-C++/loop_unroll, 1.7723, 1.7734, 1.7752,1.7734, 1.7731, 1.7787, 1.7714,1.7731
SingleSource/Benchmarks/Adobe-C++/simple_types_constant_folding, 0.6645, 0.6645, 0.6645,0.6645, 0.6645, 0.6645, 0.6651,0.6645
SingleSource/Benchmarks/Adobe-C++/simple_types_loop_invariant, 1.5935, 1.5944, 1.5941,1.5941, 1.5947, 1.5944, 1.5937,1.5944
SingleSource/Benchmarks/Adobe-C++/stepanov_abstraction, 4.2661, 4.2649, 4.2663,4.2661, 4.2400, 4.2394, 4.2401,4.24
SingleSource/Benchmarks/Adobe-C++/stepanov_vector, 2.3071, 2.3074, 2.3082,2.3074, 2.2493, 2.2493, 2.2498,2.2493
SingleSource/Benchmarks/BenchmarkGame/Large/fasta, 0.6449, 0.6504, 0.6458,0.6458, 0.6493, 0.6445, 0.6497,0.6493
SingleSource/Benchmarks/BenchmarkGame/fannkuch, 2.0901, 2.0888, 2.0896,2.0896, 2.0915, 2.0920, 2.0888,2.0915
SingleSource/Benchmarks/BenchmarkGame/n-body, 1.3733, 1.3732, 1.3732,1.3732, 1.3732, 1.3732, 1.3732,1.3732
SingleSource/Benchmarks/BenchmarkGame/nsieve-bits, 0.4920, 0.4805, 0.4846,0.4846, 0.4821, 0.4830, 0.4853,0.483
SingleSource/Benchmarks/BenchmarkGame/partialsums, 0.5686, 0.5686, 0.5686,0.5686, 0.5685, 0.5685, 0.5685,0.5685
SingleSource/Benchmarks/BenchmarkGame/puzzle, 0.1291, 0.1292, 0.1290,0.1291, 0.1294, 0.1290, 0.1292,0.1292
SingleSource/Benchmarks/BenchmarkGame/recursive, 0.7052, 0.7041, 0.7069,0.7052, 0.7066, 0.7040, 0.7148,0.7066
SingleSource/Benchmarks/BenchmarkGame/spectral-norm, 0.9768, 0.9768, 0.9768,0.9768, 0.9768, 0.9768, 0.9768,0.9768
SingleSource/Benchmarks/CoyoteBench/almabench,12.6328,12.6257,12.6337,12.6328,12.6314,12.6494,12.6322,12.6322
SingleSource/Benchmarks/CoyoteBench/fftbench, 0.6358, 0.6382, 0.6352,0.6358, 0.6369, 0.6352, 0.6392,0.6369
SingleSource/Benchmarks/CoyoteBench/huffbench, 9.0378, 9.0431, 9.0476,9.0431, 9.0066, 9.0061, 9.0065,9.0065
SingleSource/Benchmarks/CoyoteBench/lpbench, 1.8173, 1.8191, 1.8137,1.8173, 1.8237, 1.8175, 1.8208,1.8208
SingleSource/Benchmarks/Dhrystone/dry, 0.3046, 0.3046, 0.3046,0.3046, 0.3046, 0.3046, 0.3046,0.3046
SingleSource/Benchmarks/Dhrystone/fldry, 0.3654, 0.3654, 0.3654,0.3654, 0.3654, 0.3654, 0.3654,0.3654
SingleSource/Benchmarks/Linpack/linpack-pc, 1.2417, 1.2405, 1.2404,1.2405, 1.2396, 1.2419, 1.2418,1.2418
SingleSource/Benchmarks/McGill/chomp, 1.3040, 1.2363, 1.2999,1.2999, 1.3021, 1.3043, 1.3036,1.3036
SingleSource/Benchmarks/McGill/misr, 0.1013, 0.1013, 0.1013,0.1013, 0.1013, 0.1013, 0.1013,0.1013
SingleSource/Benchmarks/McGill/queens, 1.7518, 1.7509, 1.7525,1.7518, 1.7517, 1.7517, 1.7516,1.7517
SingleSource/Benchmarks/Misc-C++-EH/spirit, 2.6175, 2.6167, 2.6210,2.6175, 2.6485, 2.6495, 2.6498,2.6495
SingleSource/Benchmarks/Misc-C++/Large/ray, 3.1396, 3.1392, 3.1393,3.1393, 3.1398, 3.1474, 3.1400,3.14
SingleSource/Benchmarks/Misc-C++/Large/sphereflake, 5.6077, 5.6075, 5.6075,5.6075, 5.6072, 5.6072, 5.6075,5.6072
SingleSource/Benchmarks/Misc-C++/bigfib, 0.1912, 0.1906, 0.1906,0.1906, 0.1909, 0.1910, 0.1910,0.191
SingleSource/Benchmarks/Misc-C++/mandel-text, 1.6139, 1.6079, 1.6126,1.6126, 1.6106, 1.6137, 1.6108,1.6108
SingleSource/Benchmarks/Misc-C++/oopack_v1p8, 0.1619, 0.1619, 0.1619,0.1619, 0.1619, 0.1619, 0.1619,0.1619
SingleSource/Benchmarks/Misc-C++/stepanov_container, 3.1100, 3.1034, 3.0955,3.1034, 3.1119, 3.1027, 2.8809,3.1027
SingleSource/Benchmarks/Misc-C++/stepanov_v1p2, 7.9041, 7.9036, 7.9036,7.9036, 7.9035, 7.9036, 7.9039,7.9036
SingleSource/Benchmarks/Misc/ReedSolomon, 3.1536, 3.1536, 3.1537,3.1536, 3.1537, 3.1537, 3.1536,3.1537
SingleSource/Benchmarks/Misc/dt, 0.6669, 0.6668, 0.6668,0.6668, 0.6668, 0.6668, 0.6668,0.6668
SingleSource/Benchmarks/Misc/evalloop, 0.3683, 0.3680, 0.3690,0.3683, 0.3685, 0.3678, 0.3673,0.3678
SingleSource/Benchmarks/Misc/fbench, 1.7140, 1.7139, 1.7139,1.7139, 1.7135, 1.7135, 1.7136,1.7135
SingleSource/Benchmarks/Misc/ffbench, 0.5850, 0.5853, 0.5843,0.585, 0.5824, 0.5832, 0.5861,0.5832
SingleSource/Benchmarks/Misc/flops,10.6464,10.6776,10.6820,10.6776,10.6415,10.5631,10.6728,10.6415
SingleSource/Benchmarks/Misc/flops-1, 3.5821, 3.5820, 3.5821,3.5821, 3.5821, 3.5823, 3.5820,3.5821
SingleSource/Benchmarks/Misc/flops-2, 0.8625, 0.8625, 0.8625,0.8625, 0.8625, 0.8625, 0.8625,0.8625
SingleSource/Benchmarks/Misc/flops-3, 5.4133, 5.4130, 5.4130,5.413, 5.4130, 5.5079, 5.4131,5.4131
SingleSource/Benchmarks/Misc/flops-4, 2.2797, 2.2796, 2.3271,2.2797, 2.3270, 2.3271, 2.3272,2.3271
SingleSource/Benchmarks/Misc/flops-5, 4.2758, 4.2756, 4.2756,4.2756, 4.2756, 4.2756, 4.2746,4.2756
SingleSource/Benchmarks/Misc/flops-6, 3.3721, 3.4194, 3.4194,3.4194, 3.4194, 3.4194, 3.4195,3.4194
SingleSource/Benchmarks/Misc/flops-7, 1.5901, 1.5900, 1.5900,1.59, 1.5900, 1.5900, 1.5900,1.59
SingleSource/Benchmarks/Misc/flops-8, 2.8969, 2.8968, 2.8968,2.8968, 2.8968, 2.8968, 2.8968,2.8968
SingleSource/Benchmarks/Misc/fp-convert, 2.6303, 2.6302, 2.6302,2.6302, 2.6301, 2.6301, 2.6302,2.6301
SingleSource/Benchmarks/Misc/himenobmtxpa, 0.5156, 0.5241, 0.5168,0.5168, 0.5217, 0.5208, 0.5227,0.5217
SingleSource/Benchmarks/Misc/lowercase, 0.0007, 0.0007, 0.0007,0.0007, 0.0007, 0.0007, 0.0007,0.0007
SingleSource/Benchmarks/Misc/mandel, 0.8336, 0.8336, 0.8335,0.8336, 0.8337, 0.8336, 0.8336,0.8336
SingleSource/Benchmarks/Misc/mandel-2, 1.2780, 1.2779, 1.2779,1.2779, 1.2779, 1.2779, 1.2779,1.2779
SingleSource/Benchmarks/Misc/matmul_f64_4x4, 1.2952, 1.2951, 1.2951,1.2951, 1.2951, 1.2951, 1.2951,1.2951
SingleSource/Benchmarks/Misc/oourafft, 6.0226, 6.0210, 6.0170,6.021, 6.0195, 6.0170, 6.0176,6.0176
SingleSource/Benchmarks/Misc/perlin, 3.8809, 3.8799, 3.8807,3.8807, 3.8807, 3.8805, 3.8807,3.8807
SingleSource/Benchmarks/Misc/pi, 0.6942, 0.6941, 0.6942,0.6942, 0.6941, 0.6941, 0.6942,0.6941
SingleSource/Benchmarks/Misc/revertBits, 0.3294, 0.3294, 0.3297,0.3294, 0.3294, 0.3294, 0.3294,0.3294
SingleSource/Benchmarks/Misc/richards_benchmark, 0.4974, 0.4971, 0.4972,0.4972, 0.4971, 0.4976, 0.4975,0.4975
SingleSource/Benchmarks/Misc/salsa20, 4.1616, 4.6177, 4.6179,4.6177, 4.6180, 4.6181, 4.6178,4.618
SingleSource/Benchmarks/Misc/whetstone, 1.0274, 1.0263, 1.0274,1.0274, 1.0197, 1.0274, 1.0198,1.0198
SingleSource/Benchmarks/Polybench/datamining/correlation/correlation, 1.6684, 1.6735, 1.6659,1.6684, 1.6624, 1.6591, 1.6642,1.6624
SingleSource/Benchmarks/Polybench/datamining/covariance/covariance, 1.6562, 1.6562, 1.6534,1.6562, 1.6548, 1.6560, 1.6527,1.6548
SingleSource/Benchmarks/Polybench/linear-algebra/kernels/atax/atax, 0.1703, 0.1703, 0.1704,0.1703, 0.1701, 0.1703, 0.1701,0.1701
SingleSource/Benchmarks/Polybench/linear-algebra/kernels/bicg/bicg, 0.2125, 0.2125, 0.2125,0.2125, 0.2125, 0.2125, 0.2125,0.2125
SingleSource/Benchmarks/Polybench/linear-algebra/kernels/cholesky/cholesky, 0.4549, 0.4554, 0.4568,0.4554, 0.4579, 0.4606, 0.4564,0.4579
SingleSource/Benchmarks/Polybench/linear-algebra/kernels/doitgen/doitgen, 0.7805, 0.7865, 0.7803,0.7805, 0.7805, 0.7881, 0.7844,0.7844
SingleSource/Benchmarks/Polybench/linear-algebra/kernels/gemver/gemver, 0.3211, 0.3215, 0.3222,0.3215, 0.3171, 0.3266, 0.3260,0.326
SingleSource/Benchmarks/Polybench/linear-algebra/kernels/gesummv/gesummv, 0.3015, 0.3064, 0.3064,0.3064, 0.3064, 0.3064, 0.3015,0.3064
SingleSource/Benchmarks/Polybench/linear-algebra/kernels/mvt/mvt, 0.2483, 0.2482, 0.2435,0.2482, 0.2482, 0.2482, 0.2434,0.2482
SingleSource/Benchmarks/Polybench/linear-algebra/kernels/symm/symm,16.5042,15.4320,16.5255,16.5042,16.4661,16.2852,16.5523,16.4661
SingleSource/Benchmarks/Polybench/linear-algebra/kernels/syr2k/syr2k, 9.1846, 9.1862, 8.9501,9.1846, 9.1873, 9.1504, 9.1851,9.1851
SingleSource/Benchmarks/Polybench/linear-algebra/kernels/syrk/syrk, 4.3777, 4.6334, 4.6342,4.6334, 4.6330, 4.6346, 4.3786,4.633
SingleSource/Benchmarks/Polybench/linear-algebra/kernels/trisolv/trisolv, 0.1735, 0.1736, 0.1639,0.1735, 0.1638, 0.1638, 0.1639,0.1638
SingleSource/Benchmarks/Polybench/linear-algebra/kernels/trmm/trmm, 2.3572, 2.3519, 2.3510,2.3519, 2.3609, 2.3602, 2.3624,2.3609
SingleSource/Benchmarks/Polybench/linear-algebra/solvers/durbin/durbin, 0.3969, 0.3975, 0.4070,0.3975, 0.4067, 0.4068, 0.4071,0.4068
SingleSource/Benchmarks/Polybench/linear-algebra/solvers/dynprog/dynprog, 0.2818, 0.2811, 0.2814,0.2814, 0.2808, 0.2805, 0.2806,0.2806
SingleSource/Benchmarks/Polybench/linear-algebra/solvers/gramschmidt/gramschmidt, 1.5790, 1.6593, 1.5358,1.579, 1.6479, 1.6482, 1.6329,1.6479
SingleSource/Benchmarks/Polybench/linear-algebra/solvers/lu/lu, 0.0021, 0.0021, 0.0021,0.0021, 0.0021, 0.0021, 0.0021,0.0021
SingleSource/Benchmarks/Polybench/medley/floyd-warshall/floyd-warshall, 5.9776, 5.9743, 5.9739,5.9743, 5.9735, 5.9747, 5.9735,5.9735
SingleSource/Benchmarks/Polybench/medley/reg_detect/reg_detect, 0.0155, 0.0155, 0.0155,0.0155, 0.0155, 0.0155, 0.0155,0.0155
SingleSource/Benchmarks/Polybench/stencils/adi/adi, 2.8039, 2.8038, 2.8040,2.8039, 2.8035, 2.8054, 2.8054,2.8054
SingleSource/Benchmarks/Polybench/stencils/fdtd-2d/fdtd-2d, 0.4109, 0.4094, 0.4069,0.4094, 0.4123, 0.4090, 0.4053,0.409
SingleSource/Benchmarks/Polybench/stencils/fdtd-apml/fdtd-apml, 0.7208, 0.7213, 0.7260,0.7213, 0.7222, 0.7234, 0.7216,0.7222
SingleSource/Benchmarks/Polybench/stencils/jacobi-1d-imper/jacobi-1d-imper, 0.0036, 0.0036, 0.0036,0.0036, 0.0036, 0.0036, 0.0036,0.0036
SingleSource/Benchmarks/Polybench/stencils/jacobi-2d-imper/jacobi-2d-imper, 0.1494, 0.1495, 0.1495,0.1495, 0.1495, 0.1491, 0.1491,0.1491
SingleSource/Benchmarks/Polybench/stencils/seidel-2d/seidel-2d, 0.6593, 0.6593, 0.6593,0.6593, 0.6587, 0.6593, 0.6593,0.6593
SingleSource/Benchmarks/Shootout-C++/EH/except, 0.1201, 0.1204, 0.1204,0.1204, 0.1203, 0.1207, 0.1201,0.1203
SingleSource/Benchmarks/Shootout-C++/ackermann, 0.6572, 0.6571, 0.6572,0.6572, 0.6571, 0.6571, 0.6573,0.6571
SingleSource/Benchmarks/Shootout-C++/ary, 0.0141, 0.0141, 0.0141,0.0141, 0.0141, 0.0142, 0.0141,0.0141
SingleSource/Benchmarks/Shootout-C++/ary2, 0.0149, 0.0149, 0.0149,0.0149, 0.0149, 0.0149, 0.0149,0.0149
SingleSource/Benchmarks/Shootout-C++/ary3, 0.5360, 0.5383, 0.5367,0.5367, 0.5425, 0.5353, 0.5421,0.5421
SingleSource/Benchmarks/Shootout-C++/fibo, 1.4769, 1.4778, 1.4762,1.4769, 1.4773, 1.4777, 1.4782,1.4777
SingleSource/Benchmarks/Shootout-C++/hash, 0.3073, 0.3064, 0.3085,0.3073, 0.3065, 0.3072, 0.3064,0.3065
SingleSource/Benchmarks/Shootout-C++/hash2, 1.7154, 1.7131, 1.7155,1.7154, 1.7273, 1.7246, 1.7270,1.727
SingleSource/Benchmarks/Shootout-C++/heapsort, 2.0270, 2.0258, 2.0281,2.027, 2.0269, 2.0270, 2.0281,2.027
SingleSource/Benchmarks/Shootout-C++/lists, 2.9699, 2.9636, 2.9686,2.9686, 2.9706, 2.9646, 2.9705,2.9705
SingleSource/Benchmarks/Shootout-C++/lists1, 0.1312, 0.1336, 0.1322,0.1322, 0.1326, 0.1341, 0.1322,0.1326
SingleSource/Benchmarks/Shootout-C++/matrix, 1.1247, 1.1247, 1.1246,1.1247, 1.1247, 1.1246, 1.1248,1.1247
SingleSource/Benchmarks/Shootout-C++/methcall, 3.4498, 3.4547, 3.4496,3.4498, 3.4496, 3.4496, 3.4548,3.4496
SingleSource/Benchmarks/Shootout-C++/moments, 0.0441, 0.0441, 0.0441,0.0441, 0.0441, 0.0441, 0.0442,0.0441
SingleSource/Benchmarks/Shootout-C++/nestedloop, 0.0008, 0.0008, 0.0008,0.0008, 0.0008, 0.0008, 0.0008,0.0008
SingleSource/Benchmarks/Shootout-C++/objinst, 0.0008, 0.0008, 0.0008,0.0008, 0.0008, 0.0008, 0.0008,0.0008
SingleSource/Benchmarks/Shootout-C++/random, 1.7449, 1.7448, 1.7448,1.7448, 1.7448, 1.7448, 1.7448,1.7448
SingleSource/Benchmarks/Shootout-C++/sieve, 1.3834, 1.2731, 1.3817,1.3817, 1.3190, 1.4034, 1.3359,1.3359
SingleSource/Benchmarks/Shootout-C++/strcat, 0.0405, 0.0404, 0.0405,0.0405, 0.0405, 0.0405, 0.0405,0.0405
SingleSource/Benchmarks/Shootout/ackermann, 0.0033, 0.0033, 0.0033,0.0033, 0.0033, 0.0033, 0.0033,0.0033
SingleSource/Benchmarks/Shootout/ary3, 0.5999, 0.5969, 0.5970,0.597, 0.5908, 0.6086, 0.5945,0.5945
SingleSource/Benchmarks/Shootout/fib2, 1.4775, 1.4785, 1.4770,1.4775, 1.4772, 1.4773, 1.4759,1.4772
SingleSource/Benchmarks/Shootout/hash, 2.7600, 2.7509, 2.7540,2.754, 2.7479, 2.7636, 2.7492,2.7492
SingleSource/Benchmarks/Shootout/heapsort, 2.0368, 2.0389, 2.0372,2.0372, 2.0378, 2.0372, 2.0400,2.0378
SingleSource/Benchmarks/Shootout/lists, 4.0791, 4.0819, 4.0799,4.0799, 4.0805, 4.0816, 4.0799,4.0805
SingleSource/Benchmarks/Shootout/matrix, 1.0577, 1.0575, 1.0575,1.0575, 1.0572, 1.0580, 1.0570,1.0572
SingleSource/Benchmarks/Shootout/methcall, 3.2758, 3.2757, 3.2761,3.2758, 3.2760, 3.2763, 3.2760,3.276
SingleSource/Benchmarks/Shootout/nestedloop, 0.0007, 0.0007, 0.0007,0.0007, 0.0007, 0.0007, 0.0007,0.0007
SingleSource/Benchmarks/Shootout/objinst, 0.0007, 0.0007, 0.0007,0.0007, 0.0007, 0.0007, 0.0007,0.0007
SingleSource/Benchmarks/Shootout/random, 1.7448, 1.7447, 1.7447,1.7447, 1.7447, 1.7447, 1.7447,1.7447
SingleSource/Benchmarks/Shootout/sieve, 3.4709, 3.4702, 3.4685,3.4702, 3.4677, 3.4682, 3.4713,3.4682
SingleSource/Benchmarks/Shootout/strcat, 0.1051, 0.1050, 0.1050,0.105, 0.1050, 0.1052, 0.1051,0.1051
SingleSource/Benchmarks/SmallPT/smallpt, 7.5461, 7.5423, 7.5470,7.5461, 7.5489, 7.5540, 7.5529,7.5529
SingleSource/Benchmarks/Stanford/Bubblesort, 0.0158, 0.0157, 0.0157,0.0157, 0.0157, 0.0158, 0.0157,0.0157
SingleSource/Benchmarks/Stanford/FloatMM, 0.2012, 0.2011, 0.2011,0.2011, 0.2011, 0.2011, 0.2012,0.2011
SingleSource/Benchmarks/Stanford/Oscar, 0.0032, 0.0032, 0.0032,0.0032, 0.0024, 0.0024, 0.0024,0.0024
SingleSource/Benchmarks/Stanford/Perm, 0.0145, 0.0145, 0.0145,0.0145, 0.0145, 0.0146, 0.0145,0.0145
SingleSource/Benchmarks/Stanford/Puzzle, 0.0794, 0.0794, 0.0794,0.0794, 0.0793, 0.0794, 0.0793,0.0793
SingleSource/Benchmarks/Stanford/Queens, 0.0071, 0.0072, 0.0072,0.0072, 0.0072, 0.0072, 0.0072,0.0072
SingleSource/Benchmarks/Stanford/Quicksort, 0.0303, 0.0302, 0.0302,0.0302, 0.0302, 0.0302, 0.0302,0.0302
SingleSource/Benchmarks/Stanford/RealMM, 0.0014, 0.0014, 0.0014,0.0014, 0.0014, 0.0014, 0.0014,0.0014
SingleSource/Benchmarks/Stanford/Towers, 0.0083, 0.0083, 0.0083,0.0083, 0.0083, 0.0083, 0.0083,0.0083
SingleSource/Benchmarks/Stanford/Treesort, 0.0545, 0.0544, 0.0544,0.0544, 0.0545, 0.0547, 0.0545,0.0545
SingleSource/Regression/C/2004-08-12-InlinerAndAllocas, 0.0013, 0.0013, 0.0013,0.0013, 0.0013, 0.0013, 0.0013,0.0013
SingleSource/Regression/C/uint64_to_float, 0.2465, 0.2465, 0.2464,0.2465, 0.2465, 0.2465, 0.2465,0.2465
Total elapsed time,-,-,-,587.6976000000003,-,-,-,588.5510000000005
Total failure,-,-,-,0,-,-,-,0
