,insts-opt-5.0,,nocapture-opt-5.0,
,Max. slowdown(%),Avg. slowdown(%),Min. slowdown(%),Max. slowdown(%),Avg. slowdown(%),Min. slowdown(%)
Machine2,4.2380,-0.016,-25.00,4.2927,-0.058,-25.00
Machine3,4.3478,-0.082,-24.13,4.3478,-0.085,-24.13
Machine4,4.8630,-0.102,-24.13,4.6511,-0.122,-24.13
