Benchmarks,base-5.0,base-5.0,base-5.0,median,nocapture-5.0,nocapture-5.0,nocapture-5.0,median,Slowdown(%)
SingleSource/Benchmarks/Adobe-C++/stepanov_vector, 0.6667, 0.6682, 0.6693,0.6682, 0.7699, 0.7712, 0.7712,0.7712,15.414546542951202
SingleSource/Benchmarks/Stanford/Oscar, 0.0573, 0.0573, 0.0572,0.0573, 0.0616, 0.0617, 0.0615,0.0616,7.504363001745218
MultiSource/Benchmarks/DOE-ProxyApps-C++/miniFE/miniFE, 2.3448, 2.3480, 2.3475,2.3475, 2.4536, 2.4532, 2.4528,2.4532,4.502662406815738
MultiSource/Benchmarks/MiBench/telecomm-CRC32/telecomm-CRC32, 0.0325, 0.0327, 0.0326,0.0326, 0.0348, 0.0340, 0.0327,0.034,4.294478527607382
SingleSource/Benchmarks/Dhrystone/fldry, 0.0409, 0.0395, 0.0395,0.0395, 0.0408, 0.0409, 0.0409,0.0409,3.544303797468351
SingleSource/Benchmarks/CoyoteBench/almabench, 0.0606, 0.0607, 0.0592,0.0606, 0.0626, 0.0624, 0.0627,0.0626,3.300330033003296
MultiSource/Benchmarks/Olden/mst/mst, 0.1131, 0.1133, 0.1134,0.1133, 0.1162, 0.1163, 0.1166,0.1163,2.647837599293923
SingleSource/Benchmarks/Misc/himenobmtxpa, 0.1546, 0.1548, 0.1546,0.1546, 0.1579, 0.1579, 0.1577,0.1579,2.1345407503234215
MultiSource/Benchmarks/DOE-ProxyApps-C/RSBench/rsbench, 0.3567, 0.3578, 0.3572,0.3572, 0.3639, 0.3636, 0.3646,0.3639,1.8756998880179232
MultiSource/Benchmarks/DOE-ProxyApps-C++/HPCCG/HPCCG, 1.2879, 1.2903, 1.2885,1.2885, 1.3122, 1.3113, 1.3095,1.3113,1.7694994179278112
SingleSource/Benchmarks/Misc/flops-5, 0.0259, 0.0261, 0.0260,0.026, 0.0262, 0.0264, 0.0264,0.0264,1.538461538461533
MultiSource/Benchmarks/DOE-ProxyApps-C/XSBench/XSBench, 0.3176, 0.3185, 0.3176,0.3176, 0.3219, 0.3222, 0.3228,0.3222,1.4483627204030292
MultiSource/Applications/minisat/minisat, 0.5504, 0.5485, 0.5483,0.5485, 0.5549, 0.5564, 0.5557,0.5557,1.3126709206928044
SingleSource/Benchmarks/Misc/flops-3, 0.0250, 0.0252, 0.0250,0.025, 0.0252, 0.0254, 0.0253,0.0253,1.200000000000001
SingleSource/Benchmarks/Misc/flops-1, 0.0251, 0.0254, 0.0251,0.0251, 0.0254, 0.0254, 0.0254,0.0254,1.195219123505975
SingleSource/Benchmarks/Misc/flops-6, 0.0260, 0.0262, 0.0260,0.026, 0.0263, 0.0262, 0.0263,0.0263,1.1538461538461497
SingleSource/Benchmarks/Misc/flops-2, 0.0261, 0.0260, 0.0260,0.026, 0.0262, 0.0263, 0.0263,0.0263,1.1538461538461497
MultiSource/Benchmarks/McCat/08-main/main, 0.2184, 0.2180, 0.2183,0.2183, 0.2207, 0.2206, 0.2223,0.2207,1.0994044892350008
MultiSource/Benchmarks/Trimaran/enc-md5/enc-md5, 0.1339, 0.1336, 0.1337,0.1337, 0.1346, 0.1348, 0.1348,0.1348,0.8227374719521174
SingleSource/Benchmarks/BenchmarkGame/recursive, 0.0247, 0.0249, 0.0247,0.0247, 0.0248, 0.0249, 0.0249,0.0249,0.8097165991902688
SingleSource/Benchmarks/BenchmarkGame/Large/fasta, 0.0374, 0.0376, 0.0374,0.0374, 0.0376, 0.0377, 0.0377,0.0377,0.8021390374331361
MultiSource/Benchmarks/TSVC/Reductions-flt/Reductions-flt, 1.5777, 1.5743, 1.5767,1.5767, 1.5974, 1.5892, 1.5859,1.5892,0.7927950783281457
MultiSource/Benchmarks/FreeBench/analyzer/analyzer, 0.2169, 0.2170, 0.2169,0.2169, 0.2186, 0.2182, 0.2200,0.2186,0.7837713231904075
SingleSource/Benchmarks/Misc/flops-8, 0.0260, 0.0262, 0.0261,0.0261, 0.0263, 0.0264, 0.0263,0.0263,0.7662835249041988
SingleSource/Benchmarks/Polybench/linear-algebra/solvers/durbin/durbin, 0.0795, 0.0795, 0.0798,0.0795, 0.0801, 0.0801, 0.0801,0.0801,0.7547169811320753
MultiSource/Benchmarks/Olden/bh/bh, 0.2353, 0.2351, 0.2358,0.2353, 0.2370, 0.2364, 0.2370,0.237,0.7224819379515468
SingleSource/Benchmarks/BenchmarkGame/partialsums, 0.0277, 0.0278, 0.0276,0.0277, 0.0278, 0.0279, 0.0280,0.0279,0.7220216606498298
MultiSource/Benchmarks/DOE-ProxyApps-C/SimpleMOC/SimpleMOC, 0.7787, 0.7798, 0.7790,0.779, 0.7842, 0.7843, 0.7846,0.7843,0.6803594351733055
SingleSource/Benchmarks/BenchmarkGame/nsieve-bits, 0.0296, 0.0296, 0.0295,0.0296, 0.0296, 0.0298, 0.0298,0.0298,0.6756756756756799
MultiSource/Applications/sqlite3/sqlite3,13.6118,13.5791,13.6090,13.609,13.7012,13.6807,13.6986,13.6986,0.6583878315820524
SingleSource/Benchmarks/CoyoteBench/fftbench, 0.2927, 0.2910, 0.2922,0.2922, 0.2941, 0.2940, 0.2950,0.2941,0.650239561943855
SingleSource/Benchmarks/Polybench/linear-algebra/kernels/trmm/trmm, 0.0657, 0.0658, 0.0656,0.0657, 0.0659, 0.0661, 0.0661,0.0661,0.6088280060883022
SingleSource/Benchmarks/Polybench/linear-algebra/kernels/cholesky/cholesky, 0.0831, 0.0834, 0.0831,0.0831, 0.0836, 0.0835, 0.0837,0.0836,0.6016847172081841
MultiSource/Benchmarks/Olden/power/power, 0.1172, 0.1176, 0.1174,0.1174, 0.1181, 0.1176, 0.1183,0.1181,0.5962521294718748
MultiSource/Benchmarks/TSVC/Packing-flt/Packing-flt, 1.4842, 1.4863, 1.4865,1.4863, 1.5107, 1.4950, 1.4933,1.495,0.585346161609368
SingleSource/Benchmarks/Polybench/linear-algebra/kernels/syrk/syrk, 0.0694, 0.0693, 0.0692,0.0693, 0.0697, 0.0696, 0.0697,0.0697,0.5772005772005651
MultiSource/Benchmarks/MiBench/security-rijndael/security-rijndael, 0.3565, 0.3556, 0.3560,0.356, 0.3579, 0.3587, 0.3580,0.358,0.561797752808979
MultiSource/Applications/spiff/spiff, 0.6820, 0.6826, 0.6833,0.6826, 0.6860, 0.6863, 0.6869,0.6863,0.5420451215939037
MultiSource/Benchmarks/TSVC/Symbolics-flt/Symbolics-flt, 1.5181, 1.5186, 1.5194,1.5186, 1.5267, 1.5288, 1.5249,1.5267,0.5333860134334234
MultiSource/Benchmarks/VersaBench/ecbdes/ecbdes, 0.1923, 0.1929, 0.1925,0.1925, 0.1943, 0.1927, 0.1935,0.1935,0.5194805194805197
SingleSource/Benchmarks/Polybench/linear-algebra/kernels/trisolv/trisolv, 0.0578, 0.0578, 0.0578,0.0578, 0.0581, 0.0580, 0.0581,0.0581,0.519031141868509
MultiSource/Benchmarks/BitBench/drop3/drop3, 0.0396, 0.0395, 0.0395,0.0395, 0.0395, 0.0397, 0.0398,0.0397,0.5063291139240533
SingleSource/Benchmarks/Misc/pi, 0.0200, 0.0200, 0.0198,0.02, 0.0200, 0.0201, 0.0201,0.0201,0.49999999999998934
MultiSource/Benchmarks/TSVC/LoopRestructuring-flt/LoopRestructuring-flt, 1.5424, 1.5389, 1.5404,1.5404, 1.5481, 1.5411, 1.5481,1.5481,0.49987016359387404
SingleSource/Benchmarks/Polybench/linear-algebra/solvers/lu/lu, 0.0809, 0.0809, 0.0808,0.0809, 0.0812, 0.0814, 0.0813,0.0813,0.49443757725586845
SingleSource/Benchmarks/Misc/mandel, 0.0404, 0.0407, 0.0405,0.0405, 0.0406, 0.0407, 0.0408,0.0407,0.49382716049382047
SingleSource/Benchmarks/Misc/whetstone, 0.0610, 0.0612, 0.0610,0.061, 0.0613, 0.0613, 0.0614,0.0613,0.4918032786885185
SingleSource/Benchmarks/Polybench/stencils/adi/adi, 0.0815, 0.0815, 0.0815,0.0815, 0.0819, 0.0819, 0.0820,0.0819,0.4907975460122671
SingleSource/Benchmarks/Polybench/linear-algebra/kernels/gemver/gemver, 0.0819, 0.0820, 0.0819,0.0819, 0.0823, 0.0823, 0.0825,0.0823,0.48840048840048667
SingleSource/Benchmarks/Polybench/stencils/fdtd-2d/fdtd-2d, 0.1241, 0.1240, 0.1240,0.124, 0.1247, 0.1246, 0.1246,0.1246,0.4838709677419395
SingleSource/Benchmarks/Polybench/stencils/seidel-2d/seidel-2d, 0.0634, 0.0635, 0.0636,0.0635, 0.0638, 0.0637, 0.0638,0.0638,0.47244094488188004
MultiSource/Benchmarks/TSVC/Symbolics-dbl/Symbolics-dbl, 1.8294, 1.8273, 1.8319,1.8294, 1.8392, 1.8372, 1.8380,1.838,0.4700994861703389
MultiSource/Benchmarks/TSVC/NodeSplitting-flt/NodeSplitting-flt, 1.5105, 1.5088, 1.5164,1.5105, 1.5206, 1.5175, 1.5162,1.5175,0.4634227077126907
MultiSource/Benchmarks/TSVC/NodeSplitting-dbl/NodeSplitting-dbl, 1.8154, 1.8168, 1.8139,1.8154, 1.8279, 1.8202, 1.8235,1.8235,0.4461826594689855
SingleSource/Benchmarks/Polybench/medley/floyd-warshall/floyd-warshall, 0.0685, 0.0684, 0.0685,0.0685, 0.0687, 0.0688, 0.0690,0.0688,0.43795620437956373
SingleSource/Benchmarks/Polybench/linear-algebra/kernels/symm/symm, 0.0694, 0.0695, 0.0696,0.0695, 0.0699, 0.0698, 0.0698,0.0698,0.4316546762589857
MultiSource/Benchmarks/Prolangs-C++/primes/primes, 0.0235, 0.0236, 0.0235,0.0235, 0.0236, 0.0236, 0.0235,0.0236,0.42553191489360653
MultiSource/Benchmarks/TSVC/Packing-dbl/Packing-dbl, 1.7929, 1.7905, 1.7936,1.7929, 1.7960, 1.8005, 1.8013,1.8005,0.4238942495398579
SingleSource/Benchmarks/Misc/lowercase, 0.0237, 0.0238, 0.0237,0.0237, 0.0238, 0.0238, 0.0238,0.0238,0.42194092827005925
MultiSource/Benchmarks/Trimaran/enc-3des/enc-3des, 0.2140, 0.2141, 0.2143,0.2141, 0.2149, 0.2150, 0.2150,0.215,0.42036431574030697
SingleSource/Benchmarks/Misc/revertBits, 0.0239, 0.0240, 0.0239,0.0239, 0.0240, 0.0240, 0.0240,0.024,0.4184100418409997
MultiSource/Benchmarks/Olden/perimeter/perimeter, 0.0728, 0.0728, 0.0727,0.0728, 0.0731, 0.0728, 0.0733,0.0731,0.4120879120879106
MultiSource/Benchmarks/SciMark2-C/scimark2, 0.3411, 0.3416, 0.3412,0.3412, 0.3428, 0.3423, 0.3426,0.3426,0.4103165298944944
SingleSource/Benchmarks/Misc/flops-7, 0.0249, 0.0251, 0.0250,0.025, 0.0251, 0.0253, 0.0251,0.0251,0.40000000000000036
MultiSource/Benchmarks/ASC_Sequoia/CrystalMk/CrystalMk, 0.2023, 0.2029, 0.2023,0.2023, 0.2033, 0.2028, 0.2031,0.2031,0.3954522985664788
SingleSource/Benchmarks/BenchmarkGame/puzzle, 0.0511, 0.0511, 0.0511,0.0511, 0.0513, 0.0513, 0.0514,0.0513,0.3913894324853118
MultiSource/Benchmarks/mediabench/adpcm/rawdaudio/rawdaudio, 0.0519, 0.0521, 0.0519,0.0519, 0.0521, 0.0519, 0.0522,0.0521,0.3853564547206201
MultiSource/Benchmarks/TSVC/CrossingThresholds-dbl/CrossingThresholds-dbl, 1.8300, 1.8304, 1.8327,1.8304, 1.8363, 1.8374, 1.8426,1.8374,0.382430069930062
MultiSource/Benchmarks/Olden/treeadd/treeadd, 0.0529, 0.0527, 0.0529,0.0529, 0.0531, 0.0530, 0.0534,0.0531,0.3780718336483968
MultiSource/Benchmarks/DOE-ProxyApps-C/miniGMG/miniGMG, 0.8737, 0.8736, 0.8730,0.8736, 0.8765, 0.8774, 0.8769,0.8769,0.3777472527472403
MultiSource/Benchmarks/ASCI_Purple/SMG2000/smg2000, 5.0853, 5.0865, 5.0923,5.0865, 5.1014, 5.1057, 5.1119,5.1057,0.3774697729283405
MultiSource/Benchmarks/TSVC/Searching-flt/Searching-flt, 1.4728, 1.4720, 1.4742,1.4728, 1.4783, 1.4757, 1.4807,1.4783,0.37343834872349824
SingleSource/Benchmarks/Shootout/random, 0.0277, 0.0278, 0.0277,0.0277, 0.0278, 0.0278, 0.0279,0.0278,0.3610108303249149
SingleSource/Benchmarks/Misc/fp-convert, 0.0280, 0.0282, 0.0280,0.028, 0.0281, 0.0281, 0.0282,0.0281,0.3571428571428559
MultiSource/Benchmarks/TSVC/Expansion-flt/Expansion-flt, 1.5667, 1.5655, 1.5669,1.5667, 1.5722, 1.5801, 1.5719,1.5722,0.35105636050296596
SingleSource/Benchmarks/Misc/mandel-2, 0.0293, 0.0293, 0.0290,0.0293, 0.0294, 0.0294, 0.0293,0.0294,0.34129692832765013
MultiSource/Benchmarks/TSVC/LinearDependence-flt/LinearDependence-flt, 1.5816, 1.5866, 1.5828,1.5828, 1.5891, 1.5882, 1.5875,1.5882,0.34116755117514774
MultiSource/Benchmarks/MiBench/automotive-bitcount/automotive-bitcount, 0.2378, 0.2378, 0.2379,0.2378, 0.2381, 0.2386, 0.2387,0.2386,0.3364171572750152
MultiSource/Benchmarks/TSVC/LoopRestructuring-dbl/LoopRestructuring-dbl, 1.8436, 1.8511, 1.8454,1.8454, 1.8520, 1.8499, 1.8516,1.8516,0.33597052129619165
SingleSource/Benchmarks/Misc/dt, 0.0299, 0.0300, 0.0298,0.0299, 0.0300, 0.0300, 0.0302,0.03,0.33444816053511683
MultiSource/Applications/aha/aha, 0.0896, 0.0898, 0.0900,0.0898, 0.0900, 0.0901, 0.0902,0.0901,0.33407572383072903
SingleSource/Benchmarks/Misc/ffbench, 0.0609, 0.0611, 0.0608,0.0609, 0.0610, 0.0611, 0.0611,0.0611,0.3284072249589487
SingleSource/Benchmarks/Polybench/linear-algebra/kernels/gesummv/gesummv, 0.0611, 0.0611, 0.0610,0.0611, 0.0615, 0.0613, 0.0613,0.0613,0.3273322422258529
MultiSource/Benchmarks/MiBench/consumer-lame/consumer-lame, 3.5566, 3.5585, 3.5614,3.5585, 3.5685, 3.5701, 3.5739,3.5701,0.32598004777293355
MultiSource/Benchmarks/Prolangs-C++/employ/employ, 0.1847, 0.1849, 0.1843,0.1847, 0.1853, 0.1855, 0.1846,0.1853,0.3248511099079421
MultiSource/Benchmarks/Olden/health/health, 0.1262, 0.1268, 0.1264,0.1264, 0.1254, 0.1268, 0.1272,0.1268,0.3164556962025111
MultiSource/Benchmarks/MallocBench/espresso/espresso, 4.1243, 4.1281, 4.1261,4.1261, 4.1337, 4.1409, 4.1391,4.1391,0.315067497152266
SingleSource/Benchmarks/BenchmarkGame/n-body, 0.0645, 0.0646, 0.0644,0.0645, 0.0644, 0.0647, 0.0647,0.0647,0.31007751937983663
MultiSource/Benchmarks/7zip/7zip-benchmark,30.7740,30.7948,30.7911,30.7911,30.8588,30.8865,30.8982,30.8865,0.3098297884778445
MultiSource/Benchmarks/MiBench/automotive-basicmath/automotive-basicmath, 0.1325, 0.1326, 0.1326,0.1326, 0.1326, 0.1333, 0.1330,0.133,0.3016591251885359
SingleSource/Benchmarks/Polybench/stencils/jacobi-2d-imper/jacobi-2d-imper, 0.1017, 0.1018, 0.1014,0.1017, 0.1020, 0.1020, 0.1020,0.102,0.2949852507374562
SingleSource/Benchmarks/Polybench/datamining/correlation/correlation, 0.0697, 0.0696, 0.0697,0.0697, 0.0700, 0.0699, 0.0698,0.0699,0.2869440459110528
SingleSource/Benchmarks/Shootout/heapsort, 0.0360, 0.0362, 0.0361,0.0361, 0.0362, 0.0362, 0.0361,0.0362,0.27700831024930483
SingleSource/Benchmarks/Shootout-C++/ary3, 0.1448, 0.1452, 0.1455,0.1452, 0.1456, 0.1457, 0.1451,0.1456,0.27548209366392573
SingleSource/Benchmarks/Polybench/linear-algebra/kernels/atax/atax, 0.0726, 0.0728, 0.0726,0.0726, 0.0728, 0.0727, 0.0730,0.0728,0.27548209366392573
MultiSource/Benchmarks/MiBench/telecomm-gsm/telecomm-gsm, 0.9453, 0.9442, 0.9447,0.9447, 0.9478, 0.9460, 0.9473,0.9473,0.2752196464486101
MultiSource/Benchmarks/mediabench/g721/g721encode/encode, 0.1817, 0.1820, 0.1818,0.1818, 0.1838, 0.1822, 0.1823,0.1823,0.2750275027502802
SingleSource/Benchmarks/Polybench/linear-algebra/kernels/mvt/mvt, 0.0732, 0.0734, 0.0733,0.0733, 0.0735, 0.0735, 0.0737,0.0735,0.27285129604364133
SingleSource/Benchmarks/Dhrystone/dry, 0.0381, 0.0364, 0.0380,0.038, 0.0381, 0.0380, 0.0381,0.0381,0.263157894736854
SingleSource/Benchmarks/Polybench/stencils/fdtd-apml/fdtd-apml, 0.1184, 0.1186, 0.1183,0.1184, 0.1187, 0.1187, 0.1185,0.1187,0.2533783783783772
MultiSource/Benchmarks/BitBench/uuencode/uuencode, 0.0395, 0.0396, 0.0394,0.0395, 0.0396, 0.0396, 0.0396,0.0396,0.25316455696202667
MultiSource/Benchmarks/BitBench/uudecode/uudecode, 0.0401, 0.0402, 0.0401,0.0401, 0.0402, 0.0401, 0.0403,0.0402,0.24937655860350905
SingleSource/Benchmarks/Stanford/Queens, 0.0412, 0.0411, 0.0412,0.0412, 0.0413, 0.0413, 0.0413,0.0413,0.24271844660195274
MultiSource/Benchmarks/MiBench/telecomm-FFT/telecomm-fft, 0.1277, 0.1292, 0.1273,0.1277, 0.1278, 0.1280, 0.1282,0.128,0.2349256068911565
SingleSource/Benchmarks/Polybench/linear-algebra/kernels/doitgen/doitgen, 0.0881, 0.0898, 0.0880,0.0881, 0.0883, 0.0881, 0.0883,0.0883,0.2270147559591429
MultiSource/Benchmarks/VersaBench/beamformer/beamformer, 0.2713, 0.2710, 0.2713,0.2713, 0.2723, 0.2713, 0.2719,0.2719,0.22115739034278548
SingleSource/Benchmarks/Stanford/RealMM, 0.0460, 0.0460, 0.0460,0.046, 0.0460, 0.0461, 0.0461,0.0461,0.21739130434783593
MultiSource/Benchmarks/VersaBench/bmm/bmm, 0.0466, 0.0466, 0.0466,0.0466, 0.0467, 0.0466, 0.0467,0.0467,0.21459227467810482
MultiSource/Benchmarks/TSVC/InductionVariable-flt/InductionVariable-flt, 1.5403, 1.5406, 1.5403,1.5403, 1.5514, 1.5435, 1.5436,1.5436,0.2142439784457606
SingleSource/Benchmarks/BenchmarkGame/fannkuch, 0.0469, 0.0471, 0.0469,0.0469, 0.0470, 0.0471, 0.0469,0.047,0.2132196162047073
MultiSource/Benchmarks/mediabench/gsm/toast/toast, 0.9463, 0.9453, 0.9443,0.9453, 0.9473, 0.9471, 0.9490,0.9473,0.21157304559398238
MultiSource/Benchmarks/TSVC/ControlFlow-flt/ControlFlow-flt, 1.6592, 1.6559, 1.6574,1.6574, 1.6612, 1.6570, 1.6609,1.6609,0.2111741281525248
SingleSource/Benchmarks/Shootout-C++/ary2, 0.1428, 0.1432, 0.1434,0.1432, 0.1437, 0.1433, 0.1435,0.1435,0.20949720670391248
MultiSource/Applications/obsequi/Obsequi, 0.8759, 0.8766, 0.8771,0.8766, 0.8771, 0.8791, 0.8784,0.8784,0.2053388090349051
SingleSource/Benchmarks/Misc/fbench, 0.0492, 0.0492, 0.0491,0.0492, 0.0493, 0.0494, 0.0492,0.0493,0.20325203252031798
MultiSource/Benchmarks/BitBench/five11/five11, 0.0493, 0.0492, 0.0494,0.0493, 0.0493, 0.0494, 0.0496,0.0494,0.20283975659229903
SingleSource/Benchmarks/BenchmarkGame/spectral-norm, 0.0498, 0.0499, 0.0496,0.0498, 0.0500, 0.0499, 0.0499,0.0499,0.20080321285140812
MultiSource/Benchmarks/Prolangs-C/gnugo/gnugo, 0.6767, 0.6738, 0.6732,0.6738, 0.6764, 0.6734, 0.6751,0.6751,0.1929355891956197
MultiSource/Benchmarks/MiBench/telecomm-adpcm/telecomm-adpcm, 0.0519, 0.0519, 0.0518,0.0519, 0.0532, 0.0519, 0.0520,0.052,0.19267822736031004
MultiSource/Benchmarks/TSVC/CrossingThresholds-flt/CrossingThresholds-flt, 1.5248, 1.5248, 1.5257,1.5248, 1.5292, 1.5272, 1.5275,1.5275,0.17707240293809434
SingleSource/Benchmarks/Shootout-C++/random, 0.1145, 0.1149, 0.1150,0.1149, 0.1150, 0.1151, 0.1152,0.1151,0.17406440382941035
MultiSource/Benchmarks/ASC_Sequoia/AMGmk/AMGmk, 0.5301, 0.5323, 0.5302,0.5302, 0.5311, 0.5308, 0.5317,0.5311,0.16974726518295125
MultiSource/Benchmarks/Olden/bisort/bisort, 0.0595, 0.0596, 0.0594,0.0595, 0.0593, 0.0596, 0.0596,0.0596,0.1680672268907557
MultiSource/Benchmarks/TSVC/InductionVariable-dbl/InductionVariable-dbl, 1.8483, 1.8282, 1.8468,1.8468, 1.8499, 1.8486, 1.8513,1.8499,0.1678579163959304
MultiSource/Benchmarks/TSVC/ControlLoops-flt/ControlLoops-flt, 1.5688, 1.5673, 1.5741,1.5688, 1.5714, 1.5712, 1.5724,1.5714,0.16573176950533952
SingleSource/Benchmarks/Misc/oourafft, 0.1891, 0.1894, 0.1894,0.1894, 0.1897, 0.1896, 0.1897,0.1897,0.15839493136220462
MultiSource/Benchmarks/TSVC/StatementReordering-flt/StatementReordering-flt, 1.4822, 1.4832, 1.4832,1.4832, 1.4861, 1.4835, 1.4855,1.4855,0.1550701186623593
SingleSource/Benchmarks/Polybench/linear-algebra/solvers/dynprog/dynprog, 0.0673, 0.0663, 0.0662,0.0663, 0.0664, 0.0666, 0.0664,0.0664,0.15082956259426794
SingleSource/Benchmarks/Misc-C++/Large/sphereflake, 0.2010, 0.2005, 0.2005,0.2005, 0.2008, 0.2009, 0.2006,0.2008,0.149625935162101
MultiSource/Benchmarks/VersaBench/8b10b/8b10b, 0.0697, 0.0696, 0.0696,0.0696, 0.0696, 0.0708, 0.0697,0.0697,0.1436781609195359
SingleSource/Benchmarks/Misc/flops, 0.0697, 0.0698, 0.0696,0.0697, 0.0698, 0.0698, 0.0697,0.0698,0.1434720229555264
SingleSource/Benchmarks/Shootout-C++/ary, 0.1421, 0.1417, 0.1417,0.1417, 0.1415, 0.1419, 0.1419,0.1419,0.14114326040932657
MultiSource/Benchmarks/Trimaran/netbench-crc/netbench-crc, 0.0712, 0.0710, 0.0707,0.071, 0.0712, 0.0710, 0.0711,0.0711,0.14084507042253502
SingleSource/Benchmarks/Polybench/linear-algebra/kernels/bicg/bicg, 0.0711, 0.0714, 0.0713,0.0713, 0.0714, 0.0713, 0.0715,0.0714,0.14025245441795509
MultiSource/Benchmarks/TSVC/Reductions-dbl/Reductions-dbl, 1.8838, 1.8825, 1.8847,1.8838, 1.8864, 1.8656, 1.8888,1.8864,0.13801889797220301
MultiSource/Benchmarks/MiBench/network-patricia/network-patricia, 0.0742, 0.0743, 0.0743,0.0743, 0.0744, 0.0744, 0.0745,0.0744,0.13458950201883368
MultiSource/Benchmarks/TSVC/GlobalDataFlow-flt/GlobalDataFlow-flt, 1.5622, 1.5607, 1.5609,1.5609, 1.5636, 1.5620, 1.5630,1.563,0.1345377666730707
MultiSource/Benchmarks/FreeBench/pcompress2/pcompress2, 0.2243, 0.2242, 0.2240,0.2242, 0.2245, 0.2244, 0.2245,0.2245,0.1338090990187224
SingleSource/Benchmarks/Polybench/stencils/jacobi-1d-imper/jacobi-1d-imper, 0.0758, 0.0760, 0.0760,0.076, 0.0761, 0.0761, 0.0764,0.0761,0.1315789473684159
MultiSource/Benchmarks/FreeBench/neural/neural, 0.1580, 0.1583, 0.1582,0.1582, 0.1580, 0.1584, 0.1585,0.1584,0.12642225031604948
MultiSource/Benchmarks/TSVC/StatementReordering-dbl/StatementReordering-dbl, 1.7918, 1.7906, 1.7941,1.7918, 1.7955, 1.7940, 1.7939,1.794,0.12278156044200905
MultiSource/Benchmarks/FreeBench/pifft/pifft, 0.8332, 0.8324, 0.8339,0.8332, 0.8342, 0.8335, 0.8345,0.8342,0.1200192030724967
MultiSource/Applications/d/make_dparser, 2.3310, 2.3310, 2.3343,2.331, 2.3317, 2.3337, 2.3338,2.3337,0.11583011583011782
MultiSource/Benchmarks/McCat/12-IOtest/iotest, 0.0880, 0.0880, 0.0880,0.088, 0.0880, 0.0881, 0.0884,0.0881,0.11363636363637131
MultiSource/Benchmarks/TSVC/IndirectAddressing-flt/IndirectAddressing-flt, 1.5180, 1.5181, 1.5191,1.5181, 1.5316, 1.5178, 1.5197,1.5197,0.10539490152163822
MultiSource/Applications/ALAC/decode/alacconvert-decode, 0.8543, 0.8553, 0.8557,0.8553, 0.8562, 0.8552, 0.8573,0.8562,0.10522623640827344
MultiSource/Benchmarks/TSVC/Searching-dbl/Searching-dbl, 1.7806, 1.7782, 1.7802,1.7802, 1.7820, 1.7805, 1.7820,1.782,0.10111223458038054
MultiSource/Benchmarks/VersaBench/dbms/dbms, 0.8971, 0.8921, 0.8904,0.8921, 0.8939, 0.8930, 0.8928,0.893,0.10088555094720508
MultiSource/Benchmarks/TSVC/LoopRerolling-flt/LoopRerolling-flt, 1.4951, 1.4961, 1.4990,1.4961, 1.4976, 1.4962, 1.4991,1.4976,0.10026067776218728
MultiSource/Benchmarks/Fhourstones-3.1/fhourstones3.1, 0.1061, 0.1061, 0.1064,0.1061, 0.1061, 0.1062, 0.1064,0.1062,0.09425070688029447
SingleSource/Benchmarks/Shootout-C++/heapsort, 0.1211, 0.1228, 0.1209,0.1211, 0.1212, 0.1209, 0.1213,0.1212,0.08257638315443128
SingleSource/Benchmarks/Polybench/medley/reg_detect/reg_detect, 0.3891, 0.3890, 0.3896,0.3891, 0.3898, 0.3894, 0.3888,0.3894,0.07710100231304029
MultiSource/Benchmarks/DOE-ProxyApps-C++/PENNANT/PENNANT, 3.6937, 3.6961, 3.6969,3.6961, 3.6963, 3.7032, 3.6987,3.6987,0.0703444170882861
MultiSource/Applications/viterbi/viterbi, 0.1531, 0.1550, 0.1535,0.1535, 0.1536, 0.1534, 0.1536,0.1536,0.06514657980454253
SingleSource/Benchmarks/Misc-C++/stepanov_v1p2, 0.1564, 0.1567, 0.1573,0.1567, 0.1568, 0.1564, 0.1569,0.1568,0.06381620931716903
MultiSource/Benchmarks/Olden/em3d/em3d, 0.1627, 0.1629, 0.1641,0.1629, 0.1628, 0.1631, 0.1630,0.163,0.06138735420504471
MultiSource/Benchmarks/TSVC/Equivalencing-dbl/Equivalencing-dbl, 1.8435, 1.8376, 1.8397,1.8397, 1.8429, 1.8392, 1.8408,1.8408,0.0597923574495951
MultiSource/Benchmarks/TSVC/ControlLoops-dbl/ControlLoops-dbl, 1.8703, 1.8777, 1.8822,1.8777, 1.8786, 1.8758, 1.8819,1.8786,0.0479309793896876
MultiSource/Benchmarks/FreeBench/fourinarow/fourinarow, 0.3017, 0.3016, 0.3025,0.3017, 0.3016, 0.3018, 0.3022,0.3018,0.033145508783549715
SingleSource/Benchmarks/Stanford/Treesort, 0.0358, 0.0357, 0.0356,0.0357, 0.0357, 0.0357, 0.0358,0.0357,0.0
SingleSource/Benchmarks/Stanford/Towers, 0.0442, 0.0444, 0.0444,0.0444, 0.0444, 0.0444, 0.0445,0.0444,0.0
SingleSource/Benchmarks/Stanford/Perm, 0.0292, 0.0292, 0.0291,0.0292, 0.0292, 0.0292, 0.0293,0.0292,0.0
SingleSource/Benchmarks/Stanford/FloatMM, 0.0487, 0.0501, 0.0487,0.0487, 0.0487, 0.0486, 0.0487,0.0487,0.0
SingleSource/Benchmarks/SmallPT/smallpt, 0.0902, 0.0905, 0.0903,0.0903, 0.0903, 0.0904, 0.0903,0.0903,0.0
SingleSource/Benchmarks/Shootout/strcat, 0.0255, 0.0255, 0.0254,0.0255, 0.0255, 0.0254, 0.0255,0.0255,0.0
SingleSource/Benchmarks/Shootout/sieve, 0.0239, 0.0238, 0.0238,0.0238, 0.0238, 0.0238, 0.0238,0.0238,0.0
SingleSource/Benchmarks/Shootout/objinst, 0.0346, 0.0345, 0.0346,0.0346, 0.0346, 0.0347, 0.0346,0.0346,0.0
SingleSource/Benchmarks/Shootout/methcall, 0.0294, 0.0294, 0.0295,0.0294, 0.0294, 0.0293, 0.0295,0.0294,0.0
SingleSource/Benchmarks/Shootout/fib2, 0.0188, 0.0187, 0.0188,0.0188, 0.0187, 0.0189, 0.0188,0.0188,0.0
SingleSource/Benchmarks/Shootout/ary3, 0.0319, 0.0319, 0.0318,0.0319, 0.0319, 0.0319, 0.0318,0.0319,0.0
SingleSource/Benchmarks/Shootout/ackermann, 0.0221, 0.0221, 0.0221,0.0221, 0.0222, 0.0221, 0.0221,0.0221,0.0
SingleSource/Benchmarks/Shootout-C++/fibo, 0.1064, 0.1067, 0.1062,0.1064, 0.1064, 0.1065, 0.1058,0.1064,0.0
SingleSource/Benchmarks/Polybench/linear-algebra/kernels/syr2k/syr2k, 0.0709, 0.0710, 0.0707,0.0709, 0.0711, 0.0708, 0.0709,0.0709,0.0
SingleSource/Benchmarks/Polybench/datamining/covariance/covariance, 0.0760, 0.0758, 0.0760,0.076, 0.0762, 0.0760, 0.0760,0.076,0.0
SingleSource/Benchmarks/Misc/salsa20, 0.0497, 0.0498, 0.0498,0.0498, 0.0498, 0.0497, 0.0499,0.0498,0.0
SingleSource/Benchmarks/Misc/perlin, 0.0414, 0.0414, 0.0429,0.0414, 0.0414, 0.0414, 0.0415,0.0414,0.0
SingleSource/Benchmarks/Misc/matmul_f64_4x4, 0.0265, 0.0265, 0.0263,0.0265, 0.0264, 0.0265, 0.0265,0.0265,0.0
SingleSource/Benchmarks/Misc/evalloop, 0.0335, 0.0335, 0.0335,0.0335, 0.0335, 0.0335, 0.0334,0.0335,0.0
SingleSource/Benchmarks/Misc-C++/oopack_v1p8, 0.1019, 0.1022, 0.1020,0.102, 0.1020, 0.1017, 0.1021,0.102,0.0
SingleSource/Benchmarks/McGill/queens, 0.0413, 0.0413, 0.0414,0.0413, 0.0413, 0.0413, 0.0413,0.0413,0.0
SingleSource/Benchmarks/McGill/misr, 0.0491, 0.0491, 0.0490,0.0491, 0.0491, 0.0491, 0.0491,0.0491,0.0
MultiSource/Benchmarks/mediabench/adpcm/rawcaudio/rawcaudio, 0.0521, 0.0523, 0.0519,0.0521, 0.0520, 0.0521, 0.0522,0.0521,0.0
MultiSource/Benchmarks/Trimaran/enc-rc4/enc-rc4, 0.0459, 0.0459, 0.0457,0.0459, 0.0459, 0.0461, 0.0459,0.0459,0.0
MultiSource/Benchmarks/Prolangs-C++/simul/simul, 0.0486, 0.0487, 0.0484,0.0486, 0.0486, 0.0486, 0.0486,0.0486,0.0
MultiSource/Benchmarks/NPB-serial/is/is, 0.0591, 0.0591, 0.0590,0.0591, 0.0589, 0.0591, 0.0603,0.0591,0.0
MultiSource/Benchmarks/MiBench/security-sha/security-sha, 0.1084, 0.1069, 0.1069,0.1069, 0.1068, 0.1069, 0.1070,0.1069,0.0
MultiSource/Benchmarks/McCat/04-bisect/bisect, 0.1178, 0.1177, 0.1176,0.1177, 0.1177, 0.1180, 0.1177,0.1177,0.0
MultiSource/Benchmarks/McCat/03-testtrie/testtrie, 0.0859, 0.0846, 0.0847,0.0847, 0.0845, 0.0847, 0.0847,0.0847,0.0
MultiSource/Benchmarks/ASC_Sequoia/IRSmk/IRSmk, 0.0941, 0.0943, 0.0953,0.0943, 0.0943, 0.0942, 0.0946,0.0943,0.0
MultiSource/Applications/sgefa/sgefa, 0.3522, 0.3519, 0.3521,0.3521, 0.3521, 0.3515, 0.3521,0.3521,0.0
MultiSource/Benchmarks/TSVC/ControlFlow-dbl/ControlFlow-dbl, 1.9655, 1.9402, 1.9656,1.9655, 1.9641, 1.9653, 1.9697,1.9653,-0.010175527855504907
MultiSource/Benchmarks/MallocBench/cfrac/cfrac, 0.8039, 0.8057, 0.8039,0.8039, 0.8038, 0.8064, 0.8037,0.8038,-0.012439358129123779
MultiSource/Benchmarks/DOE-ProxyApps-C/Pathfinder/PathFinder, 0.7350, 0.7356, 0.7345,0.735, 0.7349, 0.7337, 0.7350,0.7349,-0.01360544217686721
MultiSource/Benchmarks/DOE-ProxyApps-C/miniAMR/miniAMR, 1.2071, 1.2092, 1.2085,1.2085, 1.2083, 1.2083, 1.2094,1.2083,-0.01654944145634829
MultiSource/Benchmarks/TSVC/Equivalencing-flt/Equivalencing-flt, 1.5268, 1.5267, 1.5280,1.5268, 1.5155, 1.5265, 1.5297,1.5265,-0.019648938957295137
MultiSource/Benchmarks/TSVC/Recurrences-dbl/Recurrences-dbl, 1.7919, 1.7935, 1.7970,1.7935, 1.7951, 1.7929, 1.7919,1.7929,-0.03345413994982893
MultiSource/Benchmarks/MiBench/automotive-susan/automotive-susan, 0.5560, 0.5548, 0.5552,0.5552, 0.5550, 0.5551, 0.5544,0.555,-0.036023054755041084
SingleSource/Benchmarks/Linpack/linpack-pc, 0.2763, 0.2756, 0.2759,0.2759, 0.2754, 0.2758, 0.2760,0.2758,-0.03624501631025456
MultiSource/Benchmarks/Prolangs-C++/city/city, 0.8270, 0.8288, 0.8261,0.827, 0.8267, 0.8269, 0.8262,0.8267,-0.0362756952841603
MultiSource/Benchmarks/TSVC/Expansion-dbl/Expansion-dbl, 1.8796, 1.8862, 1.8772,1.8796, 1.8808, 1.8789, 1.8786,1.8789,-0.03724196637582278
SingleSource/Benchmarks/Adobe-C++/loop_unroll, 3.9933, 3.9884, 3.9968,3.9933, 3.9917, 3.9837, 3.9934,3.9917,-0.04006711241330008
MultiSource/Benchmarks/McCat/05-eks/eks, 0.4704, 0.4694, 0.4717,0.4704, 0.4704, 0.4701, 0.4702,0.4702,-0.04251700680271142
MultiSource/Benchmarks/Prolangs-C/agrep/agrep, 1.2018, 1.1998, 1.1998,1.1998, 1.1991, 1.1990, 1.2004,1.1991,-0.05834305717619115
MultiSource/Benchmarks/Fhourstones/fhourstones, 0.1487, 0.1490, 0.1491,0.149, 0.1488, 0.1489, 0.1492,0.1489,-0.06711409395971923
MultiSource/Benchmarks/TSVC/Recurrences-flt/Recurrences-flt, 1.4847, 1.4817, 1.4822,1.4822, 1.4812, 1.4812, 1.4849,1.4812,-0.06746727836998145
MultiSource/Benchmarks/Ptrdist/ks/ks, 0.1313, 0.1316, 0.1315,0.1315, 0.1313, 0.1314, 0.1316,0.1314,-0.07604562737644205
MultiSource/Benchmarks/sim/sim, 0.2555, 0.2552, 0.2554,0.2554, 0.2552, 0.2552, 0.2547,0.2552,-0.0783085356304003
MultiSource/Applications/ALAC/encode/alacconvert-encode, 0.8541, 0.8558, 0.8559,0.8558, 0.8550, 0.8551, 0.8563,0.8551,-0.08179481187193804
MultiSource/Benchmarks/TSVC/GlobalDataFlow-dbl/GlobalDataFlow-dbl, 1.8653, 1.8677, 1.8692,1.8677, 1.8685, 1.8638, 1.8661,1.8661,-0.08566686298655535
MultiSource/Benchmarks/TSVC/LinearDependence-dbl/LinearDependence-dbl, 1.8904, 1.8938, 1.8931,1.8931, 1.8908, 1.8926, 1.8913,1.8913,-0.09508214040462315
MultiSource/Applications/lua/lua, 2.9250, 2.9251, 2.9312,2.9251, 2.9220, 2.9223, 2.9290,2.9223,-0.09572322313767812
MultiSource/Benchmarks/Prolangs-C/bison/mybison, 1.4589, 1.4574, 1.4601,1.4589, 1.4591, 1.4567, 1.4575,1.4575,-0.09596271163205827
SingleSource/Benchmarks/Stanford/Puzzle, 0.0999, 0.1000, 0.0998,0.0999, 0.0998, 0.0996, 0.0998,0.0998,-0.10010010010009784
SingleSource/Benchmarks/Polybench/linear-algebra/solvers/gramschmidt/gramschmidt, 0.0921, 0.0923, 0.0922,0.0922, 0.0921, 0.0920, 0.0923,0.0921,-0.10845986984815426
MultiSource/Benchmarks/nbench/nbench, 1.0068, 1.0061, 1.0066,1.0066, 1.0051, 1.0055, 1.0062,1.0055,-0.10927876018278493
MultiSource/Benchmarks/McCat/01-qbsort/qbsort, 0.0896, 0.0894, 0.0895,0.0895, 0.0896, 0.0894, 0.0894,0.0894,-0.11173184357542443
SingleSource/Benchmarks/Misc/ReedSolomon, 0.1689, 0.1692, 0.1698,0.1692, 0.1689, 0.1694, 0.1690,0.169,-0.11820330969265491
SingleSource/Benchmarks/McGill/chomp, 0.1684, 0.1685, 0.1685,0.1685, 0.1679, 0.1687, 0.1683,0.1683,-0.1186943620178127
MultiSource/Benchmarks/McCat/18-imp/imp, 0.2995, 0.2991, 0.2994,0.2994, 0.2990, 0.2986, 0.2993,0.299,-0.13360053440214514
MultiSource/Benchmarks/McCat/17-bintr/bintr, 0.0651, 0.0649, 0.0654,0.0651, 0.0650, 0.0649, 0.0651,0.065,-0.1536098310291889
MultiSource/Benchmarks/MallocBench/gs/gs, 3.4163, 3.4164, 3.4211,3.4164, 3.4107, 3.4110, 3.4181,3.411,-0.15806111696522462
MultiSource/Benchmarks/Trimaran/netbench-url/netbench-url, 0.1886, 0.1885, 0.1883,0.1885, 0.1882, 0.1882, 0.1884,0.1882,-0.15915119363394403
MultiSource/Benchmarks/Trimaran/enc-pc1/enc-pc1, 0.0588, 0.0589, 0.0587,0.0588, 0.0585, 0.0588, 0.0587,0.0587,-0.170068027210879
SingleSource/Benchmarks/Misc/richards_benchmark, 0.0584, 0.0585, 0.0584,0.0584, 0.0583, 0.0581, 0.0583,0.0583,-0.171232876712335
SingleSource/Benchmarks/Shootout-C++/strcat, 0.1157, 0.1163, 0.1157,0.1157, 0.1155, 0.1157, 0.1154,0.1155,-0.17286084701814142
MultiSource/Applications/JM/lencod/lencod,13.2939,13.2927,13.2988,13.2939,13.2686,13.2696,13.2811,13.2696,-0.1827906032089932
MultiSource/Benchmarks/Prolangs-C++/life/life, 0.0547, 0.0547, 0.0548,0.0547, 0.0547, 0.0544, 0.0546,0.0546,-0.1828153564899404
SingleSource/Benchmarks/Shootout-C++/ackermann, 0.1077, 0.1079, 0.1082,0.1079, 0.1081, 0.1077, 0.1077,0.1077,-0.1853568118628246
MultiSource/Applications/JM/ldecod/ldecod, 5.6670, 5.6770, 5.6731,5.6731, 5.6597, 5.6620, 5.6651,5.662,-0.19566022104317016
MultiSource/Benchmarks/Prolangs-C++/ocean/ocean, 0.0999, 0.1001, 0.1000,0.1, 0.0997, 0.0998, 0.0998,0.0998,-0.20000000000000018
SingleSource/Benchmarks/Adobe-C++/simple_types_loop_invariant, 1.8278, 1.8344, 1.8315,1.8315, 1.8278, 1.8285, 1.8233,1.8278,-0.20202020202019222
SingleSource/Benchmarks/Misc-C++/Large/ray, 0.1931, 0.1938, 0.1935,0.1935, 0.1931, 0.1931, 0.1933,0.1931,-0.20671834625323182
SingleSource/Benchmarks/Shootout/hash, 0.0483, 0.0472, 0.0471,0.0472, 0.0471, 0.0470, 0.0473,0.0471,-0.21186440677964935
MultiSource/Applications/hexxagon/hexxagon, 0.6034, 0.6058, 0.6053,0.6053, 0.6040, 0.6040, 0.6044,0.604,-0.21476953576737845
MultiSource/Benchmarks/TSVC/IndirectAddressing-dbl/IndirectAddressing-dbl, 1.8264, 1.8278, 1.8281,1.8278, 1.8238, 1.8238, 1.8246,1.8238,-0.21884232410548377
MultiSource/Benchmarks/FreeBench/mason/mason, 0.0456, 0.0456, 0.0457,0.0456, 0.0456, 0.0455, 0.0455,0.0455,-0.21929824561404132
MultiSource/Benchmarks/llubenchmark/llu, 0.0431, 0.0431, 0.0430,0.0431, 0.0430, 0.0430, 0.0431,0.043,-0.23201856148492572
MultiSource/Benchmarks/Bullet/bullet,20.9038,20.9442,20.9293,20.9293,20.8730,20.8804,20.8984,20.8804,-0.2336437434601213
MultiSource/Applications/lambda-0.1.3/lambda, 0.5038, 0.5043, 0.5039,0.5039, 0.5027, 0.5017, 0.5033,0.5027,-0.23814248858899933
MultiSource/Benchmarks/TSVC/LoopRerolling-dbl/LoopRerolling-dbl, 1.8055, 1.8091, 1.8050,1.8055, 1.8097, 1.7989, 1.8010,1.801,-0.24923843810579216
MultiSource/Benchmarks/Olden/tsp/tsp, 0.1181, 0.1181, 0.1182,0.1181, 0.1186, 0.1174, 0.1178,0.1178,-0.2540220152413175
MultiSource/Benchmarks/MiBench/network-dijkstra/network-dijkstra, 0.0387, 0.0387, 0.0387,0.0387, 0.0387, 0.0385, 0.0386,0.0386,-0.2583979328165231
MultiSource/Benchmarks/Ptrdist/yacr2/yacr2, 0.5482, 0.5474, 0.5475,0.5475, 0.5457, 0.5477, 0.5460,0.546,-0.2739726027397138
SingleSource/Benchmarks/Shootout-C++/nestedloop, 0.1066, 0.1073, 0.1070,0.107, 0.1067, 0.1066, 0.1070,0.1067,-0.2803738317756932
SingleSource/Benchmarks/Stanford/Quicksort, 0.0347, 0.0346, 0.0347,0.0347, 0.0346, 0.0347, 0.0346,0.0346,-0.2881844380403509
MultiSource/Applications/SIBsim4/SIBsim4, 1.0344, 1.0326, 1.0350,1.0344, 1.0316, 1.0314, 1.0310,1.0314,-0.2900232018561377
SingleSource/Benchmarks/Shootout-C++/matrix, 0.1681, 0.1680, 0.1684,0.1681, 0.1676, 0.1677, 0.1675,0.1676,-0.2974419988102328
SingleSource/Regression/C/uint64_to_float, 0.0336, 0.0321, 0.0336,0.0336, 0.0336, 0.0335, 0.0335,0.0335,-0.29761904761903546
MultiSource/Benchmarks/mediabench/mpeg2/mpeg2dec/mpeg2decode, 1.1995, 1.1996, 1.1991,1.1995, 1.1958, 1.1957, 1.1968,1.1958,-0.30846185910796686
SingleSource/Benchmarks/Adobe-C++/simple_types_constant_folding, 2.2695, 2.2672, 2.2650,2.2672, 2.2602, 2.2602, 2.2682,2.2602,-0.30875088214535884
MultiSource/Applications/oggenc/oggenc, 4.4049, 4.4055, 4.4059,4.4055, 4.3901, 4.3916, 4.3952,4.3916,-0.3155146975371559
SingleSource/Benchmarks/Shootout/lists, 0.0612, 0.0614, 0.0615,0.0614, 0.0612, 0.0610, 0.0613,0.0612,-0.32573289902281255
SingleSource/Benchmarks/Shootout-C++/EH/except, 0.1200, 0.1197, 0.1201,0.12, 0.1196, 0.1199, 0.1196,0.1196,-0.33333333333332993
MultiSource/Benchmarks/DOE-ProxyApps-C++/CLAMR/CLAMR,16.4173,16.4206,16.4269,16.4206,16.3644,16.3685,16.3629,16.3644,-0.34225302364103705
MultiSource/Benchmarks/mafft/pairlocalalign, 7.8541, 7.8476, 7.8645,7.8541, 7.8272, 7.8229, 7.8283,7.8272,-0.3424962758304506
MultiSource/Benchmarks/mediabench/jpeg/jpeg-6a/cjpeg, 4.0574, 4.0587, 4.0603,4.0587, 4.0447, 4.0447, 4.0468,4.0447,-0.34493803434597625
MultiSource/Benchmarks/MiBench/consumer-jpeg/consumer-jpeg, 4.0191, 4.0212, 4.0226,4.0212, 4.0043, 4.0072, 4.0099,4.0072,-0.3481547796677642
MultiSource/Benchmarks/FreeBench/distray/distray, 0.0844, 0.0847, 0.0846,0.0846, 0.0842, 0.0843, 0.0844,0.0843,-0.35460992907800915
SingleSource/Benchmarks/Shootout-C++/sieve, 0.1670, 0.1678, 0.1677,0.1677, 0.1671, 0.1671, 0.1672,0.1671,-0.3577817531305816
SingleSource/Benchmarks/Shootout/matrix, 0.0749, 0.0749, 0.0748,0.0749, 0.0746, 0.0746, 0.0745,0.0746,-0.4005340453938522
SingleSource/Benchmarks/Shootout-C++/methcall, 0.1150, 0.1154, 0.1151,0.1151, 0.1146, 0.1149, 0.1144,0.1146,-0.4344048653344923
SingleSource/Benchmarks/Misc-C++/mandel-text, 0.0227, 0.0227, 0.0227,0.0227, 0.0226, 0.0226, 0.0226,0.0226,-0.440528634361248
MultiSource/Benchmarks/Ptrdist/anagram/anagram, 0.0908, 0.0908, 0.0910,0.0908, 0.0902, 0.0904, 0.0907,0.0904,-0.440528634361248
MultiSource/Applications/siod/siod, 1.7715, 1.7728, 1.7743,1.7728, 1.7633, 1.7647, 1.7676,1.7647,-0.4569043321299593
MultiSource/Benchmarks/Ptrdist/ft/ft, 0.1913, 0.1914, 0.1916,0.1914, 0.1905, 0.1904, 0.1907,0.1905,-0.470219435736674
MultiSource/Applications/ClamAV/clamscan,12.9855,12.9886,12.9998,12.9886,12.9224,12.9263,12.9358,12.9263,-0.47965138660056583
MultiSource/Applications/kimwitu++/kc,10.0899,10.0829,10.0900,10.0899,10.0200,10.0387,10.0554,10.0387,-0.5074381312004994
MultiSource/Benchmarks/Ptrdist/bc/bc, 0.9118, 0.9122, 0.9115,0.9118, 0.9064, 0.9066, 0.9095,0.9066,-0.5703005044966125
SingleSource/Benchmarks/Stanford/Bubblesort, 0.0315, 0.0316, 0.0330,0.0316, 0.0314, 0.0316, 0.0314,0.0314,-0.6329113924050778
SingleSource/Benchmarks/Misc-C++-EH/spirit, 3.2982, 3.3047, 3.3070,3.3047, 3.2833, 3.2879, 3.2793,3.2833,-0.6475625624111081
MultiSource/Benchmarks/PAQ8p/paq8p, 1.7184, 1.7215, 1.7212,1.7212, 1.7083, 1.7092, 1.7097,1.7092,-0.6971880083662563
SingleSource/Benchmarks/Shootout-C++/lists1, 0.1807, 0.1818, 0.1817,0.1817, 0.1803, 0.1804, 0.1806,0.1804,-0.7154650522839812
SingleSource/Benchmarks/Misc-C++/bigfib, 0.4020, 0.4025, 0.4044,0.4025, 0.4005, 0.3996, 0.3991,0.3996,-0.7204968944099388
MultiSource/Applications/SPASS/SPASS,11.0302,11.0224,11.0354,11.0302,10.9470,10.9473,10.9588,10.9473,-0.7515729542528771
MultiSource/Benchmarks/tramp3d-v4/tramp3d-v4,18.6084,18.5813,18.6422,18.6084,18.4604,18.4621,18.4655,18.4621,-0.7862040798779057
MultiSource/Applications/hbd/hbd, 1.0916, 1.0944, 1.0900,1.0916, 1.0840, 1.0819, 1.0828,1.0828,-0.8061561011359353
SingleSource/Benchmarks/Shootout-C++/objinst, 0.1292, 0.1301, 0.1299,0.1299, 0.1291, 0.1288, 0.1287,0.1288,-0.8468052347959887
SingleSource/Benchmarks/Shootout/nestedloop, 0.0227, 0.0228, 0.0228,0.0228, 0.0227, 0.0226, 0.0225,0.0226,-0.8771929824561542
SingleSource/Benchmarks/Shootout-C++/lists, 0.1475, 0.1479, 0.1477,0.1477, 0.1464, 0.1461, 0.1464,0.1464,-0.8801624915368955
SingleSource/Benchmarks/CoyoteBench/lpbench, 0.1359, 0.1361, 0.1360,0.136, 0.1348, 0.1351, 0.1348,0.1348,-0.8823529411764786
MultiSource/Benchmarks/MiBench/consumer-typeset/consumer-typeset, 8.9020, 8.9058, 8.9081,8.9058, 8.8198, 8.8270, 8.8353,8.827,-0.8848166363493393
SingleSource/Benchmarks/Shootout-C++/hash, 0.2453, 0.2461, 0.2452,0.2453, 0.2431, 0.2431, 0.2424,0.2431,-0.8968609865470767
MultiSource/Benchmarks/McCat/09-vor/vor, 0.2518, 0.2510, 0.2516,0.2516, 0.2490, 0.2489, 0.2511,0.249,-1.0333863275039712
SingleSource/Benchmarks/Shootout-C++/hash2, 0.2774, 0.2782, 0.2779,0.2779, 0.2747, 0.2749, 0.2745,0.2747,-1.1514933429290997
SingleSource/Benchmarks/CoyoteBench/huffbench, 0.0770, 0.0774, 0.0773,0.0773, 0.0760, 0.0759, 0.0760,0.076,-1.68175937904268
SingleSource/Benchmarks/Adobe-C++/functionobjects, 0.4144, 0.4136, 0.4132,0.4136, 0.4047, 0.4046, 0.4055,0.4047,-2.1518375241779575
SingleSource/Benchmarks/Shootout-C++/moments, 0.2239, 0.2246, 0.2241,0.2241, 0.2180, 0.2187, 0.2177,0.218,-2.721999107541273
SingleSource/Benchmarks/Misc-C++/stepanov_container, 0.6070, 0.6080, 0.6076,0.6076, 0.5897, 0.5907, 0.5901,0.5901,-2.880184331797242
MultiSource/Benchmarks/Olden/voronoi/voronoi, 0.2203, 0.2207, 0.2205,0.2205, 0.1972, 0.1972, 0.1983,0.1972,-10.566893424036284
SingleSource/Benchmarks/Adobe-C++/stepanov_abstraction, 0.5532, 0.5511, 0.5536,0.5532, 0.4920, 0.4913, 0.4922,0.492,-11.062906724511933
Total elapsed time,-,-,-,333.8447,-,-,-,333.6538000000003,-0.057182276669276444
Total failure,-,-,-,0,-,-,-,0,
Geom. avg slowdown,,,,,,,,,0.136945294546%
