Benchmarks,base-5.0,base-5.0,base-5.0,median,nocapture-5.0,nocapture-5.0,nocapture-5.0,median,Slowdown(%)
SingleSource/Benchmarks/Shootout/sieve, 3.4709, 3.4702, 3.4685,3.4702, 3.8012, 3.8013, 3.7982,3.8012,9.538355138032383
MultiSource/Benchmarks/Bullet/bullet, 3.2502, 3.2491, 3.2454,3.2491, 3.3326, 3.3342, 3.3301,3.3326,2.569942445600315
SingleSource/Benchmarks/Polybench/linear-algebra/kernels/gemver/gemver, 0.3211, 0.3215, 0.3222,0.3215, 0.3266, 0.3260, 0.3266,0.3266,1.5863141524105728
SingleSource/Benchmarks/Misc-C++-EH/spirit, 2.6175, 2.6167, 2.6210,2.6175, 2.6565, 2.6565, 2.6566,2.6565,1.4899713467048548
MultiSource/Applications/sqlite3/sqlite3, 1.7780, 1.7811, 1.7754,1.778, 1.8016, 1.7913, 1.8000,1.8,1.2373453318335281
MultiSource/Benchmarks/Olden/voronoi/voronoi, 0.2137, 0.2136, 0.2133,0.2136, 0.2162, 0.2161, 0.2159,0.2161,1.1704119850187045
SingleSource/Benchmarks/BenchmarkGame/Large/fasta, 0.6449, 0.6504, 0.6458,0.6458, 0.6444, 0.6509, 0.6509,0.6509,0.7897181790027963
SingleSource/Benchmarks/Shootout-C++/hash2, 1.7154, 1.7131, 1.7155,1.7154, 1.7279, 1.7283, 1.7276,1.7279,0.7286930162061278
MultiSource/Applications/kimwitu++/kc, 0.0282, 0.0281, 0.0281,0.0281, 0.0281, 0.0283, 0.0283,0.0283,0.7117437722419906
MultiSource/Benchmarks/MallocBench/cfrac/cfrac, 0.7592, 0.7591, 0.7593,0.7592, 0.7642, 0.7638, 0.7646,0.7642,0.6585879873551193
MultiSource/Benchmarks/Ptrdist/ks/ks, 0.6496, 0.6531, 0.6505,0.6505, 0.6547, 0.6546, 0.6537,0.6546,0.6302843966179861
MultiSource/Applications/lua/lua,11.1149,11.0874,11.1027,11.1027,11.1323,11.1485,11.1548,11.1485,0.4125122717897334
MultiSource/Benchmarks/Prolangs-C++/primes/primes, 0.2125, 0.2125, 0.2144,0.2125, 0.2142, 0.2132, 0.2133,0.2133,0.3764705882352892
MultiSource/Benchmarks/McCat/09-vor/vor, 0.0828, 0.0828, 0.0830,0.0828, 0.0831, 0.0832, 0.0831,0.0831,0.36231884057971175
MultiSource/Benchmarks/Ptrdist/bc/bc, 0.3640, 0.3634, 0.3636,0.3636, 0.3650, 0.3648, 0.3649,0.3649,0.3575357535753554
SingleSource/Benchmarks/Polybench/linear-algebra/kernels/cholesky/cholesky, 0.4549, 0.4554, 0.4568,0.4554, 0.4614, 0.4559, 0.4570,0.457,0.3513394817742599
MultiSource/Benchmarks/VersaBench/dbms/dbms, 0.8882, 0.8969, 0.8906,0.8906, 0.8892, 0.8935, 0.8950,0.8935,0.3256231753873795
MultiSource/Benchmarks/TSVC/Symbolics-flt/Symbolics-flt, 1.3884, 1.3954, 1.3875,1.3884, 1.3949, 1.3924, 1.3919,1.3924,0.28810141169692827
MultiSource/Benchmarks/DOE-ProxyApps-C/SimpleMOC/SimpleMOC, 3.7957, 3.7806, 3.7866,3.7866, 3.8026, 3.7969, 3.7794,3.7969,0.2720118311942077
MultiSource/Benchmarks/MiBench/telecomm-FFT/telecomm-fft, 0.0382, 0.0381, 0.0381,0.0381, 0.0381, 0.0382, 0.0382,0.0382,0.2624671916010346
MultiSource/Applications/lambda-0.1.3/lambda, 2.6398, 2.6485, 2.6596,2.6485, 2.6559, 2.6551, 2.6536,2.6551,0.24919765905229152
MultiSource/Benchmarks/TSVC/LinearDependence-flt/LinearDependence-flt, 4.9821, 4.9762, 4.9843,4.9821, 5.0010, 4.9944, 4.9867,4.9944,0.24688384416209352
MultiSource/Benchmarks/mafft/pairlocalalign,24.6627,24.6616,24.6617,24.6617,24.7196,24.7202,24.7209,24.7202,0.23720992470104285
MultiSource/Benchmarks/McCat/12-IOtest/iotest, 0.2143, 0.2145, 0.2146,0.2145, 0.2144, 0.2167, 0.2150,0.215,0.2331002331002363
SingleSource/Benchmarks/Shootout-C++/lists, 2.9699, 2.9636, 2.9686,2.9686, 2.9767, 2.9755, 2.9676,2.9755,0.2324327966044537
MultiSource/Benchmarks/Olden/health/health, 0.1434, 0.1435, 0.1435,0.1435, 0.1438, 0.1445, 0.1434,0.1438,0.2090592334494934
MultiSource/Benchmarks/TSVC/InductionVariable-flt/InductionVariable-flt, 2.5598, 2.5539, 2.5578,2.5578, 2.5631, 2.5658, 2.5577,2.5631,0.20720932050981578
MultiSource/Benchmarks/TSVC/ControlFlow-flt/ControlFlow-flt, 3.5461, 3.5591, 3.5630,3.5591, 3.5857, 3.5659, 3.5552,3.5659,0.19105953752354132
MultiSource/Benchmarks/DOE-ProxyApps-C++/PENNANT/PENNANT, 0.3697, 0.3698, 0.3696,0.3697, 0.3705, 0.3702, 0.3704,0.3704,0.1893427103056622
SingleSource/Benchmarks/Stanford/Treesort, 0.0545, 0.0544, 0.0544,0.0544, 0.0545, 0.0546, 0.0545,0.0545,0.18382352941177516
SingleSource/Benchmarks/Adobe-C++/functionobjects, 3.0294, 3.0298, 3.0288,3.0294, 3.0334, 3.0349, 3.0386,3.0349,0.18155410312272746
MultiSource/Benchmarks/TSVC/LoopRestructuring-dbl/LoopRestructuring-dbl, 3.6397, 3.6377, 3.6432,3.6397, 3.6463, 3.6528, 3.6386,3.6463,0.18133362639778383
MultiSource/Benchmarks/MallocBench/espresso/espresso, 0.3012, 0.2986, 0.2983,0.2986, 0.2990, 0.2994, 0.2991,0.2991,0.16744809109177083
MultiSource/Benchmarks/Olden/perimeter/perimeter, 0.1217, 0.1220, 0.1219,0.1219, 0.1221, 0.1218, 0.1221,0.1221,0.1640689089417613
SingleSource/Benchmarks/Misc-C++/bigfib, 0.1912, 0.1906, 0.1906,0.1906, 0.1910, 0.1909, 0.1907,0.1909,0.15739769150051597
MultiSource/Benchmarks/DOE-ProxyApps-C++/HPCCG/HPCCG, 0.9021, 0.9005, 0.8995,0.9005, 0.9013, 0.9024, 0.9019,0.9019,0.15546918378679386
MultiSource/Benchmarks/TSVC/Equivalencing-dbl/Equivalencing-dbl, 1.3880, 1.3857, 1.3856,1.3857, 1.3864, 1.3877, 1.3880,1.3877,0.1443313848596306
MultiSource/Benchmarks/Prolangs-C++/life/life, 0.7136, 0.7145, 0.7148,0.7145, 0.7155, 0.7153, 0.7185,0.7155,0.13995801259623075
MultiSource/Benchmarks/TSVC/IndirectAddressing-flt/IndirectAddressing-flt, 2.2425, 2.2463, 2.2442,2.2442, 2.2498, 2.2473, 2.2472,2.2473,0.1381338561625478
SingleSource/Benchmarks/CoyoteBench/lpbench, 1.8173, 1.8191, 1.8137,1.8173, 1.8196, 1.8200, 1.8189,1.8196,0.12656138227040703
MultiSource/Benchmarks/7zip/7zip-benchmark, 6.3323, 6.3313, 6.3309,6.3313, 6.3392, 6.3404, 6.3388,6.3392,0.12477690205803249
MultiSource/Benchmarks/ASCI_Purple/SMG2000/smg2000, 1.1664, 1.1696, 1.1669,1.1669, 1.1682, 1.1689, 1.1683,1.1683,0.11997600479902726
SingleSource/Benchmarks/Linpack/linpack-pc, 1.2417, 1.2405, 1.2404,1.2405, 1.2410, 1.2463, 1.2419,1.2419,0.11285771866182959
SingleSource/Benchmarks/Shootout/strcat, 0.1051, 0.1050, 0.1050,0.105, 0.1051, 0.1051, 0.1052,0.1051,0.09523809523810378
SingleSource/Benchmarks/Misc/ffbench, 0.5850, 0.5853, 0.5843,0.585, 0.5835, 0.5868, 0.5855,0.5855,0.08547008547008517
MultiSource/Benchmarks/Olden/treeadd/treeadd, 0.1264, 0.1266, 0.1264,0.1264, 0.1265, 0.1265, 0.1265,0.1265,0.07911392405062223
SingleSource/Benchmarks/Shootout/heapsort, 2.0368, 2.0389, 2.0372,2.0372, 2.0373, 2.0388, 2.0398,2.0388,0.07853917141176225
SingleSource/Benchmarks/Shootout-C++/ary3, 0.5360, 0.5383, 0.5367,0.5367, 0.5371, 0.5370, 0.5413,0.5371,0.0745295323272055
MultiSource/Benchmarks/TSVC/Searching-flt/Searching-flt, 2.4315, 2.4327, 2.4343,2.4327, 2.4345, 2.4350, 2.4329,2.4345,0.07399186089529497
MultiSource/Benchmarks/DOE-ProxyApps-C++/CLAMR/CLAMR, 1.1202, 1.1202, 1.1201,1.1202, 1.1209, 1.1211, 1.1210,1.121,0.07141581860381496
MultiSource/Benchmarks/SciMark2-C/scimark2,42.0700,42.0691,42.0903,42.07,42.0962,42.1236,42.0926,42.0962,0.06227715711908388
SingleSource/Benchmarks/Adobe-C++/loop_unroll, 1.7723, 1.7734, 1.7752,1.7734, 1.7757, 1.7737, 1.7745,1.7745,0.06202774331791616
MultiSource/Benchmarks/DOE-ProxyApps-C++/miniFE/miniFE, 2.4659, 2.4619, 2.4673,2.4659, 2.4661, 2.4674, 2.4711,2.4674,0.060829717344579315
MultiSource/Benchmarks/Ptrdist/yacr2/yacr2, 0.5304, 0.5300, 0.5299,0.53, 0.5298, 0.5303, 0.5305,0.5303,0.056603773584895656
SingleSource/Benchmarks/Misc/evalloop, 0.3683, 0.3680, 0.3690,0.3683, 0.3687, 0.3679, 0.3685,0.3685,0.054303556882961956
SingleSource/Benchmarks/Polybench/stencils/adi/adi, 2.8039, 2.8038, 2.8040,2.8039, 2.8041, 2.8054, 2.8057,2.8054,0.053496915011241875
SingleSource/Benchmarks/Polybench/linear-algebra/kernels/trmm/trmm, 2.3572, 2.3519, 2.3510,2.3519, 2.3616, 2.3482, 2.3531,2.3531,0.05102257749054484
MultiSource/Benchmarks/TSVC/Packing-dbl/Packing-dbl, 2.3235, 2.3243, 2.3244,2.3243, 2.3255, 2.3254, 2.3254,2.3254,0.04732607666824151
MultiSource/Benchmarks/BitBench/five11/five11, 1.1100, 1.1100, 1.1110,1.11, 1.1105, 1.1114, 1.1045,1.1105,0.04504504504503348
MultiSource/Benchmarks/Trimaran/enc-3des/enc-3des, 1.2894, 1.2895, 1.2893,1.2894, 1.2899, 1.2899, 1.2899,1.2899,0.0387777260741462
MultiSource/Applications/aha/aha, 1.0373, 1.0371, 1.0377,1.0373, 1.0378, 1.0376, 1.0377,1.0377,0.0385616504386288
SingleSource/Benchmarks/Shootout/lists, 4.0791, 4.0819, 4.0799,4.0799, 4.0814, 4.0805, 4.0824,4.0814,0.03676560700016651
MultiSource/Applications/obsequi/Obsequi, 1.0943, 1.0935, 1.0935,1.0935, 1.0940, 1.0939, 1.0938,1.0939,0.03657978966622455
SingleSource/Benchmarks/Shootout-C++/fibo, 1.4769, 1.4778, 1.4762,1.4769, 1.4774, 1.4739, 1.4779,1.4774,0.03385469564627375
MultiSource/Benchmarks/Ptrdist/anagram/anagram, 0.6001, 0.6001, 0.6002,0.6001, 0.6004, 0.6003, 0.6002,0.6003,0.0333277787035513
MultiSource/Benchmarks/TSVC/ControlLoops-dbl/ControlLoops-dbl, 2.5416, 2.5407, 2.5405,2.5407, 2.5415, 2.5417, 2.5403,2.5415,0.03148738536622453
SingleSource/Benchmarks/BenchmarkGame/fannkuch, 2.0901, 2.0888, 2.0896,2.0896, 2.0887, 2.0902, 2.0908,2.0902,0.02871362940275457
SingleSource/Benchmarks/Polybench/stencils/fdtd-apml/fdtd-apml, 0.7208, 0.7213, 0.7260,0.7213, 0.7215, 0.7209, 0.7226,0.7215,0.027727713850000946
MultiSource/Benchmarks/Fhourstones-3.1/fhourstones3.1, 0.7712, 0.7713, 0.7714,0.7713, 0.7712, 0.7715, 0.7721,0.7715,0.0259302476338652
MultiSource/Benchmarks/DOE-ProxyApps-C/miniAMR/miniAMR, 0.7731, 0.7720, 0.7710,0.772, 0.7722, 0.7722, 0.7721,0.7722,0.025906735751290988
SingleSource/Benchmarks/Polybench/linear-algebra/kernels/doitgen/doitgen, 0.7805, 0.7865, 0.7803,0.7805, 0.7807, 0.7865, 0.7803,0.7807,0.02562459961563679
MultiSource/Benchmarks/Olden/tsp/tsp, 1.1718, 1.1719, 1.1720,1.1719, 1.1721, 1.1722, 1.1722,1.1722,0.025599453878322187
MultiSource/Applications/JM/lencod/lencod, 3.1663, 3.1622, 3.1617,3.1622, 3.1629, 3.1624, 3.1631,3.1629,0.02213648725570838
SingleSource/Benchmarks/Misc/richards_benchmark, 0.4974, 0.4971, 0.4972,0.4972, 0.4974, 0.4973, 0.4971,0.4973,0.020112630732116443
MultiSource/Benchmarks/TSVC/LinearDependence-dbl/LinearDependence-dbl, 5.7071, 5.7067, 5.7073,5.7071, 5.7082, 5.7122, 5.7080,5.7082,0.01927423735348377
SingleSource/Benchmarks/Shootout/matrix, 1.0577, 1.0575, 1.0575,1.0575, 1.0577, 1.0579, 1.0572,1.0577,0.01891252955081857
SingleSource/Benchmarks/Adobe-C++/simple_types_constant_folding, 0.6645, 0.6645, 0.6645,0.6645, 0.6646, 0.6645, 0.6648,0.6646,0.015048908954096163
MultiSource/Benchmarks/sim/sim, 2.6894, 2.6875, 2.6903,2.6894, 2.6895, 2.6897, 2.6923,2.6897,0.011154904439658608
SingleSource/Benchmarks/Polybench/medley/floyd-warshall/floyd-warshall, 5.9776, 5.9743, 5.9739,5.9743, 5.9739, 5.9748, 5.9755,5.9748,0.008369181326672859
MultiSource/Benchmarks/VersaBench/bmm/bmm, 1.6459, 1.6459, 1.6460,1.6459, 1.6460, 1.6460, 1.6460,1.646,0.006075703262653498
MultiSource/Benchmarks/VersaBench/ecbdes/ecbdes, 1.6932, 1.6931, 1.6931,1.6931, 1.6932, 1.6932, 1.6931,1.6932,0.005906325674787105
MultiSource/Benchmarks/TSVC/LoopRerolling-dbl/LoopRerolling-dbl, 4.6104, 4.6104, 4.6112,4.6104, 4.6103, 4.6108, 4.6106,4.6106,0.004338018393190701
SingleSource/Benchmarks/Misc-C++/Large/ray, 3.1396, 3.1392, 3.1393,3.1393, 3.1394, 3.1393, 3.1408,3.1394,0.003185423502061191
SingleSource/Benchmarks/Shootout/methcall, 3.2758, 3.2757, 3.2761,3.2758, 3.2761, 3.2759, 3.2759,3.2759,0.0030526894193805276
MultiSource/Applications/hexxagon/hexxagon, 7.0582, 7.0583, 7.0585,7.0583, 7.0626, 7.0585, 7.0581,7.0585,0.0028335434878234977
SingleSource/Benchmarks/Misc-C++/Large/sphereflake, 5.6077, 5.6075, 5.6075,5.6075, 5.6076, 5.6075, 5.6076,5.6076,0.0017833259028154913
SingleSource/Benchmarks/CoyoteBench/almabench,12.6328,12.6257,12.6337,12.6328,12.6466,12.6319,12.6329,12.6329,0.0007915901462762776
SingleSource/Regression/C/uint64_to_float, 0.2465, 0.2465, 0.2464,0.2465, 0.2465, 0.2465, 0.2465,0.2465,0.0
SingleSource/Regression/C/2004-08-12-InlinerAndAllocas, 0.0013, 0.0013, 0.0013,0.0013, 0.0013, 0.0013, 0.0013,0.0013,0.0
SingleSource/Benchmarks/Stanford/Towers, 0.0083, 0.0083, 0.0083,0.0083, 0.0083, 0.0083, 0.0083,0.0083,0.0
SingleSource/Benchmarks/Stanford/RealMM, 0.0014, 0.0014, 0.0014,0.0014, 0.0014, 0.0014, 0.0014,0.0014,0.0
SingleSource/Benchmarks/Stanford/Quicksort, 0.0303, 0.0302, 0.0302,0.0302, 0.0302, 0.0302, 0.0302,0.0302,0.0
SingleSource/Benchmarks/Stanford/Puzzle, 0.0794, 0.0794, 0.0794,0.0794, 0.0793, 0.0794, 0.0795,0.0794,0.0
SingleSource/Benchmarks/Stanford/Perm, 0.0145, 0.0145, 0.0145,0.0145, 0.0145, 0.0146, 0.0145,0.0145,0.0
SingleSource/Benchmarks/Stanford/FloatMM, 0.2012, 0.2011, 0.2011,0.2011, 0.2011, 0.2011, 0.2011,0.2011,0.0
SingleSource/Benchmarks/Stanford/Bubblesort, 0.0158, 0.0157, 0.0157,0.0157, 0.0157, 0.0157, 0.0157,0.0157,0.0
SingleSource/Benchmarks/Shootout/random, 1.7448, 1.7447, 1.7447,1.7447, 1.7448, 1.7447, 1.7447,1.7447,0.0
SingleSource/Benchmarks/Shootout/objinst, 0.0007, 0.0007, 0.0007,0.0007, 0.0007, 0.0007, 0.0007,0.0007,0.0
SingleSource/Benchmarks/Shootout/nestedloop, 0.0007, 0.0007, 0.0007,0.0007, 0.0007, 0.0007, 0.0007,0.0007,0.0
SingleSource/Benchmarks/Shootout/ackermann, 0.0033, 0.0033, 0.0033,0.0033, 0.0033, 0.0033, 0.0033,0.0033,0.0
SingleSource/Benchmarks/Shootout-C++/strcat, 0.0405, 0.0404, 0.0405,0.0405, 0.0405, 0.0405, 0.0406,0.0405,0.0
SingleSource/Benchmarks/Shootout-C++/random, 1.7449, 1.7448, 1.7448,1.7448, 1.7448, 1.7448, 1.7448,1.7448,0.0
SingleSource/Benchmarks/Shootout-C++/objinst, 0.0008, 0.0008, 0.0008,0.0008, 0.0008, 0.0008, 0.0008,0.0008,0.0
SingleSource/Benchmarks/Shootout-C++/nestedloop, 0.0008, 0.0008, 0.0008,0.0008, 0.0008, 0.0008, 0.0008,0.0008,0.0
SingleSource/Benchmarks/Shootout-C++/ary2, 0.0149, 0.0149, 0.0149,0.0149, 0.0149, 0.0149, 0.0149,0.0149,0.0
SingleSource/Benchmarks/Shootout-C++/ary, 0.0141, 0.0141, 0.0141,0.0141, 0.0141, 0.0141, 0.0141,0.0141,0.0
SingleSource/Benchmarks/Shootout-C++/ackermann, 0.6572, 0.6571, 0.6572,0.6572, 0.6571, 0.6573, 0.6572,0.6572,0.0
SingleSource/Benchmarks/Shootout-C++/EH/except, 0.1201, 0.1204, 0.1204,0.1204, 0.1203, 0.1204, 0.1205,0.1204,0.0
SingleSource/Benchmarks/Polybench/stencils/seidel-2d/seidel-2d, 0.6593, 0.6593, 0.6593,0.6593, 0.6593, 0.6593, 0.6593,0.6593,0.0
SingleSource/Benchmarks/Polybench/stencils/jacobi-2d-imper/jacobi-2d-imper, 0.1494, 0.1495, 0.1495,0.1495, 0.1496, 0.1495, 0.1492,0.1495,0.0
SingleSource/Benchmarks/Polybench/stencils/jacobi-1d-imper/jacobi-1d-imper, 0.0036, 0.0036, 0.0036,0.0036, 0.0036, 0.0036, 0.0036,0.0036,0.0
SingleSource/Benchmarks/Polybench/medley/reg_detect/reg_detect, 0.0155, 0.0155, 0.0155,0.0155, 0.0155, 0.0155, 0.0155,0.0155,0.0
SingleSource/Benchmarks/Polybench/linear-algebra/solvers/lu/lu, 0.0021, 0.0021, 0.0021,0.0021, 0.0021, 0.0021, 0.0021,0.0021,0.0
SingleSource/Benchmarks/Polybench/linear-algebra/kernels/bicg/bicg, 0.2125, 0.2125, 0.2125,0.2125, 0.2125, 0.2125, 0.2125,0.2125,0.0
SingleSource/Benchmarks/Misc/revertBits, 0.3294, 0.3294, 0.3297,0.3294, 0.3294, 0.3294, 0.3294,0.3294,0.0
SingleSource/Benchmarks/Misc/matmul_f64_4x4, 1.2952, 1.2951, 1.2951,1.2951, 1.2951, 1.2951, 1.2951,1.2951,0.0
SingleSource/Benchmarks/Misc/mandel-2, 1.2780, 1.2779, 1.2779,1.2779, 1.2779, 1.2779, 1.2779,1.2779,0.0
SingleSource/Benchmarks/Misc/mandel, 0.8336, 0.8336, 0.8335,0.8336, 0.8336, 0.8336, 0.8336,0.8336,0.0
SingleSource/Benchmarks/Misc/lowercase, 0.0007, 0.0007, 0.0007,0.0007, 0.0007, 0.0007, 0.0007,0.0007,0.0
SingleSource/Benchmarks/Misc/fp-convert, 2.6303, 2.6302, 2.6302,2.6302, 2.6302, 2.6301, 2.6302,2.6302,0.0
SingleSource/Benchmarks/Misc/flops-7, 1.5901, 1.5900, 1.5900,1.59, 1.5900, 1.5900, 1.5900,1.59,0.0
SingleSource/Benchmarks/Misc/flops-3, 5.4133, 5.4130, 5.4130,5.413, 5.4131, 5.4130, 5.4130,5.413,0.0
SingleSource/Benchmarks/Misc/flops-2, 0.8625, 0.8625, 0.8625,0.8625, 0.8625, 0.8625, 0.8625,0.8625,0.0
SingleSource/Benchmarks/Misc/fbench, 1.7140, 1.7139, 1.7139,1.7139, 1.7139, 1.7139, 1.7139,1.7139,0.0
SingleSource/Benchmarks/Misc/dt, 0.6669, 0.6668, 0.6668,0.6668, 0.6668, 0.6668, 0.6668,0.6668,0.0
SingleSource/Benchmarks/Misc-C++/stepanov_v1p2, 7.9041, 7.9036, 7.9036,7.9036, 7.9037, 7.9036, 7.9036,7.9036,0.0
SingleSource/Benchmarks/Misc-C++/oopack_v1p8, 0.1619, 0.1619, 0.1619,0.1619, 0.1619, 0.1619, 0.1619,0.1619,0.0
SingleSource/Benchmarks/McGill/misr, 0.1013, 0.1013, 0.1013,0.1013, 0.1013, 0.1013, 0.1013,0.1013,0.0
SingleSource/Benchmarks/Dhrystone/fldry, 0.3654, 0.3654, 0.3654,0.3654, 0.3654, 0.3654, 0.3654,0.3654,0.0
SingleSource/Benchmarks/Dhrystone/dry, 0.3046, 0.3046, 0.3046,0.3046, 0.3046, 0.3046, 0.3046,0.3046,0.0
SingleSource/Benchmarks/BenchmarkGame/spectral-norm, 0.9768, 0.9768, 0.9768,0.9768, 0.9768, 0.9768, 0.9768,0.9768,0.0
SingleSource/Benchmarks/BenchmarkGame/puzzle, 0.1291, 0.1292, 0.1290,0.1291, 0.1295, 0.1291, 0.1290,0.1291,0.0
SingleSource/Benchmarks/BenchmarkGame/partialsums, 0.5686, 0.5686, 0.5686,0.5686, 0.5685, 0.5686, 0.5686,0.5686,0.0
SingleSource/Benchmarks/BenchmarkGame/n-body, 1.3733, 1.3732, 1.3732,1.3732, 1.3732, 1.3732, 1.3732,1.3732,0.0
SingleSource/Benchmarks/Adobe-C++/simple_types_loop_invariant, 1.5935, 1.5944, 1.5941,1.5941, 1.5935, 1.5941, 1.5941,1.5941,0.0
MultiSource/Benchmarks/mediabench/gsm/toast/toast, 0.0133, 0.0132, 0.0133,0.0133, 0.0133, 0.0133, 0.0133,0.0133,0.0
MultiSource/Benchmarks/mediabench/g721/g721encode/encode, 0.0296, 0.0296, 0.0296,0.0296, 0.0296, 0.0297, 0.0296,0.0296,0.0
MultiSource/Benchmarks/VersaBench/beamformer/beamformer, 0.7488, 0.7487, 0.7488,0.7488, 0.7488, 0.7489, 0.7488,0.7488,0.0
MultiSource/Benchmarks/Trimaran/enc-pc1/enc-pc1, 0.3440, 0.3440, 0.3440,0.344, 0.3440, 0.3440, 0.3440,0.344,0.0
MultiSource/Benchmarks/Trimaran/enc-md5/enc-md5, 1.2243, 1.2242, 1.2243,1.2243, 1.2242, 1.2245, 1.2243,1.2243,0.0
MultiSource/Benchmarks/TSVC/Searching-dbl/Searching-dbl, 2.2752, 2.2751, 2.2753,2.2752, 2.2748, 2.2753, 2.2752,2.2752,0.0
MultiSource/Benchmarks/TSVC/Reductions-flt/Reductions-flt, 5.9350, 5.9349, 5.9349,5.9349, 5.9349, 5.9351, 5.9349,5.9349,0.0
MultiSource/Benchmarks/TSVC/Reductions-dbl/Reductions-dbl, 3.4400, 3.4399, 3.4399,3.4399, 3.4399, 3.4400, 3.4399,3.4399,0.0
MultiSource/Benchmarks/TSVC/Recurrences-dbl/Recurrences-dbl, 3.5012, 3.5011, 3.5010,3.5011, 3.5011, 3.5011, 3.5013,3.5011,0.0
MultiSource/Benchmarks/Prolangs-C++/simul/simul, 0.0038, 0.0038, 0.0038,0.0038, 0.0038, 0.0038, 0.0038,0.0038,0.0
MultiSource/Benchmarks/Prolangs-C++/ocean/ocean, 0.0361, 0.0360, 0.0360,0.036, 0.0360, 0.0360, 0.0360,0.036,0.0
MultiSource/Benchmarks/Prolangs-C++/city/city, 0.0050, 0.0050, 0.0050,0.005, 0.0050, 0.0050, 0.0050,0.005,0.0
MultiSource/Benchmarks/Olden/em3d/em3d, 1.7024, 1.7018, 1.7019,1.7019, 1.7031, 1.7019, 1.7018,1.7019,0.0
MultiSource/Benchmarks/MiBench/security-rijndael/security-rijndael, 0.0219, 0.0219, 0.0219,0.0219, 0.0218, 0.0219, 0.0219,0.0219,0.0
MultiSource/Benchmarks/MiBench/network-dijkstra/network-dijkstra, 0.0245, 0.0245, 0.0246,0.0245, 0.0245, 0.0245, 0.0245,0.0245,0.0
MultiSource/Benchmarks/MiBench/consumer-lame/consumer-lame, 0.1168, 0.1169, 0.1172,0.1169, 0.1168, 0.1170, 0.1169,0.1169,0.0
MultiSource/Benchmarks/McCat/18-imp/imp, 0.0554, 0.0555, 0.0555,0.0555, 0.0554, 0.0557, 0.0555,0.0555,0.0
MultiSource/Benchmarks/McCat/05-eks/eks, 0.0034, 0.0034, 0.0034,0.0034, 0.0034, 0.0034, 0.0034,0.0034,0.0
MultiSource/Benchmarks/FreeBench/pifft/pifft, 0.0650, 0.0652, 0.0650,0.065, 0.0652, 0.0650, 0.0650,0.065,0.0
MultiSource/Benchmarks/FreeBench/neural/neural, 0.1153, 0.1153, 0.1153,0.1153, 0.1153, 0.1153, 0.1152,0.1153,0.0
MultiSource/Benchmarks/FreeBench/fourinarow/fourinarow, 0.1756, 0.1756, 0.1756,0.1756, 0.1756, 0.1756, 0.1756,0.1756,0.0
MultiSource/Benchmarks/BitBench/uuencode/uuencode, 0.0104, 0.0105, 0.0104,0.0104, 0.0105, 0.0104, 0.0104,0.0104,0.0
MultiSource/Benchmarks/BitBench/uudecode/uudecode, 0.0595, 0.0596, 0.0596,0.0596, 0.0596, 0.0596, 0.0595,0.0596,0.0
MultiSource/Benchmarks/ASC_Sequoia/CrystalMk/CrystalMk, 7.2733, 7.2732, 7.2731,7.2732, 7.2732, 7.2734, 7.2732,7.2732,0.0
MultiSource/Applications/sgefa/sgefa, 0.1526, 0.1526, 0.1526,0.1526, 0.1526, 0.1527, 0.1526,0.1526,0.0
MultiSource/Applications/JM/ldecod/ldecod, 0.0361, 0.0363, 0.0361,0.0361, 0.0361, 0.0360, 0.0361,0.0361,0.0
MultiSource/Applications/ALAC/encode/alacconvert-encode, 0.0265, 0.0265, 0.0265,0.0265, 0.0265, 0.0265, 0.0265,0.0265,0.0
SingleSource/Benchmarks/SmallPT/smallpt, 7.5461, 7.5423, 7.5470,7.5461, 7.5486, 7.5460, 7.5354,7.546,-0.001325187845369058
SingleSource/Benchmarks/Misc/flops-1, 3.5821, 3.5820, 3.5821,3.5821, 3.5824, 3.5819, 3.5820,3.582,-0.0027916585243370484
MultiSource/Benchmarks/TSVC/Recurrences-flt/Recurrences-flt, 3.5009, 3.5009, 3.5006,3.5009, 3.5008, 3.5009, 3.5007,3.5008,-0.0028564083521476213
SingleSource/Benchmarks/Shootout/hash, 2.7600, 2.7509, 2.7540,2.754, 2.7539, 2.7610, 2.7516,2.7539,-0.0036310820624607665
MultiSource/Benchmarks/TSVC/StatementReordering-dbl/StatementReordering-dbl, 2.2453, 2.2455, 2.2457,2.2455, 2.2454, 2.2472, 2.2448,2.2454,-0.004453351146727069
MultiSource/Benchmarks/TSVC/CrossingThresholds-dbl/CrossingThresholds-dbl, 2.1488, 2.1494, 2.1491,2.1491, 2.1485, 2.1494, 2.1490,2.149,-0.004653110604424526
SingleSource/Benchmarks/Shootout-C++/methcall, 3.4498, 3.4547, 3.4496,3.4498, 3.4496, 3.4496, 3.4496,3.4496,-0.00579743753260642
MultiSource/Benchmarks/NPB-serial/is/is, 5.0305, 5.0635, 5.0634,5.0634, 5.0633, 5.0223, 5.0631,5.0631,-0.005924872615226118
SingleSource/Benchmarks/Misc-C++/mandel-text, 1.6139, 1.6079, 1.6126,1.6126, 1.6101, 1.6125, 1.6136,1.6125,-0.006201165819175181
MultiSource/Benchmarks/Trimaran/netbench-url/netbench-url, 2.9798, 2.9796, 2.9815,2.9798, 2.9795, 2.9797, 2.9796,2.9796,-0.006711859856367575
SingleSource/Benchmarks/Shootout/fib2, 1.4775, 1.4785, 1.4770,1.4775, 1.4774, 1.4773, 1.4795,1.4774,-0.0067681895093096855
MultiSource/Applications/viterbi/viterbi, 1.2781, 1.2776, 1.2783,1.2781, 1.2783, 1.2777, 1.2780,1.278,-0.007824113919097098
MultiSource/Benchmarks/TSVC/ControlFlow-dbl/ControlFlow-dbl, 3.7408, 3.7433, 3.7446,3.7433, 3.7432, 3.7427, 3.7430,3.743,-0.008014318916471641
MultiSource/Benchmarks/Olden/power/power, 1.0535, 1.0534, 1.0532,1.0534, 1.0532, 1.0533, 1.0533,1.0533,-0.00949307005885247
MultiSource/Benchmarks/TSVC/Symbolics-dbl/Symbolics-dbl, 2.4549, 2.4550, 2.4550,2.455, 2.4549, 2.4545, 2.4547,2.4547,-0.01221995926681263
MultiSource/Benchmarks/TSVC/ControlLoops-flt/ControlLoops-flt, 2.3515, 2.3463, 2.3487,2.3487, 2.3484, 2.3497, 2.3465,2.3484,-0.01277302337464592
SingleSource/Benchmarks/Misc/perlin, 3.8809, 3.8799, 3.8807,3.8807, 3.8802, 3.8803, 3.8800,3.8802,-0.012884273455826545
MultiSource/Benchmarks/TSVC/GlobalDataFlow-dbl/GlobalDataFlow-dbl, 2.8519, 2.8510, 2.8505,2.851, 2.8506, 2.8528, 2.8495,2.8506,-0.01403016485443942
SingleSource/Benchmarks/Misc/pi, 0.6942, 0.6941, 0.6942,0.6942, 0.6942, 0.6941, 0.6941,0.6941,-0.014405070584844193
MultiSource/Benchmarks/Trimaran/netbench-crc/netbench-crc, 0.6214, 0.6210, 0.6209,0.621, 0.6223, 0.6209, 0.6209,0.6209,-0.016103059581318302
MultiSource/Benchmarks/TSVC/NodeSplitting-dbl/NodeSplitting-dbl, 5.0289, 5.0261, 5.0289,5.0289, 5.0280, 5.0286, 5.0256,5.028,-0.01789655789538047
SingleSource/Benchmarks/McGill/queens, 1.7518, 1.7509, 1.7525,1.7518, 1.7511, 1.7522, 1.7514,1.7514,-0.02283365681013949
SingleSource/Benchmarks/Shootout-C++/matrix, 1.1247, 1.1247, 1.1246,1.1247, 1.1244, 1.1246, 1.1243,1.1244,-0.026673779674579734
MultiSource/Benchmarks/Olden/bisort/bisort, 0.3626, 0.3620, 0.3616,0.362, 0.3616, 0.3627, 0.3619,0.3619,-0.027624309392260127
SingleSource/Benchmarks/Polybench/linear-algebra/solvers/dynprog/dynprog, 0.2818, 0.2811, 0.2814,0.2814, 0.2812, 0.2814, 0.2813,0.2813,-0.03553660270078085
SingleSource/Benchmarks/Shootout-C++/heapsort, 2.0270, 2.0258, 2.0281,2.027, 2.0261, 2.0263, 2.0249,2.0261,-0.044400592007898254
MultiSource/Benchmarks/MiBench/automotive-basicmath/automotive-basicmath, 0.2227, 0.2224, 0.2226,0.2226, 0.2226, 0.2224, 0.2225,0.2225,-0.04492362982928544
MultiSource/Benchmarks/TSVC/StatementReordering-flt/StatementReordering-flt, 1.8292, 1.8265, 1.8263,1.8265, 1.8256, 1.8252, 1.8294,1.8256,-0.04927456884752379
MultiSource/Benchmarks/Trimaran/enc-rc4/enc-rc4, 0.7276, 0.7280, 0.7273,0.7276, 0.7270, 0.7287, 0.7272,0.7272,-0.05497526113249496
SingleSource/Benchmarks/Misc/oourafft, 6.0226, 6.0210, 6.0170,6.021, 6.0176, 6.0170, 6.0255,6.0176,-0.05646902507888685
MultiSource/Benchmarks/TSVC/IndirectAddressing-dbl/IndirectAddressing-dbl, 2.4798, 2.4752, 2.4756,2.4756, 2.4742, 2.4770, 2.4738,2.4742,-0.05655194700273647
SingleSource/Benchmarks/Polybench/linear-algebra/kernels/atax/atax, 0.1703, 0.1703, 0.1704,0.1703, 0.1702, 0.1702, 0.1703,0.1702,-0.05871990604815469
MultiSource/Benchmarks/TSVC/InductionVariable-dbl/InductionVariable-dbl, 3.0478, 3.0493, 3.0492,3.0492, 3.0469, 3.0487, 3.0470,3.047,-0.07215007215006786
MultiSource/Benchmarks/FreeBench/distray/distray, 0.1346, 0.1346, 0.1345,0.1346, 0.1345, 0.1345, 0.1345,0.1345,-0.07429420505199458
MultiSource/Benchmarks/FreeBench/mason/mason, 0.1305, 0.1305, 0.1304,0.1305, 0.1304, 0.1304, 0.1304,0.1304,-0.07662835249043765
MultiSource/Benchmarks/FreeBench/pcompress2/pcompress2, 0.1052, 0.1052, 0.1052,0.1052, 0.1051, 0.1052, 0.1051,0.1051,-0.09505703422053591
MultiSource/Benchmarks/TSVC/Expansion-dbl/Expansion-dbl, 1.9862, 1.9844, 1.9893,1.9862, 1.9860, 1.9842, 1.9839,1.9842,-0.10069479407914805
SingleSource/Benchmarks/Misc/whetstone, 1.0274, 1.0263, 1.0274,1.0274, 1.0248, 1.0263, 1.0274,1.0263,-0.10706638115632883
MultiSource/Benchmarks/PAQ8p/paq8p,42.6637,42.6306,42.6766,42.6637,42.6028,42.6315,42.6165,42.6165,-0.110632692429391
SingleSource/Benchmarks/Shootout/ary3, 0.5999, 0.5969, 0.5970,0.597, 0.5963, 0.5940, 0.5964,0.5963,-0.11725293132327508
MultiSource/Benchmarks/TSVC/NodeSplitting-flt/NodeSplitting-flt, 4.6537, 4.6590, 4.6560,4.656, 4.6515, 4.6493, 4.6504,4.6504,-0.12027491408933555
SingleSource/Benchmarks/Polybench/datamining/covariance/covariance, 1.6562, 1.6562, 1.6534,1.6562, 1.6521, 1.6580, 1.6542,1.6542,-0.12075836251660421
MultiSource/Benchmarks/DOE-ProxyApps-C/Pathfinder/PathFinder, 2.0973, 2.1028, 2.0949,2.0973, 2.0898, 2.0951, 2.0945,2.0945,-0.1335049825966772
MultiSource/Benchmarks/McCat/04-bisect/bisect, 0.0748, 0.0749, 0.0749,0.0749, 0.0748, 0.0749, 0.0748,0.0748,-0.13351134846461
MultiSource/Benchmarks/Olden/bh/bh, 1.2799, 1.2789, 1.2771,1.2789, 1.2805, 1.2765, 1.2771,1.2771,-0.14074595355383357
MultiSource/Benchmarks/MiBench/network-patricia/network-patricia, 0.0710, 0.0709, 0.0710,0.071, 0.0709, 0.0709, 0.0709,0.0709,-0.14084507042252392
MultiSource/Benchmarks/TSVC/CrossingThresholds-flt/CrossingThresholds-flt, 1.6260, 1.6366, 1.6295,1.6295, 1.6272, 1.6186, 1.6346,1.6272,-0.141147591285673
MultiSource/Benchmarks/TSVC/Expansion-flt/Expansion-flt, 1.1878, 1.1751, 1.1832,1.1832, 1.1815, 1.1816, 1.1792,1.1815,-0.143678160919547
SingleSource/Benchmarks/Polybench/datamining/correlation/correlation, 1.6684, 1.6735, 1.6659,1.6684, 1.6660, 1.6642, 1.6699,1.666,-0.14385039558859614
MultiSource/Benchmarks/TSVC/Equivalencing-flt/Equivalencing-flt, 0.9709, 0.9692, 0.9674,0.9692, 0.9686, 0.9676, 0.9670,0.9676,-0.16508460586049933
MultiSource/Benchmarks/ASC_Sequoia/IRSmk/IRSmk, 2.9897, 2.9978, 3.0031,2.9978, 2.9928, 3.0138, 2.9883,2.9928,-0.16678897858428687
MultiSource/Benchmarks/TSVC/GlobalDataFlow-flt/GlobalDataFlow-flt, 1.5012, 1.5077, 1.5047,1.5047, 1.5021, 1.4957, 1.5057,1.5021,-0.17279191865487986
MultiSource/Benchmarks/VersaBench/8b10b/8b10b, 3.6024, 3.6152, 3.6037,3.6037, 3.5973, 3.6081, 3.5944,3.5973,-0.17759524932707826
MultiSource/Benchmarks/tramp3d-v4/tramp3d-v4, 0.2395, 0.2397, 0.2396,0.2396, 0.2391, 0.2390, 0.2392,0.2391,-0.2086811352253748
SingleSource/Benchmarks/Shootout-C++/moments, 0.0441, 0.0441, 0.0441,0.0441, 0.0440, 0.0440, 0.0439,0.044,-0.22675736961451642
MultiSource/Benchmarks/McCat/08-main/main, 0.0426, 0.0427, 0.0427,0.0427, 0.0427, 0.0426, 0.0426,0.0426,-0.23419203747073736
MultiSource/Benchmarks/TSVC/LoopRerolling-flt/LoopRerolling-flt, 3.8328, 3.8259, 3.8352,3.8328, 3.8219, 3.8231, 3.8240,3.8231,-0.25307868920892984
MultiSource/Benchmarks/DOE-ProxyApps-C/XSBench/XSBench, 2.4328, 2.4420, 2.4411,2.4411, 2.4349, 2.4393, 2.4324,2.4349,-0.25398385973537385
MultiSource/Benchmarks/McCat/01-qbsort/qbsort, 0.0391, 0.0391, 0.0391,0.0391, 0.0390, 0.0391, 0.0390,0.039,-0.2557544757033292
SingleSource/Benchmarks/Shootout-C++/hash, 0.3073, 0.3064, 0.3085,0.3073, 0.3070, 0.3065, 0.3064,0.3065,-0.2603319232020951
MultiSource/Applications/oggenc/oggenc, 0.0764, 0.0764, 0.0764,0.0764, 0.0762, 0.0762, 0.0762,0.0762,-0.2617801047120283
MultiSource/Benchmarks/MallocBench/gs/gs, 0.0275, 0.0274, 0.0276,0.0275, 0.0273, 0.0275, 0.0274,0.0274,-0.363636363636366
MultiSource/Benchmarks/Prolangs-C/gnugo/gnugo, 0.0251, 0.0252, 0.0252,0.0252, 0.0251, 0.0251, 0.0251,0.0251,-0.3968253968253954
SingleSource/Benchmarks/CoyoteBench/huffbench, 9.0378, 9.0431, 9.0476,9.0431, 9.0063, 9.0084, 9.0060,9.0063,-0.4069400979752613
SingleSource/Benchmarks/Misc/flops,10.6464,10.6776,10.6820,10.6776,10.6632,10.6311,10.6149,10.6311,-0.4354911216003621
MultiSource/Benchmarks/FreeBench/analyzer/analyzer, 0.0404, 0.0401, 0.0403,0.0403, 0.0398, 0.0403, 0.0401,0.0401,-0.49627791563277013
SingleSource/Benchmarks/Polybench/stencils/fdtd-2d/fdtd-2d, 0.4109, 0.4094, 0.4069,0.4094, 0.4070, 0.4076, 0.4073,0.4073,-0.5129457743038524
MultiSource/Benchmarks/ASC_Sequoia/AMGmk/AMGmk, 4.9884, 5.0004, 4.9982,4.9982, 4.9695, 4.9724, 4.9707,4.9707,-0.5501980713056631
MultiSource/Applications/SIBsim4/SIBsim4, 2.1090, 2.1011, 2.0918,2.1011, 2.1046, 2.0893, 2.0850,2.0893,-0.5616105849317043
SingleSource/Benchmarks/Misc-C++/stepanov_container, 3.1100, 3.1034, 3.0955,3.1034, 3.0859, 3.0854, 3.0994,3.0859,-0.5638976606302748
MultiSource/Applications/spiff/spiff, 1.2845, 1.2805, 1.2817,1.2817, 1.2744, 1.2718, 1.2741,1.2741,-0.592962471717251
SingleSource/Benchmarks/Adobe-C++/stepanov_abstraction, 4.2661, 4.2649, 4.2663,4.2661, 4.2400, 4.2392, 4.2405,4.24,-0.6118000046881122
MultiSource/Applications/d/make_dparser, 0.0158, 0.0158, 0.0158,0.0158, 0.0158, 0.0157, 0.0157,0.0157,-0.6329113924050778
MultiSource/Applications/ALAC/decode/alacconvert-decode, 0.0130, 0.0130, 0.0130,0.013, 0.0129, 0.0130, 0.0129,0.0129,-0.7692307692307665
MultiSource/Benchmarks/nbench/nbench, 1.2713, 1.2717, 1.2722,1.2717, 1.2596, 1.2595, 1.2597,1.2596,-0.9514822678304613
MultiSource/Benchmarks/Olden/mst/mst, 0.0522, 0.0520, 0.0522,0.0522, 0.0515, 0.0517, 0.0515,0.0515,-1.3409961685823868
MultiSource/Benchmarks/MiBench/consumer-typeset/consumer-typeset, 0.0843, 0.0839, 0.0840,0.084, 0.0828, 0.0827, 0.0826,0.0827,-1.5476190476190643
MultiSource/Benchmarks/DOE-ProxyApps-C/miniGMG/miniGMG, 5.2020, 5.2021, 5.2014,5.202, 5.1188, 5.1163, 5.1166,5.1166,-1.6416762783544758
SingleSource/Benchmarks/Adobe-C++/stepanov_vector, 2.3071, 2.3074, 2.3082,2.3074, 2.2606, 2.2605, 2.2598,2.2605,-2.0325907948340105
SingleSource/Benchmarks/Misc/ReedSolomon, 3.1536, 3.1536, 3.1537,3.1536, 3.0466, 3.0463, 3.0471,3.0466,-3.3929477422628085
SingleSource/Benchmarks/Stanford/Oscar, 0.0032, 0.0032, 0.0032,0.0032, 0.0024, 0.0024, 0.0024,0.0024,-25.00000000000001
Total elapsed time,-,-,-,587.6976000000003,-,-,-,588.1185000000002,0.07161846500647329
Total failure,-,-,-,0,-,-,-,0,
Geom. avg slowdown,,,,,,,,,-0.0932918887257%
