Benchmarks,/mnt/freezedisk/llvm-intptr-base-5.0-release/bin/clang,/mnt/freezedisk/llvm-intptr-base-5.0-release/bin/clang,/mnt/freezedisk/llvm-intptr-base-5.0-release/bin/clang,median,/mnt/freezedisk/llvm-intptr-nocapture-5.0-release/bin/clang,/mnt/freezedisk/llvm-intptr-nocapture-5.0-release/bin/clang,/mnt/freezedisk/llvm-intptr-nocapture-5.0-release/bin/clang,median
MultiSource/Applications/ALAC/decode/alacconvert-decode, 0.0137, 0.0137, 0.0137,0.0137, 0.0137, 0.0137, 0.0137,0.0137
MultiSource/Applications/ALAC/encode/alacconvert-encode, 0.0262, 0.0262, 0.0262,0.0262, 0.0261, 0.0262, 0.0262,0.0262
MultiSource/Applications/ClamAV/clamscan, 0.1758, 0.2044, 0.2197,0.2044, 0.2031, 0.2045, 0.1979,0.2031
MultiSource/Applications/JM/ldecod/ldecod, 0.0380, 0.0378, 0.0379,0.0379, 0.0379, 0.0378, 0.0379,0.0379
MultiSource/Applications/JM/lencod/lencod, 2.8992, 2.9014, 2.9001,2.9001, 2.8998, 2.8988, 2.8980,2.8988
MultiSource/Applications/SIBsim4/SIBsim4, 1.9116, 1.8873, 1.8987,1.8987, 1.9262, 1.9106, 1.9780,1.9262
MultiSource/Applications/SPASS/SPASS, 6.2165, 6.2136, 5.5858,6.2136, 6.2209, 6.0453, 6.2007,6.2007
MultiSource/Applications/aha/aha, 0.9487, 0.9470, 0.9477,0.9477, 0.9473, 0.9469, 0.9469,0.9469
MultiSource/Applications/d/make_dparser, 0.0163, 0.0162, 0.0163,0.0163, 0.0163, 0.0163, 0.0162,0.0163
MultiSource/Applications/hbd/hbd, 0.0034, 0.0034, 0.0034,0.0034, 0.0034, 0.0034, 0.0033,0.0034
MultiSource/Applications/hexxagon/hexxagon, 6.4705, 6.4701, 6.4695,6.4701, 6.4739, 6.4702, 6.4703,6.4703
MultiSource/Applications/kimwitu++/kc, 0.0279, 0.0279, 0.0280,0.0279, 0.0278, 0.0279, 0.0281,0.0279
MultiSource/Applications/lambda-0.1.3/lambda, 2.4149, 2.4313, 2.4678,2.4313, 2.4437, 2.4348, 2.4341,2.4348
MultiSource/Applications/lua/lua,10.1803,10.1972,10.2042,10.1972,10.2358,10.2287,10.2264,10.2287
MultiSource/Applications/minisat/minisat, 3.7376, 3.7370, 3.7352,3.737, 3.7897, 3.7966, 3.7964,3.7964
MultiSource/Applications/obsequi/Obsequi, 1.0441, 1.0387, 1.0396,1.0396, 1.0389, 1.0390, 1.0390,1.039
MultiSource/Applications/oggenc/oggenc, 0.0708, 0.0708, 0.0709,0.0708, 0.0707, 0.0707, 0.0707,0.0707
MultiSource/Applications/sgefa/sgefa, 0.1396, 0.1396, 0.1396,0.1396, 0.1396, 0.1396, 0.1396,0.1396
MultiSource/Applications/siod/siod, 1.0347, 1.0348, 1.1447,1.0348, 1.0018, 1.0022, 1.0011,1.0018
MultiSource/Applications/spiff/spiff, 1.1722, 1.1727, 1.1753,1.1727, 1.1784, 1.1801, 1.1836,1.1801
MultiSource/Applications/sqlite3/sqlite3, 1.6311, 1.6336, 1.6381,1.6336, 1.6603, 1.6658, 1.6589,1.6603
MultiSource/Applications/viterbi/viterbi, 1.1747, 1.1737, 1.1739,1.1739, 1.1800, 1.1747, 1.1733,1.1747
MultiSource/Benchmarks/7zip/7zip-benchmark, 5.8048, 5.8072, 5.8039,5.8048, 5.8117, 5.8109, 5.8112,5.8112
MultiSource/Benchmarks/ASCI_Purple/SMG2000/smg2000, 1.2873, 1.2869, 1.2833,1.2869, 1.2832, 1.2831, 1.2874,1.2832
MultiSource/Benchmarks/ASC_Sequoia/AMGmk/AMGmk, 4.5941, 4.5805, 4.5843,4.5843, 4.5637, 4.5916, 4.5698,4.5698
MultiSource/Benchmarks/ASC_Sequoia/CrystalMk/CrystalMk, 6.6506, 6.6510, 6.6508,6.6508, 6.6506, 6.6507, 6.6507,6.6507
MultiSource/Benchmarks/ASC_Sequoia/IRSmk/IRSmk, 2.7248, 2.7211, 2.7266,2.7248, 2.7228, 2.7238, 2.7219,2.7228
MultiSource/Benchmarks/BitBench/drop3/drop3, 0.1460, 0.1459, 0.1459,0.1459, 0.1459, 0.1459, 0.1459,0.1459
MultiSource/Benchmarks/BitBench/five11/five11, 1.0332, 1.0290, 1.0303,1.0303, 1.0383, 1.0244, 1.0352,1.0352
MultiSource/Benchmarks/BitBench/uudecode/uudecode, 0.0564, 0.0564, 0.0564,0.0564, 0.0564, 0.0563, 0.0565,0.0564
MultiSource/Benchmarks/BitBench/uuencode/uuencode, 0.0114, 0.0114, 0.0113,0.0114, 0.0114, 0.0113, 0.0114,0.0114
MultiSource/Benchmarks/Bullet/bullet, 2.9552, 2.9568, 2.9609,2.9568, 3.0264, 3.0325, 3.0267,3.0267
MultiSource/Benchmarks/DOE-ProxyApps-C++/CLAMR/CLAMR, 1.0248, 1.0248, 1.0247,1.0248, 1.0253, 1.0253, 1.0253,1.0253
MultiSource/Benchmarks/DOE-ProxyApps-C++/HPCCG/HPCCG, 0.8381, 0.8367, 0.8377,0.8377, 0.8366, 0.8382, 0.8362,0.8366
MultiSource/Benchmarks/DOE-ProxyApps-C++/PENNANT/PENNANT, 0.3774, 0.3774, 0.3772,0.3774, 0.3790, 0.3794, 0.3793,0.3793
MultiSource/Benchmarks/DOE-ProxyApps-C++/miniFE/miniFE, 2.4204, 2.4170, 2.4229,2.4204, 2.4289, 2.4282, 2.4242,2.4282
MultiSource/Benchmarks/DOE-ProxyApps-C/Pathfinder/PathFinder, 1.9356, 1.9395, 1.9358,1.9358, 1.9359, 1.9356, 1.9424,1.9359
MultiSource/Benchmarks/DOE-ProxyApps-C/RSBench/rsbench, 0.5006, 0.5239, 0.5327,0.5239, 0.5337, 0.5171, 0.5214,0.5214
MultiSource/Benchmarks/DOE-ProxyApps-C/SimpleMOC/SimpleMOC, 3.4747, 3.4619, 3.4662,3.4662, 3.4694, 3.4692, 3.4629,3.4692
MultiSource/Benchmarks/DOE-ProxyApps-C/XSBench/XSBench, 2.2221, 2.2201, 2.2209,2.2209, 2.2158, 2.2198, 2.2233,2.2198
MultiSource/Benchmarks/DOE-ProxyApps-C/miniAMR/miniAMR, 0.7137, 0.7138, 0.7150,0.7138, 0.7133, 0.7140, 0.7150,0.714
MultiSource/Benchmarks/DOE-ProxyApps-C/miniGMG/miniGMG, 5.0119, 5.0127, 5.0125,5.0125, 4.9740, 4.9729, 4.9735,4.9735
MultiSource/Benchmarks/Fhourstones-3.1/fhourstones3.1, 0.7274, 0.7276, 0.7277,0.7276, 0.7275, 0.7284, 0.7275,0.7275
MultiSource/Benchmarks/Fhourstones/fhourstones, 0.4971, 0.4945, 0.4937,0.4945, 0.4937, 0.4906, 0.4994,0.4937
MultiSource/Benchmarks/FreeBench/analyzer/analyzer, 0.0390, 0.0388, 0.0390,0.039, 0.0387, 0.0390, 0.0388,0.0388
MultiSource/Benchmarks/FreeBench/distray/distray, 0.1248, 0.1249, 0.1248,0.1248, 0.1248, 0.1248, 0.1248,0.1248
MultiSource/Benchmarks/FreeBench/fourinarow/fourinarow, 0.1625, 0.1624, 0.1624,0.1624, 0.1625, 0.1625, 0.1624,0.1625
MultiSource/Benchmarks/FreeBench/mason/mason, 0.1209, 0.1209, 0.1209,0.1209, 0.1209, 0.1210, 0.1210,0.121
MultiSource/Benchmarks/FreeBench/neural/neural, 0.1073, 0.1073, 0.1073,0.1073, 0.1073, 0.1073, 0.1073,0.1073
MultiSource/Benchmarks/FreeBench/pcompress2/pcompress2, 0.0947, 0.0947, 0.0946,0.0947, 0.0947, 0.0947, 0.0947,0.0947
MultiSource/Benchmarks/FreeBench/pifft/pifft, 0.0615, 0.0615, 0.0615,0.0615, 0.0615, 0.0614, 0.0613,0.0614
MultiSource/Benchmarks/MallocBench/cfrac/cfrac, 0.6970, 0.6973, 0.6970,0.697, 0.6976, 0.6976, 0.6976,0.6976
MultiSource/Benchmarks/MallocBench/espresso/espresso, 0.2748, 0.2747, 0.2746,0.2747, 0.2759, 0.2760, 0.2761,0.276
MultiSource/Benchmarks/MallocBench/gs/gs, 0.0273, 0.0273, 0.0275,0.0273, 0.0273, 0.0273, 0.0273,0.0273
MultiSource/Benchmarks/McCat/01-qbsort/qbsort, 0.0370, 0.0370, 0.0371,0.037, 0.0371, 0.0370, 0.0371,0.0371
MultiSource/Benchmarks/McCat/03-testtrie/testtrie, 0.0074, 0.0075, 0.0074,0.0074, 0.0074, 0.0074, 0.0075,0.0074
MultiSource/Benchmarks/McCat/04-bisect/bisect, 0.0703, 0.0703, 0.0703,0.0703, 0.0703, 0.0703, 0.0703,0.0703
MultiSource/Benchmarks/McCat/05-eks/eks, 0.0031, 0.0031, 0.0031,0.0031, 0.0031, 0.0031, 0.0031,0.0031
MultiSource/Benchmarks/McCat/08-main/main, 0.0390, 0.0391, 0.0391,0.0391, 0.0392, 0.0391, 0.0390,0.0391
MultiSource/Benchmarks/McCat/09-vor/vor, 0.0776, 0.0777, 0.0778,0.0777, 0.0781, 0.0780, 0.0782,0.0781
MultiSource/Benchmarks/McCat/12-IOtest/iotest, 0.1981, 0.1984, 0.1981,0.1981, 0.1984, 0.1979, 0.1982,0.1982
MultiSource/Benchmarks/McCat/17-bintr/bintr, 0.0774, 0.0775, 0.0758,0.0774, 0.0766, 0.0770, 0.0771,0.077
MultiSource/Benchmarks/McCat/18-imp/imp, 0.0527, 0.0527, 0.0527,0.0527, 0.0527, 0.0527, 0.0528,0.0527
MultiSource/Benchmarks/MiBench/automotive-basicmath/automotive-basicmath, 0.2054, 0.2056, 0.2055,0.2055, 0.2057, 0.2058, 0.2055,0.2057
MultiSource/Benchmarks/MiBench/automotive-bitcount/automotive-bitcount, 0.0500, 0.0510, 0.0500,0.05, 0.0500, 0.0500, 0.0500,0.05
MultiSource/Benchmarks/MiBench/automotive-susan/automotive-susan, 0.0278, 0.0278, 0.0277,0.0278, 0.0277, 0.0277, 0.0278,0.0277
MultiSource/Benchmarks/MiBench/consumer-jpeg/consumer-jpeg, 0.0045, 0.0045, 0.0046,0.0045, 0.0046, 0.0046, 0.0046,0.0046
MultiSource/Benchmarks/MiBench/consumer-lame/consumer-lame, 0.1088, 0.1088, 0.1088,0.1088, 0.1088, 0.1091, 0.1090,0.109
MultiSource/Benchmarks/MiBench/consumer-typeset/consumer-typeset, 0.0798, 0.0802, 0.0803,0.0802, 0.0795, 0.0782, 0.0799,0.0795
MultiSource/Benchmarks/MiBench/network-dijkstra/network-dijkstra, 0.0244, 0.0243, 0.0244,0.0244, 0.0244, 0.0243, 0.0243,0.0243
MultiSource/Benchmarks/MiBench/network-patricia/network-patricia, 0.0672, 0.0671, 0.0672,0.0672, 0.0671, 0.0672, 0.0671,0.0671
MultiSource/Benchmarks/MiBench/security-rijndael/security-rijndael, 0.0218, 0.0217, 0.0217,0.0217, 0.0217, 0.0217, 0.0217,0.0217
MultiSource/Benchmarks/MiBench/security-sha/security-sha, 0.0145, 0.0146, 0.0145,0.0145, 0.0145, 0.0146, 0.0145,0.0145
MultiSource/Benchmarks/MiBench/telecomm-CRC32/telecomm-CRC32, 0.1370, 0.1372, 0.1405,0.1372, 0.1375, 0.1417, 0.1363,0.1375
MultiSource/Benchmarks/MiBench/telecomm-FFT/telecomm-fft, 0.0352, 0.0353, 0.0353,0.0353, 0.0353, 0.0353, 0.0352,0.0353
MultiSource/Benchmarks/MiBench/telecomm-adpcm/telecomm-adpcm, 0.0639, 0.0639, 0.0641,0.0639, 0.0640, 0.0640, 0.0639,0.064
MultiSource/Benchmarks/MiBench/telecomm-gsm/telecomm-gsm, 0.0930, 0.0930, 0.0930,0.093, 0.0926, 0.0926, 0.0926,0.0926
MultiSource/Benchmarks/NPB-serial/is/is, 4.7417, 4.6301, 4.7472,4.7417, 4.6737, 4.6297, 4.6298,4.6298
MultiSource/Benchmarks/Olden/bh/bh, 1.1810, 1.1814, 1.1812,1.1812, 1.1807, 1.1810, 1.1856,1.181
MultiSource/Benchmarks/Olden/bisort/bisort, 0.3273, 0.3266, 0.3265,0.3266, 0.3272, 0.3269, 0.3273,0.3272
MultiSource/Benchmarks/Olden/em3d/em3d, 1.5615, 1.5612, 1.5613,1.5613, 1.5615, 1.5613, 1.5614,1.5614
MultiSource/Benchmarks/Olden/health/health, 0.1405, 0.1418, 0.1399,0.1405, 0.1399, 0.1411, 0.1398,0.1399
MultiSource/Benchmarks/Olden/mst/mst, 0.0488, 0.0489, 0.0488,0.0488, 0.0480, 0.0482, 0.0485,0.0482
MultiSource/Benchmarks/Olden/perimeter/perimeter, 0.1129, 0.1133, 0.1129,0.1129, 0.1130, 0.1133, 0.1130,0.113
MultiSource/Benchmarks/Olden/power/power, 0.9633, 0.9633, 0.9632,0.9633, 0.9633, 0.9631, 0.9633,0.9633
MultiSource/Benchmarks/Olden/treeadd/treeadd, 0.1166, 0.1168, 0.1164,0.1166, 0.1170, 0.1165, 0.1166,0.1166
MultiSource/Benchmarks/Olden/tsp/tsp, 1.0729, 1.0726, 1.0727,1.0727, 1.0732, 1.0730, 1.0732,1.0732
MultiSource/Benchmarks/Olden/voronoi/voronoi, 0.1964, 0.1962, 0.1963,0.1963, 0.1990, 0.1987, 0.1986,0.1987
MultiSource/Benchmarks/PAQ8p/paq8p,39.0513,39.0127,39.0456,39.0456,39.0316,39.0158,39.0255,39.0255
MultiSource/Benchmarks/Prolangs-C++/city/city, 0.0046, 0.0046, 0.0046,0.0046, 0.0046, 0.0046, 0.0046,0.0046
MultiSource/Benchmarks/Prolangs-C++/employ/employ, 0.0062, 0.0062, 0.0062,0.0062, 0.0062, 0.0063, 0.0063,0.0063
MultiSource/Benchmarks/Prolangs-C++/life/life, 0.6712, 0.6606, 0.6675,0.6675, 0.6657, 0.6610, 0.6604,0.661
MultiSource/Benchmarks/Prolangs-C++/ocean/ocean, 0.0363, 0.0363, 0.0362,0.0363, 0.0364, 0.0363, 0.0363,0.0363
MultiSource/Benchmarks/Prolangs-C++/primes/primes, 0.1952, 0.1952, 0.1950,0.1952, 0.1947, 0.1954, 0.1948,0.1948
MultiSource/Benchmarks/Prolangs-C++/simul/simul, 0.0035, 0.0035, 0.0035,0.0035, 0.0035, 0.0035, 0.0035,0.0035
MultiSource/Benchmarks/Prolangs-C/agrep/agrep, 0.0045, 0.0045, 0.0045,0.0045, 0.0045, 0.0045, 0.0045,0.0045
MultiSource/Benchmarks/Prolangs-C/bison/mybison, 0.0036, 0.0037, 0.0037,0.0037, 0.0037, 0.0036, 0.0036,0.0036
MultiSource/Benchmarks/Prolangs-C/gnugo/gnugo, 0.0250, 0.0250, 0.0250,0.025, 0.0251, 0.0249, 0.0250,0.025
MultiSource/Benchmarks/Ptrdist/anagram/anagram, 0.5504, 0.5504, 0.5505,0.5504, 0.5504, 0.5505, 0.5504,0.5504
MultiSource/Benchmarks/Ptrdist/bc/bc, 0.3350, 0.3349, 0.3349,0.3349, 0.3379, 0.3381, 0.3381,0.3381
MultiSource/Benchmarks/Ptrdist/ft/ft, 0.5308, 0.5399, 0.5505,0.5399, 0.5406, 0.5723, 0.5311,0.5406
MultiSource/Benchmarks/Ptrdist/ks/ks, 0.5973, 0.5982, 0.5982,0.5982, 0.5990, 0.6002, 0.5972,0.599
MultiSource/Benchmarks/Ptrdist/yacr2/yacr2, 0.4863, 0.4864, 0.4867,0.4864, 0.4864, 0.4869, 0.4866,0.4866
MultiSource/Benchmarks/SciMark2-C/scimark2,38.4701,38.4728,38.4684,38.4701,38.4925,38.5305,38.4944,38.4944
MultiSource/Benchmarks/TSVC/ControlFlow-dbl/ControlFlow-dbl, 3.4351, 3.4402, 3.4393,3.4393, 3.4446, 3.4408, 3.4383,3.4408
MultiSource/Benchmarks/TSVC/ControlFlow-flt/ControlFlow-flt, 3.2207, 3.2363, 3.2206,3.2207, 3.2971, 3.2656, 3.2548,3.2656
MultiSource/Benchmarks/TSVC/ControlLoops-dbl/ControlLoops-dbl, 2.3317, 2.3317, 2.3313,2.3317, 2.3298, 2.3294, 2.3301,2.3298
MultiSource/Benchmarks/TSVC/ControlLoops-flt/ControlLoops-flt, 2.1591, 2.1554, 2.1489,2.1554, 2.1524, 2.1526, 2.1433,2.1524
MultiSource/Benchmarks/TSVC/CrossingThresholds-dbl/CrossingThresholds-dbl, 1.9841, 1.9841, 1.9840,1.9841, 1.9843, 1.9837, 1.9842,1.9842
MultiSource/Benchmarks/TSVC/CrossingThresholds-flt/CrossingThresholds-flt, 1.4910, 1.5007, 1.4888,1.491, 1.4830, 1.4889, 1.4920,1.4889
MultiSource/Benchmarks/TSVC/Equivalencing-dbl/Equivalencing-dbl, 1.2711, 1.2717, 1.2729,1.2717, 1.2729, 1.2734, 1.2725,1.2729
MultiSource/Benchmarks/TSVC/Equivalencing-flt/Equivalencing-flt, 0.8883, 0.8869, 0.8857,0.8869, 0.8875, 0.8872, 0.8836,0.8872
MultiSource/Benchmarks/TSVC/Expansion-dbl/Expansion-dbl, 1.8339, 1.8359, 1.8362,1.8359, 1.8362, 1.8330, 1.8352,1.8352
MultiSource/Benchmarks/TSVC/Expansion-flt/Expansion-flt, 1.0894, 1.0895, 1.0889,1.0894, 1.0869, 1.0870, 1.0851,1.0869
MultiSource/Benchmarks/TSVC/GlobalDataFlow-dbl/GlobalDataFlow-dbl, 2.6211, 2.6188, 2.6195,2.6195, 2.6180, 2.6179, 2.6190,2.618
MultiSource/Benchmarks/TSVC/GlobalDataFlow-flt/GlobalDataFlow-flt, 1.3817, 1.3788, 1.3726,1.3788, 1.3793, 1.3768, 1.3798,1.3793
MultiSource/Benchmarks/TSVC/IndirectAddressing-dbl/IndirectAddressing-dbl, 2.2742, 2.2720, 2.2753,2.2742, 2.2808, 2.2731, 2.2744,2.2744
MultiSource/Benchmarks/TSVC/IndirectAddressing-flt/IndirectAddressing-flt, 2.0557, 2.0545, 2.0566,2.0557, 2.0571, 2.0593, 2.0587,2.0587
MultiSource/Benchmarks/TSVC/InductionVariable-dbl/InductionVariable-dbl, 2.8007, 2.8009, 2.8023,2.8009, 2.8062, 2.8002, 2.8019,2.8019
MultiSource/Benchmarks/TSVC/InductionVariable-flt/InductionVariable-flt, 2.3414, 2.3431, 2.3396,2.3414, 2.3486, 2.3365, 2.3432,2.3432
MultiSource/Benchmarks/TSVC/LinearDependence-dbl/LinearDependence-dbl, 5.2332, 5.2305, 5.2345,5.2332, 5.2303, 5.2300, 5.2378,5.2303
MultiSource/Benchmarks/TSVC/LinearDependence-flt/LinearDependence-flt, 4.5576, 4.5647, 4.5603,4.5603, 4.5737, 4.5666, 4.5734,4.5734
MultiSource/Benchmarks/TSVC/LoopRerolling-dbl/LoopRerolling-dbl, 4.2278, 4.2280, 4.2282,4.228, 4.2284, 4.2284, 4.2284,4.2284
MultiSource/Benchmarks/TSVC/LoopRerolling-flt/LoopRerolling-flt, 3.5072, 3.5114, 3.5026,3.5072, 3.4993, 3.4995, 3.5016,3.4995
MultiSource/Benchmarks/TSVC/LoopRestructuring-dbl/LoopRestructuring-dbl, 3.3864, 3.3792, 3.3711,3.3792, 3.3693, 3.3752, 3.3732,3.3732
MultiSource/Benchmarks/TSVC/LoopRestructuring-flt/LoopRestructuring-flt, 2.6833, 2.6851, 2.6611,2.6833, 2.6057, 2.6527, 2.7804,2.6527
MultiSource/Benchmarks/TSVC/NodeSplitting-dbl/NodeSplitting-dbl, 4.6038, 4.6037, 4.6041,4.6038, 4.6031, 4.6036, 4.6033,4.6033
MultiSource/Benchmarks/TSVC/NodeSplitting-flt/NodeSplitting-flt, 4.2639, 4.2599, 4.2582,4.2599, 4.2507, 4.2515, 4.2547,4.2515
MultiSource/Benchmarks/TSVC/Packing-dbl/Packing-dbl, 2.1463, 2.1461, 2.1454,2.1461, 2.1456, 2.1453, 2.1459,2.1456
MultiSource/Benchmarks/TSVC/Packing-flt/Packing-flt, 1.9446, 1.9468, 1.9210,1.9446, 1.9262, 1.9520, 1.9358,1.9358
MultiSource/Benchmarks/TSVC/Recurrences-dbl/Recurrences-dbl, 3.2014, 3.2015, 3.2016,3.2015, 3.2015, 3.2017, 3.2015,3.2015
MultiSource/Benchmarks/TSVC/Recurrences-flt/Recurrences-flt, 3.2012, 3.2012, 3.2013,3.2012, 3.2011, 3.2012, 3.2010,3.2011
MultiSource/Benchmarks/TSVC/Reductions-dbl/Reductions-dbl, 3.1455, 3.1456, 3.1455,3.1455, 3.1456, 3.1456, 3.1455,3.1456
MultiSource/Benchmarks/TSVC/Reductions-flt/Reductions-flt, 5.4269, 5.4272, 5.4271,5.4271, 5.4269, 5.4270, 5.4269,5.4269
MultiSource/Benchmarks/TSVC/Searching-dbl/Searching-dbl, 2.0804, 2.0809, 2.0807,2.0807, 2.0808, 2.0803, 2.0805,2.0805
MultiSource/Benchmarks/TSVC/Searching-flt/Searching-flt, 2.2241, 2.2249, 2.2256,2.2249, 2.2258, 2.2257, 2.2256,2.2257
MultiSource/Benchmarks/TSVC/StatementReordering-dbl/StatementReordering-dbl, 2.0626, 2.0590, 2.0585,2.059, 2.0615, 2.0580, 2.0617,2.0615
MultiSource/Benchmarks/TSVC/StatementReordering-flt/StatementReordering-flt, 1.6707, 1.6749, 1.6695,1.6707, 1.6753, 1.6720, 1.6735,1.6735
MultiSource/Benchmarks/TSVC/Symbolics-dbl/Symbolics-dbl, 2.2571, 2.2571, 2.2570,2.2571, 2.2570, 2.2566, 2.2569,2.2569
MultiSource/Benchmarks/TSVC/Symbolics-flt/Symbolics-flt, 1.2714, 1.2698, 1.2701,1.2701, 1.2733, 1.2712, 1.2729,1.2729
MultiSource/Benchmarks/Trimaran/enc-3des/enc-3des, 1.1792, 1.1785, 1.1785,1.1785, 1.1781, 1.1789, 1.1789,1.1789
MultiSource/Benchmarks/Trimaran/enc-md5/enc-md5, 1.1195, 1.1196, 1.1195,1.1195, 1.1195, 1.1195, 1.1195,1.1195
MultiSource/Benchmarks/Trimaran/enc-pc1/enc-pc1, 0.3146, 0.3146, 0.3145,0.3146, 0.3146, 0.3146, 0.3145,0.3146
MultiSource/Benchmarks/Trimaran/enc-rc4/enc-rc4, 0.6659, 0.6661, 0.6659,0.6659, 0.6659, 0.6656, 0.6660,0.6659
MultiSource/Benchmarks/Trimaran/netbench-crc/netbench-crc, 0.5689, 0.5688, 0.5687,0.5688, 0.5691, 0.5690, 0.5689,0.569
MultiSource/Benchmarks/Trimaran/netbench-url/netbench-url, 2.7274, 2.7277, 2.7274,2.7274, 2.7272, 2.7273, 2.7271,2.7272
MultiSource/Benchmarks/VersaBench/8b10b/8b10b, 3.2949, 3.2974, 3.3021,3.2974, 3.2870, 3.2955, 3.2879,3.2879
MultiSource/Benchmarks/VersaBench/beamformer/beamformer, 0.6860, 0.6861, 0.6861,0.6861, 0.6859, 0.6858, 0.6861,0.6859
MultiSource/Benchmarks/VersaBench/bmm/bmm, 1.5053, 1.5055, 1.5053,1.5053, 1.5054, 1.5053, 1.5054,1.5054
MultiSource/Benchmarks/VersaBench/dbms/dbms, 0.7974, 0.7981, 0.7991,0.7981, 0.7961, 0.7949, 0.7944,0.7949
MultiSource/Benchmarks/VersaBench/ecbdes/ecbdes, 1.5482, 1.5484, 1.5483,1.5483, 1.5483, 1.5483, 1.5482,1.5483
MultiSource/Benchmarks/llubenchmark/llu, 3.6186, 3.5747, 3.5155,3.5747, 3.5777, 3.5384, 3.6438,3.5777
MultiSource/Benchmarks/mafft/pairlocalalign,22.5433,22.5448,22.5428,22.5433,22.5947,22.5951,22.5941,22.5947
MultiSource/Benchmarks/mediabench/adpcm/rawcaudio/rawcaudio, 0.0050, 0.0049, 0.0049,0.0049, 0.0049, 0.0049, 0.0050,0.0049
MultiSource/Benchmarks/mediabench/adpcm/rawdaudio/rawdaudio, 0.0034, 0.0034, 0.0034,0.0034, 0.0034, 0.0034, 0.0034,0.0034
MultiSource/Benchmarks/mediabench/g721/g721encode/encode, 0.0291, 0.0291, 0.0291,0.0291, 0.0290, 0.0291, 0.0290,0.029
MultiSource/Benchmarks/mediabench/gsm/toast/toast, 0.0139, 0.0140, 0.0139,0.0139, 0.0139, 0.0139, 0.0139,0.0139
MultiSource/Benchmarks/mediabench/jpeg/jpeg-6a/cjpeg, 0.0046, 0.0046, 0.0046,0.0046, 0.0048, 0.0048, 0.0048,0.0048
MultiSource/Benchmarks/mediabench/mpeg2/mpeg2dec/mpeg2decode, 0.0136, 0.0137, 0.0136,0.0136, 0.0136, 0.0137, 0.0136,0.0136
MultiSource/Benchmarks/nbench/nbench, 1.1632, 1.1637, 1.1638,1.1637, 1.1512, 1.1524, 1.1526,1.1524
MultiSource/Benchmarks/sim/sim, 2.4102, 2.4089, 2.4086,2.4089, 2.4094, 2.4079, 2.4076,2.4079
MultiSource/Benchmarks/tramp3d-v4/tramp3d-v4, 0.2189, 0.2190, 0.2189,0.2189, 0.2188, 0.2186, 0.2188,0.2188
SingleSource/Benchmarks/Adobe-C++/functionobjects, 2.7595, 2.7624, 2.7619,2.7619, 2.7679, 2.7646, 2.7668,2.7668
SingleSource/Benchmarks/Adobe-C++/loop_unroll, 1.6274, 1.6225, 1.6273,1.6273, 1.6250, 1.6218, 1.6241,1.6241
SingleSource/Benchmarks/Adobe-C++/simple_types_constant_folding, 0.6077, 0.6077, 0.6076,0.6077, 0.6077, 0.6077, 0.6077,0.6077
SingleSource/Benchmarks/Adobe-C++/simple_types_loop_invariant, 1.4573, 1.4572, 1.4571,1.4572, 1.4573, 1.4579, 1.4580,1.4579
SingleSource/Benchmarks/Adobe-C++/stepanov_abstraction, 3.9006, 3.8999, 3.9003,3.9003, 3.8772, 3.8768, 3.8769,3.8769
SingleSource/Benchmarks/Adobe-C++/stepanov_vector, 2.1104, 2.1099, 2.1095,2.1099, 2.0668, 2.0675, 2.0674,2.0674
SingleSource/Benchmarks/BenchmarkGame/Large/fasta, 0.5896, 0.5900, 0.5927,0.59, 0.5902, 0.5901, 0.5899,0.5901
SingleSource/Benchmarks/BenchmarkGame/fannkuch, 1.9108, 1.9122, 1.9119,1.9119, 1.9109, 1.9110, 1.9120,1.911
SingleSource/Benchmarks/BenchmarkGame/n-body, 1.2558, 1.2557, 1.2557,1.2557, 1.2557, 1.2557, 1.2558,1.2557
SingleSource/Benchmarks/BenchmarkGame/nsieve-bits, 0.4314, 0.4298, 0.4300,0.43, 0.4302, 0.4343, 0.4339,0.4339
SingleSource/Benchmarks/BenchmarkGame/partialsums, 0.5200, 0.5200, 0.5199,0.52, 0.5200, 0.5199, 0.5200,0.52
SingleSource/Benchmarks/BenchmarkGame/puzzle, 0.1185, 0.1182, 0.1187,0.1185, 0.1187, 0.1183, 0.1185,0.1185
SingleSource/Benchmarks/BenchmarkGame/recursive, 0.6443, 0.6455, 0.6442,0.6443, 0.6441, 0.6521, 0.6452,0.6452
SingleSource/Benchmarks/BenchmarkGame/spectral-norm, 0.8932, 0.8932, 0.8932,0.8932, 0.8932, 0.8932, 0.8932,0.8932
SingleSource/Benchmarks/CoyoteBench/almabench,11.5567,11.5636,11.5598,11.5598,11.5679,11.5678,11.5694,11.5679
SingleSource/Benchmarks/CoyoteBench/fftbench, 0.7357, 0.7344, 0.7375,0.7357, 0.7351, 0.7324, 0.7398,0.7351
SingleSource/Benchmarks/CoyoteBench/huffbench, 8.2877, 8.2762, 8.2787,8.2787, 8.2593, 8.2475, 8.2556,8.2556
SingleSource/Benchmarks/CoyoteBench/lpbench, 2.3846, 2.3956, 2.3912,2.3912, 2.3960, 2.3988, 2.3870,2.396
SingleSource/Benchmarks/Dhrystone/dry, 0.2785, 0.2785, 0.2785,0.2785, 0.2785, 0.2785, 0.2785,0.2785
SingleSource/Benchmarks/Dhrystone/fldry, 0.3342, 0.3341, 0.3341,0.3341, 0.3341, 0.3341, 0.3341,0.3341
SingleSource/Benchmarks/Linpack/linpack-pc, 1.1514, 1.1422, 1.1358,1.1422, 1.1359, 1.1353, 1.1401,1.1359
SingleSource/Benchmarks/McGill/chomp, 1.2193, 1.2213, 1.2200,1.22, 1.2200, 1.2175, 1.2201,1.22
SingleSource/Benchmarks/McGill/misr, 0.0927, 0.0926, 0.0927,0.0927, 0.0926, 0.0926, 0.0926,0.0926
SingleSource/Benchmarks/McGill/queens, 1.6016, 1.6018, 1.6010,1.6016, 1.6011, 1.6008, 1.6012,1.6011
SingleSource/Benchmarks/Misc-C++-EH/spirit, 2.3837, 2.3839, 2.3862,2.3839, 2.4408, 2.4408, 2.4405,2.4408
SingleSource/Benchmarks/Misc-C++/Large/ray, 2.8717, 2.8693, 2.8694,2.8694, 2.8696, 2.8696, 2.8768,2.8696
SingleSource/Benchmarks/Misc-C++/Large/sphereflake, 5.1274, 5.1287, 5.1271,5.1274, 5.1272, 5.1272, 5.1271,5.1272
SingleSource/Benchmarks/Misc-C++/bigfib, 0.1767, 0.1763, 0.1764,0.1764, 0.1767, 0.1766, 0.1766,0.1766
SingleSource/Benchmarks/Misc-C++/mandel-text, 1.4709, 1.4716, 1.4696,1.4709, 1.4697, 1.4715, 1.4708,1.4708
SingleSource/Benchmarks/Misc-C++/oopack_v1p8, 0.1481, 0.1481, 0.1481,0.1481, 0.1481, 0.1481, 0.1481,0.1481
SingleSource/Benchmarks/Misc-C++/stepanov_container, 2.6343, 2.6530, 2.6505,2.6505, 2.6480, 2.6331, 2.6594,2.648
SingleSource/Benchmarks/Misc-C++/stepanov_v1p2, 7.2276, 7.2271, 7.2273,7.2273, 7.2272, 7.2274, 7.2275,7.2274
SingleSource/Benchmarks/Misc/ReedSolomon, 2.8626, 2.8620, 2.8621,2.8621, 2.7561, 2.7557, 2.7561,2.7561
SingleSource/Benchmarks/Misc/dt, 0.6098, 0.6097, 0.6098,0.6098, 0.6098, 0.6098, 0.6098,0.6098
SingleSource/Benchmarks/Misc/evalloop, 0.3342, 0.3350, 0.3360,0.335, 0.3347, 0.3345, 0.3345,0.3345
SingleSource/Benchmarks/Misc/fbench, 1.5670, 1.5669, 1.5669,1.5669, 1.5670, 1.5669, 1.5670,1.567
SingleSource/Benchmarks/Misc/ffbench, 0.5385, 0.5437, 0.5394,0.5394, 0.5373, 0.5405, 0.5392,0.5392
SingleSource/Benchmarks/Misc/flops, 9.7565, 9.6900, 9.7365,9.7365, 9.7238, 9.7377, 9.7744,9.7377
SingleSource/Benchmarks/Misc/flops-1, 3.2759, 3.2767, 3.2762,3.2762, 3.2767, 3.2767, 3.2767,3.2767
SingleSource/Benchmarks/Misc/flops-2, 0.7887, 0.7887, 0.7887,0.7887, 0.7887, 0.7887, 0.7887,0.7887
SingleSource/Benchmarks/Misc/flops-3, 4.9500, 4.8629, 4.9498,4.9498, 4.9498, 4.9499, 4.9501,4.9499
SingleSource/Benchmarks/Misc/flops-4, 2.1280, 2.1279, 2.1280,2.128, 2.2148, 2.1280, 2.1281,2.1281
SingleSource/Benchmarks/Misc/flops-5, 3.9099, 3.9087, 3.9097,3.9097, 3.9097, 3.9098, 3.9099,3.9098
SingleSource/Benchmarks/Misc/flops-6, 3.1270, 3.1268, 3.1268,3.1268, 3.1268, 3.1269, 3.1270,3.1269
SingleSource/Benchmarks/Misc/flops-7, 1.4540, 1.4536, 1.4539,1.4539, 1.4539, 1.4540, 1.4540,1.454
SingleSource/Benchmarks/Misc/flops-8, 2.6490, 2.6489, 2.6489,2.6489, 2.6489, 2.6489, 2.6491,2.6489
SingleSource/Benchmarks/Misc/fp-convert, 2.4052, 2.4050, 2.4051,2.4051, 2.4051, 2.4051, 2.4052,2.4051
SingleSource/Benchmarks/Misc/himenobmtxpa, 0.5060, 0.5047, 0.5007,0.5047, 0.5161, 0.5097, 0.5251,0.5161
SingleSource/Benchmarks/Misc/lowercase, 0.0007, 0.0007, 0.0007,0.0007, 0.0007, 0.0007, 0.0007,0.0007
SingleSource/Benchmarks/Misc/mandel, 0.7623, 0.7623, 0.7624,0.7623, 0.7622, 0.7623, 0.7623,0.7623
SingleSource/Benchmarks/Misc/mandel-2, 1.1686, 1.1685, 1.1685,1.1685, 1.1685, 1.1685, 1.1686,1.1685
SingleSource/Benchmarks/Misc/matmul_f64_4x4, 1.1843, 1.1843, 1.1843,1.1843, 1.1843, 1.1843, 1.1844,1.1843
SingleSource/Benchmarks/Misc/oourafft, 5.5019, 5.5017, 5.5019,5.5019, 5.5021, 5.5018, 5.5027,5.5021
SingleSource/Benchmarks/Misc/perlin, 3.5490, 3.5479, 3.5485,3.5485, 3.5485, 3.5489, 3.5488,3.5488
SingleSource/Benchmarks/Misc/pi, 0.6348, 0.6348, 0.6348,0.6348, 0.6347, 0.6347, 0.6348,0.6347
SingleSource/Benchmarks/Misc/revertBits, 0.3012, 0.3012, 0.3013,0.3012, 0.3012, 0.3013, 0.3012,0.3012
SingleSource/Benchmarks/Misc/richards_benchmark, 0.4546, 0.4544, 0.4546,0.4546, 0.4546, 0.4550, 0.4546,0.4546
SingleSource/Benchmarks/Misc/salsa20, 4.2231, 4.2227, 4.2230,4.223, 4.2228, 4.2230, 4.2232,4.223
SingleSource/Benchmarks/Misc/whetstone, 0.9385, 0.9362, 0.9362,0.9362, 0.9371, 0.9371, 0.9385,0.9371
SingleSource/Benchmarks/Polybench/datamining/correlation/correlation, 1.4190, 1.4273, 1.4260,1.426, 1.4141, 1.4133, 1.4202,1.4141
SingleSource/Benchmarks/Polybench/datamining/covariance/covariance, 1.4082, 1.4187, 1.4084,1.4084, 1.4151, 1.4193, 1.4048,1.4151
SingleSource/Benchmarks/Polybench/linear-algebra/kernels/atax/atax, 0.1605, 0.1606, 0.1605,0.1605, 0.1603, 0.1604, 0.1603,0.1603
SingleSource/Benchmarks/Polybench/linear-algebra/kernels/bicg/bicg, 0.1994, 0.1994, 0.1995,0.1994, 0.1992, 0.1993, 0.1992,0.1992
SingleSource/Benchmarks/Polybench/linear-algebra/kernels/cholesky/cholesky, 0.4149, 0.4148, 0.4149,0.4149, 0.4156, 0.4154, 0.4153,0.4154
SingleSource/Benchmarks/Polybench/linear-algebra/kernels/doitgen/doitgen, 0.7147, 0.7228, 0.7373,0.7228, 0.7146, 0.7216, 0.7217,0.7216
SingleSource/Benchmarks/Polybench/linear-algebra/kernels/gemver/gemver, 0.3203, 0.3180, 0.3184,0.3184, 0.3220, 0.3220, 0.3219,0.322
SingleSource/Benchmarks/Polybench/linear-algebra/kernels/gesummv/gesummv, 0.2907, 0.2908, 0.2906,0.2907, 0.2905, 0.2862, 0.2905,0.2905
SingleSource/Benchmarks/Polybench/linear-algebra/kernels/mvt/mvt, 0.2350, 0.2352, 0.2351,0.2351, 0.2306, 0.2309, 0.2353,0.2309
SingleSource/Benchmarks/Polybench/linear-algebra/kernels/symm/symm,14.9269,14.7216,15.0123,14.9269,14.4438,14.9253,15.0818,14.9253
SingleSource/Benchmarks/Polybench/linear-algebra/kernels/syr2k/syr2k, 8.4118, 8.4131, 8.4125,8.4125, 8.4107, 8.4125, 8.4138,8.4125
SingleSource/Benchmarks/Polybench/linear-algebra/kernels/syrk/syrk, 3.9988, 4.2234, 3.9971,3.9988, 4.2222, 4.2226, 4.2226,4.2226
SingleSource/Benchmarks/Polybench/linear-algebra/kernels/trisolv/trisolv, 0.1636, 0.1636, 0.1635,0.1636, 0.1637, 0.1636, 0.1546,0.1636
SingleSource/Benchmarks/Polybench/linear-algebra/kernels/trmm/trmm, 2.1309, 2.1210, 2.1203,2.121, 2.0129, 2.0105, 2.1295,2.0129
SingleSource/Benchmarks/Polybench/linear-algebra/solvers/durbin/durbin, 0.4007, 0.4003, 0.4007,0.4007, 0.4007, 0.4010, 0.4008,0.4008
SingleSource/Benchmarks/Polybench/linear-algebra/solvers/dynprog/dynprog, 0.2570, 0.2570, 0.2572,0.257, 0.2570, 0.2569, 0.2573,0.257
SingleSource/Benchmarks/Polybench/linear-algebra/solvers/gramschmidt/gramschmidt, 1.4197, 1.4141, 1.4876,1.4197, 1.4218, 1.4222, 1.4150,1.4218
SingleSource/Benchmarks/Polybench/linear-algebra/solvers/lu/lu, 0.0019, 0.0019, 0.0019,0.0019, 0.0019, 0.0019, 0.0019,0.0019
SingleSource/Benchmarks/Polybench/medley/floyd-warshall/floyd-warshall, 5.4375, 5.4345, 5.4356,5.4356, 5.4363, 5.4339, 5.4353,5.4353
SingleSource/Benchmarks/Polybench/medley/reg_detect/reg_detect, 0.0142, 0.0142, 0.0142,0.0142, 0.0142, 0.0142, 0.0142,0.0142
SingleSource/Benchmarks/Polybench/stencils/adi/adi, 2.6047, 2.6073, 2.6074,2.6073, 2.6052, 2.6065, 2.6064,2.6064
SingleSource/Benchmarks/Polybench/stencils/fdtd-2d/fdtd-2d, 0.5116, 0.5092, 0.5110,0.511, 0.5101, 0.5054, 0.5062,0.5062
SingleSource/Benchmarks/Polybench/stencils/fdtd-apml/fdtd-apml, 0.6665, 0.6653, 0.6724,0.6665, 0.6655, 0.6716, 0.6656,0.6656
SingleSource/Benchmarks/Polybench/stencils/jacobi-1d-imper/jacobi-1d-imper, 0.0033, 0.0033, 0.0033,0.0033, 0.0033, 0.0033, 0.0032,0.0033
SingleSource/Benchmarks/Polybench/stencils/jacobi-2d-imper/jacobi-2d-imper, 0.1523, 0.1515, 0.1511,0.1515, 0.1519, 0.1520, 0.1521,0.152
SingleSource/Benchmarks/Polybench/stencils/seidel-2d/seidel-2d, 0.6027, 0.6027, 0.6027,0.6027, 0.6027, 0.6027, 0.6026,0.6027
SingleSource/Benchmarks/Shootout-C++/EH/except, 0.1102, 0.1108, 0.1105,0.1105, 0.1097, 0.1120, 0.1116,0.1116
SingleSource/Benchmarks/Shootout-C++/ackermann, 0.6010, 0.6009, 0.6009,0.6009, 0.6009, 0.6010, 0.6008,0.6009
SingleSource/Benchmarks/Shootout-C++/ary, 0.0217, 0.0217, 0.0217,0.0217, 0.0217, 0.0217, 0.0217,0.0217
SingleSource/Benchmarks/Shootout-C++/ary2, 0.0218, 0.0218, 0.0217,0.0218, 0.0217, 0.0218, 0.0218,0.0218
SingleSource/Benchmarks/Shootout-C++/ary3, 0.6722, 0.6841, 0.6906,0.6841, 0.6713, 0.6688, 0.6820,0.6713
SingleSource/Benchmarks/Shootout-C++/fibo, 1.3519, 1.3512, 1.3507,1.3512, 1.3529, 1.3512, 1.3513,1.3513
SingleSource/Benchmarks/Shootout-C++/hash, 0.2851, 0.2837, 0.2845,0.2845, 0.2885, 0.2892, 0.2886,0.2886
SingleSource/Benchmarks/Shootout-C++/hash2, 1.5775, 1.5776, 1.5778,1.5776, 1.5951, 1.5943, 1.5944,1.5944
SingleSource/Benchmarks/Shootout-C++/heapsort, 1.9362, 1.9389, 1.9334,1.9362, 1.9393, 1.9377, 1.9354,1.9377
SingleSource/Benchmarks/Shootout-C++/lists, 2.6188, 2.6451, 2.6442,2.6442, 2.6314, 2.6356, 2.6437,2.6356
SingleSource/Benchmarks/Shootout-C++/lists1, 0.1251, 0.1237, 0.1245,0.1245, 0.1238, 0.1243, 0.1247,0.1243
SingleSource/Benchmarks/Shootout-C++/matrix, 1.0283, 1.0286, 1.0283,1.0283, 1.0283, 1.0280, 1.0283,1.0283
SingleSource/Benchmarks/Shootout-C++/methcall, 3.1544, 3.1543, 3.1544,3.1544, 3.1544, 3.1545, 3.1591,3.1545
SingleSource/Benchmarks/Shootout-C++/moments, 0.0503, 0.0503, 0.0503,0.0503, 0.0502, 0.0502, 0.0502,0.0502
SingleSource/Benchmarks/Shootout-C++/nestedloop, 0.0007, 0.0007, 0.0007,0.0007, 0.0007, 0.0007, 0.0007,0.0007
SingleSource/Benchmarks/Shootout-C++/objinst, 0.0007, 0.0007, 0.0007,0.0007, 0.0007, 0.0007, 0.0007,0.0007
SingleSource/Benchmarks/Shootout-C++/random, 1.5955, 1.5954, 1.5955,1.5955, 1.5955, 1.5955, 1.5955,1.5955
SingleSource/Benchmarks/Shootout-C++/sieve, 1.2627, 1.1991, 1.1568,1.1991, 1.1783, 1.1647, 1.1218,1.1647
SingleSource/Benchmarks/Shootout-C++/strcat, 0.0386, 0.0386, 0.0386,0.0386, 0.0384, 0.0384, 0.0385,0.0384
SingleSource/Benchmarks/Shootout/ackermann, 0.0030, 0.0030, 0.0030,0.003, 0.0030, 0.0030, 0.0030,0.003
SingleSource/Benchmarks/Shootout/ary3, 0.7010, 0.7233, 0.7035,0.7035, 0.7074, 0.7059, 0.6817,0.7059
SingleSource/Benchmarks/Shootout/fib2, 1.3501, 1.3545, 1.3488,1.3501, 1.3531, 1.3524, 1.3543,1.3531
SingleSource/Benchmarks/Shootout/hash, 2.5596, 2.5629, 2.5757,2.5629, 2.5314, 2.5242, 2.5536,2.5314
SingleSource/Benchmarks/Shootout/heapsort, 1.9427, 1.9432, 1.9406,1.9427, 1.9412, 1.9399, 1.9394,1.9399
SingleSource/Benchmarks/Shootout/lists, 3.7632, 3.7629, 3.7722,3.7632, 3.7683, 3.7700, 3.7624,3.7683
SingleSource/Benchmarks/Shootout/matrix, 0.9679, 0.9678, 0.9680,0.9679, 0.9683, 0.9680, 0.9680,0.968
SingleSource/Benchmarks/Shootout/methcall, 2.9953, 2.9956, 2.9957,2.9956, 2.9964, 2.9961, 2.9958,2.9961
SingleSource/Benchmarks/Shootout/nestedloop, 0.0007, 0.0007, 0.0007,0.0007, 0.0007, 0.0007, 0.0007,0.0007
SingleSource/Benchmarks/Shootout/objinst, 0.0007, 0.0007, 0.0007,0.0007, 0.0007, 0.0007, 0.0007,0.0007
SingleSource/Benchmarks/Shootout/random, 1.5954, 1.5954, 1.5954,1.5954, 1.5954, 1.5955, 1.5954,1.5954
SingleSource/Benchmarks/Shootout/sieve, 3.1714, 3.1696, 3.1713,3.1713, 3.4821, 3.4828, 3.4831,3.4828
SingleSource/Benchmarks/Shootout/strcat, 0.1003, 0.1001, 0.1003,0.1003, 0.1003, 0.1003, 0.1003,0.1003
SingleSource/Benchmarks/SmallPT/smallpt, 6.9124, 6.9122, 6.9202,6.9124, 6.9003, 6.8998, 6.9130,6.9003
SingleSource/Benchmarks/Stanford/Bubblesort, 0.0144, 0.0144, 0.0144,0.0144, 0.0144, 0.0144, 0.0144,0.0144
SingleSource/Benchmarks/Stanford/FloatMM, 0.1839, 0.1839, 0.1839,0.1839, 0.1839, 0.1840, 0.1839,0.1839
SingleSource/Benchmarks/Stanford/Oscar, 0.0029, 0.0029, 0.0029,0.0029, 0.0022, 0.0022, 0.0022,0.0022
SingleSource/Benchmarks/Stanford/Perm, 0.0133, 0.0133, 0.0133,0.0133, 0.0133, 0.0133, 0.0133,0.0133
SingleSource/Benchmarks/Stanford/Puzzle, 0.0725, 0.0726, 0.0726,0.0726, 0.0726, 0.0727, 0.0725,0.0726
SingleSource/Benchmarks/Stanford/Queens, 0.0066, 0.0065, 0.0067,0.0066, 0.0068, 0.0066, 0.0065,0.0066
SingleSource/Benchmarks/Stanford/Quicksort, 0.0276, 0.0276, 0.0277,0.0276, 0.0277, 0.0277, 0.0276,0.0277
SingleSource/Benchmarks/Stanford/RealMM, 0.0013, 0.0013, 0.0013,0.0013, 0.0013, 0.0013, 0.0013,0.0013
SingleSource/Benchmarks/Stanford/Towers, 0.0076, 0.0076, 0.0076,0.0076, 0.0076, 0.0076, 0.0076,0.0076
SingleSource/Benchmarks/Stanford/Treesort, 0.0497, 0.0497, 0.0496,0.0497, 0.0497, 0.0498, 0.0496,0.0497
SingleSource/Regression/C/2004-08-12-InlinerAndAllocas, 0.0012, 0.0012, 0.0012,0.0012, 0.0012, 0.0012, 0.0012,0.0012
SingleSource/Regression/C/uint64_to_float, 0.2255, 0.2254, 0.2254,0.2254, 0.2254, 0.2254, 0.2254,0.2254
Total elapsed time,-,-,-,539.7328000000002,-,-,-,540.0241000000003
Total failure,-,-,-,0,-,-,-,0
