Benchmarks,base-5.0,base-5.0,base-5.0,median,insts-5.0,insts-5.0,insts-5.0,median,Slowdown(%)
SingleSource/Benchmarks/Shootout/sieve, 3.1714, 3.1696, 3.1713,3.1713, 3.4818, 3.4836, 3.4815,3.4818,9.790937470437978
MultiSource/Benchmarks/mediabench/jpeg/jpeg-6a/cjpeg, 0.0046, 0.0046, 0.0046,0.0046, 0.0048, 0.0047, 0.0048,0.0048,4.347826086956519
MultiSource/Benchmarks/Bullet/bullet, 2.9552, 2.9568, 2.9609,2.9568, 3.0348, 3.0338, 3.0303,3.0338,2.604166666666674
MultiSource/Benchmarks/Ptrdist/ft/ft, 0.5308, 0.5399, 0.5505,0.5399, 0.5532, 0.5432, 0.5745,0.5532,2.4634191516947457
SingleSource/Benchmarks/Misc-C++-EH/spirit, 2.3837, 2.3839, 2.3862,2.3839, 2.4435, 2.4416, 2.4405,2.4416,2.420403540416971
MultiSource/Benchmarks/MiBench/telecomm-CRC32/telecomm-CRC32, 0.1370, 0.1372, 0.1405,0.1372, 0.1408, 0.1404, 0.1362,0.1404,2.3323615160349975
MultiSource/Benchmarks/Olden/voronoi/voronoi, 0.1964, 0.1962, 0.1963,0.1963, 0.2009, 0.2007, 0.2008,0.2008,2.292409577177801
MultiSource/Benchmarks/TSVC/ControlFlow-flt/ControlFlow-flt, 3.2207, 3.2363, 3.2206,3.2207, 3.2797, 3.3018, 3.2940,3.294,2.275902754059689
MultiSource/Benchmarks/mediabench/adpcm/rawcaudio/rawcaudio, 0.0050, 0.0049, 0.0049,0.0049, 0.0050, 0.0049, 0.0050,0.005,2.0408163265306145
SingleSource/Benchmarks/Misc/himenobmtxpa, 0.5060, 0.5047, 0.5007,0.5047, 0.5155, 0.5134, 0.5083,0.5134,1.7237963146423452
MultiSource/Applications/sqlite3/sqlite3, 1.6311, 1.6336, 1.6381,1.6336, 1.6544, 1.6671, 1.6612,1.6612,1.6895200783545672
MultiSource/Benchmarks/Prolangs-C++/employ/employ, 0.0062, 0.0062, 0.0062,0.0062, 0.0062, 0.0063, 0.0063,0.0063,1.6129032258064502
SingleSource/Benchmarks/Shootout-C++/EH/except, 0.1102, 0.1108, 0.1105,0.1105, 0.1122, 0.1127, 0.1110,0.1122,1.538461538461533
MultiSource/Applications/minisat/minisat, 3.7376, 3.7370, 3.7352,3.737, 3.7934, 3.7948, 3.7915,3.7934,1.5092320042815022
SingleSource/Benchmarks/BenchmarkGame/nsieve-bits, 0.4314, 0.4298, 0.4300,0.43, 0.4391, 0.4356, 0.4352,0.4356,1.3023255813953583
SingleSource/Benchmarks/Shootout-C++/hash, 0.2851, 0.2837, 0.2845,0.2845, 0.2880, 0.2878, 0.2881,0.288,1.2302284710017597
MultiSource/Benchmarks/TSVC/LoopRestructuring-flt/LoopRestructuring-flt, 2.6833, 2.6851, 2.6611,2.6833, 2.7156, 2.7532, 2.6235,2.7156,1.203741661387081
SingleSource/Benchmarks/Shootout-C++/hash2, 1.5775, 1.5776, 1.5778,1.5776, 1.5942, 1.5951, 1.5948,1.5948,1.0902636916835684
MultiSource/Benchmarks/Ptrdist/bc/bc, 0.3350, 0.3349, 0.3349,0.3349, 0.3378, 0.3380, 0.3380,0.338,0.9256494475963217
MultiSource/Benchmarks/DOE-ProxyApps-C++/PENNANT/PENNANT, 0.3774, 0.3774, 0.3772,0.3774, 0.3806, 0.3804, 0.3801,0.3804,0.7949125596184325
SingleSource/Benchmarks/Shootout/hash, 2.5596, 2.5629, 2.5757,2.5629, 2.5811, 2.5741, 2.6077,2.5811,0.7101330524015959
MultiSource/Benchmarks/MiBench/security-sha/security-sha, 0.0145, 0.0146, 0.0145,0.0145, 0.0146, 0.0146, 0.0145,0.0146,0.6896551724137945
MultiSource/Applications/spiff/spiff, 1.1722, 1.1727, 1.1753,1.1727, 1.1818, 1.1788, 1.1804,1.1804,0.6566044171569807
MultiSource/Applications/lua/lua,10.1803,10.1972,10.2042,10.1972,10.2583,10.2579,10.2562,10.2579,0.5952614443180293
SingleSource/Benchmarks/Polybench/stencils/fdtd-apml/fdtd-apml, 0.6665, 0.6653, 0.6724,0.6665, 0.6670, 0.6701, 0.6722,0.6701,0.5401350337584487
MultiSource/Benchmarks/McCat/09-vor/vor, 0.0776, 0.0777, 0.0778,0.0777, 0.0781, 0.0781, 0.0780,0.0781,0.5148005148005064
SingleSource/Benchmarks/Polybench/linear-algebra/kernels/gemver/gemver, 0.3203, 0.3180, 0.3184,0.3184, 0.3203, 0.3159, 0.3200,0.32,0.5025125628140614
SingleSource/Benchmarks/Polybench/stencils/jacobi-2d-imper/jacobi-2d-imper, 0.1523, 0.1515, 0.1511,0.1515, 0.1522, 0.1514, 0.1526,0.1522,0.46204620462046986
MultiSource/Benchmarks/MiBench/security-rijndael/security-rijndael, 0.0218, 0.0217, 0.0217,0.0217, 0.0218, 0.0217, 0.0218,0.0218,0.4608294930875445
MultiSource/Applications/SIBsim4/SIBsim4, 1.9116, 1.8873, 1.8987,1.8987, 1.9054, 1.9073, 1.9360,1.9073,0.45294148628007846
MultiSource/Benchmarks/MallocBench/espresso/espresso, 0.2748, 0.2747, 0.2746,0.2747, 0.2764, 0.2759, 0.2759,0.2759,0.4368401892974161
SingleSource/Benchmarks/Shootout-C++/lists1, 0.1251, 0.1237, 0.1245,0.1245, 0.1249, 0.1238, 0.1258,0.1249,0.3212851405622441
MultiSource/Applications/lambda-0.1.3/lambda, 2.4149, 2.4313, 2.4678,2.4313, 2.4429, 2.4380, 2.4360,2.438,0.275572738864005
MultiSource/Benchmarks/Prolangs-C++/ocean/ocean, 0.0363, 0.0363, 0.0362,0.0363, 0.0364, 0.0364, 0.0362,0.0364,0.27548209366392573
MultiSource/Benchmarks/Olden/perimeter/perimeter, 0.1129, 0.1133, 0.1129,0.1129, 0.1131, 0.1132, 0.1132,0.1132,0.26572187776792155
SingleSource/Benchmarks/Misc/whetstone, 0.9385, 0.9362, 0.9362,0.9362, 0.9385, 0.9384, 0.9395,0.9385,0.24567400128177042
MultiSource/Benchmarks/Olden/bisort/bisort, 0.3273, 0.3266, 0.3265,0.3266, 0.3274, 0.3276, 0.3271,0.3274,0.24494794856093627
MultiSource/Benchmarks/TSVC/Symbolics-flt/Symbolics-flt, 1.2714, 1.2698, 1.2701,1.2701, 1.2732, 1.2725, 1.2744,1.2732,0.24407526966381266
MultiSource/Benchmarks/mafft/pairlocalalign,22.5433,22.5448,22.5428,22.5433,22.5956,22.5953,22.5953,22.5953,0.2306672048901559
SingleSource/Benchmarks/Misc-C++/bigfib, 0.1767, 0.1763, 0.1764,0.1764, 0.1769, 0.1767, 0.1768,0.1768,0.22675736961452753
MultiSource/Benchmarks/TSVC/LinearDependence-flt/LinearDependence-flt, 4.5576, 4.5647, 4.5603,4.5603, 4.5687, 4.5705, 4.5702,4.5702,0.2170909808565158
MultiSource/Benchmarks/McCat/18-imp/imp, 0.0527, 0.0527, 0.0527,0.0527, 0.0527, 0.0528, 0.0528,0.0528,0.189753320683117
SingleSource/Benchmarks/Shootout/fib2, 1.3501, 1.3545, 1.3488,1.3501, 1.3523, 1.3526, 1.3570,1.3526,0.1851714687800765
SingleSource/Benchmarks/Adobe-C++/functionobjects, 2.7595, 2.7624, 2.7619,2.7619, 2.7673, 2.7657, 2.7669,2.7669,0.18103479488758012
MultiSource/Benchmarks/TSVC/IndirectAddressing-dbl/IndirectAddressing-dbl, 2.2742, 2.2720, 2.2753,2.2742, 2.2783, 2.2779, 2.2803,2.2783,0.18028317650162773
SingleSource/Benchmarks/Misc/ffbench, 0.5385, 0.5437, 0.5394,0.5394, 0.5386, 0.5420, 0.5403,0.5403,0.1668520578420596
MultiSource/Benchmarks/MiBench/telecomm-adpcm/telecomm-adpcm, 0.0639, 0.0639, 0.0641,0.0639, 0.0640, 0.0639, 0.0640,0.064,0.15649452269170805
MultiSource/Benchmarks/Ptrdist/ks/ks, 0.5973, 0.5982, 0.5982,0.5982, 0.5995, 0.5991, 0.5974,0.5991,0.15045135406219767
MultiSource/Benchmarks/sim/sim, 2.4102, 2.4089, 2.4086,2.4089, 2.4084, 2.4132, 2.4125,2.4125,0.14944580513926997
MultiSource/Benchmarks/TSVC/InductionVariable-flt/InductionVariable-flt, 2.3414, 2.3431, 2.3396,2.3414, 2.3450, 2.3436, 2.3448,2.3448,0.14521226616555083
MultiSource/Benchmarks/DOE-ProxyApps-C/Pathfinder/PathFinder, 1.9356, 1.9395, 1.9358,1.9358, 1.9385, 1.9335, 1.9536,1.9385,0.13947721872094032
MultiSource/Benchmarks/DOE-ProxyApps-C/RSBench/rsbench, 0.5006, 0.5239, 0.5327,0.5239, 0.5341, 0.5246, 0.5216,0.5246,0.13361328497802916
SingleSource/Benchmarks/Polybench/linear-algebra/kernels/mvt/mvt, 0.2350, 0.2352, 0.2351,0.2351, 0.2353, 0.2355, 0.2354,0.2354,0.12760527435133895
MultiSource/Benchmarks/TSVC/IndirectAddressing-flt/IndirectAddressing-flt, 2.0557, 2.0545, 2.0566,2.0557, 2.0600, 2.0583, 2.0563,2.0583,0.12647759887143284
MultiSource/Benchmarks/Fhourstones/fhourstones, 0.4971, 0.4945, 0.4937,0.4945, 0.4951, 0.4994, 0.4939,0.4951,0.12133468149646554
MultiSource/Benchmarks/MallocBench/cfrac/cfrac, 0.6970, 0.6973, 0.6970,0.697, 0.6981, 0.6976, 0.6978,0.6978,0.11477761836442557
MultiSource/Benchmarks/TSVC/ControlFlow-dbl/ControlFlow-dbl, 3.4351, 3.4402, 3.4393,3.4393, 3.4429, 3.4441, 3.4420,3.4429,0.10467246241967487
MultiSource/Benchmarks/SciMark2-C/scimark2,38.4701,38.4728,38.4684,38.4701,39.1834,38.4876,38.5103,38.5103,0.1044967390258833
SingleSource/Benchmarks/Shootout/strcat, 0.1003, 0.1001, 0.1003,0.1003, 0.1004, 0.1004, 0.1003,0.1004,0.09970089730808596
MultiSource/Benchmarks/7zip/7zip-benchmark, 5.8048, 5.8072, 5.8039,5.8048, 5.8104, 5.8104, 5.8112,5.8104,0.09647188533625783
MultiSource/Benchmarks/MiBench/consumer-lame/consumer-lame, 0.1088, 0.1088, 0.1088,0.1088, 0.1087, 0.1091, 0.1089,0.1089,0.09191176470588758
MultiSource/Benchmarks/DOE-ProxyApps-C/miniAMR/miniAMR, 0.7137, 0.7138, 0.7150,0.7138, 0.7161, 0.7144, 0.7142,0.7144,0.08405715886803389
SingleSource/Benchmarks/Shootout/heapsort, 1.9427, 1.9432, 1.9406,1.9427, 1.9456, 1.9405, 1.9443,1.9443,0.08235960261491204
MultiSource/Benchmarks/llubenchmark/llu, 3.6186, 3.5747, 3.5155,3.5747, 3.5773, 3.5684, 3.6129,3.5773,0.07273337622737408
MultiSource/Benchmarks/TSVC/StatementReordering-flt/StatementReordering-flt, 1.6707, 1.6749, 1.6695,1.6707, 1.6720, 1.6699, 1.6719,1.6719,0.07182618064283108
MultiSource/Benchmarks/TSVC/Equivalencing-dbl/Equivalencing-dbl, 1.2711, 1.2717, 1.2729,1.2717, 1.2726, 1.2720, 1.2747,1.2726,0.07077140835101137
SingleSource/Benchmarks/Shootout/lists, 3.7632, 3.7629, 3.7722,3.7632, 3.7669, 3.7652, 3.7656,3.7656,0.06377551020408934
MultiSource/Benchmarks/TSVC/StatementReordering-dbl/StatementReordering-dbl, 2.0626, 2.0590, 2.0585,2.059, 2.0585, 2.0603, 2.0610,2.0603,0.06313744536181609
MultiSource/Benchmarks/FreeBench/fourinarow/fourinarow, 0.1625, 0.1624, 0.1624,0.1624, 0.1625, 0.1624, 0.1625,0.1625,0.06157635467980427
MultiSource/Benchmarks/TSVC/Equivalencing-flt/Equivalencing-flt, 0.8883, 0.8869, 0.8857,0.8869, 0.8874, 0.8877, 0.8838,0.8874,0.056376141616865105
MultiSource/Benchmarks/Olden/tsp/tsp, 1.0729, 1.0726, 1.0727,1.0727, 1.0730, 1.0732, 1.0732,1.0732,0.046611354525949444
MultiSource/Benchmarks/TSVC/Searching-flt/Searching-flt, 2.2241, 2.2249, 2.2256,2.2249, 2.2258, 2.2261, 2.2259,2.2259,0.044945840262489156
SingleSource/Benchmarks/CoyoteBench/almabench,11.5567,11.5636,11.5598,11.5598,11.5641,11.5651,11.5649,11.5649,0.04411841035312225
SingleSource/Benchmarks/Shootout-C++/heapsort, 1.9362, 1.9389, 1.9334,1.9362, 1.9386, 1.9333, 1.9370,1.937,0.04131804565645769
SingleSource/Benchmarks/Polybench/linear-algebra/solvers/dynprog/dynprog, 0.2570, 0.2570, 0.2572,0.257, 0.2566, 0.2575, 0.2571,0.2571,0.03891050583657574
MultiSource/Benchmarks/Trimaran/netbench-crc/netbench-crc, 0.5689, 0.5688, 0.5687,0.5688, 0.5694, 0.5690, 0.5689,0.569,0.035161744022493835
SingleSource/Benchmarks/Polybench/linear-algebra/kernels/gesummv/gesummv, 0.2907, 0.2908, 0.2906,0.2907, 0.2908, 0.2909, 0.2906,0.2908,0.03439972480219211
MultiSource/Applications/viterbi/viterbi, 1.1747, 1.1737, 1.1739,1.1739, 1.1770, 1.1740, 1.1743,1.1743,0.03407445267908926
MultiSource/Benchmarks/Trimaran/enc-3des/enc-3des, 1.1792, 1.1785, 1.1785,1.1785, 1.1789, 1.1789, 1.1788,1.1789,0.033941450997021505
SingleSource/Benchmarks/BenchmarkGame/Large/fasta, 0.5896, 0.5900, 0.5927,0.59, 0.5897, 0.5918, 0.5902,0.5902,0.033898305084734126
MultiSource/Benchmarks/TSVC/CrossingThresholds-flt/CrossingThresholds-flt, 1.4910, 1.5007, 1.4888,1.491, 1.4980, 1.4915, 1.4813,1.4915,0.03353454057679617
MultiSource/Applications/JM/lencod/lencod, 2.8992, 2.9014, 2.9001,2.9001, 2.8999, 2.9015, 2.9010,2.901,0.031033412640923963
SingleSource/Benchmarks/Shootout/matrix, 0.9679, 0.9678, 0.9680,0.9679, 0.9681, 0.9682, 0.9682,0.9682,0.03099493749354476
SingleSource/Benchmarks/Adobe-C++/simple_types_loop_invariant, 1.4573, 1.4572, 1.4571,1.4572, 1.4576, 1.4576, 1.4573,1.4576,0.027449903925336194
SingleSource/Benchmarks/Polybench/medley/floyd-warshall/floyd-warshall, 5.4375, 5.4345, 5.4356,5.4356, 5.4370, 5.4338, 5.4386,5.437,0.025756126278619895
SingleSource/Benchmarks/Shootout-C++/fibo, 1.3519, 1.3512, 1.3507,1.3512, 1.3506, 1.3515, 1.3525,1.3515,0.022202486678501998
SingleSource/Benchmarks/Misc/richards_benchmark, 0.4546, 0.4544, 0.4546,0.4546, 0.4547, 0.4548, 0.4544,0.4547,0.02199736031676114
SingleSource/Benchmarks/Misc/flops-1, 3.2759, 3.2767, 3.2762,3.2762, 3.2772, 3.2769, 3.2768,3.2769,0.02136621695867369
SingleSource/Benchmarks/BenchmarkGame/fannkuch, 1.9108, 1.9122, 1.9119,1.9119, 1.9124, 1.9122, 1.9121,1.9122,0.015691197238343335
MultiSource/Benchmarks/VersaBench/bmm/bmm, 1.5053, 1.5055, 1.5053,1.5053, 1.5054, 1.5055, 1.5055,1.5055,0.0132863880953904
MultiSource/Benchmarks/Olden/em3d/em3d, 1.5615, 1.5612, 1.5613,1.5613, 1.5615, 1.5613, 1.5616,1.5615,0.012809837955551906
SingleSource/Benchmarks/Shootout/methcall, 2.9953, 2.9956, 2.9957,2.9956, 2.9964, 2.9959, 2.9955,2.9959,0.010014688209358802
MultiSource/Benchmarks/Trimaran/enc-md5/enc-md5, 1.1195, 1.1196, 1.1195,1.1195, 1.1195, 1.1196, 1.1196,1.1196,0.008932559178198574
MultiSource/Benchmarks/TSVC/InductionVariable-dbl/InductionVariable-dbl, 2.8007, 2.8009, 2.8023,2.8009, 2.8011, 2.7998, 2.8019,2.8011,0.007140561962226677
SingleSource/Benchmarks/Misc/oourafft, 5.5019, 5.5017, 5.5019,5.5019, 5.5095, 5.5020, 5.5022,5.5022,0.005452661807736625
MultiSource/Benchmarks/TSVC/Searching-dbl/Searching-dbl, 2.0804, 2.0809, 2.0807,2.0807, 2.0808, 2.0806, 2.0816,2.0808,0.0048060748786271645
MultiSource/Benchmarks/TSVC/Symbolics-dbl/Symbolics-dbl, 2.2571, 2.2571, 2.2570,2.2571, 2.2570, 2.2572, 2.2575,2.2572,0.004430463869575796
SingleSource/Benchmarks/Misc-C++/Large/ray, 2.8717, 2.8693, 2.8694,2.8694, 2.8695, 2.8695, 2.8695,2.8695,0.0034850491391846816
MultiSource/Benchmarks/TSVC/Reductions-dbl/Reductions-dbl, 3.1455, 3.1456, 3.1455,3.1455, 3.1456, 3.1457, 3.1456,3.1456,0.003179144810028234
MultiSource/Benchmarks/TSVC/Recurrences-flt/Recurrences-flt, 3.2012, 3.2012, 3.2013,3.2012, 3.2013, 3.2013, 3.2013,3.2013,0.003123828564288722
MultiSource/Benchmarks/TSVC/Recurrences-dbl/Recurrences-dbl, 3.2014, 3.2015, 3.2016,3.2015, 3.2016, 3.2016, 3.2015,3.2016,0.003123535842575187
MultiSource/Benchmarks/NPB-serial/is/is, 4.7417, 4.6301, 4.7472,4.7417, 4.7474, 4.7418, 4.6303,4.7418,0.0021089482674874205
MultiSource/Applications/hexxagon/hexxagon, 6.4705, 6.4701, 6.4695,6.4701, 6.4702, 6.4701, 6.4704,6.4702,0.001545571165828541
SingleSource/Regression/C/uint64_to_float, 0.2255, 0.2254, 0.2254,0.2254, 0.2254, 0.2254, 0.2254,0.2254,0.0
SingleSource/Regression/C/2004-08-12-InlinerAndAllocas, 0.0012, 0.0012, 0.0012,0.0012, 0.0012, 0.0012, 0.0012,0.0012,0.0
SingleSource/Benchmarks/Stanford/Treesort, 0.0497, 0.0497, 0.0496,0.0497, 0.0496, 0.0497, 0.0497,0.0497,0.0
SingleSource/Benchmarks/Stanford/Towers, 0.0076, 0.0076, 0.0076,0.0076, 0.0076, 0.0076, 0.0076,0.0076,0.0
SingleSource/Benchmarks/Stanford/RealMM, 0.0013, 0.0013, 0.0013,0.0013, 0.0013, 0.0013, 0.0013,0.0013,0.0
SingleSource/Benchmarks/Stanford/Quicksort, 0.0276, 0.0276, 0.0277,0.0276, 0.0276, 0.0276, 0.0276,0.0276,0.0
SingleSource/Benchmarks/Stanford/Queens, 0.0066, 0.0065, 0.0067,0.0066, 0.0067, 0.0066, 0.0066,0.0066,0.0
SingleSource/Benchmarks/Stanford/Puzzle, 0.0725, 0.0726, 0.0726,0.0726, 0.0726, 0.0726, 0.0727,0.0726,0.0
SingleSource/Benchmarks/Stanford/Perm, 0.0133, 0.0133, 0.0133,0.0133, 0.0133, 0.0133, 0.0133,0.0133,0.0
SingleSource/Benchmarks/Stanford/FloatMM, 0.1839, 0.1839, 0.1839,0.1839, 0.1840, 0.1839, 0.1839,0.1839,0.0
SingleSource/Benchmarks/Stanford/Bubblesort, 0.0144, 0.0144, 0.0144,0.0144, 0.0144, 0.0144, 0.0144,0.0144,0.0
SingleSource/Benchmarks/Shootout/random, 1.5954, 1.5954, 1.5954,1.5954, 1.5954, 1.5954, 1.5954,1.5954,0.0
SingleSource/Benchmarks/Shootout/objinst, 0.0007, 0.0007, 0.0007,0.0007, 0.0007, 0.0007, 0.0007,0.0007,0.0
SingleSource/Benchmarks/Shootout/nestedloop, 0.0007, 0.0007, 0.0007,0.0007, 0.0007, 0.0007, 0.0007,0.0007,0.0
SingleSource/Benchmarks/Shootout/ackermann, 0.0030, 0.0030, 0.0030,0.003, 0.0030, 0.0030, 0.0030,0.003,0.0
SingleSource/Benchmarks/Shootout-C++/strcat, 0.0386, 0.0386, 0.0386,0.0386, 0.0386, 0.0385, 0.0386,0.0386,0.0
SingleSource/Benchmarks/Shootout-C++/random, 1.5955, 1.5954, 1.5955,1.5955, 1.5955, 1.5955, 1.5955,1.5955,0.0
SingleSource/Benchmarks/Shootout-C++/objinst, 0.0007, 0.0007, 0.0007,0.0007, 0.0007, 0.0007, 0.0007,0.0007,0.0
SingleSource/Benchmarks/Shootout-C++/nestedloop, 0.0007, 0.0007, 0.0007,0.0007, 0.0007, 0.0007, 0.0007,0.0007,0.0
SingleSource/Benchmarks/Shootout-C++/matrix, 1.0283, 1.0286, 1.0283,1.0283, 1.0283, 1.0283, 1.0284,1.0283,0.0
SingleSource/Benchmarks/Shootout-C++/ary, 0.0217, 0.0217, 0.0217,0.0217, 0.0217, 0.0217, 0.0217,0.0217,0.0
SingleSource/Benchmarks/Shootout-C++/ackermann, 0.6010, 0.6009, 0.6009,0.6009, 0.6009, 0.6009, 0.6009,0.6009,0.0
SingleSource/Benchmarks/Polybench/stencils/seidel-2d/seidel-2d, 0.6027, 0.6027, 0.6027,0.6027, 0.6027, 0.6027, 0.6027,0.6027,0.0
SingleSource/Benchmarks/Polybench/stencils/jacobi-1d-imper/jacobi-1d-imper, 0.0033, 0.0033, 0.0033,0.0033, 0.0032, 0.0033, 0.0033,0.0033,0.0
SingleSource/Benchmarks/Polybench/medley/reg_detect/reg_detect, 0.0142, 0.0142, 0.0142,0.0142, 0.0142, 0.0142, 0.0142,0.0142,0.0
SingleSource/Benchmarks/Polybench/linear-algebra/kernels/syr2k/syr2k, 8.4118, 8.4131, 8.4125,8.4125, 8.4104, 8.4125, 8.4130,8.4125,0.0
SingleSource/Benchmarks/Polybench/linear-algebra/kernels/bicg/bicg, 0.1994, 0.1994, 0.1995,0.1994, 0.1994, 0.1995, 0.1994,0.1994,0.0
SingleSource/Benchmarks/Polybench/linear-algebra/kernels/atax/atax, 0.1605, 0.1606, 0.1605,0.1605, 0.1604, 0.1605, 0.1606,0.1605,0.0
SingleSource/Benchmarks/Misc/revertBits, 0.3012, 0.3012, 0.3013,0.3012, 0.3012, 0.3012, 0.3012,0.3012,0.0
SingleSource/Benchmarks/Misc/pi, 0.6348, 0.6348, 0.6348,0.6348, 0.6347, 0.6348, 0.6348,0.6348,0.0
SingleSource/Benchmarks/Misc/matmul_f64_4x4, 1.1843, 1.1843, 1.1843,1.1843, 1.1843, 1.1843, 1.1842,1.1843,0.0
SingleSource/Benchmarks/Misc/mandel-2, 1.1686, 1.1685, 1.1685,1.1685, 1.1685, 1.1685, 1.1685,1.1685,0.0
SingleSource/Benchmarks/Misc/mandel, 0.7623, 0.7623, 0.7624,0.7623, 0.7623, 0.7623, 0.7623,0.7623,0.0
SingleSource/Benchmarks/Misc/lowercase, 0.0007, 0.0007, 0.0007,0.0007, 0.0007, 0.0007, 0.0007,0.0007,0.0
SingleSource/Benchmarks/Misc/fp-convert, 2.4052, 2.4050, 2.4051,2.4051, 2.4052, 2.4051, 2.4050,2.4051,0.0
SingleSource/Benchmarks/Misc/flops-8, 2.6490, 2.6489, 2.6489,2.6489, 2.6489, 2.6489, 2.6489,2.6489,0.0
SingleSource/Benchmarks/Misc/flops-7, 1.4540, 1.4536, 1.4539,1.4539, 1.4539, 1.4539, 1.4539,1.4539,0.0
SingleSource/Benchmarks/Misc/flops-6, 3.1270, 3.1268, 3.1268,3.1268, 3.1268, 3.1268, 3.1268,3.1268,0.0
SingleSource/Benchmarks/Misc/fbench, 1.5670, 1.5669, 1.5669,1.5669, 1.5669, 1.5670, 1.5669,1.5669,0.0
SingleSource/Benchmarks/Misc/dt, 0.6098, 0.6097, 0.6098,0.6098, 0.6098, 0.6098, 0.6098,0.6098,0.0
SingleSource/Benchmarks/Misc-C++/oopack_v1p8, 0.1481, 0.1481, 0.1481,0.1481, 0.1481, 0.1481, 0.1481,0.1481,0.0
SingleSource/Benchmarks/McGill/queens, 1.6016, 1.6018, 1.6010,1.6016, 1.6013, 1.6017, 1.6016,1.6016,0.0
SingleSource/Benchmarks/Dhrystone/fldry, 0.3342, 0.3341, 0.3341,0.3341, 0.3341, 0.3341, 0.3341,0.3341,0.0
SingleSource/Benchmarks/Dhrystone/dry, 0.2785, 0.2785, 0.2785,0.2785, 0.2785, 0.2785, 0.2785,0.2785,0.0
SingleSource/Benchmarks/BenchmarkGame/spectral-norm, 0.8932, 0.8932, 0.8932,0.8932, 0.8932, 0.8932, 0.8932,0.8932,0.0
SingleSource/Benchmarks/BenchmarkGame/n-body, 1.2558, 1.2557, 1.2557,1.2557, 1.2556, 1.2557, 1.2557,1.2557,0.0
SingleSource/Benchmarks/Adobe-C++/simple_types_constant_folding, 0.6077, 0.6077, 0.6076,0.6077, 0.6077, 0.6076, 0.6077,0.6077,0.0
MultiSource/Benchmarks/mediabench/mpeg2/mpeg2dec/mpeg2decode, 0.0136, 0.0137, 0.0136,0.0136, 0.0137, 0.0136, 0.0136,0.0136,0.0
MultiSource/Benchmarks/mediabench/gsm/toast/toast, 0.0139, 0.0140, 0.0139,0.0139, 0.0139, 0.0139, 0.0139,0.0139,0.0
MultiSource/Benchmarks/mediabench/adpcm/rawdaudio/rawdaudio, 0.0034, 0.0034, 0.0034,0.0034, 0.0034, 0.0034, 0.0034,0.0034,0.0
MultiSource/Benchmarks/VersaBench/ecbdes/ecbdes, 1.5482, 1.5484, 1.5483,1.5483, 1.5483, 1.5484, 1.5483,1.5483,0.0
MultiSource/Benchmarks/Trimaran/enc-pc1/enc-pc1, 0.3146, 0.3146, 0.3145,0.3146, 0.3145, 0.3146, 0.3146,0.3146,0.0
MultiSource/Benchmarks/TSVC/LoopRerolling-dbl/LoopRerolling-dbl, 4.2278, 4.2280, 4.2282,4.228, 4.2280, 4.2283, 4.2279,4.228,0.0
MultiSource/Benchmarks/Ptrdist/yacr2/yacr2, 0.4863, 0.4864, 0.4867,0.4864, 0.4863, 0.4864, 0.4865,0.4864,0.0
MultiSource/Benchmarks/Ptrdist/anagram/anagram, 0.5504, 0.5504, 0.5505,0.5504, 0.5504, 0.5504, 0.5504,0.5504,0.0
MultiSource/Benchmarks/Prolangs-C/bison/mybison, 0.0036, 0.0037, 0.0037,0.0037, 0.0037, 0.0037, 0.0036,0.0037,0.0
MultiSource/Benchmarks/Prolangs-C/agrep/agrep, 0.0045, 0.0045, 0.0045,0.0045, 0.0045, 0.0045, 0.0045,0.0045,0.0
MultiSource/Benchmarks/Prolangs-C++/simul/simul, 0.0035, 0.0035, 0.0035,0.0035, 0.0035, 0.0035, 0.0035,0.0035,0.0
MultiSource/Benchmarks/Prolangs-C++/city/city, 0.0046, 0.0046, 0.0046,0.0046, 0.0046, 0.0046, 0.0046,0.0046,0.0
MultiSource/Benchmarks/Olden/treeadd/treeadd, 0.1166, 0.1168, 0.1164,0.1166, 0.1166, 0.1165, 0.1167,0.1166,0.0
MultiSource/Benchmarks/MiBench/telecomm-FFT/telecomm-fft, 0.0352, 0.0353, 0.0353,0.0353, 0.0353, 0.0353, 0.0353,0.0353,0.0
MultiSource/Benchmarks/MiBench/consumer-jpeg/consumer-jpeg, 0.0045, 0.0045, 0.0046,0.0045, 0.0046, 0.0045, 0.0045,0.0045,0.0
MultiSource/Benchmarks/MiBench/automotive-bitcount/automotive-bitcount, 0.0500, 0.0510, 0.0500,0.05, 0.0500, 0.0511, 0.0500,0.05,0.0
MultiSource/Benchmarks/McCat/05-eks/eks, 0.0031, 0.0031, 0.0031,0.0031, 0.0031, 0.0031, 0.0031,0.0031,0.0
MultiSource/Benchmarks/McCat/04-bisect/bisect, 0.0703, 0.0703, 0.0703,0.0703, 0.0703, 0.0703, 0.0703,0.0703,0.0
MultiSource/Benchmarks/McCat/03-testtrie/testtrie, 0.0074, 0.0075, 0.0074,0.0074, 0.0074, 0.0074, 0.0075,0.0074,0.0
MultiSource/Benchmarks/McCat/01-qbsort/qbsort, 0.0370, 0.0370, 0.0371,0.037, 0.0370, 0.0370, 0.0371,0.037,0.0
MultiSource/Benchmarks/MallocBench/gs/gs, 0.0273, 0.0273, 0.0275,0.0273, 0.0274, 0.0273, 0.0272,0.0273,0.0
MultiSource/Benchmarks/FreeBench/pcompress2/pcompress2, 0.0947, 0.0947, 0.0946,0.0947, 0.0947, 0.0947, 0.0946,0.0947,0.0
MultiSource/Benchmarks/FreeBench/neural/neural, 0.1073, 0.1073, 0.1073,0.1073, 0.1073, 0.1073, 0.1073,0.1073,0.0
MultiSource/Benchmarks/FreeBench/mason/mason, 0.1209, 0.1209, 0.1209,0.1209, 0.1209, 0.1210, 0.1209,0.1209,0.0
MultiSource/Benchmarks/FreeBench/distray/distray, 0.1248, 0.1249, 0.1248,0.1248, 0.1248, 0.1249, 0.1248,0.1248,0.0
MultiSource/Benchmarks/BitBench/uudecode/uudecode, 0.0564, 0.0564, 0.0564,0.0564, 0.0564, 0.0564, 0.0565,0.0564,0.0
MultiSource/Benchmarks/BitBench/drop3/drop3, 0.1460, 0.1459, 0.1459,0.1459, 0.1459, 0.1459, 0.1460,0.1459,0.0
MultiSource/Applications/sgefa/sgefa, 0.1396, 0.1396, 0.1396,0.1396, 0.1396, 0.1396, 0.1397,0.1396,0.0
MultiSource/Applications/kimwitu++/kc, 0.0279, 0.0279, 0.0280,0.0279, 0.0279, 0.0279, 0.0278,0.0279,0.0
MultiSource/Applications/hbd/hbd, 0.0034, 0.0034, 0.0034,0.0034, 0.0034, 0.0034, 0.0034,0.0034,0.0
MultiSource/Applications/JM/ldecod/ldecod, 0.0380, 0.0378, 0.0379,0.0379, 0.0379, 0.0379, 0.0380,0.0379,0.0
MultiSource/Applications/ALAC/encode/alacconvert-encode, 0.0262, 0.0262, 0.0262,0.0262, 0.0262, 0.0262, 0.0262,0.0262,0.0
MultiSource/Applications/ALAC/decode/alacconvert-decode, 0.0137, 0.0137, 0.0137,0.0137, 0.0137, 0.0137, 0.0137,0.0137,0.0
SingleSource/Benchmarks/Misc-C++/stepanov_v1p2, 7.2276, 7.2271, 7.2273,7.2273, 7.2272, 7.2272, 7.2272,7.2272,-0.0013836425774460537
MultiSource/Benchmarks/ASC_Sequoia/CrystalMk/CrystalMk, 6.6506, 6.6510, 6.6508,6.6508, 6.6507, 6.6511, 6.6506,6.6507,-0.001503578516881543
MultiSource/Benchmarks/TSVC/Reductions-flt/Reductions-flt, 5.4269, 5.4272, 5.4271,5.4271, 5.4270, 5.4272, 5.4270,5.427,-0.0018426047060260409
SingleSource/Benchmarks/Misc/flops-3, 4.9500, 4.8629, 4.9498,4.9498, 4.9498, 4.9497, 4.9497,4.9497,-0.0020202836478189212
SingleSource/Benchmarks/Misc/salsa20, 4.2231, 4.2227, 4.2230,4.223, 4.2229, 4.2229, 4.2228,4.2229,-0.0023679848448865393
SingleSource/Benchmarks/Misc/flops-5, 3.9099, 3.9087, 3.9097,3.9097, 3.9531, 3.9096, 3.9096,3.9096,-0.0025577410031396575
SingleSource/Benchmarks/SmallPT/smallpt, 6.9124, 6.9122, 6.9202,6.9124, 6.9125, 6.9122, 6.9017,6.9122,-0.002893351079213957
SingleSource/Benchmarks/Shootout-C++/methcall, 3.1544, 3.1543, 3.1544,3.1544, 3.1544, 3.1543, 3.1543,3.1543,-0.003170174993649688
MultiSource/Benchmarks/Trimaran/netbench-url/netbench-url, 2.7274, 2.7277, 2.7274,2.7274, 2.7272, 2.7276, 2.7273,2.7273,-0.00366649556353682
SingleSource/Benchmarks/Misc/flops-4, 2.1280, 2.1279, 2.1280,2.128, 2.2148, 2.1279, 2.0845,2.1279,-0.004699248120310084
SingleSource/Benchmarks/Misc/perlin, 3.5490, 3.5479, 3.5485,3.5485, 3.5485, 3.5483, 3.5482,3.5483,-0.005636184303237091
SingleSource/Benchmarks/Misc-C++/Large/sphereflake, 5.1274, 5.1287, 5.1271,5.1274, 5.1270, 5.1272, 5.1271,5.1271,-0.005850918594207943
MultiSource/Benchmarks/Olden/bh/bh, 1.1810, 1.1814, 1.1812,1.1812, 1.1813, 1.1810, 1.1811,1.1811,-0.008465966813409054
MultiSource/Benchmarks/Olden/power/power, 0.9633, 0.9633, 0.9632,0.9633, 0.9633, 0.9632, 0.9631,0.9632,-0.010380982040913977
MultiSource/Benchmarks/TSVC/NodeSplitting-dbl/NodeSplitting-dbl, 4.6038, 4.6037, 4.6041,4.6038, 4.6033, 4.6033, 4.6030,4.6033,-0.010860593422823417
SingleSource/Benchmarks/Misc/flops-2, 0.7887, 0.7887, 0.7887,0.7887, 0.7887, 0.7886, 0.7886,0.7886,-0.012679092177003692
SingleSource/Benchmarks/CoyoteBench/fftbench, 0.7357, 0.7344, 0.7375,0.7357, 0.7356, 0.7311, 0.7360,0.7356,-0.013592496941683407
MultiSource/Benchmarks/Fhourstones-3.1/fhourstones3.1, 0.7274, 0.7276, 0.7277,0.7276, 0.7275, 0.7277, 0.7274,0.7275,-0.013743815283118188
SingleSource/Benchmarks/Polybench/linear-algebra/kernels/trmm/trmm, 2.1309, 2.1210, 2.1203,2.121, 2.1207, 2.1336, 2.1203,2.1207,-0.014144271570026845
MultiSource/Benchmarks/VersaBench/beamformer/beamformer, 0.6860, 0.6861, 0.6861,0.6861, 0.6860, 0.6861, 0.6858,0.686,-0.014575134819994062
MultiSource/Benchmarks/TSVC/CrossingThresholds-dbl/CrossingThresholds-dbl, 1.9841, 1.9841, 1.9840,1.9841, 1.9843, 1.9838, 1.9837,1.9838,-0.015120205634799877
MultiSource/Benchmarks/TSVC/Packing-dbl/Packing-dbl, 2.1463, 2.1461, 2.1454,2.1461, 2.1459, 2.1432, 2.1457,2.1457,-0.018638460463160644
SingleSource/Benchmarks/BenchmarkGame/partialsums, 0.5200, 0.5200, 0.5199,0.52, 0.5199, 0.5199, 0.5199,0.5199,-0.019230769230771383
MultiSource/Applications/obsequi/Obsequi, 1.0441, 1.0387, 1.0396,1.0396, 1.0397, 1.0391, 1.0394,1.0394,-0.019238168526358734
MultiSource/Benchmarks/DOE-ProxyApps-C++/CLAMR/CLAMR, 1.0248, 1.0248, 1.0247,1.0248, 1.0246, 1.0247, 1.0245,1.0246,-0.01951600312255497
SingleSource/Benchmarks/Polybench/linear-algebra/solvers/durbin/durbin, 0.4007, 0.4003, 0.4007,0.4007, 0.3922, 0.4009, 0.4006,0.4006,-0.0249563264287489
SingleSource/Benchmarks/McGill/chomp, 1.2193, 1.2213, 1.2200,1.22, 1.2193, 1.2239, 1.2196,1.2196,-0.03278688524589457
MultiSource/Benchmarks/ASC_Sequoia/IRSmk/IRSmk, 2.7248, 2.7211, 2.7266,2.7248, 2.7241, 2.7238, 2.7211,2.7238,-0.036699941280093906
MultiSource/Benchmarks/TSVC/ControlLoops-dbl/ControlLoops-dbl, 2.3317, 2.3317, 2.3313,2.3317, 2.3308, 2.3305, 2.3330,2.3308,-0.03859844748467234
MultiSource/Benchmarks/PAQ8p/paq8p,39.0513,39.0127,39.0456,39.0456,39.0294,39.0743,39.0240,39.0294,-0.041489950212059146
MultiSource/Benchmarks/tramp3d-v4/tramp3d-v4, 0.2189, 0.2190, 0.2189,0.2189, 0.2189, 0.2188, 0.2187,0.2188,-0.04568296025583285
SingleSource/Benchmarks/BenchmarkGame/recursive, 0.6443, 0.6455, 0.6442,0.6443, 0.6440, 0.6440, 0.6440,0.644,-0.046562160484242554
MultiSource/Benchmarks/ASCI_Purple/SMG2000/smg2000, 1.2873, 1.2869, 1.2833,1.2869, 1.2866, 1.2843, 1.2863,1.2863,-0.046623669282763736
MultiSource/Benchmarks/MiBench/automotive-basicmath/automotive-basicmath, 0.2054, 0.2056, 0.2055,0.2055, 0.2054, 0.2055, 0.2054,0.2054,-0.048661800486615725
MultiSource/Benchmarks/TSVC/GlobalDataFlow-dbl/GlobalDataFlow-dbl, 2.6211, 2.6188, 2.6195,2.6195, 2.6172, 2.6182, 2.6182,2.6182,-0.04962779156327812
SingleSource/Benchmarks/Shootout-C++/lists, 2.6188, 2.6451, 2.6442,2.6442, 2.6382, 2.6453, 2.6428,2.6428,-0.05294607064519896
SingleSource/Benchmarks/Polybench/stencils/adi/adi, 2.6047, 2.6073, 2.6074,2.6073, 2.6071, 2.6058, 2.6055,2.6058,-0.057530778966752294
SingleSource/Benchmarks/Polybench/linear-algebra/kernels/cholesky/cholesky, 0.4149, 0.4148, 0.4149,0.4149, 0.4157, 0.4143, 0.4146,0.4146,-0.0723065798987621
MultiSource/Benchmarks/TSVC/LinearDependence-dbl/LinearDependence-dbl, 5.2332, 5.2305, 5.2345,5.2332, 5.2289, 5.2294, 5.2315,5.2294,-0.07261331498891188
MultiSource/Benchmarks/TSVC/ControlLoops-flt/ControlLoops-flt, 2.1591, 2.1554, 2.1489,2.1554, 2.1553, 2.1439, 2.1537,2.1537,-0.07887167115152582
SingleSource/Benchmarks/Misc-C++/mandel-text, 1.4709, 1.4716, 1.4696,1.4709, 1.4688, 1.4724, 1.4697,1.4697,-0.08158270446665394
MultiSource/Benchmarks/TSVC/Expansion-dbl/Expansion-dbl, 1.8339, 1.8359, 1.8362,1.8359, 1.8341, 1.8345, 1.8344,1.8344,-0.08170379650308535
MultiSource/Benchmarks/DOE-ProxyApps-C++/miniFE/miniFE, 2.4204, 2.4170, 2.4229,2.4204, 2.4153, 2.4203, 2.4180,2.418,-0.09915716410509035
MultiSource/Benchmarks/McCat/12-IOtest/iotest, 0.1981, 0.1984, 0.1981,0.1981, 0.1981, 0.1979, 0.1978,0.1979,-0.1009591115598174
MultiSource/Benchmarks/DOE-ProxyApps-C++/HPCCG/HPCCG, 0.8381, 0.8367, 0.8377,0.8377, 0.8368, 0.8407, 0.8365,0.8368,-0.10743702996299787
SingleSource/Benchmarks/McGill/misr, 0.0927, 0.0926, 0.0927,0.0927, 0.0926, 0.0927, 0.0926,0.0926,-0.10787486515642097
SingleSource/Benchmarks/Polybench/linear-algebra/solvers/gramschmidt/gramschmidt, 1.4197, 1.4141, 1.4876,1.4197, 1.4179, 1.4209, 1.4114,1.4179,-0.12678734944002734
MultiSource/Benchmarks/DOE-ProxyApps-C/SimpleMOC/SimpleMOC, 3.4747, 3.4619, 3.4662,3.4662, 3.4588, 3.4615, 3.4689,3.4615,-0.1355951762737284
SingleSource/Benchmarks/Misc-C++/stepanov_container, 2.6343, 2.6530, 2.6505,2.6505, 2.6504, 2.6453, 2.6468,2.6468,-0.13959630258443267
MultiSource/Applications/oggenc/oggenc, 0.0708, 0.0708, 0.0709,0.0708, 0.0708, 0.0707, 0.0707,0.0707,-0.14124293785311437
SingleSource/Benchmarks/CoyoteBench/lpbench, 2.3846, 2.3956, 2.3912,2.3912, 2.3876, 2.3877, 2.3946,2.3877,-0.14637002341919558
MultiSource/Benchmarks/TSVC/NodeSplitting-flt/NodeSplitting-flt, 4.2639, 4.2599, 4.2582,4.2599, 4.2536, 4.2536, 4.2524,4.2536,-0.14789079555859175
MultiSource/Benchmarks/MiBench/network-patricia/network-patricia, 0.0672, 0.0671, 0.0672,0.0672, 0.0671, 0.0671, 0.0671,0.0671,-0.14880952380951218
SingleSource/Benchmarks/Misc/evalloop, 0.3342, 0.3350, 0.3360,0.335, 0.3363, 0.3341, 0.3345,0.3345,-0.14925373134327957
MultiSource/Benchmarks/Prolangs-C++/primes/primes, 0.1952, 0.1952, 0.1950,0.1952, 0.1949, 0.1964, 0.1946,0.1949,-0.15368852459017868
SingleSource/Benchmarks/Misc/flops, 9.7565, 9.6900, 9.7365,9.7365, 9.7215, 9.7212, 9.6872,9.7212,-0.15714065629333085
MultiSource/Benchmarks/TSVC/GlobalDataFlow-flt/GlobalDataFlow-flt, 1.3817, 1.3788, 1.3726,1.3788, 1.3766, 1.3736, 1.3797,1.3766,-0.15955903684362616
SingleSource/Benchmarks/BenchmarkGame/puzzle, 0.1185, 0.1182, 0.1187,0.1185, 0.1184, 0.1181, 0.1183,0.1183,-0.16877637130801038
MultiSource/Benchmarks/TSVC/LoopRestructuring-dbl/LoopRestructuring-dbl, 3.3864, 3.3792, 3.3711,3.3792, 3.3788, 3.3731, 3.3734,3.3734,-0.1716382575757569
SingleSource/Benchmarks/Polybench/datamining/covariance/covariance, 1.4082, 1.4187, 1.4084,1.4084, 1.4058, 1.4057, 1.4172,1.4058,-0.18460664583925812
SingleSource/Benchmarks/Shootout-C++/moments, 0.0503, 0.0503, 0.0503,0.0503, 0.0502, 0.0502, 0.0502,0.0502,-0.1988071570576455
MultiSource/Benchmarks/TSVC/Expansion-flt/Expansion-flt, 1.0894, 1.0895, 1.0889,1.0894, 1.0872, 1.0835, 1.0924,1.0872,-0.20194602533504247
MultiSource/Benchmarks/DOE-ProxyApps-C/XSBench/XSBench, 2.2221, 2.2201, 2.2209,2.2209, 2.2164, 2.2127, 2.2188,2.2164,-0.2026205592327357
MultiSource/Benchmarks/VersaBench/8b10b/8b10b, 3.2949, 3.2974, 3.3021,3.2974, 3.2891, 3.2976, 3.2878,3.2891,-0.25171347121974996
MultiSource/Benchmarks/McCat/08-main/main, 0.0390, 0.0391, 0.0391,0.0391, 0.0390, 0.0390, 0.0392,0.039,-0.2557544757033292
SingleSource/Benchmarks/Adobe-C++/loop_unroll, 1.6274, 1.6225, 1.6273,1.6273, 1.6271, 1.6220, 1.6231,1.6231,-0.25809623302402995
MultiSource/Benchmarks/ASC_Sequoia/AMGmk/AMGmk, 4.5941, 4.5805, 4.5843,4.5843, 4.5722, 4.5716, 4.5791,4.5722,-0.26394433174095067
MultiSource/Benchmarks/TSVC/LoopRerolling-flt/LoopRerolling-flt, 3.5072, 3.5114, 3.5026,3.5072, 3.4956, 3.4976, 3.5037,3.4976,-0.27372262773723843
MultiSource/Benchmarks/VersaBench/dbms/dbms, 0.7974, 0.7981, 0.7991,0.7981, 0.7964, 0.7942, 0.7959,0.7959,-0.2756546798646786
SingleSource/Benchmarks/Polybench/stencils/fdtd-2d/fdtd-2d, 0.5116, 0.5092, 0.5110,0.511, 0.5124, 0.5095, 0.5093,0.5095,-0.29354207436400603
MultiSource/Benchmarks/MiBench/telecomm-gsm/telecomm-gsm, 0.0930, 0.0930, 0.0930,0.093, 0.0926, 0.0927, 0.0928,0.0927,-0.3225806451612856
MultiSource/Benchmarks/FreeBench/pifft/pifft, 0.0615, 0.0615, 0.0615,0.0615, 0.0614, 0.0613, 0.0612,0.0613,-0.3252032520325132
MultiSource/Benchmarks/mediabench/g721/g721encode/encode, 0.0291, 0.0291, 0.0291,0.0291, 0.0290, 0.0290, 0.0290,0.029,-0.3436426116838476
MultiSource/Benchmarks/MiBench/automotive-susan/automotive-susan, 0.0278, 0.0278, 0.0277,0.0278, 0.0277, 0.0278, 0.0277,0.0277,-0.3597122302158251
SingleSource/Benchmarks/CoyoteBench/huffbench, 8.2877, 8.2762, 8.2787,8.2787, 8.2471, 8.2466, 8.2536,8.2471,-0.38170244120454555
MultiSource/Benchmarks/Prolangs-C/gnugo/gnugo, 0.0250, 0.0250, 0.0250,0.025, 0.0250, 0.0249, 0.0249,0.0249,-0.40000000000001146
MultiSource/Benchmarks/MiBench/network-dijkstra/network-dijkstra, 0.0244, 0.0243, 0.0244,0.0244, 0.0243, 0.0243, 0.0243,0.0243,-0.4098360655737876
MultiSource/Benchmarks/Olden/health/health, 0.1405, 0.1418, 0.1399,0.1405, 0.1399, 0.1399, 0.1400,0.1399,-0.4270462633452099
SingleSource/Benchmarks/Linpack/linpack-pc, 1.1514, 1.1422, 1.1358,1.1422, 1.1412, 1.1348, 1.1370,1.137,-0.45526177552093205
SingleSource/Benchmarks/Shootout-C++/ary2, 0.0218, 0.0218, 0.0217,0.0218, 0.0218, 0.0217, 0.0217,0.0217,-0.4587155963302725
MultiSource/Benchmarks/BitBench/five11/five11, 1.0332, 1.0290, 1.0303,1.0303, 1.0283, 1.0252, 1.0249,1.0252,-0.49500145588664557
SingleSource/Benchmarks/Polybench/datamining/correlation/correlation, 1.4190, 1.4273, 1.4260,1.426, 1.4184, 1.4289, 1.4156,1.4184,-0.5329593267882071
SingleSource/Benchmarks/Adobe-C++/stepanov_abstraction, 3.9006, 3.8999, 3.9003,3.9003, 3.8765, 3.8776, 3.8768,3.8768,-0.602517755044496
MultiSource/Benchmarks/MiBench/consumer-typeset/consumer-typeset, 0.0798, 0.0802, 0.0803,0.0802, 0.0795, 0.0797, 0.0796,0.0796,-0.7481296758104605
MultiSource/Benchmarks/FreeBench/analyzer/analyzer, 0.0390, 0.0388, 0.0390,0.039, 0.0392, 0.0383, 0.0387,0.0387,-0.7692307692307776
MultiSource/Benchmarks/McCat/17-bintr/bintr, 0.0774, 0.0775, 0.0758,0.0774, 0.0769, 0.0768, 0.0760,0.0768,-0.7751937984496138
MultiSource/Benchmarks/DOE-ProxyApps-C/miniGMG/miniGMG, 5.0119, 5.0127, 5.0125,5.0125, 4.9729, 4.9740, 4.9706,4.9729,-0.7900249376558643
MultiSource/Benchmarks/BitBench/uuencode/uuencode, 0.0114, 0.0114, 0.0113,0.0114, 0.0113, 0.0113, 0.0114,0.0113,-0.8771929824561542
MultiSource/Benchmarks/TSVC/Packing-flt/Packing-flt, 1.9446, 1.9468, 1.9210,1.9446, 1.9223, 1.9268, 1.9269,1.9268,-0.9153553430011341
SingleSource/Benchmarks/Polybench/linear-algebra/kernels/symm/symm,14.9269,14.7216,15.0123,14.9269,14.9025,14.7414,14.7760,14.776,-1.0109265822106361
MultiSource/Benchmarks/nbench/nbench, 1.1632, 1.1637, 1.1638,1.1637, 1.1524, 1.1518, 1.1519,1.1519,-1.0140070464896511
SingleSource/Benchmarks/Polybench/linear-algebra/kernels/doitgen/doitgen, 0.7147, 0.7228, 0.7373,0.7228, 0.7149, 0.7148, 0.7143,0.7148,-1.1068068622025473
MultiSource/Applications/d/make_dparser, 0.0163, 0.0162, 0.0163,0.0163, 0.0161, 0.0160, 0.0161,0.0161,-1.2269938650306678
MultiSource/Benchmarks/Olden/mst/mst, 0.0488, 0.0489, 0.0488,0.0488, 0.0481, 0.0481, 0.0483,0.0481,-1.4344262295082122
MultiSource/Benchmarks/Prolangs-C++/life/life, 0.6712, 0.6606, 0.6675,0.6675, 0.6572, 0.6647, 0.6574,0.6574,-1.5131086142322059
SingleSource/Benchmarks/Adobe-C++/stepanov_vector, 2.1104, 2.1099, 2.1095,2.1099, 2.0672, 2.0677, 2.0672,2.0672,-2.0237925968055293
SingleSource/Benchmarks/Shootout/ary3, 0.7010, 0.7233, 0.7035,0.7035, 0.6816, 0.7129, 0.6845,0.6845,-2.7007818052594224
SingleSource/Benchmarks/Shootout-C++/ary3, 0.6722, 0.6841, 0.6906,0.6841, 0.6651, 0.6780, 0.6394,0.6651,-2.777371729279343
SingleSource/Benchmarks/Misc/ReedSolomon, 2.8626, 2.8620, 2.8621,2.8621, 2.7559, 2.7560, 2.7560,2.756,-3.70706823660949
SingleSource/Benchmarks/Stanford/Oscar, 0.0029, 0.0029, 0.0029,0.0029, 0.0022, 0.0022, 0.0022,0.0022,-24.13793103448275
Total elapsed time,-,-,-,539.7328000000002,-,-,-,540.4021000000005,0.12400580435361075
Total failure,-,-,-,0,-,-,-,0,
Geom. avg slowdown,,,,,,,,,-0.0210070265858%
