,insts-5.0,,nocapture-5.0,
,Max. slowdown(%),Avg. slowdown(%),Max. slowdown(%),Avg. slowdown(%)
Machine2,9.4432,-0.014,9.5383,-0.033
Machine3,9.7909,-0.021,9.8224,-0.053
Machine4,9.7560,-0.086,9.7982,-0.103
