Benchmarks,/mnt/freezedisk/llvm-intptr-insts-5.0-release/bin/clang,/mnt/freezedisk/llvm-intptr-insts-5.0-release/bin/clang,/mnt/freezedisk/llvm-intptr-insts-5.0-release/bin/clang,median,/mnt/freezedisk/llvm-intptr-insts-opt-5.0-release/bin/clang,/mnt/freezedisk/llvm-intptr-insts-opt-5.0-release/bin/clang,/mnt/freezedisk/llvm-intptr-insts-opt-5.0-release/bin/clang,median,/mnt/freezedisk/llvm-intptr-nocapture-5.0-release/bin/clang,/mnt/freezedisk/llvm-intptr-nocapture-5.0-release/bin/clang,/mnt/freezedisk/llvm-intptr-nocapture-5.0-release/bin/clang,median
MultiSource/Applications/ALAC/decode/alacconvert-decode, 0.9284, 0.9479, 0.9427,0.9427, 0.9364, 0.9463, 0.9449,0.9449, 0.9347, 0.9383, 0.9371,0.9371
MultiSource/Applications/ALAC/encode/alacconvert-encode, 0.9254, 0.9251, 0.9250,0.9251, 0.9255, 0.9258, 0.9252,0.9255, 0.9232, 0.9243, 0.9239,0.9239
MultiSource/Applications/ClamAV/clamscan,14.2545,14.2077,14.2019,14.2077,14.2835,14.2604,14.2955,14.2835,14.2395,14.2562,14.2489,14.2489
MultiSource/Applications/JM/ldecod/ldecod, 6.2391, 6.2364, 6.2335,6.2364, 6.2608, 6.2692, 6.2578,6.2608, 6.2096, 6.2069, 6.2151,6.2096
MultiSource/Applications/JM/lencod/lencod,14.6528,14.6329,14.6189,14.6329,14.7543,14.7603,14.7470,14.7543,14.5992,14.6030,14.6095,14.603
MultiSource/Applications/SIBsim4/SIBsim4, 1.1330, 1.1323, 1.1330,1.133, 1.1359, 1.1356, 1.1347,1.1356, 1.1320, 1.1333, 1.1338,1.1333
MultiSource/Applications/SPASS/SPASS,12.0263,12.0126,12.0183,12.0183,12.0484,12.0580,12.0444,12.0484,11.9950,11.9957,11.9901,11.995
MultiSource/Applications/aha/aha, 0.1027, 0.1000, 0.0976,0.1, 0.0982, 0.1006, 0.0988,0.0988, 0.1021, 0.0978, 0.1032,0.1021
MultiSource/Applications/d/make_dparser, 2.5838, 2.5892, 2.5895,2.5892, 2.5954, 2.5936, 2.5869,2.5936, 2.5720, 2.5813, 2.5839,2.5813
MultiSource/Applications/hbd/hbd, 1.1666, 1.1664, 1.1595,1.1664, 1.1576, 1.1568, 1.1583,1.1576, 1.1657, 1.1581, 1.1646,1.1646
MultiSource/Applications/hexxagon/hexxagon, 0.6562, 0.6561, 0.6569,0.6562, 0.6522, 0.6540, 0.6539,0.6539, 0.6517, 0.6529, 0.6527,0.6527
MultiSource/Applications/kimwitu++/kc,10.9991,10.9886,11.0021,10.9991,10.9865,11.0265,10.9711,10.9865,10.9405,10.9880,10.9730,10.973
MultiSource/Applications/lambda-0.1.3/lambda, 0.5581, 0.5449, 0.5448,0.5449, 0.5436, 0.5452, 0.5865,0.5452, 0.5765, 0.5845, 0.5814,0.5814
MultiSource/Applications/lua/lua, 3.1810, 3.1809, 3.1849,3.181, 3.1924, 3.1887, 3.1952,3.1924, 3.1686, 3.1699, 3.1717,3.1699
MultiSource/Applications/minisat/minisat, 0.6065, 0.6082, 0.5992,0.6065, 0.6065, 0.6058, 0.6188,0.6065, 0.6080, 0.6084, 0.5980,0.608
MultiSource/Applications/obsequi/Obsequi, 0.9513, 0.9506, 0.9645,0.9513, 0.9648, 0.9509, 0.9626,0.9626, 0.9479, 0.9485, 0.9628,0.9485
MultiSource/Applications/oggenc/oggenc, 4.7955, 4.8030, 4.7979,4.7979, 4.8122, 4.8112, 4.8183,4.8122, 4.7888, 4.7956, 4.7898,4.7898
MultiSource/Applications/sgefa/sgefa, 0.3830, 0.3831, 0.3836,0.3831, 0.3844, 0.3847, 0.3843,0.3844, 0.3826, 0.3827, 0.3830,0.3827
MultiSource/Applications/siod/siod, 1.9362, 1.9344, 1.9350,1.935, 1.9294, 1.9341, 1.9343,1.9341, 1.9275, 1.9330, 1.9336,1.933
MultiSource/Applications/spiff/spiff, 0.7352, 0.7321, 0.7341,0.7341, 0.7323, 0.7331, 0.7333,0.7331, 0.7319, 0.7380, 0.7349,0.7349
MultiSource/Applications/sqlite3/sqlite3,14.7500,14.7651,14.7285,14.75,14.7440,14.7547,14.7588,14.7547,14.6419,14.6707,14.5672,14.6419
MultiSource/Applications/viterbi/viterbi, 0.1631, 0.1629, 0.1635,0.1631, 0.1626, 0.1627, 0.1623,0.1626, 0.1629, 0.1626, 0.1628,0.1628
MultiSource/Benchmarks/7zip/7zip-benchmark,33.6739,33.6211,33.6554,33.6554,33.6747,33.6972,33.6781,33.6781,33.4657,33.4691,33.4694,33.4691
MultiSource/Benchmarks/ASCI_Purple/SMG2000/smg2000, 5.6059, 5.5869, 5.5973,5.5973, 5.6023, 5.6000, 5.6052,5.6023, 5.5900, 5.5702, 5.5747,5.5747
MultiSource/Benchmarks/ASC_Sequoia/AMGmk/AMGmk, 0.5820, 0.5752, 0.5816,0.5816, 0.5844, 0.5785, 0.5788,0.5788, 0.5847, 0.5775, 0.5781,0.5781
MultiSource/Benchmarks/ASC_Sequoia/CrystalMk/CrystalMk, 0.2148, 0.2235, 0.2152,0.2152, 0.2145, 0.2145, 0.2142,0.2145, 0.2139, 0.2137, 0.2139,0.2139
MultiSource/Benchmarks/ASC_Sequoia/IRSmk/IRSmk, 0.0992, 0.0990, 0.0992,0.0992, 0.0991, 0.0993, 0.0992,0.0992, 0.0988, 0.0989, 0.0985,0.0988
MultiSource/Benchmarks/BitBench/drop3/drop3, 0.0419, 0.0420, 0.0419,0.0419, 0.0417, 0.0417, 0.0416,0.0417, 0.0418, 0.0418, 0.0418,0.0418
MultiSource/Benchmarks/BitBench/five11/five11, 0.0526, 0.0528, 0.0526,0.0526, 0.0524, 0.0525, 0.0524,0.0524, 0.0526, 0.0527, 0.0526,0.0526
MultiSource/Benchmarks/BitBench/uudecode/uudecode, 0.0426, 0.0425, 0.0426,0.0426, 0.0423, 0.0423, 0.0423,0.0423, 0.0425, 0.0424, 0.0424,0.0424
MultiSource/Benchmarks/BitBench/uuencode/uuencode, 0.0418, 0.0417, 0.0419,0.0418, 0.0418, 0.0417, 0.0417,0.0417, 0.0419, 0.0418, 0.0418,0.0418
MultiSource/Benchmarks/Bullet/bullet,22.8624,22.7723,22.7835,22.7835,22.8141,22.8345,22.8184,22.8184,22.7094,22.7311,22.7318,22.7311
MultiSource/Benchmarks/DOE-ProxyApps-C++/CLAMR/CLAMR,17.7858,17.7842,17.7658,17.7842,17.6824,17.7076,17.6871,17.6871,17.7383,17.7495,17.7366,17.7383
MultiSource/Benchmarks/DOE-ProxyApps-C++/HPCCG/HPCCG, 1.4119, 1.4120, 1.4134,1.412, 1.3830, 1.3859, 1.3841,1.3841, 1.4030, 1.4046, 1.4037,1.4037
MultiSource/Benchmarks/DOE-ProxyApps-C++/PENNANT/PENNANT, 4.0539, 4.0505, 4.0534,4.0534, 4.0231, 4.0273, 4.0240,4.024, 4.0298, 4.0309, 4.0309,4.0309
MultiSource/Benchmarks/DOE-ProxyApps-C++/miniFE/miniFE, 2.6681, 2.6712, 2.6688,2.6688, 2.5431, 2.5429, 2.5443,2.5431, 2.6567, 2.6542, 2.6573,2.6567
MultiSource/Benchmarks/DOE-ProxyApps-C/Pathfinder/PathFinder, 0.8009, 0.7966, 0.7977,0.7977, 0.8012, 0.7960, 0.7945,0.796, 0.7993, 0.7965, 0.7980,0.798
MultiSource/Benchmarks/DOE-ProxyApps-C/RSBench/rsbench, 0.4036, 0.3970, 0.4007,0.4007, 0.4023, 0.4032, 0.3945,0.4023, 0.4020, 0.3969, 0.3948,0.3969
MultiSource/Benchmarks/DOE-ProxyApps-C/SimpleMOC/SimpleMOC, 0.8511, 0.8505, 0.8524,0.8511, 0.8511, 0.8516, 0.8509,0.8511, 0.8482, 0.8482, 0.8479,0.8482
MultiSource/Benchmarks/DOE-ProxyApps-C/XSBench/XSBench, 0.3451, 0.3450, 0.3458,0.3451, 0.3443, 0.3445, 0.3444,0.3444, 0.3444, 0.3443, 0.3442,0.3443
MultiSource/Benchmarks/DOE-ProxyApps-C/miniAMR/miniAMR, 1.3183, 1.3185, 1.3200,1.3185, 1.3315, 1.3324, 1.3314,1.3315, 1.3178, 1.3177, 1.3179,1.3178
MultiSource/Benchmarks/DOE-ProxyApps-C/miniGMG/miniGMG, 0.9648, 0.9639, 0.9646,0.9646, 0.9682, 0.9695, 0.9678,0.9682, 0.9563, 0.9570, 0.9560,0.9563
MultiSource/Benchmarks/Fhourstones-3.1/fhourstones3.1, 0.1153, 0.1151, 0.1152,0.1152, 0.1151, 0.1152, 0.1150,0.1151, 0.1149, 0.1147, 0.1151,0.1149
MultiSource/Benchmarks/Fhourstones/fhourstones, 0.1559, 0.1556, 0.1558,0.1558, 0.1560, 0.1562, 0.1561,0.1561, 0.1559, 0.1597, 0.1556,0.1559
MultiSource/Benchmarks/FreeBench/analyzer/analyzer, 0.2330, 0.2329, 0.2334,0.233, 0.2324, 0.2329, 0.2324,0.2324, 0.2324, 0.2325, 0.2357,0.2325
MultiSource/Benchmarks/FreeBench/distray/distray, 0.0919, 0.0919, 0.0920,0.0919, 0.0922, 0.0922, 0.0922,0.0922, 0.0918, 0.0920, 0.0918,0.0918
MultiSource/Benchmarks/FreeBench/fourinarow/fourinarow, 0.3329, 0.3327, 0.3334,0.3329, 0.3340, 0.3346, 0.3339,0.334, 0.3338, 0.3338, 0.3346,0.3338
MultiSource/Benchmarks/FreeBench/mason/mason, 0.0487, 0.0487, 0.0489,0.0487, 0.0487, 0.0487, 0.0487,0.0487, 0.0485, 0.0486, 0.0486,0.0486
MultiSource/Benchmarks/FreeBench/neural/neural, 0.1746, 0.1747, 0.1744,0.1746, 0.1748, 0.1750, 0.1750,0.175, 0.1744, 0.1744, 0.1740,0.1744
MultiSource/Benchmarks/FreeBench/pcompress2/pcompress2, 0.2498, 0.2456, 0.2473,0.2473, 0.2421, 0.2457, 0.2464,0.2457, 0.2482, 0.2431, 0.2431,0.2431
MultiSource/Benchmarks/FreeBench/pifft/pifft, 0.9137, 0.9144, 0.9139,0.9139, 0.9193, 0.9229, 0.9190,0.9193, 0.9137, 0.9143, 0.9156,0.9143
MultiSource/Benchmarks/MallocBench/cfrac/cfrac, 0.8428, 0.8441, 0.8478,0.8441, 0.8360, 0.8366, 0.8443,0.8366, 0.8442, 0.8433, 0.8385,0.8433
MultiSource/Benchmarks/MallocBench/espresso/espresso, 4.5433, 4.5146, 4.5273,4.5273, 4.5318, 4.5300, 4.5180,4.53, 4.5117, 4.5120, 4.5151,4.512
MultiSource/Benchmarks/MallocBench/gs/gs, 3.6782, 3.6426, 3.6566,3.6566, 3.6587, 3.6509, 3.6533,3.6533, 3.6513, 3.6471, 3.6456,3.6471
MultiSource/Benchmarks/McCat/01-qbsort/qbsort, 0.0980, 0.0989, 0.1043,0.0989, 0.1034, 0.1037, 0.1014,0.1034, 0.0978, 0.1002, 0.0975,0.0978
MultiSource/Benchmarks/McCat/03-testtrie/testtrie, 0.1008, 0.0873, 0.0876,0.0876, 0.0871, 0.0871, 0.0872,0.0871, 0.0870, 0.0871, 0.0870,0.087
MultiSource/Benchmarks/McCat/04-bisect/bisect, 0.1251, 0.1250, 0.1255,0.1251, 0.1249, 0.1248, 0.1251,0.1249, 0.1251, 0.1250, 0.1252,0.1251
MultiSource/Benchmarks/McCat/05-eks/eks, 0.5093, 0.5090, 0.5094,0.5093, 0.5115, 0.5112, 0.5112,0.5112, 0.5082, 0.5076, 0.5081,0.5081
MultiSource/Benchmarks/McCat/08-main/main, 0.2308, 0.2301, 0.2308,0.2308, 0.2305, 0.2306, 0.2307,0.2306, 0.2324, 0.2325, 0.2322,0.2324
MultiSource/Benchmarks/McCat/09-vor/vor, 0.2621, 0.2617, 0.2623,0.2621, 0.2622, 0.2621, 0.2620,0.2621, 0.2609, 0.2608, 0.2606,0.2608
MultiSource/Benchmarks/McCat/12-IOtest/iotest, 0.0893, 0.0893, 0.0897,0.0893, 0.0890, 0.0890, 0.0888,0.089, 0.0890, 0.0890, 0.0888,0.089
MultiSource/Benchmarks/McCat/17-bintr/bintr, 0.0673, 0.0672, 0.0677,0.0673, 0.0670, 0.0672, 0.0672,0.0672, 0.0672, 0.0671, 0.0671,0.0671
MultiSource/Benchmarks/McCat/18-imp/imp, 0.3310, 0.3222, 0.3230,0.323, 0.3233, 0.3238, 0.3233,0.3233, 0.3226, 0.3221, 0.3227,0.3226
MultiSource/Benchmarks/MiBench/automotive-basicmath/automotive-basicmath, 0.1398, 0.1396, 0.1398,0.1398, 0.1397, 0.1394, 0.1394,0.1394, 0.1398, 0.1397, 0.1396,0.1397
MultiSource/Benchmarks/MiBench/automotive-bitcount/automotive-bitcount, 0.2464, 0.2459, 0.2469,0.2464, 0.2447, 0.2448, 0.2448,0.2448, 0.2456, 0.2455, 0.2454,0.2455
MultiSource/Benchmarks/MiBench/automotive-susan/automotive-susan, 0.6369, 0.6438, 0.6261,0.6369, 0.6394, 0.6470, 0.6439,0.6439, 0.6281, 0.6323, 0.6308,0.6308
MultiSource/Benchmarks/MiBench/consumer-jpeg/consumer-jpeg, 4.3471, 4.3418, 4.3479,4.3471, 4.3509, 4.3529, 4.3492,4.3509, 4.3382, 4.3449, 4.3413,4.3413
MultiSource/Benchmarks/MiBench/consumer-lame/consumer-lame, 3.9015, 3.9020, 3.9035,3.902, 3.9214, 3.9258, 3.9204,3.9214, 3.8985, 3.8961, 3.8989,3.8985
MultiSource/Benchmarks/MiBench/consumer-typeset/consumer-typeset, 9.6868, 9.6739, 9.6651,9.6739, 9.6773, 9.6879, 9.6877,9.6877, 9.6532, 9.6524, 9.6445,9.6524
MultiSource/Benchmarks/MiBench/network-dijkstra/network-dijkstra, 0.0407, 0.0407, 0.0408,0.0407, 0.0407, 0.0408, 0.0408,0.0408, 0.0408, 0.0408, 0.0406,0.0408
MultiSource/Benchmarks/MiBench/network-patricia/network-patricia, 0.0844, 0.0816, 0.0818,0.0818, 0.0886, 0.0843, 0.0858,0.0858, 0.0891, 0.0839, 0.0820,0.0839
MultiSource/Benchmarks/MiBench/security-rijndael/security-rijndael, 0.3908, 0.3901, 0.3906,0.3906, 0.3899, 0.3905, 0.3903,0.3903, 0.3879, 0.3878, 0.3877,0.3878
MultiSource/Benchmarks/MiBench/security-sha/security-sha, 0.1152, 0.1150, 0.1150,0.115, 0.1149, 0.1151, 0.1148,0.1149, 0.1145, 0.1144, 0.1146,0.1145
MultiSource/Benchmarks/MiBench/telecomm-CRC32/telecomm-CRC32, 0.0341, 0.0340, 0.0341,0.0341, 0.0338, 0.0339, 0.0338,0.0338, 0.0339, 0.0339, 0.0340,0.0339
MultiSource/Benchmarks/MiBench/telecomm-FFT/telecomm-fft, 0.1364, 0.1364, 0.1364,0.1364, 0.1363, 0.1364, 0.1363,0.1363, 0.1364, 0.1363, 0.1362,0.1363
MultiSource/Benchmarks/MiBench/telecomm-adpcm/telecomm-adpcm, 0.0533, 0.0533, 0.0534,0.0533, 0.0530, 0.0531, 0.0530,0.053, 0.0532, 0.0533, 0.0531,0.0532
MultiSource/Benchmarks/MiBench/telecomm-gsm/telecomm-gsm, 1.0429, 1.0169, 1.0154,1.0169, 1.0087, 1.0131, 1.0147,1.0131, 1.0086, 1.0119, 1.0098,1.0098
MultiSource/Benchmarks/NPB-serial/is/is, 0.0634, 0.0634, 0.0634,0.0634, 0.0635, 0.0634, 0.0635,0.0635, 0.0632, 0.0633, 0.0633,0.0633
MultiSource/Benchmarks/Olden/bh/bh, 0.2519, 0.2522, 0.2520,0.252, 0.2517, 0.2523, 0.2520,0.252, 0.2507, 0.2504, 0.2501,0.2504
MultiSource/Benchmarks/Olden/bisort/bisort, 0.0612, 0.0613, 0.0615,0.0613, 0.0611, 0.0611, 0.0611,0.0611, 0.0609, 0.0611, 0.0611,0.0611
MultiSource/Benchmarks/Olden/em3d/em3d, 0.1700, 0.1699, 0.1701,0.17, 0.1694, 0.1693, 0.1691,0.1693, 0.1690, 0.1692, 0.1691,0.1691
MultiSource/Benchmarks/Olden/health/health, 0.1326, 0.1325, 0.1328,0.1326, 0.1323, 0.1322, 0.1320,0.1322, 0.1321, 0.1325, 0.1323,0.1323
MultiSource/Benchmarks/Olden/mst/mst, 0.1206, 0.1205, 0.1210,0.1206, 0.1206, 0.1204, 0.1202,0.1204, 0.1200, 0.1200, 0.1201,0.12
MultiSource/Benchmarks/Olden/perimeter/perimeter, 0.0743, 0.0743, 0.0747,0.0743, 0.0743, 0.0742, 0.0741,0.0742, 0.0741, 0.0742, 0.0742,0.0742
MultiSource/Benchmarks/Olden/power/power, 0.1239, 0.1240, 0.1242,0.124, 0.1239, 0.1240, 0.1240,0.124, 0.1239, 0.1239, 0.1238,0.1239
MultiSource/Benchmarks/Olden/treeadd/treeadd, 0.0524, 0.0522, 0.0525,0.0524, 0.0521, 0.0521, 0.0521,0.0521, 0.0521, 0.0523, 0.0523,0.0523
MultiSource/Benchmarks/Olden/tsp/tsp, 0.1223, 0.1224, 0.1228,0.1224, 0.1225, 0.1224, 0.1225,0.1225, 0.1222, 0.1222, 0.1223,0.1222
MultiSource/Benchmarks/Olden/voronoi/voronoi, 0.2221, 0.2120, 0.2120,0.212, 0.2152, 0.2152, 0.2155,0.2152, 0.2098, 0.2100, 0.2101,0.21
MultiSource/Benchmarks/PAQ8p/paq8p, 1.8743, 1.8728, 1.8743,1.8743, 1.8858, 1.8845, 1.8839,1.8845, 1.8811, 1.8924, 1.8973,1.8924
MultiSource/Benchmarks/Prolangs-C++/city/city, 0.8957, 0.8959, 0.8961,0.8959, 0.8895, 0.8912, 0.8915,0.8912, 0.8878, 0.8884, 0.8885,0.8884
MultiSource/Benchmarks/Prolangs-C++/employ/employ, 0.1990, 0.1987, 0.1978,0.1987, 0.1969, 0.1973, 0.1977,0.1973, 0.1968, 0.1967, 0.1971,0.1968
MultiSource/Benchmarks/Prolangs-C++/life/life, 0.0582, 0.0582, 0.0582,0.0582, 0.0585, 0.0585, 0.0585,0.0585, 0.0583, 0.0584, 0.0583,0.0583
MultiSource/Benchmarks/Prolangs-C++/ocean/ocean, 0.1070, 0.1069, 0.1072,0.107, 0.1068, 0.1069, 0.1068,0.1068, 0.1064, 0.1064, 0.1064,0.1064
MultiSource/Benchmarks/Prolangs-C++/primes/primes, 0.0239, 0.0239, 0.0240,0.0239, 0.0238, 0.0239, 0.0239,0.0239, 0.0238, 0.0239, 0.0239,0.0239
MultiSource/Benchmarks/Prolangs-C++/simul/simul, 0.0513, 0.0514, 0.0518,0.0514, 0.0513, 0.0513, 0.0512,0.0513, 0.0512, 0.0511, 0.0517,0.0512
MultiSource/Benchmarks/Prolangs-C/agrep/agrep, 1.3314, 1.3144, 1.3154,1.3154, 1.3185, 1.3222, 1.3185,1.3185, 1.3088, 1.3146, 1.3091,1.3091
MultiSource/Benchmarks/Prolangs-C/bison/mybison, 1.5776, 1.5784, 1.5803,1.5784, 1.5825, 1.5829, 1.5821,1.5825, 1.5766, 1.5785, 1.5785,1.5785
MultiSource/Benchmarks/Prolangs-C/gnugo/gnugo, 0.6976, 0.6969, 0.6992,0.6976, 0.6974, 0.6973, 0.6969,0.6973, 0.6967, 0.6968, 0.6962,0.6967
MultiSource/Benchmarks/Ptrdist/anagram/anagram, 0.0982, 0.0980, 0.0982,0.0982, 0.0979, 0.0979, 0.0981,0.0979, 0.0980, 0.0978, 0.0978,0.0978
MultiSource/Benchmarks/Ptrdist/bc/bc, 0.9898, 0.9893, 0.9906,0.9898, 0.9900, 0.9905, 0.9899,0.99, 0.9881, 0.9882, 0.9877,0.9881
MultiSource/Benchmarks/Ptrdist/ft/ft, 0.2005, 0.2006, 0.2009,0.2006, 0.2007, 0.2007, 0.2006,0.2007, 0.2002, 0.2003, 0.1998,0.2002
MultiSource/Benchmarks/Ptrdist/ks/ks, 0.1416, 0.1416, 0.1419,0.1416, 0.1416, 0.1417, 0.1416,0.1416, 0.1414, 0.1410, 0.1410,0.141
MultiSource/Benchmarks/Ptrdist/yacr2/yacr2, 0.6104, 0.5920, 0.5927,0.5927, 0.5925, 0.5933, 0.5921,0.5925, 0.5904, 0.5908, 0.5911,0.5908
MultiSource/Benchmarks/SciMark2-C/scimark2, 0.3575, 0.3570, 0.3580,0.3575, 0.3580, 0.3577, 0.3573,0.3577, 0.3575, 0.3575, 0.3577,0.3575
MultiSource/Benchmarks/TSVC/ControlFlow-dbl/ControlFlow-dbl, 2.1220, 2.1245, 2.1275,2.1245, 2.1488, 2.1510, 2.1489,2.1489, 2.1328, 2.1331, 2.1329,2.1329
MultiSource/Benchmarks/TSVC/ControlFlow-flt/ControlFlow-flt, 1.7962, 1.7947, 1.7971,1.7962, 1.8083, 1.8088, 1.8032,1.8083, 1.7898, 1.7899, 1.7984,1.7899
MultiSource/Benchmarks/TSVC/ControlLoops-dbl/ControlLoops-dbl, 2.0341, 2.0359, 2.0360,2.0359, 2.0517, 2.0518, 2.0540,2.0518, 2.0444, 2.0308, 2.0339,2.0339
MultiSource/Benchmarks/TSVC/ControlLoops-flt/ControlLoops-flt, 1.6974, 1.7009, 1.7013,1.7009, 1.7124, 1.7169, 1.7127,1.7127, 1.7008, 1.7003, 1.7022,1.7008
MultiSource/Benchmarks/TSVC/CrossingThresholds-dbl/CrossingThresholds-dbl, 1.9910, 1.9907, 1.9911,1.991, 2.0083, 2.0076, 2.0069,2.0076, 1.9981, 1.9934, 1.9661,1.9934
MultiSource/Benchmarks/TSVC/CrossingThresholds-flt/CrossingThresholds-flt, 1.6549, 1.6587, 1.6589,1.6587, 1.6695, 1.6682, 1.6655,1.6682, 1.6509, 1.6580, 1.6540,1.654
MultiSource/Benchmarks/TSVC/Equivalencing-dbl/Equivalencing-dbl, 2.0259, 2.0014, 1.9968,2.0014, 2.0158, 2.0184, 2.0117,2.0158, 1.9965, 1.9922, 1.9909,1.9922
MultiSource/Benchmarks/TSVC/Equivalencing-flt/Equivalencing-flt, 1.6552, 1.6618, 1.6579,1.6579, 1.6713, 1.6713, 1.6686,1.6713, 1.6621, 1.6615, 1.6634,1.6621
MultiSource/Benchmarks/TSVC/Expansion-dbl/Expansion-dbl, 2.0259, 2.0309, 2.0295,2.0295, 2.0569, 2.0587, 2.0512,2.0569, 2.0336, 2.0331, 2.0301,2.0331
MultiSource/Benchmarks/TSVC/Expansion-flt/Expansion-flt, 1.6985, 1.6851, 1.6986,1.6985, 1.7119, 1.7149, 1.7119,1.7119, 1.7002, 1.6964, 1.7007,1.7002
MultiSource/Benchmarks/TSVC/GlobalDataFlow-dbl/GlobalDataFlow-dbl, 2.0265, 2.0262, 2.0259,2.0262, 2.0490, 2.0420, 2.0393,2.042, 2.0244, 2.0230, 2.0251,2.0244
MultiSource/Benchmarks/TSVC/GlobalDataFlow-flt/GlobalDataFlow-flt, 1.6906, 1.6772, 1.6895,1.6895, 1.7069, 1.7090, 1.7027,1.7069, 1.7003, 1.6881, 1.6932,1.6932
MultiSource/Benchmarks/TSVC/IndirectAddressing-dbl/IndirectAddressing-dbl, 1.9805, 1.9785, 1.9801,1.9801, 2.0038, 2.0032, 2.0006,2.0032, 1.9881, 1.9871, 1.9850,1.9871
MultiSource/Benchmarks/TSVC/IndirectAddressing-flt/IndirectAddressing-flt, 1.6408, 1.6430, 1.6434,1.643, 1.6567, 1.6564, 1.6556,1.6564, 1.6539, 1.6420, 1.6457,1.6457
MultiSource/Benchmarks/TSVC/InductionVariable-dbl/InductionVariable-dbl, 2.0056, 2.0041, 2.0023,2.0041, 2.0265, 2.0236, 2.0247,2.0247, 2.0041, 2.0043, 2.0033,2.0041
MultiSource/Benchmarks/TSVC/InductionVariable-flt/InductionVariable-flt, 1.6742, 1.6717, 1.6694,1.6717, 1.6821, 1.6837, 1.6843,1.6837, 1.6705, 1.6692, 1.6680,1.6692
MultiSource/Benchmarks/TSVC/LinearDependence-dbl/LinearDependence-dbl, 2.0488, 2.0495, 2.0469,2.0488, 2.0677, 2.0710, 2.0548,2.0677, 2.0470, 2.0435, 2.0465,2.0465
MultiSource/Benchmarks/TSVC/LinearDependence-flt/LinearDependence-flt, 1.7306, 1.7205, 1.7317,1.7306, 1.7333, 1.7364, 1.7289,1.7333, 1.7238, 1.7294, 1.7267,1.7267
MultiSource/Benchmarks/TSVC/LoopRerolling-dbl/LoopRerolling-dbl, 1.9529, 1.9529, 1.9565,1.9529, 1.9799, 1.9577, 1.9802,1.9799, 1.9665, 1.9534, 1.9552,1.9552
MultiSource/Benchmarks/TSVC/LoopRerolling-flt/LoopRerolling-flt, 1.6203, 1.6190, 1.6210,1.6203, 1.6342, 1.6331, 1.6304,1.6331, 1.6203, 1.6248, 1.6177,1.6203
MultiSource/Benchmarks/TSVC/LoopRestructuring-dbl/LoopRestructuring-dbl, 1.9993, 1.9999, 2.0027,1.9999, 2.0202, 2.0220, 2.0195,2.0202, 2.0057, 2.0099, 2.0043,2.0057
MultiSource/Benchmarks/TSVC/LoopRestructuring-flt/LoopRestructuring-flt, 1.6696, 1.6718, 1.6733,1.6718, 1.6821, 1.6819, 1.6871,1.6821, 1.6709, 1.6692, 1.6677,1.6692
MultiSource/Benchmarks/TSVC/NodeSplitting-dbl/NodeSplitting-dbl, 1.9718, 1.9712, 1.9731,1.9718, 1.9942, 1.9774, 1.9911,1.9911, 1.9744, 1.9725, 1.9723,1.9725
MultiSource/Benchmarks/TSVC/NodeSplitting-flt/NodeSplitting-flt, 1.6387, 1.6383, 1.6367,1.6383, 1.6493, 1.6503, 1.6475,1.6493, 1.6566, 1.6374, 1.6381,1.6381
MultiSource/Benchmarks/TSVC/Packing-dbl/Packing-dbl, 1.9476, 1.9582, 1.9485,1.9485, 1.9621, 1.9620, 1.9632,1.9621, 1.9565, 1.9472, 1.9480,1.948
MultiSource/Benchmarks/TSVC/Packing-flt/Packing-flt, 1.6126, 1.6115, 1.6201,1.6126, 1.6226, 1.6288, 1.6215,1.6226, 1.6107, 1.6056, 1.6073,1.6073
MultiSource/Benchmarks/TSVC/Recurrences-dbl/Recurrences-dbl, 1.9405, 1.9415, 1.9439,1.9415, 1.9653, 1.9718, 1.9649,1.9653, 1.9459, 1.9437, 1.9463,1.9459
MultiSource/Benchmarks/TSVC/Recurrences-flt/Recurrences-flt, 1.6074, 1.6072, 1.6190,1.6074, 1.6204, 1.6243, 1.6240,1.624, 1.6132, 1.6100, 1.6097,1.61
MultiSource/Benchmarks/TSVC/Reductions-dbl/Reductions-dbl, 2.0102, 2.0372, 2.0387,2.0372, 2.0643, 2.0660, 2.0681,2.066, 2.0424, 2.0416, 2.0408,2.0416
MultiSource/Benchmarks/TSVC/Reductions-flt/Reductions-flt, 1.7107, 1.7088, 1.7126,1.7107, 1.7193, 1.7231, 1.7177,1.7193, 1.7090, 1.6948, 1.7094,1.709
MultiSource/Benchmarks/TSVC/Searching-dbl/Searching-dbl, 1.9307, 1.9349, 1.9326,1.9326, 1.9533, 1.9453, 1.9508,1.9508, 1.9353, 1.9317, 1.9327,1.9327
MultiSource/Benchmarks/TSVC/Searching-flt/Searching-flt, 1.6010, 1.6003, 1.6006,1.6006, 1.6083, 1.6058, 1.6067,1.6067, 1.6039, 1.6001, 1.5988,1.6001
MultiSource/Benchmarks/TSVC/StatementReordering-dbl/StatementReordering-dbl, 1.9455, 1.9442, 1.9492,1.9455, 1.9663, 1.9684, 1.9643,1.9663, 1.9497, 1.9480, 1.9497,1.9497
MultiSource/Benchmarks/TSVC/StatementReordering-flt/StatementReordering-flt, 1.6081, 1.6173, 1.6078,1.6081, 1.6213, 1.6213, 1.6184,1.6213, 1.6113, 1.6108, 1.6244,1.6113
MultiSource/Benchmarks/TSVC/Symbolics-dbl/Symbolics-dbl, 1.9859, 1.9941, 1.9870,1.987, 2.0054, 2.0088, 2.0058,2.0058, 1.9938, 1.9885, 1.9909,1.9909
MultiSource/Benchmarks/TSVC/Symbolics-flt/Symbolics-flt, 1.6308, 1.6558, 1.6576,1.6558, 1.6584, 1.6579, 1.6585,1.6584, 1.6595, 1.6500, 1.6500,1.65
MultiSource/Benchmarks/Trimaran/enc-3des/enc-3des, 0.2379, 0.2381, 0.2382,0.2381, 0.2389, 0.2391, 0.2392,0.2391, 0.2366, 0.2368, 0.2367,0.2367
MultiSource/Benchmarks/Trimaran/enc-md5/enc-md5, 0.1477, 0.1477, 0.1479,0.1477, 0.1476, 0.1476, 0.1477,0.1476, 0.1464, 0.1466, 0.1469,0.1466
MultiSource/Benchmarks/Trimaran/enc-pc1/enc-pc1, 0.0635, 0.0634, 0.0636,0.0635, 0.0637, 0.0635, 0.0636,0.0636, 0.0631, 0.0631, 0.0632,0.0631
MultiSource/Benchmarks/Trimaran/enc-rc4/enc-rc4, 0.0487, 0.0486, 0.0487,0.0487, 0.0484, 0.0485, 0.0484,0.0484, 0.0485, 0.0485, 0.0485,0.0485
MultiSource/Benchmarks/Trimaran/netbench-crc/netbench-crc, 0.0749, 0.0747, 0.0749,0.0749, 0.0747, 0.0745, 0.0743,0.0745, 0.0742, 0.0746, 0.0746,0.0746
MultiSource/Benchmarks/Trimaran/netbench-url/netbench-url, 0.2099, 0.2002, 0.2009,0.2009, 0.1998, 0.2002, 0.1998,0.1998, 0.1993, 0.1997, 0.1998,0.1997
MultiSource/Benchmarks/VersaBench/8b10b/8b10b, 0.0710, 0.0710, 0.0713,0.071, 0.0708, 0.0708, 0.0707,0.0708, 0.0710, 0.0709, 0.0708,0.0709
MultiSource/Benchmarks/VersaBench/beamformer/beamformer, 0.3042, 0.3074, 0.2997,0.3042, 0.3058, 0.3109, 0.3096,0.3096, 0.3070, 0.3046, 0.3101,0.307
MultiSource/Benchmarks/VersaBench/bmm/bmm, 0.0498, 0.0498, 0.0499,0.0498, 0.0497, 0.0497, 0.0495,0.0497, 0.0497, 0.0496, 0.0496,0.0496
MultiSource/Benchmarks/VersaBench/dbms/dbms, 0.9451, 0.9323, 0.9090,0.9323, 0.9297, 0.9490, 0.9357,0.9357, 0.9286, 0.9293, 0.9293,0.9293
MultiSource/Benchmarks/VersaBench/ecbdes/ecbdes, 0.2071, 0.2066, 0.2072,0.2071, 0.2060, 0.2060, 0.2058,0.206, 0.2055, 0.2055, 0.2057,0.2055
MultiSource/Benchmarks/llubenchmark/llu, 0.0460, 0.0460, 0.0461,0.046, 0.0459, 0.0459, 0.0459,0.0459, 0.0459, 0.0459, 0.0459,0.0459
MultiSource/Benchmarks/mafft/pairlocalalign, 8.6128, 8.6174, 8.6158,8.6158, 8.6608, 8.6696, 8.6622,8.6622, 8.6048, 8.6079, 8.6110,8.6079
MultiSource/Benchmarks/mediabench/adpcm/rawcaudio/rawcaudio, 0.0537, 0.0535, 0.0537,0.0537, 0.0533, 0.0534, 0.0533,0.0533, 0.0534, 0.0535, 0.0534,0.0534
MultiSource/Benchmarks/mediabench/adpcm/rawdaudio/rawdaudio, 0.0536, 0.0534, 0.0535,0.0535, 0.0532, 0.0533, 0.0532,0.0532, 0.0532, 0.0533, 0.0532,0.0532
MultiSource/Benchmarks/mediabench/g721/g721encode/encode, 0.1884, 0.1887, 0.1892,0.1887, 0.1887, 0.1887, 0.1888,0.1887, 0.1889, 0.1892, 0.1889,0.1889
MultiSource/Benchmarks/mediabench/gsm/toast/toast, 1.0059, 1.0053, 1.0074,1.0059, 1.0042, 1.0066, 1.0036,1.0042, 1.0021, 1.0032, 1.0025,1.0025
MultiSource/Benchmarks/mediabench/jpeg/jpeg-6a/cjpeg, 4.4103, 4.3929, 4.3969,4.3969, 4.3984, 4.4018, 4.4007,4.4007, 4.3797, 4.3866, 4.3830,4.383
MultiSource/Benchmarks/mediabench/mpeg2/mpeg2dec/mpeg2decode, 1.3102, 1.3052, 1.3127,1.3102, 1.3071, 1.3122, 1.3133,1.3122, 1.3012, 1.3023, 1.3065,1.3023
MultiSource/Benchmarks/nbench/nbench, 1.1062, 1.1040, 1.1037,1.104, 1.1107, 1.1118, 1.1106,1.1107, 1.1039, 1.1036, 1.1046,1.1039
MultiSource/Benchmarks/sim/sim, 0.2802, 0.2806, 0.2803,0.2803, 0.2815, 0.2821, 0.2819,0.2819, 0.2801, 0.2797, 0.2806,0.2801
MultiSource/Benchmarks/tramp3d-v4/tramp3d-v4,19.8149,19.8364,19.7905,19.8149,19.8946,19.9203,19.8787,19.8946,19.7321,19.8183,19.7770,19.777
SingleSource/Benchmarks/Adobe-C++/functionobjects, 0.4455, 0.4462, 0.4450,0.4455, 0.4383, 0.4390, 0.4377,0.4383, 0.4450, 0.4451, 0.4445,0.445
SingleSource/Benchmarks/Adobe-C++/loop_unroll, 4.3046, 4.3172, 4.3049,4.3049, 4.3271, 4.3292, 4.3153,4.3271, 4.2990, 4.2952, 4.2960,4.296
SingleSource/Benchmarks/Adobe-C++/simple_types_constant_folding, 2.4303, 2.4155, 2.4362,2.4303, 2.4384, 2.4331, 2.4294,2.4331, 2.4347, 2.4300, 2.4395,2.4347
SingleSource/Benchmarks/Adobe-C++/simple_types_loop_invariant, 1.9690, 1.9729, 1.9751,1.9729, 1.9674, 1.9715, 1.9670,1.9674, 1.9682, 1.9641, 1.9714,1.9682
SingleSource/Benchmarks/Adobe-C++/stepanov_abstraction, 0.5727, 0.5730, 0.5730,0.573, 0.5774, 0.5786, 0.5809,0.5786, 0.5722, 0.5720, 0.5728,0.5722
SingleSource/Benchmarks/Adobe-C++/stepanov_vector, 0.6186, 0.6187, 0.6182,0.6186, 0.6269, 0.6268, 0.6258,0.6268, 0.6142, 0.6152, 0.6164,0.6152
SingleSource/Benchmarks/BenchmarkGame/Large/fasta, 0.0514, 0.0506, 0.0399,0.0506, 0.0399, 0.0473, 0.0399,0.0399, 0.0399, 0.0399, 0.0399,0.0399
SingleSource/Benchmarks/BenchmarkGame/fannkuch, 0.0506, 0.0505, 0.0505,0.0505, 0.0505, 0.0504, 0.0504,0.0504, 0.0502, 0.0502, 0.0502,0.0502
SingleSource/Benchmarks/BenchmarkGame/n-body, 0.0697, 0.0697, 0.0698,0.0697, 0.0699, 0.0699, 0.0698,0.0699, 0.0697, 0.0698, 0.0697,0.0697
SingleSource/Benchmarks/BenchmarkGame/nsieve-bits, 0.0312, 0.0311, 0.0312,0.0312, 0.0311, 0.0310, 0.0310,0.031, 0.0311, 0.0311, 0.0311,0.0311
SingleSource/Benchmarks/BenchmarkGame/partialsums, 0.0432, 0.0370, 0.0289,0.037, 0.0301, 0.0327, 0.0288,0.0301, 0.0288, 0.0289, 0.0288,0.0288
SingleSource/Benchmarks/BenchmarkGame/puzzle, 0.0546, 0.0545, 0.0545,0.0545, 0.0545, 0.0546, 0.0545,0.0545, 0.0544, 0.0545, 0.0545,0.0545
SingleSource/Benchmarks/BenchmarkGame/recursive, 0.0353, 0.0265, 0.0254,0.0265, 0.0336, 0.0312, 0.0253,0.0312, 0.0253, 0.0253, 0.0253,0.0253
SingleSource/Benchmarks/BenchmarkGame/spectral-norm, 0.0536, 0.0535, 0.0537,0.0536, 0.0534, 0.0534, 0.0534,0.0534, 0.0536, 0.0536, 0.0535,0.0536
SingleSource/Benchmarks/CoyoteBench/almabench, 0.0675, 0.0674, 0.0675,0.0675, 0.0676, 0.0674, 0.0676,0.0676, 0.0675, 0.0672, 0.0673,0.0673
SingleSource/Benchmarks/CoyoteBench/fftbench, 0.5451, 0.5770, 0.5740,0.574, 0.5557, 0.5510, 0.5545,0.5545, 0.5551, 0.5539, 0.5490,0.5539
SingleSource/Benchmarks/CoyoteBench/huffbench, 0.0826, 0.0827, 0.0828,0.0827, 0.0828, 0.0830, 0.0828,0.0828, 0.0827, 0.0825, 0.0827,0.0827
SingleSource/Benchmarks/CoyoteBench/lpbench, 0.1481, 0.1481, 0.1481,0.1481, 0.1598, 0.1491, 0.1490,0.1491, 0.1478, 0.1479, 0.1483,0.1479
SingleSource/Benchmarks/Dhrystone/dry, 0.0400, 0.0400, 0.0402,0.04, 0.0398, 0.0398, 0.0398,0.0398, 0.0398, 0.0399, 0.0399,0.0399
SingleSource/Benchmarks/Dhrystone/fldry, 0.0431, 0.0431, 0.0432,0.0431, 0.0429, 0.0429, 0.0429,0.0429, 0.0429, 0.0430, 0.0429,0.0429
SingleSource/Benchmarks/Linpack/linpack-pc, 0.3043, 0.3045, 0.3043,0.3043, 0.3055, 0.3064, 0.3059,0.3059, 0.3050, 0.3049, 0.3053,0.305
SingleSource/Benchmarks/McGill/chomp, 0.1846, 0.1847, 0.1849,0.1847, 0.1849, 0.1852, 0.1846,0.1849, 0.1844, 0.1839, 0.1846,0.1844
SingleSource/Benchmarks/McGill/misr, 0.0525, 0.0522, 0.0525,0.0525, 0.0520, 0.0522, 0.0520,0.052, 0.0522, 0.0522, 0.0522,0.0522
SingleSource/Benchmarks/McGill/queens, 0.0438, 0.0437, 0.0438,0.0438, 0.0438, 0.0437, 0.0437,0.0437, 0.0437, 0.0436, 0.0436,0.0436
SingleSource/Benchmarks/Misc-C++-EH/spirit, 3.4854, 3.4844, 3.4988,3.4854, 3.5470, 3.5242, 3.5425,3.5425, 3.5120, 3.5203, 3.5090,3.512
SingleSource/Benchmarks/Misc-C++/Large/ray, 0.2279, 0.2246, 0.2278,0.2278, 0.2100, 0.2290, 0.2105,0.2105, 0.2275, 0.2257, 0.2099,0.2257
SingleSource/Benchmarks/Misc-C++/Large/sphereflake, 0.2202, 0.2195, 0.2204,0.2202, 0.2186, 0.2190, 0.2190,0.219, 0.2186, 0.2187, 0.2190,0.2187
SingleSource/Benchmarks/Misc-C++/bigfib, 0.4603, 0.4555, 0.4388,0.4555, 0.4525, 0.4570, 0.4400,0.4525, 0.4367, 0.4371, 0.4370,0.437
SingleSource/Benchmarks/Misc-C++/mandel-text, 0.0231, 0.0230, 0.0232,0.0231, 0.0230, 0.0231, 0.0231,0.0231, 0.0230, 0.0230, 0.0230,0.023
SingleSource/Benchmarks/Misc-C++/oopack_v1p8, 0.1285, 0.1252, 0.1256,0.1256, 0.1271, 0.1266, 0.1277,0.1271, 0.1232, 0.1210, 0.1252,0.1232
SingleSource/Benchmarks/Misc-C++/stepanov_container, 0.6725, 0.6627, 0.6618,0.6627, 0.6399, 0.6631, 0.6643,0.6631, 0.6396, 0.6388, 0.6568,0.6396
SingleSource/Benchmarks/Misc-C++/stepanov_v1p2, 0.1671, 0.1668, 0.1669,0.1669, 0.1677, 0.1684, 0.1678,0.1678, 0.1664, 0.1665, 0.1667,0.1665
SingleSource/Benchmarks/Misc/ReedSolomon, 0.1867, 0.1868, 0.1868,0.1868, 0.1879, 0.1883, 0.1883,0.1883, 0.1866, 0.1866, 0.1869,0.1866
SingleSource/Benchmarks/Misc/dt, 0.0315, 0.0314, 0.0315,0.0315, 0.0314, 0.0313, 0.0312,0.0313, 0.0314, 0.0314, 0.0313,0.0314
SingleSource/Benchmarks/Misc/evalloop, 0.0350, 0.0350, 0.0350,0.035, 0.0351, 0.0351, 0.0351,0.0351, 0.0350, 0.0350, 0.0350,0.035
SingleSource/Benchmarks/Misc/fbench, 0.0530, 0.0530, 0.0530,0.053, 0.0527, 0.0525, 0.0527,0.0527, 0.0529, 0.0529, 0.0530,0.0529
SingleSource/Benchmarks/Misc/ffbench, 0.0661, 0.0659, 0.0660,0.066, 0.0661, 0.0660, 0.0659,0.066, 0.0659, 0.0660, 0.0660,0.066
SingleSource/Benchmarks/Misc/flops, 0.0761, 0.0759, 0.0761,0.0761, 0.0759, 0.0757, 0.0757,0.0757, 0.0757, 0.0757, 0.0758,0.0757
SingleSource/Benchmarks/Misc/flops-1, 0.0261, 0.0261, 0.0262,0.0261, 0.0263, 0.0262, 0.0263,0.0263, 0.0262, 0.0261, 0.0261,0.0261
SingleSource/Benchmarks/Misc/flops-2, 0.0271, 0.0271, 0.0271,0.0271, 0.0271, 0.0271, 0.0272,0.0271, 0.0271, 0.0271, 0.0271,0.0271
SingleSource/Benchmarks/Misc/flops-3, 0.0260, 0.0260, 0.0260,0.026, 0.0260, 0.0260, 0.0261,0.026, 0.0261, 0.0259, 0.0259,0.0259
SingleSource/Benchmarks/Misc/flops-4, 0.0266, 0.0264, 0.0266,0.0266, 0.0266, 0.0266, 0.0266,0.0266, 0.0265, 0.0265, 0.0265,0.0265
SingleSource/Benchmarks/Misc/flops-5, 0.0271, 0.0271, 0.0271,0.0271, 0.0272, 0.0271, 0.0272,0.0272, 0.0271, 0.0271, 0.0270,0.0271
SingleSource/Benchmarks/Misc/flops-6, 0.0270, 0.0271, 0.0271,0.0271, 0.0271, 0.0271, 0.0271,0.0271, 0.0270, 0.0271, 0.0270,0.027
SingleSource/Benchmarks/Misc/flops-7, 0.0258, 0.0259, 0.0259,0.0259, 0.0259, 0.0259, 0.0259,0.0259, 0.0259, 0.0258, 0.0258,0.0258
SingleSource/Benchmarks/Misc/flops-8, 0.0271, 0.0271, 0.0271,0.0271, 0.0272, 0.0272, 0.0271,0.0272, 0.0271, 0.0271, 0.0270,0.0271
SingleSource/Benchmarks/Misc/fp-convert, 0.0291, 0.0291, 0.0292,0.0291, 0.0290, 0.0291, 0.0290,0.029, 0.0290, 0.0291, 0.0290,0.029
SingleSource/Benchmarks/Misc/himenobmtxpa, 0.1742, 0.1744, 0.1745,0.1744, 0.1761, 0.1762, 0.1759,0.1761, 0.1742, 0.1740, 0.1741,0.1741
SingleSource/Benchmarks/Misc/lowercase, 0.0243, 0.0243, 0.0244,0.0243, 0.0242, 0.0243, 0.0241,0.0242, 0.0242, 0.0242, 0.0242,0.0242
SingleSource/Benchmarks/Misc/mandel, 0.0563, 0.0632, 0.0431,0.0563, 0.0661, 0.0593, 0.0433,0.0593, 0.0433, 0.0431, 0.0431,0.0431
SingleSource/Benchmarks/Misc/mandel-2, 0.0459, 0.0484, 0.0523,0.0484, 0.0309, 0.0309, 0.0309,0.0309, 0.0309, 0.0659, 0.0309,0.0309
SingleSource/Benchmarks/Misc/matmul_f64_4x4, 0.0273, 0.0273, 0.0274,0.0273, 0.0274, 0.0274, 0.0273,0.0274, 0.0272, 0.0273, 0.0272,0.0272
SingleSource/Benchmarks/Misc/oourafft, 0.2266, 0.2089, 0.2087,0.2089, 0.2096, 0.2097, 0.2094,0.2096, 0.2086, 0.2083, 0.2085,0.2085
SingleSource/Benchmarks/Misc/perlin, 0.0440, 0.0440, 0.0442,0.044, 0.0440, 0.0440, 0.0441,0.044, 0.0442, 0.0442, 0.0443,0.0442
SingleSource/Benchmarks/Misc/pi, 0.0200, 0.0201, 0.0202,0.0201, 0.0200, 0.0200, 0.0200,0.02, 0.0200, 0.0200, 0.0199,0.02
SingleSource/Benchmarks/Misc/revertBits, 0.0245, 0.0244, 0.0245,0.0245, 0.0244, 0.0244, 0.0244,0.0244, 0.0244, 0.0245, 0.0244,0.0244
SingleSource/Benchmarks/Misc/richards_benchmark, 0.0622, 0.0623, 0.0623,0.0623, 0.0624, 0.0623, 0.0624,0.0624, 0.0617, 0.0618, 0.0620,0.0618
SingleSource/Benchmarks/Misc/salsa20, 0.0532, 0.0532, 0.0534,0.0532, 0.0534, 0.0534, 0.0534,0.0534, 0.0533, 0.0532, 0.0533,0.0533
SingleSource/Benchmarks/Misc/whetstone, 0.0661, 0.0659, 0.0662,0.0661, 0.0662, 0.0660, 0.0662,0.0662, 0.0661, 0.0660, 0.0661,0.0661
SingleSource/Benchmarks/Polybench/datamining/correlation/correlation, 0.0753, 0.0752, 0.0751,0.0752, 0.0749, 0.0753, 0.0752,0.0752, 0.0752, 0.0751, 0.0750,0.0751
SingleSource/Benchmarks/Polybench/datamining/covariance/covariance, 0.0828, 0.0826, 0.0829,0.0828, 0.0826, 0.0826, 0.0827,0.0826, 0.0827, 0.0826, 0.0826,0.0826
SingleSource/Benchmarks/Polybench/linear-algebra/kernels/atax/atax, 0.0788, 0.0791, 0.0791,0.0791, 0.0790, 0.0791, 0.0790,0.079, 0.0790, 0.0787, 0.0790,0.079
SingleSource/Benchmarks/Polybench/linear-algebra/kernels/bicg/bicg, 0.0773, 0.0775, 0.0775,0.0775, 0.0777, 0.0775, 0.0775,0.0775, 0.0774, 0.0773, 0.0774,0.0774
SingleSource/Benchmarks/Polybench/linear-algebra/kernels/cholesky/cholesky, 0.0910, 0.0910, 0.0912,0.091, 0.0912, 0.0912, 0.0910,0.0912, 0.0908, 0.0908, 0.0906,0.0908
SingleSource/Benchmarks/Polybench/linear-algebra/kernels/doitgen/doitgen, 0.0986, 0.0960, 0.0961,0.0961, 0.0965, 0.0966, 0.0964,0.0965, 0.0962, 0.0960, 0.0961,0.0961
SingleSource/Benchmarks/Polybench/linear-algebra/kernels/gemver/gemver, 0.0898, 0.0896, 0.0896,0.0896, 0.0897, 0.0898, 0.0898,0.0898, 0.0895, 0.0893, 0.0894,0.0894
SingleSource/Benchmarks/Polybench/linear-algebra/kernels/gesummv/gesummv, 0.0658, 0.0658, 0.0658,0.0658, 0.0659, 0.0659, 0.0659,0.0659, 0.0656, 0.0657, 0.0657,0.0657
SingleSource/Benchmarks/Polybench/linear-algebra/kernels/mvt/mvt, 0.0796, 0.0797, 0.0798,0.0797, 0.0798, 0.0799, 0.0797,0.0798, 0.0794, 0.0796, 0.0795,0.0795
SingleSource/Benchmarks/Polybench/linear-algebra/kernels/symm/symm, 0.0757, 0.0757, 0.0759,0.0757, 0.0758, 0.0759, 0.0757,0.0758, 0.0754, 0.0761, 0.0756,0.0756
SingleSource/Benchmarks/Polybench/linear-algebra/kernels/syr2k/syr2k, 0.0771, 0.0768, 0.0769,0.0769, 0.0770, 0.0770, 0.0770,0.077, 0.0768, 0.0768, 0.0767,0.0768
SingleSource/Benchmarks/Polybench/linear-algebra/kernels/syrk/syrk, 0.0754, 0.0754, 0.0754,0.0754, 0.0753, 0.0754, 0.0753,0.0753, 0.0752, 0.0751, 0.0751,0.0751
SingleSource/Benchmarks/Polybench/linear-algebra/kernels/trisolv/trisolv, 0.0716, 0.0623, 0.0624,0.0624, 0.0624, 0.0623, 0.0622,0.0623, 0.0621, 0.0622, 0.0623,0.0622
SingleSource/Benchmarks/Polybench/linear-algebra/kernels/trmm/trmm, 0.0714, 0.0714, 0.0716,0.0714, 0.0715, 0.0717, 0.0714,0.0715, 0.0711, 0.0712, 0.0711,0.0711
SingleSource/Benchmarks/Polybench/linear-algebra/solvers/durbin/durbin, 0.0871, 0.0869, 0.0871,0.0871, 0.0869, 0.0869, 0.0870,0.0869, 0.0866, 0.0867, 0.0866,0.0866
SingleSource/Benchmarks/Polybench/linear-algebra/solvers/dynprog/dynprog, 0.0720, 0.0717, 0.0720,0.072, 0.0719, 0.0721, 0.0720,0.072, 0.0717, 0.0716, 0.0716,0.0716
SingleSource/Benchmarks/Polybench/linear-algebra/solvers/gramschmidt/gramschmidt, 0.1009, 0.1011, 0.1009,0.1009, 0.1011, 0.1012, 0.1009,0.1011, 0.1008, 0.1007, 0.1008,0.1008
SingleSource/Benchmarks/Polybench/linear-algebra/solvers/lu/lu, 0.0883, 0.0883, 0.0883,0.0883, 0.0886, 0.0887, 0.0887,0.0887, 0.0883, 0.0884, 0.0884,0.0884
SingleSource/Benchmarks/Polybench/medley/floyd-warshall/floyd-warshall, 0.0952, 0.0861, 0.0746,0.0861, 0.0881, 0.0890, 0.0744,0.0881, 0.0741, 0.0741, 0.0741,0.0741
SingleSource/Benchmarks/Polybench/medley/reg_detect/reg_detect, 0.4181, 0.4180, 0.4172,0.418, 0.4219, 0.4222, 0.4232,0.4222, 0.4168, 0.4177, 0.4170,0.417
SingleSource/Benchmarks/Polybench/stencils/adi/adi, 0.0887, 0.0889, 0.0888,0.0888, 0.0890, 0.0890, 0.0890,0.089, 0.0885, 0.0887, 0.0887,0.0887
SingleSource/Benchmarks/Polybench/stencils/fdtd-2d/fdtd-2d, 0.1366, 0.1365, 0.1365,0.1365, 0.1378, 0.1378, 0.1377,0.1378, 0.1369, 0.1368, 0.1367,0.1368
SingleSource/Benchmarks/Polybench/stencils/fdtd-apml/fdtd-apml, 0.1304, 0.1302, 0.1305,0.1304, 0.1305, 0.1307, 0.1305,0.1305, 0.1299, 0.1297, 0.1299,0.1299
SingleSource/Benchmarks/Polybench/stencils/jacobi-1d-imper/jacobi-1d-imper, 0.0825, 0.0827, 0.0826,0.0826, 0.0829, 0.0829, 0.0830,0.0829, 0.0826, 0.0827, 0.0826,0.0826
SingleSource/Benchmarks/Polybench/stencils/jacobi-2d-imper/jacobi-2d-imper, 0.1115, 0.1115, 0.1116,0.1115, 0.1119, 0.1120, 0.1118,0.1119, 0.1115, 0.1118, 0.1116,0.1116
SingleSource/Benchmarks/Polybench/stencils/seidel-2d/seidel-2d, 0.0688, 0.0688, 0.0688,0.0688, 0.0689, 0.0690, 0.0688,0.0689, 0.0686, 0.0687, 0.0687,0.0687
SingleSource/Benchmarks/Shootout-C++/EH/except, 0.1303, 0.1301, 0.1299,0.1301, 0.1290, 0.1293, 0.1289,0.129, 0.1286, 0.1287, 0.1288,0.1287
SingleSource/Benchmarks/Shootout-C++/ackermann, 0.1169, 0.1168, 0.1167,0.1168, 0.1165, 0.1167, 0.1167,0.1167, 0.1160, 0.1164, 0.1160,0.116
SingleSource/Benchmarks/Shootout-C++/ary, 0.1552, 0.1547, 0.1553,0.1552, 0.1541, 0.1545, 0.1543,0.1543, 0.1532, 0.1532, 0.1538,0.1532
SingleSource/Benchmarks/Shootout-C++/ary2, 0.1562, 0.1568, 0.1569,0.1568, 0.1555, 0.1564, 0.1557,0.1557, 0.1556, 0.1550, 0.1556,0.1556
SingleSource/Benchmarks/Shootout-C++/ary3, 0.1590, 0.1589, 0.1586,0.1589, 0.1581, 0.1580, 0.1585,0.1581, 0.1574, 0.1584, 0.1580,0.158
SingleSource/Benchmarks/Shootout-C++/fibo, 0.1148, 0.1157, 0.1151,0.1151, 0.1145, 0.1148, 0.1148,0.1148, 0.1143, 0.1146, 0.1145,0.1145
SingleSource/Benchmarks/Shootout-C++/hash, 0.2667, 0.2668, 0.2669,0.2668, 0.2667, 0.2674, 0.2670,0.267, 0.2655, 0.2653, 0.2656,0.2655
SingleSource/Benchmarks/Shootout-C++/hash2, 0.3291, 0.3376, 0.3276,0.3291, 0.3024, 0.3354, 0.3264,0.3264, 0.3150, 0.3172, 0.3224,0.3172
SingleSource/Benchmarks/Shootout-C++/heapsort, 0.1312, 0.1312, 0.1313,0.1312, 0.1311, 0.1313, 0.1313,0.1313, 0.1306, 0.1305, 0.1310,0.1306
SingleSource/Benchmarks/Shootout-C++/lists, 0.1608, 0.1609, 0.1608,0.1608, 0.1595, 0.1597, 0.1598,0.1597, 0.1592, 0.1629, 0.1589,0.1592
SingleSource/Benchmarks/Shootout-C++/lists1, 0.2162, 0.2305, 0.2120,0.2162, 0.1950, 0.2124, 0.2071,0.2071, 0.2099, 0.2202, 0.2067,0.2099
SingleSource/Benchmarks/Shootout-C++/matrix, 0.1837, 0.1840, 0.1841,0.184, 0.1830, 0.1833, 0.1828,0.183, 0.1830, 0.1824, 0.1830,0.183
SingleSource/Benchmarks/Shootout-C++/methcall, 0.1251, 0.1251, 0.1249,0.1251, 0.1242, 0.1245, 0.1243,0.1243, 0.1243, 0.1242, 0.1238,0.1242
SingleSource/Benchmarks/Shootout-C++/moments, 0.2378, 0.2377, 0.2372,0.2377, 0.2369, 0.2382, 0.2381,0.2381, 0.2354, 0.2354, 0.2363,0.2354
SingleSource/Benchmarks/Shootout-C++/nestedloop, 0.1181, 0.1252, 0.1218,0.1218, 0.1150, 0.1258, 0.1188,0.1188, 0.1259, 0.1236, 0.1226,0.1236
SingleSource/Benchmarks/Shootout-C++/objinst, 0.1521, 0.1560, 0.1540,0.154, 0.1407, 0.1626, 0.1569,0.1569, 0.1575, 0.1577, 0.1573,0.1575
SingleSource/Benchmarks/Shootout-C++/random, 0.1250, 0.1253, 0.1249,0.125, 0.1244, 0.1246, 0.1241,0.1244, 0.1246, 0.1240, 0.1240,0.124
SingleSource/Benchmarks/Shootout-C++/sieve, 0.1843, 0.1846, 0.1850,0.1846, 0.1840, 0.1841, 0.1837,0.184, 0.1830, 0.1836, 0.1829,0.183
SingleSource/Benchmarks/Shootout-C++/strcat, 0.1257, 0.1256, 0.1257,0.1257, 0.1253, 0.1252, 0.1255,0.1253, 0.1251, 0.1252, 0.1249,0.1251
SingleSource/Benchmarks/Shootout/ackermann, 0.0225, 0.0224, 0.0226,0.0225, 0.0223, 0.0223, 0.0222,0.0223, 0.0224, 0.0223, 0.0224,0.0224
SingleSource/Benchmarks/Shootout/ary3, 0.0335, 0.0335, 0.0336,0.0335, 0.0334, 0.0334, 0.0333,0.0334, 0.0334, 0.0335, 0.0335,0.0335
SingleSource/Benchmarks/Shootout/fib2, 0.0187, 0.0187, 0.0188,0.0187, 0.0187, 0.0187, 0.0186,0.0187, 0.0187, 0.0187, 0.0187,0.0187
SingleSource/Benchmarks/Shootout/hash, 0.0584, 0.0500, 0.0502,0.0502, 0.0501, 0.0501, 0.0501,0.0501, 0.0501, 0.0500, 0.0501,0.0501
SingleSource/Benchmarks/Shootout/heapsort, 0.0380, 0.0380, 0.0381,0.038, 0.0381, 0.0380, 0.0381,0.0381, 0.0381, 0.0380, 0.0379,0.038
SingleSource/Benchmarks/Shootout/lists, 0.0657, 0.0656, 0.0658,0.0657, 0.0656, 0.0656, 0.0657,0.0656, 0.0656, 0.0656, 0.0655,0.0656
SingleSource/Benchmarks/Shootout/matrix, 0.0813, 0.0815, 0.0815,0.0815, 0.0811, 0.0811, 0.0810,0.0811, 0.0807, 0.0808, 0.0810,0.0808
SingleSource/Benchmarks/Shootout/methcall, 0.0306, 0.0306, 0.0306,0.0306, 0.0305, 0.0305, 0.0304,0.0305, 0.0305, 0.0305, 0.0305,0.0305
SingleSource/Benchmarks/Shootout/nestedloop, 0.0232, 0.0232, 0.0232,0.0232, 0.0230, 0.0231, 0.0230,0.023, 0.0232, 0.0232, 0.0231,0.0232
SingleSource/Benchmarks/Shootout/objinst, 0.0365, 0.0364, 0.0364,0.0364, 0.0361, 0.0361, 0.0362,0.0361, 0.0363, 0.0363, 0.0363,0.0363
SingleSource/Benchmarks/Shootout/random, 0.0291, 0.0290, 0.0292,0.0291, 0.0290, 0.0290, 0.0289,0.029, 0.0290, 0.0290, 0.0289,0.029
SingleSource/Benchmarks/Shootout/sieve, 0.0244, 0.0243, 0.0244,0.0244, 0.0242, 0.0242, 0.0242,0.0242, 0.0243, 0.0243, 0.0243,0.0243
SingleSource/Benchmarks/Shootout/strcat, 0.0263, 0.0263, 0.0264,0.0263, 0.0262, 0.0262, 0.0261,0.0262, 0.0262, 0.0262, 0.0261,0.0262
SingleSource/Benchmarks/SmallPT/smallpt, 0.0984, 0.0983, 0.0985,0.0984, 0.0985, 0.0987, 0.0986,0.0986, 0.0985, 0.0985, 0.0983,0.0985
SingleSource/Benchmarks/Stanford/Bubblesort, 0.0328, 0.0328, 0.0329,0.0328, 0.0327, 0.0328, 0.0327,0.0327, 0.0327, 0.0328, 0.0327,0.0327
SingleSource/Benchmarks/Stanford/FloatMM, 0.0518, 0.0517, 0.0519,0.0518, 0.0522, 0.0522, 0.0521,0.0522, 0.0518, 0.0517, 0.0517,0.0517
SingleSource/Benchmarks/Stanford/Oscar, 0.0613, 0.0614, 0.0614,0.0614, 0.0614, 0.0614, 0.0614,0.0614, 0.0613, 0.0612, 0.0613,0.0613
SingleSource/Benchmarks/Stanford/Perm, 0.0302, 0.0368, 0.0304,0.0304, 0.0386, 0.0326, 0.0302,0.0326, 0.0302, 0.0302, 0.0302,0.0302
SingleSource/Benchmarks/Stanford/Puzzle, 0.1087, 0.1088, 0.1087,0.1087, 0.1093, 0.1094, 0.1093,0.1093, 0.1091, 0.1089, 0.1092,0.1091
SingleSource/Benchmarks/Stanford/Queens, 0.0435, 0.0434, 0.0435,0.0435, 0.0434, 0.0434, 0.0434,0.0434, 0.0433, 0.0434, 0.0433,0.0433
SingleSource/Benchmarks/Stanford/Quicksort, 0.0363, 0.0395, 0.0364,0.0364, 0.0381, 0.0452, 0.0362,0.0381, 0.0362, 0.0363, 0.0362,0.0362
SingleSource/Benchmarks/Stanford/RealMM, 0.0491, 0.0491, 0.0491,0.0491, 0.0492, 0.0492, 0.0491,0.0492, 0.0489, 0.0490, 0.0490,0.049
SingleSource/Benchmarks/Stanford/Towers, 0.0470, 0.0519, 0.0470,0.047, 0.0515, 0.0505, 0.0469,0.0505, 0.0467, 0.0469, 0.0469,0.0469
SingleSource/Benchmarks/Stanford/Treesort, 0.0373, 0.0372, 0.0373,0.0373, 0.0371, 0.0372, 0.0372,0.0372, 0.0372, 0.0372, 0.0373,0.0372
SingleSource/Regression/C/2004-08-12-InlinerAndAllocas, 0.0185, 0.0185, 0.0186,0.0185, 0.0185, 0.0184, 0.0184,0.0184, 0.0185, 0.0184, 0.0185,0.0185
SingleSource/Regression/C/uint64_to_float, 0.0728, 0.0643, 0.0619,0.0643, 0.0830, 0.0772, 0.0821,0.0821, 0.0753, 0.0780, 0.0784,0.078
Total elapsed time,-,-,-,363.0672,-,-,-,363.9406000000003,-,-,-,362.2206999999998
Total failure,-,-,-,0,-,-,-,0,-,-,-,0
