Benchmarks,base-5.0,base-5.0,base-5.0,median,nocapture-5.0,nocapture-5.0,nocapture-5.0,median,Slowdown(%)
MultiSource/Benchmarks/DOE-ProxyApps-C++/miniFE/miniFE, 2.5495, 2.5492, 2.5478,2.5492, 2.6567, 2.6542, 2.6573,2.6567,4.21700925780637
SingleSource/Benchmarks/CoyoteBench/almabench, 0.0651, 0.0650, 0.0650,0.065, 0.0675, 0.0672, 0.0673,0.0673,3.5384615384615348
MultiSource/Benchmarks/Olden/mst/mst, 0.1169, 0.1164, 0.1165,0.1165, 0.1200, 0.1200, 0.1201,0.12,3.0042918454935563
SingleSource/Benchmarks/Misc/himenobmtxpa, 0.1703, 0.1699, 0.1699,0.1699, 0.1742, 0.1740, 0.1741,0.1741,2.4720423778693323
MultiSource/Benchmarks/DOE-ProxyApps-C/XSBench/XSBench, 0.3400, 0.3392, 0.3393,0.3393, 0.3444, 0.3443, 0.3442,0.3443,1.4736221632773328
MultiSource/Benchmarks/DOE-ProxyApps-C++/HPCCG/HPCCG, 1.3850, 1.3834, 1.3838,1.3838, 1.4030, 1.4046, 1.4037,1.4037,1.4380690851279132
SingleSource/Benchmarks/Shootout/nestedloop, 0.0230, 0.0229, 0.0229,0.0229, 0.0232, 0.0232, 0.0231,0.0232,1.3100436681222627
SingleSource/Benchmarks/Shootout/random, 0.0289, 0.0287, 0.0287,0.0287, 0.0290, 0.0290, 0.0289,0.029,1.0452961672474004
SingleSource/Benchmarks/Shootout/ackermann, 0.0223, 0.0222, 0.0221,0.0222, 0.0224, 0.0223, 0.0224,0.0224,0.9009009009008917
SingleSource/Benchmarks/Misc/fbench, 0.0525, 0.0525, 0.0524,0.0525, 0.0529, 0.0529, 0.0530,0.0529,0.7619047619047636
SingleSource/Benchmarks/Misc/salsa20, 0.0529, 0.0529, 0.0529,0.0529, 0.0533, 0.0532, 0.0533,0.0533,0.7561436672967714
SingleSource/Benchmarks/Misc/flops-2, 0.0270, 0.0269, 0.0269,0.0269, 0.0271, 0.0271, 0.0271,0.0271,0.743494423791824
SingleSource/Benchmarks/Misc/perlin, 0.0439, 0.0439, 0.0439,0.0439, 0.0442, 0.0442, 0.0443,0.0442,0.6833712984054774
SingleSource/Benchmarks/Shootout/methcall, 0.0303, 0.0304, 0.0303,0.0303, 0.0305, 0.0305, 0.0305,0.0305,0.6600660066006458
SingleSource/Benchmarks/BenchmarkGame/nsieve-bits, 0.0309, 0.0309, 0.0309,0.0309, 0.0311, 0.0311, 0.0311,0.0311,0.6472491909385036
MultiSource/Benchmarks/McCat/04-bisect/bisect, 0.1246, 0.1243, 0.1241,0.1243, 0.1251, 0.1250, 0.1252,0.1251,0.6436041834271933
SingleSource/Benchmarks/Misc/dt, 0.0313, 0.0312, 0.0312,0.0312, 0.0314, 0.0314, 0.0313,0.0314,0.6410256410256387
MultiSource/Benchmarks/DOE-ProxyApps-C/SimpleMOC/SimpleMOC, 0.8434, 0.8427, 0.8431,0.8431, 0.8482, 0.8482, 0.8479,0.8482,0.6049104495314817
SingleSource/Benchmarks/Shootout/ary3, 0.0333, 0.0332, 0.0333,0.0333, 0.0334, 0.0335, 0.0335,0.0335,0.6006006006005871
MultiSource/Benchmarks/MiBench/telecomm-FFT/telecomm-fft, 0.1356, 0.1355, 0.1355,0.1355, 0.1364, 0.1363, 0.1362,0.1363,0.5904059040590326
MultiSource/Benchmarks/Olden/treeadd/treeadd, 0.0521, 0.0520, 0.0520,0.052, 0.0521, 0.0523, 0.0523,0.0523,0.5769230769230749
SingleSource/Benchmarks/BenchmarkGame/spectral-norm, 0.0534, 0.0533, 0.0533,0.0533, 0.0536, 0.0536, 0.0535,0.0536,0.5628517823639712
SingleSource/Benchmarks/Shootout/objinst, 0.0363, 0.0361, 0.0361,0.0361, 0.0363, 0.0363, 0.0363,0.0363,0.5540166204986097
MultiSource/Applications/spiff/spiff, 0.7330, 0.7287, 0.7309,0.7309, 0.7319, 0.7380, 0.7349,0.7349,0.5472704884389223
SingleSource/Regression/C/2004-08-12-InlinerAndAllocas, 0.0185, 0.0184, 0.0183,0.0184, 0.0185, 0.0184, 0.0185,0.0185,0.5434782608695565
SingleSource/Benchmarks/Shootout/fib2, 0.0187, 0.0185, 0.0186,0.0186, 0.0187, 0.0187, 0.0187,0.0187,0.5376344086021723
MultiSource/Benchmarks/Olden/health/health, 0.1319, 0.1314, 0.1316,0.1316, 0.1321, 0.1325, 0.1323,0.1323,0.5319148936170359
SingleSource/Benchmarks/Shootout/heapsort, 0.0379, 0.0377, 0.0378,0.0378, 0.0381, 0.0380, 0.0379,0.038,0.5291005291005346
SingleSource/Benchmarks/Polybench/linear-algebra/kernels/atax/atax, 0.0788, 0.0786, 0.0786,0.0786, 0.0790, 0.0787, 0.0790,0.079,0.5089058524172962
SingleSource/Benchmarks/Dhrystone/dry, 0.0397, 0.0397, 0.0398,0.0397, 0.0398, 0.0399, 0.0399,0.0399,0.5037783375314797
MultiSource/Benchmarks/MiBench/automotive-basicmath/automotive-basicmath, 0.1392, 0.1388, 0.1390,0.139, 0.1398, 0.1397, 0.1396,0.1397,0.5035971223021463
SingleSource/Benchmarks/Misc/pi, 0.0199, 0.0199, 0.0199,0.0199, 0.0200, 0.0200, 0.0199,0.02,0.5025125628140614
MultiSource/Benchmarks/Olden/power/power, 0.1233, 0.1234, 0.1232,0.1233, 0.1239, 0.1239, 0.1238,0.1239,0.48661800486617945
MultiSource/Benchmarks/BitBench/uuencode/uuencode, 0.0417, 0.0415, 0.0416,0.0416, 0.0419, 0.0418, 0.0418,0.0418,0.48076923076922906
MultiSource/Benchmarks/NPB-serial/is/is, 0.0631, 0.0630, 0.0630,0.063, 0.0632, 0.0633, 0.0633,0.0633,0.4761904761904745
SingleSource/Benchmarks/McGill/queens, 0.0436, 0.0434, 0.0434,0.0434, 0.0437, 0.0436, 0.0436,0.0436,0.4608294930875445
SingleSource/Benchmarks/Polybench/stencils/jacobi-2d-imper/jacobi-2d-imper, 0.1113, 0.1111, 0.1110,0.1111, 0.1115, 0.1118, 0.1116,0.1116,0.4500450045004545
SingleSource/Benchmarks/Polybench/stencils/seidel-2d/seidel-2d, 0.0686, 0.0684, 0.0684,0.0684, 0.0686, 0.0687, 0.0687,0.0687,0.43859649122806044
MultiSource/Applications/sqlite3/sqlite3,14.5631,14.5803,14.5780,14.578,14.6419,14.6707,14.5672,14.6419,0.4383317327479874
MultiSource/Benchmarks/llubenchmark/llu, 0.0457, 0.0458, 0.0457,0.0457, 0.0459, 0.0459, 0.0459,0.0459,0.4376367614879806
MultiSource/Benchmarks/MiBench/consumer-lame/consumer-lame, 3.8825, 3.8817, 3.8816,3.8817, 3.8985, 3.8961, 3.8989,3.8985,0.43280006182857544
MultiSource/Benchmarks/mediabench/g721/g721encode/encode, 0.1883, 0.1881, 0.1881,0.1881, 0.1889, 0.1892, 0.1889,0.1889,0.4253056884635953
MultiSource/Benchmarks/VersaBench/8b10b/8b10b, 0.0708, 0.0705, 0.0706,0.0706, 0.0710, 0.0709, 0.0708,0.0709,0.4249291784702569
MultiSource/Benchmarks/SciMark2-C/scimark2, 0.3563, 0.3560, 0.3554,0.356, 0.3575, 0.3575, 0.3577,0.3575,0.4213483146067398
MultiSource/Benchmarks/Prolangs-C++/primes/primes, 0.0239, 0.0238, 0.0238,0.0238, 0.0238, 0.0239, 0.0239,0.0239,0.42016806722688926
SingleSource/Benchmarks/Misc/lowercase, 0.0242, 0.0241, 0.0241,0.0241, 0.0242, 0.0242, 0.0242,0.0242,0.4149377593360981
SingleSource/Benchmarks/Shootout/sieve, 0.0242, 0.0242, 0.0242,0.0242, 0.0243, 0.0243, 0.0243,0.0243,0.4132231404958553
MultiSource/Benchmarks/FreeBench/mason/mason, 0.0485, 0.0483, 0.0484,0.0484, 0.0485, 0.0486, 0.0486,0.0486,0.4132231404958553
MultiSource/Benchmarks/MiBench/automotive-bitcount/automotive-bitcount, 0.2447, 0.2441, 0.2445,0.2445, 0.2456, 0.2455, 0.2454,0.2455,0.4089979550102152
MultiSource/Benchmarks/Prolangs-C/gnugo/gnugo, 0.6955, 0.6939, 0.6938,0.6939, 0.6967, 0.6968, 0.6962,0.6967,0.4035163568237632
SingleSource/Benchmarks/Polybench/datamining/correlation/correlation, 0.0748, 0.0748, 0.0749,0.0748, 0.0752, 0.0751, 0.0750,0.0751,0.40106951871656804
SingleSource/Benchmarks/Shootout/hash, 0.0500, 0.0499, 0.0499,0.0499, 0.0501, 0.0500, 0.0501,0.0501,0.4008016032064132
SingleSource/Benchmarks/McGill/misr, 0.0520, 0.0519, 0.0520,0.052, 0.0522, 0.0522, 0.0522,0.0522,0.38461538461540545
SingleSource/Benchmarks/Shootout/strcat, 0.0262, 0.0261, 0.0261,0.0261, 0.0262, 0.0262, 0.0261,0.0262,0.3831417624521105
MultiSource/Benchmarks/TSVC/IndirectAddressing-dbl/IndirectAddressing-dbl, 1.9796, 1.9766, 1.9812,1.9796, 1.9881, 1.9871, 1.9850,1.9871,0.3788644170539479
SingleSource/Benchmarks/Misc/flops-4, 0.0264, 0.0262, 0.0264,0.0264, 0.0265, 0.0265, 0.0265,0.0265,0.37878787878786735
MultiSource/Benchmarks/MiBench/telecomm-adpcm/telecomm-adpcm, 0.0531, 0.0530, 0.0529,0.053, 0.0532, 0.0533, 0.0531,0.0532,0.37735849056603765
SingleSource/Benchmarks/Misc/flops-6, 0.0270, 0.0269, 0.0269,0.0269, 0.0270, 0.0271, 0.0270,0.027,0.3717472118959009
SingleSource/Benchmarks/Misc/flops-8, 0.0271, 0.0270, 0.0270,0.027, 0.0271, 0.0271, 0.0270,0.0271,0.37037037037037646
SingleSource/Benchmarks/Misc/flops-5, 0.0271, 0.0269, 0.0270,0.027, 0.0271, 0.0271, 0.0270,0.0271,0.37037037037037646
MultiSource/Applications/viterbi/viterbi, 0.1623, 0.1620, 0.1622,0.1622, 0.1629, 0.1626, 0.1628,0.1628,0.36991368680641123
SingleSource/Benchmarks/BenchmarkGame/puzzle, 0.0544, 0.0543, 0.0542,0.0543, 0.0544, 0.0545, 0.0545,0.0545,0.36832412523020164
SingleSource/Benchmarks/Stanford/Puzzle, 0.1087, 0.1087, 0.1086,0.1087, 0.1091, 0.1089, 0.1092,0.1091,0.36798528058876734
MultiSource/Benchmarks/Fhourstones-3.1/fhourstones3.1, 0.1146, 0.1145, 0.1144,0.1145, 0.1149, 0.1147, 0.1151,0.1149,0.3493449781659441
MultiSource/Benchmarks/Prolangs-C++/life/life, 0.0581, 0.0581, 0.0581,0.0581, 0.0583, 0.0584, 0.0583,0.0583,0.344234079173833
SingleSource/Benchmarks/Polybench/linear-algebra/solvers/lu/lu, 0.0884, 0.0881, 0.0880,0.0881, 0.0883, 0.0884, 0.0884,0.0884,0.34052213393871433
MultiSource/Applications/ALAC/decode/alacconvert-decode, 0.9340, 0.9356, 0.9337,0.934, 0.9347, 0.9383, 0.9371,0.9371,0.33190578158457384
MultiSource/Benchmarks/Olden/bisort/bisort, 0.0609, 0.0609, 0.0608,0.0609, 0.0609, 0.0611, 0.0611,0.0611,0.3284072249589487
MultiSource/Benchmarks/ASC_Sequoia/CrystalMk/CrystalMk, 0.2137, 0.2132, 0.2131,0.2132, 0.2139, 0.2137, 0.2139,0.2139,0.3283302063789906
SingleSource/Benchmarks/Polybench/linear-algebra/kernels/trisolv/trisolv, 0.0621, 0.0619, 0.0620,0.062, 0.0621, 0.0622, 0.0623,0.0622,0.3225806451612856
SingleSource/Benchmarks/Misc/ReedSolomon, 0.1860, 0.1862, 0.1860,0.186, 0.1866, 0.1866, 0.1869,0.1866,0.3225806451612856
SingleSource/Benchmarks/Polybench/linear-algebra/kernels/doitgen/doitgen, 0.0958, 0.0958, 0.0959,0.0958, 0.0962, 0.0960, 0.0961,0.0961,0.31315240083509277
SingleSource/Benchmarks/Stanford/Bubblesort, 0.0327, 0.0326, 0.0326,0.0326, 0.0327, 0.0328, 0.0327,0.0327,0.30674846625766694
SingleSource/Benchmarks/Misc/ffbench, 0.0659, 0.0657, 0.0658,0.0658, 0.0659, 0.0660, 0.0660,0.066,0.3039513677811634
MultiSource/Benchmarks/McCat/17-bintr/bintr, 0.0671, 0.0669, 0.0668,0.0669, 0.0672, 0.0671, 0.0671,0.0671,0.2989536621823774
MultiSource/Benchmarks/MiBench/telecomm-CRC32/telecomm-CRC32, 0.0339, 0.0338, 0.0338,0.0338, 0.0339, 0.0339, 0.0340,0.0339,0.2958579881656931
SingleSource/Benchmarks/BenchmarkGame/n-body, 0.0696, 0.0695, 0.0695,0.0695, 0.0697, 0.0698, 0.0697,0.0697,0.2877697841726423
MultiSource/Benchmarks/Olden/bh/bh, 0.2495, 0.2497, 0.2499,0.2497, 0.2507, 0.2504, 0.2501,0.2504,0.2803364036844336
MultiSource/Benchmarks/mediabench/gsm/toast/toast, 1.0007, 0.9998, 0.9996,0.9998, 1.0021, 1.0032, 1.0025,1.0025,0.2700540108021565
MultiSource/Benchmarks/Trimaran/netbench-crc/netbench-crc, 0.0745, 0.0741, 0.0744,0.0744, 0.0742, 0.0746, 0.0746,0.0746,0.26881720430107503
MultiSource/Benchmarks/MallocBench/cfrac/cfrac, 0.8411, 0.8453, 0.8361,0.8411, 0.8442, 0.8433, 0.8385,0.8433,0.26156223992392924
MultiSource/Benchmarks/McCat/08-main/main, 0.2318, 0.2318, 0.2318,0.2318, 0.2324, 0.2325, 0.2322,0.2324,0.2588438308886998
SingleSource/Benchmarks/Shootout-C++/ary3, 0.1576, 0.1582, 0.1576,0.1576, 0.1574, 0.1584, 0.1580,0.158,0.2538071065989911
MultiSource/Benchmarks/MiBench/network-dijkstra/network-dijkstra, 0.0408, 0.0406, 0.0407,0.0407, 0.0408, 0.0408, 0.0406,0.0408,0.24570024570025328
SingleSource/Benchmarks/Polybench/datamining/covariance/covariance, 0.0825, 0.0824, 0.0824,0.0824, 0.0827, 0.0826, 0.0826,0.0826,0.24271844660195274
MultiSource/Benchmarks/BitBench/drop3/drop3, 0.0417, 0.0417, 0.0416,0.0417, 0.0418, 0.0418, 0.0418,0.0418,0.23980815347721673
SingleSource/Benchmarks/Dhrystone/fldry, 0.0428, 0.0427, 0.0428,0.0428, 0.0429, 0.0430, 0.0429,0.0429,0.23364485981309802
SingleSource/Benchmarks/Linpack/linpack-pc, 0.3047, 0.3042, 0.3043,0.3043, 0.3050, 0.3049, 0.3053,0.305,0.23003614853762677
MultiSource/Benchmarks/McCat/12-IOtest/iotest, 0.0888, 0.0889, 0.0887,0.0888, 0.0890, 0.0890, 0.0888,0.089,0.22522522522521182
MultiSource/Applications/d/make_dparser, 2.5747, 2.5765, 2.5755,2.5755, 2.5720, 2.5813, 2.5839,2.5813,0.2251989904872964
MultiSource/Benchmarks/ASCI_Purple/SMG2000/smg2000, 5.5712, 5.5506, 5.5630,5.563, 5.5900, 5.5702, 5.5747,5.5747,0.21031817364731697
MultiSource/Benchmarks/Trimaran/enc-rc4/enc-rc4, 0.0484, 0.0484, 0.0483,0.0484, 0.0485, 0.0485, 0.0485,0.0485,0.20661157024794985
SingleSource/Benchmarks/Stanford/RealMM, 0.0489, 0.0490, 0.0489,0.0489, 0.0489, 0.0490, 0.0490,0.049,0.2044989775051187
SingleSource/Benchmarks/SmallPT/smallpt, 0.0982, 0.0983, 0.0983,0.0983, 0.0985, 0.0985, 0.0983,0.0985,0.20345879959309254
MultiSource/Benchmarks/VersaBench/bmm/bmm, 0.0496, 0.0495, 0.0494,0.0495, 0.0497, 0.0496, 0.0496,0.0496,0.20202020202020332
SingleSource/Benchmarks/Adobe-C++/simple_types_constant_folding, 2.4279, 2.4322, 2.4298,2.4298, 2.4347, 2.4300, 2.4395,2.4347,0.20166268828709644
MultiSource/Benchmarks/MallocBench/espresso/espresso, 4.5032, 4.5013, 4.5052,4.5032, 4.5117, 4.5120, 4.5151,4.512,0.1954165926452367
MultiSource/Benchmarks/BitBench/five11/five11, 0.0525, 0.0525, 0.0524,0.0525, 0.0526, 0.0527, 0.0526,0.0526,0.19047619047618536
MultiSource/Benchmarks/DOE-ProxyApps-C/Pathfinder/PathFinder, 0.7995, 0.7965, 0.7953,0.7965, 0.7993, 0.7965, 0.7980,0.798,0.18832391713747842
MultiSource/Benchmarks/mediabench/adpcm/rawcaudio/rawcaudio, 0.0534, 0.0533, 0.0533,0.0533, 0.0534, 0.0535, 0.0534,0.0534,0.18761726078799779
MultiSource/Benchmarks/MallocBench/gs/gs, 3.6434, 3.6384, 3.6404,3.6404, 3.6513, 3.6471, 3.6456,3.6471,0.18404570926271457
SingleSource/Benchmarks/Shootout-C++/matrix, 0.1832, 0.1827, 0.1827,0.1827, 0.1830, 0.1824, 0.1830,0.183,0.16420361247946325
SingleSource/Benchmarks/Stanford/Oscar, 0.0613, 0.0611, 0.0612,0.0612, 0.0613, 0.0612, 0.0613,0.0613,0.16339869281045694
SingleSource/Benchmarks/Shootout-C++/strcat, 0.1249, 0.1253, 0.1247,0.1249, 0.1251, 0.1252, 0.1249,0.1251,0.16012810248198228
MultiSource/Benchmarks/McCat/18-imp/imp, 0.3218, 0.3221, 0.3221,0.3221, 0.3226, 0.3221, 0.3227,0.3226,0.1552312946289991
SingleSource/Benchmarks/Misc/whetstone, 0.0660, 0.0660, 0.0658,0.066, 0.0661, 0.0660, 0.0661,0.0661,0.15151515151514694
MultiSource/Benchmarks/TSVC/Symbolics-dbl/Symbolics-dbl, 1.9919, 1.9862, 1.9879,1.9879, 1.9938, 1.9885, 1.9909,1.9909,0.15091302379395266
MultiSource/Benchmarks/TSVC/ControlFlow-dbl/ControlFlow-dbl, 2.1298, 2.1484, 2.1293,2.1298, 2.1328, 2.1331, 2.1329,2.1329,0.14555357310546135
MultiSource/Benchmarks/7zip/7zip-benchmark,33.4213,33.4405,33.4126,33.4213,33.4657,33.4691,33.4694,33.4691,0.14302256345501974
SingleSource/Benchmarks/Polybench/linear-algebra/kernels/trmm/trmm, 0.0710, 0.0710, 0.0710,0.071, 0.0711, 0.0712, 0.0711,0.0711,0.14084507042253502
SingleSource/Benchmarks/Polybench/linear-algebra/kernels/bicg/bicg, 0.0774, 0.0773, 0.0772,0.0773, 0.0774, 0.0773, 0.0774,0.0774,0.1293661060802087
SingleSource/Benchmarks/Polybench/stencils/jacobi-1d-imper/jacobi-1d-imper, 0.0824, 0.0825, 0.0825,0.0825, 0.0826, 0.0827, 0.0826,0.0826,0.12121212121212199
MultiSource/Benchmarks/McCat/05-eks/eks, 0.5082, 0.5066, 0.5075,0.5075, 0.5082, 0.5076, 0.5081,0.5081,0.1182266009852384
MultiSource/Benchmarks/McCat/03-testtrie/testtrie, 0.0870, 0.0868, 0.0869,0.0869, 0.0870, 0.0871, 0.0870,0.087,0.11507479861909697
MultiSource/Benchmarks/FreeBench/neural/neural, 0.1741, 0.1742, 0.1744,0.1742, 0.1744, 0.1744, 0.1740,0.1744,0.11481056257176547
MultiSource/Applications/ALAC/encode/alacconvert-encode, 0.9229, 0.9235, 0.9222,0.9229, 0.9232, 0.9243, 0.9239,0.9239,0.10835410120273448
SingleSource/Benchmarks/Polybench/linear-algebra/solvers/gramschmidt/gramschmidt, 0.1007, 0.1008, 0.1006,0.1007, 0.1008, 0.1007, 0.1008,0.1008,0.09930486593843213
MultiSource/Benchmarks/VersaBench/ecbdes/ecbdes, 0.2053, 0.2054, 0.2052,0.2053, 0.2055, 0.2055, 0.2057,0.2055,0.09741841207986379
MultiSource/Benchmarks/MiBench/security-sha/security-sha, 0.1145, 0.1144, 0.1141,0.1144, 0.1145, 0.1144, 0.1146,0.1145,0.08741258741258306
MultiSource/Benchmarks/Prolangs-C/bison/mybison, 1.5772, 1.5772, 1.5762,1.5772, 1.5766, 1.5785, 1.5785,1.5785,0.08242454983515834
SingleSource/Benchmarks/Polybench/stencils/fdtd-apml/fdtd-apml, 0.1299, 0.1298, 0.1298,0.1298, 0.1299, 0.1297, 0.1299,0.1299,0.07704160246533309
SingleSource/Benchmarks/Adobe-C++/simple_types_loop_invariant, 1.9672, 1.9705, 1.9637,1.9672, 1.9682, 1.9641, 1.9714,1.9682,0.05083367222447066
MultiSource/Benchmarks/nbench/nbench, 1.1022, 1.1048, 1.1034,1.1034, 1.1039, 1.1036, 1.1046,1.1039,0.04531448250861825
MultiSource/Benchmarks/PAQ8p/paq8p, 1.8882, 1.8919, 1.8950,1.8919, 1.8811, 1.8924, 1.8973,1.8924,0.026428458163763047
MultiSource/Applications/ClamAV/clamscan,14.2364,14.2558,14.2457,14.2457,14.2395,14.2562,14.2489,14.2489,0.02246291863510219
MultiSource/Benchmarks/TSVC/Reductions-dbl/Reductions-dbl, 2.0416, 2.0413, 2.0388,2.0413, 2.0424, 2.0416, 2.0408,2.0416,0.014696516925472025
MultiSource/Benchmarks/MiBench/consumer-jpeg/consumer-jpeg, 4.3415, 4.3409, 4.3388,4.3409, 4.3382, 4.3449, 4.3413,4.3413,0.009214678983626712
MultiSource/Benchmarks/TSVC/GlobalDataFlow-dbl/GlobalDataFlow-dbl, 2.0243, 2.0231, 2.0247,2.0243, 2.0244, 2.0230, 2.0251,2.0244,0.004939979252083226
SingleSource/Benchmarks/Stanford/Treesort, 0.0372, 0.0372, 0.0372,0.0372, 0.0372, 0.0372, 0.0373,0.0372,0.0
SingleSource/Benchmarks/Shootout/lists, 0.0657, 0.0655, 0.0656,0.0656, 0.0656, 0.0656, 0.0655,0.0656,0.0
SingleSource/Benchmarks/Polybench/stencils/fdtd-2d/fdtd-2d, 0.1368, 0.1369, 0.1368,0.1368, 0.1369, 0.1368, 0.1367,0.1368,0.0
SingleSource/Benchmarks/Polybench/linear-algebra/kernels/syr2k/syr2k, 0.0768, 0.0768, 0.0769,0.0768, 0.0768, 0.0768, 0.0767,0.0768,0.0
SingleSource/Benchmarks/Polybench/linear-algebra/kernels/symm/symm, 0.0756, 0.0755, 0.0757,0.0756, 0.0754, 0.0761, 0.0756,0.0756,0.0
SingleSource/Benchmarks/Polybench/linear-algebra/kernels/gemver/gemver, 0.0894, 0.0895, 0.0893,0.0894, 0.0895, 0.0893, 0.0894,0.0894,0.0
SingleSource/Benchmarks/Misc/revertBits, 0.0244, 0.0244, 0.0243,0.0244, 0.0244, 0.0245, 0.0244,0.0244,0.0
SingleSource/Benchmarks/Misc/matmul_f64_4x4, 0.0272, 0.0271, 0.0272,0.0272, 0.0272, 0.0273, 0.0272,0.0272,0.0
SingleSource/Benchmarks/Misc/fp-convert, 0.0290, 0.0290, 0.0289,0.029, 0.0290, 0.0291, 0.0290,0.029,0.0
SingleSource/Benchmarks/Misc/flops-7, 0.0258, 0.0257, 0.0258,0.0258, 0.0259, 0.0258, 0.0258,0.0258,0.0
SingleSource/Benchmarks/Misc/flops-3, 0.0259, 0.0258, 0.0259,0.0259, 0.0261, 0.0259, 0.0259,0.0259,0.0
SingleSource/Benchmarks/Misc/flops-1, 0.0261, 0.0260, 0.0261,0.0261, 0.0262, 0.0261, 0.0261,0.0261,0.0
SingleSource/Benchmarks/Misc/flops, 0.0757, 0.0756, 0.0757,0.0757, 0.0757, 0.0757, 0.0758,0.0757,0.0
SingleSource/Benchmarks/Misc-C++/mandel-text, 0.0231, 0.0230, 0.0230,0.023, 0.0230, 0.0230, 0.0230,0.023,0.0
SingleSource/Benchmarks/BenchmarkGame/fannkuch, 0.0504, 0.0502, 0.0502,0.0502, 0.0502, 0.0502, 0.0502,0.0502,0.0
MultiSource/Benchmarks/mediabench/adpcm/rawdaudio/rawdaudio, 0.0532, 0.0531, 0.0532,0.0532, 0.0532, 0.0533, 0.0532,0.0532,0.0
MultiSource/Benchmarks/TSVC/Expansion-flt/Expansion-flt, 1.6988, 1.7002, 1.7011,1.7002, 1.7002, 1.6964, 1.7007,1.7002,0.0
MultiSource/Benchmarks/Prolangs-C++/ocean/ocean, 0.1064, 0.1064, 0.1064,0.1064, 0.1064, 0.1064, 0.1064,0.1064,0.0
MultiSource/Benchmarks/Olden/perimeter/perimeter, 0.0742, 0.0742, 0.0741,0.0742, 0.0741, 0.0742, 0.0742,0.0742,0.0
MultiSource/Benchmarks/FreeBench/distray/distray, 0.0919, 0.0918, 0.0918,0.0918, 0.0918, 0.0920, 0.0918,0.0918,0.0
MultiSource/Benchmarks/BitBench/uudecode/uudecode, 0.0425, 0.0424, 0.0423,0.0424, 0.0425, 0.0424, 0.0424,0.0424,0.0
MultiSource/Benchmarks/TSVC/LoopRestructuring-dbl/LoopRestructuring-dbl, 2.0043, 2.0127, 2.0058,2.0058, 2.0057, 2.0099, 2.0043,2.0057,-0.004985541928392845
MultiSource/Benchmarks/TSVC/GlobalDataFlow-flt/GlobalDataFlow-flt, 1.6937, 1.6968, 1.6931,1.6937, 1.7003, 1.6881, 1.6932,1.6932,-0.02952116667650495
MultiSource/Benchmarks/TSVC/LoopRerolling-dbl/LoopRerolling-dbl, 1.9593, 1.9452, 1.9558,1.9558, 1.9665, 1.9534, 1.9552,1.9552,-0.030677983433891054
MultiSource/Benchmarks/TSVC/StatementReordering-dbl/StatementReordering-dbl, 1.9611, 1.9493, 1.9503,1.9503, 1.9497, 1.9480, 1.9497,1.9497,-0.03076449776957535
MultiSource/Benchmarks/TSVC/IndirectAddressing-flt/IndirectAddressing-flt, 1.6493, 1.6465, 1.6459,1.6465, 1.6539, 1.6420, 1.6457,1.6457,-0.04858791375645932
MultiSource/Benchmarks/TSVC/Reductions-flt/Reductions-flt, 1.7099, 1.7063, 1.7110,1.7099, 1.7090, 1.6948, 1.7094,1.709,-0.052634656997474494
MultiSource/Benchmarks/Ptrdist/bc/bc, 0.9888, 0.9885, 0.9891,0.9888, 0.9881, 0.9882, 0.9877,0.9881,-0.07079288025890751
MultiSource/Benchmarks/FreeBench/pifft/pifft, 0.9149, 0.9150, 0.9157,0.915, 0.9137, 0.9143, 0.9156,0.9143,-0.07650273224043547
SingleSource/Benchmarks/Shootout-C++/heapsort, 0.1311, 0.1307, 0.1307,0.1307, 0.1306, 0.1305, 0.1310,0.1306,-0.07651109410865553
MultiSource/Benchmarks/mediabench/mpeg2/mpeg2dec/mpeg2decode, 1.3002, 1.3075, 1.3033,1.3033, 1.3012, 1.3023, 1.3065,1.3023,-0.07672830507172712
SingleSource/Benchmarks/Shootout-C++/ackermann, 0.1161, 0.1165, 0.1161,0.1161, 0.1160, 0.1164, 0.1160,0.116,-0.08613264427217437
MultiSource/Benchmarks/TSVC/LinearDependence-flt/LinearDependence-flt, 1.7305, 1.7282, 1.7243,1.7282, 1.7238, 1.7294, 1.7267,1.7267,-0.08679550977895856
SingleSource/Benchmarks/Shootout-C++/fibo, 0.1146, 0.1146, 0.1142,0.1146, 0.1143, 0.1146, 0.1145,0.1145,-0.08726003490400203
MultiSource/Benchmarks/TSVC/Searching-flt/Searching-flt, 1.6016, 1.6040, 1.6013,1.6016, 1.6039, 1.6001, 1.5988,1.6001,-0.09365634365633424
MultiSource/Benchmarks/TSVC/ControlLoops-flt/ControlLoops-flt, 1.7054, 1.7024, 1.7019,1.7024, 1.7008, 1.7003, 1.7022,1.7008,-0.09398496240600185
MultiSource/Benchmarks/Ptrdist/ft/ft, 0.2004, 0.2004, 0.2006,0.2004, 0.2002, 0.2003, 0.1998,0.2002,-0.09980039920159944
MultiSource/Benchmarks/Trimaran/netbench-url/netbench-url, 0.1999, 0.1992, 0.2000,0.1999, 0.1993, 0.1997, 0.1998,0.1997,-0.10005002501251026
MultiSource/Benchmarks/ASC_Sequoia/IRSmk/IRSmk, 0.0989, 0.0989, 0.0987,0.0989, 0.0988, 0.0989, 0.0985,0.0988,-0.10111223458039165
MultiSource/Benchmarks/DOE-ProxyApps-C/miniAMR/miniAMR, 1.3190, 1.3192, 1.3193,1.3192, 1.3178, 1.3177, 1.3179,1.3178,-0.10612492419647124
SingleSource/Benchmarks/Polybench/stencils/adi/adi, 0.0889, 0.0888, 0.0886,0.0888, 0.0885, 0.0887, 0.0887,0.0887,-0.11261261261261701
MultiSource/Benchmarks/Ptrdist/yacr2/yacr2, 0.5918, 0.5915, 0.5910,0.5915, 0.5904, 0.5908, 0.5911,0.5908,-0.11834319526627946
MultiSource/Benchmarks/DOE-ProxyApps-C++/PENNANT/PENNANT, 4.0357, 4.0390, 4.0341,4.0357, 4.0298, 4.0309, 4.0309,4.0309,-0.11893847411850178
SingleSource/Benchmarks/Shootout-C++/ary2, 0.1558, 0.1562, 0.1557,0.1558, 0.1556, 0.1550, 0.1556,0.1556,-0.12836970474968679
MultiSource/Benchmarks/TSVC/Expansion-dbl/Expansion-dbl, 2.0348, 2.0361, 2.0358,2.0358, 2.0336, 2.0331, 2.0301,2.0331,-0.13262599469495706
SingleSource/Benchmarks/Polybench/linear-algebra/kernels/syrk/syrk, 0.0753, 0.0752, 0.0751,0.0752, 0.0752, 0.0751, 0.0751,0.0751,-0.13297872340426453
MultiSource/Applications/JM/lencod/lencod,14.6309,14.6229,14.6109,14.6229,14.5992,14.6030,14.6095,14.603,-0.1360879168974649
MultiSource/Benchmarks/Bullet/bullet,22.7947,22.7656,22.7647,22.7656,22.7094,22.7311,22.7318,22.7311,-0.15154443546402385
MultiSource/Benchmarks/TSVC/Recurrences-dbl/Recurrences-dbl, 1.9472, 1.9529, 1.9489,1.9489, 1.9459, 1.9437, 1.9463,1.9459,-0.15393298783930032
MultiSource/Benchmarks/MiBench/telecomm-gsm/telecomm-gsm, 1.0120, 1.0060, 1.0114,1.0114, 1.0086, 1.0119, 1.0098,1.0098,-0.15819655922484355
MultiSource/Benchmarks/Trimaran/enc-pc1/enc-pc1, 0.0633, 0.0631, 0.0632,0.0632, 0.0631, 0.0631, 0.0632,0.0631,-0.15822784810126667
SingleSource/Benchmarks/Shootout-C++/random, 0.1243, 0.1242, 0.1241,0.1242, 0.1246, 0.1240, 0.1240,0.124,-0.16103059581320522
SingleSource/Benchmarks/McGill/chomp, 0.1844, 0.1847, 0.1847,0.1847, 0.1844, 0.1839, 0.1846,0.1844,-0.16242555495397104
MultiSource/Benchmarks/TSVC/InductionVariable-flt/InductionVariable-flt, 1.6721, 1.6716, 1.6733,1.6721, 1.6705, 1.6692, 1.6680,1.6692,-0.1734346031935785
MultiSource/Benchmarks/mediabench/jpeg/jpeg-6a/cjpeg, 4.3914, 4.3910, 4.3876,4.391, 4.3797, 4.3866, 4.3830,4.383,-0.18219084491004622
SingleSource/Benchmarks/Misc-C++/Large/sphereflake, 0.2193, 0.2189, 0.2191,0.2191, 0.2186, 0.2187, 0.2190,0.2187,-0.18256503879506836
SingleSource/Benchmarks/Adobe-C++/loop_unroll, 4.2995, 4.3144, 4.3039,4.3039, 4.2990, 4.2952, 4.2960,4.296,-0.18355445061454256
MultiSource/Benchmarks/TSVC/Searching-dbl/Searching-dbl, 1.9374, 1.9364, 1.9347,1.9364, 1.9353, 1.9317, 1.9327,1.9327,-0.19107622392067203
SingleSource/Benchmarks/Polybench/medley/reg_detect/reg_detect, 0.4178, 0.4181, 0.4177,0.4178, 0.4168, 0.4177, 0.4170,0.417,-0.19147917663954184
SingleSource/Benchmarks/Stanford/FloatMM, 0.0518, 0.0518, 0.0518,0.0518, 0.0518, 0.0517, 0.0517,0.0517,-0.19305019305018156
MultiSource/Benchmarks/TSVC/LoopRestructuring-flt/LoopRestructuring-flt, 1.6725, 1.6705, 1.6781,1.6725, 1.6709, 1.6692, 1.6677,1.6692,-0.19730941704035887
MultiSource/Benchmarks/Ptrdist/anagram/anagram, 0.0981, 0.0980, 0.0979,0.098, 0.0980, 0.0978, 0.0978,0.0978,-0.20408163265306367
MultiSource/Benchmarks/TSVC/StatementReordering-flt/StatementReordering-flt, 1.6146, 1.6241, 1.6141,1.6146, 1.6113, 1.6108, 1.6244,1.6113,-0.20438498699368868
MultiSource/Benchmarks/FreeBench/fourinarow/fourinarow, 0.3345, 0.3341, 0.3345,0.3345, 0.3338, 0.3338, 0.3346,0.3338,-0.20926756352765974
MultiSource/Benchmarks/Ptrdist/ks/ks, 0.1413, 0.1414, 0.1410,0.1413, 0.1414, 0.1410, 0.1410,0.141,-0.2123142250530896
MultiSource/Benchmarks/sim/sim, 0.2807, 0.2811, 0.2806,0.2807, 0.2801, 0.2797, 0.2806,0.2801,-0.21375133594584428
MultiSource/Benchmarks/DOE-ProxyApps-C/miniGMG/miniGMG, 0.9584, 0.9580, 0.9586,0.9584, 0.9563, 0.9570, 0.9560,0.9563,-0.21911519198664076
SingleSource/Benchmarks/Polybench/linear-algebra/kernels/cholesky/cholesky, 0.0912, 0.0910, 0.0908,0.091, 0.0908, 0.0908, 0.0906,0.0908,-0.2197802197802079
SingleSource/Benchmarks/Stanford/Queens, 0.0434, 0.0433, 0.0434,0.0434, 0.0433, 0.0434, 0.0433,0.0433,-0.23041474654378336
SingleSource/Benchmarks/Polybench/linear-algebra/solvers/durbin/durbin, 0.0869, 0.0867, 0.0868,0.0868, 0.0866, 0.0867, 0.0866,0.0866,-0.23041474654378336
MultiSource/Applications/sgefa/sgefa, 0.3836, 0.3836, 0.3830,0.3836, 0.3826, 0.3827, 0.3830,0.3827,-0.2346193952033393
MultiSource/Benchmarks/Olden/em3d/em3d, 0.1699, 0.1693, 0.1695,0.1695, 0.1690, 0.1692, 0.1691,0.1691,-0.23598820058997605
MultiSource/Applications/siod/siod, 1.9353, 1.9376, 1.9455,1.9376, 1.9275, 1.9330, 1.9336,1.933,-0.23740710156894274
MultiSource/Applications/SIBsim4/SIBsim4, 1.1360, 1.1361, 1.1358,1.136, 1.1320, 1.1333, 1.1338,1.1333,-0.2376760563380209
MultiSource/Benchmarks/TSVC/LoopRerolling-flt/LoopRerolling-flt, 1.6242, 1.6263, 1.6198,1.6242, 1.6203, 1.6248, 1.6177,1.6203,-0.24011821204285022
SingleSource/Benchmarks/Shootout-C++/methcall, 0.1245, 0.1246, 0.1245,0.1245, 0.1243, 0.1242, 0.1238,0.1242,-0.24096385542168308
SingleSource/Benchmarks/Shootout/matrix, 0.0810, 0.0809, 0.0810,0.081, 0.0807, 0.0808, 0.0810,0.0808,-0.24691358024692134
MultiSource/Benchmarks/TSVC/LinearDependence-dbl/LinearDependence-dbl, 2.0478, 2.0549, 2.0516,2.0516, 2.0470, 2.0435, 2.0465,2.0465,-0.24858646909730053
MultiSource/Benchmarks/Trimaran/enc-3des/enc-3des, 0.2373, 0.2374, 0.2369,0.2373, 0.2366, 0.2368, 0.2367,0.2367,-0.25284450063212116
MultiSource/Benchmarks/TSVC/Recurrences-flt/Recurrences-flt, 1.6142, 1.6137, 1.6142,1.6142, 1.6132, 1.6100, 1.6097,1.61,-0.2601908065914982
MultiSource/Applications/oggenc/oggenc, 4.8087, 4.7926, 4.8026,4.8026, 4.7888, 4.7956, 4.7898,4.7898,-0.266522300420613
SingleSource/Benchmarks/Polybench/linear-algebra/solvers/dynprog/dynprog, 0.0717, 0.0718, 0.0719,0.0718, 0.0717, 0.0716, 0.0716,0.0716,-0.2785515320334331
SingleSource/Benchmarks/Misc/evalloop, 0.0351, 0.0351, 0.0351,0.0351, 0.0350, 0.0350, 0.0350,0.035,-0.2849002849002691
SingleSource/Benchmarks/Polybench/linear-algebra/kernels/gesummv/gesummv, 0.0659, 0.0659, 0.0660,0.0659, 0.0656, 0.0657, 0.0657,0.0657,-0.3034901365705722
MultiSource/Benchmarks/TSVC/Equivalencing-flt/Equivalencing-flt, 1.6673, 1.6681, 1.6667,1.6673, 1.6621, 1.6615, 1.6634,1.6621,-0.31188148503569213
MultiSource/Applications/hbd/hbd, 1.1683, 1.1715, 1.1674,1.1683, 1.1657, 1.1581, 1.1646,1.1646,-0.31669947787381636
MultiSource/Applications/JM/ldecod/ldecod, 6.2299, 6.2295, 6.2276,6.2295, 6.2096, 6.2069, 6.2151,6.2096,-0.3194477887470848
MultiSource/Benchmarks/TSVC/ControlFlow-flt/ControlFlow-flt, 1.7957, 1.8013, 1.7921,1.7957, 1.7898, 1.7899, 1.7984,1.7899,-0.32299381856657483
MultiSource/Benchmarks/Olden/tsp/tsp, 0.1229, 0.1225, 0.1226,0.1226, 0.1222, 0.1222, 0.1223,0.1222,-0.32626427406199365
MultiSource/Benchmarks/TSVC/Symbolics-flt/Symbolics-flt, 1.6556, 1.6603, 1.6529,1.6556, 1.6595, 1.6500, 1.6500,1.65,-0.3382459531287796
MultiSource/Benchmarks/Trimaran/enc-md5/enc-md5, 0.1472, 0.1471, 0.1471,0.1471, 0.1464, 0.1466, 0.1469,0.1466,-0.3399048266485405
MultiSource/Applications/kimwitu++/kc,10.9953,11.0139,11.0106,11.0106,10.9405,10.9880,10.9730,10.973,-0.34148911049352026
MultiSource/Benchmarks/Prolangs-C++/employ/employ, 0.1975, 0.1978, 0.1973,0.1975, 0.1968, 0.1967, 0.1971,0.1968,-0.35443037974683955
MultiSource/Benchmarks/Prolangs-C/agrep/agrep, 1.3141, 1.3183, 1.3114,1.3141, 1.3088, 1.3146, 1.3091,1.3091,-0.3804885472947328
MultiSource/Benchmarks/Prolangs-C++/simul/simul, 0.0514, 0.0511, 0.0516,0.0514, 0.0512, 0.0511, 0.0517,0.0512,-0.3891050583657574
MultiSource/Benchmarks/TSVC/InductionVariable-dbl/InductionVariable-dbl, 2.0148, 2.0120, 2.0116,2.012, 2.0041, 2.0043, 2.0033,2.0041,-0.39264413518885766
MultiSource/Applications/lua/lua, 3.1828, 3.1866, 3.1769,3.1828, 3.1686, 3.1699, 3.1717,3.1699,-0.4053035063465993
MultiSource/Benchmarks/TSVC/ControlLoops-dbl/ControlLoops-dbl, 2.0432, 2.0424, 2.0402,2.0424, 2.0444, 2.0308, 2.0339,2.0339,-0.41617704661184307
MultiSource/Benchmarks/Prolangs-C++/city/city, 0.8922, 0.8920, 0.8925,0.8922, 0.8878, 0.8884, 0.8885,0.8884,-0.42591347231563104
MultiSource/Benchmarks/TSVC/CrossingThresholds-flt/CrossingThresholds-flt, 1.6611, 1.6632, 1.6603,1.6611, 1.6509, 1.6580, 1.6540,1.654,-0.4274276082114281
MultiSource/Benchmarks/mafft/pairlocalalign, 8.6469, 8.6488, 8.6447,8.6469, 8.6048, 8.6079, 8.6110,8.6079,-0.4510286923637308
MultiSource/Benchmarks/DOE-ProxyApps-C++/CLAMR/CLAMR,17.8268,17.8052,17.8187,17.8187,17.7383,17.7495,17.7366,17.7383,-0.45121136783267124
MultiSource/Benchmarks/MiBench/consumer-typeset/consumer-typeset, 9.6940, 9.6975, 9.7000,9.6975, 9.6532, 9.6524, 9.6445,9.6524,-0.46506831657643355
MultiSource/Applications/hexxagon/hexxagon, 0.6553, 0.6579, 0.6558,0.6558, 0.6517, 0.6529, 0.6527,0.6527,-0.47270509301617913
SingleSource/Benchmarks/Misc/richards_benchmark, 0.0623, 0.0621, 0.0621,0.0621, 0.0617, 0.0618, 0.0620,0.0618,-0.48309178743961567
MultiSource/Applications/SPASS/SPASS,12.0595,12.0593,12.0540,12.0593,11.9950,11.9957,11.9901,11.995,-0.5331984443541549
SingleSource/Benchmarks/Shootout-C++/EH/except, 0.1293, 0.1294, 0.1296,0.1294, 0.1286, 0.1287, 0.1288,0.1287,-0.5409582689335224
SingleSource/Benchmarks/Shootout-C++/sieve, 0.1840, 0.1839, 0.1843,0.184, 0.1830, 0.1836, 0.1829,0.183,-0.5434782608695676
MultiSource/Benchmarks/TSVC/Equivalencing-dbl/Equivalencing-dbl, 2.0037, 2.0015, 2.0034,2.0034, 1.9965, 1.9922, 1.9909,1.9922,-0.5590496156533953
SingleSource/Benchmarks/Polybench/linear-algebra/kernels/mvt/mvt, 0.0800, 0.0799, 0.0800,0.08, 0.0794, 0.0796, 0.0795,0.0795,-0.6249999999999978
MultiSource/Benchmarks/TSVC/Packing-flt/Packing-flt, 1.6237, 1.6196, 1.6140,1.6196, 1.6107, 1.6056, 1.6073,1.6073,-0.7594467769819646
SingleSource/Benchmarks/Shootout-C++/ary, 0.1540, 0.1546, 0.1544,0.1544, 0.1532, 0.1532, 0.1538,0.1532,-0.7772020725388629
SingleSource/Benchmarks/CoyoteBench/lpbench, 0.1494, 0.1492, 0.1488,0.1492, 0.1478, 0.1479, 0.1483,0.1479,-0.871313672922247
MultiSource/Benchmarks/tramp3d-v4/tramp3d-v4,19.9512,19.9657,19.9427,19.9512,19.7321,19.8183,19.7770,19.777,-0.8731304382693761
MultiSource/Benchmarks/MiBench/automotive-susan/automotive-susan, 0.6331, 0.6383, 0.6404,0.6383, 0.6281, 0.6323, 0.6308,0.6308,-1.1749960833463802
SingleSource/Benchmarks/CoyoteBench/huffbench, 0.0837, 0.0836, 0.0837,0.0837, 0.0827, 0.0825, 0.0827,0.0827,-1.194743130227005
MultiSource/Benchmarks/MiBench/security-rijndael/security-rijndael, 0.3923, 0.3929, 0.3929,0.3929, 0.3879, 0.3878, 0.3877,0.3878,-1.298040213794871
SingleSource/Benchmarks/Shootout-C++/hash, 0.2694, 0.2697, 0.2686,0.2694, 0.2655, 0.2653, 0.2656,0.2655,-1.4476614699331702
MultiSource/Benchmarks/McCat/09-vor/vor, 0.2651, 0.2647, 0.2649,0.2649, 0.2609, 0.2608, 0.2606,0.2608,-1.5477538693846937
SingleSource/Benchmarks/Adobe-C++/functionobjects, 0.4526, 0.4520, 0.4519,0.452, 0.4450, 0.4451, 0.4445,0.445,-1.5486725663716783
SingleSource/Benchmarks/Misc-C++-EH/spirit, 3.5765, 3.6039, 3.5727,3.5765, 3.5120, 3.5203, 3.5090,3.512,-1.8034391164546304
SingleSource/Benchmarks/Misc-C++/stepanov_v1p2, 0.1704, 0.1700, 0.1703,0.1703, 0.1664, 0.1665, 0.1667,0.1665,-2.2313564298297117
SingleSource/Benchmarks/Shootout-C++/moments, 0.2441, 0.2436, 0.2442,0.2441, 0.2354, 0.2354, 0.2363,0.2354,-3.564113068414587
SingleSource/Benchmarks/Adobe-C++/stepanov_abstraction, 0.6047, 0.6091, 0.6049,0.6049, 0.5722, 0.5720, 0.5728,0.5722,-5.405852206976347
MultiSource/Benchmarks/Olden/voronoi/voronoi, 0.2349, 0.2349, 0.2349,0.2349, 0.2098, 0.2100, 0.2101,0.21,-10.600255427841631
SingleSource/Benchmarks/Adobe-C++/stepanov_vector, 0.7304, 0.7314, 0.7294,0.7304, 0.6142, 0.6152, 0.6164,0.6152,-15.772179627601323
Total elapsed time,-,-,-,362.8894000000005,-,-,-,362.2206999999998,-0.18427102031657316
Total failure,-,-,-,0,-,-,-,0,
Geom. avg slowdown,,,,,,,,,-0.0637738575736%
