Benchmarks,/mnt/freezedisk/llvm-intptr-base-5.0-release/bin/clang,/mnt/freezedisk/llvm-intptr-base-5.0-release/bin/clang,/mnt/freezedisk/llvm-intptr-base-5.0-release/bin/clang,median,/mnt/freezedisk/llvm-intptr-nocapture-5.0-release/bin/clang,/mnt/freezedisk/llvm-intptr-nocapture-5.0-release/bin/clang,/mnt/freezedisk/llvm-intptr-nocapture-5.0-release/bin/clang,median
MultiSource/Applications/ALAC/decode/alacconvert-decode, 0.8621, 0.8664, 0.8671,0.8664, 0.8685, 0.8681, 0.8696,0.8685
MultiSource/Applications/ALAC/encode/alacconvert-encode, 0.8619, 0.8657, 0.8684,0.8657, 0.8682, 0.8681, 0.8691,0.8682
MultiSource/Applications/ClamAV/clamscan,13.2189,13.2482,13.2493,13.2482,13.2103,13.2156,13.2237,13.2156
MultiSource/Applications/JM/ldecod/ldecod, 5.7891, 5.7903, 5.7894,5.7894, 5.7860, 5.7761, 5.7738,5.7761
MultiSource/Applications/JM/lencod/lencod,13.4048,13.4307,13.4304,13.4304,13.3965,13.4140,13.4014,13.4014
MultiSource/Applications/SIBsim4/SIBsim4, 1.0602, 1.0561, 1.0560,1.0561, 1.0551, 1.0535, 1.0500,1.0535
MultiSource/Applications/SPASS/SPASS,11.1334,11.1427,11.1505,11.1427,11.0985,11.1071,11.1239,11.1071
MultiSource/Applications/aha/aha, 0.0902, 0.0909, 0.0909,0.0909, 0.0914, 0.0911, 0.0912,0.0912
MultiSource/Applications/d/make_dparser, 2.4201, 2.3988, 2.4041,2.4041, 2.3968, 2.4225, 2.4177,2.4177
MultiSource/Applications/hbd/hbd, 1.0978, 1.1027, 1.1057,1.1027, 1.1017, 1.1013, 1.1041,1.1017
MultiSource/Applications/hexxagon/hexxagon, 0.6056, 0.6061, 0.6086,0.6061, 0.6088, 0.6087, 0.6109,0.6088
MultiSource/Applications/kimwitu++/kc,10.1029,10.0443,10.0818,10.0818,10.0872,10.0548,10.0759,10.0759
MultiSource/Applications/lambda-0.1.3/lambda, 0.5055, 0.5071, 0.5064,0.5064, 0.5064, 0.5080, 0.5084,0.508
MultiSource/Applications/lua/lua, 2.9478, 2.9605, 2.9592,2.9592, 2.9485, 2.9494, 2.9509,2.9494
MultiSource/Applications/minisat/minisat, 0.5643, 0.5682, 0.5633,0.5643, 0.5612, 0.5611, 0.5687,0.5612
MultiSource/Applications/obsequi/Obsequi, 0.9071, 0.9040, 0.9062,0.9062, 0.9105, 0.9053, 0.9088,0.9088
MultiSource/Applications/oggenc/oggenc, 4.3657, 4.3721, 4.3712,4.3712, 4.3520, 4.3734, 4.3569,4.3569
MultiSource/Applications/sgefa/sgefa, 0.3565, 0.3581, 0.3573,0.3573, 0.3570, 0.3576, 0.3575,0.3575
MultiSource/Applications/siod/siod, 1.8207, 1.8186, 1.8235,1.8207, 1.8185, 1.8209, 1.8301,1.8209
MultiSource/Applications/spiff/spiff, 0.6849, 0.6892, 0.6908,0.6892, 0.6973, 0.6970, 0.6963,0.697
MultiSource/Applications/sqlite3/sqlite3,13.3309,13.2865,13.3353,13.3309,13.4226,13.3817,13.4290,13.4226
MultiSource/Applications/viterbi/viterbi, 0.1547, 0.1558, 0.1559,0.1558, 0.1568, 0.1568, 0.1566,0.1568
MultiSource/Benchmarks/7zip/7zip-benchmark,30.9758,31.0142,31.0473,31.0142,31.2473,31.2751,31.2609,31.2609
MultiSource/Benchmarks/ASCI_Purple/SMG2000/smg2000, 5.1424, 5.1594, 5.1584,5.1584, 5.1892, 5.1890, 5.1819,5.189
MultiSource/Benchmarks/ASC_Sequoia/AMGmk/AMGmk, 0.5362, 0.5381, 0.5393,0.5381, 0.5405, 0.5408, 0.5401,0.5405
MultiSource/Benchmarks/ASC_Sequoia/CrystalMk/CrystalMk, 0.2039, 0.2059, 0.2060,0.2059, 0.2075, 0.2074, 0.2072,0.2074
MultiSource/Benchmarks/ASC_Sequoia/IRSmk/IRSmk, 0.0947, 0.0955, 0.0957,0.0955, 0.0961, 0.0958, 0.0962,0.0961
MultiSource/Benchmarks/BitBench/drop3/drop3, 0.0397, 0.0400, 0.0401,0.04, 0.0403, 0.0402, 0.0401,0.0402
MultiSource/Benchmarks/BitBench/five11/five11, 0.0493, 0.0498, 0.0499,0.0498, 0.0502, 0.0500, 0.0501,0.0501
MultiSource/Benchmarks/BitBench/uudecode/uudecode, 0.0404, 0.0405, 0.0407,0.0405, 0.0407, 0.0407, 0.0406,0.0407
MultiSource/Benchmarks/BitBench/uuencode/uuencode, 0.0395, 0.0399, 0.0398,0.0398, 0.0402, 0.0400, 0.0401,0.0401
MultiSource/Benchmarks/Bullet/bullet,21.0329,21.0321,21.0602,21.0329,21.1232,21.0719,21.0834,21.0834
MultiSource/Benchmarks/DOE-ProxyApps-C++/CLAMR/CLAMR,16.3805,16.3797,16.3919,16.3805,16.3595,16.4219,16.3821,16.3821
MultiSource/Benchmarks/DOE-ProxyApps-C++/HPCCG/HPCCG, 1.2896, 1.2908, 1.2958,1.2908, 1.3224, 1.3246, 1.3277,1.3246
MultiSource/Benchmarks/DOE-ProxyApps-C++/PENNANT/PENNANT, 3.7119, 3.7072, 3.7176,3.7119, 3.7374, 3.7289, 3.7345,3.7345
MultiSource/Benchmarks/DOE-ProxyApps-C++/miniFE/miniFE, 2.3438, 2.3450, 2.3464,2.345, 2.4537, 2.4485, 2.4550,2.4537
MultiSource/Benchmarks/DOE-ProxyApps-C/Pathfinder/PathFinder, 0.7359, 0.7424, 0.7433,0.7424, 0.7446, 0.7446, 0.7453,0.7446
MultiSource/Benchmarks/DOE-ProxyApps-C/RSBench/rsbench, 0.3596, 0.3611, 0.3616,0.3611, 0.3694, 0.3688, 0.3691,0.3691
MultiSource/Benchmarks/DOE-ProxyApps-C/SimpleMOC/SimpleMOC, 0.7876, 0.7897, 0.7915,0.7897, 0.7962, 0.7972, 0.7957,0.7962
MultiSource/Benchmarks/DOE-ProxyApps-C/XSBench/XSBench, 0.3245, 0.3214, 0.3217,0.3217, 0.3273, 0.3275, 0.3266,0.3273
MultiSource/Benchmarks/DOE-ProxyApps-C/miniAMR/miniAMR, 1.2259, 1.2315, 1.2312,1.2312, 1.2315, 1.2309, 1.2303,1.2309
MultiSource/Benchmarks/DOE-ProxyApps-C/miniGMG/miniGMG, 0.8858, 0.8874, 0.8903,0.8874, 0.8913, 0.8893, 0.8901,0.8901
MultiSource/Benchmarks/Fhourstones-3.1/fhourstones3.1, 0.1070, 0.1075, 0.1071,0.1071, 0.1073, 0.1074, 0.1077,0.1074
MultiSource/Benchmarks/Fhourstones/fhourstones, 0.1485, 0.1497, 0.1507,0.1497, 0.1506, 0.1505, 0.1504,0.1505
MultiSource/Benchmarks/FreeBench/analyzer/analyzer, 0.2182, 0.2197, 0.2203,0.2197, 0.2223, 0.2220, 0.2222,0.2222
MultiSource/Benchmarks/FreeBench/distray/distray, 0.0856, 0.0860, 0.0859,0.0859, 0.0857, 0.0857, 0.0858,0.0857
MultiSource/Benchmarks/FreeBench/fourinarow/fourinarow, 0.3072, 0.3074, 0.3063,0.3072, 0.3055, 0.3056, 0.3054,0.3055
MultiSource/Benchmarks/FreeBench/mason/mason, 0.0459, 0.0460, 0.0463,0.046, 0.0465, 0.0465, 0.0465,0.0465
MultiSource/Benchmarks/FreeBench/neural/neural, 0.1606, 0.1609, 0.1616,0.1609, 0.1611, 0.1611, 0.1613,0.1611
MultiSource/Benchmarks/FreeBench/pcompress2/pcompress2, 0.2257, 0.2274, 0.2276,0.2274, 0.2280, 0.2286, 0.2285,0.2285
MultiSource/Benchmarks/FreeBench/pifft/pifft, 0.8389, 0.8396, 0.8400,0.8396, 0.8372, 0.8383, 0.8376,0.8376
MultiSource/Benchmarks/MallocBench/cfrac/cfrac, 0.8039, 0.8118, 0.8139,0.8118, 0.8164, 0.8168, 0.8163,0.8164
MultiSource/Benchmarks/MallocBench/espresso/espresso, 4.1616, 4.1732, 4.1778,4.1732, 4.1944, 4.1952, 4.1903,4.1944
MultiSource/Benchmarks/MallocBench/gs/gs, 3.4231, 3.4376, 3.4416,3.4376, 3.4448, 3.4476, 3.4467,3.4467
MultiSource/Benchmarks/McCat/01-qbsort/qbsort, 0.0893, 0.0901, 0.0902,0.0901, 0.0909, 0.0906, 0.0910,0.0909
MultiSource/Benchmarks/McCat/03-testtrie/testtrie, 0.0839, 0.0849, 0.0852,0.0849, 0.0858, 0.0860, 0.0859,0.0859
MultiSource/Benchmarks/McCat/04-bisect/bisect, 0.1183, 0.1191, 0.1193,0.1191, 0.1201, 0.1198, 0.1201,0.1201
MultiSource/Benchmarks/McCat/05-eks/eks, 0.4751, 0.4770, 0.4770,0.477, 0.4789, 0.4790, 0.4794,0.479
MultiSource/Benchmarks/McCat/08-main/main, 0.2160, 0.2192, 0.2199,0.2192, 0.2181, 0.2180, 0.2180,0.218
MultiSource/Benchmarks/McCat/09-vor/vor, 0.2517, 0.2529, 0.2535,0.2529, 0.2507, 0.2511, 0.2511,0.2511
MultiSource/Benchmarks/McCat/12-IOtest/iotest, 0.0872, 0.0885, 0.0885,0.0885, 0.0895, 0.0892, 0.0896,0.0895
MultiSource/Benchmarks/McCat/17-bintr/bintr, 0.0647, 0.0650, 0.0655,0.065, 0.0656, 0.0657, 0.0658,0.0657
MultiSource/Benchmarks/McCat/18-imp/imp, 0.3003, 0.3018, 0.3019,0.3018, 0.3032, 0.3030, 0.3029,0.303
MultiSource/Benchmarks/MiBench/automotive-basicmath/automotive-basicmath, 0.1334, 0.1340, 0.1346,0.134, 0.1353, 0.1354, 0.1355,0.1354
MultiSource/Benchmarks/MiBench/automotive-bitcount/automotive-bitcount, 0.2372, 0.2394, 0.2398,0.2394, 0.2421, 0.2414, 0.2417,0.2417
MultiSource/Benchmarks/MiBench/automotive-susan/automotive-susan, 0.5731, 0.5722, 0.5749,0.5731, 0.5704, 0.5753, 0.5760,0.5753
MultiSource/Benchmarks/MiBench/consumer-jpeg/consumer-jpeg, 4.0519, 4.0725, 4.0751,4.0725, 4.0667, 4.0677, 4.0670,4.067
MultiSource/Benchmarks/MiBench/consumer-lame/consumer-lame, 3.5940, 3.6050, 3.6079,3.605, 3.6219, 3.6255, 3.6190,3.6219
MultiSource/Benchmarks/MiBench/consumer-typeset/consumer-typeset, 8.9228, 8.9414, 8.9531,8.9414, 8.8883, 8.8987, 8.8988,8.8987
MultiSource/Benchmarks/MiBench/network-dijkstra/network-dijkstra, 0.0388, 0.0390, 0.0390,0.039, 0.0391, 0.0392, 0.0392,0.0392
MultiSource/Benchmarks/MiBench/network-patricia/network-patricia, 0.0743, 0.0751, 0.0753,0.0751, 0.0756, 0.0756, 0.0755,0.0756
MultiSource/Benchmarks/MiBench/security-rijndael/security-rijndael, 0.3616, 0.3627, 0.3634,0.3627, 0.3605, 0.3611, 0.3604,0.3605
MultiSource/Benchmarks/MiBench/security-sha/security-sha, 0.1074, 0.1081, 0.1082,0.1081, 0.1083, 0.1085, 0.1085,0.1085
MultiSource/Benchmarks/MiBench/telecomm-CRC32/telecomm-CRC32, 0.0325, 0.0328, 0.0329,0.0328, 0.0331, 0.0332, 0.0331,0.0331
MultiSource/Benchmarks/MiBench/telecomm-FFT/telecomm-fft, 0.1301, 0.1291, 0.1293,0.1293, 0.1307, 0.1305, 0.1306,0.1306
MultiSource/Benchmarks/MiBench/telecomm-adpcm/telecomm-adpcm, 0.0517, 0.0523, 0.0524,0.0523, 0.0526, 0.0527, 0.0528,0.0527
MultiSource/Benchmarks/MiBench/telecomm-gsm/telecomm-gsm, 0.9495, 0.9557, 0.9579,0.9557, 0.9620, 0.9624, 0.9621,0.9621
MultiSource/Benchmarks/NPB-serial/is/is, 0.0593, 0.0596, 0.0598,0.0596, 0.0598, 0.0597, 0.0596,0.0597
MultiSource/Benchmarks/Olden/bh/bh, 0.2345, 0.2351, 0.2357,0.2351, 0.2369, 0.2379, 0.2387,0.2379
MultiSource/Benchmarks/Olden/bisort/bisort, 0.0589, 0.0596, 0.0597,0.0596, 0.0601, 0.0601, 0.0602,0.0601
MultiSource/Benchmarks/Olden/em3d/em3d, 0.1625, 0.1640, 0.1645,0.164, 0.1651, 0.1650, 0.1648,0.165
MultiSource/Benchmarks/Olden/health/health, 0.1263, 0.1272, 0.1278,0.1272, 0.1284, 0.1284, 0.1287,0.1284
MultiSource/Benchmarks/Olden/mst/mst, 0.1128, 0.1141, 0.1143,0.1141, 0.1180, 0.1180, 0.1181,0.118
MultiSource/Benchmarks/Olden/perimeter/perimeter, 0.0726, 0.0731, 0.0736,0.0731, 0.0740, 0.0740, 0.0744,0.074
MultiSource/Benchmarks/Olden/power/power, 0.1171, 0.1180, 0.1187,0.118, 0.1190, 0.1193, 0.1191,0.1191
MultiSource/Benchmarks/Olden/treeadd/treeadd, 0.0521, 0.0532, 0.0532,0.0532, 0.0535, 0.0538, 0.0537,0.0537
MultiSource/Benchmarks/Olden/tsp/tsp, 0.1185, 0.1191, 0.1198,0.1191, 0.1194, 0.1195, 0.1200,0.1195
MultiSource/Benchmarks/Olden/voronoi/voronoi, 0.2252, 0.2221, 0.2232,0.2232, 0.1994, 0.1997, 0.1996,0.1996
MultiSource/Benchmarks/PAQ8p/paq8p, 1.7176, 1.7222, 1.7304,1.7222, 1.7078, 1.7149, 1.7074,1.7078
MultiSource/Benchmarks/Prolangs-C++/city/city, 0.8318, 0.8265, 0.8285,0.8285, 0.8297, 0.8297, 0.8332,0.8297
MultiSource/Benchmarks/Prolangs-C++/employ/employ, 0.1844, 0.1837, 0.1845,0.1844, 0.1853, 0.1859, 0.1861,0.1859
MultiSource/Benchmarks/Prolangs-C++/life/life, 0.0549, 0.0551, 0.0552,0.0551, 0.0551, 0.0553, 0.0551,0.0551
MultiSource/Benchmarks/Prolangs-C++/ocean/ocean, 0.1001, 0.1001, 0.1002,0.1001, 0.1003, 0.1002, 0.1005,0.1003
MultiSource/Benchmarks/Prolangs-C++/primes/primes, 0.0233, 0.0236, 0.0237,0.0236, 0.0239, 0.0238, 0.0239,0.0239
MultiSource/Benchmarks/Prolangs-C++/simul/simul, 0.0487, 0.0489, 0.0492,0.0489, 0.0494, 0.0495, 0.0493,0.0494
MultiSource/Benchmarks/Prolangs-C/agrep/agrep, 1.2145, 1.2178, 1.2200,1.2178, 1.2187, 1.2202, 1.2172,1.2187
MultiSource/Benchmarks/Prolangs-C/bison/mybison, 1.4695, 1.4748, 1.4762,1.4748, 1.4771, 1.4782, 1.4760,1.4771
MultiSource/Benchmarks/Prolangs-C/gnugo/gnugo, 0.6774, 0.6827, 0.6842,0.6827, 0.6872, 0.6875, 0.6883,0.6875
MultiSource/Benchmarks/Ptrdist/anagram/anagram, 0.0911, 0.0913, 0.0914,0.0913, 0.0912, 0.0914, 0.0911,0.0912
MultiSource/Benchmarks/Ptrdist/bc/bc, 0.9206, 0.9239, 0.9235,0.9235, 0.9215, 0.9214, 0.9208,0.9214
MultiSource/Benchmarks/Ptrdist/ft/ft, 0.1916, 0.1928, 0.1935,0.1928, 0.1930, 0.1933, 0.1930,0.193
MultiSource/Benchmarks/Ptrdist/ks/ks, 0.1322, 0.1328, 0.1329,0.1328, 0.1336, 0.1337, 0.1332,0.1336
MultiSource/Benchmarks/Ptrdist/yacr2/yacr2, 0.5511, 0.5549, 0.5548,0.5548, 0.5544, 0.5547, 0.5537,0.5544
MultiSource/Benchmarks/SciMark2-C/scimark2, 0.3411, 0.3437, 0.3449,0.3437, 0.3472, 0.3469, 0.3470,0.347
MultiSource/Benchmarks/TSVC/ControlFlow-dbl/ControlFlow-dbl, 1.9357, 1.9371, 1.9442,1.9371, 1.9307, 1.9414, 1.9379,1.9379
MultiSource/Benchmarks/TSVC/ControlFlow-flt/ControlFlow-flt, 1.6393, 1.6355, 1.6381,1.6381, 1.6363, 1.6291, 1.6364,1.6363
MultiSource/Benchmarks/TSVC/ControlLoops-dbl/ControlLoops-dbl, 1.8577, 1.8668, 1.8640,1.864, 1.8520, 1.8475, 1.8468,1.8475
MultiSource/Benchmarks/TSVC/ControlLoops-flt/ControlLoops-flt, 1.5539, 1.5622, 1.5558,1.5558, 1.5500, 1.5478, 1.5434,1.5478
MultiSource/Benchmarks/TSVC/CrossingThresholds-dbl/CrossingThresholds-dbl, 1.8115, 1.8134, 1.8068,1.8115, 1.8149, 1.8097, 1.8153,1.8149
MultiSource/Benchmarks/TSVC/CrossingThresholds-flt/CrossingThresholds-flt, 1.5059, 1.5136, 1.5059,1.5059, 1.5039, 1.5036, 1.5085,1.5039
MultiSource/Benchmarks/TSVC/Equivalencing-dbl/Equivalencing-dbl, 1.8182, 1.8263, 1.8236,1.8236, 1.8218, 1.8157, 1.8145,1.8157
MultiSource/Benchmarks/TSVC/Equivalencing-flt/Equivalencing-flt, 1.5173, 1.5132, 1.5186,1.5173, 1.5134, 1.5085, 1.5065,1.5085
MultiSource/Benchmarks/TSVC/Expansion-dbl/Expansion-dbl, 1.8540, 1.8592, 1.8586,1.8586, 1.8514, 1.8515, 1.8448,1.8514
MultiSource/Benchmarks/TSVC/Expansion-flt/Expansion-flt, 1.5455, 1.5556, 1.5528,1.5528, 1.5498, 1.5462, 1.5503,1.5498
MultiSource/Benchmarks/TSVC/GlobalDataFlow-dbl/GlobalDataFlow-dbl, 1.8488, 1.8517, 1.8562,1.8517, 1.8385, 1.8372, 1.8385,1.8385
MultiSource/Benchmarks/TSVC/GlobalDataFlow-flt/GlobalDataFlow-flt, 1.5509, 1.5523, 1.5449,1.5509, 1.5343, 1.5359, 1.5432,1.5359
MultiSource/Benchmarks/TSVC/IndirectAddressing-dbl/IndirectAddressing-dbl, 1.8013, 1.8034, 1.8018,1.8018, 1.7814, 1.8039, 1.8056,1.8039
MultiSource/Benchmarks/TSVC/IndirectAddressing-flt/IndirectAddressing-flt, 1.4967, 1.5061, 1.5032,1.5032, 1.4968, 1.5058, 1.5078,1.5058
MultiSource/Benchmarks/TSVC/InductionVariable-dbl/InductionVariable-dbl, 1.8259, 1.8224, 1.8211,1.8224, 1.8213, 1.8277, 1.8208,1.8213
MultiSource/Benchmarks/TSVC/InductionVariable-flt/InductionVariable-flt, 1.5243, 1.5260, 1.5263,1.526, 1.5189, 1.5247, 1.5188,1.5189
MultiSource/Benchmarks/TSVC/LinearDependence-dbl/LinearDependence-dbl, 1.8684, 1.8625, 1.8684,1.8684, 1.8667, 1.8665, 1.8625,1.8665
MultiSource/Benchmarks/TSVC/LinearDependence-flt/LinearDependence-flt, 1.5607, 1.5641, 1.5632,1.5632, 1.5654, 1.5590, 1.5622,1.5622
MultiSource/Benchmarks/TSVC/LoopRerolling-dbl/LoopRerolling-dbl, 1.7901, 1.7925, 1.7919,1.7919, 1.7767, 1.7765, 1.7805,1.7767
MultiSource/Benchmarks/TSVC/LoopRerolling-flt/LoopRerolling-flt, 1.4862, 1.4877, 1.4832,1.4862, 1.4862, 1.4769, 1.4752,1.4769
MultiSource/Benchmarks/TSVC/LoopRestructuring-dbl/LoopRestructuring-dbl, 1.8211, 1.8259, 1.8117,1.8211, 1.8244, 1.8302, 1.8304,1.8302
MultiSource/Benchmarks/TSVC/LoopRestructuring-flt/LoopRestructuring-flt, 1.5435, 1.5201, 1.5270,1.527, 1.5295, 1.5243, 1.5189,1.5243
MultiSource/Benchmarks/TSVC/NodeSplitting-dbl/NodeSplitting-dbl, 1.7920, 1.8032, 1.7954,1.7954, 1.7960, 1.7970, 1.8017,1.797
MultiSource/Benchmarks/TSVC/NodeSplitting-flt/NodeSplitting-flt, 1.4991, 1.5031, 1.4961,1.4991, 1.4982, 1.4944, 1.5023,1.4982
MultiSource/Benchmarks/TSVC/Packing-dbl/Packing-dbl, 1.7749, 1.7733, 1.7727,1.7733, 1.7644, 1.7662, 1.7722,1.7662
MultiSource/Benchmarks/TSVC/Packing-flt/Packing-flt, 1.4746, 1.4627, 1.4713,1.4713, 1.4640, 1.4705, 1.4700,1.47
MultiSource/Benchmarks/TSVC/Recurrences-dbl/Recurrences-dbl, 1.7760, 1.7784, 1.7771,1.7771, 1.7747, 1.7704, 1.7723,1.7723
MultiSource/Benchmarks/TSVC/Recurrences-flt/Recurrences-flt, 1.4737, 1.4757, 1.4695,1.4737, 1.4783, 1.4688, 1.4634,1.4688
MultiSource/Benchmarks/TSVC/Reductions-dbl/Reductions-dbl, 1.8403, 1.8584, 1.8657,1.8584, 1.8559, 1.8573, 1.8608,1.8573
MultiSource/Benchmarks/TSVC/Reductions-flt/Reductions-flt, 1.5546, 1.5601, 1.5570,1.557, 1.5623, 1.5628, 1.5577,1.5623
MultiSource/Benchmarks/TSVC/Searching-dbl/Searching-dbl, 1.7675, 1.7655, 1.7665,1.7665, 1.7601, 1.7618, 1.7529,1.7601
MultiSource/Benchmarks/TSVC/Searching-flt/Searching-flt, 1.4630, 1.4624, 1.4591,1.4624, 1.4567, 1.4530, 1.4517,1.453
MultiSource/Benchmarks/TSVC/StatementReordering-dbl/StatementReordering-dbl, 1.7687, 1.7761, 1.7711,1.7711, 1.7752, 1.7692, 1.7691,1.7692
MultiSource/Benchmarks/TSVC/StatementReordering-flt/StatementReordering-flt, 1.4855, 1.4726, 1.4668,1.4726, 1.4690, 1.4646, 1.4622,1.4646
MultiSource/Benchmarks/TSVC/Symbolics-dbl/Symbolics-dbl, 1.8056, 1.8072, 1.8109,1.8072, 1.8140, 1.8141, 1.8127,1.814
MultiSource/Benchmarks/TSVC/Symbolics-flt/Symbolics-flt, 1.4993, 1.5031, 1.5075,1.5031, 1.5053, 1.4995, 1.4994,1.4995
MultiSource/Benchmarks/Trimaran/enc-3des/enc-3des, 0.2171, 0.2175, 0.2177,0.2175, 0.2180, 0.2187, 0.2187,0.2187
MultiSource/Benchmarks/Trimaran/enc-md5/enc-md5, 0.1353, 0.1361, 0.1364,0.1361, 0.1356, 0.1360, 0.1359,0.1359
MultiSource/Benchmarks/Trimaran/enc-pc1/enc-pc1, 0.0592, 0.0596, 0.0597,0.0596, 0.0598, 0.0598, 0.0596,0.0598
MultiSource/Benchmarks/Trimaran/enc-rc4/enc-rc4, 0.0459, 0.0462, 0.0464,0.0462, 0.0465, 0.0464, 0.0463,0.0464
MultiSource/Benchmarks/Trimaran/netbench-crc/netbench-crc, 0.0710, 0.0714, 0.0718,0.0714, 0.0724, 0.0723, 0.0723,0.0723
MultiSource/Benchmarks/Trimaran/netbench-url/netbench-url, 0.1884, 0.1902, 0.1906,0.1902, 0.1906, 0.1907, 0.1913,0.1907
MultiSource/Benchmarks/VersaBench/8b10b/8b10b, 0.0691, 0.0702, 0.0704,0.0702, 0.0707, 0.0706, 0.0709,0.0707
MultiSource/Benchmarks/VersaBench/beamformer/beamformer, 0.2737, 0.2751, 0.2750,0.275, 0.2756, 0.2751, 0.2753,0.2753
MultiSource/Benchmarks/VersaBench/bmm/bmm, 0.0469, 0.0471, 0.0471,0.0471, 0.0472, 0.0475, 0.0473,0.0473
MultiSource/Benchmarks/VersaBench/dbms/dbms, 0.8842, 0.8980, 0.9017,0.898, 0.9066, 0.9060, 0.9079,0.9066
MultiSource/Benchmarks/VersaBench/ecbdes/ecbdes, 0.1939, 0.1950, 0.1953,0.195, 0.1964, 0.1962, 0.1960,0.1962
MultiSource/Benchmarks/llubenchmark/llu, 0.0435, 0.0440, 0.0438,0.0438, 0.0438, 0.0440, 0.0440,0.044
MultiSource/Benchmarks/mafft/pairlocalalign, 7.9351, 7.9492, 7.9329,7.9351, 7.9085, 7.9065, 7.9011,7.9065
MultiSource/Benchmarks/mediabench/adpcm/rawcaudio/rawcaudio, 0.0517, 0.0524, 0.0528,0.0524, 0.0528, 0.0529, 0.0527,0.0528
MultiSource/Benchmarks/mediabench/adpcm/rawdaudio/rawdaudio, 0.0515, 0.0523, 0.0524,0.0523, 0.0528, 0.0529, 0.0529,0.0529
MultiSource/Benchmarks/mediabench/g721/g721encode/encode, 0.1812, 0.1831, 0.1835,0.1831, 0.1843, 0.1843, 0.1848,0.1843
MultiSource/Benchmarks/mediabench/gsm/toast/toast, 0.9497, 0.9558, 0.9584,0.9558, 0.9622, 0.9632, 0.9623,0.9623
MultiSource/Benchmarks/mediabench/jpeg/jpeg-6a/cjpeg, 4.0908, 4.1092, 4.1136,4.1092, 4.1051, 4.1062, 4.1044,4.1051
MultiSource/Benchmarks/mediabench/mpeg2/mpeg2dec/mpeg2decode, 1.2111, 1.2165, 1.2181,1.2165, 1.2181, 1.2188, 1.2180,1.2181
MultiSource/Benchmarks/nbench/nbench, 1.0190, 1.0162, 1.0177,1.0177, 1.0155, 1.0168, 1.0181,1.0168
MultiSource/Benchmarks/sim/sim, 0.2600, 0.2587, 0.2589,0.2589, 0.2575, 0.2585, 0.2573,0.2575
MultiSource/Benchmarks/tramp3d-v4/tramp3d-v4,18.3736,18.3727,18.3616,18.3727,18.1790,18.1937,18.2181,18.1937
SingleSource/Benchmarks/Adobe-C++/functionobjects, 0.4184, 0.4164, 0.4161,0.4164, 0.4107, 0.4094, 0.4106,0.4106
SingleSource/Benchmarks/Adobe-C++/loop_unroll, 3.9142, 3.9276, 3.9205,3.9205, 3.9099, 3.9243, 3.9160,3.916
SingleSource/Benchmarks/Adobe-C++/simple_types_constant_folding, 2.2188, 2.2284, 2.2159,2.2188, 2.2191, 2.2193, 2.2271,2.2193
SingleSource/Benchmarks/Adobe-C++/simple_types_loop_invariant, 1.7957, 1.8046, 1.7937,1.7957, 1.8009, 1.7864, 1.7996,1.7996
SingleSource/Benchmarks/Adobe-C++/stepanov_abstraction, 0.5579, 0.5579, 0.5576,0.5579, 0.5256, 0.5278, 0.5251,0.5256
SingleSource/Benchmarks/Adobe-C++/stepanov_vector, 0.6856, 0.6797, 0.6791,0.6797, 0.5776, 0.5724, 0.5737,0.5737
SingleSource/Benchmarks/BenchmarkGame/Large/fasta, 0.0526, 0.0496, 0.0513,0.0513, 0.0503, 0.0497, 0.0545,0.0503
SingleSource/Benchmarks/BenchmarkGame/fannkuch, 0.0479, 0.0478, 0.0479,0.0479, 0.0482, 0.0480, 0.0480,0.048
SingleSource/Benchmarks/BenchmarkGame/n-body, 0.0654, 0.0655, 0.0656,0.0655, 0.0658, 0.0659, 0.0659,0.0659
SingleSource/Benchmarks/BenchmarkGame/nsieve-bits, 0.0300, 0.0302, 0.0300,0.03, 0.0304, 0.0303, 0.0304,0.0304
SingleSource/Benchmarks/BenchmarkGame/partialsums, 0.0280, 0.0281, 0.0283,0.0281, 0.0282, 0.0283, 0.0284,0.0283
SingleSource/Benchmarks/BenchmarkGame/puzzle, 0.0499, 0.0514, 0.0516,0.0514, 0.0518, 0.0520, 0.0518,0.0518
SingleSource/Benchmarks/BenchmarkGame/recursive, 0.0249, 0.0249, 0.0249,0.0249, 0.0251, 0.0251, 0.0253,0.0251
SingleSource/Benchmarks/BenchmarkGame/spectral-norm, 0.0504, 0.0504, 0.0505,0.0504, 0.0509, 0.0507, 0.0508,0.0508
SingleSource/Benchmarks/CoyoteBench/almabench, 0.0614, 0.0613, 0.0613,0.0613, 0.0635, 0.0636, 0.0634,0.0635
SingleSource/Benchmarks/CoyoteBench/fftbench, 0.5518, 0.5493, 0.5482,0.5493, 0.5498, 0.5565, 0.5661,0.5565
SingleSource/Benchmarks/CoyoteBench/huffbench, 0.0786, 0.0786, 0.0783,0.0786, 0.0776, 0.0775, 0.0773,0.0775
SingleSource/Benchmarks/CoyoteBench/lpbench, 0.1383, 0.1380, 0.1378,0.138, 0.1370, 0.1370, 0.1373,0.137
SingleSource/Benchmarks/Dhrystone/dry, 0.0580, 0.0473, 0.0468,0.0473, 0.0435, 0.0425, 0.0432,0.0432
SingleSource/Benchmarks/Dhrystone/fldry, 0.0409, 0.0411, 0.0410,0.041, 0.0412, 0.0413, 0.0413,0.0413
SingleSource/Benchmarks/Linpack/linpack-pc, 0.2792, 0.2798, 0.2796,0.2796, 0.2790, 0.2794, 0.2801,0.2794
SingleSource/Benchmarks/McGill/chomp, 0.1709, 0.1711, 0.1704,0.1709, 0.1713, 0.1708, 0.1712,0.1712
SingleSource/Benchmarks/McGill/misr, 0.0494, 0.0494, 0.0495,0.0494, 0.0495, 0.0498, 0.0497,0.0497
SingleSource/Benchmarks/McGill/queens, 0.0415, 0.0417, 0.0417,0.0417, 0.0422, 0.0419, 0.0420,0.042
SingleSource/Benchmarks/Misc-C++-EH/spirit, 3.3897, 3.3677, 3.3799,3.3799, 3.3063, 3.2992, 3.3142,3.3063
SingleSource/Benchmarks/Misc-C++/Large/ray, 0.1979, 0.2058, 0.2034,0.2034, 0.2106, 0.2149, 0.2143,0.2143
SingleSource/Benchmarks/Misc-C++/Large/sphereflake, 0.2011, 0.2017, 0.2010,0.2011, 0.2032, 0.2034, 0.2023,0.2032
SingleSource/Benchmarks/Misc-C++/bigfib, 0.4227, 0.4285, 0.4321,0.4285, 0.4248, 0.4260, 0.4334,0.426
SingleSource/Benchmarks/Misc-C++/mandel-text, 0.0227, 0.0229, 0.0230,0.0229, 0.0230, 0.0230, 0.0231,0.023
SingleSource/Benchmarks/Misc-C++/oopack_v1p8, 0.1124, 0.1171, 0.1184,0.1171, 0.1170, 0.1167, 0.1413,0.117
SingleSource/Benchmarks/Misc-C++/stepanov_container, 0.6657, 0.6605, 0.6571,0.6605, 0.6388, 0.6456, 0.6430,0.643
SingleSource/Benchmarks/Misc-C++/stepanov_v1p2, 0.1586, 0.1584, 0.1577,0.1584, 0.1557, 0.1555, 0.1550,0.1555
SingleSource/Benchmarks/Misc/ReedSolomon, 0.1718, 0.1722, 0.1722,0.1722, 0.1724, 0.1723, 0.1723,0.1723
SingleSource/Benchmarks/Misc/dt, 0.0303, 0.0302, 0.0304,0.0303, 0.0307, 0.0306, 0.0306,0.0306
SingleSource/Benchmarks/Misc/evalloop, 0.0337, 0.0339, 0.0339,0.0339, 0.0340, 0.0340, 0.0340,0.034
SingleSource/Benchmarks/Misc/fbench, 0.0500, 0.0498, 0.0498,0.0498, 0.0502, 0.0501, 0.0502,0.0502
SingleSource/Benchmarks/Misc/ffbench, 0.0620, 0.0621, 0.0620,0.062, 0.0622, 0.0622, 0.0622,0.0622
SingleSource/Benchmarks/Misc/flops, 0.0709, 0.0710, 0.0709,0.0709, 0.0708, 0.0711, 0.0711,0.0711
SingleSource/Benchmarks/Misc/flops-1, 0.0255, 0.0255, 0.0255,0.0255, 0.0258, 0.0258, 0.0259,0.0258
SingleSource/Benchmarks/Misc/flops-2, 0.0262, 0.0263, 0.0263,0.0263, 0.0268, 0.0267, 0.0267,0.0267
SingleSource/Benchmarks/Misc/flops-3, 0.0253, 0.0253, 0.0252,0.0253, 0.0258, 0.0258, 0.0258,0.0258
SingleSource/Benchmarks/Misc/flops-4, 0.0258, 0.0257, 0.0259,0.0258, 0.0263, 0.0262, 0.0262,0.0262
SingleSource/Benchmarks/Misc/flops-5, 0.0264, 0.0262, 0.0263,0.0263, 0.0268, 0.0269, 0.0268,0.0268
SingleSource/Benchmarks/Misc/flops-6, 0.0262, 0.0262, 0.0263,0.0262, 0.0268, 0.0267, 0.0269,0.0268
SingleSource/Benchmarks/Misc/flops-7, 0.0252, 0.0251, 0.0252,0.0252, 0.0256, 0.0258, 0.0256,0.0256
SingleSource/Benchmarks/Misc/flops-8, 0.0263, 0.0264, 0.0263,0.0263, 0.0267, 0.0268, 0.0268,0.0268
SingleSource/Benchmarks/Misc/fp-convert, 0.0283, 0.0282, 0.0283,0.0283, 0.0285, 0.0285, 0.0284,0.0285
SingleSource/Benchmarks/Misc/himenobmtxpa, 0.1576, 0.1573, 0.1578,0.1576, 0.1606, 0.1611, 0.1605,0.1606
SingleSource/Benchmarks/Misc/lowercase, 0.0238, 0.0238, 0.0240,0.0238, 0.0240, 0.0240, 0.0241,0.024
SingleSource/Benchmarks/Misc/mandel, 0.0410, 0.0410, 0.0412,0.041, 0.0414, 0.0415, 0.0416,0.0415
SingleSource/Benchmarks/Misc/mandel-2, 0.0526, 0.0536, 0.0490,0.0526, 0.0532, 0.0472, 0.0451,0.0472
SingleSource/Benchmarks/Misc/matmul_f64_4x4, 0.0266, 0.0266, 0.0267,0.0266, 0.0268, 0.0269, 0.0269,0.0269
SingleSource/Benchmarks/Misc/oourafft, 0.1988, 0.1998, 0.2028,0.1998, 0.2033, 0.2000, 0.1997,0.2
SingleSource/Benchmarks/Misc/perlin, 0.0423, 0.0421, 0.0421,0.0421, 0.0423, 0.0423, 0.0425,0.0423
SingleSource/Benchmarks/Misc/pi, 0.0199, 0.0200, 0.0201,0.02, 0.0203, 0.0202, 0.0204,0.0203
SingleSource/Benchmarks/Misc/revertBits, 0.0240, 0.0241, 0.0241,0.0241, 0.0244, 0.0244, 0.0243,0.0244
SingleSource/Benchmarks/Misc/richards_benchmark, 0.0590, 0.0589, 0.0589,0.0589, 0.0590, 0.0587, 0.0587,0.0587
SingleSource/Benchmarks/Misc/salsa20, 0.0502, 0.0503, 0.0505,0.0503, 0.0510, 0.0510, 0.0510,0.051
SingleSource/Benchmarks/Misc/whetstone, 0.0620, 0.0619, 0.0621,0.062, 0.0625, 0.0625, 0.0623,0.0625
SingleSource/Benchmarks/Polybench/datamining/correlation/correlation, 0.0704, 0.0703, 0.0703,0.0703, 0.0710, 0.0707, 0.0709,0.0709
SingleSource/Benchmarks/Polybench/datamining/covariance/covariance, 0.0770, 0.0771, 0.0773,0.0771, 0.0775, 0.0775, 0.0773,0.0775
SingleSource/Benchmarks/Polybench/linear-algebra/kernels/atax/atax, 0.0740, 0.0739, 0.0739,0.0739, 0.0740, 0.0743, 0.0739,0.074
SingleSource/Benchmarks/Polybench/linear-algebra/kernels/bicg/bicg, 0.0723, 0.0724, 0.0725,0.0724, 0.0729, 0.0728, 0.0728,0.0728
SingleSource/Benchmarks/Polybench/linear-algebra/kernels/cholesky/cholesky, 0.0845, 0.0845, 0.0846,0.0845, 0.0851, 0.0852, 0.0852,0.0852
SingleSource/Benchmarks/Polybench/linear-algebra/kernels/doitgen/doitgen, 0.0898, 0.0897, 0.0896,0.0897, 0.0896, 0.0899, 0.0896,0.0896
SingleSource/Benchmarks/Polybench/linear-algebra/kernels/gemver/gemver, 0.0834, 0.0833, 0.0835,0.0834, 0.0838, 0.0841, 0.0836,0.0838
SingleSource/Benchmarks/Polybench/linear-algebra/kernels/gesummv/gesummv, 0.0620, 0.0619, 0.0620,0.062, 0.0624, 0.0624, 0.0623,0.0624
SingleSource/Benchmarks/Polybench/linear-algebra/kernels/mvt/mvt, 0.0745, 0.0744, 0.0746,0.0745, 0.0748, 0.0751, 0.0748,0.0748
SingleSource/Benchmarks/Polybench/linear-algebra/kernels/symm/symm, 0.0709, 0.0706, 0.0708,0.0708, 0.0711, 0.0712, 0.0711,0.0711
SingleSource/Benchmarks/Polybench/linear-algebra/kernels/syr2k/syr2k, 0.0721, 0.0719, 0.0719,0.0719, 0.0724, 0.0720, 0.0723,0.0723
SingleSource/Benchmarks/Polybench/linear-algebra/kernels/syrk/syrk, 0.0703, 0.0703, 0.0706,0.0703, 0.0709, 0.0712, 0.0709,0.0709
SingleSource/Benchmarks/Polybench/linear-algebra/kernels/trisolv/trisolv, 0.0585, 0.0585, 0.0586,0.0585, 0.0589, 0.0590, 0.0591,0.059
SingleSource/Benchmarks/Polybench/linear-algebra/kernels/trmm/trmm, 0.0664, 0.0665, 0.0666,0.0665, 0.0672, 0.0670, 0.0671,0.0671
SingleSource/Benchmarks/Polybench/linear-algebra/solvers/durbin/durbin, 0.0809, 0.0810, 0.0810,0.081, 0.0815, 0.0812, 0.0813,0.0813
SingleSource/Benchmarks/Polybench/linear-algebra/solvers/dynprog/dynprog, 0.0669, 0.0672, 0.0673,0.0672, 0.0676, 0.0675, 0.0677,0.0676
SingleSource/Benchmarks/Polybench/linear-algebra/solvers/gramschmidt/gramschmidt, 0.0936, 0.0941, 0.0938,0.0938, 0.0939, 0.0939, 0.0938,0.0939
SingleSource/Benchmarks/Polybench/linear-algebra/solvers/lu/lu, 0.0820, 0.0825, 0.0824,0.0824, 0.0828, 0.0827, 0.0828,0.0828
SingleSource/Benchmarks/Polybench/medley/floyd-warshall/floyd-warshall, 0.0692, 0.0696, 0.0694,0.0694, 0.0699, 0.0701, 0.0699,0.0699
SingleSource/Benchmarks/Polybench/medley/reg_detect/reg_detect, 0.3822, 0.3806, 0.3831,0.3822, 0.3799, 0.3815, 0.3814,0.3814
SingleSource/Benchmarks/Polybench/stencils/adi/adi, 0.0825, 0.0829, 0.0830,0.0829, 0.0834, 0.0836, 0.0832,0.0834
SingleSource/Benchmarks/Polybench/stencils/fdtd-2d/fdtd-2d, 0.1258, 0.1262, 0.1262,0.1262, 0.1270, 0.1273, 0.1272,0.1272
SingleSource/Benchmarks/Polybench/stencils/fdtd-apml/fdtd-apml, 0.1205, 0.1204, 0.1204,0.1204, 0.1212, 0.1211, 0.1210,0.1211
SingleSource/Benchmarks/Polybench/stencils/jacobi-1d-imper/jacobi-1d-imper, 0.0769, 0.0771, 0.0770,0.077, 0.0776, 0.0775, 0.0776,0.0776
SingleSource/Benchmarks/Polybench/stencils/jacobi-2d-imper/jacobi-2d-imper, 0.1029, 0.1035, 0.1034,0.1034, 0.1041, 0.1038, 0.1037,0.1038
SingleSource/Benchmarks/Polybench/stencils/seidel-2d/seidel-2d, 0.0642, 0.0644, 0.0645,0.0644, 0.0650, 0.0647, 0.0648,0.0648
SingleSource/Benchmarks/Shootout-C++/EH/except, 0.1354, 0.1427, 0.1417,0.1417, 0.1451, 0.1394, 0.1476,0.1451
SingleSource/Benchmarks/Shootout-C++/ackermann, 0.1086, 0.1076, 0.1078,0.1078, 0.1088, 0.1090, 0.1091,0.109
SingleSource/Benchmarks/Shootout-C++/ary, 0.1422, 0.1416, 0.1427,0.1422, 0.1433, 0.1433, 0.1426,0.1433
SingleSource/Benchmarks/Shootout-C++/ary2, 0.1442, 0.1430, 0.1441,0.1441, 0.1444, 0.1443, 0.1445,0.1444
SingleSource/Benchmarks/Shootout-C++/ary3, 0.1462, 0.1450, 0.1453,0.1453, 0.1463, 0.1470, 0.1463,0.1463
SingleSource/Benchmarks/Shootout-C++/fibo, 0.1067, 0.1064, 0.1068,0.1067, 0.1070, 0.1072, 0.1072,0.1072
SingleSource/Benchmarks/Shootout-C++/hash, 0.2480, 0.2474, 0.2477,0.2477, 0.2450, 0.2451, 0.2450,0.245
SingleSource/Benchmarks/Shootout-C++/hash2, 0.3125, 0.3246, 0.3159,0.3159, 0.3190, 0.3146, 0.3222,0.319
SingleSource/Benchmarks/Shootout-C++/heapsort, 0.1217, 0.1218, 0.1217,0.1217, 0.1214, 0.1215, 0.1216,0.1215
SingleSource/Benchmarks/Shootout-C++/lists, 0.1578, 0.1549, 0.1562,0.1562, 0.1520, 0.1528, 0.1522,0.1522
SingleSource/Benchmarks/Shootout-C++/lists1, 0.1792, 0.1787, 0.1780,0.1787, 0.1784, 0.1782, 0.1783,0.1783
SingleSource/Benchmarks/Shootout-C++/matrix, 0.1698, 0.1685, 0.1696,0.1696, 0.1690, 0.1699, 0.1692,0.1692
SingleSource/Benchmarks/Shootout-C++/methcall, 0.1151, 0.1145, 0.1151,0.1151, 0.1160, 0.1161, 0.1154,0.116
SingleSource/Benchmarks/Shootout-C++/moments, 0.3470, 0.3522, 0.3501,0.3501, 0.3454, 0.3449, 0.3456,0.3454
SingleSource/Benchmarks/Shootout-C++/nestedloop, 0.1069, 0.1064, 0.1073,0.1069, 0.1073, 0.1071, 0.1074,0.1073
SingleSource/Benchmarks/Shootout-C++/objinst, 0.1302, 0.1299, 0.1309,0.1302, 0.1302, 0.1302, 0.1309,0.1302
SingleSource/Benchmarks/Shootout-C++/random, 0.1151, 0.1151, 0.1155,0.1151, 0.1158, 0.1166, 0.1160,0.116
SingleSource/Benchmarks/Shootout-C++/sieve, 0.1668, 0.1659, 0.1656,0.1659, 0.1668, 0.1667, 0.1669,0.1668
SingleSource/Benchmarks/Shootout-C++/strcat, 0.1158, 0.1161, 0.1163,0.1161, 0.1162, 0.1162, 0.1170,0.1162
SingleSource/Benchmarks/Shootout/ackermann, 0.0222, 0.0220, 0.0223,0.0222, 0.0223, 0.0223, 0.0225,0.0223
SingleSource/Benchmarks/Shootout/ary3, 0.0323, 0.0324, 0.0324,0.0324, 0.0325, 0.0325, 0.0326,0.0325
SingleSource/Benchmarks/Shootout/fib2, 0.0189, 0.0188, 0.0189,0.0189, 0.0190, 0.0191, 0.0191,0.0191
SingleSource/Benchmarks/Shootout/hash, 0.0476, 0.0476, 0.0478,0.0476, 0.0479, 0.0478, 0.0480,0.0479
SingleSource/Benchmarks/Shootout/heapsort, 0.0365, 0.0364, 0.0366,0.0365, 0.0368, 0.0369, 0.0368,0.0368
SingleSource/Benchmarks/Shootout/lists, 0.0618, 0.0618, 0.0620,0.0618, 0.0621, 0.0623, 0.0621,0.0621
SingleSource/Benchmarks/Shootout/matrix, 0.0758, 0.0761, 0.0761,0.0761, 0.0760, 0.0761, 0.0761,0.0761
SingleSource/Benchmarks/Shootout/methcall, 0.0296, 0.0296, 0.0298,0.0296, 0.0299, 0.0299, 0.0300,0.0299
SingleSource/Benchmarks/Shootout/nestedloop, 0.0229, 0.0229, 0.0230,0.0229, 0.0229, 0.0231, 0.0230,0.023
SingleSource/Benchmarks/Shootout/objinst, 0.0349, 0.0350, 0.0351,0.035, 0.0352, 0.0353, 0.0354,0.0353
SingleSource/Benchmarks/Shootout/random, 0.0281, 0.0280, 0.0282,0.0281, 0.0284, 0.0283, 0.0285,0.0284
SingleSource/Benchmarks/Shootout/sieve, 0.0240, 0.0239, 0.0241,0.024, 0.0240, 0.0241, 0.0243,0.0241
SingleSource/Benchmarks/Shootout/strcat, 0.0256, 0.0258, 0.0258,0.0258, 0.0259, 0.0259, 0.0260,0.0259
SingleSource/Benchmarks/SmallPT/smallpt, 0.0912, 0.0918, 0.0919,0.0918, 0.0919, 0.0921, 0.0920,0.092
SingleSource/Benchmarks/Stanford/Bubblesort, 0.0317, 0.0317, 0.0318,0.0317, 0.0320, 0.0319, 0.0319,0.0319
SingleSource/Benchmarks/Stanford/FloatMM, 0.0492, 0.0491, 0.0492,0.0492, 0.0492, 0.0495, 0.0494,0.0494
SingleSource/Benchmarks/Stanford/Oscar, 0.0578, 0.0577, 0.0579,0.0578, 0.0580, 0.0581, 0.0581,0.0581
SingleSource/Benchmarks/Stanford/Perm, 0.0293, 0.0293, 0.0294,0.0293, 0.0297, 0.0295, 0.0297,0.0297
SingleSource/Benchmarks/Stanford/Puzzle, 0.1013, 0.1012, 0.1016,0.1013, 0.1014, 0.1017, 0.1014,0.1014
SingleSource/Benchmarks/Stanford/Queens, 0.0415, 0.0415, 0.0415,0.0415, 0.0417, 0.0417, 0.0418,0.0417
SingleSource/Benchmarks/Stanford/Quicksort, 0.0349, 0.0348, 0.0350,0.0349, 0.0350, 0.0350, 0.0350,0.035
SingleSource/Benchmarks/Stanford/RealMM, 0.0463, 0.0465, 0.0464,0.0464, 0.0467, 0.0466, 0.0466,0.0466
SingleSource/Benchmarks/Stanford/Towers, 0.0445, 0.0447, 0.0447,0.0447, 0.0450, 0.0449, 0.0452,0.045
SingleSource/Benchmarks/Stanford/Treesort, 0.0358, 0.0357, 0.0359,0.0358, 0.0360, 0.0362, 0.0360,0.036
SingleSource/Regression/C/2004-08-12-InlinerAndAllocas, 0.0185, 0.0186, 0.0187,0.0186, 0.0187, 0.0189, 0.0188,0.0188
SingleSource/Regression/C/uint64_to_float, 0.0592, 0.0580, 0.0566,0.058, 0.0609, 0.0633, 0.0653,0.0633
Total elapsed time,-,-,-,335.23669999999964,-,-,-,335.2271999999999
Total failure,-,-,-,0,-,-,-,0
