Benchmarks,base-5.0,base-5.0,base-5.0,median,insts-opt-5.0,insts-opt-5.0,insts-opt-5.0,median,Slowdown(%)
SingleSource/Benchmarks/CoyoteBench/almabench, 0.0614, 0.0613, 0.0613,0.0613, 0.0637, 0.0635, 0.0635,0.0635,3.5889070146818858
SingleSource/Benchmarks/Misc/himenobmtxpa, 0.1576, 0.1573, 0.1578,0.1576, 0.1617, 0.1619, 0.1621,0.1619,2.7284263959390875
MultiSource/Benchmarks/DOE-ProxyApps-C/RSBench/rsbench, 0.3596, 0.3611, 0.3616,0.3611, 0.3690, 0.3685, 0.3696,0.369,2.187759623373031
SingleSource/Benchmarks/Misc/flops-7, 0.0252, 0.0251, 0.0252,0.0252, 0.0256, 0.0254, 0.0256,0.0256,1.5873015873015817
SingleSource/Benchmarks/Misc/pi, 0.0199, 0.0200, 0.0201,0.02, 0.0203, 0.0203, 0.0203,0.0203,1.4999999999999902
MultiSource/Benchmarks/DOE-ProxyApps-C/XSBench/XSBench, 0.3245, 0.3214, 0.3217,0.3217, 0.3268, 0.3261, 0.3263,0.3263,1.4299036369288087
SingleSource/Benchmarks/CoyoteBench/fftbench, 0.5518, 0.5493, 0.5482,0.5493, 0.5550, 0.5593, 0.5571,0.5571,1.419989077007111
MultiSource/Benchmarks/Olden/health/health, 0.1263, 0.1272, 0.1278,0.1272, 0.1290, 0.1283, 0.1290,0.129,1.4150943396226356
MultiSource/Benchmarks/TSVC/NodeSplitting-dbl/NodeSplitting-dbl, 1.7920, 1.8032, 1.7954,1.7954, 1.8203, 1.8156, 1.8193,1.8193,1.3311796814080346
MultiSource/Benchmarks/FreeBench/analyzer/analyzer, 0.2182, 0.2197, 0.2203,0.2197, 0.2228, 0.2223, 0.2226,0.2226,1.3199817933545743
SingleSource/Benchmarks/Shootout-C++/ary3, 0.1462, 0.1450, 0.1453,0.1453, 0.1472, 0.1471, 0.1475,0.1472,1.3076393668272512
SingleSource/Benchmarks/Misc/lowercase, 0.0238, 0.0238, 0.0240,0.0238, 0.0241, 0.0240, 0.0241,0.0241,1.2605042016806678
SingleSource/Benchmarks/Misc/flops-3, 0.0253, 0.0253, 0.0252,0.0253, 0.0256, 0.0257, 0.0256,0.0256,1.1857707509881577
SingleSource/Benchmarks/Misc/flops-4, 0.0258, 0.0257, 0.0259,0.0258, 0.0261, 0.0261, 0.0262,0.0261,1.1627906976744207
SingleSource/Benchmarks/Misc/flops-6, 0.0262, 0.0262, 0.0263,0.0262, 0.0265, 0.0265, 0.0265,0.0265,1.1450381679389166
SingleSource/Benchmarks/Misc/flops-8, 0.0263, 0.0264, 0.0263,0.0263, 0.0266, 0.0265, 0.0267,0.0266,1.1406844106463865
SingleSource/Benchmarks/Misc/flops-2, 0.0262, 0.0263, 0.0263,0.0263, 0.0267, 0.0266, 0.0266,0.0266,1.1406844106463865
SingleSource/Benchmarks/Misc/matmul_f64_4x4, 0.0266, 0.0266, 0.0267,0.0266, 0.0269, 0.0268, 0.0269,0.0269,1.1278195488721776
MultiSource/Benchmarks/FreeBench/mason/mason, 0.0459, 0.0460, 0.0463,0.046, 0.0464, 0.0465, 0.0467,0.0465,1.0869565217391353
SingleSource/Benchmarks/Stanford/RealMM, 0.0463, 0.0465, 0.0464,0.0464, 0.0470, 0.0467, 0.0469,0.0469,1.0775862068965525
MultiSource/Benchmarks/Olden/bh/bh, 0.2345, 0.2351, 0.2357,0.2351, 0.2376, 0.2371, 0.2380,0.2376,1.063377286261158
MultiSource/Applications/spiff/spiff, 0.6849, 0.6892, 0.6908,0.6892, 0.6965, 0.6957, 0.6966,0.6965,1.059199071387118
MultiSource/Benchmarks/MiBench/automotive-bitcount/automotive-bitcount, 0.2372, 0.2394, 0.2398,0.2394, 0.2419, 0.2410, 0.2419,0.2419,1.0442773600668254
SingleSource/Benchmarks/Stanford/Perm, 0.0293, 0.0293, 0.0294,0.0293, 0.0297, 0.0295, 0.0296,0.0296,1.0238907849829504
MultiSource/Benchmarks/Prolangs-C++/simul/simul, 0.0487, 0.0489, 0.0492,0.0489, 0.0493, 0.0494, 0.0494,0.0494,1.0224948875255713
SingleSource/Benchmarks/Shootout/methcall, 0.0296, 0.0296, 0.0298,0.0296, 0.0299, 0.0299, 0.0300,0.0299,1.0135135135135087
SingleSource/Benchmarks/BenchmarkGame/nsieve-bits, 0.0300, 0.0302, 0.0300,0.03, 0.0304, 0.0303, 0.0303,0.0303,1.0000000000000009
MultiSource/Benchmarks/BitBench/uudecode/uudecode, 0.0404, 0.0405, 0.0407,0.0405, 0.0410, 0.0408, 0.0409,0.0409,0.9876543209876409
MultiSource/Benchmarks/Trimaran/netbench-crc/netbench-crc, 0.0710, 0.0714, 0.0718,0.0714, 0.0722, 0.0719, 0.0721,0.0721,0.9803921568627416
MultiSource/Benchmarks/DOE-ProxyApps-C++/HPCCG/HPCCG, 1.2896, 1.2908, 1.2958,1.2908, 1.3034, 1.3022, 1.3064,1.3034,0.9761388286334105
MultiSource/Benchmarks/TSVC/InductionVariable-dbl/InductionVariable-dbl, 1.8259, 1.8224, 1.8211,1.8224, 1.8343, 1.8402, 1.8399,1.8399,0.9602721685689319
MultiSource/Benchmarks/Olden/perimeter/perimeter, 0.0726, 0.0731, 0.0736,0.0731, 0.0739, 0.0737, 0.0738,0.0738,0.9575923392612928
MultiSource/Benchmarks/DOE-ProxyApps-C/miniGMG/miniGMG, 0.8858, 0.8874, 0.8903,0.8874, 0.8956, 0.8944, 0.8959,0.8956,0.924047780031545
MultiSource/Benchmarks/McCat/17-bintr/bintr, 0.0647, 0.0650, 0.0655,0.065, 0.0656, 0.0654, 0.0657,0.0656,0.9230769230769376
MultiSource/Benchmarks/MiBench/telecomm-CRC32/telecomm-CRC32, 0.0325, 0.0328, 0.0329,0.0328, 0.0331, 0.0329, 0.0331,0.0331,0.9146341463414531
SingleSource/Benchmarks/Shootout-C++/ary, 0.1422, 0.1416, 0.1427,0.1422, 0.1426, 0.1435, 0.1440,0.1435,0.914205344585084
MultiSource/Benchmarks/DOE-ProxyApps-C/SimpleMOC/SimpleMOC, 0.7876, 0.7897, 0.7915,0.7897, 0.7977, 0.7947, 0.7969,0.7969,0.9117386349246637
SingleSource/Benchmarks/Polybench/linear-algebra/kernels/trmm/trmm, 0.0664, 0.0665, 0.0666,0.0665, 0.0671, 0.0670, 0.0671,0.0671,0.9022556390977599
SingleSource/Benchmarks/Shootout/ackermann, 0.0222, 0.0220, 0.0223,0.0222, 0.0224, 0.0223, 0.0224,0.0224,0.9009009009008917
MultiSource/Benchmarks/MiBench/automotive-basicmath/automotive-basicmath, 0.1334, 0.1340, 0.1346,0.134, 0.1354, 0.1350, 0.1352,0.1352,0.8955223880596774
SingleSource/Benchmarks/Shootout/nestedloop, 0.0229, 0.0229, 0.0230,0.0229, 0.0231, 0.0231, 0.0231,0.0231,0.8733624454148492
SingleSource/Benchmarks/Shootout-C++/random, 0.1151, 0.1151, 0.1155,0.1151, 0.1162, 0.1161, 0.1158,0.1161,0.8688097306689846
MultiSource/Benchmarks/TSVC/Equivalencing-flt/Equivalencing-flt, 1.5173, 1.5132, 1.5186,1.5173, 1.5302, 1.5304, 1.5316,1.5304,0.863375733210292
SingleSource/Benchmarks/Shootout-C++/objinst, 0.1302, 0.1299, 0.1309,0.1302, 0.1306, 0.1313, 0.1317,0.1313,0.8448540706605057
MultiSource/Benchmarks/ASC_Sequoia/IRSmk/IRSmk, 0.0947, 0.0955, 0.0957,0.0955, 0.0966, 0.0961, 0.0963,0.0963,0.8376963350785305
MultiSource/Benchmarks/ASC_Sequoia/CrystalMk/CrystalMk, 0.2039, 0.2059, 0.2060,0.2059, 0.2077, 0.2073, 0.2076,0.2076,0.825643516270036
MultiSource/Benchmarks/TSVC/Symbolics-dbl/Symbolics-dbl, 1.8056, 1.8072, 1.8109,1.8072, 1.8209, 1.8220, 1.8228,1.822,0.818946436476331
MultiSource/Benchmarks/MiBench/consumer-lame/consumer-lame, 3.5940, 3.6050, 3.6079,3.605, 3.6404, 3.6323, 3.6343,3.6343,0.8127600554785008
SingleSource/Benchmarks/Misc/fbench, 0.0500, 0.0498, 0.0498,0.0498, 0.0502, 0.0500, 0.0502,0.0502,0.8032128514056325
SingleSource/Benchmarks/BenchmarkGame/recursive, 0.0249, 0.0249, 0.0249,0.0249, 0.0251, 0.0251, 0.0251,0.0251,0.8032128514056325
SingleSource/Benchmarks/BenchmarkGame/spectral-norm, 0.0504, 0.0504, 0.0505,0.0504, 0.0507, 0.0508, 0.0509,0.0508,0.7936507936507908
SingleSource/Benchmarks/Misc/flops-1, 0.0255, 0.0255, 0.0255,0.0255, 0.0257, 0.0257, 0.0258,0.0257,0.7843137254902155
MultiSource/Benchmarks/McCat/01-qbsort/qbsort, 0.0893, 0.0901, 0.0902,0.0901, 0.0912, 0.0906, 0.0908,0.0908,0.7769145394006749
SingleSource/Benchmarks/Polybench/stencils/seidel-2d/seidel-2d, 0.0642, 0.0644, 0.0645,0.0644, 0.0649, 0.0650, 0.0649,0.0649,0.7763975155279601
MultiSource/Benchmarks/MiBench/network-dijkstra/network-dijkstra, 0.0388, 0.0390, 0.0390,0.039, 0.0394, 0.0392, 0.0393,0.0393,0.7692307692307665
MultiSource/Benchmarks/Prolangs-C/gnugo/gnugo, 0.6774, 0.6827, 0.6842,0.6827, 0.6879, 0.6868, 0.6884,0.6879,0.7616815585176573
MultiSource/Benchmarks/TSVC/LinearDependence-flt/LinearDependence-flt, 1.5607, 1.5641, 1.5632,1.5632, 1.5769, 1.5748, 1.5751,1.5751,0.7612589559877092
SingleSource/Benchmarks/Misc/flops-5, 0.0264, 0.0262, 0.0263,0.0263, 0.0265, 0.0265, 0.0267,0.0265,0.7604562737642429
MultiSource/Benchmarks/SciMark2-C/scimark2, 0.3411, 0.3437, 0.3449,0.3437, 0.3468, 0.3459, 0.3463,0.3463,0.756473668897284
SingleSource/Benchmarks/Polybench/stencils/fdtd-apml/fdtd-apml, 0.1205, 0.1204, 0.1204,0.1204, 0.1213, 0.1208, 0.1214,0.1213,0.7475083056478482
MultiSource/Benchmarks/TSVC/Reductions-flt/Reductions-flt, 1.5546, 1.5601, 1.5570,1.557, 1.5686, 1.5690, 1.5681,1.5686,0.7450224791265336
MultiSource/Benchmarks/MiBench/telecomm-gsm/telecomm-gsm, 0.9495, 0.9557, 0.9579,0.9557, 0.9627, 0.9613, 0.9629,0.9627,0.7324474207387244
SingleSource/Benchmarks/Misc/mandel, 0.0410, 0.0410, 0.0412,0.041, 0.0412, 0.0413, 0.0413,0.0413,0.7317073170731714
MultiSource/Benchmarks/DOE-ProxyApps-C/miniAMR/miniAMR, 1.2259, 1.2315, 1.2312,1.2312, 1.2414, 1.2397, 1.2401,1.2401,0.7228719948018103
SingleSource/Benchmarks/Polybench/stencils/fdtd-2d/fdtd-2d, 0.1258, 0.1262, 0.1262,0.1262, 0.1271, 0.1270, 0.1271,0.1271,0.7131537242472064
MultiSource/Benchmarks/TSVC/CrossingThresholds-dbl/CrossingThresholds-dbl, 1.8115, 1.8134, 1.8068,1.8115, 1.8197, 1.8258, 1.8244,1.8244,0.7121170300855573
SingleSource/Benchmarks/Shootout/random, 0.0281, 0.0280, 0.0282,0.0281, 0.0283, 0.0283, 0.0283,0.0283,0.7117437722419906
SingleSource/Benchmarks/BenchmarkGame/partialsums, 0.0280, 0.0281, 0.0283,0.0281, 0.0283, 0.0282, 0.0284,0.0283,0.7117437722419906
SingleSource/Benchmarks/Polybench/linear-algebra/kernels/syrk/syrk, 0.0703, 0.0703, 0.0706,0.0703, 0.0707, 0.0708, 0.0709,0.0708,0.7112375533428139
SingleSource/Benchmarks/Polybench/datamining/correlation/correlation, 0.0704, 0.0703, 0.0703,0.0703, 0.0706, 0.0708, 0.0708,0.0708,0.7112375533428139
SingleSource/Benchmarks/Misc/fp-convert, 0.0283, 0.0282, 0.0283,0.0283, 0.0285, 0.0285, 0.0287,0.0285,0.7067137809187329
MultiSource/Benchmarks/MiBench/telecomm-FFT/telecomm-fft, 0.1301, 0.1291, 0.1293,0.1293, 0.1302, 0.1299, 0.1303,0.1302,0.6960556844547661
MultiSource/Benchmarks/Olden/power/power, 0.1171, 0.1180, 0.1187,0.118, 0.1188, 0.1186, 0.1191,0.1188,0.6779661016949268
MultiSource/Benchmarks/Trimaran/enc-pc1/enc-pc1, 0.0592, 0.0596, 0.0597,0.0596, 0.0601, 0.0599, 0.0600,0.06,0.6711409395973034
MultiSource/Benchmarks/Fhourstones/fhourstones, 0.1485, 0.1497, 0.1507,0.1497, 0.1509, 0.1501, 0.1507,0.1507,0.6680026720106813
MultiSource/Benchmarks/TSVC/LoopRestructuring-dbl/LoopRestructuring-dbl, 1.8211, 1.8259, 1.8117,1.8211, 1.8320, 1.8332, 1.8395,1.8332,0.6644335840975124
SingleSource/Benchmarks/Misc/dt, 0.0303, 0.0302, 0.0304,0.0303, 0.0305, 0.0305, 0.0305,0.0305,0.6600660066006458
MultiSource/Benchmarks/TSVC/Reductions-dbl/Reductions-dbl, 1.8403, 1.8584, 1.8657,1.8584, 1.8699, 1.8707, 1.8706,1.8706,0.6564786913473952
SingleSource/Benchmarks/Shootout-C++/ackermann, 0.1086, 0.1076, 0.1078,0.1078, 0.1085, 0.1084, 0.1087,0.1085,0.6493506493506329
MultiSource/Benchmarks/TSVC/Equivalencing-dbl/Equivalencing-dbl, 1.8182, 1.8263, 1.8236,1.8236, 1.8319, 1.8374, 1.8354,1.8354,0.6470717262557546
SingleSource/Benchmarks/Misc-C++/Large/sphereflake, 0.2011, 0.2017, 0.2010,0.2011, 0.2024, 0.2020, 0.2035,0.2024,0.6464445549477782
SingleSource/Benchmarks/Misc/whetstone, 0.0620, 0.0619, 0.0621,0.062, 0.0624, 0.0624, 0.0624,0.0624,0.6451612903225712
SingleSource/Benchmarks/Stanford/Bubblesort, 0.0317, 0.0317, 0.0318,0.0317, 0.0319, 0.0319, 0.0319,0.0319,0.6309148264984188
MultiSource/Benchmarks/mediabench/gsm/toast/toast, 0.9497, 0.9558, 0.9584,0.9558, 0.9617, 0.9616, 0.9623,0.9617,0.6172839506172867
SingleSource/Benchmarks/BenchmarkGame/n-body, 0.0654, 0.0655, 0.0656,0.0655, 0.0659, 0.0658, 0.0660,0.0659,0.6106870229007688
MultiSource/Benchmarks/Olden/em3d/em3d, 0.1625, 0.1640, 0.1645,0.164, 0.1650, 0.1647, 0.1651,0.165,0.6097560975609762
SingleSource/Benchmarks/Polybench/linear-algebra/kernels/gemver/gemver, 0.0834, 0.0833, 0.0835,0.0834, 0.0840, 0.0839, 0.0838,0.0839,0.5995203836930418
SingleSource/Benchmarks/Misc/salsa20, 0.0502, 0.0503, 0.0505,0.0503, 0.0506, 0.0506, 0.0506,0.0506,0.5964214711729587
SingleSource/Benchmarks/Polybench/linear-algebra/solvers/dynprog/dynprog, 0.0669, 0.0672, 0.0673,0.0672, 0.0677, 0.0675, 0.0676,0.0676,0.5952380952380931
SingleSource/Benchmarks/Misc/evalloop, 0.0337, 0.0339, 0.0339,0.0339, 0.0340, 0.0341, 0.0341,0.0341,0.5899705014749124
MultiSource/Benchmarks/Olden/tsp/tsp, 0.1185, 0.1191, 0.1198,0.1191, 0.1201, 0.1196, 0.1198,0.1198,0.5877413937867448
MultiSource/Benchmarks/McCat/04-bisect/bisect, 0.1183, 0.1191, 0.1193,0.1191, 0.1197, 0.1198, 0.1199,0.1198,0.5877413937867448
MultiSource/Benchmarks/McCat/05-eks/eks, 0.4751, 0.4770, 0.4770,0.477, 0.4798, 0.4791, 0.4799,0.4798,0.5870020964360734
MultiSource/Applications/viterbi/viterbi, 0.1547, 0.1558, 0.1559,0.1558, 0.1568, 0.1567, 0.1567,0.1567,0.5776636713735739
MultiSource/Benchmarks/TSVC/IndirectAddressing-dbl/IndirectAddressing-dbl, 1.8013, 1.8034, 1.8018,1.8018, 1.8112, 1.8122, 1.8201,1.8122,0.5772005772005651
SingleSource/Benchmarks/Polybench/medley/floyd-warshall/floyd-warshall, 0.0692, 0.0696, 0.0694,0.0694, 0.0698, 0.0698, 0.0699,0.0698,0.5763688760806795
SingleSource/Benchmarks/Stanford/Quicksort, 0.0349, 0.0348, 0.0350,0.0349, 0.0350, 0.0352, 0.0351,0.0351,0.5730659025787954
MultiSource/Benchmarks/TSVC/LoopRerolling-dbl/LoopRerolling-dbl, 1.7901, 1.7925, 1.7919,1.7919, 1.7982, 1.8051, 1.8020,1.802,0.5636475249734874
SingleSource/Benchmarks/Stanford/Treesort, 0.0358, 0.0357, 0.0359,0.0358, 0.0360, 0.0359, 0.0361,0.036,0.5586592178770999
SingleSource/Benchmarks/Shootout/heapsort, 0.0365, 0.0364, 0.0366,0.0365, 0.0367, 0.0366, 0.0367,0.0367,0.547945205479472
MultiSource/Benchmarks/Ptrdist/anagram/anagram, 0.0911, 0.0913, 0.0914,0.0913, 0.0918, 0.0917, 0.0918,0.0918,0.5476451259583737
SingleSource/Regression/C/2004-08-12-InlinerAndAllocas, 0.0185, 0.0186, 0.0187,0.0186, 0.0187, 0.0187, 0.0188,0.0187,0.5376344086021723
MultiSource/Applications/obsequi/Obsequi, 0.9071, 0.9040, 0.9062,0.9062, 0.9140, 0.9110, 0.9066,0.911,0.5296843963805031
SingleSource/Benchmarks/Misc/ReedSolomon, 0.1718, 0.1722, 0.1722,0.1722, 0.1727, 0.1731, 0.1732,0.1731,0.5226480836237002
SingleSource/Benchmarks/Stanford/Oscar, 0.0578, 0.0577, 0.0579,0.0578, 0.0583, 0.0580, 0.0581,0.0581,0.519031141868509
SingleSource/Benchmarks/Shootout-C++/strcat, 0.1158, 0.1161, 0.1163,0.1161, 0.1164, 0.1169, 0.1167,0.1167,0.5167958656330685
MultiSource/Benchmarks/TSVC/GlobalDataFlow-dbl/GlobalDataFlow-dbl, 1.8488, 1.8517, 1.8562,1.8517, 1.8551, 1.8620, 1.8612,1.8612,0.5130420694496873
SingleSource/Benchmarks/Polybench/linear-algebra/kernels/trisolv/trisolv, 0.0585, 0.0585, 0.0586,0.0585, 0.0589, 0.0588, 0.0588,0.0588,0.512820512820511
MultiSource/Benchmarks/VersaBench/ecbdes/ecbdes, 0.1939, 0.1950, 0.1953,0.195, 0.1961, 0.1957, 0.1960,0.196,0.512820512820511
MultiSource/Benchmarks/NPB-serial/is/is, 0.0593, 0.0596, 0.0598,0.0596, 0.0599, 0.0599, 0.0600,0.0599,0.5033557046979942
MultiSource/Benchmarks/BitBench/uuencode/uuencode, 0.0395, 0.0399, 0.0398,0.0398, 0.0400, 0.0401, 0.0400,0.04,0.5025125628140614
MultiSource/Benchmarks/TSVC/LinearDependence-dbl/LinearDependence-dbl, 1.8684, 1.8625, 1.8684,1.8684, 1.8777, 1.8757, 1.8826,1.8777,0.49775208734745835
SingleSource/Benchmarks/Stanford/Puzzle, 0.1013, 0.1012, 0.1016,0.1013, 0.1018, 0.1015, 0.1020,0.1018,0.49358341559724295
MultiSource/Benchmarks/Prolangs-C++/employ/employ, 0.1844, 0.1837, 0.1845,0.1844, 0.1853, 0.1844, 0.1858,0.1853,0.48806941431669415
SingleSource/Benchmarks/Shootout/lists, 0.0618, 0.0618, 0.0620,0.0618, 0.0621, 0.0621, 0.0622,0.0621,0.4854368932038833
SingleSource/Benchmarks/Polybench/linear-algebra/solvers/lu/lu, 0.0820, 0.0825, 0.0824,0.0824, 0.0828, 0.0827, 0.0828,0.0828,0.4854368932038833
MultiSource/Benchmarks/FreeBench/pcompress2/pcompress2, 0.2257, 0.2274, 0.2276,0.2274, 0.2285, 0.2284, 0.2285,0.2285,0.4837291116974507
MultiSource/Benchmarks/MallocBench/cfrac/cfrac, 0.8039, 0.8118, 0.8139,0.8118, 0.8165, 0.8142, 0.8157,0.8157,0.48041389504804854
MultiSource/Benchmarks/MallocBench/espresso/espresso, 4.1616, 4.1732, 4.1778,4.1732, 4.1931, 4.1885, 4.1927,4.1927,0.4672673248346859
MultiSource/Benchmarks/ASCI_Purple/SMG2000/smg2000, 5.1424, 5.1594, 5.1584,5.1584, 5.1825, 5.1825, 5.1851,5.1825,0.46719913151365144
MultiSource/Benchmarks/MiBench/security-sha/security-sha, 0.1074, 0.1081, 0.1082,0.1081, 0.1086, 0.1086, 0.1087,0.1086,0.46253469010175685
MultiSource/Benchmarks/Trimaran/enc-3des/enc-3des, 0.2171, 0.2175, 0.2177,0.2175, 0.2184, 0.2190, 0.2185,0.2185,0.45977011494253706
MultiSource/Benchmarks/llubenchmark/llu, 0.0435, 0.0440, 0.0438,0.0438, 0.0440, 0.0440, 0.0439,0.044,0.45662100456620447
MultiSource/Benchmarks/TSVC/Packing-flt/Packing-flt, 1.4746, 1.4627, 1.4713,1.4713, 1.4701, 1.4780, 1.4809,1.478,0.4553795962753959
MultiSource/Benchmarks/Ptrdist/ks/ks, 0.1322, 0.1328, 0.1329,0.1328, 0.1333, 0.1334, 0.1334,0.1334,0.45180722891564606
SingleSource/Benchmarks/Misc-C++/mandel-text, 0.0227, 0.0229, 0.0230,0.0229, 0.0230, 0.0230, 0.0230,0.023,0.4366812227074135
MultiSource/Benchmarks/FreeBench/neural/neural, 0.1606, 0.1609, 0.1616,0.1609, 0.1616, 0.1609, 0.1617,0.1616,0.43505282784337407
MultiSource/Benchmarks/Trimaran/enc-rc4/enc-rc4, 0.0459, 0.0462, 0.0464,0.0462, 0.0464, 0.0463, 0.0464,0.0464,0.43290043290042934
MultiSource/Benchmarks/TSVC/Expansion-dbl/Expansion-dbl, 1.8540, 1.8592, 1.8586,1.8586, 1.8666, 1.8701, 1.8652,1.8666,0.4304315075863485
SingleSource/Benchmarks/Polybench/linear-algebra/kernels/symm/symm, 0.0709, 0.0706, 0.0708,0.0708, 0.0713, 0.0711, 0.0710,0.0711,0.4237288135593209
SingleSource/Benchmarks/Misc/flops, 0.0709, 0.0710, 0.0709,0.0709, 0.0712, 0.0710, 0.0713,0.0712,0.42313117066290484
SingleSource/Benchmarks/Polybench/linear-algebra/kernels/syr2k/syr2k, 0.0721, 0.0719, 0.0719,0.0719, 0.0726, 0.0722, 0.0722,0.0722,0.4172461752433909
SingleSource/Benchmarks/Shootout/sieve, 0.0240, 0.0239, 0.0241,0.024, 0.0241, 0.0240, 0.0242,0.0241,0.4166666666666652
SingleSource/Benchmarks/Misc/revertBits, 0.0240, 0.0241, 0.0241,0.0241, 0.0242, 0.0241, 0.0243,0.0242,0.4149377593360981
SingleSource/Benchmarks/Polybench/linear-algebra/kernels/bicg/bicg, 0.0723, 0.0724, 0.0725,0.0724, 0.0727, 0.0726, 0.0728,0.0727,0.4143646408839796
MultiSource/Applications/JM/lencod/lencod,13.4048,13.4307,13.4304,13.4304,13.4984,13.4859,13.4815,13.4859,0.4132416011436657
MultiSource/Benchmarks/ASC_Sequoia/AMGmk/AMGmk, 0.5362, 0.5381, 0.5393,0.5381, 0.5403, 0.5400, 0.5404,0.5403,0.40884593941645786
MultiSource/Applications/minisat/minisat, 0.5643, 0.5682, 0.5633,0.5643, 0.5701, 0.5666, 0.5643,0.5666,0.4075846181109233
SingleSource/Benchmarks/Stanford/FloatMM, 0.0492, 0.0491, 0.0492,0.0492, 0.0494, 0.0494, 0.0494,0.0494,0.40650406504065817
SingleSource/Benchmarks/McGill/misr, 0.0494, 0.0494, 0.0495,0.0494, 0.0496, 0.0496, 0.0495,0.0496,0.4048582995951344
SingleSource/Benchmarks/Polybench/linear-algebra/kernels/mvt/mvt, 0.0745, 0.0744, 0.0746,0.0745, 0.0748, 0.0745, 0.0753,0.0748,0.4026845637584042
MultiSource/Benchmarks/VersaBench/beamformer/beamformer, 0.2737, 0.2751, 0.2750,0.275, 0.2761, 0.2759, 0.2762,0.2761,0.40000000000000036
MultiSource/Benchmarks/McCat/18-imp/imp, 0.3003, 0.3018, 0.3019,0.3018, 0.3030, 0.3026, 0.3032,0.303,0.397614314115291
SingleSource/Benchmarks/Polybench/stencils/jacobi-1d-imper/jacobi-1d-imper, 0.0769, 0.0771, 0.0770,0.077, 0.0773, 0.0771, 0.0774,0.0773,0.3896103896103842
SingleSource/Benchmarks/Polybench/datamining/covariance/covariance, 0.0770, 0.0771, 0.0773,0.0771, 0.0776, 0.0774, 0.0774,0.0774,0.3891050583657574
SingleSource/Benchmarks/Shootout/strcat, 0.0256, 0.0258, 0.0258,0.0258, 0.0259, 0.0259, 0.0259,0.0259,0.3875968992248069
MultiSource/Benchmarks/mediabench/mpeg2/mpeg2dec/mpeg2decode, 1.2111, 1.2165, 1.2181,1.2165, 1.2210, 1.2194, 1.2210,1.221,0.36991368680643344
MultiSource/Benchmarks/Trimaran/enc-md5/enc-md5, 0.1353, 0.1361, 0.1364,0.1361, 0.1367, 0.1366, 0.1364,0.1366,0.3673769287288797
MultiSource/Benchmarks/Prolangs-C++/life/life, 0.0549, 0.0551, 0.0552,0.0551, 0.0555, 0.0553, 0.0553,0.0553,0.3629764065335772
SingleSource/Benchmarks/Shootout-C++/sieve, 0.1668, 0.1659, 0.1656,0.1659, 0.1665, 0.1665, 0.1661,0.1665,0.3616636528029016
MultiSource/Benchmarks/MiBench/security-rijndael/security-rijndael, 0.3616, 0.3627, 0.3634,0.3627, 0.3642, 0.3640, 0.3634,0.364,0.35842293906809264
MultiSource/Benchmarks/7zip/7zip-benchmark,30.9758,31.0142,31.0473,31.0142,31.1234,31.1213,31.1621,31.1234,0.3520967814742981
MultiSource/Benchmarks/FreeBench/distray/distray, 0.0856, 0.0860, 0.0859,0.0859, 0.0863, 0.0862, 0.0859,0.0862,0.34924330616996624
MultiSource/Benchmarks/TSVC/CrossingThresholds-flt/CrossingThresholds-flt, 1.5059, 1.5136, 1.5059,1.5059, 1.5162, 1.5099, 1.5111,1.5111,0.3453084534165596
SingleSource/Benchmarks/Misc/richards_benchmark, 0.0590, 0.0589, 0.0589,0.0589, 0.0591, 0.0591, 0.0590,0.0591,0.339558573853993
MultiSource/Benchmarks/TSVC/Symbolics-flt/Symbolics-flt, 1.4993, 1.5031, 1.5075,1.5031, 1.5081, 1.5130, 1.5079,1.5081,0.3326458652118891
MultiSource/Applications/aha/aha, 0.0902, 0.0909, 0.0909,0.0909, 0.0910, 0.0912, 0.0912,0.0912,0.33003300330034513
SingleSource/Benchmarks/SmallPT/smallpt, 0.0912, 0.0918, 0.0919,0.0918, 0.0918, 0.0921, 0.0922,0.0921,0.32679738562091387
SingleSource/Benchmarks/Misc/ffbench, 0.0620, 0.0621, 0.0620,0.062, 0.0623, 0.0622, 0.0620,0.0622,0.3225806451612856
SingleSource/Benchmarks/Polybench/linear-algebra/solvers/gramschmidt/gramschmidt, 0.0936, 0.0941, 0.0938,0.0938, 0.0942, 0.0941, 0.0940,0.0941,0.31982942430703876
MultiSource/Benchmarks/TSVC/StatementReordering-dbl/StatementReordering-dbl, 1.7687, 1.7761, 1.7711,1.7711, 1.7761, 1.7791, 1.7766,1.7766,0.3105414714019483
SingleSource/Benchmarks/Shootout/ary3, 0.0323, 0.0324, 0.0324,0.0324, 0.0327, 0.0325, 0.0324,0.0325,0.30864197530864335
MultiSource/Benchmarks/TSVC/LoopRerolling-flt/LoopRerolling-flt, 1.4862, 1.4877, 1.4832,1.4862, 1.4867, 1.4911, 1.4906,1.4906,0.29605705826940554
SingleSource/Benchmarks/Shootout/objinst, 0.0349, 0.0350, 0.0351,0.035, 0.0352, 0.0351, 0.0351,0.0351,0.28571428571426694
MultiSource/Benchmarks/nbench/nbench, 1.0190, 1.0162, 1.0177,1.0177, 1.0206, 1.0196, 1.0211,1.0206,0.2849562739510647
MultiSource/Benchmarks/TSVC/Packing-dbl/Packing-dbl, 1.7749, 1.7733, 1.7727,1.7733, 1.7864, 1.7777, 1.7783,1.7783,0.2819601872215527
SingleSource/Benchmarks/Shootout-C++/nestedloop, 0.1069, 0.1064, 0.1073,0.1069, 0.1072, 0.1072, 0.1074,0.1072,0.280636108512633
MultiSource/Benchmarks/Trimaran/netbench-url/netbench-url, 0.1884, 0.1902, 0.1906,0.1902, 0.1909, 0.1905, 0.1907,0.1907,0.2628811777076745
SingleSource/Benchmarks/Shootout/matrix, 0.0758, 0.0761, 0.0761,0.0761, 0.0765, 0.0761, 0.0763,0.0763,0.26281208935612366
SingleSource/Benchmarks/Shootout-C++/methcall, 0.1151, 0.1145, 0.1151,0.1151, 0.1154, 0.1152, 0.1157,0.1154,0.26064291920069316
MultiSource/Benchmarks/Ptrdist/ft/ft, 0.1916, 0.1928, 0.1935,0.1928, 0.1935, 0.1928, 0.1933,0.1933,0.2593360995850613
MultiSource/Benchmarks/TSVC/ControlFlow-flt/ControlFlow-flt, 1.6393, 1.6355, 1.6381,1.6381, 1.6438, 1.6411, 1.6423,1.6423,0.25639460350406207
MultiSource/Benchmarks/TSVC/Recurrences-dbl/Recurrences-dbl, 1.7760, 1.7784, 1.7771,1.7771, 1.7826, 1.7808, 1.7815,1.7815,0.24759439536323757
MultiSource/Applications/sqlite3/sqlite3,13.3309,13.2865,13.3353,13.3309,13.4103,13.3445,13.3636,13.3636,0.2452947662948457
SingleSource/Benchmarks/Dhrystone/fldry, 0.0409, 0.0411, 0.0410,0.041, 0.0413, 0.0411, 0.0411,0.0411,0.24390243902439046
SingleSource/Benchmarks/Stanford/Queens, 0.0415, 0.0415, 0.0415,0.0415, 0.0416, 0.0415, 0.0416,0.0416,0.24096385542167198
SingleSource/Benchmarks/McGill/queens, 0.0415, 0.0417, 0.0417,0.0417, 0.0418, 0.0417, 0.0420,0.0418,0.23980815347721673
SingleSource/Benchmarks/Polybench/linear-algebra/kernels/cholesky/cholesky, 0.0845, 0.0845, 0.0846,0.0845, 0.0847, 0.0847, 0.0849,0.0847,0.2366863905325367
MultiSource/Applications/SIBsim4/SIBsim4, 1.0602, 1.0561, 1.0560,1.0561, 1.0608, 1.0584, 1.0529,1.0584,0.21778240696903595
MultiSource/Benchmarks/VersaBench/bmm/bmm, 0.0469, 0.0471, 0.0471,0.0471, 0.0472, 0.0472, 0.0473,0.0472,0.2123142250530785
SingleSource/Benchmarks/Shootout/hash, 0.0476, 0.0476, 0.0478,0.0476, 0.0477, 0.0478, 0.0477,0.0477,0.21008403361344463
SingleSource/Benchmarks/BenchmarkGame/fannkuch, 0.0479, 0.0478, 0.0479,0.0479, 0.0481, 0.0480, 0.0480,0.048,0.20876826722338038
MultiSource/Benchmarks/Bullet/bullet,21.0329,21.0321,21.0602,21.0329,21.0742,21.0653,21.1217,21.0742,0.1963590375078983
SingleSource/Benchmarks/Polybench/stencils/jacobi-2d-imper/jacobi-2d-imper, 0.1029, 0.1035, 0.1034,0.1034, 0.1036, 0.1036, 0.1036,0.1036,0.19342359767891004
SingleSource/Benchmarks/Shootout-C++/fibo, 0.1067, 0.1064, 0.1068,0.1067, 0.1066, 0.1072, 0.1069,0.1069,0.18744142455482393
MultiSource/Benchmarks/Fhourstones-3.1/fhourstones3.1, 0.1070, 0.1075, 0.1071,0.1071, 0.1073, 0.1071, 0.1073,0.1073,0.18674136321195078
MultiSource/Benchmarks/TSVC/ControlLoops-dbl/ControlLoops-dbl, 1.8577, 1.8668, 1.8640,1.864, 1.8659, 1.8674, 1.8686,1.8674,0.18240343347639687
MultiSource/Applications/hexxagon/hexxagon, 0.6056, 0.6061, 0.6086,0.6061, 0.6072, 0.6067, 0.6078,0.6072,0.1814882032667775
SingleSource/Benchmarks/Shootout-C++/heapsort, 0.1217, 0.1218, 0.1217,0.1217, 0.1221, 0.1219, 0.1218,0.1219,0.16433853738702098
SingleSource/Benchmarks/Polybench/linear-algebra/kernels/gesummv/gesummv, 0.0620, 0.0619, 0.0620,0.062, 0.0621, 0.0621, 0.0622,0.0621,0.1612903225806539
MultiSource/Benchmarks/MallocBench/gs/gs, 3.4231, 3.4376, 3.4416,3.4376, 3.4434, 3.4382, 3.4430,3.443,0.1570863393064892
MultiSource/Applications/JM/ldecod/ldecod, 5.7891, 5.7903, 5.7894,5.7894, 5.7901, 5.7975, 5.8020,5.7975,0.1399108715929298
MultiSource/Applications/ALAC/encode/alacconvert-encode, 0.8619, 0.8657, 0.8684,0.8657, 0.8658, 0.8674, 0.8669,0.8669,0.1386161487813231
MultiSource/Benchmarks/DOE-ProxyApps-C/Pathfinder/PathFinder, 0.7359, 0.7424, 0.7433,0.7424, 0.7448, 0.7434, 0.7431,0.7434,0.1346982758620774
SingleSource/Benchmarks/Polybench/linear-algebra/solvers/durbin/durbin, 0.0809, 0.0810, 0.0810,0.081, 0.0810, 0.0811, 0.0812,0.0811,0.12345679012346622
SingleSource/Benchmarks/Polybench/stencils/adi/adi, 0.0825, 0.0829, 0.0830,0.0829, 0.0831, 0.0829, 0.0830,0.083,0.12062726176116367
MultiSource/Benchmarks/TSVC/Expansion-flt/Expansion-flt, 1.5455, 1.5556, 1.5528,1.5528, 1.5546, 1.5490, 1.5548,1.5546,0.11591962905719289
SingleSource/Benchmarks/Polybench/linear-algebra/kernels/doitgen/doitgen, 0.0898, 0.0897, 0.0896,0.0897, 0.0899, 0.0898, 0.0897,0.0898,0.11148272017837968
MultiSource/Benchmarks/Prolangs-C/bison/mybison, 1.4695, 1.4748, 1.4762,1.4748, 1.4774, 1.4756, 1.4764,1.4764,0.10848928668292235
SingleSource/Benchmarks/Linpack/linpack-pc, 0.2792, 0.2798, 0.2796,0.2796, 0.2793, 0.2799, 0.2803,0.2799,0.10729613733904131
MultiSource/Benchmarks/Prolangs-C++/ocean/ocean, 0.1001, 0.1001, 0.1002,0.1001, 0.1002, 0.1002, 0.1003,0.1002,0.09990009990010762
MultiSource/Benchmarks/TSVC/ControlLoops-flt/ControlLoops-flt, 1.5539, 1.5622, 1.5558,1.5558, 1.5529, 1.5573, 1.5596,1.5573,0.09641342074815373
MultiSource/Benchmarks/TSVC/NodeSplitting-flt/NodeSplitting-flt, 1.4991, 1.5031, 1.4961,1.4991, 1.4991, 1.5009, 1.5005,1.5005,0.0933893669534891
MultiSource/Benchmarks/Prolangs-C++/city/city, 0.8318, 0.8265, 0.8285,0.8285, 0.8292, 0.8284, 0.8320,0.8292,0.08449004224502232
MultiSource/Applications/lambda-0.1.3/lambda, 0.5055, 0.5071, 0.5064,0.5064, 0.5068, 0.5050, 0.5073,0.5068,0.07898894154818592
MultiSource/Benchmarks/MiBench/consumer-jpeg/consumer-jpeg, 4.0519, 4.0725, 4.0751,4.0725, 4.0757, 4.0696, 4.0759,4.0757,0.07857581338246433
SingleSource/Benchmarks/Polybench/medley/reg_detect/reg_detect, 0.3822, 0.3806, 0.3831,0.3822, 0.3825, 0.3823, 0.3838,0.3825,0.07849293563579884
MultiSource/Benchmarks/mediabench/jpeg/jpeg-6a/cjpeg, 4.0908, 4.1092, 4.1136,4.1092, 4.1138, 4.1081, 4.1121,4.1121,0.07057334761022549
MultiSource/Applications/ALAC/decode/alacconvert-decode, 0.8621, 0.8664, 0.8671,0.8664, 0.8674, 0.8659, 0.8669,0.8669,0.05771006463528572
MultiSource/Benchmarks/TSVC/Searching-dbl/Searching-dbl, 1.7675, 1.7655, 1.7665,1.7665, 1.7713, 1.7663, 1.7674,1.7674,0.05094820266062783
MultiSource/Benchmarks/TSVC/Searching-flt/Searching-flt, 1.4630, 1.4624, 1.4591,1.4624, 1.4630, 1.4631, 1.4627,1.463,0.04102844638951275
MultiSource/Benchmarks/sim/sim, 0.2600, 0.2587, 0.2589,0.2589, 0.2590, 0.2581, 0.2590,0.259,0.03862495171880198
SingleSource/Benchmarks/Adobe-C++/simple_types_constant_folding, 2.2188, 2.2284, 2.2159,2.2188, 2.2195, 2.2181, 2.2264,2.2195,0.031548584820639824
MultiSource/Benchmarks/TSVC/IndirectAddressing-flt/IndirectAddressing-flt, 1.4967, 1.5061, 1.5032,1.5032, 1.5044, 1.5036, 1.5028,1.5036,0.026609898882390404
MultiSource/Benchmarks/Prolangs-C/agrep/agrep, 1.2145, 1.2178, 1.2200,1.2178, 1.2179, 1.2171, 1.2197,1.2179,0.008211528986690197
SingleSource/Benchmarks/Stanford/Towers, 0.0445, 0.0447, 0.0447,0.0447, 0.0447, 0.0447, 0.0450,0.0447,0.0
SingleSource/Benchmarks/Polybench/linear-algebra/kernels/atax/atax, 0.0740, 0.0739, 0.0739,0.0739, 0.0742, 0.0738, 0.0739,0.0739,0.0
SingleSource/Benchmarks/Misc/perlin, 0.0423, 0.0421, 0.0421,0.0421, 0.0420, 0.0421, 0.0422,0.0421,0.0
MultiSource/Benchmarks/BitBench/drop3/drop3, 0.0397, 0.0400, 0.0401,0.04, 0.0400, 0.0398, 0.0402,0.04,0.0
MultiSource/Applications/sgefa/sgefa, 0.3565, 0.3581, 0.3573,0.3573, 0.3571, 0.3573, 0.3575,0.3573,0.0
MultiSource/Benchmarks/TSVC/GlobalDataFlow-flt/GlobalDataFlow-flt, 1.5509, 1.5523, 1.5449,1.5509, 1.5522, 1.5504, 1.5500,1.5504,-0.03223934489651192
MultiSource/Applications/oggenc/oggenc, 4.3657, 4.3721, 4.3712,4.3712, 4.3695, 4.3548, 4.3708,4.3695,-0.03889092240115799
MultiSource/Benchmarks/TSVC/StatementReordering-flt/StatementReordering-flt, 1.4855, 1.4726, 1.4668,1.4726, 1.4717, 1.4703, 1.4763,1.4717,-0.061116392774673844
MultiSource/Benchmarks/TSVC/InductionVariable-flt/InductionVariable-flt, 1.5243, 1.5260, 1.5263,1.526, 1.5265, 1.5250, 1.5228,1.525,-0.0655307994757659
MultiSource/Benchmarks/DOE-ProxyApps-C++/PENNANT/PENNANT, 3.7119, 3.7072, 3.7176,3.7119, 3.7091, 3.7048, 3.7154,3.7091,-0.07543306662356475
MultiSource/Benchmarks/mafft/pairlocalalign, 7.9351, 7.9492, 7.9329,7.9351, 7.9291, 7.9238, 7.9378,7.9291,-0.07561341381961961
MultiSource/Applications/ClamAV/clamscan,13.2189,13.2482,13.2493,13.2482,13.2338,13.2232,13.2388,13.2338,-0.1086940112619117
MultiSource/Benchmarks/FreeBench/pifft/pifft, 0.8389, 0.8396, 0.8400,0.8396, 0.8384, 0.8386, 0.8406,0.8386,-0.11910433539781273
MultiSource/Applications/hbd/hbd, 1.0978, 1.1027, 1.1057,1.1027, 1.1016, 1.1010, 1.1009,1.101,-0.15416704452707597
MultiSource/Benchmarks/Ptrdist/yacr2/yacr2, 0.5511, 0.5549, 0.5548,0.5548, 0.5539, 0.5535, 0.5547,0.5539,-0.162220620043263
MultiSource/Applications/d/make_dparser, 2.4201, 2.3988, 2.4041,2.4041, 2.4000, 2.3953, 2.4057,2.4,-0.17054199076578236
MultiSource/Applications/lua/lua, 2.9478, 2.9605, 2.9592,2.9592, 2.9541, 2.9531, 2.9557,2.9541,-0.17234387672344642
MultiSource/Benchmarks/Ptrdist/bc/bc, 0.9206, 0.9239, 0.9235,0.9235, 0.9233, 0.9205, 0.9216,0.9216,-0.2057390362750433
SingleSource/Benchmarks/Shootout-C++/ary2, 0.1442, 0.1430, 0.1441,0.1441, 0.1438, 0.1436, 0.1440,0.1438,-0.2081887578070707
SingleSource/Benchmarks/Shootout-C++/matrix, 0.1698, 0.1685, 0.1696,0.1696, 0.1696, 0.1688, 0.1692,0.1692,-0.2358490566037763
SingleSource/Benchmarks/Adobe-C++/loop_unroll, 3.9142, 3.9276, 3.9205,3.9205, 3.9094, 3.9154, 3.9109,3.9109,-0.24486672618289074
MultiSource/Benchmarks/DOE-ProxyApps-C++/miniFE/miniFE, 2.3438, 2.3450, 2.3464,2.345, 2.3390, 2.3317, 2.3406,2.339,-0.2558635394456332
MultiSource/Applications/SPASS/SPASS,11.1334,11.1427,11.1505,11.1427,11.1136,11.1081,11.1165,11.1136,-0.26115752914463997
MultiSource/Benchmarks/FreeBench/fourinarow/fourinarow, 0.3072, 0.3074, 0.3063,0.3072, 0.3089, 0.3061, 0.3061,0.3061,-0.35807291666666297
MultiSource/Benchmarks/TSVC/Recurrences-flt/Recurrences-flt, 1.4737, 1.4757, 1.4695,1.4737, 1.4765, 1.4681, 1.4684,1.4684,-0.35963900386781766
SingleSource/Benchmarks/Shootout-C++/lists1, 0.1792, 0.1787, 0.1780,0.1787, 0.1787, 0.1776, 0.1780,0.178,-0.3917179630665957
SingleSource/Benchmarks/McGill/chomp, 0.1709, 0.1711, 0.1704,0.1709, 0.1702, 0.1700, 0.1703,0.1702,-0.40959625511995945
SingleSource/Benchmarks/Adobe-C++/simple_types_loop_invariant, 1.7957, 1.8046, 1.7937,1.7957, 1.7914, 1.7864, 1.7882,1.7882,-0.41766442056022646
MultiSource/Benchmarks/MiBench/consumer-typeset/consumer-typeset, 8.9228, 8.9414, 8.9531,8.9414, 8.9057, 8.9036, 8.8986,8.9036,-0.4227525890799999
SingleSource/Benchmarks/CoyoteBench/lpbench, 0.1383, 0.1380, 0.1378,0.138, 0.1374, 0.1371, 0.1374,0.1374,-0.43478260869566077
MultiSource/Applications/siod/siod, 1.8207, 1.8186, 1.8235,1.8207, 1.8088, 1.8164, 1.8116,1.8116,-0.4998077662437428
MultiSource/Benchmarks/McCat/09-vor/vor, 0.2517, 0.2529, 0.2535,0.2529, 0.2511, 0.2504, 0.2509,0.2509,-0.7908264136022192
MultiSource/Benchmarks/tramp3d-v4/tramp3d-v4,18.3736,18.3727,18.3616,18.3727,18.2334,18.1869,18.2232,18.2232,-0.8137072939742085
MultiSource/Benchmarks/DOE-ProxyApps-C++/CLAMR/CLAMR,16.3805,16.3797,16.3919,16.3805,16.2437,16.2375,16.2652,16.2437,-0.8351393425109155
MultiSource/Benchmarks/PAQ8p/paq8p, 1.7176, 1.7222, 1.7304,1.7222, 1.7134, 1.7077, 1.7072,1.7077,-0.8419463476948108
MultiSource/Applications/kimwitu++/kc,10.1029,10.0443,10.0818,10.0818, 9.9784, 9.9816, 9.9958,9.9816,-0.9938701422364971
SingleSource/Benchmarks/Shootout-C++/hash, 0.2480, 0.2474, 0.2477,0.2477, 0.2451, 0.2450, 0.2456,0.2451,-1.0496568429551822
SingleSource/Benchmarks/Misc-C++-EH/spirit, 3.3897, 3.3677, 3.3799,3.3799, 3.3320, 3.3385, 3.3365,3.3365,-1.2840616586289544
SingleSource/Benchmarks/CoyoteBench/huffbench, 0.0786, 0.0786, 0.0783,0.0786, 0.0776, 0.0775, 0.0775,0.0775,-1.3994910941475869
SingleSource/Benchmarks/Shootout-C++/moments, 0.3470, 0.3522, 0.3501,0.3501, 0.3419, 0.3431, 0.3448,0.3431,-1.9994287346472461
SingleSource/Benchmarks/Misc-C++/stepanov_v1p2, 0.1586, 0.1584, 0.1577,0.1584, 0.1551, 0.1556, 0.1551,0.1551,-2.083333333333348
SingleSource/Benchmarks/Adobe-C++/functionobjects, 0.4184, 0.4164, 0.4161,0.4164, 0.4018, 0.4030, 0.4031,0.403,-3.2180595581171922
SingleSource/Benchmarks/Adobe-C++/stepanov_abstraction, 0.5579, 0.5579, 0.5576,0.5579, 0.5295, 0.5269, 0.5277,0.5277,-5.413156479655856
MultiSource/Benchmarks/Olden/voronoi/voronoi, 0.2252, 0.2221, 0.2232,0.2232, 0.2043, 0.2043, 0.2044,0.2043,-8.467741935483875
Total elapsed time,-,-,-,335.23669999999964,-,-,-,335.2575,0.006204571277645954
Total failure,-,-,-,0,-,-,-,0,
Geom. avg slowdown,,,,,,,,,0.348492112776%
