Benchmarks,base-5.0,base-5.0,base-5.0,median,nocapture-5.0,nocapture-5.0,nocapture-5.0,median,Slowdown(%)
SingleSource/Benchmarks/Shootout-C++/moments, 0.0441, 0.0441, 0.0441,0.0441, 0.0506, 0.0507, 0.0507,0.0507,14.965986394557817
MultiSource/Benchmarks/mediabench/jpeg/jpeg-6a/cjpeg, 0.0032, 0.0032, 0.0032,0.0032, 0.0034, 0.0034, 0.0034,0.0034,6.25
MultiSource/Benchmarks/Olden/bh/bh, 1.2799, 1.2789, 1.2771,1.2789, 1.3188, 1.3220, 1.3218,1.3218,3.3544452263664315
MultiSource/Benchmarks/MiBench/telecomm-gsm/telecomm-gsm, 0.1048, 0.0999, 0.0999,0.0999, 0.0994, 0.1028, 0.1068,0.1028,2.902902902902893
SingleSource/Benchmarks/Polybench/linear-algebra/solvers/durbin/durbin, 0.3969, 0.3975, 0.4070,0.3975, 0.4067, 0.4069, 0.4072,0.4069,2.364779874213818
MultiSource/Benchmarks/Prolangs-C++/city/city, 0.0050, 0.0050, 0.0050,0.005, 0.0051, 0.0050, 0.0051,0.0051,2.0000000000000018
MultiSource/Applications/lambda-0.1.3/lambda, 2.6398, 2.6485, 2.6596,2.6485, 2.7039, 2.7011, 2.7001,2.7011,1.9860298282046385
MultiSource/Applications/minisat/minisat, 4.1172, 3.9614, 4.1554,4.1172, 4.1981, 4.1881, 4.1901,4.1901,1.7706208102593823
MultiSource/Applications/SIBsim4/SIBsim4, 2.1090, 2.1011, 2.0918,2.1011, 2.1010, 2.1490, 2.1330,2.133,1.5182523440102624
SingleSource/Benchmarks/Polybench/linear-algebra/kernels/gemver/gemver, 0.3211, 0.3215, 0.3222,0.3215, 0.3259, 0.3263, 0.3167,0.3259,1.3685847589424593
SingleSource/Benchmarks/CoyoteBench/fftbench, 0.6358, 0.6382, 0.6352,0.6358, 0.6413, 0.6524, 0.6431,0.6431,1.1481597986788161
MultiSource/Benchmarks/Olden/voronoi/voronoi, 0.2137, 0.2136, 0.2133,0.2136, 0.2160, 0.2161, 0.2159,0.216,1.1235955056179803
MultiSource/Benchmarks/Prolangs-C++/primes/primes, 0.2125, 0.2125, 0.2144,0.2125, 0.2143, 0.2135, 0.2149,0.2143,0.8470588235294008
SingleSource/Benchmarks/Shootout-C++/lists1, 0.1312, 0.1336, 0.1322,0.1322, 0.1333, 0.1348, 0.1319,0.1333,0.832072617246582
MultiSource/Benchmarks/SciMark2-C/scimark2,42.0700,42.0691,42.0903,42.07,42.4114,42.0909,42.7223,42.4114,0.8115046351319322
SingleSource/Benchmarks/Misc/himenobmtxpa, 0.5156, 0.5241, 0.5168,0.5168, 0.5225, 0.5209, 0.5179,0.5209,0.7933436532507665
MultiSource/Benchmarks/FreeBench/analyzer/analyzer, 0.0404, 0.0401, 0.0403,0.0403, 0.0406, 0.0407, 0.0402,0.0406,0.7444168734491274
MultiSource/Benchmarks/McCat/17-bintr/bintr, 0.0817, 0.0794, 0.0809,0.0809, 0.0815, 0.0808, 0.0817,0.0815,0.7416563658838138
MultiSource/Benchmarks/TSVC/ControlFlow-flt/ControlFlow-flt, 3.5461, 3.5591, 3.5630,3.5591, 3.5863, 3.5821, 3.5634,3.5821,0.6462307886825336
MultiSource/Benchmarks/MallocBench/cfrac/cfrac, 0.7592, 0.7591, 0.7593,0.7592, 0.7637, 0.7636, 0.7637,0.7637,0.5927291886196118
SingleSource/Benchmarks/Shootout-C++/hash2, 1.7154, 1.7131, 1.7155,1.7154, 1.7252, 1.7253, 1.7270,1.7253,0.5771248688352548
MultiSource/Applications/sqlite3/sqlite3, 1.7780, 1.7811, 1.7754,1.778, 1.7870, 1.7878, 1.7964,1.7878,0.5511811023622082
MultiSource/Applications/viterbi/viterbi, 1.2781, 1.2776, 1.2783,1.2781, 1.2844, 1.2847, 1.2857,1.2847,0.5163915186604973
MultiSource/Benchmarks/Ptrdist/ks/ks, 0.6496, 0.6531, 0.6505,0.6505, 0.6538, 0.6565, 0.6524,0.6538,0.5073020753266766
SingleSource/Benchmarks/Polybench/linear-algebra/kernels/cholesky/cholesky, 0.4549, 0.4554, 0.4568,0.4554, 0.4576, 0.4606, 0.4571,0.4576,0.48309178743961567
SingleSource/Benchmarks/Shootout/ary3, 0.5999, 0.5969, 0.5970,0.597, 0.5997, 0.6006, 0.5981,0.5997,0.45226130653266416
SingleSource/Benchmarks/BenchmarkGame/nsieve-bits, 0.4920, 0.4805, 0.4846,0.4846, 0.4877, 0.4867, 0.4861,0.4867,0.4333470903838288
MultiSource/Benchmarks/llubenchmark/llu, 4.1436, 4.1147, 4.0668,4.1147, 4.1323, 4.0529, 4.2011,4.1323,0.42773470726904517
MultiSource/Benchmarks/Prolangs-C++/life/life, 0.7136, 0.7145, 0.7148,0.7145, 0.7154, 0.7173, 0.7188,0.7173,0.39188243526941946
SingleSource/Benchmarks/Shootout-C++/hash, 0.3073, 0.3064, 0.3085,0.3073, 0.3085, 0.3095, 0.3082,0.3085,0.3904978848031204
SingleSource/Benchmarks/Shootout/hash, 2.7600, 2.7509, 2.7540,2.754, 2.7642, 2.7658, 2.7569,2.7642,0.37037037037037646
SingleSource/Benchmarks/Adobe-C++/loop_unroll, 1.7723, 1.7734, 1.7752,1.7734, 1.7801, 1.7796, 1.7764,1.7796,0.3496109168828143
SingleSource/Benchmarks/BenchmarkGame/Large/fasta, 0.6449, 0.6504, 0.6458,0.6458, 0.6488, 0.6480, 0.6454,0.648,0.34066274388355744
MultiSource/Benchmarks/VersaBench/dbms/dbms, 0.8882, 0.8969, 0.8906,0.8906, 0.8884, 0.8935, 0.8940,0.8935,0.3256231753873795
MultiSource/Benchmarks/DOE-ProxyApps-C/Pathfinder/PathFinder, 2.0973, 2.1028, 2.0949,2.0973, 2.1026, 2.0922, 2.1058,2.1026,0.2527058599151033
SingleSource/Benchmarks/Polybench/stencils/fdtd-apml/fdtd-apml, 0.7208, 0.7213, 0.7260,0.7213, 0.7239, 0.7231, 0.7211,0.7231,0.2495494246499197
MultiSource/Benchmarks/Olden/perimeter/perimeter, 0.1217, 0.1220, 0.1219,0.1219, 0.1222, 0.1218, 0.1222,0.1222,0.24610336341264194
MultiSource/Benchmarks/mafft/pairlocalalign,24.6627,24.6616,24.6617,24.6617,24.7174,24.7184,24.7182,24.7182,0.22910018368562657
SingleSource/Benchmarks/McGill/chomp, 1.3040, 1.2363, 1.2999,1.2999, 1.3010, 1.3053, 1.3027,1.3027,0.2154011847065096
MultiSource/Benchmarks/Olden/health/health, 0.1434, 0.1435, 0.1435,0.1435, 0.1438, 0.1435, 0.1438,0.1438,0.2090592334494934
SingleSource/Benchmarks/Adobe-C++/functionobjects, 3.0294, 3.0298, 3.0288,3.0294, 3.0338, 3.0353, 3.0356,3.0353,0.194758037895304
MultiSource/Benchmarks/TSVC/LoopRestructuring-dbl/LoopRestructuring-dbl, 3.6397, 3.6377, 3.6432,3.6397, 3.6339, 3.6519, 3.6467,3.6467,0.19232354314915323
MultiSource/Benchmarks/MiBench/automotive-basicmath/automotive-basicmath, 0.2227, 0.2224, 0.2226,0.2226, 0.2232, 0.2230, 0.2228,0.223,0.17969451931716396
SingleSource/Benchmarks/Misc-C++-EH/spirit, 2.6175, 2.6167, 2.6210,2.6175, 2.6218, 2.6221, 2.6221,2.6221,0.17574021012416452
MultiSource/Benchmarks/TSVC/ControlLoops-flt/ControlLoops-flt, 2.3515, 2.3463, 2.3487,2.3487, 2.3532, 2.3498, 2.3528,2.3528,0.17456465278664623
MultiSource/Benchmarks/TSVC/Symbolics-flt/Symbolics-flt, 1.3884, 1.3954, 1.3875,1.3884, 1.3896, 1.3972, 1.3908,1.3908,0.17286084701815252
MultiSource/Benchmarks/TSVC/LinearDependence-flt/LinearDependence-flt, 4.9821, 4.9762, 4.9843,4.9821, 4.9892, 4.9905, 4.9927,4.9905,0.16860360089119286
MultiSource/Benchmarks/Ptrdist/bc/bc, 0.3640, 0.3634, 0.3636,0.3636, 0.3640, 0.3643, 0.3642,0.3642,0.16501650165017256
MultiSource/Benchmarks/Olden/treeadd/treeadd, 0.1264, 0.1266, 0.1264,0.1264, 0.1295, 0.1266, 0.1266,0.1266,0.15822784810124446
SingleSource/Benchmarks/Misc-C++/bigfib, 0.1912, 0.1906, 0.1906,0.1906, 0.1910, 0.1906, 0.1909,0.1909,0.15739769150051597
MultiSource/Benchmarks/FreeBench/pifft/pifft, 0.0650, 0.0652, 0.0650,0.065, 0.0653, 0.0651, 0.0650,0.0651,0.15384615384614886
MultiSource/Benchmarks/DOE-ProxyApps-C/SimpleMOC/SimpleMOC, 3.7957, 3.7806, 3.7866,3.7866, 3.7946, 3.7924, 3.7772,3.7924,0.15317171076956182
SingleSource/Benchmarks/Polybench/datamining/covariance/covariance, 1.6562, 1.6562, 1.6534,1.6562, 1.6536, 1.6585, 1.6641,1.6585,0.1388721168940954
MultiSource/Benchmarks/MallocBench/espresso/espresso, 0.3012, 0.2986, 0.2983,0.2986, 0.2988, 0.2991, 0.2990,0.299,0.13395847287340779
SingleSource/Benchmarks/CoyoteBench/lpbench, 1.8173, 1.8191, 1.8137,1.8173, 1.8166, 1.8212, 1.8196,1.8196,0.12656138227040703
MultiSource/Benchmarks/McCat/09-vor/vor, 0.0828, 0.0828, 0.0830,0.0828, 0.0830, 0.0829, 0.0829,0.0829,0.12077294685990392
MultiSource/Benchmarks/DOE-ProxyApps-C++/CLAMR/CLAMR, 1.1202, 1.1202, 1.1201,1.1202, 1.1214, 1.1214, 1.1214,1.1214,0.10712372790571134
MultiSource/Benchmarks/TSVC/IndirectAddressing-flt/IndirectAddressing-flt, 2.2425, 2.2463, 2.2442,2.2442, 2.2460, 2.2465, 2.2466,2.2465,0.10248640941092901
MultiSource/Benchmarks/TSVC/InductionVariable-flt/InductionVariable-flt, 2.5598, 2.5539, 2.5578,2.5578, 2.5546, 2.5655, 2.5604,2.5604,0.10164985534444337
SingleSource/Benchmarks/Shootout/strcat, 0.1051, 0.1050, 0.1050,0.105, 0.1051, 0.1051, 0.1052,0.1051,0.09523809523810378
SingleSource/Benchmarks/Misc/evalloop, 0.3683, 0.3680, 0.3690,0.3683, 0.3686, 0.3691, 0.3683,0.3686,0.08145533532446514
MultiSource/Benchmarks/DOE-ProxyApps-C++/PENNANT/PENNANT, 0.3697, 0.3698, 0.3696,0.3697, 0.3698, 0.3700, 0.3705,0.37,0.0811468758452838
SingleSource/Benchmarks/BenchmarkGame/puzzle, 0.1291, 0.1292, 0.1290,0.1291, 0.1295, 0.1291, 0.1292,0.1292,0.07745933384974979
MultiSource/Benchmarks/7zip/7zip-benchmark, 6.3323, 6.3313, 6.3309,6.3313, 6.3361, 6.3381, 6.3356,6.3361,0.07581381390868724
SingleSource/Benchmarks/Polybench/linear-algebra/kernels/trmm/trmm, 2.3572, 2.3519, 2.3510,2.3519, 2.3429, 2.3544, 2.3535,2.3535,0.06803010332070425
MultiSource/Benchmarks/Fhourstones-3.1/fhourstones3.1, 0.7712, 0.7713, 0.7714,0.7713, 0.7718, 0.7727, 0.7718,0.7718,0.0648256190846741
SingleSource/Benchmarks/Polybench/linear-algebra/kernels/doitgen/doitgen, 0.7805, 0.7865, 0.7803,0.7805, 0.7810, 0.7804, 0.7815,0.781,0.06406149903908087
SingleSource/Benchmarks/Misc/richards_benchmark, 0.4974, 0.4971, 0.4972,0.4972, 0.4974, 0.4975, 0.4975,0.4975,0.06033789219630492
MultiSource/Benchmarks/TSVC/Searching-flt/Searching-flt, 2.4315, 2.4327, 2.4343,2.4327, 2.4340, 2.4333, 2.4340,2.434,0.05343856620216858
MultiSource/Benchmarks/ASC_Sequoia/IRSmk/IRSmk, 2.9897, 2.9978, 3.0031,2.9978, 2.9994, 2.9981, 3.0160,2.9994,0.053372473146984234
SingleSource/Benchmarks/SmallPT/smallpt, 7.5461, 7.5423, 7.5470,7.5461, 7.5617, 7.5495, 7.5467,7.5495,0.045056386742814425
MultiSource/Benchmarks/TSVC/IndirectAddressing-dbl/IndirectAddressing-dbl, 2.4798, 2.4752, 2.4756,2.4756, 2.4767, 2.4781, 2.4734,2.4767,0.04443367264501674
SingleSource/Benchmarks/Shootout/lists, 4.0791, 4.0819, 4.0799,4.0799, 4.0818, 4.0817, 4.0800,4.0817,0.044118728400199814
MultiSource/Benchmarks/TSVC/GlobalDataFlow-dbl/GlobalDataFlow-dbl, 2.8519, 2.8510, 2.8505,2.851, 2.8522, 2.8504, 2.8528,2.8522,0.042090494563296055
MultiSource/Benchmarks/TSVC/LinearDependence-dbl/LinearDependence-dbl, 5.7071, 5.7067, 5.7073,5.7071, 5.7065, 5.7095, 5.7113,5.7095,0.04205288149849995
MultiSource/Benchmarks/tramp3d-v4/tramp3d-v4, 0.2395, 0.2397, 0.2396,0.2396, 0.2397, 0.2462, 0.2396,0.2397,0.041736227045063856
MultiSource/Benchmarks/TSVC/Expansion-dbl/Expansion-dbl, 1.9862, 1.9844, 1.9893,1.9862, 1.9877, 1.9849, 1.9870,1.987,0.04027791763165922
MultiSource/Benchmarks/TSVC/StatementReordering-dbl/StatementReordering-dbl, 2.2453, 2.2455, 2.2457,2.2455, 2.2463, 2.2445, 2.2464,2.2463,0.035626809173927576
MultiSource/Benchmarks/Olden/tsp/tsp, 1.1718, 1.1719, 1.1720,1.1719, 1.1724, 1.1723, 1.1723,1.1723,0.03413260517108885
MultiSource/Benchmarks/Ptrdist/anagram/anagram, 0.6001, 0.6001, 0.6002,0.6001, 0.6002, 0.6003, 0.6003,0.6003,0.0333277787035513
MultiSource/Benchmarks/nbench/nbench, 1.2713, 1.2717, 1.2722,1.2717, 1.2720, 1.2721, 1.2723,1.2721,0.031453959267113696
MultiSource/Benchmarks/Trimaran/enc-3des/enc-3des, 1.2894, 1.2895, 1.2893,1.2894, 1.2901, 1.2898, 1.2897,1.2898,0.03102218085930808
MultiSource/Benchmarks/TSVC/CrossingThresholds-dbl/CrossingThresholds-dbl, 2.1488, 2.1494, 2.1491,2.1491, 2.1497, 2.1488, 2.1500,2.1497,0.02791866362665818
MultiSource/Benchmarks/Olden/bisort/bisort, 0.3626, 0.3620, 0.3616,0.362, 0.3621, 0.3622, 0.3617,0.3621,0.02762430939227123
SingleSource/Benchmarks/Polybench/datamining/correlation/correlation, 1.6684, 1.6735, 1.6659,1.6684, 1.6676, 1.6698, 1.6687,1.6687,0.01798129944856619
SingleSource/Benchmarks/Polybench/linear-algebra/kernels/syr2k/syr2k, 9.1846, 9.1862, 8.9501,9.1846, 9.1877, 9.1855, 9.1861,9.1861,0.01633168564771914
SingleSource/Benchmarks/Misc-C++/Large/ray, 3.1396, 3.1392, 3.1393,3.1393, 3.1398, 3.1398, 3.1402,3.1398,0.01592711751028375
MultiSource/Applications/JM/lencod/lencod, 3.1663, 3.1622, 3.1617,3.1622, 3.1636, 3.1510, 3.1627,3.1627,0.01581177661122979
SingleSource/Benchmarks/Polybench/stencils/adi/adi, 2.8039, 2.8038, 2.8040,2.8039, 2.8054, 2.8037, 2.8043,2.8043,0.014265844002991912
MultiSource/Benchmarks/DOE-ProxyApps-C/miniAMR/miniAMR, 0.7731, 0.7720, 0.7710,0.772, 0.7721, 0.7716, 0.7721,0.7721,0.012953367875656596
SingleSource/Benchmarks/Misc/ReedSolomon, 3.1536, 3.1536, 3.1537,3.1536, 3.1539, 3.1541, 3.1540,3.154,0.012683916793498895
MultiSource/Benchmarks/TSVC/LoopRerolling-dbl/LoopRerolling-dbl, 4.6104, 4.6104, 4.6112,4.6104, 4.6107, 4.6109, 4.6110,4.6109,0.010845045982987855
MultiSource/Benchmarks/TSVC/InductionVariable-dbl/InductionVariable-dbl, 3.0478, 3.0493, 3.0492,3.0492, 3.0495, 3.0487, 3.0495,3.0495,0.00983864620229813
MultiSource/Benchmarks/TSVC/Searching-dbl/Searching-dbl, 2.2752, 2.2751, 2.2753,2.2752, 2.2754, 2.2754, 2.2752,2.2754,0.008790436005634561
MultiSource/Benchmarks/TSVC/Packing-dbl/Packing-dbl, 2.3235, 2.3243, 2.3244,2.3243, 2.3245, 2.3237, 2.3254,2.3245,0.00860474121240351
MultiSource/Applications/hexxagon/hexxagon, 7.0582, 7.0583, 7.0585,7.0583, 7.0585, 7.0588, 7.0588,7.0588,0.007083858719525438
MultiSource/Benchmarks/VersaBench/bmm/bmm, 1.6459, 1.6459, 1.6460,1.6459, 1.6459, 1.6460, 1.6460,1.646,0.006075703262653498
MultiSource/Benchmarks/VersaBench/ecbdes/ecbdes, 1.6932, 1.6931, 1.6931,1.6931, 1.6933, 1.6932, 1.6932,1.6932,0.005906325674787105
SingleSource/Benchmarks/Shootout-C++/heapsort, 2.0270, 2.0258, 2.0281,2.027, 2.0227, 2.0276, 2.0271,2.0271,0.004933399111983761
MultiSource/Benchmarks/DOE-ProxyApps-C/miniGMG/miniGMG, 5.2020, 5.2021, 5.2014,5.202, 5.2030, 5.2018, 5.2022,5.2022,0.003844675124953234
SingleSource/Benchmarks/Misc/flops-6, 3.3721, 3.4194, 3.4194,3.4194, 3.4195, 3.3943, 3.4418,3.4195,0.0029244896765590056
SingleSource/Benchmarks/Polybench/medley/floyd-warshall/floyd-warshall, 5.9776, 5.9743, 5.9739,5.9743, 5.9748, 5.9744, 5.9727,5.9744,0.00167383626532569
SingleSource/Regression/C/uint64_to_float, 0.2465, 0.2465, 0.2464,0.2465, 0.2465, 0.2464, 0.2465,0.2465,0.0
SingleSource/Regression/C/2004-08-12-InlinerAndAllocas, 0.0013, 0.0013, 0.0013,0.0013, 0.0013, 0.0013, 0.0013,0.0013,0.0
SingleSource/Benchmarks/Stanford/Treesort, 0.0545, 0.0544, 0.0544,0.0544, 0.0544, 0.0544, 0.0545,0.0544,0.0
SingleSource/Benchmarks/Stanford/Towers, 0.0083, 0.0083, 0.0083,0.0083, 0.0083, 0.0083, 0.0083,0.0083,0.0
SingleSource/Benchmarks/Stanford/RealMM, 0.0014, 0.0014, 0.0014,0.0014, 0.0014, 0.0014, 0.0014,0.0014,0.0
SingleSource/Benchmarks/Stanford/Quicksort, 0.0303, 0.0302, 0.0302,0.0302, 0.0302, 0.0302, 0.0302,0.0302,0.0
SingleSource/Benchmarks/Stanford/Puzzle, 0.0794, 0.0794, 0.0794,0.0794, 0.0794, 0.0794, 0.0794,0.0794,0.0
SingleSource/Benchmarks/Stanford/Perm, 0.0145, 0.0145, 0.0145,0.0145, 0.0145, 0.0145, 0.0145,0.0145,0.0
SingleSource/Benchmarks/Stanford/Oscar, 0.0032, 0.0032, 0.0032,0.0032, 0.0032, 0.0032, 0.0032,0.0032,0.0
SingleSource/Benchmarks/Stanford/FloatMM, 0.2012, 0.2011, 0.2011,0.2011, 0.2011, 0.2006, 0.2012,0.2011,0.0
SingleSource/Benchmarks/Stanford/Bubblesort, 0.0158, 0.0157, 0.0157,0.0157, 0.0157, 0.0157, 0.0157,0.0157,0.0
SingleSource/Benchmarks/Shootout/random, 1.7448, 1.7447, 1.7447,1.7447, 1.7447, 1.7447, 1.7447,1.7447,0.0
SingleSource/Benchmarks/Shootout/objinst, 0.0007, 0.0007, 0.0007,0.0007, 0.0007, 0.0007, 0.0007,0.0007,0.0
SingleSource/Benchmarks/Shootout/nestedloop, 0.0007, 0.0007, 0.0007,0.0007, 0.0007, 0.0007, 0.0007,0.0007,0.0
SingleSource/Benchmarks/Shootout/ackermann, 0.0033, 0.0033, 0.0033,0.0033, 0.0033, 0.0033, 0.0033,0.0033,0.0
SingleSource/Benchmarks/Shootout-C++/strcat, 0.0405, 0.0404, 0.0405,0.0405, 0.0405, 0.0405, 0.0405,0.0405,0.0
SingleSource/Benchmarks/Shootout-C++/random, 1.7449, 1.7448, 1.7448,1.7448, 1.7448, 1.7448, 1.7448,1.7448,0.0
SingleSource/Benchmarks/Shootout-C++/objinst, 0.0008, 0.0008, 0.0008,0.0008, 0.0008, 0.0008, 0.0008,0.0008,0.0
SingleSource/Benchmarks/Shootout-C++/nestedloop, 0.0008, 0.0008, 0.0008,0.0008, 0.0008, 0.0008, 0.0008,0.0008,0.0
SingleSource/Benchmarks/Shootout-C++/ary2, 0.0149, 0.0149, 0.0149,0.0149, 0.0149, 0.0149, 0.0149,0.0149,0.0
SingleSource/Benchmarks/Shootout-C++/ary, 0.0141, 0.0141, 0.0141,0.0141, 0.0141, 0.0141, 0.0141,0.0141,0.0
SingleSource/Benchmarks/Shootout-C++/ackermann, 0.6572, 0.6571, 0.6572,0.6572, 0.6571, 0.6572, 0.6572,0.6572,0.0
SingleSource/Benchmarks/Polybench/stencils/seidel-2d/seidel-2d, 0.6593, 0.6593, 0.6593,0.6593, 0.6593, 0.6593, 0.6593,0.6593,0.0
SingleSource/Benchmarks/Polybench/stencils/jacobi-1d-imper/jacobi-1d-imper, 0.0036, 0.0036, 0.0036,0.0036, 0.0035, 0.0036, 0.0036,0.0036,0.0
SingleSource/Benchmarks/Polybench/medley/reg_detect/reg_detect, 0.0155, 0.0155, 0.0155,0.0155, 0.0155, 0.0155, 0.0155,0.0155,0.0
SingleSource/Benchmarks/Polybench/linear-algebra/solvers/lu/lu, 0.0021, 0.0021, 0.0021,0.0021, 0.0021, 0.0021, 0.0021,0.0021,0.0
SingleSource/Benchmarks/Polybench/linear-algebra/solvers/dynprog/dynprog, 0.2818, 0.2811, 0.2814,0.2814, 0.2814, 0.2811, 0.2817,0.2814,0.0
SingleSource/Benchmarks/Polybench/linear-algebra/kernels/mvt/mvt, 0.2483, 0.2482, 0.2435,0.2482, 0.2434, 0.2482, 0.2482,0.2482,0.0
SingleSource/Benchmarks/Polybench/linear-algebra/kernels/gesummv/gesummv, 0.3015, 0.3064, 0.3064,0.3064, 0.3015, 0.3064, 0.3064,0.3064,0.0
SingleSource/Benchmarks/Polybench/linear-algebra/kernels/bicg/bicg, 0.2125, 0.2125, 0.2125,0.2125, 0.2125, 0.2125, 0.2125,0.2125,0.0
SingleSource/Benchmarks/Polybench/linear-algebra/kernels/atax/atax, 0.1703, 0.1703, 0.1704,0.1703, 0.1702, 0.1705, 0.1703,0.1703,0.0
SingleSource/Benchmarks/Misc/revertBits, 0.3294, 0.3294, 0.3297,0.3294, 0.3294, 0.3294, 0.3294,0.3294,0.0
SingleSource/Benchmarks/Misc/pi, 0.6942, 0.6941, 0.6942,0.6942, 0.6942, 0.6942, 0.6942,0.6942,0.0
SingleSource/Benchmarks/Misc/matmul_f64_4x4, 1.2952, 1.2951, 1.2951,1.2951, 1.2951, 1.2951, 1.2951,1.2951,0.0
SingleSource/Benchmarks/Misc/mandel-2, 1.2780, 1.2779, 1.2779,1.2779, 1.2779, 1.2779, 1.2779,1.2779,0.0
SingleSource/Benchmarks/Misc/mandel, 0.8336, 0.8336, 0.8335,0.8336, 0.8336, 0.8337, 0.8336,0.8336,0.0
SingleSource/Benchmarks/Misc/lowercase, 0.0007, 0.0007, 0.0007,0.0007, 0.0007, 0.0007, 0.0007,0.0007,0.0
SingleSource/Benchmarks/Misc/fp-convert, 2.6303, 2.6302, 2.6302,2.6302, 2.6301, 2.6302, 2.6302,2.6302,0.0
SingleSource/Benchmarks/Misc/flops-8, 2.8969, 2.8968, 2.8968,2.8968, 2.8968, 2.8968, 2.8968,2.8968,0.0
SingleSource/Benchmarks/Misc/flops-7, 1.5901, 1.5900, 1.5900,1.59, 1.5900, 1.5900, 1.5900,1.59,0.0
SingleSource/Benchmarks/Misc/flops-5, 4.2758, 4.2756, 4.2756,4.2756, 4.2756, 4.2756, 4.2756,4.2756,0.0
SingleSource/Benchmarks/Misc/flops-3, 5.4133, 5.4130, 5.4130,5.413, 5.4130, 5.4130, 5.5080,5.413,0.0
SingleSource/Benchmarks/Misc/flops-2, 0.8625, 0.8625, 0.8625,0.8625, 0.8625, 0.8625, 0.8625,0.8625,0.0
SingleSource/Benchmarks/Misc/flops-1, 3.5821, 3.5820, 3.5821,3.5821, 3.5823, 3.5817, 3.5821,3.5821,0.0
SingleSource/Benchmarks/Misc/dt, 0.6669, 0.6668, 0.6668,0.6668, 0.6668, 0.6668, 0.6668,0.6668,0.0
SingleSource/Benchmarks/Misc-C++/oopack_v1p8, 0.1619, 0.1619, 0.1619,0.1619, 0.1619, 0.1619, 0.1619,0.1619,0.0
SingleSource/Benchmarks/McGill/misr, 0.1013, 0.1013, 0.1013,0.1013, 0.1013, 0.1013, 0.1013,0.1013,0.0
SingleSource/Benchmarks/Dhrystone/fldry, 0.3654, 0.3654, 0.3654,0.3654, 0.3654, 0.3654, 0.3654,0.3654,0.0
SingleSource/Benchmarks/Dhrystone/dry, 0.3046, 0.3046, 0.3046,0.3046, 0.3046, 0.3046, 0.3046,0.3046,0.0
SingleSource/Benchmarks/BenchmarkGame/spectral-norm, 0.9768, 0.9768, 0.9768,0.9768, 0.9768, 0.9768, 0.9768,0.9768,0.0
SingleSource/Benchmarks/BenchmarkGame/n-body, 1.3733, 1.3732, 1.3732,1.3732, 1.3732, 1.3732, 1.3732,1.3732,0.0
SingleSource/Benchmarks/Adobe-C++/simple_types_constant_folding, 0.6645, 0.6645, 0.6645,0.6645, 0.6645, 0.6645, 0.6645,0.6645,0.0
MultiSource/Benchmarks/mediabench/mpeg2/mpeg2dec/mpeg2decode, 0.0130, 0.0130, 0.0130,0.013, 0.0130, 0.0131, 0.0130,0.013,0.0
MultiSource/Benchmarks/mediabench/gsm/toast/toast, 0.0133, 0.0132, 0.0133,0.0133, 0.0133, 0.0133, 0.0133,0.0133,0.0
MultiSource/Benchmarks/mediabench/g721/g721encode/encode, 0.0296, 0.0296, 0.0296,0.0296, 0.0297, 0.0296, 0.0296,0.0296,0.0
MultiSource/Benchmarks/Trimaran/netbench-url/netbench-url, 2.9798, 2.9796, 2.9815,2.9798, 2.9796, 2.9800, 2.9798,2.9798,0.0
MultiSource/Benchmarks/Trimaran/enc-pc1/enc-pc1, 0.3440, 0.3440, 0.3440,0.344, 0.3441, 0.3440, 0.3440,0.344,0.0
MultiSource/Benchmarks/Trimaran/enc-md5/enc-md5, 1.2243, 1.2242, 1.2243,1.2243, 1.2244, 1.2243, 1.2243,1.2243,0.0
MultiSource/Benchmarks/TSVC/Symbolics-dbl/Symbolics-dbl, 2.4549, 2.4550, 2.4550,2.455, 2.4548, 2.4550, 2.4553,2.455,0.0
MultiSource/Benchmarks/TSVC/Reductions-flt/Reductions-flt, 5.9350, 5.9349, 5.9349,5.9349, 5.9350, 5.9349, 5.9349,5.9349,0.0
MultiSource/Benchmarks/TSVC/Reductions-dbl/Reductions-dbl, 3.4400, 3.4399, 3.4399,3.4399, 3.4399, 3.4399, 3.4399,3.4399,0.0
MultiSource/Benchmarks/TSVC/Recurrences-flt/Recurrences-flt, 3.5009, 3.5009, 3.5006,3.5009, 3.5007, 3.5009, 3.5009,3.5009,0.0
MultiSource/Benchmarks/TSVC/Recurrences-dbl/Recurrences-dbl, 3.5012, 3.5011, 3.5010,3.5011, 3.5010, 3.5011, 3.5011,3.5011,0.0
MultiSource/Benchmarks/Prolangs-C/gnugo/gnugo, 0.0251, 0.0252, 0.0252,0.0252, 0.0251, 0.0252, 0.0253,0.0252,0.0
MultiSource/Benchmarks/Prolangs-C++/simul/simul, 0.0038, 0.0038, 0.0038,0.0038, 0.0038, 0.0038, 0.0038,0.0038,0.0
MultiSource/Benchmarks/Prolangs-C++/ocean/ocean, 0.0361, 0.0360, 0.0360,0.036, 0.0360, 0.0360, 0.0359,0.036,0.0
MultiSource/Benchmarks/Prolangs-C++/employ/employ, 0.0048, 0.0048, 0.0048,0.0048, 0.0048, 0.0048, 0.0048,0.0048,0.0
MultiSource/Benchmarks/Olden/power/power, 1.0535, 1.0534, 1.0532,1.0534, 1.0534, 1.0532, 1.0534,1.0534,0.0
MultiSource/Benchmarks/MiBench/telecomm-FFT/telecomm-fft, 0.0382, 0.0381, 0.0381,0.0381, 0.0382, 0.0381, 0.0381,0.0381,0.0
MultiSource/Benchmarks/MiBench/network-patricia/network-patricia, 0.0710, 0.0709, 0.0710,0.071, 0.0710, 0.0710, 0.0711,0.071,0.0
MultiSource/Benchmarks/MiBench/network-dijkstra/network-dijkstra, 0.0245, 0.0245, 0.0246,0.0245, 0.0245, 0.0245, 0.0245,0.0245,0.0
MultiSource/Benchmarks/MiBench/consumer-jpeg/consumer-jpeg, 0.0030, 0.0030, 0.0030,0.003, 0.0029, 0.0030, 0.0030,0.003,0.0
MultiSource/Benchmarks/MiBench/automotive-susan/automotive-susan, 0.0284, 0.0290, 0.0285,0.0285, 0.0284, 0.0287, 0.0285,0.0285,0.0
MultiSource/Benchmarks/McCat/18-imp/imp, 0.0554, 0.0555, 0.0555,0.0555, 0.0555, 0.0556, 0.0554,0.0555,0.0
MultiSource/Benchmarks/McCat/08-main/main, 0.0426, 0.0427, 0.0427,0.0427, 0.0427, 0.0427, 0.0427,0.0427,0.0
MultiSource/Benchmarks/McCat/05-eks/eks, 0.0034, 0.0034, 0.0034,0.0034, 0.0034, 0.0034, 0.0034,0.0034,0.0
MultiSource/Benchmarks/McCat/03-testtrie/testtrie, 0.0063, 0.0061, 0.0062,0.0062, 0.0062, 0.0061, 0.0063,0.0062,0.0
MultiSource/Benchmarks/FreeBench/pcompress2/pcompress2, 0.1052, 0.1052, 0.1052,0.1052, 0.1052, 0.1052, 0.1052,0.1052,0.0
MultiSource/Benchmarks/FreeBench/neural/neural, 0.1153, 0.1153, 0.1153,0.1153, 0.1152, 0.1153, 0.1153,0.1153,0.0
MultiSource/Benchmarks/FreeBench/fourinarow/fourinarow, 0.1756, 0.1756, 0.1756,0.1756, 0.1756, 0.1756, 0.1756,0.1756,0.0
MultiSource/Benchmarks/DOE-ProxyApps-C++/HPCCG/HPCCG, 0.9021, 0.9005, 0.8995,0.9005, 0.9005, 0.9012, 0.9001,0.9005,0.0
MultiSource/Benchmarks/BitBench/uuencode/uuencode, 0.0104, 0.0105, 0.0104,0.0104, 0.0104, 0.0104, 0.0104,0.0104,0.0
MultiSource/Benchmarks/BitBench/uudecode/uudecode, 0.0595, 0.0596, 0.0596,0.0596, 0.0595, 0.0596, 0.0596,0.0596,0.0
MultiSource/Benchmarks/ASC_Sequoia/CrystalMk/CrystalMk, 7.2733, 7.2732, 7.2731,7.2732, 7.2735, 7.2732, 7.2731,7.2732,0.0
MultiSource/Applications/sgefa/sgefa, 0.1526, 0.1526, 0.1526,0.1526, 0.1526, 0.1526, 0.1526,0.1526,0.0
MultiSource/Applications/JM/ldecod/ldecod, 0.0361, 0.0363, 0.0361,0.0361, 0.0358, 0.0361, 0.0361,0.0361,0.0
MultiSource/Applications/ALAC/encode/alacconvert-encode, 0.0265, 0.0265, 0.0265,0.0265, 0.0265, 0.0265, 0.0265,0.0265,0.0
MultiSource/Applications/ALAC/decode/alacconvert-decode, 0.0130, 0.0130, 0.0130,0.013, 0.0130, 0.0130, 0.0131,0.013,0.0
SingleSource/Benchmarks/Shootout/methcall, 3.2758, 3.2757, 3.2761,3.2758, 3.2757, 3.2757, 3.2761,3.2757,-0.0030526894193694254
SingleSource/Benchmarks/Misc-C++/Large/sphereflake, 5.6077, 5.6075, 5.6075,5.6075, 5.6073, 5.6073, 5.6073,5.6073,-0.003566651805608778
SingleSource/Benchmarks/Misc/flops-4, 2.2797, 2.2796, 2.3271,2.2797, 2.3271, 2.2796, 2.2796,2.2796,-0.004386542088885559
SingleSource/Benchmarks/CoyoteBench/almabench,12.6328,12.6257,12.6337,12.6328,12.6310,12.6322,12.6329,12.6322,-0.0047495408777131765
SingleSource/Benchmarks/Misc-C++/stepanov_v1p2, 7.9041, 7.9036, 7.9036,7.9036, 7.9032, 7.9032, 7.9032,7.9032,-0.0050609848676552716
SingleSource/Benchmarks/Shootout-C++/methcall, 3.4498, 3.4547, 3.4496,3.4498, 3.4496, 3.4496, 3.4496,3.4496,-0.00579743753260642
MultiSource/Benchmarks/Olden/em3d/em3d, 1.7024, 1.7018, 1.7019,1.7019, 1.7020, 1.7015, 1.7018,1.7018,-0.0058757858863667245
SingleSource/Benchmarks/Shootout-C++/fibo, 1.4769, 1.4778, 1.4762,1.4769, 1.4755, 1.4790, 1.4768,1.4768,-0.006770939129274733
MultiSource/Benchmarks/TSVC/NodeSplitting-dbl/NodeSplitting-dbl, 5.0289, 5.0261, 5.0289,5.0289, 5.0280, 5.0287, 5.0285,5.0285,-0.007954025731271575
SingleSource/Benchmarks/Shootout-C++/matrix, 1.1247, 1.1247, 1.1246,1.1247, 1.1246, 1.1250, 1.1245,1.1246,-0.008891259891530279
MultiSource/Benchmarks/TSVC/ControlLoops-dbl/ControlLoops-dbl, 2.5416, 2.5407, 2.5405,2.5407, 2.5429, 2.5404, 2.5402,2.5404,-0.011807769512350852
MultiSource/Benchmarks/VersaBench/beamformer/beamformer, 0.7488, 0.7487, 0.7488,0.7488, 0.7486, 0.7487, 0.7488,0.7487,-0.013354700854695256
MultiSource/Benchmarks/PAQ8p/paq8p,42.6637,42.6306,42.6766,42.6637,42.6820,42.6487,42.6579,42.6579,-0.013594695256158307
SingleSource/Benchmarks/Shootout/heapsort, 2.0368, 2.0389, 2.0372,2.0372, 2.0366, 2.0397, 2.0369,2.0369,-0.01472609463969432
MultiSource/Benchmarks/Trimaran/netbench-crc/netbench-crc, 0.6214, 0.6210, 0.6209,0.621, 0.6211, 0.6209, 0.6209,0.6209,-0.016103059581318302
MultiSource/Benchmarks/TSVC/Expansion-flt/Expansion-flt, 1.1878, 1.1751, 1.1832,1.1832, 1.1835, 1.1790, 1.1830,1.183,-0.01690331304935455
SingleSource/Benchmarks/McGill/queens, 1.7518, 1.7509, 1.7525,1.7518, 1.7518, 1.7515, 1.7514,1.7515,-0.01712524260759629
SingleSource/Benchmarks/Misc/perlin, 3.8809, 3.8799, 3.8807,3.8807, 3.8803, 3.8796, 3.8800,3.88,-0.01803798283814828
MultiSource/Applications/obsequi/Obsequi, 1.0943, 1.0935, 1.0935,1.0935, 1.0934, 1.0932, 1.0933,1.0933,-0.018289894833101172
SingleSource/Benchmarks/Shootout/matrix, 1.0577, 1.0575, 1.0575,1.0575, 1.0569, 1.0573, 1.0579,1.0573,-0.018912529550851875
SingleSource/Benchmarks/BenchmarkGame/fannkuch, 2.0901, 2.0888, 2.0896,2.0896, 2.0889, 2.0895, 2.0892,2.0892,-0.01914241960183638
MultiSource/Benchmarks/TSVC/GlobalDataFlow-flt/GlobalDataFlow-flt, 1.5012, 1.5077, 1.5047,1.5047, 1.4987, 1.5061, 1.5044,1.5044,-0.019937529075564342
SingleSource/Benchmarks/Shootout/fib2, 1.4775, 1.4785, 1.4770,1.4775, 1.4791, 1.4767, 1.4772,1.4772,-0.020304568527917954
SingleSource/Benchmarks/Shootout/sieve, 3.4709, 3.4702, 3.4685,3.4702, 3.4694, 3.4676, 3.4697,3.4694,-0.023053426315500225
SingleSource/Benchmarks/Misc/fbench, 1.7140, 1.7139, 1.7139,1.7139, 1.7135, 1.7135, 1.7135,1.7135,-0.02333858451484261
SingleSource/Benchmarks/Linpack/linpack-pc, 1.2417, 1.2405, 1.2404,1.2405, 1.2402, 1.2403, 1.2399,1.2402,-0.024183796856103168
SingleSource/Benchmarks/BenchmarkGame/partialsums, 0.5686, 0.5686, 0.5686,0.5686, 0.5684, 0.5685, 0.5684,0.5684,-0.03517411185367525
SingleSource/Benchmarks/Shootout-C++/lists, 2.9699, 2.9636, 2.9686,2.9686, 2.9750, 2.9674, 2.9675,2.9675,-0.03705450380651065
MultiSource/Benchmarks/TSVC/ControlFlow-dbl/ControlFlow-dbl, 3.7408, 3.7433, 3.7446,3.7433, 3.7429, 3.7419, 3.7395,3.7419,-0.03740015494351212
SingleSource/Benchmarks/Adobe-C++/simple_types_loop_invariant, 1.5935, 1.5944, 1.5941,1.5941, 1.5935, 1.5934, 1.5935,1.5935,-0.03763879304937712
MultiSource/Benchmarks/Ptrdist/yacr2/yacr2, 0.5304, 0.5300, 0.5299,0.53, 0.5299, 0.5298, 0.5298,0.5298,-0.037735849056597104
MultiSource/Benchmarks/McCat/12-IOtest/iotest, 0.2143, 0.2145, 0.2146,0.2145, 0.2144, 0.2142, 0.2152,0.2144,-0.04662004662003838
SingleSource/Benchmarks/Misc/oourafft, 6.0226, 6.0210, 6.0170,6.021, 6.0170, 6.0286, 6.0169,6.017,-0.06643414715162832
MultiSource/Benchmarks/TSVC/LoopRestructuring-flt/LoopRestructuring-flt, 2.8297, 2.8890, 2.9380,2.889, 2.8870, 2.9615, 2.8496,2.887,-0.06922810661127432
SingleSource/Benchmarks/Polybench/stencils/fdtd-2d/fdtd-2d, 0.4109, 0.4094, 0.4069,0.4094, 0.4100, 0.4091, 0.4062,0.4091,-0.07327796775769002
MultiSource/Benchmarks/FreeBench/distray/distray, 0.1346, 0.1346, 0.1345,0.1346, 0.1345, 0.1344, 0.1345,0.1345,-0.07429420505199458
SingleSource/Benchmarks/Shootout-C++/ary3, 0.5360, 0.5383, 0.5367,0.5367, 0.5343, 0.5363, 0.5372,0.5363,-0.07452953232717219
MultiSource/Applications/aha/aha, 1.0373, 1.0371, 1.0377,1.0373, 1.0365, 1.0373, 1.0365,1.0365,-0.07712330087729091
SingleSource/Benchmarks/Misc-C++/stepanov_container, 3.1100, 3.1034, 3.0955,3.1034, 3.0948, 3.1010, 3.1025,3.101,-0.0773345363150102
MultiSource/Benchmarks/MiBench/consumer-lame/consumer-lame, 0.1168, 0.1169, 0.1172,0.1169, 0.1170, 0.1166, 0.1168,0.1168,-0.08554319931565191
MultiSource/Benchmarks/Trimaran/enc-rc4/enc-rc4, 0.7276, 0.7280, 0.7273,0.7276, 0.7269, 0.7269, 0.7277,0.7269,-0.09620670698186062
MultiSource/Benchmarks/TSVC/CrossingThresholds-flt/CrossingThresholds-flt, 1.6260, 1.6366, 1.6295,1.6295, 1.6279, 1.6344, 1.6279,1.6279,-0.09818962872046866
MultiSource/Benchmarks/BitBench/five11/five11, 1.1100, 1.1100, 1.1110,1.11, 1.1089, 1.1079, 1.1089,1.1089,-0.09909909909910919
MultiSource/Benchmarks/ASCI_Purple/SMG2000/smg2000, 1.1664, 1.1696, 1.1669,1.1669, 1.1657, 1.1679, 1.1644,1.1657,-0.1028365755420424
SingleSource/Benchmarks/Misc/flops,10.6464,10.6776,10.6820,10.6776,10.6810,10.6507,10.6658,10.6658,-0.110511725481377
MultiSource/Benchmarks/Bullet/bullet, 3.2502, 3.2491, 3.2454,3.2491, 3.2536, 3.2407, 3.2453,3.2453,-0.11695546459019601
MultiSource/Applications/oggenc/oggenc, 0.0764, 0.0764, 0.0764,0.0764, 0.0762, 0.0763, 0.0764,0.0763,-0.13089005235600304
MultiSource/Benchmarks/McCat/04-bisect/bisect, 0.0748, 0.0749, 0.0749,0.0749, 0.0748, 0.0748, 0.0748,0.0748,-0.13351134846461
SingleSource/Benchmarks/BenchmarkGame/recursive, 0.7052, 0.7041, 0.7069,0.7052, 0.7043, 0.7041, 0.7041,0.7041,-0.1559841179807342
MultiSource/Benchmarks/TSVC/Equivalencing-dbl/Equivalencing-dbl, 1.3880, 1.3857, 1.3856,1.3857, 1.3870, 1.3835, 1.3828,1.3835,-0.15876452334560032
SingleSource/Benchmarks/Misc-C++/mandel-text, 1.6139, 1.6079, 1.6126,1.6126, 1.6149, 1.6100, 1.6095,1.61,-0.1612303112985214
MultiSource/Benchmarks/VersaBench/8b10b/8b10b, 3.6024, 3.6152, 3.6037,3.6037, 3.6055, 3.5978, 3.5923,3.5978,-0.16372062047340652
MultiSource/Benchmarks/TSVC/Equivalencing-flt/Equivalencing-flt, 0.9709, 0.9692, 0.9674,0.9692, 0.9665, 0.9692, 0.9676,0.9676,-0.16508460586049933
MultiSource/Benchmarks/TSVC/NodeSplitting-flt/NodeSplitting-flt, 4.6537, 4.6590, 4.6560,4.656, 4.6481, 4.6493, 4.6478,4.6481,-0.16967353951888864
SingleSource/Benchmarks/Adobe-C++/stepanov_abstraction, 4.2661, 4.2649, 4.2663,4.2661, 4.2579, 4.2586, 4.2581,4.2581,-0.18752490565153712
SingleSource/Benchmarks/Misc/ffbench, 0.5850, 0.5853, 0.5843,0.585, 0.5839, 0.5839, 0.5826,0.5839,-0.1880341880341918
MultiSource/Benchmarks/TSVC/LoopRerolling-flt/LoopRerolling-flt, 3.8328, 3.8259, 3.8352,3.8328, 3.8253, 3.8218, 3.8277,3.8253,-0.19567939887289443
MultiSource/Benchmarks/TSVC/StatementReordering-flt/StatementReordering-flt, 1.8292, 1.8265, 1.8263,1.8265, 1.8228, 1.8190, 1.8242,1.8228,-0.20257322748425954
MultiSource/Benchmarks/FreeBench/mason/mason, 0.1305, 0.1305, 0.1304,0.1305, 0.1302, 0.1302, 0.1302,0.1302,-0.22988505747125743
MultiSource/Benchmarks/DOE-ProxyApps-C++/miniFE/miniFE, 2.4659, 2.4619, 2.4673,2.4659, 2.4602, 2.4582, 2.4622,2.4602,-0.23115292590940584
MultiSource/Applications/lua/lua,11.1149,11.0874,11.1027,11.1027,11.0766,11.0678,11.0825,11.0766,-0.23507795401119802
SingleSource/Benchmarks/Shootout-C++/EH/except, 0.1201, 0.1204, 0.1204,0.1204, 0.1201, 0.1201, 0.1204,0.1201,-0.2491694352159457
MultiSource/Benchmarks/McCat/01-qbsort/qbsort, 0.0391, 0.0391, 0.0391,0.0391, 0.0389, 0.0390, 0.0391,0.039,-0.2557544757033292
MultiSource/Benchmarks/DOE-ProxyApps-C/XSBench/XSBench, 2.4328, 2.4420, 2.4411,2.4411, 2.4333, 2.4322, 2.4376,2.4333,-0.3195280816025603
MultiSource/Applications/kimwitu++/kc, 0.0282, 0.0281, 0.0281,0.0281, 0.0279, 0.0280, 0.0281,0.028,-0.3558718861209953
MultiSource/Benchmarks/MallocBench/gs/gs, 0.0275, 0.0274, 0.0276,0.0275, 0.0274, 0.0275, 0.0272,0.0274,-0.363636363636366
MultiSource/Benchmarks/ASC_Sequoia/AMGmk/AMGmk, 4.9884, 5.0004, 4.9982,4.9982, 4.9797, 4.9754, 4.9812,4.9797,-0.37013324796926206
SingleSource/Benchmarks/CoyoteBench/huffbench, 9.0378, 9.0431, 9.0476,9.0431, 9.0068, 9.0138, 9.0057,9.0068,-0.40141102055711864
MultiSource/Benchmarks/MiBench/security-rijndael/security-rijndael, 0.0219, 0.0219, 0.0219,0.0219, 0.0218, 0.0218, 0.0220,0.0218,-0.45662100456620447
MultiSource/Benchmarks/Fhourstones/fhourstones, 0.5836, 0.5675, 0.5610,0.5675, 0.5646, 0.5618, 0.5717,0.5646,-0.5110132158590353
SingleSource/Benchmarks/Polybench/stencils/jacobi-2d-imper/jacobi-2d-imper, 0.1494, 0.1495, 0.1495,0.1495, 0.1486, 0.1484, 0.1493,0.1486,-0.602006688963197
MultiSource/Applications/spiff/spiff, 1.2845, 1.2805, 1.2817,1.2817, 1.2736, 1.2708, 1.2740,1.2736,-0.6319731606460155
SingleSource/Benchmarks/Misc/whetstone, 1.0274, 1.0263, 1.0274,1.0274, 1.0197, 1.0237, 1.0187,1.0197,-0.7494646680942241
MultiSource/Benchmarks/NPB-serial/is/is, 5.0305, 5.0635, 5.0634,5.0634, 5.0230, 5.0632, 5.0227,5.023,-0.7978828455188158
MultiSource/Benchmarks/BitBench/drop3/drop3, 0.1784, 0.1856, 0.1818,0.1818, 0.1801, 0.1851, 0.1803,0.1803,-0.8250825082508295
MultiSource/Benchmarks/DOE-ProxyApps-C/RSBench/rsbench, 0.5767, 0.5773, 0.5788,0.5773, 0.5762, 0.5723, 0.5695,0.5723,-0.8661008141347626
MultiSource/Benchmarks/TSVC/Packing-flt/Packing-flt, 2.1436, 2.1274, 2.1036,2.1274, 2.1174, 2.0900, 2.1083,2.1083,-0.8978095327630164
MultiSource/Benchmarks/Olden/mst/mst, 0.0522, 0.0520, 0.0522,0.0522, 0.0514, 0.0516, 0.0517,0.0516,-1.1494252873563315
MultiSource/Applications/d/make_dparser, 0.0158, 0.0158, 0.0158,0.0158, 0.0156, 0.0156, 0.0156,0.0156,-1.2658227848101444
MultiSource/Benchmarks/MiBench/consumer-typeset/consumer-typeset, 0.0843, 0.0839, 0.0840,0.084, 0.0829, 0.0829, 0.0827,0.0829,-1.309523809523816
MultiSource/Benchmarks/MiBench/telecomm-CRC32/telecomm-CRC32, 0.2068, 0.2045, 0.2040,0.2045, 0.1994, 0.2096, 0.2018,0.2018,-1.3202933985330012
SingleSource/Benchmarks/Stanford/Queens, 0.0071, 0.0072, 0.0072,0.0072, 0.0071, 0.0071, 0.0071,0.0071,-1.388888888888884
SingleSource/Benchmarks/Adobe-C++/stepanov_vector, 2.3071, 2.3074, 2.3082,2.3074, 2.2718, 2.2721, 2.2722,2.2721,-1.5298604489902057
MultiSource/Benchmarks/sim/sim, 2.6894, 2.6875, 2.6903,2.6894, 2.6375, 2.6291, 2.6294,2.6294,-2.2309808879304005
Total elapsed time,-,-,-,587.6976000000003,-,-,-,587.6706000000001,-0.004594199465879356
Total failure,-,-,-,0,-,-,-,0,
Geom. avg slowdown,,,,,,,,,0.123094167257%
