Benchmarks,base-5.0,base-5.0,base-5.0,median,insts-opt-5.0,insts-opt-5.0,insts-opt-5.0,median,Slowdown(%)
SingleSource/Benchmarks/Shootout/sieve, 3.1710, 3.1718, 3.1720,3.1718, 3.4850, 3.4824, 3.4829,3.4829,9.808310738381977
SingleSource/Benchmarks/Misc-C++-EH/spirit, 2.3839, 2.3834, 2.3835,2.3835, 2.4350, 2.4355, 2.4357,2.4355,2.1816656177889637
MultiSource/Applications/sqlite3/sqlite3, 1.6296, 1.6290, 1.6340,1.6296, 1.6579, 1.6660, 1.6616,1.6616,1.9636720667648433
MultiSource/Benchmarks/TSVC/ControlFlow-flt/ControlFlow-flt, 3.2017, 3.2361, 3.2073,3.2073, 3.2574, 3.2771, 3.2636,3.2636,1.7553705609079318
SingleSource/Benchmarks/Shootout-C++/EH/except, 0.1117, 0.1107, 0.1107,0.1107, 0.1125, 0.1114, 0.1127,0.1125,1.6260162601625883
SingleSource/Benchmarks/Shootout-C++/hash, 0.2833, 0.2819, 0.2827,0.2827, 0.2846, 0.2867, 0.2891,0.2867,1.4149274849663884
MultiSource/Benchmarks/Olden/voronoi/voronoi, 0.1949, 0.1954, 0.1955,0.1954, 0.1973, 0.1977, 0.1979,0.1977,1.1770726714432023
SingleSource/Benchmarks/Shootout-C++/hash2, 1.5776, 1.5774, 1.5773,1.5774, 1.5958, 1.5955, 1.5974,1.5958,1.1664764802840288
MultiSource/Benchmarks/TSVC/CrossingThresholds-flt/CrossingThresholds-flt, 1.4883, 1.4910, 1.4850,1.4883, 1.5016, 1.4975, 1.5048,1.5016,0.893637035543926
MultiSource/Benchmarks/McCat/09-vor/vor, 0.0773, 0.0774, 0.0778,0.0774, 0.0777, 0.0781, 0.0780,0.078,0.7751937984496138
MultiSource/Benchmarks/TSVC/InductionVariable-dbl/InductionVariable-dbl, 2.7790, 2.7766, 2.8004,2.779, 2.8023, 2.7773, 2.8000,2.8,0.7556675062972307
MultiSource/Benchmarks/MallocBench/gs/gs, 0.0273, 0.0272, 0.0272,0.0272, 0.0274, 0.0275, 0.0274,0.0274,0.7352941176470562
SingleSource/Benchmarks/Polybench/medley/reg_detect/reg_detect, 0.0143, 0.0142, 0.0142,0.0142, 0.0143, 0.0142, 0.0143,0.0143,0.7042253521126751
MultiSource/Benchmarks/7zip/7zip-benchmark, 5.8052, 5.8069, 5.8049,5.8052, 5.8460, 5.8407, 5.8463,5.846,0.702818163026242
MultiSource/Benchmarks/Ptrdist/bc/bc, 0.3351, 0.3350, 0.3350,0.335, 0.3372, 0.3372, 0.3371,0.3372,0.6567164179104523
MultiSource/Benchmarks/Olden/health/health, 0.1390, 0.1391, 0.1395,0.1391, 0.1400, 0.1398, 0.1403,0.14,0.6470165348670065
MultiSource/Benchmarks/Olden/mst/mst, 0.0483, 0.0480, 0.0483,0.0483, 0.0486, 0.0490, 0.0486,0.0486,0.6211180124223503
MultiSource/Applications/d/make_dparser, 0.0163, 0.0163, 0.0163,0.0163, 0.0164, 0.0163, 0.0164,0.0164,0.6134969325153561
MultiSource/Benchmarks/Olden/bisort/bisort, 0.3254, 0.3270, 0.3265,0.3265, 0.3288, 0.3271, 0.3285,0.3285,0.6125574272588086
MultiSource/Benchmarks/Prolangs-C++/ocean/ocean, 0.0361, 0.0361, 0.0362,0.0361, 0.0362, 0.0363, 0.0363,0.0363,0.5540166204986097
SingleSource/Benchmarks/Linpack/linpack-pc, 1.1398, 1.1345, 1.1340,1.1345, 1.1402, 1.1349, 1.1452,1.1402,0.5024239753195214
SingleSource/Benchmarks/Polybench/linear-algebra/kernels/doitgen/doitgen, 0.7181, 0.7148, 0.7215,0.7181, 0.7273, 0.7216, 0.7144,0.7216,0.48739729842641744
SingleSource/Benchmarks/Shootout-C++/lists, 2.6473, 2.6374, 2.6357,2.6374, 2.6493, 2.6581, 2.6498,2.6498,0.4701600060665889
MultiSource/Benchmarks/BitBench/five11/five11, 1.0294, 1.0417, 1.0325,1.0325, 1.0419, 1.0276, 1.0370,1.037,0.43583535108957516
MultiSource/Benchmarks/Olden/treeadd/treeadd, 0.1158, 0.1165, 0.1161,0.1161, 0.1162, 0.1166, 0.1166,0.1166,0.4306632213608941
MultiSource/Benchmarks/Prolangs-C/gnugo/gnugo, 0.0250, 0.0250, 0.0249,0.025, 0.0251, 0.0251, 0.0251,0.0251,0.40000000000000036
MultiSource/Benchmarks/TSVC/Symbolics-flt/Symbolics-flt, 1.2693, 1.2723, 1.2701,1.2701, 1.2714, 1.2784, 1.2751,1.2751,0.3936697897803265
MultiSource/Applications/spiff/spiff, 1.1722, 1.1755, 1.1726,1.1726, 1.1770, 1.1773, 1.1763,1.177,0.37523452157597337
MultiSource/Applications/lua/lua,10.1634,10.1814,10.1832,10.1814,10.1969,10.2196,10.2220,10.2196,0.3751939811813765
MultiSource/Benchmarks/DOE-ProxyApps-C++/PENNANT/PENNANT, 0.3768, 0.3779, 0.3771,0.3771, 0.3784, 0.3785, 0.3792,0.3785,0.37125430920179614
MultiSource/Benchmarks/TSVC/Expansion-flt/Expansion-flt, 1.0750, 1.0726, 1.0727,1.0727, 1.0759, 1.0766, 1.0842,1.0766,0.3635685653025078
SingleSource/Benchmarks/Stanford/Quicksort, 0.0277, 0.0278, 0.0277,0.0277, 0.0278, 0.0278, 0.0277,0.0278,0.3610108303249149
SingleSource/Benchmarks/Polybench/stencils/fdtd-2d/fdtd-2d, 0.5084, 0.5079, 0.5111,0.5084, 0.5102, 0.5102, 0.5115,0.5102,0.3540519276160614
MultiSource/Benchmarks/MiBench/telecomm-adpcm/telecomm-adpcm, 0.0640, 0.0641, 0.0639,0.064, 0.0642, 0.0642, 0.0639,0.0642,0.31249999999998224
MultiSource/Benchmarks/MiBench/network-patricia/network-patricia, 0.0672, 0.0672, 0.0672,0.0672, 0.0674, 0.0672, 0.0674,0.0674,0.29761904761904656
MultiSource/Benchmarks/MiBench/telecomm-FFT/telecomm-fft, 0.0353, 0.0353, 0.0354,0.0353, 0.0354, 0.0354, 0.0354,0.0354,0.2832861189801861
MultiSource/Applications/oggenc/oggenc, 0.0709, 0.0709, 0.0710,0.0709, 0.0711, 0.0711, 0.0710,0.0711,0.28208744710860323
MultiSource/Benchmarks/tramp3d-v4/tramp3d-v4, 0.2185, 0.2189, 0.2186,0.2186, 0.2190, 0.2193, 0.2192,0.2192,0.2744739249771255
MultiSource/Applications/JM/lencod/lencod, 2.8900, 2.8987, 2.8913,2.8913, 2.8990, 2.8914, 2.9000,2.899,0.2663161899491451
MultiSource/Benchmarks/Olden/perimeter/perimeter, 0.1126, 0.1129, 0.1133,0.1129, 0.1132, 0.1133, 0.1127,0.1132,0.26572187776792155
MultiSource/Benchmarks/Fhourstones/fhourstones, 0.4905, 0.4906, 0.4883,0.4905, 0.4902, 0.4918, 0.4962,0.4918,0.2650356778797214
MultiSource/Benchmarks/VersaBench/dbms/dbms, 0.7950, 0.7886, 0.8011,0.795, 0.7970, 0.7904, 0.7970,0.797,0.2515723270440251
SingleSource/Benchmarks/Shootout/fib2, 1.3496, 1.3548, 1.3485,1.3496, 1.3567, 1.3529, 1.3524,1.3529,0.2445168938944864
SingleSource/Benchmarks/Adobe-C++/functionobjects, 2.7627, 2.7609, 2.7600,2.7609, 2.7675, 2.7673, 2.7682,2.7675,0.23905248288602632
MultiSource/Benchmarks/DOE-ProxyApps-C/SimpleMOC/SimpleMOC, 3.4696, 3.4585, 3.4822,3.4696, 3.4776, 3.4795, 3.4741,3.4776,0.23057412958265022
MultiSource/Benchmarks/mafft/pairlocalalign,22.5458,22.5417,22.5424,22.5424,22.5931,22.5921,22.5934,22.5931,0.2249095038682647
MultiSource/Benchmarks/ASC_Sequoia/IRSmk/IRSmk, 2.7169, 2.7162, 2.7254,2.7169, 2.7116, 2.7230, 2.7247,2.723,0.22452059332327412
MultiSource/Benchmarks/ASCI_Purple/SMG2000/smg2000, 1.2848, 1.2776, 1.2791,1.2791, 1.2876, 1.2818, 1.2787,1.2818,0.21108591978735713
SingleSource/Benchmarks/Misc/evalloop, 0.3346, 0.3344, 0.3342,0.3344, 0.3348, 0.3351, 0.3354,0.3351,0.2093301435406758
SingleSource/Benchmarks/Stanford/Treesort, 0.0498, 0.0496, 0.0496,0.0496, 0.0497, 0.0497, 0.0498,0.0497,0.20161290322582293
SingleSource/Benchmarks/Adobe-C++/loop_unroll, 1.6213, 1.6223, 1.6219,1.6219, 1.6268, 1.6222, 1.6247,1.6247,0.17263703064307467
MultiSource/Benchmarks/FreeBench/pifft/pifft, 0.0615, 0.0614, 0.0614,0.0614, 0.0615, 0.0615, 0.0615,0.0615,0.16286644951140072
MultiSource/Benchmarks/Trimaran/netbench-crc/netbench-crc, 0.5679, 0.5680, 0.5682,0.568, 0.5688, 0.5686, 0.5689,0.5688,0.14084507042253502
SingleSource/Benchmarks/Stanford/Puzzle, 0.0727, 0.0726, 0.0726,0.0726, 0.0727, 0.0727, 0.0727,0.0727,0.13774104683195176
SingleSource/Benchmarks/Polybench/linear-algebra/solvers/dynprog/dynprog, 0.2570, 0.2581, 0.2566,0.257, 0.2576, 0.2573, 0.2570,0.2573,0.11673151750970501
SingleSource/Benchmarks/Misc-C++/bigfib, 0.1764, 0.1754, 0.1761,0.1761, 0.1761, 0.1766, 0.1763,0.1763,0.11357183418512218
MultiSource/Benchmarks/TSVC/Equivalencing-flt/Equivalencing-flt, 0.8850, 0.8856, 0.8833,0.885, 0.8875, 0.8860, 0.8837,0.886,0.1129943502824915
MultiSource/Benchmarks/TSVC/InductionVariable-flt/InductionVariable-flt, 2.3334, 2.3453, 2.3377,2.3377, 2.3361, 2.3448, 2.3402,2.3402,0.1069427214783758
MultiSource/Benchmarks/MiBench/automotive-basicmath/automotive-basicmath, 0.2056, 0.2054, 0.2055,0.2055, 0.2061, 0.2056, 0.2057,0.2057,0.09732360097323145
MultiSource/Benchmarks/MiBench/consumer-lame/consumer-lame, 0.1086, 0.1088, 0.1089,0.1088, 0.1089, 0.1090, 0.1089,0.1089,0.09191176470588758
SingleSource/Benchmarks/BenchmarkGame/puzzle, 0.1184, 0.1182, 0.1187,0.1184, 0.1185, 0.1181, 0.1185,0.1185,0.08445945945945166
MultiSource/Benchmarks/TSVC/ControlFlow-dbl/ControlFlow-dbl, 3.4165, 3.4175, 3.4150,3.4165, 3.4206, 3.4186, 3.4193,3.4193,0.0819552173276561
MultiSource/Benchmarks/FreeBench/distray/distray, 0.1248, 0.1249, 0.1248,0.1248, 0.1249, 0.1249, 0.1249,0.1249,0.08012820512821595
SingleSource/Benchmarks/CoyoteBench/almabench,11.5608,11.5569,11.5623,11.5608,11.5648,11.5690,11.5714,11.569,0.07092934745001056
MultiSource/Benchmarks/DOE-ProxyApps-C/miniAMR/miniAMR, 0.7162, 0.7133, 0.7123,0.7133, 0.7138, 0.7121, 0.7155,0.7138,0.07009673349220868
MultiSource/Benchmarks/BitBench/drop3/drop3, 0.1459, 0.1458, 0.1459,0.1459, 0.1459, 0.1460, 0.1460,0.146,0.06854009595613775
SingleSource/Benchmarks/Polybench/linear-algebra/kernels/atax/atax, 0.1617, 0.1605, 0.1604,0.1605, 0.1604, 0.1606, 0.1606,0.1606,0.06230529595014911
MultiSource/Benchmarks/Ptrdist/yacr2/yacr2, 0.4868, 0.4861, 0.4866,0.4866, 0.4871, 0.4866, 0.4869,0.4869,0.061652281134416675
MultiSource/Benchmarks/Olden/tsp/tsp, 1.0719, 1.0726, 1.0727,1.0726, 1.0732, 1.0734, 1.0726,1.0732,0.05593884020136386
MultiSource/Benchmarks/TSVC/LinearDependence-flt/LinearDependence-flt, 4.5573, 4.5573, 4.5596,4.5573, 4.5598, 4.5569, 4.5603,4.5598,0.05485704254712953
SingleSource/Benchmarks/BenchmarkGame/fannkuch, 1.9106, 1.9116, 1.9106,1.9106, 1.9123, 1.9105, 1.9116,1.9116,0.052339579189775165
MultiSource/Benchmarks/McCat/12-IOtest/iotest, 0.1973, 0.1962, 0.1973,0.1973, 0.1980, 0.1967, 0.1974,0.1974,0.05068423720222537
MultiSource/Benchmarks/SciMark2-C/scimark2,38.4781,38.4678,38.4720,38.472,38.4903,38.4891,38.4910,38.4903,0.047567061759190565
SingleSource/Benchmarks/Polybench/medley/floyd-warshall/floyd-warshall, 5.4340, 5.4352, 5.4321,5.434, 5.4365, 5.4360, 5.4359,5.436,0.03680529996319404
MultiSource/Benchmarks/TSVC/StatementReordering-dbl/StatementReordering-dbl, 2.0520, 2.0500, 2.0540,2.052, 2.0632, 2.0523, 2.0527,2.0527,0.034113060428864195
MultiSource/Benchmarks/Olden/em3d/em3d, 1.5610, 1.5615, 1.5611,1.5611, 1.5609, 1.5615, 1.5616,1.5615,0.025622958170523624
SingleSource/Benchmarks/McGill/queens, 1.6013, 1.6008, 1.6008,1.6008, 1.6012, 1.6016, 1.6011,1.6012,0.024987506246865188
MultiSource/Benchmarks/TSVC/GlobalDataFlow-dbl/GlobalDataFlow-dbl, 2.6182, 2.5991, 2.5989,2.5991, 2.5997, 2.5998, 2.5990,2.5997,0.023084914008686397
SingleSource/Benchmarks/Polybench/linear-algebra/solvers/gramschmidt/gramschmidt, 1.4242, 1.4152, 1.4172,1.4172, 1.4175, 1.4127, 1.4217,1.4175,0.02116850127009684
MultiSource/Benchmarks/Trimaran/enc-3des/enc-3des, 1.1785, 1.1784, 1.1787,1.1785, 1.1787, 1.1793, 1.1785,1.1787,0.016970725498510753
MultiSource/Benchmarks/PAQ8p/paq8p,39.0614,39.0578,39.0824,39.0614,39.0679,39.0820,39.0550,39.0679,0.016640468595596758
MultiSource/Benchmarks/VersaBench/beamformer/beamformer, 0.6858, 0.6860, 0.6859,0.6859, 0.6862, 0.6860, 0.6860,0.686,0.014579384749979774
SingleSource/Benchmarks/BenchmarkGame/spectral-norm, 0.8931, 0.8933, 0.8932,0.8932, 0.8933, 0.8933, 0.8932,0.8933,0.01119570085086341
MultiSource/Applications/aha/aha, 0.9480, 0.9477, 0.9482,0.948, 0.9488, 0.9475, 0.9481,0.9481,0.010548523206765914
SingleSource/Benchmarks/Shootout-C++/matrix, 1.0283, 1.0283, 1.0283,1.0283, 1.0284, 1.0281, 1.0284,1.0284,0.009724788485843128
MultiSource/Benchmarks/Olden/bh/bh, 1.1808, 1.1808, 1.1815,1.1808, 1.1804, 1.1812, 1.1809,1.1809,0.008468834688346583
SingleSource/Benchmarks/Misc/fbench, 1.5673, 1.5669, 1.5669,1.5669, 1.5670, 1.5671, 1.5670,1.567,0.006382028208573587
MultiSource/Applications/hexxagon/hexxagon, 6.4706, 6.4708, 6.4704,6.4706, 6.4709, 6.4745, 6.4706,6.4709,0.004636355206621978
SingleSource/Benchmarks/Misc-C++/Large/ray, 2.8702, 2.8694, 2.8693,2.8694, 2.8695, 2.8696, 2.8695,2.8695,0.0034850491391846816
MultiSource/Benchmarks/TSVC/LoopRerolling-dbl/LoopRerolling-dbl, 4.2067, 4.2069, 4.2068,4.2068, 4.2281, 4.2069, 4.2069,4.2069,0.0023771037368058856
SingleSource/Benchmarks/Stanford/Perm, 0.0134, 0.0134, 0.0134,0.0134, 0.0134, 0.0133, 0.0134,0.0134,0.0
SingleSource/Benchmarks/Stanford/Oscar, 0.0030, 0.0030, 0.0030,0.003, 0.0030, 0.0030, 0.0030,0.003,0.0
SingleSource/Benchmarks/Shootout/random, 1.5957, 1.5955, 1.5955,1.5955, 1.5956, 1.5955, 1.5955,1.5955,0.0
SingleSource/Benchmarks/Shootout/matrix, 0.9680, 0.9680, 0.9683,0.968, 0.9680, 0.9680, 0.9684,0.968,0.0
SingleSource/Benchmarks/Shootout/ackermann, 0.0031, 0.0031, 0.0031,0.0031, 0.0031, 0.0031, 0.0031,0.0031,0.0
SingleSource/Benchmarks/Shootout-C++/strcat, 0.0389, 0.0385, 0.0386,0.0386, 0.0386, 0.0385, 0.0386,0.0386,0.0
SingleSource/Benchmarks/Shootout-C++/random, 1.5957, 1.5956, 1.5954,1.5956, 1.5956, 1.5955, 1.5956,1.5956,0.0
SingleSource/Benchmarks/Shootout-C++/objinst, 0.0008, 0.0008, 0.0008,0.0008, 0.0008, 0.0008, 0.0008,0.0008,0.0
SingleSource/Benchmarks/Shootout-C++/methcall, 3.1599, 3.1544, 3.1543,3.1544, 3.1544, 3.1543, 3.1544,3.1544,0.0
SingleSource/Benchmarks/Shootout-C++/ackermann, 0.6009, 0.6009, 0.6009,0.6009, 0.6009, 0.6010, 0.6009,0.6009,0.0
SingleSource/Benchmarks/Polybench/stencils/seidel-2d/seidel-2d, 0.6027, 0.6027, 0.6027,0.6027, 0.6027, 0.6028, 0.6027,0.6027,0.0
SingleSource/Benchmarks/Polybench/stencils/fdtd-apml/fdtd-apml, 0.6666, 0.6651, 0.6658,0.6658, 0.6658, 0.6661, 0.6645,0.6658,0.0
SingleSource/Benchmarks/Polybench/linear-algebra/solvers/lu/lu, 0.0020, 0.0020, 0.0020,0.002, 0.0020, 0.0020, 0.0020,0.002,0.0
SingleSource/Benchmarks/Polybench/linear-algebra/kernels/bicg/bicg, 0.2009, 0.1994, 0.1995,0.1995, 0.1992, 0.1995, 0.1995,0.1995,0.0
SingleSource/Benchmarks/Misc/revertBits, 0.3014, 0.3013, 0.3013,0.3013, 0.3013, 0.3013, 0.3013,0.3013,0.0
SingleSource/Benchmarks/Misc/pi, 0.6349, 0.6348, 0.6348,0.6348, 0.6348, 0.6348, 0.6348,0.6348,0.0
SingleSource/Benchmarks/Misc/matmul_f64_4x4, 1.1844, 1.1843, 1.1843,1.1843, 1.1843, 1.1843, 1.1844,1.1843,0.0
SingleSource/Benchmarks/Misc/mandel-2, 1.1688, 1.1686, 1.1685,1.1686, 1.1686, 1.1685, 1.1686,1.1686,0.0
SingleSource/Benchmarks/Misc/flops-2, 0.7888, 0.7887, 0.7887,0.7887, 0.7887, 0.7887, 0.7887,0.7887,0.0
SingleSource/Benchmarks/Misc/flops-1, 3.2764, 3.2766, 3.2766,3.2766, 3.2766, 3.2765, 3.2766,3.2766,0.0
SingleSource/Benchmarks/Misc/dt, 0.6100, 0.6098, 0.6098,0.6098, 0.6098, 0.6098, 0.6099,0.6098,0.0
SingleSource/Benchmarks/McGill/misr, 0.0928, 0.0927, 0.0927,0.0927, 0.0928, 0.0927, 0.0927,0.0927,0.0
SingleSource/Benchmarks/Dhrystone/fldry, 0.3342, 0.3342, 0.3341,0.3342, 0.3342, 0.3342, 0.3341,0.3342,0.0
SingleSource/Benchmarks/Dhrystone/dry, 0.2786, 0.2786, 0.2786,0.2786, 0.2786, 0.2785, 0.2786,0.2786,0.0
SingleSource/Benchmarks/BenchmarkGame/partialsums, 0.5199, 0.5200, 0.5201,0.52, 0.5200, 0.5200, 0.5200,0.52,0.0
SingleSource/Benchmarks/BenchmarkGame/n-body, 1.2555, 1.2557, 1.2557,1.2557, 1.2557, 1.2557, 1.2558,1.2557,0.0
SingleSource/Benchmarks/Adobe-C++/simple_types_loop_invariant, 1.4578, 1.4573, 1.4584,1.4578, 1.4578, 1.4578, 1.4574,1.4578,0.0
SingleSource/Benchmarks/Adobe-C++/simple_types_constant_folding, 0.6076, 0.6078, 0.6077,0.6077, 0.6085, 0.6077, 0.6077,0.6077,0.0
MultiSource/Benchmarks/mediabench/mpeg2/mpeg2dec/mpeg2decode, 0.0136, 0.0137, 0.0137,0.0137, 0.0137, 0.0137, 0.0138,0.0137,0.0
MultiSource/Benchmarks/mediabench/g721/g721encode/encode, 0.0291, 0.0291, 0.0291,0.0291, 0.0292, 0.0290, 0.0291,0.0291,0.0
MultiSource/Benchmarks/Trimaran/enc-pc1/enc-pc1, 0.3146, 0.3146, 0.3146,0.3146, 0.3146, 0.3146, 0.3146,0.3146,0.0
MultiSource/Benchmarks/TSVC/Searching-dbl/Searching-dbl, 2.0804, 2.0799, 2.0805,2.0804, 2.0804, 2.0803, 2.0810,2.0804,0.0
MultiSource/Benchmarks/TSVC/ControlLoops-flt/ControlLoops-flt, 2.1548, 2.1495, 2.1366,2.1495, 2.1455, 2.1495, 2.1520,2.1495,0.0
MultiSource/Benchmarks/Ptrdist/anagram/anagram, 0.5505, 0.5502, 0.5504,0.5504, 0.5504, 0.5506, 0.5503,0.5504,0.0
MultiSource/Benchmarks/Prolangs-C/bison/mybison, 0.0037, 0.0037, 0.0037,0.0037, 0.0037, 0.0037, 0.0037,0.0037,0.0
MultiSource/Benchmarks/Prolangs-C++/city/city, 0.0047, 0.0047, 0.0047,0.0047, 0.0047, 0.0047, 0.0047,0.0047,0.0
MultiSource/Benchmarks/MiBench/network-dijkstra/network-dijkstra, 0.0244, 0.0245, 0.0244,0.0244, 0.0244, 0.0244, 0.0243,0.0244,0.0
MultiSource/Benchmarks/MiBench/automotive-susan/automotive-susan, 0.0278, 0.0278, 0.0278,0.0278, 0.0278, 0.0279, 0.0278,0.0278,0.0
MultiSource/Benchmarks/McCat/18-imp/imp, 0.0528, 0.0527, 0.0527,0.0527, 0.0527, 0.0527, 0.0527,0.0527,0.0
MultiSource/Benchmarks/McCat/08-main/main, 0.0391, 0.0391, 0.0391,0.0391, 0.0391, 0.0391, 0.0392,0.0391,0.0
MultiSource/Benchmarks/McCat/05-eks/eks, 0.0032, 0.0032, 0.0032,0.0032, 0.0032, 0.0032, 0.0032,0.0032,0.0
MultiSource/Benchmarks/McCat/01-qbsort/qbsort, 0.0372, 0.0370, 0.0370,0.037, 0.0371, 0.0370, 0.0369,0.037,0.0
MultiSource/Benchmarks/FreeBench/pcompress2/pcompress2, 0.0947, 0.0947, 0.0947,0.0947, 0.0947, 0.0948, 0.0947,0.0947,0.0
MultiSource/Benchmarks/FreeBench/neural/neural, 0.1074, 0.1074, 0.1073,0.1074, 0.1074, 0.1074, 0.1074,0.1074,0.0
MultiSource/Benchmarks/FreeBench/mason/mason, 0.1210, 0.1211, 0.1209,0.121, 0.1210, 0.1210, 0.1209,0.121,0.0
MultiSource/Benchmarks/FreeBench/fourinarow/fourinarow, 0.1625, 0.1624, 0.1625,0.1625, 0.1625, 0.1626, 0.1625,0.1625,0.0
MultiSource/Benchmarks/BitBench/uuencode/uuencode, 0.0114, 0.0115, 0.0114,0.0114, 0.0114, 0.0114, 0.0113,0.0114,0.0
MultiSource/Benchmarks/BitBench/uudecode/uudecode, 0.0565, 0.0564, 0.0565,0.0565, 0.0565, 0.0564, 0.0566,0.0565,0.0
MultiSource/Applications/kimwitu++/kc, 0.0279, 0.0279, 0.0278,0.0279, 0.0280, 0.0278, 0.0279,0.0279,0.0
MultiSource/Applications/ALAC/encode/alacconvert-encode, 0.0262, 0.0262, 0.0263,0.0262, 0.0263, 0.0262, 0.0262,0.0262,0.0
MultiSource/Applications/ALAC/decode/alacconvert-decode, 0.0137, 0.0138, 0.0138,0.0138, 0.0138, 0.0138, 0.0138,0.0138,0.0
SingleSource/Benchmarks/Misc/salsa20, 4.2235, 4.2229, 4.2228,4.2229, 4.2225, 4.2228, 4.2229,4.2228,-0.002368040919742409
SingleSource/Benchmarks/Misc-C++/stepanov_v1p2, 7.2290, 7.2273, 7.2271,7.2273, 7.2271, 7.2271, 7.2276,7.2271,-0.0027672851548921074
MultiSource/Benchmarks/TSVC/Recurrences-dbl/Recurrences-dbl, 3.2017, 3.2016, 3.2016,3.2016, 3.2014, 3.2015, 3.2015,3.2015,-0.003123438280860924
MultiSource/Benchmarks/TSVC/Recurrences-flt/Recurrences-flt, 3.2013, 3.2012, 3.2014,3.2013, 3.2010, 3.2012, 3.2012,3.2012,-0.0031237309842779837
MultiSource/Benchmarks/TSVC/Reductions-dbl/Reductions-dbl, 3.1458, 3.1456, 3.1457,3.1457, 3.1456, 3.1456, 3.1457,3.1456,-0.00317894268366814
SingleSource/Benchmarks/Misc/flops-6, 3.1477, 3.1268, 3.1267,3.1268, 3.1032, 3.1267, 3.1473,3.1267,-0.003198157861061812
SingleSource/Benchmarks/Shootout/methcall, 2.9964, 2.9956, 2.9957,2.9957, 2.9956, 2.9960, 2.9955,2.9956,-0.0033381179690761265
MultiSource/Benchmarks/TSVC/Reductions-flt/Reductions-flt, 5.4271, 5.4269, 5.4273,5.4271, 5.4270, 5.4269, 5.4269,5.4269,-0.0036852094120298773
SingleSource/Benchmarks/Misc-C++/Large/sphereflake, 5.1284, 5.1272, 5.1269,5.1272, 5.1270, 5.1270, 5.1271,5.127,-0.0039007645498578825
SingleSource/Benchmarks/Misc/fp-convert, 2.4057, 2.4052, 2.4051,2.4052, 2.4051, 2.4051, 2.4051,2.4051,-0.004157658406778175
SingleSource/Benchmarks/SmallPT/smallpt, 6.9121, 6.9120, 6.9044,6.912, 6.9029, 6.9117, 6.9129,6.9117,-0.004340277777781232
SingleSource/Benchmarks/Misc/perlin, 3.5494, 3.5486, 3.5488,3.5488, 3.5486, 3.5485, 3.5486,3.5486,-0.005635707844908744
MultiSource/Benchmarks/VersaBench/ecbdes/ecbdes, 1.5484, 1.5483, 1.5484,1.5484, 1.5483, 1.5483, 1.5483,1.5483,-0.006458279514331977
SingleSource/Benchmarks/Misc/flops-7, 1.4541, 1.4540, 1.4540,1.454, 1.4539, 1.4539, 1.4536,1.4539,-0.006877579092157138
MultiSource/Benchmarks/ASC_Sequoia/CrystalMk/CrystalMk, 6.6507, 6.6510, 6.6513,6.651, 6.6505, 6.6506, 6.6505,6.6505,-0.00751766651631014
MultiSource/Benchmarks/Trimaran/enc-md5/enc-md5, 1.1196, 1.1197, 1.1197,1.1197, 1.1196, 1.1196, 1.1196,1.1196,-0.00893096365097712
SingleSource/Benchmarks/Misc/oourafft, 5.5025, 5.5023, 5.5015,5.5023, 5.5024, 5.5017, 5.5018,5.5018,-0.009087109027128282
MultiSource/Benchmarks/Olden/power/power, 0.9634, 0.9634, 0.9634,0.9634, 0.9634, 0.9633, 0.9631,0.9633,-0.010379904504875803
SingleSource/Benchmarks/Misc/mandel, 0.7626, 0.7624, 0.7624,0.7624, 0.7623, 0.7624, 0.7623,0.7623,-0.013116474291707814
MultiSource/Benchmarks/TSVC/LinearDependence-dbl/LinearDependence-dbl, 5.2114, 5.2302, 5.2124,5.2124, 5.2117, 5.2111, 5.2294,5.2117,-0.01342951423527472
MultiSource/Benchmarks/Trimaran/netbench-url/netbench-url, 2.7273, 2.7271, 2.7270,2.7271, 2.7267, 2.7273, 2.7267,2.7267,-0.014667595614392681
MultiSource/Benchmarks/Ptrdist/ks/ks, 0.5985, 0.5957, 0.6003,0.5985, 0.5982, 0.5984, 0.5998,0.5984,-0.01670843776107045
SingleSource/Benchmarks/Shootout-C++/fibo, 1.3511, 1.3533, 1.3508,1.3511, 1.3499, 1.3508, 1.3533,1.3508,-0.022204129968173003
MultiSource/Benchmarks/VersaBench/8b10b/8b10b, 3.2899, 3.2887, 3.3007,3.2899, 3.2968, 3.2864, 3.2891,3.2891,-0.024316848536432012
MultiSource/Benchmarks/VersaBench/bmm/bmm, 1.5052, 1.5055, 1.5057,1.5055, 1.5051, 1.5051, 1.5050,1.5051,-0.026569246097640775
SingleSource/Benchmarks/Polybench/stencils/adi/adi, 2.6087, 2.6055, 2.6066,2.6066, 2.6059, 2.6066, 2.6054,2.6059,-0.02685490677509783
MultiSource/Benchmarks/Fhourstones-3.1/fhourstones3.1, 0.7306, 0.7308, 0.7291,0.7306, 0.7304, 0.7306, 0.7277,0.7304,-0.027374760470844084
SingleSource/Benchmarks/Shootout/lists, 3.7619, 3.7660, 3.7685,3.766, 3.7669, 3.7649, 3.7560,3.7649,-0.029208709506112207
SingleSource/Benchmarks/BenchmarkGame/Large/fasta, 0.5901, 0.5958, 0.5904,0.5904, 0.5903, 0.5902, 0.5902,0.5902,-0.03387533875339743
MultiSource/Applications/obsequi/Obsequi, 1.0407, 1.0413, 1.0387,1.0407, 1.0403, 1.0391, 1.0414,1.0403,-0.038435668300174086
MultiSource/Benchmarks/TSVC/IndirectAddressing-flt/IndirectAddressing-flt, 2.0545, 2.0568, 2.0548,2.0548, 2.0549, 2.0531, 2.0540,2.054,-0.03893322951140643
MultiSource/Benchmarks/TSVC/Equivalencing-dbl/Equivalencing-dbl, 1.2648, 1.2676, 1.2662,1.2662, 1.2640, 1.2675, 1.2657,1.2657,-0.03948823250671252
SingleSource/Benchmarks/Adobe-C++/stepanov_abstraction, 3.9003, 3.9009, 3.8995,3.9003, 3.8987, 3.8985, 3.8988,3.8987,-0.041022485449848656
SingleSource/Benchmarks/Misc/flops, 9.7390, 9.7573, 9.7405,9.7405, 9.7547, 9.7362, 9.7362,9.7362,-0.04414557774242711
SingleSource/Regression/C/uint64_to_float, 0.2254, 0.2255, 0.2255,0.2255, 0.2254, 0.2254, 0.2255,0.2254,-0.044345898004438666
MultiSource/Benchmarks/TSVC/Searching-flt/Searching-flt, 2.2256, 2.2255, 2.2243,2.2255, 2.2259, 2.2245, 2.2229,2.2245,-0.044933722758921935
MultiSource/Benchmarks/TSVC/ControlLoops-dbl/ControlLoops-dbl, 2.3324, 2.3204, 2.3191,2.3204, 2.3193, 2.3189, 2.3306,2.3193,-0.04740561972071955
SingleSource/Benchmarks/Stanford/FloatMM, 0.1841, 0.1840, 0.1839,0.184, 0.1839, 0.1839, 0.1840,0.1839,-0.05434782608695343
SingleSource/Benchmarks/Misc-C++/oopack_v1p8, 0.1482, 0.1482, 0.1482,0.1482, 0.1481, 0.1481, 0.1481,0.1481,-0.06747638326585204
MultiSource/Benchmarks/DOE-ProxyApps-C++/CLAMR/CLAMR, 1.0246, 1.0245, 1.0246,1.0246, 1.0239, 1.0239, 1.0242,1.0239,-0.0683193441342933
MultiSource/Applications/sgefa/sgefa, 0.1397, 0.1397, 0.1396,0.1397, 0.1396, 0.1396, 0.1396,0.1396,-0.07158196134573469
SingleSource/Benchmarks/Misc/richards_benchmark, 0.4548, 0.4547, 0.4548,0.4548, 0.4543, 0.4547, 0.4544,0.4544,-0.08795074758134458
SingleSource/Benchmarks/Misc-C++/mandel-text, 1.4715, 1.4693, 1.4728,1.4715, 1.4694, 1.4701, 1.4718,1.4701,-0.09514101257220853
SingleSource/Benchmarks/Shootout/strcat, 0.1008, 0.1004, 0.1003,0.1004, 0.1003, 0.1003, 0.1004,0.1003,-0.09960159362549792
MultiSource/Benchmarks/sim/sim, 2.4131, 2.4085, 2.4101,2.4101, 2.4119, 2.4075, 2.4072,2.4075,-0.10787934110616515
MultiSource/Benchmarks/DOE-ProxyApps-C++/miniFE/miniFE, 2.4132, 2.4114, 2.4167,2.4132, 2.4103, 2.4107, 2.4078,2.4103,-0.12017238521464524
MultiSource/Benchmarks/McCat/04-bisect/bisect, 0.0704, 0.0703, 0.0704,0.0704, 0.0703, 0.0703, 0.0703,0.0703,-0.14204545454545858
SingleSource/Benchmarks/Polybench/linear-algebra/kernels/cholesky/cholesky, 0.4166, 0.4150, 0.4161,0.4161, 0.4155, 0.4146, 0.4159,0.4155,-0.14419610670513006
MultiSource/Benchmarks/DOE-ProxyApps-C++/HPCCG/HPCCG, 0.8423, 0.8376, 0.8381,0.8381, 0.8372, 0.8367, 0.8359,0.8367,-0.16704450542893712
MultiSource/Benchmarks/TSVC/NodeSplitting-flt/NodeSplitting-flt, 4.2609, 4.2613, 4.2611,4.2611, 4.2554, 4.2508, 4.2537,4.2537,-0.17366407735091016
MultiSource/Benchmarks/MallocBench/cfrac/cfrac, 0.6975, 0.6976, 0.6970,0.6975, 0.6962, 0.6962, 0.6963,0.6962,-0.1863799283154055
MultiSource/Benchmarks/DOE-ProxyApps-C/XSBench/XSBench, 2.2206, 2.2184, 2.2210,2.2206, 2.2148, 2.2163, 2.2173,2.2163,-0.19364135819148753
MultiSource/Benchmarks/Bullet/bullet, 2.9515, 2.9424, 2.9444,2.9444, 2.9381, 2.9479, 2.9355,2.9381,-0.2139654938187685
MultiSource/Benchmarks/TSVC/NodeSplitting-dbl/NodeSplitting-dbl, 4.6055, 4.6047, 4.5937,4.6047, 4.5936, 4.6030, 4.5929,4.5936,-0.24105804938432396
MultiSource/Benchmarks/ASC_Sequoia/AMGmk/AMGmk, 4.5827, 4.5864, 4.5772,4.5827, 4.5752, 4.5712, 4.5690,4.5712,-0.25094376677504693
MultiSource/Benchmarks/TSVC/StatementReordering-flt/StatementReordering-flt, 1.6735, 1.6700, 1.6724,1.6724, 1.6675, 1.6722, 1.6682,1.6682,-0.25113609184407304
MultiSource/Applications/JM/ldecod/ldecod, 0.0379, 0.0381, 0.0380,0.038, 0.0379, 0.0379, 0.0379,0.0379,-0.2631578947368318
SingleSource/Benchmarks/CoyoteBench/huffbench, 8.2855, 8.2777, 8.2802,8.2802, 8.2610, 8.2449, 8.2553,8.2553,-0.3007173739764779
MultiSource/Benchmarks/MiBench/telecomm-gsm/telecomm-gsm, 0.0931, 0.0931, 0.0931,0.0931, 0.0927, 0.0928, 0.0928,0.0928,-0.3222341568206333
SingleSource/Benchmarks/Polybench/stencils/jacobi-2d-imper/jacobi-2d-imper, 0.1526, 0.1522, 0.1526,0.1526, 0.1521, 0.1518, 0.1536,0.1521,-0.3276539973787629
MultiSource/Benchmarks/TSVC/LoopRerolling-flt/LoopRerolling-flt, 3.5107, 3.5039, 3.5103,3.5103, 3.4955, 3.4987, 3.4918,3.4955,-0.4216163860638722
MultiSource/Benchmarks/MiBench/security-rijndael/security-rijndael, 0.0218, 0.0219, 0.0219,0.0219, 0.0217, 0.0218, 0.0218,0.0218,-0.45662100456620447
SingleSource/Benchmarks/Stanford/Bubblesort, 0.0145, 0.0144, 0.0145,0.0145, 0.0144, 0.0145, 0.0144,0.0144,-0.6896551724138056
MultiSource/Benchmarks/mediabench/gsm/toast/toast, 0.0140, 0.0140, 0.0140,0.014, 0.0139, 0.0140, 0.0139,0.0139,-0.7142857142857229
MultiSource/Benchmarks/DOE-ProxyApps-C/miniGMG/miniGMG, 5.0140, 5.0170, 5.0122,5.014, 4.9697, 4.9724, 4.9731,4.9724,-0.8296769046669317
MultiSource/Benchmarks/TSVC/Symbolics-dbl/Symbolics-dbl, 2.2374, 2.2569, 2.2571,2.2569, 2.2373, 2.2366, 2.2371,2.2371,-0.877309583942576
MultiSource/Benchmarks/nbench/nbench, 1.1629, 1.1634, 1.1630,1.163, 1.1521, 1.1520, 1.1527,1.1521,-0.9372312983663034
SingleSource/Benchmarks/Misc/whetstone, 0.9386, 0.9372, 0.9395,0.9386, 0.9292, 0.9372, 0.9292,0.9292,-1.0014915832090354
SingleSource/Benchmarks/Adobe-C++/stepanov_vector, 2.1103, 2.1098, 2.1094,2.1098, 2.0877, 2.0893, 2.0879,2.0879,-1.0380130818087085
SingleSource/Benchmarks/Misc/flops-8, 2.6930, 2.6924, 2.6923,2.6924, 2.6489, 2.6489, 2.6489,2.6489,-1.6156588916951486
MultiSource/Benchmarks/DOE-ProxyApps-C/Pathfinder/PathFinder, 1.9362, 1.9410, 1.9295,1.9362, 1.9004, 1.9041, 1.9013,1.9013,-1.802499741762209
SingleSource/Benchmarks/Misc/ReedSolomon, 2.8626, 2.8622, 2.8622,2.8622, 2.7559, 2.7560, 2.7559,2.7559,-3.713926350359864
SingleSource/Benchmarks/Shootout/objinst, 0.0008, 0.0008, 0.0008,0.0008, 0.0007, 0.0007, 0.0007,0.0007,-12.5
Total elapsed time,-,-,-,538.9668000000003,-,-,-,539.5960000000006,0.11674188465788937
Total failure,-,-,-,0,-,-,-,0,
Geom. avg slowdown,,,,,,,,,0.0398627181778%
