Benchmarks,/mnt/freezedisk/llvm-intptr-base-5.0-release/bin/clang,/mnt/freezedisk/llvm-intptr-base-5.0-release/bin/clang,/mnt/freezedisk/llvm-intptr-base-5.0-release/bin/clang,median,/mnt/freezedisk/llvm-intptr-nocapture-5.0-release/bin/clang,/mnt/freezedisk/llvm-intptr-nocapture-5.0-release/bin/clang,/mnt/freezedisk/llvm-intptr-nocapture-5.0-release/bin/clang,median
MultiSource/Applications/ALAC/decode/alacconvert-decode, 0.0137, 0.0138, 0.0138,0.0138, 0.0138, 0.0137, 0.0138,0.0138
MultiSource/Applications/ALAC/encode/alacconvert-encode, 0.0262, 0.0262, 0.0263,0.0262, 0.0263, 0.0263, 0.0262,0.0263
MultiSource/Applications/ClamAV/clamscan, 0.1709, 0.2891, 0.2077,0.2077, 0.2032, 0.2124, 0.1726,0.2032
MultiSource/Applications/JM/ldecod/ldecod, 0.0379, 0.0381, 0.0380,0.038, 0.0378, 0.0379, 0.0379,0.0379
MultiSource/Applications/JM/lencod/lencod, 2.8900, 2.8987, 2.8913,2.8913, 2.9010, 2.8990, 2.8921,2.899
MultiSource/Applications/SIBsim4/SIBsim4, 1.9116, 1.9034, 1.8942,1.9034, 1.9042, 1.8984, 1.9810,1.9042
MultiSource/Applications/SPASS/SPASS, 6.1379, 5.7203, 6.1530,6.1379, 6.2108, 6.1256, 6.2109,6.2108
MultiSource/Applications/aha/aha, 0.9480, 0.9477, 0.9482,0.948, 0.9479, 0.9481, 0.9474,0.9479
MultiSource/Applications/d/make_dparser, 0.0163, 0.0163, 0.0163,0.0163, 0.0161, 0.0163, 0.0162,0.0162
MultiSource/Applications/hbd/hbd, 0.0035, 0.0034, 0.0034,0.0034, 0.0034, 0.0035, 0.0035,0.0035
MultiSource/Applications/hexxagon/hexxagon, 6.4706, 6.4708, 6.4704,6.4706, 6.4699, 6.4695, 6.4711,6.4699
MultiSource/Applications/kimwitu++/kc, 0.0279, 0.0279, 0.0278,0.0279, 0.0279, 0.0279, 0.0278,0.0279
MultiSource/Applications/lambda-0.1.3/lambda, 2.4103, 2.4597, 2.4255,2.4255, 2.4335, 2.4335, 2.4358,2.4335
MultiSource/Applications/lua/lua,10.1634,10.1814,10.1832,10.1814,10.1401,10.1150,10.1400,10.14
MultiSource/Applications/minisat/minisat, 3.7319, 3.5694, 3.7382,3.7319, 3.8016, 3.8198, 3.7884,3.8016
MultiSource/Applications/obsequi/Obsequi, 1.0407, 1.0413, 1.0387,1.0407, 1.0408, 1.0418, 1.0412,1.0412
MultiSource/Applications/oggenc/oggenc, 0.0709, 0.0709, 0.0710,0.0709, 0.0708, 0.0709, 0.0708,0.0708
MultiSource/Applications/sgefa/sgefa, 0.1397, 0.1397, 0.1396,0.1397, 0.1396, 0.1396, 0.1397,0.1396
MultiSource/Applications/siod/siod, 1.0355, 1.0334, 1.0334,1.0334, 1.0014, 1.0013, 1.0009,1.0013
MultiSource/Applications/spiff/spiff, 1.1722, 1.1755, 1.1726,1.1726, 1.1772, 1.1785, 1.1807,1.1785
MultiSource/Applications/sqlite3/sqlite3, 1.6296, 1.6290, 1.6340,1.6296, 1.6737, 1.6514, 1.6547,1.6547
MultiSource/Applications/viterbi/viterbi, 1.1738, 1.1743, 1.1738,1.1738, 1.1751, 1.1741, 1.1737,1.1741
MultiSource/Benchmarks/7zip/7zip-benchmark, 5.8052, 5.8069, 5.8049,5.8052, 5.8422, 5.8406, 5.8393,5.8406
MultiSource/Benchmarks/ASCI_Purple/SMG2000/smg2000, 1.2848, 1.2776, 1.2791,1.2791, 1.2882, 1.2781, 1.2775,1.2781
MultiSource/Benchmarks/ASC_Sequoia/AMGmk/AMGmk, 4.5827, 4.5864, 4.5772,4.5827, 4.5585, 4.5547, 4.5603,4.5585
MultiSource/Benchmarks/ASC_Sequoia/CrystalMk/CrystalMk, 6.6507, 6.6510, 6.6513,6.651, 6.6508, 6.6506, 6.6506,6.6506
MultiSource/Benchmarks/ASC_Sequoia/IRSmk/IRSmk, 2.7169, 2.7162, 2.7254,2.7169, 2.7133, 2.7276, 2.7226,2.7226
MultiSource/Benchmarks/BitBench/drop3/drop3, 0.1459, 0.1458, 0.1459,0.1459, 0.1460, 0.1460, 0.1461,0.146
MultiSource/Benchmarks/BitBench/five11/five11, 1.0294, 1.0417, 1.0325,1.0325, 1.0419, 1.0285, 1.0378,1.0378
MultiSource/Benchmarks/BitBench/uudecode/uudecode, 0.0565, 0.0564, 0.0565,0.0565, 0.0565, 0.0563, 0.0564,0.0564
MultiSource/Benchmarks/BitBench/uuencode/uuencode, 0.0114, 0.0115, 0.0114,0.0114, 0.0114, 0.0114, 0.0115,0.0114
MultiSource/Benchmarks/Bullet/bullet, 2.9515, 2.9424, 2.9444,2.9444, 2.9409, 2.9386, 2.9410,2.9409
MultiSource/Benchmarks/DOE-ProxyApps-C++/CLAMR/CLAMR, 1.0246, 1.0245, 1.0246,1.0246, 1.0242, 1.0243, 1.0242,1.0242
MultiSource/Benchmarks/DOE-ProxyApps-C++/HPCCG/HPCCG, 0.8423, 0.8376, 0.8381,0.8381, 0.8368, 0.8361, 0.8362,0.8362
MultiSource/Benchmarks/DOE-ProxyApps-C++/PENNANT/PENNANT, 0.3768, 0.3779, 0.3771,0.3771, 0.3794, 0.3794, 0.3792,0.3794
MultiSource/Benchmarks/DOE-ProxyApps-C++/miniFE/miniFE, 2.4132, 2.4114, 2.4167,2.4132, 2.4187, 2.4192, 2.4153,2.4187
MultiSource/Benchmarks/DOE-ProxyApps-C/Pathfinder/PathFinder, 1.9362, 1.9410, 1.9295,1.9362, 1.9399, 1.9354, 1.9412,1.9399
MultiSource/Benchmarks/DOE-ProxyApps-C/RSBench/rsbench, 0.4231, 0.5249, 0.5312,0.5249, 0.5292, 0.5279, 0.5278,0.5279
MultiSource/Benchmarks/DOE-ProxyApps-C/SimpleMOC/SimpleMOC, 3.4696, 3.4585, 3.4822,3.4696, 3.4700, 3.4791, 3.4743,3.4743
MultiSource/Benchmarks/DOE-ProxyApps-C/XSBench/XSBench, 2.2206, 2.2184, 2.2210,2.2206, 2.2245, 2.2223, 2.2152,2.2223
MultiSource/Benchmarks/DOE-ProxyApps-C/miniAMR/miniAMR, 0.7162, 0.7133, 0.7123,0.7133, 0.7135, 0.7129, 0.7141,0.7135
MultiSource/Benchmarks/DOE-ProxyApps-C/miniGMG/miniGMG, 5.0140, 5.0170, 5.0122,5.014, 4.9729, 4.9718, 4.9752,4.9729
MultiSource/Benchmarks/Fhourstones-3.1/fhourstones3.1, 0.7306, 0.7308, 0.7291,0.7306, 0.7298, 0.7307, 0.7306,0.7306
MultiSource/Benchmarks/Fhourstones/fhourstones, 0.4905, 0.4906, 0.4883,0.4905, 0.4912, 0.4916, 0.4882,0.4912
MultiSource/Benchmarks/FreeBench/analyzer/analyzer, 0.0381, 0.0391, 0.0386,0.0386, 0.0388, 0.0388, 0.0388,0.0388
MultiSource/Benchmarks/FreeBench/distray/distray, 0.1248, 0.1249, 0.1248,0.1248, 0.1249, 0.1248, 0.1249,0.1249
MultiSource/Benchmarks/FreeBench/fourinarow/fourinarow, 0.1625, 0.1624, 0.1625,0.1625, 0.1625, 0.1625, 0.1625,0.1625
MultiSource/Benchmarks/FreeBench/mason/mason, 0.1210, 0.1211, 0.1209,0.121, 0.1210, 0.1210, 0.1209,0.121
MultiSource/Benchmarks/FreeBench/neural/neural, 0.1074, 0.1074, 0.1073,0.1074, 0.1073, 0.1074, 0.1074,0.1074
MultiSource/Benchmarks/FreeBench/pcompress2/pcompress2, 0.0947, 0.0947, 0.0947,0.0947, 0.0948, 0.0947, 0.0947,0.0947
MultiSource/Benchmarks/FreeBench/pifft/pifft, 0.0615, 0.0614, 0.0614,0.0614, 0.0615, 0.0614, 0.0616,0.0615
MultiSource/Benchmarks/MallocBench/cfrac/cfrac, 0.6975, 0.6976, 0.6970,0.6975, 0.6977, 0.6976, 0.6981,0.6977
MultiSource/Benchmarks/MallocBench/espresso/espresso, 0.2809, 0.2752, 0.2751,0.2752, 0.2767, 0.2759, 0.2761,0.2761
MultiSource/Benchmarks/MallocBench/gs/gs, 0.0273, 0.0272, 0.0272,0.0272, 0.0273, 0.0275, 0.0273,0.0273
MultiSource/Benchmarks/McCat/01-qbsort/qbsort, 0.0372, 0.0370, 0.0370,0.037, 0.0370, 0.0371, 0.0373,0.0371
MultiSource/Benchmarks/McCat/03-testtrie/testtrie, 0.0075, 0.0074, 0.0075,0.0075, 0.0074, 0.0075, 0.0075,0.0075
MultiSource/Benchmarks/McCat/04-bisect/bisect, 0.0704, 0.0703, 0.0704,0.0704, 0.0704, 0.0704, 0.0703,0.0704
MultiSource/Benchmarks/McCat/05-eks/eks, 0.0032, 0.0032, 0.0032,0.0032, 0.0032, 0.0032, 0.0032,0.0032
MultiSource/Benchmarks/McCat/08-main/main, 0.0391, 0.0391, 0.0391,0.0391, 0.0391, 0.0391, 0.0391,0.0391
MultiSource/Benchmarks/McCat/09-vor/vor, 0.0773, 0.0774, 0.0778,0.0774, 0.0781, 0.0776, 0.0781,0.0781
MultiSource/Benchmarks/McCat/12-IOtest/iotest, 0.1973, 0.1962, 0.1973,0.1973, 0.1972, 0.1976, 0.1971,0.1972
MultiSource/Benchmarks/McCat/17-bintr/bintr, 0.0762, 0.0772, 0.0778,0.0772, 0.0763, 0.0767, 0.0771,0.0767
MultiSource/Benchmarks/McCat/18-imp/imp, 0.0528, 0.0527, 0.0527,0.0527, 0.0527, 0.0527, 0.0528,0.0527
MultiSource/Benchmarks/MiBench/automotive-basicmath/automotive-basicmath, 0.2056, 0.2054, 0.2055,0.2055, 0.2061, 0.2059, 0.2054,0.2059
MultiSource/Benchmarks/MiBench/automotive-bitcount/automotive-bitcount, 0.0501, 0.0501, 0.0511,0.0501, 0.0501, 0.0500, 0.0511,0.0501
MultiSource/Benchmarks/MiBench/automotive-susan/automotive-susan, 0.0278, 0.0278, 0.0278,0.0278, 0.0278, 0.0279, 0.0278,0.0278
MultiSource/Benchmarks/MiBench/consumer-jpeg/consumer-jpeg, 0.0046, 0.0046, 0.0046,0.0046, 0.0046, 0.0047, 0.0046,0.0046
MultiSource/Benchmarks/MiBench/consumer-lame/consumer-lame, 0.1086, 0.1088, 0.1089,0.1088, 0.1088, 0.1089, 0.1088,0.1088
MultiSource/Benchmarks/MiBench/consumer-typeset/consumer-typeset, 0.0788, 0.0790, 0.0800,0.079, 0.0788, 0.0790, 0.0786,0.0788
MultiSource/Benchmarks/MiBench/network-dijkstra/network-dijkstra, 0.0244, 0.0245, 0.0244,0.0244, 0.0244, 0.0244, 0.0244,0.0244
MultiSource/Benchmarks/MiBench/network-patricia/network-patricia, 0.0672, 0.0672, 0.0672,0.0672, 0.0672, 0.0672, 0.0674,0.0672
MultiSource/Benchmarks/MiBench/security-rijndael/security-rijndael, 0.0218, 0.0219, 0.0219,0.0219, 0.0218, 0.0218, 0.0219,0.0218
MultiSource/Benchmarks/MiBench/security-sha/security-sha, 0.0146, 0.0146, 0.0146,0.0146, 0.0146, 0.0147, 0.0147,0.0147
MultiSource/Benchmarks/MiBench/telecomm-CRC32/telecomm-CRC32, 0.1390, 0.1370, 0.1380,0.138, 0.1419, 0.1379, 0.1411,0.1411
MultiSource/Benchmarks/MiBench/telecomm-FFT/telecomm-fft, 0.0353, 0.0353, 0.0354,0.0353, 0.0353, 0.0353, 0.0353,0.0353
MultiSource/Benchmarks/MiBench/telecomm-adpcm/telecomm-adpcm, 0.0640, 0.0641, 0.0639,0.064, 0.0639, 0.0640, 0.0640,0.064
MultiSource/Benchmarks/MiBench/telecomm-gsm/telecomm-gsm, 0.0931, 0.0931, 0.0931,0.0931, 0.0927, 0.0928, 0.0927,0.0927
MultiSource/Benchmarks/NPB-serial/is/is, 4.6708, 4.6670, 4.6771,4.6708, 4.6334, 4.6770, 4.6286,4.6334
MultiSource/Benchmarks/Olden/bh/bh, 1.1808, 1.1808, 1.1815,1.1808, 1.1804, 1.1803, 1.1813,1.1804
MultiSource/Benchmarks/Olden/bisort/bisort, 0.3254, 0.3270, 0.3265,0.3265, 0.3281, 0.3262, 0.3275,0.3275
MultiSource/Benchmarks/Olden/em3d/em3d, 1.5610, 1.5615, 1.5611,1.5611, 1.5616, 1.5614, 1.5611,1.5614
MultiSource/Benchmarks/Olden/health/health, 0.1390, 0.1391, 0.1395,0.1391, 0.1397, 0.1399, 0.1400,0.1399
MultiSource/Benchmarks/Olden/mst/mst, 0.0483, 0.0480, 0.0483,0.0483, 0.0482, 0.0482, 0.0484,0.0482
MultiSource/Benchmarks/Olden/perimeter/perimeter, 0.1126, 0.1129, 0.1133,0.1129, 0.1132, 0.1133, 0.1131,0.1132
MultiSource/Benchmarks/Olden/power/power, 0.9634, 0.9634, 0.9634,0.9634, 0.9632, 0.9633, 0.9634,0.9633
MultiSource/Benchmarks/Olden/treeadd/treeadd, 0.1158, 0.1165, 0.1161,0.1161, 0.1162, 0.1165, 0.1165,0.1165
MultiSource/Benchmarks/Olden/tsp/tsp, 1.0719, 1.0726, 1.0727,1.0726, 1.0729, 1.0737, 1.0732,1.0732
MultiSource/Benchmarks/Olden/voronoi/voronoi, 0.1949, 0.1954, 0.1955,0.1954, 0.1982, 0.1988, 0.1986,0.1986
MultiSource/Benchmarks/PAQ8p/paq8p,39.0614,39.0578,39.0824,39.0614,39.0463,39.0267,39.0459,39.0459
MultiSource/Benchmarks/Prolangs-C++/city/city, 0.0047, 0.0047, 0.0047,0.0047, 0.0047, 0.0047, 0.0047,0.0047
MultiSource/Benchmarks/Prolangs-C++/employ/employ, 0.0064, 0.0063, 0.0064,0.0064, 0.0064, 0.0063, 0.0063,0.0063
MultiSource/Benchmarks/Prolangs-C++/life/life, 0.6573, 0.6729, 0.6576,0.6576, 0.6634, 0.6604, 0.6578,0.6604
MultiSource/Benchmarks/Prolangs-C++/ocean/ocean, 0.0361, 0.0361, 0.0362,0.0361, 0.0362, 0.0362, 0.0363,0.0362
MultiSource/Benchmarks/Prolangs-C++/primes/primes, 0.1974, 0.1944, 0.1954,0.1954, 0.1943, 0.1954, 0.1951,0.1951
MultiSource/Benchmarks/Prolangs-C++/simul/simul, 0.0036, 0.0036, 0.0035,0.0036, 0.0036, 0.0036, 0.0036,0.0036
MultiSource/Benchmarks/Prolangs-C/agrep/agrep, 0.0045, 0.0046, 0.0046,0.0046, 0.0046, 0.0046, 0.0045,0.0046
MultiSource/Benchmarks/Prolangs-C/bison/mybison, 0.0037, 0.0037, 0.0037,0.0037, 0.0037, 0.0037, 0.0037,0.0037
MultiSource/Benchmarks/Prolangs-C/gnugo/gnugo, 0.0250, 0.0250, 0.0249,0.025, 0.0250, 0.0250, 0.0250,0.025
MultiSource/Benchmarks/Ptrdist/anagram/anagram, 0.5505, 0.5502, 0.5504,0.5504, 0.5504, 0.5501, 0.5504,0.5504
MultiSource/Benchmarks/Ptrdist/bc/bc, 0.3351, 0.3350, 0.3350,0.335, 0.3370, 0.3372, 0.3373,0.3372
MultiSource/Benchmarks/Ptrdist/ft/ft, 0.5322, 0.5826, 0.6056,0.5826, 0.5257, 0.5321, 0.5703,0.5321
MultiSource/Benchmarks/Ptrdist/ks/ks, 0.5985, 0.5957, 0.6003,0.5985, 0.5972, 0.5973, 0.5975,0.5973
MultiSource/Benchmarks/Ptrdist/yacr2/yacr2, 0.4868, 0.4861, 0.4866,0.4866, 0.4865, 0.4868, 0.4867,0.4867
MultiSource/Benchmarks/SciMark2-C/scimark2,38.4781,38.4678,38.4720,38.472,38.5056,38.4904,38.4904,38.4904
MultiSource/Benchmarks/TSVC/ControlFlow-dbl/ControlFlow-dbl, 3.4165, 3.4175, 3.4150,3.4165, 3.4160, 3.4164, 3.4193,3.4164
MultiSource/Benchmarks/TSVC/ControlFlow-flt/ControlFlow-flt, 3.2017, 3.2361, 3.2073,3.2073, 3.2623, 3.2606, 3.2599,3.2606
MultiSource/Benchmarks/TSVC/ControlLoops-dbl/ControlLoops-dbl, 2.3324, 2.3204, 2.3191,2.3204, 2.3186, 2.3302, 2.3195,2.3195
MultiSource/Benchmarks/TSVC/ControlLoops-flt/ControlLoops-flt, 2.1548, 2.1495, 2.1366,2.1495, 2.1473, 2.1523, 2.1510,2.151
MultiSource/Benchmarks/TSVC/CrossingThresholds-dbl/CrossingThresholds-dbl, 1.9544, 1.9842, 1.9845,1.9842, 1.9542, 1.9541, 1.9843,1.9542
MultiSource/Benchmarks/TSVC/CrossingThresholds-flt/CrossingThresholds-flt, 1.4883, 1.4910, 1.4850,1.4883, 1.4981, 1.4999, 1.4851,1.4981
MultiSource/Benchmarks/TSVC/Equivalencing-dbl/Equivalencing-dbl, 1.2648, 1.2676, 1.2662,1.2662, 1.2665, 1.2734, 1.2711,1.2711
MultiSource/Benchmarks/TSVC/Equivalencing-flt/Equivalencing-flt, 0.8850, 0.8856, 0.8833,0.885, 0.8856, 0.8851, 0.8865,0.8856
MultiSource/Benchmarks/TSVC/Expansion-dbl/Expansion-dbl, 1.8357, 1.8071, 1.8047,1.8071, 1.8069, 1.8038, 1.8033,1.8038
MultiSource/Benchmarks/TSVC/Expansion-flt/Expansion-flt, 1.0750, 1.0726, 1.0727,1.0727, 1.0771, 1.0827, 1.0786,1.0786
MultiSource/Benchmarks/TSVC/GlobalDataFlow-dbl/GlobalDataFlow-dbl, 2.6182, 2.5991, 2.5989,2.5991, 2.5988, 2.5983, 2.6012,2.5988
MultiSource/Benchmarks/TSVC/GlobalDataFlow-flt/GlobalDataFlow-flt, 1.3763, 1.3767, 1.3618,1.3763, 1.3778, 1.3721, 1.3701,1.3721
MultiSource/Benchmarks/TSVC/IndirectAddressing-dbl/IndirectAddressing-dbl, 2.2564, 2.2803, 2.2565,2.2565, 2.2550, 2.2547, 2.2627,2.255
MultiSource/Benchmarks/TSVC/IndirectAddressing-flt/IndirectAddressing-flt, 2.0545, 2.0568, 2.0548,2.0548, 2.0628, 2.0528, 2.0534,2.0534
MultiSource/Benchmarks/TSVC/InductionVariable-dbl/InductionVariable-dbl, 2.7790, 2.7766, 2.8004,2.779, 2.8008, 2.7796, 2.7751,2.7796
MultiSource/Benchmarks/TSVC/InductionVariable-flt/InductionVariable-flt, 2.3334, 2.3453, 2.3377,2.3377, 2.3404, 2.3417, 2.3419,2.3417
MultiSource/Benchmarks/TSVC/LinearDependence-dbl/LinearDependence-dbl, 5.2114, 5.2302, 5.2124,5.2124, 5.2112, 5.2303, 5.2079,5.2112
MultiSource/Benchmarks/TSVC/LinearDependence-flt/LinearDependence-flt, 4.5573, 4.5573, 4.5596,4.5573, 4.5595, 4.5665, 4.5579,4.5595
MultiSource/Benchmarks/TSVC/LoopRerolling-dbl/LoopRerolling-dbl, 4.2067, 4.2069, 4.2068,4.2068, 4.2068, 4.2281, 4.2282,4.2281
MultiSource/Benchmarks/TSVC/LoopRerolling-flt/LoopRerolling-flt, 3.5107, 3.5039, 3.5103,3.5103, 3.5021, 3.4935, 3.4972,3.4972
MultiSource/Benchmarks/TSVC/LoopRestructuring-dbl/LoopRestructuring-dbl, 3.3814, 3.2992, 3.3851,3.3814, 3.2991, 3.3806, 3.2990,3.2991
MultiSource/Benchmarks/TSVC/LoopRestructuring-flt/LoopRestructuring-flt, 2.6427, 2.6328, 2.5783,2.6328, 2.6931, 2.6146, 2.6247,2.6247
MultiSource/Benchmarks/TSVC/NodeSplitting-dbl/NodeSplitting-dbl, 4.6055, 4.6047, 4.5937,4.6047, 4.6032, 4.5918, 4.5943,4.5943
MultiSource/Benchmarks/TSVC/NodeSplitting-flt/NodeSplitting-flt, 4.2609, 4.2613, 4.2611,4.2611, 4.2528, 4.2545, 4.2483,4.2528
MultiSource/Benchmarks/TSVC/Packing-dbl/Packing-dbl, 2.1462, 2.0913, 2.0919,2.0919, 2.0910, 2.0909, 2.0908,2.0909
MultiSource/Benchmarks/TSVC/Packing-flt/Packing-flt, 1.9215, 1.9274, 1.9180,1.9215, 1.9305, 1.9305, 1.9241,1.9305
MultiSource/Benchmarks/TSVC/Recurrences-dbl/Recurrences-dbl, 3.2017, 3.2016, 3.2016,3.2016, 3.2016, 3.2016, 3.2014,3.2016
MultiSource/Benchmarks/TSVC/Recurrences-flt/Recurrences-flt, 3.2013, 3.2012, 3.2014,3.2013, 3.2012, 3.2012, 3.2011,3.2012
MultiSource/Benchmarks/TSVC/Reductions-dbl/Reductions-dbl, 3.1458, 3.1456, 3.1457,3.1457, 3.1456, 3.1456, 3.1454,3.1456
MultiSource/Benchmarks/TSVC/Reductions-flt/Reductions-flt, 5.4271, 5.4269, 5.4273,5.4271, 5.4270, 5.4270, 5.4269,5.427
MultiSource/Benchmarks/TSVC/Searching-dbl/Searching-dbl, 2.0804, 2.0799, 2.0805,2.0804, 2.0808, 2.0808, 2.0805,2.0808
MultiSource/Benchmarks/TSVC/Searching-flt/Searching-flt, 2.2256, 2.2255, 2.2243,2.2255, 2.2245, 2.2257, 2.2255,2.2255
MultiSource/Benchmarks/TSVC/StatementReordering-dbl/StatementReordering-dbl, 2.0520, 2.0500, 2.0540,2.052, 2.0586, 2.0496, 2.0557,2.0557
MultiSource/Benchmarks/TSVC/StatementReordering-flt/StatementReordering-flt, 1.6735, 1.6700, 1.6724,1.6724, 1.6730, 1.6754, 1.6735,1.6735
MultiSource/Benchmarks/TSVC/Symbolics-dbl/Symbolics-dbl, 2.2374, 2.2569, 2.2571,2.2569, 2.2376, 2.2371, 2.2371,2.2371
MultiSource/Benchmarks/TSVC/Symbolics-flt/Symbolics-flt, 1.2693, 1.2723, 1.2701,1.2701, 1.2683, 1.2836, 1.2681,1.2683
MultiSource/Benchmarks/Trimaran/enc-3des/enc-3des, 1.1785, 1.1784, 1.1787,1.1785, 1.1787, 1.1785, 1.1794,1.1787
MultiSource/Benchmarks/Trimaran/enc-md5/enc-md5, 1.1196, 1.1197, 1.1197,1.1197, 1.1197, 1.1195, 1.1196,1.1196
MultiSource/Benchmarks/Trimaran/enc-pc1/enc-pc1, 0.3146, 0.3146, 0.3146,0.3146, 0.3146, 0.3147, 0.3146,0.3146
MultiSource/Benchmarks/Trimaran/enc-rc4/enc-rc4, 0.6657, 0.6655, 0.6658,0.6657, 0.6658, 0.6659, 0.7673,0.6659
MultiSource/Benchmarks/Trimaran/netbench-crc/netbench-crc, 0.5679, 0.5680, 0.5682,0.568, 0.5686, 0.5688, 0.5688,0.5688
MultiSource/Benchmarks/Trimaran/netbench-url/netbench-url, 2.7273, 2.7271, 2.7270,2.7271, 2.7273, 2.7272, 2.7268,2.7272
MultiSource/Benchmarks/VersaBench/8b10b/8b10b, 3.2899, 3.2887, 3.3007,3.2899, 3.3018, 3.2966, 3.2890,3.2966
MultiSource/Benchmarks/VersaBench/beamformer/beamformer, 0.6858, 0.6860, 0.6859,0.6859, 0.6861, 0.6860, 0.6861,0.6861
MultiSource/Benchmarks/VersaBench/bmm/bmm, 1.5052, 1.5055, 1.5057,1.5055, 1.5055, 1.5051, 1.5055,1.5055
MultiSource/Benchmarks/VersaBench/dbms/dbms, 0.7950, 0.7886, 0.8011,0.795, 0.7949, 0.7870, 0.7891,0.7891
MultiSource/Benchmarks/VersaBench/ecbdes/ecbdes, 1.5484, 1.5483, 1.5484,1.5484, 1.5484, 1.5484, 1.5483,1.5484
MultiSource/Benchmarks/llubenchmark/llu, 3.5664, 3.5147, 3.5263,3.5263, 3.5334, 3.6421, 3.5309,3.5334
MultiSource/Benchmarks/mafft/pairlocalalign,22.5458,22.5417,22.5424,22.5424,22.5943,22.5920,22.5920,22.592
MultiSource/Benchmarks/mediabench/adpcm/rawcaudio/rawcaudio, 0.0050, 0.0050, 0.0050,0.005, 0.0050, 0.0049, 0.0050,0.005
MultiSource/Benchmarks/mediabench/adpcm/rawdaudio/rawdaudio, 0.0035, 0.0034, 0.0034,0.0034, 0.0035, 0.0035, 0.0034,0.0035
MultiSource/Benchmarks/mediabench/g721/g721encode/encode, 0.0291, 0.0291, 0.0291,0.0291, 0.0291, 0.0291, 0.0291,0.0291
MultiSource/Benchmarks/mediabench/gsm/toast/toast, 0.0140, 0.0140, 0.0140,0.014, 0.0140, 0.0140, 0.0141,0.014
MultiSource/Benchmarks/mediabench/jpeg/jpeg-6a/cjpeg, 0.0046, 0.0046, 0.0046,0.0046, 0.0048, 0.0048, 0.0048,0.0048
MultiSource/Benchmarks/mediabench/mpeg2/mpeg2dec/mpeg2decode, 0.0136, 0.0137, 0.0137,0.0137, 0.0137, 0.0137, 0.0137,0.0137
MultiSource/Benchmarks/nbench/nbench, 1.1629, 1.1634, 1.1630,1.163, 1.1514, 1.1528, 1.1519,1.1519
MultiSource/Benchmarks/sim/sim, 2.4131, 2.4085, 2.4101,2.4101, 2.4091, 2.4100, 2.4118,2.41
MultiSource/Benchmarks/tramp3d-v4/tramp3d-v4, 0.2185, 0.2189, 0.2186,0.2186, 0.2189, 0.2187, 0.2189,0.2189
SingleSource/Benchmarks/Adobe-C++/functionobjects, 2.7627, 2.7609, 2.7600,2.7609, 2.7648, 2.7656, 2.7671,2.7656
SingleSource/Benchmarks/Adobe-C++/loop_unroll, 1.6213, 1.6223, 1.6219,1.6219, 1.6229, 1.6262, 1.6273,1.6262
SingleSource/Benchmarks/Adobe-C++/simple_types_constant_folding, 0.6076, 0.6078, 0.6077,0.6077, 0.6077, 0.6077, 0.6078,0.6077
SingleSource/Benchmarks/Adobe-C++/simple_types_loop_invariant, 1.4578, 1.4573, 1.4584,1.4578, 1.4574, 1.4583, 1.4582,1.4582
SingleSource/Benchmarks/Adobe-C++/stepanov_abstraction, 3.9003, 3.9009, 3.8995,3.9003, 3.8928, 3.8937, 3.8937,3.8937
SingleSource/Benchmarks/Adobe-C++/stepanov_vector, 2.1103, 2.1098, 2.1094,2.1098, 2.0805, 2.0803, 2.0796,2.0803
SingleSource/Benchmarks/BenchmarkGame/Large/fasta, 0.5901, 0.5958, 0.5904,0.5904, 0.5896, 0.5915, 0.5901,0.5901
SingleSource/Benchmarks/BenchmarkGame/fannkuch, 1.9106, 1.9116, 1.9106,1.9106, 1.9121, 1.9137, 1.9124,1.9124
SingleSource/Benchmarks/BenchmarkGame/n-body, 1.2555, 1.2557, 1.2557,1.2557, 1.2557, 1.2558, 1.2557,1.2557
SingleSource/Benchmarks/BenchmarkGame/nsieve-bits, 0.4356, 0.4258, 0.4296,0.4296, 0.4346, 0.4263, 0.4244,0.4263
SingleSource/Benchmarks/BenchmarkGame/partialsums, 0.5199, 0.5200, 0.5201,0.52, 0.5199, 0.5200, 0.5200,0.52
SingleSource/Benchmarks/BenchmarkGame/puzzle, 0.1184, 0.1182, 0.1187,0.1184, 0.1179, 0.1181, 0.1187,0.1181
SingleSource/Benchmarks/BenchmarkGame/recursive, 0.6451, 0.6443, 0.6534,0.6451, 0.6456, 0.6514, 0.6441,0.6456
SingleSource/Benchmarks/BenchmarkGame/spectral-norm, 0.8931, 0.8933, 0.8932,0.8932, 0.8933, 0.8932, 0.8933,0.8933
SingleSource/Benchmarks/CoyoteBench/almabench,11.5608,11.5569,11.5623,11.5608,11.5709,11.5694,11.5663,11.5694
SingleSource/Benchmarks/CoyoteBench/fftbench, 0.7492, 0.7378, 0.7329,0.7378, 0.7376, 0.7341, 0.7277,0.7341
SingleSource/Benchmarks/CoyoteBench/huffbench, 8.2855, 8.2777, 8.2802,8.2802, 8.2459, 8.2632, 8.2499,8.2499
SingleSource/Benchmarks/CoyoteBench/lpbench, 2.4593, 2.3832, 2.3820,2.3832, 2.3944, 2.3977, 2.3912,2.3944
SingleSource/Benchmarks/Dhrystone/dry, 0.2786, 0.2786, 0.2786,0.2786, 0.2786, 0.2786, 0.2786,0.2786
SingleSource/Benchmarks/Dhrystone/fldry, 0.3342, 0.3342, 0.3341,0.3342, 0.3342, 0.3342, 0.3342,0.3342
SingleSource/Benchmarks/Linpack/linpack-pc, 1.1398, 1.1345, 1.1340,1.1345, 1.1351, 1.1355, 1.1340,1.1351
SingleSource/Benchmarks/McGill/chomp, 1.1943, 1.2186, 1.2172,1.2172, 1.1912, 1.2211, 1.1933,1.1933
SingleSource/Benchmarks/McGill/misr, 0.0928, 0.0927, 0.0927,0.0927, 0.0927, 0.0927, 0.0928,0.0927
SingleSource/Benchmarks/McGill/queens, 1.6013, 1.6008, 1.6008,1.6008, 1.6015, 1.6017, 1.6018,1.6017
SingleSource/Benchmarks/Misc-C++-EH/spirit, 2.3839, 2.3834, 2.3835,2.3835, 2.4553, 2.4554, 2.4592,2.4554
SingleSource/Benchmarks/Misc-C++/Large/ray, 2.8702, 2.8694, 2.8693,2.8694, 2.8699, 2.8696, 2.8695,2.8696
SingleSource/Benchmarks/Misc-C++/Large/sphereflake, 5.1284, 5.1272, 5.1269,5.1272, 5.1271, 5.1270, 5.1270,5.127
SingleSource/Benchmarks/Misc-C++/bigfib, 0.1764, 0.1754, 0.1761,0.1761, 0.1761, 0.1763, 0.1766,0.1763
SingleSource/Benchmarks/Misc-C++/mandel-text, 1.4715, 1.4693, 1.4728,1.4715, 1.4683, 1.4718, 1.4729,1.4718
SingleSource/Benchmarks/Misc-C++/oopack_v1p8, 0.1482, 0.1482, 0.1482,0.1482, 0.1482, 0.1482, 0.1481,0.1482
SingleSource/Benchmarks/Misc-C++/stepanov_container, 2.6499, 2.6988, 2.6373,2.6499, 2.6901, 2.6748, 2.6359,2.6748
SingleSource/Benchmarks/Misc-C++/stepanov_v1p2, 7.2290, 7.2273, 7.2271,7.2273, 7.2269, 7.2268, 7.2268,7.2268
SingleSource/Benchmarks/Misc/ReedSolomon, 2.8626, 2.8622, 2.8622,2.8622, 2.7560, 2.7560, 2.7559,2.756
SingleSource/Benchmarks/Misc/dt, 0.6100, 0.6098, 0.6098,0.6098, 0.6098, 0.6098, 0.6098,0.6098
SingleSource/Benchmarks/Misc/evalloop, 0.3346, 0.3344, 0.3342,0.3344, 0.3358, 0.3353, 0.3357,0.3357
SingleSource/Benchmarks/Misc/fbench, 1.5673, 1.5669, 1.5669,1.5669, 1.5669, 1.5669, 1.5669,1.5669
SingleSource/Benchmarks/Misc/ffbench, 0.5394, 0.5303, 0.5410,0.5394, 0.5386, 0.5323, 0.5394,0.5386
SingleSource/Benchmarks/Misc/flops, 9.7390, 9.7573, 9.7405,9.7405, 9.7399, 9.7737, 9.7530,9.753
SingleSource/Benchmarks/Misc/flops-1, 3.2764, 3.2766, 3.2766,3.2766, 3.2847, 3.2764, 3.2766,3.2766
SingleSource/Benchmarks/Misc/flops-2, 0.7888, 0.7887, 0.7887,0.7887, 0.7887, 0.7887, 0.7887,0.7887
SingleSource/Benchmarks/Misc/flops-3, 4.9504, 4.9498, 4.9496,4.9498, 4.9497, 4.9497, 5.2103,4.9497
SingleSource/Benchmarks/Misc/flops-4, 2.1282, 2.1280, 2.1279,2.128, 2.0846, 2.0846, 2.1713,2.0846
SingleSource/Benchmarks/Misc/flops-5, 3.9106, 3.9097, 3.9096,3.9097, 3.9531, 3.9097, 3.9096,3.9097
SingleSource/Benchmarks/Misc/flops-6, 3.1477, 3.1268, 3.1267,3.1268, 3.1473, 3.1473, 3.1473,3.1473
SingleSource/Benchmarks/Misc/flops-7, 1.4541, 1.4540, 1.4540,1.454, 1.4540, 1.4539, 1.4540,1.454
SingleSource/Benchmarks/Misc/flops-8, 2.6930, 2.6924, 2.6923,2.6924, 2.6923, 2.6489, 2.6924,2.6923
SingleSource/Benchmarks/Misc/fp-convert, 2.4057, 2.4052, 2.4051,2.4052, 2.4051, 2.4051, 2.4051,2.4051
SingleSource/Benchmarks/Misc/himenobmtxpa, 0.5172, 0.4987, 0.5011,0.5011, 0.5123, 0.5122, 0.5152,0.5123
SingleSource/Benchmarks/Misc/lowercase, 0.0007, 0.0008, 0.0007,0.0007, 0.0008, 0.0007, 0.0008,0.0008
SingleSource/Benchmarks/Misc/mandel, 0.7626, 0.7624, 0.7624,0.7624, 0.7623, 0.7622, 0.7623,0.7623
SingleSource/Benchmarks/Misc/mandel-2, 1.1688, 1.1686, 1.1685,1.1686, 1.1685, 1.1685, 1.1685,1.1685
SingleSource/Benchmarks/Misc/matmul_f64_4x4, 1.1844, 1.1843, 1.1843,1.1843, 1.1844, 1.1843, 1.1844,1.1844
SingleSource/Benchmarks/Misc/oourafft, 5.5025, 5.5023, 5.5015,5.5023, 5.5022, 5.5018, 5.5019,5.5019
SingleSource/Benchmarks/Misc/perlin, 3.5494, 3.5486, 3.5488,3.5488, 3.5483, 3.5486, 3.5479,3.5483
SingleSource/Benchmarks/Misc/pi, 0.6349, 0.6348, 0.6348,0.6348, 0.6348, 0.6348, 0.6348,0.6348
SingleSource/Benchmarks/Misc/revertBits, 0.3014, 0.3013, 0.3013,0.3013, 0.3013, 0.3013, 0.3013,0.3013
SingleSource/Benchmarks/Misc/richards_benchmark, 0.4548, 0.4547, 0.4548,0.4548, 0.4545, 0.4548, 0.4547,0.4547
SingleSource/Benchmarks/Misc/salsa20, 4.2235, 4.2229, 4.2228,4.2229, 3.8052, 4.2228, 3.8052,3.8052
SingleSource/Benchmarks/Misc/whetstone, 0.9386, 0.9372, 0.9395,0.9386, 0.9372, 0.9385, 0.9395,0.9385
SingleSource/Benchmarks/Polybench/datamining/correlation/correlation, 1.4463, 1.4139, 1.4215,1.4215, 1.4245, 1.4105, 1.4111,1.4111
SingleSource/Benchmarks/Polybench/datamining/covariance/covariance, 1.4250, 1.4071, 1.3978,1.4071, 1.4072, 1.4095, 1.4090,1.409
SingleSource/Benchmarks/Polybench/linear-algebra/kernels/atax/atax, 0.1617, 0.1605, 0.1604,0.1605, 0.1606, 0.1606, 0.1605,0.1606
SingleSource/Benchmarks/Polybench/linear-algebra/kernels/bicg/bicg, 0.2009, 0.1994, 0.1995,0.1995, 0.1995, 0.1994, 0.1994,0.1994
SingleSource/Benchmarks/Polybench/linear-algebra/kernels/cholesky/cholesky, 0.4166, 0.4150, 0.4161,0.4161, 0.4162, 0.4162, 0.4152,0.4162
SingleSource/Benchmarks/Polybench/linear-algebra/kernels/doitgen/doitgen, 0.7181, 0.7148, 0.7215,0.7181, 0.7144, 0.7157, 0.7145,0.7145
SingleSource/Benchmarks/Polybench/linear-algebra/kernels/gemver/gemver, 0.3262, 0.3217, 0.3219,0.3219, 0.3155, 0.3202, 0.3200,0.32
SingleSource/Benchmarks/Polybench/linear-algebra/kernels/gesummv/gesummv, 0.2944, 0.2910, 0.2871,0.291, 0.2912, 0.2864, 0.2863,0.2864
SingleSource/Benchmarks/Polybench/linear-algebra/kernels/mvt/mvt, 0.2372, 0.2344, 0.2353,0.2353, 0.2297, 0.2341, 0.2299,0.2299
SingleSource/Benchmarks/Polybench/linear-algebra/kernels/symm/symm,15.0605,14.6580,14.6781,14.6781,14.8543,15.0149,14.6436,14.8543
SingleSource/Benchmarks/Polybench/linear-algebra/kernels/syr2k/syr2k, 8.5447, 8.3559, 8.4125,8.4125, 8.4122, 8.4122, 8.4122,8.4122
SingleSource/Benchmarks/Polybench/linear-algebra/kernels/syrk/syrk, 4.0429, 3.9984, 4.2223,4.0429, 4.0002, 4.2223, 4.2225,4.2223
SingleSource/Benchmarks/Polybench/linear-algebra/kernels/trisolv/trisolv, 0.1644, 0.1635, 0.1637,0.1637, 0.1637, 0.1547, 0.1636,0.1636
SingleSource/Benchmarks/Polybench/linear-algebra/kernels/trmm/trmm, 2.1299, 2.0232, 2.1224,2.1224, 2.1219, 2.1220, 2.0126,2.1219
SingleSource/Benchmarks/Polybench/linear-algebra/solvers/durbin/durbin, 0.3916, 0.4002, 0.4008,0.4002, 0.3914, 0.4008, 0.4007,0.4007
SingleSource/Benchmarks/Polybench/linear-algebra/solvers/dynprog/dynprog, 0.2570, 0.2581, 0.2566,0.257, 0.2568, 0.2568, 0.2577,0.2568
SingleSource/Benchmarks/Polybench/linear-algebra/solvers/gramschmidt/gramschmidt, 1.4242, 1.4152, 1.4172,1.4172, 1.4169, 1.3969, 1.4024,1.4024
SingleSource/Benchmarks/Polybench/linear-algebra/solvers/lu/lu, 0.0020, 0.0020, 0.0020,0.002, 0.0020, 0.0020, 0.0020,0.002
SingleSource/Benchmarks/Polybench/medley/floyd-warshall/floyd-warshall, 5.4340, 5.4352, 5.4321,5.434, 5.4361, 5.4348, 5.4348,5.4348
SingleSource/Benchmarks/Polybench/medley/reg_detect/reg_detect, 0.0143, 0.0142, 0.0142,0.0142, 0.0142, 0.0143, 0.0142,0.0142
SingleSource/Benchmarks/Polybench/stencils/adi/adi, 2.6087, 2.6055, 2.6066,2.6066, 2.6066, 2.6048, 2.6024,2.6048
SingleSource/Benchmarks/Polybench/stencils/fdtd-2d/fdtd-2d, 0.5084, 0.5079, 0.5111,0.5084, 0.5088, 0.5105, 0.5115,0.5105
SingleSource/Benchmarks/Polybench/stencils/fdtd-apml/fdtd-apml, 0.6666, 0.6651, 0.6658,0.6658, 0.6712, 0.6648, 0.6731,0.6712
SingleSource/Benchmarks/Polybench/stencils/jacobi-1d-imper/jacobi-1d-imper, 0.0033, 0.0033, 0.0034,0.0033, 0.0033, 0.0033, 0.0034,0.0033
SingleSource/Benchmarks/Polybench/stencils/jacobi-2d-imper/jacobi-2d-imper, 0.1526, 0.1522, 0.1526,0.1526, 0.1531, 0.1519, 0.1528,0.1528
SingleSource/Benchmarks/Polybench/stencils/seidel-2d/seidel-2d, 0.6027, 0.6027, 0.6027,0.6027, 0.6027, 0.6027, 0.6027,0.6027
SingleSource/Benchmarks/Shootout-C++/EH/except, 0.1117, 0.1107, 0.1107,0.1107, 0.1128, 0.1103, 0.1115,0.1115
SingleSource/Benchmarks/Shootout-C++/ackermann, 0.6009, 0.6009, 0.6009,0.6009, 0.6009, 0.6010, 0.6009,0.6009
SingleSource/Benchmarks/Shootout-C++/ary, 0.0225, 0.0218, 0.0218,0.0218, 0.0217, 0.0217, 0.0218,0.0217
SingleSource/Benchmarks/Shootout-C++/ary2, 0.0224, 0.0219, 0.0219,0.0219, 0.0218, 0.0217, 0.0219,0.0218
SingleSource/Benchmarks/Shootout-C++/ary3, 0.6911, 0.6964, 0.6896,0.6911, 0.6869, 0.6649, 0.6945,0.6869
SingleSource/Benchmarks/Shootout-C++/fibo, 1.3511, 1.3533, 1.3508,1.3511, 1.3482, 1.3499, 1.3510,1.3499
SingleSource/Benchmarks/Shootout-C++/hash, 0.2833, 0.2819, 0.2827,0.2827, 0.2877, 0.2874, 0.2872,0.2874
SingleSource/Benchmarks/Shootout-C++/hash2, 1.5776, 1.5774, 1.5773,1.5774, 1.5943, 1.5950, 1.5944,1.5944
SingleSource/Benchmarks/Shootout-C++/heapsort, 1.9907, 1.9421, 1.9316,1.9421, 1.9324, 1.9332, 1.9312,1.9324
SingleSource/Benchmarks/Shootout-C++/lists, 2.6473, 2.6374, 2.6357,2.6374, 2.6352, 2.6453, 2.6538,2.6453
SingleSource/Benchmarks/Shootout-C++/lists1, 0.1265, 0.1243, 0.1246,0.1246, 0.1264, 0.1250, 0.1254,0.1254
SingleSource/Benchmarks/Shootout-C++/matrix, 1.0283, 1.0283, 1.0283,1.0283, 1.0284, 1.0283, 1.0285,1.0284
SingleSource/Benchmarks/Shootout-C++/methcall, 3.1599, 3.1544, 3.1543,3.1544, 3.1543, 3.1544, 3.1544,3.1544
SingleSource/Benchmarks/Shootout-C++/moments, 0.0516, 0.0503, 0.0502,0.0503, 0.0562, 0.0563, 0.0561,0.0562
SingleSource/Benchmarks/Shootout-C++/nestedloop, 0.0008, 0.0008, 0.0008,0.0008, 0.0008, 0.0007, 0.0007,0.0007
SingleSource/Benchmarks/Shootout-C++/objinst, 0.0008, 0.0008, 0.0008,0.0008, 0.0008, 0.0008, 0.0008,0.0008
SingleSource/Benchmarks/Shootout-C++/random, 1.5957, 1.5956, 1.5954,1.5956, 1.5955, 1.5955, 1.5955,1.5955
SingleSource/Benchmarks/Shootout-C++/sieve, 1.2614, 1.1921, 1.1921,1.1921, 1.2542, 1.2470, 1.2732,1.2542
SingleSource/Benchmarks/Shootout-C++/strcat, 0.0389, 0.0385, 0.0386,0.0386, 0.0385, 0.0384, 0.0384,0.0384
SingleSource/Benchmarks/Shootout/ackermann, 0.0031, 0.0031, 0.0031,0.0031, 0.0031, 0.0031, 0.0031,0.0031
SingleSource/Benchmarks/Shootout/ary3, 0.7103, 0.7298, 0.7036,0.7103, 0.6973, 0.7120, 0.7175,0.712
SingleSource/Benchmarks/Shootout/fib2, 1.3496, 1.3548, 1.3485,1.3496, 1.3526, 1.3533, 1.3507,1.3526
SingleSource/Benchmarks/Shootout/hash, 2.5353, 2.5406, 2.5244,2.5353, 2.5251, 2.5445, 2.5563,2.5445
SingleSource/Benchmarks/Shootout/heapsort, 1.9945, 1.9331, 1.9520,1.952, 1.9343, 1.9508, 1.9496,1.9496
SingleSource/Benchmarks/Shootout/lists, 3.7619, 3.7660, 3.7685,3.766, 3.7643, 3.7656, 3.7640,3.7643
SingleSource/Benchmarks/Shootout/matrix, 0.9680, 0.9680, 0.9683,0.968, 0.9679, 0.9683, 0.9682,0.9682
SingleSource/Benchmarks/Shootout/methcall, 2.9964, 2.9956, 2.9957,2.9957, 2.9955, 2.9957, 2.9955,2.9955
SingleSource/Benchmarks/Shootout/nestedloop, 0.0008, 0.0007, 0.0008,0.0008, 0.0007, 0.0007, 0.0008,0.0007
SingleSource/Benchmarks/Shootout/objinst, 0.0008, 0.0008, 0.0008,0.0008, 0.0007, 0.0008, 0.0007,0.0007
SingleSource/Benchmarks/Shootout/random, 1.5957, 1.5955, 1.5955,1.5955, 1.5955, 1.5954, 1.5954,1.5954
SingleSource/Benchmarks/Shootout/sieve, 3.1710, 3.1718, 3.1720,3.1718, 3.4830, 3.4843, 3.4820,3.483
SingleSource/Benchmarks/Shootout/strcat, 0.1008, 0.1004, 0.1003,0.1004, 0.1003, 0.1004, 0.1004,0.1004
SingleSource/Benchmarks/SmallPT/smallpt, 6.9121, 6.9120, 6.9044,6.912, 6.9120, 6.9125, 6.9125,6.9125
SingleSource/Benchmarks/Stanford/Bubblesort, 0.0145, 0.0144, 0.0145,0.0145, 0.0145, 0.0145, 0.0145,0.0145
SingleSource/Benchmarks/Stanford/FloatMM, 0.1841, 0.1840, 0.1839,0.184, 0.1840, 0.1840, 0.1839,0.184
SingleSource/Benchmarks/Stanford/Oscar, 0.0030, 0.0030, 0.0030,0.003, 0.0030, 0.0030, 0.0030,0.003
SingleSource/Benchmarks/Stanford/Perm, 0.0134, 0.0134, 0.0134,0.0134, 0.0134, 0.0134, 0.0133,0.0134
SingleSource/Benchmarks/Stanford/Puzzle, 0.0727, 0.0726, 0.0726,0.0726, 0.0727, 0.0727, 0.0726,0.0727
SingleSource/Benchmarks/Stanford/Queens, 0.0068, 0.0065, 0.0066,0.0066, 0.0067, 0.0067, 0.0068,0.0067
SingleSource/Benchmarks/Stanford/Quicksort, 0.0277, 0.0278, 0.0277,0.0277, 0.0276, 0.0277, 0.0277,0.0277
SingleSource/Benchmarks/Stanford/RealMM, 0.0014, 0.0014, 0.0013,0.0014, 0.0014, 0.0014, 0.0014,0.0014
SingleSource/Benchmarks/Stanford/Towers, 0.0076, 0.0076, 0.0076,0.0076, 0.0076, 0.0076, 0.0077,0.0076
SingleSource/Benchmarks/Stanford/Treesort, 0.0498, 0.0496, 0.0496,0.0496, 0.0496, 0.0498, 0.0497,0.0497
SingleSource/Regression/C/2004-08-12-InlinerAndAllocas, 0.0013, 0.0013, 0.0012,0.0013, 0.0012, 0.0012, 0.0012,0.0012
SingleSource/Regression/C/uint64_to_float, 0.2254, 0.2255, 0.2255,0.2255, 0.2255, 0.2254, 0.2254,0.2254
Total elapsed time,-,-,-,538.9668000000003,-,-,-,539.2182000000006
Total failure,-,-,-,0,-,-,-,0
