Benchmarks,base-5.0,base-5.0,base-5.0,median,insts-5.0,insts-5.0,insts-5.0,median,Slowdown(%)
SingleSource/Benchmarks/Shootout-C++/moments, 0.0516, 0.0503, 0.0502,0.0503, 0.0563, 0.0561, 0.0562,0.0562,11.729622266401595
SingleSource/Benchmarks/Shootout/sieve, 3.1710, 3.1718, 3.1720,3.1718, 3.4815, 3.4826, 3.4825,3.4825,9.79569960274922
SingleSource/Benchmarks/Misc/flops-3, 4.9504, 4.9498, 4.9496,4.9498, 4.9499, 5.2103, 5.2103,5.2103,5.262838902581923
MultiSource/Benchmarks/mediabench/jpeg/jpeg-6a/cjpeg, 0.0046, 0.0046, 0.0046,0.0046, 0.0048, 0.0048, 0.0049,0.0048,4.347826086956519
SingleSource/Benchmarks/Polybench/stencils/jacobi-1d-imper/jacobi-1d-imper, 0.0033, 0.0033, 0.0034,0.0033, 0.0034, 0.0034, 0.0034,0.0034,3.0303030303030276
MultiSource/Benchmarks/mediabench/adpcm/rawdaudio/rawdaudio, 0.0035, 0.0034, 0.0034,0.0034, 0.0035, 0.0035, 0.0034,0.0035,2.941176470588247
SingleSource/Benchmarks/Polybench/linear-algebra/solvers/gramschmidt/gramschmidt, 1.4242, 1.4152, 1.4172,1.4172, 1.4184, 1.4821, 1.4581,1.4581,2.8859723398249937
MultiSource/Benchmarks/Olden/voronoi/voronoi, 0.1949, 0.1954, 0.1955,0.1954, 0.1998, 0.1997, 0.2008,0.1998,2.2517911975435068
SingleSource/Benchmarks/Shootout-C++/hash, 0.2833, 0.2819, 0.2827,0.2827, 0.2867, 0.2885, 0.2900,0.2885,2.051644853201262
MultiSource/Benchmarks/TSVC/ControlFlow-flt/ControlFlow-flt, 3.2017, 3.2361, 3.2073,3.2073, 3.2707, 3.2664, 3.2582,3.2664,1.8426714058553895
MultiSource/Applications/minisat/minisat, 3.7319, 3.5694, 3.7382,3.7319, 3.7897, 3.7871, 3.7931,3.7897,1.5488089177094766
MultiSource/Benchmarks/TSVC/LoopRestructuring-flt/LoopRestructuring-flt, 2.6427, 2.6328, 2.5783,2.6328, 2.6875, 2.6370, 2.6722,2.6722,1.496505621391675
MultiSource/Applications/sqlite3/sqlite3, 1.6296, 1.6290, 1.6340,1.6296, 1.6527, 1.6498, 1.6572,1.6527,1.4175257731958935
SingleSource/Benchmarks/Stanford/Towers, 0.0076, 0.0076, 0.0076,0.0076, 0.0077, 0.0076, 0.0077,0.0077,1.3157894736842035
SingleSource/Benchmarks/Misc/flops-5, 3.9106, 3.9097, 3.9096,3.9097, 3.9532, 3.9531, 3.9088,3.9531,1.110059595365387
SingleSource/Benchmarks/Shootout-C++/hash2, 1.5776, 1.5774, 1.5773,1.5774, 1.5924, 1.5945, 1.5938,1.5938,1.0396855585140141
SingleSource/Benchmarks/BenchmarkGame/recursive, 0.6451, 0.6443, 0.6534,0.6451, 0.6512, 0.6442, 0.6523,0.6512,0.9455898310339439
MultiSource/Benchmarks/McCat/09-vor/vor, 0.0773, 0.0774, 0.0778,0.0774, 0.0776, 0.0781, 0.0781,0.0781,0.9043927648578975
MultiSource/Applications/SIBsim4/SIBsim4, 1.9116, 1.9034, 1.8942,1.9034, 1.9028, 1.9198, 1.9797,1.9198,0.8616160554796748
MultiSource/Benchmarks/BitBench/five11/five11, 1.0294, 1.0417, 1.0325,1.0325, 1.0421, 1.0413, 1.0331,1.0413,0.8523002421307435
SingleSource/Benchmarks/BenchmarkGame/nsieve-bits, 0.4356, 0.4258, 0.4296,0.4296, 0.4363, 0.4332, 0.4214,0.4332,0.8379888268156499
MultiSource/Benchmarks/MallocBench/gs/gs, 0.0273, 0.0272, 0.0272,0.0272, 0.0274, 0.0271, 0.0275,0.0274,0.7352941176470562
MultiSource/Benchmarks/TSVC/Expansion-flt/Expansion-flt, 1.0750, 1.0726, 1.0727,1.0727, 1.0833, 1.0802, 1.0804,1.0804,0.7178148596998168
MultiSource/Benchmarks/DOE-ProxyApps-C++/PENNANT/PENNANT, 0.3768, 0.3779, 0.3771,0.3771, 0.3802, 0.3798, 0.3796,0.3798,0.7159904534606243
MultiSource/Benchmarks/TSVC/ControlFlow-dbl/ControlFlow-dbl, 3.4165, 3.4175, 3.4150,3.4165, 3.4407, 3.4158, 3.4408,3.4407,0.7083272354748926
MultiSource/Benchmarks/MiBench/security-sha/security-sha, 0.0146, 0.0146, 0.0146,0.0146, 0.0147, 0.0146, 0.0148,0.0147,0.6849315068493178
MultiSource/Benchmarks/Ptrdist/bc/bc, 0.3351, 0.3350, 0.3350,0.335, 0.3372, 0.3370, 0.3372,0.3372,0.6567164179104523
SingleSource/Benchmarks/Misc/flops-6, 3.1477, 3.1268, 3.1267,3.1268, 3.1473, 3.1472, 3.1268,3.1472,0.6524242036586969
SingleSource/Benchmarks/Misc-C++-EH/spirit, 2.3839, 2.3834, 2.3835,2.3835, 2.3973, 2.3982, 2.3965,2.3973,0.5789804908747476
MultiSource/Benchmarks/7zip/7zip-benchmark, 5.8052, 5.8069, 5.8049,5.8052, 5.8359, 5.8366, 5.8402,5.8366,0.5408943705643265
MultiSource/Benchmarks/TSVC/LoopRerolling-dbl/LoopRerolling-dbl, 4.2067, 4.2069, 4.2068,4.2068, 4.2281, 4.2283, 4.2281,4.2281,0.5063230959399201
MultiSource/Benchmarks/Prolangs-C++/life/life, 0.6573, 0.6729, 0.6576,0.6576, 0.6727, 0.6609, 0.6592,0.6609,0.5018248175182594
MultiSource/Applications/spiff/spiff, 1.1722, 1.1755, 1.1726,1.1726, 1.1782, 1.1768, 1.1789,1.1782,0.4775712092785156
MultiSource/Benchmarks/MiBench/telecomm-adpcm/telecomm-adpcm, 0.0640, 0.0641, 0.0639,0.064, 0.0643, 0.0639, 0.0644,0.0643,0.46874999999999556
MultiSource/Benchmarks/TSVC/Packing-flt/Packing-flt, 1.9215, 1.9274, 1.9180,1.9215, 1.9469, 1.9156, 1.9299,1.9299,0.43715846994534235
MultiSource/Benchmarks/TSVC/ControlLoops-dbl/ControlLoops-dbl, 2.3324, 2.3204, 2.3191,2.3204, 2.3195, 2.3327, 2.3305,2.3305,0.4352697810722228
SingleSource/Benchmarks/Polybench/datamining/covariance/covariance, 1.4250, 1.4071, 1.3978,1.4071, 1.4128, 1.4211, 1.3985,1.4128,0.4050884798521892
MultiSource/Benchmarks/TSVC/CrossingThresholds-flt/CrossingThresholds-flt, 1.4883, 1.4910, 1.4850,1.4883, 1.4977, 1.4943, 1.4875,1.4943,0.4031445273130485
SingleSource/Benchmarks/Shootout/hash, 2.5353, 2.5406, 2.5244,2.5353, 2.5659, 2.5451, 2.5405,2.5451,0.3865420265846353
MultiSource/Benchmarks/MiBench/automotive-susan/automotive-susan, 0.0278, 0.0278, 0.0278,0.0278, 0.0280, 0.0279, 0.0279,0.0279,0.3597122302158473
MultiSource/Benchmarks/Olden/health/health, 0.1390, 0.1391, 0.1395,0.1391, 0.1396, 0.1392, 0.1401,0.1396,0.35945363048166534
MultiSource/Applications/JM/lencod/lencod, 2.8900, 2.8987, 2.8913,2.8913, 2.9016, 2.9035, 2.8904,2.9016,0.35624113720471584
MultiSource/Benchmarks/llubenchmark/llu, 3.5664, 3.5147, 3.5263,3.5263, 3.5387, 3.5717, 3.3637,3.5387,0.35164336556730014
MultiSource/Applications/lambda-0.1.3/lambda, 2.4103, 2.4597, 2.4255,2.4255, 2.4399, 2.4340, 2.4338,2.434,0.35044320758608194
SingleSource/Benchmarks/BenchmarkGame/puzzle, 0.1184, 0.1182, 0.1187,0.1184, 0.1188, 0.1189, 0.1181,0.1188,0.33783783783782884
MultiSource/Benchmarks/TSVC/InductionVariable-flt/InductionVariable-flt, 2.3334, 2.3453, 2.3377,2.3377, 2.3328, 2.3454, 2.3458,2.3454,0.3293835821534197
MultiSource/Benchmarks/VersaBench/8b10b/8b10b, 3.2899, 3.2887, 3.3007,3.2899, 3.2964, 3.3007, 3.3009,3.3007,0.32827745524179885
MultiSource/Benchmarks/Olden/bisort/bisort, 0.3254, 0.3270, 0.3265,0.3265, 0.3265, 0.3286, 0.3275,0.3275,0.3062787136294043
SingleSource/Benchmarks/Polybench/linear-algebra/kernels/symm/symm,15.0605,14.6580,14.6781,14.6781,14.7220,14.4453,15.0877,14.722,0.29908503144138177
MultiSource/Benchmarks/MallocBench/espresso/espresso, 0.2809, 0.2752, 0.2751,0.2752, 0.2867, 0.2760, 0.2759,0.276,0.29069767441860517
MultiSource/Benchmarks/Fhourstones/fhourstones, 0.4905, 0.4906, 0.4883,0.4905, 0.4964, 0.4919, 0.4917,0.4919,0.2854230377166145
MultiSource/Benchmarks/Ptrdist/ks/ks, 0.5985, 0.5957, 0.6003,0.5985, 0.6012, 0.5996, 0.6002,0.6002,0.28404344193817543
MultiSource/Benchmarks/MiBench/telecomm-FFT/telecomm-fft, 0.0353, 0.0353, 0.0354,0.0353, 0.0353, 0.0354, 0.0354,0.0354,0.2832861189801861
MultiSource/Benchmarks/Prolangs-C++/ocean/ocean, 0.0361, 0.0361, 0.0362,0.0361, 0.0362, 0.0361, 0.0362,0.0362,0.27700831024930483
MultiSource/Benchmarks/McCat/01-qbsort/qbsort, 0.0372, 0.0370, 0.0370,0.037, 0.0371, 0.0371, 0.0370,0.0371,0.2702702702702675
SingleSource/Benchmarks/Linpack/linpack-pc, 1.1398, 1.1345, 1.1340,1.1345, 1.1382, 1.1348, 1.1375,1.1375,0.2644336712207984
MultiSource/Benchmarks/FreeBench/analyzer/analyzer, 0.0381, 0.0391, 0.0386,0.0386, 0.0386, 0.0390, 0.0387,0.0387,0.2590673575129321
SingleSource/Benchmarks/Shootout-C++/lists, 2.6473, 2.6374, 2.6357,2.6374, 2.6448, 2.6441, 2.6403,2.6441,0.2540380677940268
MultiSource/Benchmarks/TSVC/Equivalencing-flt/Equivalencing-flt, 0.8850, 0.8856, 0.8833,0.885, 0.8887, 0.8860, 0.8872,0.8872,0.2485875706214724
MultiSource/Benchmarks/TSVC/Symbolics-flt/Symbolics-flt, 1.2693, 1.2723, 1.2701,1.2701, 1.2782, 1.2721, 1.2732,1.2732,0.24407526966381266
MultiSource/Benchmarks/mafft/pairlocalalign,22.5458,22.5417,22.5424,22.5424,22.5931,22.5930,22.5933,22.5931,0.2249095038682647
SingleSource/Benchmarks/Shootout/fib2, 1.3496, 1.3548, 1.3485,1.3496, 1.3529, 1.3526, 1.3503,1.3526,0.222288085358624
SingleSource/Benchmarks/Misc/himenobmtxpa, 0.5172, 0.4987, 0.5011,0.5011, 0.5019, 0.5172, 0.5022,0.5022,0.21951706246257086
MultiSource/Benchmarks/TSVC/ControlLoops-flt/ControlLoops-flt, 2.1548, 2.1495, 2.1366,2.1495, 2.1541, 2.1469, 2.1605,2.1541,0.21400325657128239
SingleSource/Benchmarks/Stanford/Treesort, 0.0498, 0.0496, 0.0496,0.0496, 0.0497, 0.0498, 0.0497,0.0497,0.20161290322582293
MultiSource/Benchmarks/McCat/18-imp/imp, 0.0528, 0.0527, 0.0527,0.0527, 0.0528, 0.0528, 0.0528,0.0528,0.189753320683117
MultiSource/Benchmarks/Bullet/bullet, 2.9515, 2.9424, 2.9444,2.9444, 2.9491, 2.9481, 2.9506,2.9491,0.15962505094417878
SingleSource/Benchmarks/Polybench/stencils/fdtd-2d/fdtd-2d, 0.5084, 0.5079, 0.5111,0.5084, 0.5110, 0.5073, 0.5092,0.5092,0.15735641227381247
SingleSource/Benchmarks/Adobe-C++/functionobjects, 2.7627, 2.7609, 2.7600,2.7609, 2.7652, 2.7651, 2.7671,2.7652,0.15574631460755217
SingleSource/Benchmarks/Misc/oourafft, 5.5025, 5.5023, 5.5015,5.5023, 5.5100, 5.5120, 5.5019,5.51,0.1399414790178577
SingleSource/Benchmarks/Polybench/linear-algebra/kernels/gesummv/gesummv, 0.2944, 0.2910, 0.2871,0.291, 0.2868, 0.2914, 0.2915,0.2914,0.13745704467353903
MultiSource/Benchmarks/TSVC/GlobalDataFlow-flt/GlobalDataFlow-flt, 1.3763, 1.3767, 1.3618,1.3763, 1.3802, 1.3780, 1.3732,1.378,0.12351958148657527
MultiSource/Benchmarks/DOE-ProxyApps-C++/miniFE/miniFE, 2.4132, 2.4114, 2.4167,2.4132, 2.4256, 2.4131, 2.4158,2.4158,0.10774075915798154
MultiSource/Benchmarks/Trimaran/netbench-crc/netbench-crc, 0.5679, 0.5680, 0.5682,0.568, 0.5686, 0.5683, 0.5689,0.5686,0.10563380281691792
MultiSource/Benchmarks/McCat/12-IOtest/iotest, 0.1973, 0.1962, 0.1973,0.1973, 0.1982, 0.1972, 0.1975,0.1975,0.10136847440447294
SingleSource/Benchmarks/Shootout/strcat, 0.1008, 0.1004, 0.1003,0.1004, 0.1005, 0.1005, 0.1003,0.1005,0.09960159362549792
MultiSource/Benchmarks/MiBench/automotive-basicmath/automotive-basicmath, 0.2056, 0.2054, 0.2055,0.2055, 0.2054, 0.2057, 0.2060,0.2057,0.09732360097323145
MultiSource/Benchmarks/MiBench/consumer-lame/consumer-lame, 0.1086, 0.1088, 0.1089,0.1088, 0.1089, 0.1089, 0.1091,0.1089,0.09191176470588758
SingleSource/Benchmarks/CoyoteBench/almabench,11.5608,11.5569,11.5623,11.5608,11.5708,11.5626,11.5708,11.5708,0.08649920420731316
MultiSource/Benchmarks/Olden/treeadd/treeadd, 0.1158, 0.1165, 0.1161,0.1161, 0.1162, 0.1161, 0.1167,0.1162,0.08613264427217437
MultiSource/Benchmarks/TSVC/GlobalDataFlow-dbl/GlobalDataFlow-dbl, 2.6182, 2.5991, 2.5989,2.5991, 2.6193, 2.6013, 2.6011,2.6013,0.0846446846985538
MultiSource/Benchmarks/FreeBench/distray/distray, 0.1248, 0.1249, 0.1248,0.1248, 0.1249, 0.1247, 0.1249,0.1249,0.08012820512821595
SingleSource/Benchmarks/Polybench/linear-algebra/solvers/dynprog/dynprog, 0.2570, 0.2581, 0.2566,0.257, 0.2570, 0.2572, 0.2573,0.2572,0.07782101167315147
MultiSource/Benchmarks/ASCI_Purple/SMG2000/smg2000, 1.2848, 1.2776, 1.2791,1.2791, 1.2787, 1.2800, 1.2857,1.28,0.07036197326246718
MultiSource/Benchmarks/DOE-ProxyApps-C/miniAMR/miniAMR, 0.7162, 0.7133, 0.7123,0.7133, 0.7129, 0.7138, 0.7153,0.7138,0.07009673349220868
MultiSource/Benchmarks/BitBench/drop3/drop3, 0.1459, 0.1458, 0.1459,0.1459, 0.1461, 0.1460, 0.1459,0.146,0.06854009595613775
SingleSource/Benchmarks/Misc-C++/bigfib, 0.1764, 0.1754, 0.1761,0.1761, 0.1759, 0.1766, 0.1762,0.1762,0.05678591709254999
MultiSource/Benchmarks/Fhourstones-3.1/fhourstones3.1, 0.7306, 0.7308, 0.7291,0.7306, 0.7314, 0.7310, 0.7306,0.731,0.05474952094168817
SingleSource/Benchmarks/CoyoteBench/lpbench, 2.4593, 2.3832, 2.3820,2.3832, 2.3844, 2.3939, 2.3828,2.3844,0.050352467270897705
MultiSource/Benchmarks/SciMark2-C/scimark2,38.4781,38.4678,38.4720,38.472,38.4968,38.4874,38.4897,38.4897,0.046007485963817096
MultiSource/Benchmarks/DOE-ProxyApps-C/SimpleMOC/SimpleMOC, 3.4696, 3.4585, 3.4822,3.4696, 3.4711, 3.4673, 3.4755,3.4711,0.043232649296753856
MultiSource/Benchmarks/MallocBench/cfrac/cfrac, 0.6975, 0.6976, 0.6970,0.6975, 0.6979, 0.6978, 0.6978,0.6978,0.043010752688177334
MultiSource/Benchmarks/Trimaran/enc-3des/enc-3des, 1.1785, 1.1784, 1.1787,1.1785, 1.1785, 1.1791, 1.1790,1.179,0.042426813746287984
MultiSource/Benchmarks/TSVC/Equivalencing-dbl/Equivalencing-dbl, 1.2648, 1.2676, 1.2662,1.2662, 1.2667, 1.2671, 1.2655,1.2667,0.039488232506701415
SingleSource/Benchmarks/Polybench/medley/floyd-warshall/floyd-warshall, 5.4340, 5.4352, 5.4321,5.434, 5.4328, 5.4373, 5.4360,5.436,0.03680529996319404
MultiSource/Applications/obsequi/Obsequi, 1.0407, 1.0413, 1.0387,1.0407, 1.0394, 1.0412, 1.0410,1.041,0.028826751225130565
MultiSource/Benchmarks/ASC_Sequoia/IRSmk/IRSmk, 2.7169, 2.7162, 2.7254,2.7169, 2.7176, 2.7160, 2.7204,2.7176,0.02576465825021579
SingleSource/Benchmarks/Polybench/linear-algebra/solvers/durbin/durbin, 0.3916, 0.4002, 0.4008,0.4002, 0.4002, 0.4003, 0.4007,0.4003,0.024987506246865188
SingleSource/Benchmarks/Shootout/matrix, 0.9680, 0.9680, 0.9683,0.968, 0.9682, 0.9682, 0.9683,0.9682,0.020661157024792765
SingleSource/Benchmarks/Adobe-C++/simple_types_loop_invariant, 1.4578, 1.4573, 1.4584,1.4578, 1.4583, 1.4572, 1.4581,1.4581,0.020578954589112186
SingleSource/Benchmarks/McGill/queens, 1.6013, 1.6008, 1.6008,1.6008, 1.6011, 1.6011, 1.6014,1.6011,0.018740629685165544
MultiSource/Benchmarks/TSVC/LinearDependence-flt/LinearDependence-flt, 4.5573, 4.5573, 4.5596,4.5573, 4.5566, 4.5581, 4.5581,4.5581,0.017554253615070792
MultiSource/Applications/viterbi/viterbi, 1.1738, 1.1743, 1.1738,1.1738, 1.1784, 1.1740, 1.1739,1.174,0.01703867779860868
SingleSource/Benchmarks/Shootout-C++/ackermann, 0.6009, 0.6009, 0.6009,0.6009, 0.6010, 0.6010, 0.6009,0.601,0.01664170411050936
SingleSource/Benchmarks/Adobe-C++/simple_types_constant_folding, 0.6076, 0.6078, 0.6077,0.6077, 0.6078, 0.6077, 0.6078,0.6078,0.016455487905209232
MultiSource/Benchmarks/VersaBench/beamformer/beamformer, 0.6858, 0.6860, 0.6859,0.6859, 0.6862, 0.6860, 0.6860,0.686,0.014579384749979774
SingleSource/Benchmarks/Misc-C++/mandel-text, 1.4715, 1.4693, 1.4728,1.4715, 1.4718, 1.4717, 1.4704,1.4717,0.013591573224602804
SingleSource/Benchmarks/SmallPT/smallpt, 6.9121, 6.9120, 6.9044,6.912, 6.9011, 6.9130, 6.9129,6.9129,0.013020833333321491
SingleSource/Benchmarks/BenchmarkGame/spectral-norm, 0.8931, 0.8933, 0.8932,0.8932, 0.8933, 0.8932, 0.8933,0.8933,0.01119570085086341
MultiSource/Benchmarks/DOE-ProxyApps-C++/CLAMR/CLAMR, 1.0246, 1.0245, 1.0246,1.0246, 1.0247, 1.0245, 1.0248,1.0247,0.009759906304895871
SingleSource/Benchmarks/Shootout-C++/matrix, 1.0283, 1.0283, 1.0283,1.0283, 1.0284, 1.0285, 1.0282,1.0284,0.009724788485843128
MultiSource/Benchmarks/TSVC/LinearDependence-dbl/LinearDependence-dbl, 5.2114, 5.2302, 5.2124,5.2124, 5.2083, 5.2129, 5.2280,5.2129,0.009592510168077162
SingleSource/Benchmarks/BenchmarkGame/n-body, 1.2555, 1.2557, 1.2557,1.2557, 1.2557, 1.2562, 1.2558,1.2558,0.007963685593681546
MultiSource/Applications/hexxagon/hexxagon, 6.4706, 6.4708, 6.4704,6.4706, 6.4740, 6.4711, 6.4711,6.4711,0.007727258677703297
SingleSource/Benchmarks/Misc-C++/Large/ray, 2.8702, 2.8694, 2.8693,2.8694, 2.8706, 2.8695, 2.8696,2.8696,0.006970098278391568
SingleSource/Benchmarks/Shootout/methcall, 2.9964, 2.9956, 2.9957,2.9957, 2.9959, 2.9956, 2.9960,2.9959,0.006676235938174457
MultiSource/Benchmarks/TSVC/Packing-dbl/Packing-dbl, 2.1462, 2.0913, 2.0919,2.0919, 2.1466, 2.0920, 2.0918,2.092,0.004780343228660833
SingleSource/Benchmarks/Stanford/Quicksort, 0.0277, 0.0278, 0.0277,0.0277, 0.0277, 0.0278, 0.0277,0.0277,0.0
SingleSource/Benchmarks/Stanford/Queens, 0.0068, 0.0065, 0.0066,0.0066, 0.0068, 0.0066, 0.0064,0.0066,0.0
SingleSource/Benchmarks/Stanford/Perm, 0.0134, 0.0134, 0.0134,0.0134, 0.0133, 0.0134, 0.0134,0.0134,0.0
SingleSource/Benchmarks/Stanford/Oscar, 0.0030, 0.0030, 0.0030,0.003, 0.0030, 0.0030, 0.0030,0.003,0.0
SingleSource/Benchmarks/Stanford/FloatMM, 0.1841, 0.1840, 0.1839,0.184, 0.1840, 0.1840, 0.1840,0.184,0.0
SingleSource/Benchmarks/Stanford/Bubblesort, 0.0145, 0.0144, 0.0145,0.0145, 0.0145, 0.0144, 0.0145,0.0145,0.0
SingleSource/Benchmarks/Shootout/random, 1.5957, 1.5955, 1.5955,1.5955, 1.5955, 1.5955, 1.5954,1.5955,0.0
SingleSource/Benchmarks/Shootout/ackermann, 0.0031, 0.0031, 0.0031,0.0031, 0.0031, 0.0031, 0.0031,0.0031,0.0
SingleSource/Benchmarks/Shootout-C++/objinst, 0.0008, 0.0008, 0.0008,0.0008, 0.0008, 0.0008, 0.0008,0.0008,0.0
SingleSource/Benchmarks/Shootout-C++/nestedloop, 0.0008, 0.0008, 0.0008,0.0008, 0.0008, 0.0008, 0.0008,0.0008,0.0
SingleSource/Benchmarks/Shootout-C++/methcall, 3.1599, 3.1544, 3.1543,3.1544, 3.1545, 3.1544, 3.1544,3.1544,0.0
SingleSource/Benchmarks/Shootout-C++/ary, 0.0225, 0.0218, 0.0218,0.0218, 0.0218, 0.0218, 0.0217,0.0218,0.0
SingleSource/Benchmarks/Polybench/stencils/seidel-2d/seidel-2d, 0.6027, 0.6027, 0.6027,0.6027, 0.6026, 0.6027, 0.6028,0.6027,0.0
SingleSource/Benchmarks/Polybench/medley/reg_detect/reg_detect, 0.0143, 0.0142, 0.0142,0.0142, 0.0142, 0.0142, 0.0143,0.0142,0.0
SingleSource/Benchmarks/Polybench/linear-algebra/solvers/lu/lu, 0.0020, 0.0020, 0.0020,0.002, 0.0020, 0.0020, 0.0020,0.002,0.0
SingleSource/Benchmarks/Misc/salsa20, 4.2235, 4.2229, 4.2228,4.2229, 4.2229, 4.2229, 4.2230,4.2229,0.0
SingleSource/Benchmarks/Misc/revertBits, 0.3014, 0.3013, 0.3013,0.3013, 0.3013, 0.3013, 0.3013,0.3013,0.0
SingleSource/Benchmarks/Misc/pi, 0.6349, 0.6348, 0.6348,0.6348, 0.6348, 0.6348, 0.6349,0.6348,0.0
SingleSource/Benchmarks/Misc/matmul_f64_4x4, 1.1844, 1.1843, 1.1843,1.1843, 1.1844, 1.1843, 1.1843,1.1843,0.0
SingleSource/Benchmarks/Misc/fp-convert, 2.4057, 2.4052, 2.4051,2.4052, 2.4052, 2.4052, 2.4052,2.4052,0.0
SingleSource/Benchmarks/Misc/flops-7, 1.4541, 1.4540, 1.4540,1.454, 1.4540, 1.4539, 1.4540,1.454,0.0
SingleSource/Benchmarks/Misc/flops-2, 0.7888, 0.7887, 0.7887,0.7887, 0.7887, 0.7887, 0.7887,0.7887,0.0
SingleSource/Benchmarks/Misc/fbench, 1.5673, 1.5669, 1.5669,1.5669, 1.5669, 1.5669, 1.5670,1.5669,0.0
SingleSource/Benchmarks/Misc/evalloop, 0.3346, 0.3344, 0.3342,0.3344, 0.3344, 0.3344, 0.3367,0.3344,0.0
SingleSource/Benchmarks/Misc/dt, 0.6100, 0.6098, 0.6098,0.6098, 0.6098, 0.6098, 0.6098,0.6098,0.0
SingleSource/Benchmarks/McGill/misr, 0.0928, 0.0927, 0.0927,0.0927, 0.0927, 0.0928, 0.0927,0.0927,0.0
SingleSource/Benchmarks/Dhrystone/fldry, 0.3342, 0.3342, 0.3341,0.3342, 0.3341, 0.3342, 0.3342,0.3342,0.0
SingleSource/Benchmarks/Dhrystone/dry, 0.2786, 0.2786, 0.2786,0.2786, 0.2786, 0.2786, 0.2786,0.2786,0.0
SingleSource/Benchmarks/Adobe-C++/loop_unroll, 1.6213, 1.6223, 1.6219,1.6219, 1.6269, 1.6219, 1.6219,1.6219,0.0
MultiSource/Benchmarks/tramp3d-v4/tramp3d-v4, 0.2185, 0.2189, 0.2186,0.2186, 0.2186, 0.2186, 0.2191,0.2186,0.0
MultiSource/Benchmarks/mediabench/mpeg2/mpeg2dec/mpeg2decode, 0.0136, 0.0137, 0.0137,0.0137, 0.0137, 0.0137, 0.0137,0.0137,0.0
MultiSource/Benchmarks/mediabench/gsm/toast/toast, 0.0140, 0.0140, 0.0140,0.014, 0.0140, 0.0140, 0.0140,0.014,0.0
MultiSource/Benchmarks/mediabench/g721/g721encode/encode, 0.0291, 0.0291, 0.0291,0.0291, 0.0291, 0.0291, 0.0291,0.0291,0.0
MultiSource/Benchmarks/mediabench/adpcm/rawcaudio/rawcaudio, 0.0050, 0.0050, 0.0050,0.005, 0.0050, 0.0050, 0.0050,0.005,0.0
MultiSource/Benchmarks/Trimaran/enc-pc1/enc-pc1, 0.3146, 0.3146, 0.3146,0.3146, 0.3146, 0.3146, 0.3146,0.3146,0.0
MultiSource/Benchmarks/TSVC/Searching-dbl/Searching-dbl, 2.0804, 2.0799, 2.0805,2.0804, 2.0810, 2.0804, 2.0800,2.0804,0.0
MultiSource/Benchmarks/TSVC/Recurrences-dbl/Recurrences-dbl, 3.2017, 3.2016, 3.2016,3.2016, 3.2016, 3.2015, 3.2016,3.2016,0.0
MultiSource/Benchmarks/TSVC/IndirectAddressing-flt/IndirectAddressing-flt, 2.0545, 2.0568, 2.0548,2.0548, 2.0548, 2.0512, 2.0556,2.0548,0.0
MultiSource/Benchmarks/Prolangs-C/gnugo/gnugo, 0.0250, 0.0250, 0.0249,0.025, 0.0250, 0.0250, 0.0250,0.025,0.0
MultiSource/Benchmarks/Prolangs-C/bison/mybison, 0.0037, 0.0037, 0.0037,0.0037, 0.0037, 0.0037, 0.0037,0.0037,0.0
MultiSource/Benchmarks/Prolangs-C/agrep/agrep, 0.0045, 0.0046, 0.0046,0.0046, 0.0046, 0.0046, 0.0046,0.0046,0.0
MultiSource/Benchmarks/Prolangs-C++/city/city, 0.0047, 0.0047, 0.0047,0.0047, 0.0047, 0.0046, 0.0047,0.0047,0.0
MultiSource/Benchmarks/Olden/tsp/tsp, 1.0719, 1.0726, 1.0727,1.0726, 1.0726, 1.0726, 1.0737,1.0726,0.0
MultiSource/Benchmarks/Olden/power/power, 0.9634, 0.9634, 0.9634,0.9634, 0.9634, 0.9634, 0.9635,0.9634,0.0
MultiSource/Benchmarks/Olden/em3d/em3d, 1.5610, 1.5615, 1.5611,1.5611, 1.5607, 1.5612, 1.5611,1.5611,0.0
MultiSource/Benchmarks/Olden/bh/bh, 1.1808, 1.1808, 1.1815,1.1808, 1.1814, 1.1801, 1.1808,1.1808,0.0
MultiSource/Benchmarks/MiBench/security-rijndael/security-rijndael, 0.0218, 0.0219, 0.0219,0.0219, 0.0219, 0.0219, 0.0218,0.0219,0.0
MultiSource/Benchmarks/MiBench/network-dijkstra/network-dijkstra, 0.0244, 0.0245, 0.0244,0.0244, 0.0244, 0.0244, 0.0243,0.0244,0.0
MultiSource/Benchmarks/MiBench/automotive-bitcount/automotive-bitcount, 0.0501, 0.0501, 0.0511,0.0501, 0.0519, 0.0501, 0.0501,0.0501,0.0
MultiSource/Benchmarks/McCat/08-main/main, 0.0391, 0.0391, 0.0391,0.0391, 0.0392, 0.0391, 0.0390,0.0391,0.0
MultiSource/Benchmarks/McCat/05-eks/eks, 0.0032, 0.0032, 0.0032,0.0032, 0.0032, 0.0032, 0.0032,0.0032,0.0
MultiSource/Benchmarks/McCat/03-testtrie/testtrie, 0.0075, 0.0074, 0.0075,0.0075, 0.0075, 0.0075, 0.0075,0.0075,0.0
MultiSource/Benchmarks/FreeBench/pifft/pifft, 0.0615, 0.0614, 0.0614,0.0614, 0.0614, 0.0614, 0.0616,0.0614,0.0
MultiSource/Benchmarks/FreeBench/pcompress2/pcompress2, 0.0947, 0.0947, 0.0947,0.0947, 0.0947, 0.0947, 0.0948,0.0947,0.0
MultiSource/Benchmarks/FreeBench/neural/neural, 0.1074, 0.1074, 0.1073,0.1074, 0.1074, 0.1074, 0.1072,0.1074,0.0
MultiSource/Benchmarks/FreeBench/mason/mason, 0.1210, 0.1211, 0.1209,0.121, 0.1210, 0.1210, 0.1210,0.121,0.0
MultiSource/Benchmarks/FreeBench/fourinarow/fourinarow, 0.1625, 0.1624, 0.1625,0.1625, 0.1625, 0.1625, 0.1625,0.1625,0.0
MultiSource/Benchmarks/BitBench/uuencode/uuencode, 0.0114, 0.0115, 0.0114,0.0114, 0.0114, 0.0115, 0.0114,0.0114,0.0
MultiSource/Benchmarks/BitBench/uudecode/uudecode, 0.0565, 0.0564, 0.0565,0.0565, 0.0563, 0.0566, 0.0565,0.0565,0.0
MultiSource/Applications/oggenc/oggenc, 0.0709, 0.0709, 0.0710,0.0709, 0.0710, 0.0709, 0.0708,0.0709,0.0
MultiSource/Applications/kimwitu++/kc, 0.0279, 0.0279, 0.0278,0.0279, 0.0280, 0.0279, 0.0278,0.0279,0.0
MultiSource/Applications/hbd/hbd, 0.0035, 0.0034, 0.0034,0.0034, 0.0034, 0.0035, 0.0034,0.0034,0.0
MultiSource/Applications/d/make_dparser, 0.0163, 0.0163, 0.0163,0.0163, 0.0163, 0.0163, 0.0163,0.0163,0.0
MultiSource/Applications/ALAC/encode/alacconvert-encode, 0.0262, 0.0262, 0.0263,0.0262, 0.0262, 0.0262, 0.0262,0.0262,0.0
MultiSource/Applications/ALAC/decode/alacconvert-decode, 0.0137, 0.0138, 0.0138,0.0138, 0.0138, 0.0138, 0.0137,0.0138,0.0
MultiSource/Benchmarks/TSVC/Reductions-flt/Reductions-flt, 5.4271, 5.4269, 5.4273,5.4271, 5.4271, 5.4270, 5.4269,5.427,-0.0018426047060260409
SingleSource/Benchmarks/Misc-C++/Large/sphereflake, 5.1284, 5.1272, 5.1269,5.1272, 5.1274, 5.1270, 5.1271,5.1271,-0.001950382274917839
MultiSource/Benchmarks/TSVC/Recurrences-flt/Recurrences-flt, 3.2013, 3.2012, 3.2014,3.2013, 3.2012, 3.2013, 3.2012,3.2012,-0.0031237309842779837
MultiSource/Benchmarks/TSVC/Reductions-dbl/Reductions-dbl, 3.1458, 3.1456, 3.1457,3.1457, 3.1456, 3.1458, 3.1455,3.1456,-0.00317894268366814
MultiSource/Benchmarks/ASC_Sequoia/CrystalMk/CrystalMk, 6.6507, 6.6510, 6.6513,6.651, 6.6508, 6.6507, 6.6507,6.6507,-0.004510599909790525
SingleSource/Benchmarks/Misc/flops-4, 2.1282, 2.1280, 2.1279,2.128, 2.0846, 2.1279, 2.1279,2.1279,-0.004699248120310084
SingleSource/Benchmarks/BenchmarkGame/fannkuch, 1.9106, 1.9116, 1.9106,1.9106, 1.9105, 1.9096, 1.9108,1.9105,-0.005233957918981957
SingleSource/Benchmarks/Misc-C++/stepanov_v1p2, 7.2290, 7.2273, 7.2271,7.2273, 7.2270, 7.2269, 7.2268,7.2269,-0.005534570309795317
SingleSource/Benchmarks/Misc/perlin, 3.5494, 3.5486, 3.5488,3.5488, 3.5486, 3.5486, 3.5484,3.5486,-0.005635707844908744
SingleSource/Benchmarks/Misc/flops-1, 3.2764, 3.2766, 3.2766,3.2766, 3.2769, 3.2761, 3.2764,3.2764,-0.006103888176767214
SingleSource/Benchmarks/Shootout-C++/random, 1.5957, 1.5956, 1.5954,1.5956, 1.5955, 1.5956, 1.5955,1.5955,-0.006267234895962481
MultiSource/Benchmarks/VersaBench/ecbdes/ecbdes, 1.5484, 1.5483, 1.5484,1.5484, 1.5484, 1.5483, 1.5483,1.5483,-0.006458279514331977
MultiSource/Benchmarks/Trimaran/netbench-url/netbench-url, 2.7273, 2.7271, 2.7270,2.7271, 2.7273, 2.7268, 2.7269,2.7269,-0.0073337978071963406
SingleSource/Benchmarks/Misc/mandel-2, 1.1688, 1.1686, 1.1685,1.1686, 1.1685, 1.1685, 1.1685,1.1685,-0.008557247989049444
MultiSource/Benchmarks/TSVC/CrossingThresholds-dbl/CrossingThresholds-dbl, 1.9544, 1.9842, 1.9845,1.9842, 1.9838, 1.9843, 1.9840,1.984,-0.0100796290696481
SingleSource/Benchmarks/Misc/whetstone, 0.9386, 0.9372, 0.9395,0.9386, 0.9326, 0.9395, 0.9385,0.9385,-0.010654165778822833
MultiSource/Benchmarks/PAQ8p/paq8p,39.0614,39.0578,39.0824,39.0614,39.0422,39.0939,39.0569,39.0569,-0.011520324412339633
SingleSource/Benchmarks/Polybench/linear-algebra/kernels/syr2k/syr2k, 8.5447, 8.3559, 8.4125,8.4125, 8.4114, 8.4121, 8.4112,8.4114,-0.013075780089144562
SingleSource/Benchmarks/Misc/mandel, 0.7626, 0.7624, 0.7624,0.7624, 0.7623, 0.7623, 0.7623,0.7623,-0.013116474291707814
SingleSource/Benchmarks/CoyoteBench/fftbench, 0.7492, 0.7378, 0.7329,0.7378, 0.7344, 0.7392, 0.7377,0.7377,-0.013553808620225816
MultiSource/Benchmarks/Trimaran/enc-rc4/enc-rc4, 0.6657, 0.6655, 0.6658,0.6657, 0.6660, 0.6656, 0.6655,0.6656,-0.015021781583290927
SingleSource/Benchmarks/BenchmarkGame/Large/fasta, 0.5901, 0.5958, 0.5904,0.5904, 0.5900, 0.5913, 0.5903,0.5903,-0.016937669376693165
MultiSource/Benchmarks/Trimaran/enc-md5/enc-md5, 1.1196, 1.1197, 1.1197,1.1197, 1.1195, 1.1195, 1.1195,1.1195,-0.01786192730195424
MultiSource/Benchmarks/TSVC/Searching-flt/Searching-flt, 2.2256, 2.2255, 2.2243,2.2255, 2.2256, 2.2251, 2.2245,2.2251,-0.017973489103573215
MultiSource/Benchmarks/Ptrdist/anagram/anagram, 0.5505, 0.5502, 0.5504,0.5504, 0.5502, 0.5505, 0.5503,0.5503,-0.01816860465115866
SingleSource/Benchmarks/BenchmarkGame/partialsums, 0.5199, 0.5200, 0.5201,0.52, 0.5199, 0.5223, 0.5199,0.5199,-0.019230769230771383
MultiSource/Benchmarks/Ptrdist/yacr2/yacr2, 0.4868, 0.4861, 0.4866,0.4866, 0.4864, 0.4866, 0.4865,0.4865,-0.02055076037813519
MultiSource/Applications/aha/aha, 0.9480, 0.9477, 0.9482,0.948, 0.9478, 0.9478, 0.9470,0.9478,-0.02109704641349852
SingleSource/Benchmarks/Polybench/stencils/adi/adi, 2.6087, 2.6055, 2.6066,2.6066, 2.6060, 2.6081, 2.6059,2.606,-0.023018491521520357
MultiSource/Benchmarks/TSVC/InductionVariable-dbl/InductionVariable-dbl, 2.7790, 2.7766, 2.8004,2.779, 2.7783, 2.7755, 2.7995,2.7783,-0.025188916876561773
MultiSource/Benchmarks/VersaBench/bmm/bmm, 1.5052, 1.5055, 1.5057,1.5055, 1.5051, 1.5051, 1.5055,1.5051,-0.026569246097640775
MultiSource/Benchmarks/TSVC/IndirectAddressing-dbl/IndirectAddressing-dbl, 2.2564, 2.2803, 2.2565,2.2565, 2.2581, 2.2559, 2.2549,2.2559,-0.02658985153999316
SingleSource/Benchmarks/Misc/flops, 9.7390, 9.7573, 9.7405,9.7405, 9.7379, 9.6893, 9.7731,9.7379,-0.0266926749140306
MultiSource/Benchmarks/TSVC/NodeSplitting-dbl/NodeSplitting-dbl, 4.6055, 4.6047, 4.5937,4.6047, 4.5914, 4.6049, 4.6034,4.6034,-0.028232023801777473
MultiSource/Applications/lua/lua,10.1634,10.1814,10.1832,10.1814,10.1860,10.1784,10.1711,10.1784,-0.029465495904301697
MultiSource/Benchmarks/TSVC/StatementReordering-flt/StatementReordering-flt, 1.6735, 1.6700, 1.6724,1.6724, 1.6719, 1.6717, 1.6732,1.6719,-0.0298971537909698
MultiSource/Benchmarks/TSVC/StatementReordering-dbl/StatementReordering-dbl, 2.0520, 2.0500, 2.0540,2.052, 2.0511, 2.0479, 2.0600,2.0511,-0.043859649122812705
SingleSource/Benchmarks/Misc/richards_benchmark, 0.4548, 0.4547, 0.4548,0.4548, 0.4546, 0.4549, 0.4546,0.4546,-0.04397537379067229
SingleSource/Regression/C/uint64_to_float, 0.2254, 0.2255, 0.2255,0.2255, 0.2254, 0.2255, 0.2254,0.2254,-0.044345898004438666
SingleSource/Benchmarks/Polybench/stencils/fdtd-apml/fdtd-apml, 0.6666, 0.6651, 0.6658,0.6658, 0.6699, 0.6650, 0.6655,0.6655,-0.045058576148993
SingleSource/Benchmarks/Shootout/lists, 3.7619, 3.7660, 3.7685,3.766, 3.7664, 3.7605, 3.7643,3.7643,-0.04514073287307241
SingleSource/Benchmarks/Shootout-C++/fibo, 1.3511, 1.3533, 1.3508,1.3511, 1.3495, 1.3523, 1.3504,1.3504,-0.051809636592403674
SingleSource/Benchmarks/Polybench/linear-algebra/kernels/trmm/trmm, 2.1299, 2.0232, 2.1224,2.1224, 2.1292, 2.1212, 2.1207,2.1212,-0.056539766302288186
SingleSource/Benchmarks/Polybench/linear-algebra/kernels/trisolv/trisolv, 0.1644, 0.1635, 0.1637,0.1637, 0.1636, 0.1636, 0.1635,0.1636,-0.06108735491754391
MultiSource/Benchmarks/DOE-ProxyApps-C/Pathfinder/PathFinder, 1.9362, 1.9410, 1.9295,1.9362, 1.9359, 1.9350, 1.9316,1.935,-0.06197706848465323
SingleSource/Benchmarks/Polybench/linear-algebra/kernels/atax/atax, 0.1617, 0.1605, 0.1604,0.1605, 0.1604, 0.1604, 0.1604,0.1604,-0.06230529595017131
SingleSource/Benchmarks/Misc-C++/oopack_v1p8, 0.1482, 0.1482, 0.1482,0.1482, 0.1481, 0.1481, 0.1481,0.1481,-0.06747638326585204
MultiSource/Benchmarks/sim/sim, 2.4131, 2.4085, 2.4101,2.4101, 2.4098, 2.4084, 2.4080,2.4084,-0.0705364922617302
MultiSource/Applications/sgefa/sgefa, 0.1397, 0.1397, 0.1396,0.1397, 0.1396, 0.1396, 0.1396,0.1396,-0.07158196134573469
SingleSource/Benchmarks/Shootout/heapsort, 1.9945, 1.9331, 1.9520,1.952, 1.9369, 1.9505, 1.9513,1.9505,-0.07684426229508379
MultiSource/Benchmarks/NPB-serial/is/is, 4.6708, 4.6670, 4.6771,4.6708, 4.6669, 4.6291, 4.6740,4.6669,-0.083497473666172
MultiSource/Benchmarks/Olden/perimeter/perimeter, 0.1126, 0.1129, 0.1133,0.1129, 0.1128, 0.1126, 0.1133,0.1128,-0.08857395925597755
SingleSource/Benchmarks/Polybench/linear-algebra/kernels/doitgen/doitgen, 0.7181, 0.7148, 0.7215,0.7181, 0.7174, 0.7206, 0.7145,0.7174,-0.09747945968526794
SingleSource/Benchmarks/Polybench/linear-algebra/kernels/bicg/bicg, 0.2009, 0.1994, 0.1995,0.1995, 0.1993, 0.1993, 0.1994,0.1993,-0.1002506265664227
MultiSource/Benchmarks/MiBench/consumer-typeset/consumer-typeset, 0.0788, 0.0790, 0.0800,0.079, 0.0794, 0.0789, 0.0787,0.0789,-0.12658227848101333
SingleSource/Benchmarks/Stanford/Puzzle, 0.0727, 0.0726, 0.0726,0.0726, 0.0726, 0.0725, 0.0725,0.0725,-0.13774104683196287
MultiSource/Benchmarks/McCat/04-bisect/bisect, 0.0704, 0.0703, 0.0704,0.0704, 0.0703, 0.0704, 0.0703,0.0703,-0.14204545454545858
MultiSource/Benchmarks/TSVC/LoopRestructuring-dbl/LoopRestructuring-dbl, 3.3814, 3.2992, 3.3851,3.3814, 3.3763, 3.3792, 3.3063,3.3763,-0.150825102028751
SingleSource/Benchmarks/Polybench/linear-algebra/kernels/gemver/gemver, 0.3262, 0.3217, 0.3219,0.3219, 0.3214, 0.3223, 0.3181,0.3214,-0.1553277415346388
MultiSource/Benchmarks/TSVC/Expansion-dbl/Expansion-dbl, 1.8357, 1.8071, 1.8047,1.8071, 1.8038, 1.8043, 1.8034,1.8038,-0.1826130263958725
MultiSource/Benchmarks/DOE-ProxyApps-C++/HPCCG/HPCCG, 0.8423, 0.8376, 0.8381,0.8381, 0.8360, 0.8365, 0.8396,0.8365,-0.19090800620450432
MultiSource/Benchmarks/TSVC/NodeSplitting-flt/NodeSplitting-flt, 4.2609, 4.2613, 4.2611,4.2611, 4.2544, 4.2525, 4.2478,4.2525,-0.20182581962402413
MultiSource/Benchmarks/DOE-ProxyApps-C/XSBench/XSBench, 2.2206, 2.2184, 2.2210,2.2206, 2.2243, 2.2151, 2.2131,2.2151,-0.24768080698910344
MultiSource/Benchmarks/Prolangs-C++/primes/primes, 0.1974, 0.1944, 0.1954,0.1954, 0.1949, 0.1961, 0.1947,0.1949,-0.2558853633572111
SingleSource/Benchmarks/Shootout-C++/strcat, 0.0389, 0.0385, 0.0386,0.0386, 0.0384, 0.0388, 0.0385,0.0385,-0.2590673575129654
MultiSource/Applications/JM/ldecod/ldecod, 0.0379, 0.0381, 0.0380,0.038, 0.0379, 0.0381, 0.0379,0.0379,-0.2631578947368318
SingleSource/Benchmarks/Shootout-C++/heapsort, 1.9907, 1.9421, 1.9316,1.9421, 1.9368, 1.9426, 1.9360,1.9368,-0.27290046856495165
SingleSource/Benchmarks/CoyoteBench/huffbench, 8.2855, 8.2777, 8.2802,8.2802, 8.2561, 8.2489, 8.2558,8.2558,-0.29467887249100544
SingleSource/Benchmarks/Adobe-C++/stepanov_abstraction, 3.9003, 3.9009, 3.8995,3.9003, 3.8895, 3.8888, 3.8885,3.8888,-0.29484911417071435
MultiSource/Benchmarks/ASC_Sequoia/AMGmk/AMGmk, 4.5827, 4.5864, 4.5772,4.5827, 4.5662, 4.5690, 4.5685,4.5685,-0.30986099897439834
MultiSource/Benchmarks/MiBench/telecomm-gsm/telecomm-gsm, 0.0931, 0.0931, 0.0931,0.0931, 0.0956, 0.0928, 0.0928,0.0928,-0.3222341568206333
MultiSource/Benchmarks/TSVC/LoopRerolling-flt/LoopRerolling-flt, 3.5107, 3.5039, 3.5103,3.5103, 3.4964, 3.4993, 3.4986,3.4986,-0.3333048457396792
SingleSource/Benchmarks/Shootout-C++/EH/except, 0.1117, 0.1107, 0.1107,0.1107, 0.1103, 0.1116, 0.1102,0.1103,-0.36133694670280603
MultiSource/Benchmarks/MiBench/telecomm-CRC32/telecomm-CRC32, 0.1390, 0.1370, 0.1380,0.138, 0.1375, 0.1371, 0.1390,0.1375,-0.36231884057971175
SingleSource/Benchmarks/Polybench/linear-algebra/kernels/cholesky/cholesky, 0.4166, 0.4150, 0.4161,0.4161, 0.4144, 0.4145, 0.4156,0.4145,-0.38452295121366165
SingleSource/Benchmarks/Shootout-C++/lists1, 0.1265, 0.1243, 0.1246,0.1246, 0.1232, 0.1247, 0.1241,0.1241,-0.40128410914928025
SingleSource/Benchmarks/Polybench/linear-algebra/kernels/mvt/mvt, 0.2372, 0.2344, 0.2353,0.2353, 0.2343, 0.2341, 0.2354,0.2343,-0.4249893752656164
SingleSource/Benchmarks/Polybench/datamining/correlation/correlation, 1.4463, 1.4139, 1.4215,1.4215, 1.4125, 1.4151, 1.4213,1.4151,-0.4502286317270454
SingleSource/Benchmarks/Shootout-C++/ary2, 0.0224, 0.0219, 0.0219,0.0219, 0.0219, 0.0218, 0.0218,0.0218,-0.45662100456620447
SingleSource/Benchmarks/Polybench/stencils/jacobi-2d-imper/jacobi-2d-imper, 0.1526, 0.1522, 0.1526,0.1526, 0.1519, 0.1523, 0.1510,0.1519,-0.4587155963302836
MultiSource/Benchmarks/McCat/17-bintr/bintr, 0.0762, 0.0772, 0.0778,0.0772, 0.0759, 0.0767, 0.0773,0.0767,-0.6476683937823857
MultiSource/Benchmarks/VersaBench/dbms/dbms, 0.7950, 0.7886, 0.8011,0.795, 0.7888, 0.7938, 0.7897,0.7897,-0.6666666666666821
MultiSource/Benchmarks/DOE-ProxyApps-C/miniGMG/miniGMG, 5.0140, 5.0170, 5.0122,5.014, 4.9760, 4.9739, 4.9744,4.9744,-0.789788591942564
MultiSource/Benchmarks/Olden/mst/mst, 0.0483, 0.0480, 0.0483,0.0483, 0.0479, 0.0479, 0.0483,0.0479,-0.8281573498964856
MultiSource/Benchmarks/TSVC/Symbolics-dbl/Symbolics-dbl, 2.2374, 2.2569, 2.2571,2.2569, 2.2376, 2.2566, 2.2370,2.2376,-0.8551553015197833
MultiSource/Benchmarks/nbench/nbench, 1.1629, 1.1634, 1.1630,1.163, 1.1520, 1.1521, 1.1525,1.1521,-0.9372312983663034
SingleSource/Benchmarks/Shootout/ary3, 0.7103, 0.7298, 0.7036,0.7103, 0.6905, 0.7353, 0.7033,0.7033,-0.985499084893704
SingleSource/Benchmarks/Misc-C++/stepanov_container, 2.6499, 2.6988, 2.6373,2.6499, 2.6088, 2.6198, 2.6567,2.6198,-1.1358919204498275
SingleSource/Benchmarks/Adobe-C++/stepanov_vector, 2.1103, 2.1098, 2.1094,2.1098, 2.0826, 2.0828, 2.0828,2.0828,-1.2797421556545507
SingleSource/Benchmarks/Misc/ffbench, 0.5394, 0.5303, 0.5410,0.5394, 0.5439, 0.5320, 0.5297,0.532,-1.3718946978123814
MultiSource/Benchmarks/Prolangs-C++/employ/employ, 0.0064, 0.0063, 0.0064,0.0064, 0.0063, 0.0063, 0.0063,0.0063,-1.5625
SingleSource/Benchmarks/Misc/flops-8, 2.6930, 2.6924, 2.6923,2.6924, 2.6489, 2.6056, 2.6923,2.6489,-1.6156588916951486
SingleSource/Benchmarks/McGill/chomp, 1.1943, 1.2186, 1.2172,1.2172, 1.1917, 1.1962, 1.2200,1.1962,-1.725271114032212
SingleSource/Benchmarks/Shootout-C++/ary3, 0.6911, 0.6964, 0.6896,0.6911, 0.6769, 0.6778, 0.6765,0.6769,-2.054695413109553
MultiSource/Benchmarks/Prolangs-C++/simul/simul, 0.0036, 0.0036, 0.0035,0.0036, 0.0035, 0.0036, 0.0035,0.0035,-2.777777777777768
MultiSource/Applications/siod/siod, 1.0355, 1.0334, 1.0334,1.0334, 1.0018, 1.0243, 1.0012,1.0018,-3.0578672343719804
SingleSource/Benchmarks/Misc/ReedSolomon, 2.8626, 2.8622, 2.8622,2.8622, 2.7560, 2.7563, 2.7559,2.756,-3.7104325344140987
Total elapsed time,-,-,-,538.9668000000003,-,-,-,539.6267000000006,0.12243796834987553
Total failure,-,-,-,0,-,-,-,0,
Geom. avg slowdown,,,,,,,,,0.150332086638%
