Benchmarks,base-5.0,base-5.0,base-5.0,median,insts-opt-5.0,insts-opt-5.0,insts-opt-5.0,median,Slowdown(%)
SingleSource/Benchmarks/Shootout/sieve, 3.0872, 3.0875, 3.0873,3.0873, 3.3881, 3.3886, 3.3885,3.3885,9.756097560975618
MultiSource/Benchmarks/TSVC/ControlFlow-flt/ControlFlow-flt, 3.1123, 3.1361, 3.1105,3.1123, 3.1897, 3.1904, 3.2062,3.1904,2.5093981942614807
SingleSource/Benchmarks/Misc-C++-EH/spirit, 2.3143, 2.3139, 2.3141,2.3141, 2.3705, 2.3699, 2.3701,2.3701,2.4199472797199695
MultiSource/Applications/sqlite3/sqlite3, 1.5762, 1.5712, 1.5718,1.5718, 1.6120, 1.6015, 1.6015,1.6015,1.8895533782923968
SingleSource/Benchmarks/Shootout-C++/hash2, 1.5322, 1.5343, 1.5337,1.5337, 1.5536, 1.5535, 1.5537,1.5536,1.2975158114364005
SingleSource/Benchmarks/Misc/himenobmtxpa, 0.4918, 0.4970, 0.4939,0.4939, 0.4970, 0.4985, 0.4998,0.4985,0.9313626240129658
MultiSource/Benchmarks/McCat/09-vor/vor, 0.0799, 0.0797, 0.0797,0.0797, 0.0810, 0.0801, 0.0804,0.0804,0.8782936010037767
MultiSource/Benchmarks/mediabench/mpeg2/mpeg2dec/mpeg2decode, 0.0131, 0.0130, 0.0130,0.013, 0.0131, 0.0130, 0.0132,0.0131,0.7692307692307887
MultiSource/Benchmarks/Olden/voronoi/voronoi, 0.1949, 0.1951, 0.1950,0.195, 0.1964, 0.1964, 0.1964,0.1964,0.7179487179487021
MultiSource/Benchmarks/NPB-serial/is/is, 4.4914, 4.4855, 4.5197,4.4914, 4.4833, 4.5265, 4.5200,4.52,0.6367724985527845
MultiSource/Applications/d/make_dparser, 0.0158, 0.0158, 0.0159,0.0158, 0.0159, 0.0159, 0.0158,0.0159,0.6329113924050667
MultiSource/Benchmarks/Ptrdist/bc/bc, 0.3261, 0.3261, 0.3261,0.3261, 0.3281, 0.3281, 0.3281,0.3281,0.6133088009812937
MultiSource/Benchmarks/7zip/7zip-benchmark, 5.8506, 5.8513, 5.8495,5.8506, 5.8851, 5.8861, 5.8856,5.8856,0.598229241445325
MultiSource/Benchmarks/TSVC/Packing-flt/Packing-flt, 1.8584, 1.8527, 1.8536,1.8536, 1.8645, 1.8689, 1.8632,1.8645,0.5880448856279807
MultiSource/Applications/lua/lua,10.2144,10.2134,10.2557,10.2144,10.2456,10.2800,10.2527,10.2527,0.3749608395990034
SingleSource/Benchmarks/Misc/flops, 9.3876, 9.4579, 9.4755,9.4579, 9.4915, 9.4747, 9.4951,9.4915,0.35525856691231983
MultiSource/Benchmarks/TSVC/ControlLoops-flt/ControlLoops-flt, 2.0834, 2.0922, 2.0837,2.0837, 2.0905, 2.0900, 2.0965,2.0905,0.32634256370880355
SingleSource/Benchmarks/Misc/ffbench, 0.5095, 0.5105, 0.5108,0.5105, 0.5129, 0.5088, 0.5121,0.5121,0.31341821743389175
MultiSource/Applications/spiff/spiff, 1.1487, 1.1461, 1.1505,1.1487, 1.1522, 1.1514, 1.1544,1.1522,0.30469226081655254
SingleSource/Benchmarks/Adobe-C++/functionobjects, 2.6860, 2.6898, 2.6851,2.686, 2.6929, 2.6942, 2.6939,2.6939,0.2941176470588225
MultiSource/Applications/oggenc/oggenc, 0.0686, 0.0687, 0.0687,0.0687, 0.0689, 0.0689, 0.0688,0.0689,0.29112081513829047
MultiSource/Benchmarks/TSVC/GlobalDataFlow-flt/GlobalDataFlow-flt, 1.3318, 1.3379, 1.3290,1.3318, 1.3356, 1.3354, 1.3323,1.3354,0.2703108574861002
MultiSource/Benchmarks/Fhourstones/fhourstones, 0.7169, 0.7190, 0.7162,0.7169, 0.7226, 0.7182, 0.7188,0.7188,0.26502999023574336
MultiSource/Benchmarks/mafft/pairlocalalign,21.9295,21.9301,21.9299,21.9299,21.9771,21.9795,21.9776,21.9776,0.21751125176128205
MultiSource/Benchmarks/DOE-ProxyApps-C/miniAMR/miniAMR, 0.6882, 0.6878, 0.6912,0.6882, 0.6892, 0.6897, 0.6895,0.6895,0.18889857599535542
MultiSource/Benchmarks/TSVC/LoopRestructuring-dbl/LoopRestructuring-dbl, 3.1556, 3.1545, 3.1548,3.1548, 3.1604, 3.1596, 3.1633,3.1604,0.17750729047800728
MultiSource/Benchmarks/Olden/bh/bh, 1.1613, 1.1638, 1.1587,1.1613, 1.1532, 1.1635, 1.1633,1.1633,0.17222078704899335
SingleSource/Benchmarks/Linpack/linpack-pc, 1.1126, 1.1048, 1.1042,1.1048, 1.1048, 1.1066, 1.1131,1.1066,0.16292541636495628
MultiSource/Benchmarks/MiBench/telecomm-adpcm/telecomm-adpcm, 0.0621, 0.0621, 0.0622,0.0621, 0.0622, 0.0621, 0.0622,0.0622,0.16103059581320522
MultiSource/Benchmarks/TSVC/LinearDependence-flt/LinearDependence-flt, 4.4254, 4.4291, 4.4250,4.4254, 4.4334, 4.4313, 4.4318,4.4318,0.14461969539476538
SingleSource/Benchmarks/Polybench/stencils/adi/adi, 2.5232, 2.5204, 2.5290,2.5232, 2.5268, 2.5312, 2.5172,2.5268,0.14267596702599583
MultiSource/Benchmarks/TSVC/InductionVariable-flt/InductionVariable-flt, 2.2708, 2.2712, 2.2709,2.2709, 2.2738, 2.2745, 2.2740,2.274,0.13650975384207342
MultiSource/Benchmarks/BitBench/five11/five11, 1.0026, 0.9935, 1.0030,1.0026, 1.0051, 1.0039, 1.0008,1.0039,0.1296628765210528
SingleSource/Benchmarks/Misc-C++/stepanov_container, 3.5665, 3.5723, 3.5694,3.5694, 3.5759, 3.5733, 3.5715,3.5733,0.10926206085057899
MultiSource/Benchmarks/TSVC/ControlFlow-dbl/ControlFlow-dbl, 3.3093, 3.3105, 3.3149,3.3105, 3.3140, 3.3111, 3.3142,3.314,0.1057242108442713
MultiSource/Benchmarks/TSVC/IndirectAddressing-flt/IndirectAddressing-flt, 1.9911, 1.9912, 1.9934,1.9912, 1.9933, 1.9959, 1.9927,1.9933,0.10546404178384261
MultiSource/Applications/viterbi/viterbi, 1.1388, 1.1385, 1.1388,1.1388, 1.1404, 1.1400, 1.1387,1.14,0.10537407797681642
SingleSource/Benchmarks/Shootout-C++/EH/except, 0.1092, 0.1096, 0.1092,0.1092, 0.1087, 0.1093, 0.1098,0.1093,0.09157509157509125
MultiSource/Benchmarks/Olden/perimeter/perimeter, 0.1108, 0.1107, 0.1107,0.1107, 0.1107, 0.1108, 0.1110,0.1108,0.09033423667568208
MultiSource/Applications/aha/aha, 0.9171, 0.9167, 0.9176,0.9171, 0.9169, 0.9182, 0.9179,0.9179,0.08723149056810708
SingleSource/Benchmarks/Adobe-C++/simple_types_loop_invariant, 1.4178, 1.4183, 1.4176,1.4178, 1.4189, 1.4183, 1.4189,1.4189,0.07758499083088122
SingleSource/Benchmarks/Polybench/medley/floyd-warshall/floyd-warshall, 5.3723, 5.3727, 5.3769,5.3727, 5.3762, 5.3786, 5.3759,5.3762,0.06514415470806334
MultiSource/Benchmarks/SciMark2-C/scimark2,37.4309,37.4323,37.4289,37.4309,37.4541,37.4570,37.4538,37.4541,0.061980876762235404
SingleSource/Benchmarks/Misc/evalloop, 0.3260, 0.3270, 0.3253,0.326, 0.3262, 0.3266, 0.3257,0.3262,0.06134969325153339
MultiSource/Benchmarks/Prolangs-C++/primes/primes, 0.1895, 0.1877, 0.1883,0.1883, 0.1884, 0.1893, 0.1881,0.1884,0.05310674455656361
SingleSource/Benchmarks/BenchmarkGame/Large/fasta, 0.5744, 0.5743, 0.5750,0.5744, 0.5764, 0.5746, 0.5747,0.5747,0.05222841225627217
SingleSource/Benchmarks/CoyoteBench/almabench,11.2317,11.2324,11.2310,11.2317,11.2375,11.2367,11.2380,11.2375,0.05163955589981839
SingleSource/Benchmarks/Shootout-C++/fibo, 1.3168, 1.3147, 1.3151,1.3151, 1.3151, 1.3156, 1.3164,1.3156,0.03801992243936958
MultiSource/Benchmarks/Olden/tsp/tsp, 1.0552, 1.0551, 1.0559,1.0552, 1.0558, 1.0556, 1.0554,1.0556,0.0379075056861522
MultiSource/Benchmarks/TSVC/Packing-dbl/Packing-dbl, 2.0191, 2.0193, 2.0190,2.0191, 2.0196, 2.0188, 2.0201,2.0196,0.024763508493896857
SingleSource/Benchmarks/Misc/richards_benchmark, 0.4421, 0.4423, 0.4422,0.4422, 0.4423, 0.4423, 0.4429,0.4423,0.02261420171869588
SingleSource/Benchmarks/BenchmarkGame/recursive, 0.6267, 0.6282, 0.6266,0.6267, 0.6296, 0.6266, 0.6268,0.6268,0.015956598053290527
SingleSource/Benchmarks/Shootout/matrix, 0.9419, 0.9416, 0.9409,0.9416, 0.9502, 0.9417, 0.9414,0.9417,0.010620220900592336
MultiSource/Applications/obsequi/Obsequi, 1.0154, 1.0157, 1.0146,1.0154, 1.0146, 1.0155, 1.0156,1.0155,0.009848335631268412
SingleSource/Benchmarks/Shootout/fib2, 1.3244, 1.3149, 1.3127,1.3149, 1.3117, 1.3201, 1.3150,1.315,0.007605141075361921
MultiSource/Benchmarks/Trimaran/netbench-url/netbench-url, 2.6522, 2.6522, 2.6522,2.6522, 2.6524, 2.6524, 2.6524,2.6524,0.007540909433667586
SingleSource/Benchmarks/Shootout/methcall, 2.9149, 2.9147, 2.9145,2.9147, 2.9149, 2.9147, 2.9150,2.9149,0.006861769650390315
SingleSource/Benchmarks/BenchmarkGame/fannkuch, 1.8612, 1.8601, 1.8592,1.8601, 1.8603, 1.8588, 1.8602,1.8602,0.005376055050798634
MultiSource/Benchmarks/PAQ8p/paq8p,39.0826,39.0852,39.1003,39.0852,39.0914,39.0871,39.0806,39.0871,0.004861175073944679
SingleSource/Benchmarks/Misc-C++/Large/ray, 2.7917, 2.7918, 2.7917,2.7917, 2.7947, 2.7918, 2.7918,2.7918,0.0035820467815250723
MultiSource/Benchmarks/TSVC/LoopRerolling-dbl/LoopRerolling-dbl, 4.0812, 4.0817, 4.0814,4.0814, 4.0815, 4.0815, 4.0815,4.0815,0.002450139657961259
MultiSource/Benchmarks/TSVC/LinearDependence-dbl/LinearDependence-dbl, 5.0645, 5.0665, 5.0696,5.0665, 5.0672, 5.0666, 5.0658,5.0666,0.0019737491365079407
MultiSource/Applications/hexxagon/hexxagon, 6.3006, 6.2992, 6.2987,6.2992, 6.2998, 6.2993, 6.2986,6.2993,0.0015875031750045565
SingleSource/Regression/C/uint64_to_float, 0.2193, 0.2193, 0.2193,0.2193, 0.2193, 0.2193, 0.2193,0.2193,0.0
SingleSource/Regression/C/2004-08-12-InlinerAndAllocas, 0.0012, 0.0012, 0.0012,0.0012, 0.0012, 0.0012, 0.0012,0.0012,0.0
SingleSource/Benchmarks/Stanford/Towers, 0.0074, 0.0074, 0.0074,0.0074, 0.0074, 0.0074, 0.0074,0.0074,0.0
SingleSource/Benchmarks/Stanford/RealMM, 0.0013, 0.0013, 0.0013,0.0013, 0.0013, 0.0013, 0.0013,0.0013,0.0
SingleSource/Benchmarks/Stanford/Quicksort, 0.0269, 0.0269, 0.0269,0.0269, 0.0269, 0.0270, 0.0269,0.0269,0.0
SingleSource/Benchmarks/Stanford/Puzzle, 0.0706, 0.0706, 0.0706,0.0706, 0.0707, 0.0706, 0.0706,0.0706,0.0
SingleSource/Benchmarks/Stanford/Perm, 0.0130, 0.0130, 0.0130,0.013, 0.0130, 0.0130, 0.0130,0.013,0.0
SingleSource/Benchmarks/Stanford/Oscar, 0.0029, 0.0029, 0.0029,0.0029, 0.0029, 0.0029, 0.0029,0.0029,0.0
SingleSource/Benchmarks/Stanford/FloatMM, 0.1790, 0.1790, 0.1789,0.179, 0.1789, 0.1790, 0.1790,0.179,0.0
SingleSource/Benchmarks/Stanford/Bubblesort, 0.0140, 0.0140, 0.0140,0.014, 0.0141, 0.0140, 0.0140,0.014,0.0
SingleSource/Benchmarks/SmallPT/smallpt, 6.7150, 6.7178, 6.7178,6.7178, 6.7137, 6.7178, 6.7186,6.7178,0.0
SingleSource/Benchmarks/Shootout/random, 1.5523, 1.5523, 1.5523,1.5523, 1.5523, 1.5523, 1.5523,1.5523,0.0
SingleSource/Benchmarks/Shootout/objinst, 0.0007, 0.0007, 0.0007,0.0007, 0.0007, 0.0007, 0.0007,0.0007,0.0
SingleSource/Benchmarks/Shootout/nestedloop, 0.0007, 0.0007, 0.0007,0.0007, 0.0007, 0.0007, 0.0007,0.0007,0.0
SingleSource/Benchmarks/Shootout/ackermann, 0.0030, 0.0030, 0.0030,0.003, 0.0030, 0.0030, 0.0030,0.003,0.0
SingleSource/Benchmarks/Shootout-C++/random, 1.5524, 1.5524, 1.5523,1.5524, 1.5524, 1.5524, 1.5523,1.5524,0.0
SingleSource/Benchmarks/Shootout-C++/objinst, 0.0007, 0.0007, 0.0007,0.0007, 0.0007, 0.0007, 0.0007,0.0007,0.0
SingleSource/Benchmarks/Shootout-C++/nestedloop, 0.0007, 0.0007, 0.0007,0.0007, 0.0007, 0.0007, 0.0007,0.0007,0.0
SingleSource/Benchmarks/Shootout-C++/ackermann, 0.5847, 0.5846, 0.5846,0.5846, 0.5846, 0.5847, 0.5846,0.5846,0.0
SingleSource/Benchmarks/Polybench/stencils/seidel-2d/seidel-2d, 0.5867, 0.5867, 0.5867,0.5867, 0.5867, 0.5867, 0.5867,0.5867,0.0
SingleSource/Benchmarks/Polybench/stencils/jacobi-1d-imper/jacobi-1d-imper, 0.0032, 0.0032, 0.0032,0.0032, 0.0032, 0.0032, 0.0032,0.0032,0.0
SingleSource/Benchmarks/Polybench/stencils/fdtd-apml/fdtd-apml, 0.6490, 0.6482, 0.6510,0.649, 0.6490, 0.6498, 0.6464,0.649,0.0
SingleSource/Benchmarks/Polybench/medley/reg_detect/reg_detect, 0.0138, 0.0138, 0.0138,0.0138, 0.0138, 0.0138, 0.0138,0.0138,0.0
SingleSource/Benchmarks/Polybench/linear-algebra/solvers/lu/lu, 0.0019, 0.0019, 0.0019,0.0019, 0.0019, 0.0019, 0.0019,0.0019,0.0
SingleSource/Benchmarks/Polybench/linear-algebra/solvers/dynprog/dynprog, 0.2499, 0.2500, 0.2499,0.2499, 0.2499, 0.2497, 0.2503,0.2499,0.0
SingleSource/Benchmarks/Polybench/linear-algebra/kernels/mvt/mvt, 0.2305, 0.2300, 0.2302,0.2302, 0.2299, 0.2302, 0.2305,0.2302,0.0
SingleSource/Benchmarks/Misc/whetstone, 0.9131, 0.9108, 0.9063,0.9108, 0.9063, 0.9108, 0.9108,0.9108,0.0
SingleSource/Benchmarks/Misc/revertBits, 0.2932, 0.2931, 0.2931,0.2931, 0.2931, 0.2931, 0.2931,0.2931,0.0
SingleSource/Benchmarks/Misc/pi, 0.6176, 0.6176, 0.6176,0.6176, 0.6176, 0.6176, 0.6176,0.6176,0.0
SingleSource/Benchmarks/Misc/oourafft, 5.3530, 5.3534, 5.3527,5.353, 5.3532, 5.3530, 5.3528,5.353,0.0
SingleSource/Benchmarks/Misc/matmul_f64_4x4, 1.1523, 1.1523, 1.1522,1.1523, 1.1523, 1.1523, 1.1522,1.1523,0.0
SingleSource/Benchmarks/Misc/mandel-2, 1.1369, 1.1370, 1.1369,1.1369, 1.1369, 1.1369, 1.1369,1.1369,0.0
SingleSource/Benchmarks/Misc/mandel, 0.7417, 0.7417, 0.7417,0.7417, 0.7418, 0.7417, 0.7416,0.7417,0.0
SingleSource/Benchmarks/Misc/lowercase, 0.0007, 0.0007, 0.0007,0.0007, 0.0007, 0.0007, 0.0007,0.0007,0.0
SingleSource/Benchmarks/Misc/fp-convert, 2.3401, 2.3401, 2.3400,2.3401, 2.3401, 2.3401, 2.3400,2.3401,0.0
SingleSource/Benchmarks/Misc/flops-7, 1.4146, 1.4147, 1.4146,1.4146, 1.4146, 1.4146, 1.4146,1.4146,0.0
SingleSource/Benchmarks/Misc/flops-6, 3.0423, 3.0423, 3.0422,3.0423, 3.0423, 3.0423, 3.0621,3.0423,0.0
SingleSource/Benchmarks/Misc/flops-5, 3.8040, 3.8040, 3.8038,3.804, 3.8040, 3.8040, 3.8039,3.804,0.0
SingleSource/Benchmarks/Misc/flops-4, 2.0705, 2.0704, 2.0704,2.0704, 2.0704, 2.0704, 2.0704,2.0704,0.0
SingleSource/Benchmarks/Misc/flops-3, 4.8160, 4.8160, 4.8158,4.816, 4.8160, 4.8160, 4.8158,4.816,0.0
SingleSource/Benchmarks/Misc/flops-2, 0.7674, 0.7674, 0.7673,0.7674, 0.7674, 0.7674, 0.7673,0.7674,0.0
SingleSource/Benchmarks/Misc/dt, 0.5933, 0.5933, 0.5933,0.5933, 0.5933, 0.5933, 0.5933,0.5933,0.0
SingleSource/Benchmarks/Misc-C++/oopack_v1p8, 0.1441, 0.1441, 0.1441,0.1441, 0.1441, 0.1441, 0.1441,0.1441,0.0
SingleSource/Benchmarks/McGill/misr, 0.0902, 0.0902, 0.0902,0.0902, 0.0902, 0.0902, 0.0902,0.0902,0.0
SingleSource/Benchmarks/Dhrystone/fldry, 0.3251, 0.3251, 0.3251,0.3251, 0.3251, 0.3251, 0.3251,0.3251,0.0
SingleSource/Benchmarks/BenchmarkGame/spectral-norm, 0.8691, 0.8691, 0.8690,0.8691, 0.8691, 0.8691, 0.8690,0.8691,0.0
SingleSource/Benchmarks/BenchmarkGame/partialsums, 0.5059, 0.5060, 0.5059,0.5059, 0.5059, 0.5059, 0.5059,0.5059,0.0
SingleSource/Benchmarks/BenchmarkGame/nsieve-bits, 0.5228, 0.5235, 0.5216,0.5228, 0.5215, 0.5228, 0.5273,0.5228,0.0
SingleSource/Benchmarks/BenchmarkGame/n-body, 1.2217, 1.2218, 1.2217,1.2217, 1.2217, 1.2217, 1.2217,1.2217,0.0
SingleSource/Benchmarks/Adobe-C++/simple_types_constant_folding, 0.5917, 0.5913, 0.5913,0.5913, 0.5913, 0.5913, 0.5913,0.5913,0.0
MultiSource/Benchmarks/VersaBench/ecbdes/ecbdes, 1.5065, 1.5064, 1.5064,1.5064, 1.5064, 1.5064, 1.5064,1.5064,0.0
MultiSource/Benchmarks/VersaBench/bmm/bmm, 1.4728, 1.4727, 1.4727,1.4727, 1.4727, 1.4726, 1.4727,1.4727,0.0
MultiSource/Benchmarks/VersaBench/beamformer/beamformer, 0.6672, 0.6675, 0.6675,0.6675, 0.6675, 0.6675, 0.6675,0.6675,0.0
MultiSource/Benchmarks/Trimaran/enc-pc1/enc-pc1, 0.3061, 0.3061, 0.3061,0.3061, 0.3061, 0.3061, 0.3061,0.3061,0.0
MultiSource/Benchmarks/Trimaran/enc-md5/enc-md5, 1.0892, 1.0893, 1.0893,1.0893, 1.0892, 1.0893, 1.0894,1.0893,0.0
MultiSource/Benchmarks/Trimaran/enc-3des/enc-3des, 1.1469, 1.1466, 1.1466,1.1466, 1.1466, 1.1466, 1.1467,1.1466,0.0
MultiSource/Benchmarks/TSVC/Reductions-dbl/Reductions-dbl, 3.0606, 3.0605, 3.0605,3.0605, 3.0605, 3.0605, 3.0605,3.0605,0.0
MultiSource/Benchmarks/TSVC/Recurrences-flt/Recurrences-flt, 3.1146, 3.1146, 3.1145,3.1146, 3.1146, 3.1146, 3.1146,3.1146,0.0
MultiSource/Benchmarks/TSVC/CrossingThresholds-dbl/CrossingThresholds-dbl, 1.8840, 1.8838, 1.8842,1.884, 1.8840, 1.8836, 1.8841,1.884,0.0
MultiSource/Benchmarks/Ptrdist/anagram/anagram, 0.5360, 0.5360, 0.5362,0.536, 0.5373, 0.5360, 0.5360,0.536,0.0
MultiSource/Benchmarks/Prolangs-C++/simul/simul, 0.0034, 0.0034, 0.0034,0.0034, 0.0034, 0.0034, 0.0034,0.0034,0.0
MultiSource/Benchmarks/Prolangs-C++/ocean/ocean, 0.0360, 0.0361, 0.0360,0.036, 0.0360, 0.0359, 0.0360,0.036,0.0
MultiSource/Benchmarks/Prolangs-C++/city/city, 0.0045, 0.0045, 0.0045,0.0045, 0.0045, 0.0045, 0.0045,0.0045,0.0
MultiSource/Benchmarks/Olden/power/power, 0.9371, 0.9371, 0.9373,0.9371, 0.9371, 0.9371, 0.9371,0.9371,0.0
MultiSource/Benchmarks/Olden/bisort/bisort, 0.3737, 0.3741, 0.3745,0.3741, 0.3747, 0.3738, 0.3741,0.3741,0.0
MultiSource/Benchmarks/MiBench/telecomm-FFT/telecomm-fft, 0.0343, 0.0344, 0.0343,0.0343, 0.0343, 0.0344, 0.0343,0.0343,0.0
MultiSource/Benchmarks/MiBench/network-dijkstra/network-dijkstra, 0.0234, 0.0234, 0.0234,0.0234, 0.0233, 0.0234, 0.0234,0.0234,0.0
MultiSource/Benchmarks/MiBench/consumer-lame/consumer-lame, 0.1055, 0.1055, 0.1056,0.1055, 0.1055, 0.1057, 0.1054,0.1055,0.0
MultiSource/Benchmarks/MiBench/automotive-susan/automotive-susan, 0.0267, 0.0268, 0.0268,0.0268, 0.0269, 0.0268, 0.0267,0.0268,0.0
MultiSource/Benchmarks/McCat/08-main/main, 0.0381, 0.0380, 0.0381,0.0381, 0.0384, 0.0381, 0.0381,0.0381,0.0
MultiSource/Benchmarks/McCat/05-eks/eks, 0.0031, 0.0031, 0.0031,0.0031, 0.0031, 0.0031, 0.0031,0.0031,0.0
MultiSource/Benchmarks/McCat/04-bisect/bisect, 0.0682, 0.0682, 0.0682,0.0682, 0.0682, 0.0682, 0.0682,0.0682,0.0
MultiSource/Benchmarks/McCat/01-qbsort/qbsort, 0.0358, 0.0358, 0.0358,0.0358, 0.0358, 0.0359, 0.0358,0.0358,0.0
MultiSource/Benchmarks/MallocBench/gs/gs, 0.0265, 0.0266, 0.0264,0.0265, 0.0265, 0.0265, 0.0263,0.0265,0.0
MultiSource/Benchmarks/MallocBench/espresso/espresso, 0.2672, 0.2672, 0.2670,0.2672, 0.2672, 0.2674, 0.2672,0.2672,0.0
MultiSource/Benchmarks/FreeBench/pifft/pifft, 0.0596, 0.0597, 0.0596,0.0596, 0.0598, 0.0594, 0.0596,0.0596,0.0
MultiSource/Benchmarks/FreeBench/pcompress2/pcompress2, 0.0921, 0.0921, 0.0920,0.0921, 0.0921, 0.0922, 0.0921,0.0921,0.0
MultiSource/Benchmarks/FreeBench/fourinarow/fourinarow, 0.1579, 0.1579, 0.1579,0.1579, 0.1579, 0.1579, 0.1579,0.1579,0.0
MultiSource/Benchmarks/FreeBench/distray/distray, 0.1213, 0.1213, 0.1214,0.1213, 0.1213, 0.1213, 0.1213,0.1213,0.0
MultiSource/Benchmarks/BitBench/uudecode/uudecode, 0.0549, 0.0549, 0.0549,0.0549, 0.0549, 0.0548, 0.0549,0.0549,0.0
MultiSource/Applications/sgefa/sgefa, 0.1358, 0.1358, 0.1358,0.1358, 0.1357, 0.1358, 0.1358,0.1358,0.0
MultiSource/Applications/kimwitu++/kc, 0.0270, 0.0271, 0.0270,0.027, 0.0270, 0.0270, 0.0271,0.027,0.0
MultiSource/Applications/ALAC/encode/alacconvert-encode, 0.0253, 0.0253, 0.0253,0.0253, 0.0253, 0.0253, 0.0254,0.0253,0.0
MultiSource/Applications/ALAC/decode/alacconvert-decode, 0.0132, 0.0131, 0.0131,0.0131, 0.0131, 0.0131, 0.0132,0.0131,0.0
SingleSource/Benchmarks/Misc-C++/stepanov_v1p2, 7.0320, 7.0319, 7.0316,7.0319, 7.0319, 7.0318, 7.0317,7.0318,-0.0014220907578410547
MultiSource/Benchmarks/TSVC/Reductions-flt/Reductions-flt, 5.2804, 5.2804, 5.2802,5.2804, 5.2803, 5.2803, 5.2802,5.2803,-0.0018937959245457492
SingleSource/Benchmarks/Misc-C++/Large/sphereflake, 4.9901, 4.9899, 4.9896,4.9899, 4.9899, 4.9898, 4.9896,4.9898,-0.0020040481773175856
MultiSource/Benchmarks/TSVC/Recurrences-dbl/Recurrences-dbl, 3.1150, 3.1150, 3.1148,3.115, 3.1149, 3.1149, 3.1149,3.1149,-0.0032102728731997487
SingleSource/Benchmarks/Shootout-C++/methcall, 3.0692, 3.0721, 3.0690,3.0692, 3.0691, 3.0691, 3.0690,3.0691,-0.0032581780268436944
MultiSource/Benchmarks/TSVC/InductionVariable-dbl/InductionVariable-dbl, 2.6958, 2.6950, 2.6936,2.695, 2.6909, 2.6949, 2.6953,2.6949,-0.0037105751391375286
MultiSource/Benchmarks/ASC_Sequoia/CrystalMk/CrystalMk, 6.4711, 6.4712, 6.4709,6.4711, 6.4710, 6.4708, 6.4708,6.4708,-0.00463599697114736
SingleSource/Benchmarks/McGill/queens, 1.5580, 1.5580, 1.5588,1.558, 1.5580, 1.5576, 1.5579,1.5579,-0.0064184852374804535
SingleSource/Benchmarks/Misc/fbench, 1.5246, 1.5246, 1.5245,1.5246, 1.5243, 1.5245, 1.5245,1.5245,-0.00655909746818395
SingleSource/Benchmarks/Misc/perlin, 3.4525, 3.4529, 3.4527,3.4527, 3.4529, 3.4522, 3.4524,3.4524,-0.008688852202631825
MultiSource/Benchmarks/TSVC/NodeSplitting-dbl/NodeSplitting-dbl, 4.4581, 4.4598, 4.4602,4.4598, 4.4594, 4.4597, 4.4582,4.4594,-0.00896901206334233
MultiSource/Benchmarks/TSVC/Symbolics-dbl/Symbolics-dbl, 2.1659, 2.1654, 2.1655,2.1655, 2.1659, 2.1653, 2.1643,2.1653,-0.009235742322810658
SingleSource/Benchmarks/Polybench/linear-algebra/kernels/syrk/syrk, 4.1171, 4.1172, 4.1166,4.1171, 4.1011, 4.1167, 4.1167,4.1167,-0.009715576498015022
SingleSource/Benchmarks/Shootout-C++/matrix, 1.0008, 1.0009, 1.0007,1.0008, 1.0028, 1.0007, 1.0005,1.0007,-0.009992006394887731
MultiSource/Benchmarks/Olden/em3d/em3d, 1.5188, 1.5187, 1.5187,1.5187, 1.5185, 1.5187, 1.5182,1.5185,-0.013169157832360057
MultiSource/Benchmarks/TSVC/Searching-dbl/Searching-dbl, 2.0243, 2.0246, 2.0241,2.0243, 2.0244, 2.0239, 2.0240,2.024,-0.014819937756271884
MultiSource/Benchmarks/TSVC/ControlLoops-dbl/ControlLoops-dbl, 2.2487, 2.2494, 2.2488,2.2488, 2.2484, 2.2481, 2.2485,2.2484,-0.01778726431874711
MultiSource/Benchmarks/Trimaran/netbench-crc/netbench-crc, 0.5538, 0.5539, 0.5539,0.5539, 0.5538, 0.5538, 0.5538,0.5538,-0.018053800324968616
MultiSource/Benchmarks/TSVC/Equivalencing-dbl/Equivalencing-dbl, 1.2232, 1.2252, 1.2260,1.2252, 1.2264, 1.2248, 1.2246,1.2248,-0.03264773098269336
SingleSource/Benchmarks/Polybench/datamining/covariance/covariance, 1.7008, 1.7026, 1.7014,1.7014, 1.7013, 1.7008, 1.6997,1.7008,-0.03526507581991245
MultiSource/Benchmarks/TSVC/GlobalDataFlow-dbl/GlobalDataFlow-dbl, 2.5201, 2.5212, 2.5208,2.5208, 2.5218, 2.5199, 2.5193,2.5199,-0.03570295144399438
SingleSource/Benchmarks/Dhrystone/dry, 0.2711, 0.2711, 0.2710,0.2711, 0.2710, 0.2710, 0.2710,0.271,-0.03688675765399774
MultiSource/Benchmarks/tramp3d-v4/tramp3d-v4, 0.2186, 0.2186, 0.2182,0.2186, 0.2187, 0.2185, 0.2184,0.2185,-0.045745654162854255
SingleSource/Benchmarks/Polybench/datamining/correlation/correlation, 1.7178, 1.7117, 1.7098,1.7117, 1.7093, 1.7115, 1.7109,1.7109,-0.046737161885834766
SingleSource/Benchmarks/Shootout/lists, 3.6624, 3.6579, 3.6620,3.662, 3.6602, 3.6683, 3.6566,3.6602,-0.049153468050244786
MultiSource/Applications/JM/lencod/lencod, 2.8141, 2.8304, 2.8289,2.8289, 2.8320, 2.8275, 2.8262,2.8275,-0.049489200749397444
MultiSource/Benchmarks/TSVC/Searching-flt/Searching-flt, 2.1644, 2.1651, 2.1653,2.1651, 2.1640, 2.1626, 2.1652,2.164,-0.05080596739178711
SingleSource/Benchmarks/Adobe-C++/stepanov_abstraction, 3.7945, 3.7950, 3.7951,3.795, 3.7938, 3.7924, 3.7928,3.7928,-0.05797101449275255
SingleSource/Benchmarks/Shootout/heapsort, 2.3296, 2.3283, 2.3257,2.3283, 2.3269, 2.3269, 2.3228,2.3269,-0.060129708370904034
MultiSource/Benchmarks/DOE-ProxyApps-C++/CLAMR/CLAMR, 0.9969, 0.9965, 0.9965,0.9965, 0.9959, 0.9959, 0.9957,0.9959,-0.06021073758154527
MultiSource/Benchmarks/Ptrdist/yacr2/yacr2, 0.4742, 0.4745, 0.4738,0.4742, 0.4736, 0.4743, 0.4739,0.4739,-0.0632644453817055
MultiSource/Benchmarks/BitBench/drop3/drop3, 0.1429, 0.1432, 0.1430,0.143, 0.1428, 0.1430, 0.1429,0.1429,-0.06993006993005757
MultiSource/Benchmarks/sim/sim, 2.2894, 2.2891, 2.2900,2.2894, 2.2875, 2.2891, 2.2871,2.2875,-0.08299117672753153
MultiSource/Benchmarks/TSVC/Equivalencing-flt/Equivalencing-flt, 0.8599, 0.8593, 0.8613,0.8599, 0.8600, 0.8591, 0.8590,0.8591,-0.09303407372950323
MultiSource/Benchmarks/TSVC/StatementReordering-dbl/StatementReordering-dbl, 1.9871, 1.9840, 1.9875,1.9871, 1.9840, 1.9852, 1.9886,1.9852,-0.09561672789492048
MultiSource/Benchmarks/FreeBench/neural/neural, 0.1043, 0.1042, 0.1043,0.1043, 0.1042, 0.1042, 0.1042,0.1042,-0.09587727708533222
MultiSource/Benchmarks/DOE-ProxyApps-C++/HPCCG/HPCCG, 0.8129, 0.8121, 0.8120,0.8121, 0.8106, 0.8120, 0.8113,0.8113,-0.0985100357098867
MultiSource/Benchmarks/MiBench/automotive-basicmath/automotive-basicmath, 0.2002, 0.2004, 0.2002,0.2002, 0.2000, 0.2002, 0.1999,0.2,-0.09990009990008542
MultiSource/Benchmarks/TSVC/Expansion-dbl/Expansion-dbl, 1.7374, 1.7389, 1.7337,1.7374, 1.7346, 1.7356, 1.7356,1.7356,-0.10360308506964788
MultiSource/Benchmarks/DOE-ProxyApps-C++/PENNANT/PENNANT, 0.3659, 0.3652, 0.3642,0.3652, 0.3645, 0.3654, 0.3648,0.3648,-0.10952902519167917
MultiSource/Applications/ClamAV/clamscan, 0.0914, 0.0911, 0.0909,0.0911, 0.0913, 0.0910, 0.0909,0.091,-0.1097694840834329
MultiSource/Benchmarks/TSVC/IndirectAddressing-dbl/IndirectAddressing-dbl, 2.1872, 2.1872, 2.1787,2.1872, 2.1798, 2.1874, 2.1846,2.1846,-0.11887344550108869
SingleSource/Benchmarks/Shootout-C++/heapsort, 2.3329, 2.3263, 2.3291,2.3291, 2.3328, 2.3252, 2.3263,2.3263,-0.12021810999958138
MultiSource/Benchmarks/TSVC/StatementReordering-flt/StatementReordering-flt, 1.6221, 1.6236, 1.6202,1.6221, 1.6186, 1.6211, 1.6199,1.6199,-0.13562665680292296
MultiSource/Benchmarks/DOE-ProxyApps-C/SimpleMOC/SimpleMOC, 3.3941, 3.3702, 3.3769,3.3769, 3.3762, 3.3718, 3.3661,3.3718,-0.15102608901655934
MultiSource/Benchmarks/MiBench/network-patricia/network-patricia, 0.0654, 0.0652, 0.0654,0.0654, 0.0653, 0.0653, 0.0652,0.0653,-0.1529051987767649
SingleSource/Benchmarks/Polybench/linear-algebra/kernels/bicg/bicg, 0.1937, 0.1936, 0.1933,0.1936, 0.1933, 0.1933, 0.1934,0.1933,-0.15495867768594573
SingleSource/Benchmarks/Misc-C++/mandel-text, 1.4325, 1.4301, 1.4333,1.4325, 1.4327, 1.4302, 1.4300,1.4302,-0.1605584642234037
SingleSource/Benchmarks/Misc-C++/bigfib, 0.1721, 0.1725, 0.1722,0.1722, 0.1719, 0.1719, 0.1720,0.1719,-0.17421602787456303
MultiSource/Benchmarks/MallocBench/cfrac/cfrac, 0.6779, 0.6778, 0.6775,0.6778, 0.6764, 0.6766, 0.6767,0.6766,-0.17704337562702843
SingleSource/Benchmarks/McGill/chomp, 1.1065, 1.1047, 1.1099,1.1065, 1.1045, 1.1075, 1.1043,1.1045,-0.18075011296881938
SingleSource/Benchmarks/Shootout-C++/lists, 2.5684, 2.5716, 2.5701,2.5701, 2.5726, 2.5654, 2.5654,2.5654,-0.1828722617796985
SingleSource/Benchmarks/Adobe-C++/loop_unroll, 1.5799, 1.5843, 1.5817,1.5817, 1.5877, 1.5788, 1.5786,1.5788,-0.1833470316747854
SingleSource/Benchmarks/Polybench/linear-algebra/kernels/trisolv/trisolv, 0.1589, 0.1588, 0.1585,0.1588, 0.1585, 0.1585, 0.1584,0.1585,-0.18891687657430767
MultiSource/Benchmarks/Fhourstones-3.1/fhourstones3.1, 0.7273, 0.7269, 0.7282,0.7273, 0.7259, 0.7281, 0.7251,0.7259,-0.19249278152069227
SingleSource/Benchmarks/Polybench/linear-algebra/kernels/atax/atax, 0.1556, 0.1557, 0.1552,0.1556, 0.1553, 0.1554, 0.1551,0.1553,-0.1928020565552635
MultiSource/Benchmarks/McCat/18-imp/imp, 0.0512, 0.0512, 0.0513,0.0512, 0.0511, 0.0511, 0.0514,0.0511,-0.1953125000000111
MultiSource/Benchmarks/VersaBench/8b10b/8b10b, 3.2058, 3.1985, 3.2126,3.2058, 3.1995, 3.2086, 3.1970,3.1995,-0.19651880965749768
SingleSource/Benchmarks/Shootout/strcat, 0.0982, 0.0981, 0.0979,0.0981, 0.0979, 0.0980, 0.0979,0.0979,-0.20387359836901986
MultiSource/Benchmarks/TSVC/NodeSplitting-flt/NodeSplitting-flt, 4.1380, 4.1390, 4.1380,4.138, 4.1303, 4.1295, 4.1295,4.1295,-0.20541324311260656
MultiSource/Benchmarks/TSVC/CrossingThresholds-flt/CrossingThresholds-flt, 1.4436, 1.4359, 1.4417,1.4417, 1.4384, 1.4338, 1.4448,1.4384,-0.2288964417007766
MultiSource/Benchmarks/VersaBench/dbms/dbms, 0.8802, 0.8821, 0.8822,0.8821, 0.8783, 0.8817, 0.8800,0.88,-0.23806824623058276
MultiSource/Benchmarks/DOE-ProxyApps-C/XSBench/XSBench, 2.3505, 2.3540, 2.3598,2.354, 2.3437, 2.3472, 2.3514,2.3472,-0.28887000849617817
MultiSource/Benchmarks/TSVC/LoopRerolling-flt/LoopRerolling-flt, 3.4023, 3.4087, 3.4057,3.4057, 3.3952, 3.3938, 3.3956,3.3952,-0.30830666236015825
MultiSource/Benchmarks/TSVC/Symbolics-flt/Symbolics-flt, 1.2422, 1.2374, 1.2452,1.2422, 1.2381, 1.2392, 1.2382,1.2382,-0.32200933827081224
SingleSource/Benchmarks/CoyoteBench/huffbench, 8.0678, 8.0589, 8.0562,8.0589, 8.0373, 8.0269, 8.0320,8.032,-0.3337924530643077
MultiSource/Benchmarks/DOE-ProxyApps-C++/miniFE/miniFE, 2.4574, 2.4582, 2.4539,2.4574, 2.4435, 2.4491, 2.4490,2.449,-0.34182469276471394
MultiSource/Benchmarks/mediabench/g721/g721encode/encode, 0.0281, 0.0282, 0.0282,0.0282, 0.0281, 0.0281, 0.0281,0.0281,-0.35460992907800915
SingleSource/Benchmarks/Shootout-C++/lists1, 0.1195, 0.1207, 0.1209,0.1207, 0.1207, 0.1196, 0.1202,0.1202,-0.41425020712509975
SingleSource/Benchmarks/Shootout-C++/hash, 0.2799, 0.2792, 0.2800,0.2799, 0.2798, 0.2786, 0.2787,0.2787,-0.4287245444801635
MultiSource/Benchmarks/Olden/health/health, 0.1361, 0.1361, 0.1358,0.1361, 0.1354, 0.1355, 0.1356,0.1355,-0.4408523144746379
MultiSource/Benchmarks/MiBench/telecomm-gsm/telecomm-gsm, 0.0903, 0.0904, 0.0904,0.0904, 0.0900, 0.0900, 0.0899,0.09,-0.4424778761061954
MultiSource/Benchmarks/Bullet/bullet, 3.1101, 3.1009, 3.1057,3.1057, 3.0907, 3.0911, 3.0935,3.0911,-0.47010335834112293
MultiSource/Benchmarks/MiBench/security-rijndael/security-rijndael, 0.0210, 0.0211, 0.0212,0.0211, 0.0210, 0.0210, 0.0211,0.021,-0.4739336492890933
MultiSource/Benchmarks/FreeBench/analyzer/analyzer, 0.0373, 0.0369, 0.0371,0.0371, 0.0367, 0.0369, 0.0369,0.0369,-0.5390835579514808
MultiSource/Applications/lambda-0.1.3/lambda, 2.3848, 2.3843, 2.3824,2.3843, 2.3700, 2.3707, 2.3724,2.3707,-0.5703980203833559
SingleSource/Benchmarks/BenchmarkGame/puzzle, 0.1187, 0.1176, 0.1166,0.1176, 0.1176, 0.1169, 0.1165,0.1169,-0.5952380952380931
SingleSource/Benchmarks/Polybench/linear-algebra/solvers/durbin/durbin, 0.3977, 0.3972, 0.3951,0.3972, 0.3944, 0.3949, 0.3947,0.3947,-0.6294058408861991
MultiSource/Benchmarks/MiBench/telecomm-CRC32/telecomm-CRC32, 0.1354, 0.1347, 0.1343,0.1347, 0.1338, 0.1331, 0.1342,0.1338,-0.6681514476614581
MultiSource/Benchmarks/MiBench/security-sha/security-sha, 0.0141, 0.0141, 0.0141,0.0141, 0.0140, 0.0140, 0.0141,0.014,-0.7092198581560294
MultiSource/Benchmarks/Olden/mst/mst, 0.0546, 0.0544, 0.0544,0.0544, 0.0540, 0.0540, 0.0541,0.054,-0.7352941176470562
SingleSource/Benchmarks/Polybench/stencils/jacobi-2d-imper/jacobi-2d-imper, 0.1665, 0.1665, 0.1658,0.1665, 0.1655, 0.1641, 0.1652,0.1652,-0.7807807807807765
MultiSource/Benchmarks/BitBench/uuencode/uuencode, 0.0108, 0.0109, 0.0109,0.0109, 0.0108, 0.0108, 0.0108,0.0108,-0.917431192660545
MultiSource/Benchmarks/nbench/nbench, 1.1320, 1.1316, 1.1319,1.1319, 1.1204, 1.1214, 1.1212,1.1212,-0.9453131902111389
SingleSource/Benchmarks/Adobe-C++/stepanov_vector, 2.0524, 2.0526, 2.0526,2.0526, 2.0316, 2.0346, 2.0323,2.0323,-0.9889895741985621
MultiSource/Benchmarks/llubenchmark/llu, 5.1916, 5.1576, 5.2327,5.1916, 5.1664, 5.0946, 5.1387,5.1387,-1.0189536944294697
MultiSource/Benchmarks/DOE-ProxyApps-C/miniGMG/miniGMG, 4.7916, 4.7922, 4.7774,4.7916, 4.7410, 4.7393, 4.7434,4.741,-1.0560146923783376
MultiSource/Benchmarks/MiBench/consumer-typeset/consumer-typeset, 0.0790, 0.0791, 0.0791,0.0791, 0.0778, 0.0778, 0.0775,0.0778,-1.643489254108732
MultiSource/Benchmarks/DOE-ProxyApps-C/Pathfinder/PathFinder, 1.8658, 1.8669, 1.8690,1.8669, 1.8352, 1.8373, 1.8362,1.8362,-1.6444373024800396
MultiSource/Applications/siod/siod, 1.0269, 1.0242, 1.0247,1.0247, 0.9943, 0.9950, 0.9953,0.995,-2.898409290524051
SingleSource/Benchmarks/Misc/ReedSolomon, 2.7858, 2.7858, 2.7859,2.7858, 2.6823, 2.6821, 2.6818,2.6821,-3.7224495656543843
Total elapsed time,-,-,-,544.4181999999998,-,-,-,544.0256000000002,-0.07211368025530351
Total failure,-,-,-,0,-,-,-,0,
Geom. avg slowdown,,,,,,,,,-0.00384558704158%
