Benchmarks,/mnt/freezedisk/llvm-intptr-base-5.0-release/bin/clang,/mnt/freezedisk/llvm-intptr-base-5.0-release/bin/clang,/mnt/freezedisk/llvm-intptr-base-5.0-release/bin/clang,median,/mnt/freezedisk/llvm-intptr-insts-5.0-release/bin/clang,/mnt/freezedisk/llvm-intptr-insts-5.0-release/bin/clang,/mnt/freezedisk/llvm-intptr-insts-5.0-release/bin/clang,median
MultiSource/Applications/ALAC/decode/alacconvert-decode, 0.0132, 0.0131, 0.0131,0.0131, 0.0132, 0.0132, 0.0132,0.0132
MultiSource/Applications/ALAC/encode/alacconvert-encode, 0.0253, 0.0253, 0.0253,0.0253, 0.0253, 0.0253, 0.0253,0.0253
MultiSource/Applications/ClamAV/clamscan, 0.0914, 0.0911, 0.0909,0.0911, 0.0906, 0.0909, 0.0905,0.0906
MultiSource/Applications/JM/ldecod/ldecod, 0.0397, 0.0397, 0.0389,0.0397, 0.0389, 0.0390, 0.0391,0.039
MultiSource/Applications/JM/lencod/lencod, 2.8141, 2.8304, 2.8289,2.8289, 2.8317, 2.8277, 2.8263,2.8277
MultiSource/Applications/SIBsim4/SIBsim4, 1.8668, 1.8608, 1.8706,1.8668, 1.8742, 1.8584, 1.8596,1.8596
MultiSource/Applications/SPASS/SPASS, 6.2530, 6.3317, 5.6516,6.253, 6.2889, 6.2754, 6.2269,6.2754
MultiSource/Applications/aha/aha, 0.9171, 0.9167, 0.9176,0.9171, 0.9183, 0.9186, 0.9178,0.9183
MultiSource/Applications/d/make_dparser, 0.0158, 0.0158, 0.0159,0.0158, 0.0144, 0.0158, 0.0159,0.0158
MultiSource/Applications/hbd/hbd, 0.0031, 0.0031, 0.0031,0.0031, 0.0031, 0.0032, 0.0031,0.0031
MultiSource/Applications/hexxagon/hexxagon, 6.3006, 6.2992, 6.2987,6.2992, 6.2993, 6.2995, 6.3001,6.2995
MultiSource/Applications/kimwitu++/kc, 0.0270, 0.0271, 0.0270,0.027, 0.0270, 0.0270, 0.0270,0.027
MultiSource/Applications/lambda-0.1.3/lambda, 2.3848, 2.3843, 2.3824,2.3843, 2.3701, 2.3694, 2.3726,2.3701
MultiSource/Applications/lua/lua,10.2144,10.2134,10.2557,10.2144,10.2148,10.2421,10.2077,10.2148
MultiSource/Applications/minisat/minisat, 4.3307, 4.3411, 4.3312,4.3312, 4.3866, 4.3873, 4.3873,4.3873
MultiSource/Applications/obsequi/Obsequi, 1.0154, 1.0157, 1.0146,1.0154, 1.0148, 1.0158, 1.0150,1.015
MultiSource/Applications/oggenc/oggenc, 0.0686, 0.0687, 0.0687,0.0687, 0.0685, 0.0685, 0.0685,0.0685
MultiSource/Applications/sgefa/sgefa, 0.1358, 0.1358, 0.1358,0.1358, 0.1358, 0.1357, 0.1359,0.1358
MultiSource/Applications/siod/siod, 1.0269, 1.0242, 1.0247,1.0247, 0.9996, 0.9973, 0.9981,0.9981
MultiSource/Applications/spiff/spiff, 1.1487, 1.1461, 1.1505,1.1487, 1.1524, 1.1531, 1.1528,1.1528
MultiSource/Applications/sqlite3/sqlite3, 1.5762, 1.5712, 1.5718,1.5718, 1.5916, 1.5899, 1.5967,1.5916
MultiSource/Applications/viterbi/viterbi, 1.1388, 1.1385, 1.1388,1.1388, 1.1406, 1.1412, 1.1388,1.1406
MultiSource/Benchmarks/7zip/7zip-benchmark, 5.8506, 5.8513, 5.8495,5.8506, 5.8887, 5.8869, 5.8865,5.8869
MultiSource/Benchmarks/ASCI_Purple/SMG2000/smg2000, 1.5085, 1.5093, 1.4934,1.5085, 1.4907, 1.4908, 1.4888,1.4907
MultiSource/Benchmarks/ASC_Sequoia/AMGmk/AMGmk, 4.8099, 4.8827, 4.8297,4.8297, 4.8254, 4.8491, 4.8381,4.8381
MultiSource/Benchmarks/ASC_Sequoia/CrystalMk/CrystalMk, 6.4711, 6.4712, 6.4709,6.4711, 6.4710, 6.4711, 6.4711,6.4711
MultiSource/Benchmarks/ASC_Sequoia/IRSmk/IRSmk, 3.0209, 3.0434, 3.0167,3.0209, 3.0607, 3.0374, 3.0461,3.0461
MultiSource/Benchmarks/BitBench/drop3/drop3, 0.1429, 0.1432, 0.1430,0.143, 0.1427, 0.1427, 0.1430,0.1427
MultiSource/Benchmarks/BitBench/five11/five11, 1.0026, 0.9935, 1.0030,1.0026, 0.9991, 1.0242, 1.0102,1.0102
MultiSource/Benchmarks/BitBench/uudecode/uudecode, 0.0549, 0.0549, 0.0549,0.0549, 0.0549, 0.0549, 0.0548,0.0549
MultiSource/Benchmarks/BitBench/uuencode/uuencode, 0.0108, 0.0109, 0.0109,0.0109, 0.0108, 0.0108, 0.0108,0.0108
MultiSource/Benchmarks/Bullet/bullet, 3.1101, 3.1009, 3.1057,3.1057, 3.1117, 3.1067, 3.0990,3.1067
MultiSource/Benchmarks/DOE-ProxyApps-C++/CLAMR/CLAMR, 0.9969, 0.9965, 0.9965,0.9965, 0.9965, 0.9965, 0.9965,0.9965
MultiSource/Benchmarks/DOE-ProxyApps-C++/HPCCG/HPCCG, 0.8129, 0.8121, 0.8120,0.8121, 0.8113, 0.8115, 0.8124,0.8115
MultiSource/Benchmarks/DOE-ProxyApps-C++/PENNANT/PENNANT, 0.3659, 0.3652, 0.3642,0.3652, 0.3662, 0.3659, 0.3668,0.3662
MultiSource/Benchmarks/DOE-ProxyApps-C++/miniFE/miniFE, 2.4574, 2.4582, 2.4539,2.4574, 2.4477, 2.4480, 2.4583,2.448
MultiSource/Benchmarks/DOE-ProxyApps-C/Pathfinder/PathFinder, 1.8658, 1.8669, 1.8690,1.8669, 1.8682, 1.8659, 1.8683,1.8682
MultiSource/Benchmarks/DOE-ProxyApps-C/RSBench/rsbench, 0.5184, 0.5107, 0.5187,0.5184, 0.5068, 0.5134, 0.5192,0.5134
MultiSource/Benchmarks/DOE-ProxyApps-C/SimpleMOC/SimpleMOC, 3.3941, 3.3702, 3.3769,3.3769, 3.3915, 3.3745, 3.3707,3.3745
MultiSource/Benchmarks/DOE-ProxyApps-C/XSBench/XSBench, 2.3505, 2.3540, 2.3598,2.354, 2.3529, 2.3505, 2.3508,2.3508
MultiSource/Benchmarks/DOE-ProxyApps-C/miniAMR/miniAMR, 0.6882, 0.6878, 0.6912,0.6882, 0.6920, 0.6900, 0.6911,0.6911
MultiSource/Benchmarks/DOE-ProxyApps-C/miniGMG/miniGMG, 4.7916, 4.7922, 4.7774,4.7916, 4.7420, 4.7377, 4.7425,4.742
MultiSource/Benchmarks/Fhourstones-3.1/fhourstones3.1, 0.7273, 0.7269, 0.7282,0.7273, 0.7255, 0.7249, 0.7253,0.7253
MultiSource/Benchmarks/Fhourstones/fhourstones, 0.7169, 0.7190, 0.7162,0.7169, 0.7182, 0.7196, 0.7178,0.7182
MultiSource/Benchmarks/FreeBench/analyzer/analyzer, 0.0373, 0.0369, 0.0371,0.0371, 0.0369, 0.0372, 0.0368,0.0369
MultiSource/Benchmarks/FreeBench/distray/distray, 0.1213, 0.1213, 0.1214,0.1213, 0.1225, 0.1213, 0.1214,0.1214
MultiSource/Benchmarks/FreeBench/fourinarow/fourinarow, 0.1579, 0.1579, 0.1579,0.1579, 0.1578, 0.1579, 0.1579,0.1579
MultiSource/Benchmarks/FreeBench/mason/mason, 0.1173, 0.1173, 0.1173,0.1173, 0.1169, 0.1173, 0.1174,0.1173
MultiSource/Benchmarks/FreeBench/neural/neural, 0.1043, 0.1042, 0.1043,0.1043, 0.1042, 0.1042, 0.1042,0.1042
MultiSource/Benchmarks/FreeBench/pcompress2/pcompress2, 0.0921, 0.0921, 0.0920,0.0921, 0.0921, 0.0921, 0.0921,0.0921
MultiSource/Benchmarks/FreeBench/pifft/pifft, 0.0596, 0.0597, 0.0596,0.0596, 0.0596, 0.0608, 0.0595,0.0596
MultiSource/Benchmarks/MallocBench/cfrac/cfrac, 0.6779, 0.6778, 0.6775,0.6778, 0.6783, 0.6781, 0.6784,0.6783
MultiSource/Benchmarks/MallocBench/espresso/espresso, 0.2672, 0.2672, 0.2670,0.2672, 0.2683, 0.2684, 0.2681,0.2683
MultiSource/Benchmarks/MallocBench/gs/gs, 0.0265, 0.0266, 0.0264,0.0265, 0.0265, 0.0264, 0.0263,0.0264
MultiSource/Benchmarks/McCat/01-qbsort/qbsort, 0.0358, 0.0358, 0.0358,0.0358, 0.0358, 0.0358, 0.0358,0.0358
MultiSource/Benchmarks/McCat/03-testtrie/testtrie, 0.0071, 0.0070, 0.0070,0.007, 0.0071, 0.0071, 0.0071,0.0071
MultiSource/Benchmarks/McCat/04-bisect/bisect, 0.0682, 0.0682, 0.0682,0.0682, 0.0682, 0.0683, 0.0682,0.0682
MultiSource/Benchmarks/McCat/05-eks/eks, 0.0031, 0.0031, 0.0031,0.0031, 0.0031, 0.0031, 0.0031,0.0031
MultiSource/Benchmarks/McCat/08-main/main, 0.0381, 0.0380, 0.0381,0.0381, 0.0384, 0.0380, 0.0381,0.0381
MultiSource/Benchmarks/McCat/09-vor/vor, 0.0799, 0.0797, 0.0797,0.0797, 0.0805, 0.0801, 0.0803,0.0803
MultiSource/Benchmarks/McCat/12-IOtest/iotest, 0.2071, 0.2092, 0.2063,0.2071, 0.2104, 0.2110, 0.2019,0.2104
MultiSource/Benchmarks/McCat/17-bintr/bintr, 0.0746, 0.0723, 0.0727,0.0727, 0.0726, 0.0731, 0.0738,0.0731
MultiSource/Benchmarks/McCat/18-imp/imp, 0.0512, 0.0512, 0.0513,0.0512, 0.0512, 0.0513, 0.0512,0.0512
MultiSource/Benchmarks/MiBench/automotive-basicmath/automotive-basicmath, 0.2002, 0.2004, 0.2002,0.2002, 0.2003, 0.1999, 0.2001,0.2001
MultiSource/Benchmarks/MiBench/automotive-bitcount/automotive-bitcount, 0.0486, 0.0486, 0.0488,0.0486, 0.0486, 0.0507, 0.0486,0.0486
MultiSource/Benchmarks/MiBench/automotive-susan/automotive-susan, 0.0267, 0.0268, 0.0268,0.0268, 0.0268, 0.0268, 0.0269,0.0268
MultiSource/Benchmarks/MiBench/consumer-jpeg/consumer-jpeg, 0.0043, 0.0043, 0.0042,0.0043, 0.0043, 0.0042, 0.0043,0.0043
MultiSource/Benchmarks/MiBench/consumer-lame/consumer-lame, 0.1055, 0.1055, 0.1056,0.1055, 0.1054, 0.1056, 0.1057,0.1056
MultiSource/Benchmarks/MiBench/consumer-typeset/consumer-typeset, 0.0790, 0.0791, 0.0791,0.0791, 0.0783, 0.0781, 0.0780,0.0781
MultiSource/Benchmarks/MiBench/network-dijkstra/network-dijkstra, 0.0234, 0.0234, 0.0234,0.0234, 0.0234, 0.0234, 0.0234,0.0234
MultiSource/Benchmarks/MiBench/network-patricia/network-patricia, 0.0654, 0.0652, 0.0654,0.0654, 0.0652, 0.0652, 0.0653,0.0652
MultiSource/Benchmarks/MiBench/security-rijndael/security-rijndael, 0.0210, 0.0211, 0.0212,0.0211, 0.0221, 0.0210, 0.0211,0.0211
MultiSource/Benchmarks/MiBench/security-sha/security-sha, 0.0141, 0.0141, 0.0141,0.0141, 0.0140, 0.0141, 0.0141,0.0141
MultiSource/Benchmarks/MiBench/telecomm-CRC32/telecomm-CRC32, 0.1354, 0.1347, 0.1343,0.1347, 0.1367, 0.1330, 0.1377,0.1367
MultiSource/Benchmarks/MiBench/telecomm-FFT/telecomm-fft, 0.0343, 0.0344, 0.0343,0.0343, 0.0343, 0.0343, 0.0344,0.0343
MultiSource/Benchmarks/MiBench/telecomm-adpcm/telecomm-adpcm, 0.0621, 0.0621, 0.0622,0.0621, 0.0621, 0.0621, 0.0621,0.0621
MultiSource/Benchmarks/MiBench/telecomm-gsm/telecomm-gsm, 0.0903, 0.0904, 0.0904,0.0904, 0.0912, 0.0899, 0.0900,0.09
MultiSource/Benchmarks/NPB-serial/is/is, 4.4914, 4.4855, 4.5197,4.4914, 4.5265, 4.5999, 4.4901,4.5265
MultiSource/Benchmarks/Olden/bh/bh, 1.1613, 1.1638, 1.1587,1.1613, 1.1538, 1.1635, 1.1630,1.163
MultiSource/Benchmarks/Olden/bisort/bisort, 0.3737, 0.3741, 0.3745,0.3741, 0.3747, 0.3739, 0.3743,0.3743
MultiSource/Benchmarks/Olden/em3d/em3d, 1.5188, 1.5187, 1.5187,1.5187, 1.5185, 1.5187, 1.5183,1.5185
MultiSource/Benchmarks/Olden/health/health, 0.1361, 0.1361, 0.1358,0.1361, 0.1357, 0.1355, 0.1355,0.1355
MultiSource/Benchmarks/Olden/mst/mst, 0.0546, 0.0544, 0.0544,0.0544, 0.0537, 0.0539, 0.0539,0.0539
MultiSource/Benchmarks/Olden/perimeter/perimeter, 0.1108, 0.1107, 0.1107,0.1107, 0.1107, 0.1107, 0.1105,0.1107
MultiSource/Benchmarks/Olden/power/power, 0.9371, 0.9371, 0.9373,0.9371, 0.9373, 0.9373, 0.9373,0.9373
MultiSource/Benchmarks/Olden/treeadd/treeadd, 0.1139, 0.1139, 0.1140,0.1139, 0.1138, 0.1140, 0.1138,0.1138
MultiSource/Benchmarks/Olden/tsp/tsp, 1.0552, 1.0551, 1.0559,1.0552, 1.0556, 1.0557, 1.0557,1.0557
MultiSource/Benchmarks/Olden/voronoi/voronoi, 0.1949, 0.1951, 0.1950,0.195, 0.1988, 0.1989, 0.1992,0.1989
MultiSource/Benchmarks/PAQ8p/paq8p,39.0826,39.0852,39.1003,39.0852,39.0825,39.0662,39.0563,39.0662
MultiSource/Benchmarks/Prolangs-C++/city/city, 0.0045, 0.0045, 0.0045,0.0045, 0.0045, 0.0045, 0.0045,0.0045
MultiSource/Benchmarks/Prolangs-C++/employ/employ, 0.0059, 0.0058, 0.0058,0.0058, 0.0058, 0.0058, 0.0058,0.0058
MultiSource/Benchmarks/Prolangs-C++/life/life, 0.6387, 0.6544, 0.6427,0.6427, 0.6419, 0.6418, 0.6443,0.6419
MultiSource/Benchmarks/Prolangs-C++/ocean/ocean, 0.0360, 0.0361, 0.0360,0.036, 0.0360, 0.0360, 0.0360,0.036
MultiSource/Benchmarks/Prolangs-C++/primes/primes, 0.1895, 0.1877, 0.1883,0.1883, 0.1900, 0.1891, 0.1890,0.1891
MultiSource/Benchmarks/Prolangs-C++/simul/simul, 0.0034, 0.0034, 0.0034,0.0034, 0.0034, 0.0034, 0.0034,0.0034
MultiSource/Benchmarks/Prolangs-C/agrep/agrep, 0.0042, 0.0043, 0.0042,0.0042, 0.0043, 0.0042, 0.0042,0.0042
MultiSource/Benchmarks/Prolangs-C/bison/mybison, 0.0034, 0.0034, 0.0034,0.0034, 0.0035, 0.0034, 0.0034,0.0034
MultiSource/Benchmarks/Prolangs-C/gnugo/gnugo, 0.0257, 0.0242, 0.0241,0.0242, 0.0242, 0.0242, 0.0242,0.0242
MultiSource/Benchmarks/Ptrdist/anagram/anagram, 0.5360, 0.5360, 0.5362,0.536, 0.5374, 0.5360, 0.5361,0.5361
MultiSource/Benchmarks/Ptrdist/bc/bc, 0.3261, 0.3261, 0.3261,0.3261, 0.3282, 0.3281, 0.3282,0.3282
MultiSource/Benchmarks/Ptrdist/ft/ft, 0.6844, 0.7218, 0.7362,0.7218, 0.7060, 0.7317, 0.7290,0.729
MultiSource/Benchmarks/Ptrdist/ks/ks, 0.5817, 0.5824, 0.5866,0.5824, 0.5838, 0.5837, 0.5791,0.5837
MultiSource/Benchmarks/Ptrdist/yacr2/yacr2, 0.4742, 0.4745, 0.4738,0.4742, 0.4732, 0.4744, 0.4740,0.474
MultiSource/Benchmarks/SciMark2-C/scimark2,37.4309,37.4323,37.4289,37.4309,37.4582,37.4488,37.4500,37.45
MultiSource/Benchmarks/TSVC/ControlFlow-dbl/ControlFlow-dbl, 3.3093, 3.3105, 3.3149,3.3105, 3.3152, 3.3145, 3.3180,3.3152
MultiSource/Benchmarks/TSVC/ControlFlow-flt/ControlFlow-flt, 3.1123, 3.1361, 3.1105,3.1123, 3.1598, 3.2009, 3.1602,3.1602
MultiSource/Benchmarks/TSVC/ControlLoops-dbl/ControlLoops-dbl, 2.2487, 2.2494, 2.2488,2.2488, 2.2492, 2.2481, 2.2482,2.2482
MultiSource/Benchmarks/TSVC/ControlLoops-flt/ControlLoops-flt, 2.0834, 2.0922, 2.0837,2.0837, 2.0796, 2.0874, 2.0894,2.0874
MultiSource/Benchmarks/TSVC/CrossingThresholds-dbl/CrossingThresholds-dbl, 1.8840, 1.8838, 1.8842,1.884, 1.8833, 1.8833, 1.8842,1.8833
MultiSource/Benchmarks/TSVC/CrossingThresholds-flt/CrossingThresholds-flt, 1.4436, 1.4359, 1.4417,1.4417, 1.4280, 1.4294, 1.4493,1.4294
MultiSource/Benchmarks/TSVC/Equivalencing-dbl/Equivalencing-dbl, 1.2232, 1.2252, 1.2260,1.2252, 1.2255, 1.2247, 1.2253,1.2253
MultiSource/Benchmarks/TSVC/Equivalencing-flt/Equivalencing-flt, 0.8599, 0.8593, 0.8613,0.8599, 0.8611, 0.8596, 0.8603,0.8603
MultiSource/Benchmarks/TSVC/Expansion-dbl/Expansion-dbl, 1.7374, 1.7389, 1.7337,1.7374, 1.7358, 1.7354, 1.7346,1.7354
MultiSource/Benchmarks/TSVC/Expansion-flt/Expansion-flt, 1.0426, 1.0337, 1.0470,1.0426, 1.0455, 1.0399, 1.0417,1.0417
MultiSource/Benchmarks/TSVC/GlobalDataFlow-dbl/GlobalDataFlow-dbl, 2.5201, 2.5212, 2.5208,2.5208, 2.5204, 2.5189, 2.5190,2.519
MultiSource/Benchmarks/TSVC/GlobalDataFlow-flt/GlobalDataFlow-flt, 1.3318, 1.3379, 1.3290,1.3318, 1.3291, 1.3268, 1.3344,1.3291
MultiSource/Benchmarks/TSVC/IndirectAddressing-dbl/IndirectAddressing-dbl, 2.1872, 2.1872, 2.1787,2.1872, 2.1776, 2.1817, 2.1828,2.1817
MultiSource/Benchmarks/TSVC/IndirectAddressing-flt/IndirectAddressing-flt, 1.9911, 1.9912, 1.9934,1.9912, 1.9948, 1.9940, 1.9933,1.994
MultiSource/Benchmarks/TSVC/InductionVariable-dbl/InductionVariable-dbl, 2.6958, 2.6950, 2.6936,2.695, 2.6890, 2.6933, 2.6915,2.6915
MultiSource/Benchmarks/TSVC/InductionVariable-flt/InductionVariable-flt, 2.2708, 2.2712, 2.2709,2.2709, 2.2781, 2.2721, 2.2746,2.2746
MultiSource/Benchmarks/TSVC/LinearDependence-dbl/LinearDependence-dbl, 5.0645, 5.0665, 5.0696,5.0665, 5.0652, 5.0644, 5.0651,5.0651
MultiSource/Benchmarks/TSVC/LinearDependence-flt/LinearDependence-flt, 4.4254, 4.4291, 4.4250,4.4254, 4.4321, 4.4334, 4.4303,4.4321
MultiSource/Benchmarks/TSVC/LoopRerolling-dbl/LoopRerolling-dbl, 4.0812, 4.0817, 4.0814,4.0814, 4.0816, 4.0818, 4.0817,4.0817
MultiSource/Benchmarks/TSVC/LoopRerolling-flt/LoopRerolling-flt, 3.4023, 3.4087, 3.4057,3.4057, 3.4016, 3.3954, 3.3973,3.3973
MultiSource/Benchmarks/TSVC/LoopRestructuring-dbl/LoopRestructuring-dbl, 3.1556, 3.1545, 3.1548,3.1548, 3.1667, 3.1529, 3.1657,3.1657
MultiSource/Benchmarks/TSVC/LoopRestructuring-flt/LoopRestructuring-flt, 2.5948, 2.4527, 2.5642,2.5642, 2.5971, 2.7760, 2.5106,2.5971
MultiSource/Benchmarks/TSVC/NodeSplitting-dbl/NodeSplitting-dbl, 4.4581, 4.4598, 4.4602,4.4598, 4.4601, 4.4585, 4.4582,4.4585
MultiSource/Benchmarks/TSVC/NodeSplitting-flt/NodeSplitting-flt, 4.1380, 4.1390, 4.1380,4.138, 4.1290, 4.1279, 4.1300,4.129
MultiSource/Benchmarks/TSVC/Packing-dbl/Packing-dbl, 2.0191, 2.0193, 2.0190,2.0191, 2.0197, 2.0191, 2.0189,2.0191
MultiSource/Benchmarks/TSVC/Packing-flt/Packing-flt, 1.8584, 1.8527, 1.8536,1.8536, 1.8808, 1.8528, 1.8645,1.8645
MultiSource/Benchmarks/TSVC/Recurrences-dbl/Recurrences-dbl, 3.1150, 3.1150, 3.1148,3.115, 3.1149, 3.1150, 3.1149,3.1149
MultiSource/Benchmarks/TSVC/Recurrences-flt/Recurrences-flt, 3.1146, 3.1146, 3.1145,3.1146, 3.1146, 3.1146, 3.1146,3.1146
MultiSource/Benchmarks/TSVC/Reductions-dbl/Reductions-dbl, 3.0606, 3.0605, 3.0605,3.0605, 3.0605, 3.0606, 3.0605,3.0605
MultiSource/Benchmarks/TSVC/Reductions-flt/Reductions-flt, 5.2804, 5.2804, 5.2802,5.2804, 5.2803, 5.2803, 5.2803,5.2803
MultiSource/Benchmarks/TSVC/Searching-dbl/Searching-dbl, 2.0243, 2.0246, 2.0241,2.0243, 2.0242, 2.0238, 2.0243,2.0242
MultiSource/Benchmarks/TSVC/Searching-flt/Searching-flt, 2.1644, 2.1651, 2.1653,2.1651, 2.1639, 2.1640, 2.1659,2.164
MultiSource/Benchmarks/TSVC/StatementReordering-dbl/StatementReordering-dbl, 1.9871, 1.9840, 1.9875,1.9871, 1.9922, 1.9855, 1.9921,1.9921
MultiSource/Benchmarks/TSVC/StatementReordering-flt/StatementReordering-flt, 1.6221, 1.6236, 1.6202,1.6221, 1.6210, 1.6210, 1.6230,1.621
MultiSource/Benchmarks/TSVC/Symbolics-dbl/Symbolics-dbl, 2.1659, 2.1654, 2.1655,2.1655, 2.1653, 2.1656, 2.1652,2.1653
MultiSource/Benchmarks/TSVC/Symbolics-flt/Symbolics-flt, 1.2422, 1.2374, 1.2452,1.2422, 1.2393, 1.2334, 1.2373,1.2373
MultiSource/Benchmarks/Trimaran/enc-3des/enc-3des, 1.1469, 1.1466, 1.1466,1.1466, 1.1461, 1.1468, 1.1472,1.1468
MultiSource/Benchmarks/Trimaran/enc-md5/enc-md5, 1.0892, 1.0893, 1.0893,1.0893, 1.0892, 1.0893, 1.0893,1.0893
MultiSource/Benchmarks/Trimaran/enc-pc1/enc-pc1, 0.3061, 0.3061, 0.3061,0.3061, 0.3061, 0.3061, 0.3061,0.3061
MultiSource/Benchmarks/Trimaran/enc-rc4/enc-rc4, 0.6401, 0.7772, 0.6401,0.6401, 0.6416, 0.6397, 0.6400,0.64
MultiSource/Benchmarks/Trimaran/netbench-crc/netbench-crc, 0.5538, 0.5539, 0.5539,0.5539, 0.5540, 0.5539, 0.5538,0.5539
MultiSource/Benchmarks/Trimaran/netbench-url/netbench-url, 2.6522, 2.6522, 2.6522,2.6522, 2.6524, 2.6522, 2.6522,2.6522
MultiSource/Benchmarks/VersaBench/8b10b/8b10b, 3.2058, 3.1985, 3.2126,3.2058, 3.2177, 3.2095, 3.2101,3.2101
MultiSource/Benchmarks/VersaBench/beamformer/beamformer, 0.6672, 0.6675, 0.6675,0.6675, 0.6674, 0.6675, 0.6674,0.6674
MultiSource/Benchmarks/VersaBench/bmm/bmm, 1.4728, 1.4727, 1.4727,1.4727, 1.4727, 1.4727, 1.4726,1.4727
MultiSource/Benchmarks/VersaBench/dbms/dbms, 0.8802, 0.8821, 0.8822,0.8821, 0.8792, 0.8781, 0.8805,0.8792
MultiSource/Benchmarks/VersaBench/ecbdes/ecbdes, 1.5065, 1.5064, 1.5064,1.5064, 1.5064, 1.5065, 1.5065,1.5065
MultiSource/Benchmarks/llubenchmark/llu, 5.1916, 5.1576, 5.2327,5.1916, 5.1037, 5.1755, 5.1250,5.125
MultiSource/Benchmarks/mafft/pairlocalalign,21.9295,21.9301,21.9299,21.9299,21.9771,21.9779,21.9775,21.9775
MultiSource/Benchmarks/mediabench/adpcm/rawcaudio/rawcaudio, 0.0046, 0.0058, 0.0047,0.0047, 0.0047, 0.0046, 0.0047,0.0047
MultiSource/Benchmarks/mediabench/adpcm/rawdaudio/rawdaudio, 0.0031, 0.0031, 0.0031,0.0031, 0.0031, 0.0032, 0.0031,0.0031
MultiSource/Benchmarks/mediabench/g721/g721encode/encode, 0.0281, 0.0282, 0.0282,0.0282, 0.0282, 0.0282, 0.0282,0.0282
MultiSource/Benchmarks/mediabench/gsm/toast/toast, 0.0134, 0.0134, 0.0133,0.0134, 0.0134, 0.0133, 0.0133,0.0133
MultiSource/Benchmarks/mediabench/jpeg/jpeg-6a/cjpeg, 0.0043, 0.0043, 0.0043,0.0043, 0.0044, 0.0045, 0.0044,0.0044
MultiSource/Benchmarks/mediabench/mpeg2/mpeg2dec/mpeg2decode, 0.0131, 0.0130, 0.0130,0.013, 0.0148, 0.0131, 0.0130,0.0131
MultiSource/Benchmarks/nbench/nbench, 1.1320, 1.1316, 1.1319,1.1319, 1.1225, 1.1206, 1.1207,1.1207
MultiSource/Benchmarks/sim/sim, 2.2894, 2.2891, 2.2900,2.2894, 2.2895, 2.2897, 2.2894,2.2895
MultiSource/Benchmarks/tramp3d-v4/tramp3d-v4, 0.2186, 0.2186, 0.2182,0.2186, 0.2180, 0.2185, 0.2182,0.2182
SingleSource/Benchmarks/Adobe-C++/functionobjects, 2.6860, 2.6898, 2.6851,2.686, 2.6920, 2.6919, 2.6907,2.6919
SingleSource/Benchmarks/Adobe-C++/loop_unroll, 1.5799, 1.5843, 1.5817,1.5817, 1.5833, 1.5781, 1.5810,1.581
SingleSource/Benchmarks/Adobe-C++/simple_types_constant_folding, 0.5917, 0.5913, 0.5913,0.5913, 0.5913, 0.5913, 0.5912,0.5913
SingleSource/Benchmarks/Adobe-C++/simple_types_loop_invariant, 1.4178, 1.4183, 1.4176,1.4178, 1.4187, 1.4181, 1.4179,1.4181
SingleSource/Benchmarks/Adobe-C++/stepanov_abstraction, 3.7945, 3.7950, 3.7951,3.795, 3.7836, 3.7840, 3.7835,3.7836
SingleSource/Benchmarks/Adobe-C++/stepanov_vector, 2.0524, 2.0526, 2.0526,2.0526, 2.0257, 2.0263, 2.0263,2.0263
SingleSource/Benchmarks/BenchmarkGame/Large/fasta, 0.5744, 0.5743, 0.5750,0.5744, 0.5746, 0.5744, 0.5741,0.5744
SingleSource/Benchmarks/BenchmarkGame/fannkuch, 1.8612, 1.8601, 1.8592,1.8601, 1.8608, 1.8600, 1.8609,1.8608
SingleSource/Benchmarks/BenchmarkGame/n-body, 1.2217, 1.2218, 1.2217,1.2217, 1.2217, 1.2218, 1.2217,1.2217
SingleSource/Benchmarks/BenchmarkGame/nsieve-bits, 0.5228, 0.5235, 0.5216,0.5228, 0.5263, 0.5240, 0.5205,0.524
SingleSource/Benchmarks/BenchmarkGame/partialsums, 0.5059, 0.5060, 0.5059,0.5059, 0.5058, 0.5059, 0.5059,0.5059
SingleSource/Benchmarks/BenchmarkGame/puzzle, 0.1187, 0.1176, 0.1166,0.1176, 0.1163, 0.1171, 0.1158,0.1163
SingleSource/Benchmarks/BenchmarkGame/recursive, 0.6267, 0.6282, 0.6266,0.6267, 0.6348, 0.6267, 0.6288,0.6288
SingleSource/Benchmarks/BenchmarkGame/spectral-norm, 0.8691, 0.8691, 0.8690,0.8691, 0.8691, 0.8691, 0.8691,0.8691
SingleSource/Benchmarks/CoyoteBench/almabench,11.2317,11.2324,11.2310,11.2317,11.2386,11.2387,11.2385,11.2386
SingleSource/Benchmarks/CoyoteBench/fftbench, 0.7203, 0.7197, 0.7074,0.7197, 0.7052, 0.7114, 0.7099,0.7099
SingleSource/Benchmarks/CoyoteBench/huffbench, 8.0678, 8.0589, 8.0562,8.0589, 8.0318, 8.0249, 8.0448,8.0318
SingleSource/Benchmarks/CoyoteBench/lpbench, 2.8588, 2.8720, 2.7521,2.8588, 2.7589, 2.7592, 2.7630,2.7592
SingleSource/Benchmarks/Dhrystone/dry, 0.2711, 0.2711, 0.2710,0.2711, 0.2710, 0.2710, 0.2710,0.271
SingleSource/Benchmarks/Dhrystone/fldry, 0.3251, 0.3251, 0.3251,0.3251, 0.3251, 0.3251, 0.3251,0.3251
SingleSource/Benchmarks/Linpack/linpack-pc, 1.1126, 1.1048, 1.1042,1.1048, 1.1060, 1.1048, 1.1047,1.1048
SingleSource/Benchmarks/McGill/chomp, 1.1065, 1.1047, 1.1099,1.1065, 1.1037, 1.1086, 1.1103,1.1086
SingleSource/Benchmarks/McGill/misr, 0.0902, 0.0902, 0.0902,0.0902, 0.0902, 0.0902, 0.0902,0.0902
SingleSource/Benchmarks/McGill/queens, 1.5580, 1.5580, 1.5588,1.558, 1.5586, 1.5579, 1.5583,1.5583
SingleSource/Benchmarks/Misc-C++-EH/spirit, 2.3143, 2.3139, 2.3141,2.3141, 2.3329, 2.3316, 2.3318,2.3318
SingleSource/Benchmarks/Misc-C++/Large/ray, 2.7917, 2.7918, 2.7917,2.7917, 2.7947, 2.7919, 2.7919,2.7919
SingleSource/Benchmarks/Misc-C++/Large/sphereflake, 4.9901, 4.9899, 4.9896,4.9899, 4.9898, 4.9900, 4.9898,4.9898
SingleSource/Benchmarks/Misc-C++/bigfib, 0.1721, 0.1725, 0.1722,0.1722, 0.1719, 0.1721, 0.1721,0.1721
SingleSource/Benchmarks/Misc-C++/mandel-text, 1.4325, 1.4301, 1.4333,1.4325, 1.4286, 1.4309, 1.4296,1.4296
SingleSource/Benchmarks/Misc-C++/oopack_v1p8, 0.1441, 0.1441, 0.1441,0.1441, 0.1441, 0.1441, 0.1441,0.1441
SingleSource/Benchmarks/Misc-C++/stepanov_container, 3.5665, 3.5723, 3.5694,3.5694, 3.5657, 3.5593, 3.5609,3.5609
SingleSource/Benchmarks/Misc-C++/stepanov_v1p2, 7.0320, 7.0319, 7.0316,7.0319, 7.0314, 7.0317, 7.0314,7.0314
SingleSource/Benchmarks/Misc/ReedSolomon, 2.7858, 2.7858, 2.7859,2.7858, 2.6824, 2.6819, 2.6845,2.6824
SingleSource/Benchmarks/Misc/dt, 0.5933, 0.5933, 0.5933,0.5933, 0.5933, 0.5933, 0.5933,0.5933
SingleSource/Benchmarks/Misc/evalloop, 0.3260, 0.3270, 0.3253,0.326, 0.3267, 0.3256, 0.3253,0.3256
SingleSource/Benchmarks/Misc/fbench, 1.5246, 1.5246, 1.5245,1.5246, 1.5243, 1.5246, 1.5245,1.5245
SingleSource/Benchmarks/Misc/ffbench, 0.5095, 0.5105, 0.5108,0.5105, 0.5131, 0.5410, 0.5094,0.5131
SingleSource/Benchmarks/Misc/flops, 9.3876, 9.4579, 9.4755,9.4579, 9.3914, 9.4763, 9.4766,9.4763
SingleSource/Benchmarks/Misc/flops-1, 3.1880, 3.1879, 3.1007,3.1879, 3.1886, 3.1885, 3.1880,3.1885
SingleSource/Benchmarks/Misc/flops-2, 0.7674, 0.7674, 0.7673,0.7674, 0.7674, 0.7674, 0.7673,0.7674
SingleSource/Benchmarks/Misc/flops-3, 4.8160, 4.8160, 4.8158,4.816, 4.8159, 4.8161, 4.8159,4.8159
SingleSource/Benchmarks/Misc/flops-4, 2.0705, 2.0704, 2.0704,2.0704, 2.0704, 2.0705, 2.0704,2.0704
SingleSource/Benchmarks/Misc/flops-5, 3.8040, 3.8040, 3.8038,3.804, 3.8039, 3.8041, 3.8039,3.8039
SingleSource/Benchmarks/Misc/flops-6, 3.0423, 3.0423, 3.0422,3.0423, 3.0422, 3.0424, 3.0423,3.0423
SingleSource/Benchmarks/Misc/flops-7, 1.4146, 1.4147, 1.4146,1.4146, 1.4146, 1.4147, 1.4146,1.4146
SingleSource/Benchmarks/Misc/flops-8, 2.5351, 2.5773, 2.5772,2.5772, 2.5773, 2.5774, 2.5773,2.5773
SingleSource/Benchmarks/Misc/fp-convert, 2.3401, 2.3401, 2.3400,2.3401, 2.3400, 2.3401, 2.3401,2.3401
SingleSource/Benchmarks/Misc/himenobmtxpa, 0.4918, 0.4970, 0.4939,0.4939, 0.4975, 0.5017, 0.4973,0.4975
SingleSource/Benchmarks/Misc/lowercase, 0.0007, 0.0007, 0.0007,0.0007, 0.0007, 0.0007, 0.0007,0.0007
SingleSource/Benchmarks/Misc/mandel, 0.7417, 0.7417, 0.7417,0.7417, 0.7417, 0.7417, 0.7417,0.7417
SingleSource/Benchmarks/Misc/mandel-2, 1.1369, 1.1370, 1.1369,1.1369, 1.1369, 1.1370, 1.1369,1.1369
SingleSource/Benchmarks/Misc/matmul_f64_4x4, 1.1523, 1.1523, 1.1522,1.1523, 1.1523, 1.1523, 1.1523,1.1523
SingleSource/Benchmarks/Misc/oourafft, 5.3530, 5.3534, 5.3527,5.353, 5.3530, 5.3553, 5.3529,5.353
SingleSource/Benchmarks/Misc/perlin, 3.4525, 3.4529, 3.4527,3.4527, 3.4528, 3.4528, 3.4526,3.4528
SingleSource/Benchmarks/Misc/pi, 0.6176, 0.6176, 0.6176,0.6176, 0.6176, 0.6176, 0.6176,0.6176
SingleSource/Benchmarks/Misc/revertBits, 0.2932, 0.2931, 0.2931,0.2931, 0.2931, 0.2931, 0.2931,0.2931
SingleSource/Benchmarks/Misc/richards_benchmark, 0.4421, 0.4423, 0.4422,0.4422, 0.4423, 0.4427, 0.4421,0.4423
SingleSource/Benchmarks/Misc/salsa20, 4.1086, 4.1086, 4.1083,4.1086, 4.1085, 4.1088, 3.9639,4.1085
SingleSource/Benchmarks/Misc/whetstone, 0.9131, 0.9108, 0.9063,0.9108, 0.9132, 0.9109, 0.9040,0.9109
SingleSource/Benchmarks/Polybench/datamining/correlation/correlation, 1.7178, 1.7117, 1.7098,1.7117, 1.7135, 1.7135, 1.7139,1.7135
SingleSource/Benchmarks/Polybench/datamining/covariance/covariance, 1.7008, 1.7026, 1.7014,1.7014, 1.7035, 1.7027, 1.7044,1.7035
SingleSource/Benchmarks/Polybench/linear-algebra/kernels/atax/atax, 0.1556, 0.1557, 0.1552,0.1556, 0.1553, 0.1552, 0.1552,0.1552
SingleSource/Benchmarks/Polybench/linear-algebra/kernels/bicg/bicg, 0.1937, 0.1936, 0.1933,0.1936, 0.1933, 0.1934, 0.1933,0.1933
SingleSource/Benchmarks/Polybench/linear-algebra/kernels/cholesky/cholesky, 0.4287, 0.4273, 0.4231,0.4273, 0.4256, 0.4256, 0.4257,0.4256
SingleSource/Benchmarks/Polybench/linear-algebra/kernels/doitgen/doitgen, 0.6962, 0.6952, 0.6985,0.6962, 0.6957, 0.6956, 0.6955,0.6956
SingleSource/Benchmarks/Polybench/linear-algebra/kernels/gemver/gemver, 0.3108, 0.3150, 0.3093,0.3108, 0.3135, 0.3138, 0.3140,0.3138
SingleSource/Benchmarks/Polybench/linear-algebra/kernels/gesummv/gesummv, 0.2769, 0.2812, 0.2804,0.2804, 0.2804, 0.2805, 0.2804,0.2804
SingleSource/Benchmarks/Polybench/linear-algebra/kernels/mvt/mvt, 0.2305, 0.2300, 0.2302,0.2302, 0.2296, 0.2299, 0.2298,0.2298
SingleSource/Benchmarks/Polybench/linear-algebra/kernels/symm/symm,24.4596,23.3153,23.5743,23.5743,23.5180,23.0409,23.9706,23.518
SingleSource/Benchmarks/Polybench/linear-algebra/kernels/syr2k/syr2k, 8.2004, 8.2007, 8.1992,8.2004, 8.2002, 8.2006, 8.2001,8.2002
SingleSource/Benchmarks/Polybench/linear-algebra/kernels/syrk/syrk, 4.1171, 4.1172, 4.1166,4.1171, 4.1173, 4.1172, 3.9017,4.1172
SingleSource/Benchmarks/Polybench/linear-algebra/kernels/trisolv/trisolv, 0.1589, 0.1588, 0.1585,0.1588, 0.1585, 0.1585, 0.1585,0.1585
SingleSource/Benchmarks/Polybench/linear-algebra/kernels/trmm/trmm, 2.0378, 2.0353, 2.1396,2.0378, 2.1332, 2.1370, 2.1363,2.1363
SingleSource/Benchmarks/Polybench/linear-algebra/solvers/durbin/durbin, 0.3977, 0.3972, 0.3951,0.3972, 0.3852, 0.3874, 0.3881,0.3874
SingleSource/Benchmarks/Polybench/linear-algebra/solvers/dynprog/dynprog, 0.2499, 0.2500, 0.2499,0.2499, 0.2499, 0.2518, 0.2502,0.2502
SingleSource/Benchmarks/Polybench/linear-algebra/solvers/gramschmidt/gramschmidt, 2.2355, 2.1939, 1.8483,2.1939, 2.0913, 2.4270, 2.2356,2.2356
SingleSource/Benchmarks/Polybench/linear-algebra/solvers/lu/lu, 0.0019, 0.0019, 0.0019,0.0019, 0.0019, 0.0019, 0.0019,0.0019
SingleSource/Benchmarks/Polybench/medley/floyd-warshall/floyd-warshall, 5.3723, 5.3727, 5.3769,5.3727, 5.3775, 5.3775, 5.3757,5.3775
SingleSource/Benchmarks/Polybench/medley/reg_detect/reg_detect, 0.0138, 0.0138, 0.0138,0.0138, 0.0138, 0.0138, 0.0138,0.0138
SingleSource/Benchmarks/Polybench/stencils/adi/adi, 2.5232, 2.5204, 2.5290,2.5232, 2.5214, 2.5228, 2.5220,2.522
SingleSource/Benchmarks/Polybench/stencils/fdtd-2d/fdtd-2d, 0.5641, 0.5644, 0.5582,0.5641, 0.5590, 0.5588, 0.5625,0.559
SingleSource/Benchmarks/Polybench/stencils/fdtd-apml/fdtd-apml, 0.6490, 0.6482, 0.6510,0.649, 0.6469, 0.6475, 0.6469,0.6469
SingleSource/Benchmarks/Polybench/stencils/jacobi-1d-imper/jacobi-1d-imper, 0.0032, 0.0032, 0.0032,0.0032, 0.0032, 0.0032, 0.0032,0.0032
SingleSource/Benchmarks/Polybench/stencils/jacobi-2d-imper/jacobi-2d-imper, 0.1665, 0.1665, 0.1658,0.1665, 0.1655, 0.1655, 0.1654,0.1655
SingleSource/Benchmarks/Polybench/stencils/seidel-2d/seidel-2d, 0.5867, 0.5867, 0.5867,0.5867, 0.5866, 0.5868, 0.5867,0.5867
SingleSource/Benchmarks/Shootout-C++/EH/except, 0.1092, 0.1096, 0.1092,0.1092, 0.1081, 0.1092, 0.1079,0.1081
SingleSource/Benchmarks/Shootout-C++/ackermann, 0.5847, 0.5846, 0.5846,0.5846, 0.5848, 0.5847, 0.5846,0.5847
SingleSource/Benchmarks/Shootout-C++/ary, 0.0207, 0.0206, 0.0200,0.0206, 0.0200, 0.0200, 0.0200,0.02
SingleSource/Benchmarks/Shootout-C++/ary2, 0.0206, 0.0205, 0.0201,0.0205, 0.0201, 0.0201, 0.0200,0.0201
SingleSource/Benchmarks/Shootout-C++/ary3, 0.9856, 0.9613, 0.9624,0.9624, 0.9577, 0.9487, 0.9633,0.9577
SingleSource/Benchmarks/Shootout-C++/fibo, 1.3168, 1.3147, 1.3151,1.3151, 1.3159, 1.3138, 1.3142,1.3142
SingleSource/Benchmarks/Shootout-C++/hash, 0.2799, 0.2792, 0.2800,0.2799, 0.2798, 0.2819, 0.2800,0.28
SingleSource/Benchmarks/Shootout-C++/hash2, 1.5322, 1.5343, 1.5337,1.5337, 1.5501, 1.5503, 1.5502,1.5502
SingleSource/Benchmarks/Shootout-C++/heapsort, 2.3329, 2.3263, 2.3291,2.3291, 2.3312, 2.3287, 2.3358,2.3312
SingleSource/Benchmarks/Shootout-C++/lists, 2.5684, 2.5716, 2.5701,2.5701, 2.5730, 2.5794, 2.5721,2.573
SingleSource/Benchmarks/Shootout-C++/lists1, 0.1195, 0.1207, 0.1209,0.1207, 0.1217, 0.1203, 0.1216,0.1216
SingleSource/Benchmarks/Shootout-C++/matrix, 1.0008, 1.0009, 1.0007,1.0008, 1.0009, 1.0875, 1.0007,1.0009
SingleSource/Benchmarks/Shootout-C++/methcall, 3.0692, 3.0721, 3.0690,3.0692, 3.0691, 3.0692, 3.0691,3.0691
SingleSource/Benchmarks/Shootout-C++/moments, 0.0488, 0.0488, 0.0480,0.0488, 0.0536, 0.0537, 0.0536,0.0536
SingleSource/Benchmarks/Shootout-C++/nestedloop, 0.0007, 0.0007, 0.0007,0.0007, 0.0007, 0.0007, 0.0007,0.0007
SingleSource/Benchmarks/Shootout-C++/objinst, 0.0007, 0.0007, 0.0007,0.0007, 0.0007, 0.0007, 0.0007,0.0007
SingleSource/Benchmarks/Shootout-C++/random, 1.5524, 1.5524, 1.5523,1.5524, 1.5524, 1.5524, 1.5524,1.5524
SingleSource/Benchmarks/Shootout-C++/sieve, 1.2623, 1.0947, 1.2002,1.2002, 1.1186, 1.2076, 1.1033,1.1186
SingleSource/Benchmarks/Shootout-C++/strcat, 0.0387, 0.0387, 0.0379,0.0387, 0.0379, 0.0379, 0.0379,0.0379
SingleSource/Benchmarks/Shootout/ackermann, 0.0030, 0.0030, 0.0030,0.003, 0.0030, 0.0030, 0.0030,0.003
SingleSource/Benchmarks/Shootout/ary3, 0.9815, 0.9671, 0.9819,0.9815, 0.9767, 0.9645, 0.9742,0.9742
SingleSource/Benchmarks/Shootout/fib2, 1.3244, 1.3149, 1.3127,1.3149, 1.3147, 1.3151, 1.3114,1.3147
SingleSource/Benchmarks/Shootout/hash, 2.5617, 2.5576, 2.5642,2.5617, 2.6038, 2.5590, 2.5632,2.5632
SingleSource/Benchmarks/Shootout/heapsort, 2.3296, 2.3283, 2.3257,2.3283, 2.3292, 2.3315, 2.3308,2.3308
SingleSource/Benchmarks/Shootout/lists, 3.6624, 3.6579, 3.6620,3.662, 3.6632, 3.6612, 3.6597,3.6612
SingleSource/Benchmarks/Shootout/matrix, 0.9419, 0.9416, 0.9409,0.9416, 0.9503, 0.9415, 0.9412,0.9415
SingleSource/Benchmarks/Shootout/methcall, 2.9149, 2.9147, 2.9145,2.9147, 2.9151, 2.9148, 2.9148,2.9148
SingleSource/Benchmarks/Shootout/nestedloop, 0.0007, 0.0007, 0.0007,0.0007, 0.0007, 0.0007, 0.0007,0.0007
SingleSource/Benchmarks/Shootout/objinst, 0.0007, 0.0007, 0.0007,0.0007, 0.0007, 0.0007, 0.0007,0.0007
SingleSource/Benchmarks/Shootout/random, 1.5523, 1.5523, 1.5523,1.5523, 1.5523, 1.5524, 1.5523,1.5523
SingleSource/Benchmarks/Shootout/sieve, 3.0872, 3.0875, 3.0873,3.0873, 3.3908, 3.3888, 3.3881,3.3888
SingleSource/Benchmarks/Shootout/strcat, 0.0982, 0.0981, 0.0979,0.0981, 0.0979, 0.0980, 0.0979,0.0979
SingleSource/Benchmarks/SmallPT/smallpt, 6.7150, 6.7178, 6.7178,6.7178, 6.7006, 6.7173, 6.7054,6.7054
SingleSource/Benchmarks/Stanford/Bubblesort, 0.0140, 0.0140, 0.0140,0.014, 0.0140, 0.0141, 0.0140,0.014
SingleSource/Benchmarks/Stanford/FloatMM, 0.1790, 0.1790, 0.1789,0.179, 0.1790, 0.1789, 0.1790,0.179
SingleSource/Benchmarks/Stanford/Oscar, 0.0029, 0.0029, 0.0029,0.0029, 0.0029, 0.0029, 0.0029,0.0029
SingleSource/Benchmarks/Stanford/Perm, 0.0130, 0.0130, 0.0130,0.013, 0.0130, 0.0130, 0.0130,0.013
SingleSource/Benchmarks/Stanford/Puzzle, 0.0706, 0.0706, 0.0706,0.0706, 0.0707, 0.0706, 0.0707,0.0707
SingleSource/Benchmarks/Stanford/Queens, 0.0066, 0.0065, 0.0065,0.0065, 0.0064, 0.0065, 0.0064,0.0064
SingleSource/Benchmarks/Stanford/Quicksort, 0.0269, 0.0269, 0.0269,0.0269, 0.0269, 0.0270, 0.0269,0.0269
SingleSource/Benchmarks/Stanford/RealMM, 0.0013, 0.0013, 0.0013,0.0013, 0.0013, 0.0013, 0.0013,0.0013
SingleSource/Benchmarks/Stanford/Towers, 0.0074, 0.0074, 0.0074,0.0074, 0.0074, 0.0074, 0.0074,0.0074
SingleSource/Benchmarks/Stanford/Treesort, 0.0483, 0.0483, 0.0483,0.0483, 0.0492, 0.0485, 0.0485,0.0485
SingleSource/Regression/C/2004-08-12-InlinerAndAllocas, 0.0012, 0.0012, 0.0012,0.0012, 0.0012, 0.0012, 0.0012,0.0012
SingleSource/Regression/C/uint64_to_float, 0.2193, 0.2193, 0.2193,0.2193, 0.2193, 0.2193, 0.2193,0.2193
Total elapsed time,-,-,-,544.4181999999998,-,-,-,544.6337000000003
Total failure,-,-,-,0,-,-,-,0
