Benchmarks,/mnt/freezedisk/llvm-intptr-base-5.0-release/bin/clang,/mnt/freezedisk/llvm-intptr-base-5.0-release/bin/clang,/mnt/freezedisk/llvm-intptr-base-5.0-release/bin/clang,median,/mnt/freezedisk/llvm-intptr-insts-opt-noprov-noaa-5.0-release/bin/clang,/mnt/freezedisk/llvm-intptr-insts-opt-noprov-noaa-5.0-release/bin/clang,/mnt/freezedisk/llvm-intptr-insts-opt-noprov-noaa-5.0-release/bin/clang,median
MultiSource/Applications/ALAC/decode/alacconvert-decode, 0.9370, 0.9344, 0.9263,0.9344, 0.9307, 0.9347, 0.9377,0.9347
MultiSource/Applications/ALAC/encode/alacconvert-encode, 0.9228, 0.9217, 0.9217,0.9217, 0.9245, 0.9238, 0.9249,0.9245
MultiSource/Applications/ClamAV/clamscan,14.2951,14.2419,14.2360,14.2419,14.2365,14.1758,14.2136,14.2136
MultiSource/Applications/JM/ldecod/ldecod, 6.2325, 6.1990, 6.2236,6.2236, 6.2319, 6.2309, 6.2249,6.2309
MultiSource/Applications/JM/lencod/lencod,14.6467,14.6061,14.6073,14.6073,14.6205,14.6046,14.6105,14.6105
MultiSource/Applications/SIBsim4/SIBsim4, 1.1450, 1.1357, 1.1353,1.1357, 1.1335, 1.1317, 1.1340,1.1335
MultiSource/Applications/SPASS/SPASS,12.0835,12.0533,12.0596,12.0596,12.0146,12.0089,12.0080,12.0089
MultiSource/Applications/aha/aha, 0.1052, 0.1009, 0.1071,0.1052, 0.1047, 0.0990, 0.1063,0.1047
MultiSource/Applications/d/make_dparser, 2.5743, 2.5723, 2.5714,2.5723, 2.5619, 2.5585, 2.5607,2.5607
MultiSource/Applications/hbd/hbd, 1.1695, 1.1680, 1.1594,1.168, 1.1698, 1.1650, 1.1623,1.165
MultiSource/Applications/hexxagon/hexxagon, 0.6561, 0.6542, 0.6532,0.6542, 0.6568, 0.6550, 0.6555,0.6555
MultiSource/Applications/kimwitu++/kc,10.9927,11.0091,11.0028,11.0028,11.0511,10.9842,10.9843,10.9843
MultiSource/Applications/lambda-0.1.3/lambda, 0.5751, 0.5442, 0.5447,0.5447, 0.5651, 0.5442, 0.5795,0.5651
MultiSource/Applications/lua/lua, 3.1732, 3.1840, 3.1837,3.1837, 3.1910, 3.1865, 3.1862,3.1865
MultiSource/Applications/minisat/minisat, 0.6088, 0.6062, 0.6069,0.6069, 0.6086, 0.6103, 0.6187,0.6103
MultiSource/Applications/obsequi/Obsequi, 0.9463, 0.9447, 0.9542,0.9463, 0.9679, 0.9661, 0.9490,0.9661
MultiSource/Applications/oggenc/oggenc, 4.8008, 4.7942, 4.8008,4.8008, 4.7863, 4.7703, 4.7943,4.7863
MultiSource/Applications/sgefa/sgefa, 0.3838, 0.3831, 0.3835,0.3835, 0.3830, 0.3825, 0.3831,0.383
MultiSource/Applications/siod/siod, 1.9382, 1.9378, 1.9361,1.9378, 1.9328, 1.9243, 1.9302,1.9302
MultiSource/Applications/spiff/spiff, 0.7313, 0.7322, 0.7321,0.7321, 0.7277, 0.7282, 0.7258,0.7277
MultiSource/Applications/sqlite3/sqlite3,14.5864,14.5358,14.5662,14.5662,14.5850,14.6096,14.5795,14.585
MultiSource/Applications/viterbi/viterbi, 0.1626, 0.1621, 0.1619,0.1621, 0.1628, 0.1626, 0.1626,0.1626
MultiSource/Benchmarks/7zip/7zip-benchmark,33.4898,33.4048,33.3846,33.4048,33.5643,33.4898,33.4769,33.4898
MultiSource/Benchmarks/ASCI_Purple/SMG2000/smg2000, 5.5749, 5.5520, 5.5599,5.5599, 5.6179, 5.5749, 5.5909,5.5909
MultiSource/Benchmarks/ASC_Sequoia/AMGmk/AMGmk, 0.5854, 0.5724, 0.5803,0.5803, 0.5843, 0.5849, 0.5761,0.5843
MultiSource/Benchmarks/ASC_Sequoia/CrystalMk/CrystalMk, 0.2138, 0.2132, 0.2128,0.2132, 0.2147, 0.2142, 0.2141,0.2142
MultiSource/Benchmarks/ASC_Sequoia/IRSmk/IRSmk, 0.0989, 0.0988, 0.0987,0.0988, 0.0994, 0.0990, 0.0991,0.0991
MultiSource/Benchmarks/BitBench/drop3/drop3, 0.0418, 0.0416, 0.0416,0.0416, 0.0420, 0.0420, 0.0420,0.042
MultiSource/Benchmarks/BitBench/five11/five11, 0.0525, 0.0524, 0.0524,0.0524, 0.0526, 0.0526, 0.0525,0.0526
MultiSource/Benchmarks/BitBench/uudecode/uudecode, 0.0424, 0.0423, 0.0423,0.0423, 0.0426, 0.0423, 0.0423,0.0423
MultiSource/Benchmarks/BitBench/uuencode/uuencode, 0.0417, 0.0415, 0.0416,0.0416, 0.0419, 0.0418, 0.0417,0.0418
MultiSource/Benchmarks/Bullet/bullet,22.8372,22.7590,22.7517,22.759,22.9239,22.7799,22.7863,22.7863
MultiSource/Benchmarks/DOE-ProxyApps-C++/CLAMR/CLAMR,17.8316,17.8124,17.8341,17.8316,17.6520,17.6315,17.6099,17.6315
MultiSource/Benchmarks/DOE-ProxyApps-C++/HPCCG/HPCCG, 1.3859, 1.3822, 1.3817,1.3822, 1.3850, 1.3828, 1.3836,1.3836
MultiSource/Benchmarks/DOE-ProxyApps-C++/PENNANT/PENNANT, 4.0365, 4.0352, 4.0309,4.0352, 4.0317, 4.0270, 4.0227,4.027
MultiSource/Benchmarks/DOE-ProxyApps-C++/miniFE/miniFE, 2.5496, 2.5471, 2.5441,2.5471, 2.5282, 2.5303, 2.5279,2.5282
MultiSource/Benchmarks/DOE-ProxyApps-C/Pathfinder/PathFinder, 0.7929, 0.7981, 0.7998,0.7981, 0.7985, 0.8003, 0.8021,0.8003
MultiSource/Benchmarks/DOE-ProxyApps-C/RSBench/rsbench, 0.3863, 0.3921, 0.3898,0.3898, 0.3894, 0.3934, 0.3914,0.3914
MultiSource/Benchmarks/DOE-ProxyApps-C/SimpleMOC/SimpleMOC, 0.8445, 0.8425, 0.8423,0.8425, 0.8485, 0.8475, 0.8467,0.8475
MultiSource/Benchmarks/DOE-ProxyApps-C/XSBench/XSBench, 0.3398, 0.3393, 0.3391,0.3393, 0.3421, 0.3415, 0.3412,0.3415
MultiSource/Benchmarks/DOE-ProxyApps-C/miniAMR/miniAMR, 1.3200, 1.3176, 1.3168,1.3176, 1.3210, 1.3184, 1.3193,1.3193
MultiSource/Benchmarks/DOE-ProxyApps-C/miniGMG/miniGMG, 0.9592, 0.9570, 0.9572,0.9572, 0.9653, 0.9591, 0.9601,0.9601
MultiSource/Benchmarks/Fhourstones-3.1/fhourstones3.1, 0.1148, 0.1146, 0.1146,0.1146, 0.1154, 0.1152, 0.1150,0.1152
MultiSource/Benchmarks/Fhourstones/fhourstones, 0.1558, 0.1556, 0.1554,0.1556, 0.1556, 0.1555, 0.1557,0.1556
MultiSource/Benchmarks/FreeBench/analyzer/analyzer, 0.2302, 0.2296, 0.2294,0.2296, 0.3983, 0.2302, 0.2303,0.2303
MultiSource/Benchmarks/FreeBench/distray/distray, 0.0920, 0.0917, 0.0918,0.0918, 0.1127, 0.0916, 0.0918,0.0918
MultiSource/Benchmarks/FreeBench/fourinarow/fourinarow, 0.3345, 0.3346, 0.3345,0.3345, 0.3731, 0.3333, 0.3332,0.3333
MultiSource/Benchmarks/FreeBench/mason/mason, 0.0484, 0.0483, 0.0484,0.0484, 0.0895, 0.0483, 0.0484,0.0484
MultiSource/Benchmarks/FreeBench/neural/neural, 0.1742, 0.1742, 0.1740,0.1742, 0.1967, 0.1740, 0.1743,0.1743
MultiSource/Benchmarks/FreeBench/pcompress2/pcompress2, 0.2409, 0.2419, 0.2404,0.2409, 0.4512, 0.2483, 0.2492,0.2492
MultiSource/Benchmarks/FreeBench/pifft/pifft, 0.9146, 0.9150, 0.9135,0.9146, 0.9717, 0.9154, 0.9166,0.9166
MultiSource/Benchmarks/MallocBench/cfrac/cfrac, 0.8400, 0.8397, 0.8343,0.8397, 1.5812, 0.8433, 0.8373,0.8433
MultiSource/Benchmarks/MallocBench/espresso/espresso, 4.5268, 4.5040, 4.4958,4.504, 5.9670, 4.5054, 4.5026,4.5054
MultiSource/Benchmarks/MallocBench/gs/gs, 3.6654, 3.6392, 3.6394,3.6394, 6.8145, 3.6438, 3.6476,3.6476
MultiSource/Benchmarks/McCat/01-qbsort/qbsort, 0.0957, 0.0966, 0.0955,0.0957, 0.0963, 0.1013, 0.0986,0.0986
MultiSource/Benchmarks/McCat/03-testtrie/testtrie, 0.0919, 0.0869, 0.0868,0.0869, 0.1015, 0.0873, 0.0872,0.0873
MultiSource/Benchmarks/McCat/04-bisect/bisect, 0.1248, 0.1244, 0.1240,0.1244, 0.1250, 0.1251, 0.1251,0.1251
MultiSource/Benchmarks/McCat/05-eks/eks, 0.5084, 0.5074, 0.5069,0.5074, 0.5082, 0.5084, 0.5087,0.5084
MultiSource/Benchmarks/McCat/08-main/main, 0.2316, 0.2314, 0.2312,0.2314, 0.2358, 0.2357, 0.2358,0.2358
MultiSource/Benchmarks/McCat/09-vor/vor, 0.2652, 0.2647, 0.2645,0.2647, 0.2630, 0.2628, 0.2628,0.2628
MultiSource/Benchmarks/McCat/12-IOtest/iotest, 0.1003, 0.0886, 0.0886,0.0886, 0.0992, 0.0891, 0.0890,0.0891
MultiSource/Benchmarks/McCat/17-bintr/bintr, 0.0670, 0.0668, 0.0668,0.0668, 0.0670, 0.0672, 0.0673,0.0672
MultiSource/Benchmarks/McCat/18-imp/imp, 0.3349, 0.3218, 0.3212,0.3218, 0.3291, 0.3223, 0.3220,0.3223
MultiSource/Benchmarks/MiBench/automotive-basicmath/automotive-basicmath, 0.1392, 0.1460, 0.1388,0.1392, 0.1398, 0.1397, 0.1399,0.1398
MultiSource/Benchmarks/MiBench/automotive-bitcount/automotive-bitcount, 0.2454, 0.2442, 0.2439,0.2442, 0.2472, 0.2457, 0.2458,0.2458
MultiSource/Benchmarks/MiBench/automotive-susan/automotive-susan, 0.6331, 0.6412, 0.6329,0.6331, 0.6377, 0.6411, 0.6371,0.6377
MultiSource/Benchmarks/MiBench/consumer-jpeg/consumer-jpeg, 4.3497, 4.3373, 4.3388,4.3388, 4.3453, 4.3365, 4.3374,4.3374
MultiSource/Benchmarks/MiBench/consumer-lame/consumer-lame, 3.8839, 3.8814, 3.8783,3.8814, 3.8969, 3.8875, 3.8886,3.8886
MultiSource/Benchmarks/MiBench/consumer-typeset/consumer-typeset, 9.7232, 9.7103, 9.7008,9.7103, 9.6814, 9.6138, 9.6253,9.6253
MultiSource/Benchmarks/MiBench/network-dijkstra/network-dijkstra, 0.0408, 0.0407, 0.0408,0.0408, 0.0408, 0.0406, 0.0407,0.0407
MultiSource/Benchmarks/MiBench/network-patricia/network-patricia, 0.0807, 0.0852, 0.0861,0.0852, 0.0899, 0.0798, 0.0825,0.0825
MultiSource/Benchmarks/MiBench/security-rijndael/security-rijndael, 0.3928, 0.3934, 0.3933,0.3933, 0.3942, 0.3926, 0.3916,0.3926
MultiSource/Benchmarks/MiBench/security-sha/security-sha, 0.1147, 0.1143, 0.1141,0.1143, 0.1150, 0.1147, 0.1147,0.1147
MultiSource/Benchmarks/MiBench/telecomm-CRC32/telecomm-CRC32, 0.0339, 0.0337, 0.0338,0.0338, 0.0341, 0.0340, 0.0340,0.034
MultiSource/Benchmarks/MiBench/telecomm-FFT/telecomm-fft, 0.1359, 0.1354, 0.1352,0.1354, 0.1370, 0.1360, 0.1363,0.1363
MultiSource/Benchmarks/MiBench/telecomm-adpcm/telecomm-adpcm, 0.0615, 0.0529, 0.0530,0.053, 0.0534, 0.0532, 0.0533,0.0533
MultiSource/Benchmarks/MiBench/telecomm-gsm/telecomm-gsm, 1.0472, 1.0089, 1.0101,1.0101, 1.0144, 1.0065, 1.0144,1.0144
MultiSource/Benchmarks/NPB-serial/is/is, 0.0631, 0.0631, 0.0631,0.0631, 0.0634, 0.0633, 0.0633,0.0633
MultiSource/Benchmarks/Olden/bh/bh, 0.2502, 0.2498, 0.2495,0.2498, 0.2504, 0.2504, 0.2505,0.2504
MultiSource/Benchmarks/Olden/bisort/bisort, 0.0610, 0.0608, 0.0607,0.0608, 0.0612, 0.0610, 0.0612,0.0612
MultiSource/Benchmarks/Olden/em3d/em3d, 0.1699, 0.1693, 0.1692,0.1693, 0.1693, 0.1694, 0.1698,0.1694
MultiSource/Benchmarks/Olden/health/health, 0.1320, 0.1314, 0.1315,0.1315, 0.1322, 0.1322, 0.1322,0.1322
MultiSource/Benchmarks/Olden/mst/mst, 0.1169, 0.1164, 0.1164,0.1164, 0.1203, 0.1203, 0.1205,0.1203
MultiSource/Benchmarks/Olden/perimeter/perimeter, 0.0742, 0.0738, 0.0740,0.074, 0.0806, 0.0742, 0.0742,0.0742
MultiSource/Benchmarks/Olden/power/power, 0.1235, 0.1234, 0.1230,0.1234, 0.1237, 0.1236, 0.1240,0.1237
MultiSource/Benchmarks/Olden/treeadd/treeadd, 0.0521, 0.0520, 0.0518,0.052, 0.0593, 0.0523, 0.0523,0.0523
MultiSource/Benchmarks/Olden/tsp/tsp, 0.1229, 0.1226, 0.1225,0.1226, 0.1220, 0.1218, 0.1223,0.122
MultiSource/Benchmarks/Olden/voronoi/voronoi, 0.2356, 0.2350, 0.2353,0.2353, 0.3035, 0.2312, 0.2314,0.2314
MultiSource/Benchmarks/PAQ8p/paq8p, 1.8918, 1.8843, 1.8820,1.8843, 1.8844, 1.8835, 1.8871,1.8844
MultiSource/Benchmarks/Prolangs-C++/city/city, 0.9119, 0.8916, 0.8899,0.8916, 0.8939, 0.8918, 0.8912,0.8918
MultiSource/Benchmarks/Prolangs-C++/employ/employ, 0.1979, 0.1970, 0.1966,0.197, 0.1981, 0.1973, 0.1977,0.1977
MultiSource/Benchmarks/Prolangs-C++/life/life, 0.0581, 0.0581, 0.0580,0.0581, 0.0584, 0.0583, 0.0583,0.0583
MultiSource/Benchmarks/Prolangs-C++/ocean/ocean, 0.1066, 0.1062, 0.1062,0.1062, 0.1067, 0.1065, 0.1065,0.1065
MultiSource/Benchmarks/Prolangs-C++/primes/primes, 0.0239, 0.0238, 0.0238,0.0238, 0.0239, 0.0239, 0.0239,0.0239
MultiSource/Benchmarks/Prolangs-C++/simul/simul, 0.0515, 0.0515, 0.0513,0.0515, 0.0516, 0.0515, 0.0514,0.0515
MultiSource/Benchmarks/Prolangs-C/agrep/agrep, 1.3142, 1.3126, 1.3065,1.3126, 1.7486, 1.3153, 1.3136,1.3153
MultiSource/Benchmarks/Prolangs-C/bison/mybison, 1.5775, 1.5747, 1.5748,1.5748, 2.2980, 1.5736, 1.5749,1.5749
MultiSource/Benchmarks/Prolangs-C/gnugo/gnugo, 0.6965, 0.6932, 0.6931,0.6932, 1.3209, 0.6958, 0.6970,0.697
MultiSource/Benchmarks/Ptrdist/anagram/anagram, 0.0981, 0.0980, 0.0978,0.098, 0.1132, 0.0979, 0.0979,0.0979
MultiSource/Benchmarks/Ptrdist/bc/bc, 0.9904, 0.9888, 0.9884,0.9888, 1.4537, 0.9863, 0.9866,0.9866
MultiSource/Benchmarks/Ptrdist/ft/ft, 0.2010, 0.2007, 0.2001,0.2007, 0.3971, 0.2000, 0.1999,0.2
MultiSource/Benchmarks/Ptrdist/ks/ks, 0.1416, 0.1413, 0.1413,0.1413, 0.2406, 0.1411, 0.1415,0.1415
MultiSource/Benchmarks/Ptrdist/yacr2/yacr2, 0.5925, 0.5913, 0.5907,0.5913, 0.9725, 0.5917, 0.5923,0.5923
MultiSource/Benchmarks/SciMark2-C/scimark2, 0.3565, 0.3556, 0.3553,0.3556, 0.5771, 0.3569, 0.3566,0.3569
MultiSource/Benchmarks/TSVC/ControlFlow-dbl/ControlFlow-dbl, 2.1300, 2.1302, 2.1310,2.1302, 2.1305, 2.1271, 2.1280,2.128
MultiSource/Benchmarks/TSVC/ControlFlow-flt/ControlFlow-flt, 1.7962, 1.7927, 1.7932,1.7932, 1.7996, 1.7996, 1.7945,1.7996
MultiSource/Benchmarks/TSVC/ControlLoops-dbl/ControlLoops-dbl, 2.0451, 2.0411, 2.0442,2.0442, 2.0428, 2.0376, 2.0356,2.0376
MultiSource/Benchmarks/TSVC/ControlLoops-flt/ControlLoops-flt, 1.7083, 1.7045, 1.7025,1.7045, 1.6996, 1.6981, 1.7026,1.6996
MultiSource/Benchmarks/TSVC/CrossingThresholds-dbl/CrossingThresholds-dbl, 1.9994, 1.9940, 1.9915,1.994, 1.9946, 1.9915, 1.9912,1.9915
MultiSource/Benchmarks/TSVC/CrossingThresholds-flt/CrossingThresholds-flt, 1.6600, 1.6675, 1.6581,1.66, 1.6623, 1.6579, 1.6571,1.6579
MultiSource/Benchmarks/TSVC/Equivalencing-dbl/Equivalencing-dbl, 2.0117, 2.0012, 1.9984,2.0012, 2.0152, 1.9975, 2.0013,2.0013
MultiSource/Benchmarks/TSVC/Equivalencing-flt/Equivalencing-flt, 1.6660, 1.6625, 1.6861,1.666, 1.6654, 1.6573, 1.6586,1.6586
MultiSource/Benchmarks/TSVC/Expansion-dbl/Expansion-dbl, 2.0372, 2.0372, 2.0330,2.0372, 2.0462, 2.0428, 2.0404,2.0428
MultiSource/Benchmarks/TSVC/Expansion-flt/Expansion-flt, 1.7035, 1.7063, 1.7007,1.7035, 1.6987, 1.6970, 1.6964,1.697
MultiSource/Benchmarks/TSVC/GlobalDataFlow-dbl/GlobalDataFlow-dbl, 2.0255, 2.0212, 2.0244,2.0244, 2.0299, 2.0246, 2.0233,2.0246
MultiSource/Benchmarks/TSVC/GlobalDataFlow-flt/GlobalDataFlow-flt, 1.6944, 1.6946, 1.6984,1.6946, 1.6833, 1.6953, 1.6942,1.6942
MultiSource/Benchmarks/TSVC/IndirectAddressing-dbl/IndirectAddressing-dbl, 1.9824, 1.9798, 1.9784,1.9798, 1.9783, 1.9779, 1.9740,1.9779
MultiSource/Benchmarks/TSVC/IndirectAddressing-flt/IndirectAddressing-flt, 1.6366, 1.6495, 1.6444,1.6444, 1.6439, 1.6459, 1.6448,1.6448
MultiSource/Benchmarks/TSVC/InductionVariable-dbl/InductionVariable-dbl, 2.0127, 2.0101, 2.0112,2.0112, 2.0057, 2.0026, 2.0047,2.0047
MultiSource/Benchmarks/TSVC/InductionVariable-flt/InductionVariable-flt, 1.6824, 1.6706, 1.6733,1.6733, 1.6763, 1.6759, 1.6757,1.6759
MultiSource/Benchmarks/TSVC/LinearDependence-dbl/LinearDependence-dbl, 2.0272, 2.0508, 2.0547,2.0508, 2.0291, 2.0435, 2.0462,2.0435
MultiSource/Benchmarks/TSVC/LinearDependence-flt/LinearDependence-flt, 1.7255, 1.7224, 1.7243,1.7243, 1.7544, 1.7205, 1.7245,1.7245
MultiSource/Benchmarks/TSVC/LoopRerolling-dbl/LoopRerolling-dbl, 1.9658, 1.9577, 1.9544,1.9577, 1.9625, 1.9582, 1.9583,1.9583
MultiSource/Benchmarks/TSVC/LoopRerolling-flt/LoopRerolling-flt, 1.6235, 1.6204, 1.6199,1.6204, 1.6271, 1.6242, 1.6220,1.6242
MultiSource/Benchmarks/TSVC/LoopRestructuring-dbl/LoopRestructuring-dbl, 2.0079, 2.0073, 2.0062,2.0073, 2.0118, 2.0088, 2.0079,2.0088
MultiSource/Benchmarks/TSVC/LoopRestructuring-flt/LoopRestructuring-flt, 1.6723, 1.6698, 1.6758,1.6723, 1.6766, 1.6856, 1.6736,1.6766
MultiSource/Benchmarks/TSVC/NodeSplitting-dbl/NodeSplitting-dbl, 1.9768, 1.9746, 1.9817,1.9768, 1.9830, 1.9842, 1.9817,1.983
MultiSource/Benchmarks/TSVC/NodeSplitting-flt/NodeSplitting-flt, 1.6438, 1.6413, 1.6464,1.6438, 1.6417, 1.6518, 1.6492,1.6492
MultiSource/Benchmarks/TSVC/Packing-dbl/Packing-dbl, 1.9513, 1.9546, 1.9512,1.9513, 1.9491, 1.9456, 1.9453,1.9456
MultiSource/Benchmarks/TSVC/Packing-flt/Packing-flt, 1.6136, 1.6137, 1.6114,1.6136, 1.6125, 1.6084, 1.6132,1.6125
MultiSource/Benchmarks/TSVC/Recurrences-dbl/Recurrences-dbl, 1.9477, 1.9471, 1.9461,1.9471, 1.9436, 1.9444, 1.9416,1.9436
MultiSource/Benchmarks/TSVC/Recurrences-flt/Recurrences-flt, 1.6128, 1.6100, 1.6141,1.6128, 1.6191, 1.6115, 1.6146,1.6146
MultiSource/Benchmarks/TSVC/Reductions-dbl/Reductions-dbl, 2.0404, 2.0393, 2.0392,2.0393, 2.0477, 2.0463, 2.0469,2.0469
MultiSource/Benchmarks/TSVC/Reductions-flt/Reductions-flt, 1.7093, 1.7092, 1.7082,1.7092, 1.7133, 1.7130, 1.7127,1.713
MultiSource/Benchmarks/TSVC/Searching-dbl/Searching-dbl, 1.9365, 1.9356, 1.9332,1.9356, 1.9374, 1.9383, 1.9201,1.9374
MultiSource/Benchmarks/TSVC/Searching-flt/Searching-flt, 1.6070, 1.6025, 1.6006,1.6025, 1.6092, 1.5999, 1.5899,1.5999
MultiSource/Benchmarks/TSVC/StatementReordering-dbl/StatementReordering-dbl, 1.9514, 1.9492, 1.9497,1.9497, 1.9536, 1.9469, 1.9471,1.9471
MultiSource/Benchmarks/TSVC/StatementReordering-flt/StatementReordering-flt, 1.6147, 1.6125, 1.6108,1.6125, 1.6131, 1.6108, 1.6101,1.6108
MultiSource/Benchmarks/TSVC/Symbolics-dbl/Symbolics-dbl, 1.9871, 1.9866, 1.9877,1.9871, 1.9887, 1.9845, 1.9864,1.9864
MultiSource/Benchmarks/TSVC/Symbolics-flt/Symbolics-flt, 1.6441, 1.6688, 1.6585,1.6585, 1.6376, 1.6548, 1.6495,1.6495
MultiSource/Benchmarks/Trimaran/enc-3des/enc-3des, 0.2377, 0.2374, 0.2371,0.2374, 0.2372, 0.2370, 0.2367,0.237
MultiSource/Benchmarks/Trimaran/enc-md5/enc-md5, 0.1475, 0.1470, 0.1468,0.147, 0.1638, 0.1476, 0.1473,0.1476
MultiSource/Benchmarks/Trimaran/enc-pc1/enc-pc1, 0.0632, 0.0633, 0.0633,0.0633, 0.0635, 0.0634, 0.0634,0.0634
MultiSource/Benchmarks/Trimaran/enc-rc4/enc-rc4, 0.0484, 0.0484, 0.0484,0.0484, 0.0485, 0.0485, 0.0485,0.0485
MultiSource/Benchmarks/Trimaran/netbench-crc/netbench-crc, 0.0746, 0.0744, 0.0740,0.0744, 0.0750, 0.0748, 0.0748,0.0748
MultiSource/Benchmarks/Trimaran/netbench-url/netbench-url, 0.2103, 0.1999, 0.1997,0.1999, 0.2058, 0.2005, 0.1999,0.2005
MultiSource/Benchmarks/VersaBench/8b10b/8b10b, 0.0711, 0.0707, 0.0705,0.0707, 0.0714, 0.0709, 0.0711,0.0711
MultiSource/Benchmarks/VersaBench/beamformer/beamformer, 0.3055, 0.3088, 0.3054,0.3055, 0.3119, 0.3001, 0.3109,0.3109
MultiSource/Benchmarks/VersaBench/bmm/bmm, 0.0495, 0.0495, 0.0495,0.0495, 0.0498, 0.0497, 0.0496,0.0497
MultiSource/Benchmarks/VersaBench/dbms/dbms, 0.9379, 0.9244, 0.9353,0.9353, 0.9689, 0.9330, 0.9324,0.933
MultiSource/Benchmarks/VersaBench/ecbdes/ecbdes, 0.2055, 0.2052, 0.2049,0.2052, 0.2067, 0.2061, 0.2061,0.2061
MultiSource/Benchmarks/llubenchmark/llu, 0.0457, 0.0457, 0.0456,0.0457, 0.0457, 0.0458, 0.0457,0.0457
MultiSource/Benchmarks/mafft/pairlocalalign, 8.6496, 8.6451, 8.6391,8.6451, 8.6245, 8.6085, 8.6155,8.6155
MultiSource/Benchmarks/mediabench/adpcm/rawcaudio/rawcaudio, 0.0536, 0.0533, 0.0532,0.0533, 0.0537, 0.0535, 0.0535,0.0535
MultiSource/Benchmarks/mediabench/adpcm/rawdaudio/rawdaudio, 0.0533, 0.0531, 0.0531,0.0531, 0.0535, 0.0533, 0.0534,0.0534
MultiSource/Benchmarks/mediabench/g721/g721encode/encode, 0.1887, 0.1881, 0.1880,0.1881, 0.1893, 0.1882, 0.1883,0.1883
MultiSource/Benchmarks/mediabench/gsm/toast/toast, 1.0028, 1.0007, 0.9998,1.0007, 1.0065, 1.0033, 1.0048,1.0048
MultiSource/Benchmarks/mediabench/jpeg/jpeg-6a/cjpeg, 4.4156, 4.3858, 4.3929,4.3929, 4.4213, 4.3833, 4.3926,4.3926
MultiSource/Benchmarks/mediabench/mpeg2/mpeg2dec/mpeg2decode, 1.3115, 1.3087, 1.3051,1.3087, 1.3109, 1.3074, 1.3028,1.3074
MultiSource/Benchmarks/nbench/nbench, 1.1063, 1.1023, 1.1018,1.1023, 1.1062, 1.1025, 1.1054,1.1054
MultiSource/Benchmarks/sim/sim, 0.2806, 0.2806, 0.2809,0.2806, 0.2983, 0.2810, 0.2813,0.2813
MultiSource/Benchmarks/tramp3d-v4/tramp3d-v4,19.9502,19.9675,19.9702,19.9675,19.7947,19.7763,19.7679,19.7763
SingleSource/Benchmarks/Adobe-C++/functionobjects, 0.4522, 0.4528, 0.4517,0.4522, 0.4386, 0.4382, 0.4380,0.4382
SingleSource/Benchmarks/Adobe-C++/loop_unroll, 4.3081, 4.2972, 4.3084,4.3081, 4.3096, 4.2994, 4.3033,4.3033
SingleSource/Benchmarks/Adobe-C++/simple_types_constant_folding, 2.4383, 2.4285, 2.4325,2.4325, 2.4390, 2.4367, 2.4353,2.4367
SingleSource/Benchmarks/Adobe-C++/simple_types_loop_invariant, 1.9643, 1.9675, 1.9572,1.9643, 1.9696, 1.9713, 1.9699,1.9699
SingleSource/Benchmarks/Adobe-C++/stepanov_abstraction, 0.6054, 0.6057, 0.6057,0.6057, 0.5406, 0.5386, 0.5404,0.5404
SingleSource/Benchmarks/Adobe-C++/stepanov_vector, 0.7333, 0.7280, 0.7295,0.7295, 0.8366, 0.8352, 0.8366,0.8366
SingleSource/Benchmarks/BenchmarkGame/Large/fasta, 0.0503, 0.0397, 0.0397,0.0397, 0.0400, 0.0463, 0.0399,0.04
SingleSource/Benchmarks/BenchmarkGame/fannkuch, 0.0504, 0.0507, 0.0503,0.0504, 0.0504, 0.0504, 0.0504,0.0504
SingleSource/Benchmarks/BenchmarkGame/n-body, 0.0696, 0.0695, 0.0696,0.0696, 0.0699, 0.0697, 0.0698,0.0698
SingleSource/Benchmarks/BenchmarkGame/nsieve-bits, 0.0310, 0.0309, 0.0308,0.0309, 0.0310, 0.0311, 0.0310,0.031
SingleSource/Benchmarks/BenchmarkGame/partialsums, 0.0483, 0.0287, 0.0287,0.0287, 0.0289, 0.0389, 0.0288,0.0289
SingleSource/Benchmarks/BenchmarkGame/puzzle, 0.0544, 0.0542, 0.0543,0.0543, 0.0546, 0.0545, 0.0546,0.0546
SingleSource/Benchmarks/BenchmarkGame/recursive, 0.0285, 0.0252, 0.0252,0.0252, 0.0253, 0.0293, 0.0253,0.0253
SingleSource/Benchmarks/BenchmarkGame/spectral-norm, 0.0535, 0.0533, 0.0532,0.0533, 0.0535, 0.0533, 0.0535,0.0535
SingleSource/Benchmarks/CoyoteBench/almabench, 0.0652, 0.0650, 0.0650,0.065, 0.0663, 0.0662, 0.0664,0.0663
SingleSource/Benchmarks/CoyoteBench/fftbench, 0.5539, 0.5550, 0.5533,0.5539, 0.5557, 0.5618, 0.5480,0.5557
SingleSource/Benchmarks/CoyoteBench/huffbench, 0.0923, 0.0836, 0.0835,0.0836, 0.0818, 0.0819, 0.0818,0.0818
SingleSource/Benchmarks/CoyoteBench/lpbench, 0.1494, 0.1490, 0.1488,0.149, 0.1473, 0.1473, 0.1475,0.1473
SingleSource/Benchmarks/Dhrystone/dry, 0.0398, 0.0397, 0.0397,0.0397, 0.0399, 0.0399, 0.0399,0.0399
SingleSource/Benchmarks/Dhrystone/fldry, 0.0428, 0.0426, 0.0427,0.0427, 0.0432, 0.0431, 0.0431,0.0431
SingleSource/Benchmarks/Linpack/linpack-pc, 0.3050, 0.3045, 0.3042,0.3045, 0.3050, 0.3042, 0.3044,0.3044
SingleSource/Benchmarks/McGill/chomp, 0.1850, 0.1843, 0.1843,0.1843, 0.1840, 0.1843, 0.1843,0.1843
SingleSource/Benchmarks/McGill/misr, 0.0521, 0.0520, 0.0520,0.052, 0.0521, 0.0520, 0.0522,0.0521
SingleSource/Benchmarks/McGill/queens, 0.0440, 0.0435, 0.0435,0.0435, 0.0437, 0.0438, 0.0438,0.0438
SingleSource/Benchmarks/Misc-C++-EH/spirit, 3.5682, 3.5875, 3.5746,3.5746, 3.5822, 3.5452, 3.5539,3.5539
SingleSource/Benchmarks/Misc-C++/Large/ray, 0.2098, 0.2094, 0.2246,0.2098, 0.2254, 0.2109, 0.2318,0.2254
SingleSource/Benchmarks/Misc-C++/Large/sphereflake, 0.2188, 0.2204, 0.2190,0.219, 0.2191, 0.2189, 0.2188,0.2189
SingleSource/Benchmarks/Misc-C++/bigfib, 0.4583, 0.4406, 0.4404,0.4406, 0.4375, 0.4603, 0.4362,0.4375
SingleSource/Benchmarks/Misc-C++/mandel-text, 0.0231, 0.0230, 0.0230,0.023, 0.0231, 0.0230, 0.0230,0.023
SingleSource/Benchmarks/Misc-C++/oopack_v1p8, 0.1215, 0.1243, 0.1224,0.1224, 0.1277, 0.1271, 0.1262,0.1271
SingleSource/Benchmarks/Misc-C++/stepanov_container, 0.6852, 0.6800, 0.6869,0.6852, 0.6736, 0.6439, 0.6682,0.6682
SingleSource/Benchmarks/Misc-C++/stepanov_v1p2, 0.1703, 0.1704, 0.1700,0.1703, 0.1711, 0.1705, 0.1705,0.1705
SingleSource/Benchmarks/Misc/ReedSolomon, 0.1861, 0.1859, 0.1859,0.1859, 0.1868, 0.1866, 0.1870,0.1868
SingleSource/Benchmarks/Misc/dt, 0.0313, 0.0313, 0.0312,0.0313, 0.0315, 0.0315, 0.0314,0.0315
SingleSource/Benchmarks/Misc/evalloop, 0.0352, 0.0350, 0.0351,0.0351, 0.0349, 0.0349, 0.0350,0.0349
SingleSource/Benchmarks/Misc/fbench, 0.0526, 0.0525, 0.0525,0.0525, 0.0530, 0.0529, 0.0530,0.053
SingleSource/Benchmarks/Misc/ffbench, 0.0659, 0.0658, 0.0659,0.0659, 0.0662, 0.0661, 0.0661,0.0661
SingleSource/Benchmarks/Misc/flops, 0.0758, 0.0756, 0.0756,0.0756, 0.0759, 0.0758, 0.0759,0.0759
SingleSource/Benchmarks/Misc/flops-1, 0.0260, 0.0261, 0.0260,0.026, 0.0262, 0.0262, 0.0261,0.0262
SingleSource/Benchmarks/Misc/flops-2, 0.0271, 0.0270, 0.0270,0.027, 0.0271, 0.0270, 0.0271,0.0271
SingleSource/Benchmarks/Misc/flops-3, 0.0260, 0.0259, 0.0259,0.0259, 0.0260, 0.0260, 0.0260,0.026
SingleSource/Benchmarks/Misc/flops-4, 0.0264, 0.0264, 0.0263,0.0264, 0.0265, 0.0265, 0.0265,0.0265
SingleSource/Benchmarks/Misc/flops-5, 0.0271, 0.0270, 0.0270,0.027, 0.0271, 0.0271, 0.0270,0.0271
SingleSource/Benchmarks/Misc/flops-6, 0.0271, 0.0269, 0.0269,0.0269, 0.0271, 0.0271, 0.0271,0.0271
SingleSource/Benchmarks/Misc/flops-7, 0.0259, 0.0258, 0.0257,0.0258, 0.0259, 0.0259, 0.0259,0.0259
SingleSource/Benchmarks/Misc/flops-8, 0.0272, 0.0270, 0.0269,0.027, 0.0271, 0.0271, 0.0271,0.0271
SingleSource/Benchmarks/Misc/fp-convert, 0.0290, 0.0290, 0.0289,0.029, 0.0291, 0.0290, 0.0291,0.0291
SingleSource/Benchmarks/Misc/himenobmtxpa, 0.1702, 0.1700, 0.1698,0.17, 0.1695, 0.1690, 0.1692,0.1692
SingleSource/Benchmarks/Misc/lowercase, 0.0243, 0.0241, 0.0242,0.0242, 0.0243, 0.0242, 0.0242,0.0242
SingleSource/Benchmarks/Misc/mandel, 0.0432, 0.0430, 0.0431,0.0431, 0.0432, 0.0611, 0.0431,0.0432
SingleSource/Benchmarks/Misc/mandel-2, 0.0309, 0.0308, 0.0552,0.0309, 0.0311, 0.0311, 0.0511,0.0311
SingleSource/Benchmarks/Misc/matmul_f64_4x4, 0.0273, 0.0272, 0.0272,0.0272, 0.0273, 0.0273, 0.0273,0.0273
SingleSource/Benchmarks/Misc/oourafft, 0.2087, 0.2083, 0.2262,0.2087, 0.2087, 0.2086, 0.2085,0.2086
SingleSource/Benchmarks/Misc/perlin, 0.0440, 0.0439, 0.0439,0.0439, 0.0440, 0.0439, 0.0440,0.044
SingleSource/Benchmarks/Misc/pi, 0.0201, 0.0200, 0.0199,0.02, 0.0200, 0.0200, 0.0200,0.02
SingleSource/Benchmarks/Misc/revertBits, 0.0244, 0.0243, 0.0243,0.0243, 0.0244, 0.0245, 0.0244,0.0244
SingleSource/Benchmarks/Misc/richards_benchmark, 0.0623, 0.0622, 0.0621,0.0622, 0.0623, 0.0621, 0.0623,0.0623
SingleSource/Benchmarks/Misc/salsa20, 0.0530, 0.0529, 0.0529,0.0529, 0.0531, 0.0530, 0.0532,0.0531
SingleSource/Benchmarks/Misc/whetstone, 0.0662, 0.0659, 0.0658,0.0659, 0.0662, 0.0659, 0.0661,0.0661
SingleSource/Benchmarks/Polybench/datamining/correlation/correlation, 0.0748, 0.0748, 0.0747,0.0748, 0.0756, 0.0751, 0.0753,0.0753
SingleSource/Benchmarks/Polybench/datamining/covariance/covariance, 0.0827, 0.0824, 0.0824,0.0824, 0.0826, 0.0825, 0.0825,0.0825
SingleSource/Benchmarks/Polybench/linear-algebra/kernels/atax/atax, 0.0788, 0.0788, 0.0787,0.0788, 0.0789, 0.0788, 0.0788,0.0788
SingleSource/Benchmarks/Polybench/linear-algebra/kernels/bicg/bicg, 0.0774, 0.0773, 0.0773,0.0773, 0.0772, 0.0772, 0.0772,0.0772
SingleSource/Benchmarks/Polybench/linear-algebra/kernels/cholesky/cholesky, 0.0911, 0.0908, 0.0909,0.0909, 0.0908, 0.0907, 0.0907,0.0907
SingleSource/Benchmarks/Polybench/linear-algebra/kernels/doitgen/doitgen, 0.1043, 0.0958, 0.0957,0.0958, 0.0992, 0.0960, 0.0962,0.0962
SingleSource/Benchmarks/Polybench/linear-algebra/kernels/gemver/gemver, 0.0896, 0.0893, 0.0893,0.0893, 0.0896, 0.0894, 0.0894,0.0894
SingleSource/Benchmarks/Polybench/linear-algebra/kernels/gesummv/gesummv, 0.0660, 0.0660, 0.0658,0.066, 0.0660, 0.0659, 0.0658,0.0659
SingleSource/Benchmarks/Polybench/linear-algebra/kernels/mvt/mvt, 0.0798, 0.0798, 0.0797,0.0798, 0.0798, 0.0795, 0.0796,0.0796
SingleSource/Benchmarks/Polybench/linear-algebra/kernels/symm/symm, 0.0758, 0.0757, 0.0757,0.0757, 0.0758, 0.0757, 0.0758,0.0758
SingleSource/Benchmarks/Polybench/linear-algebra/kernels/syr2k/syr2k, 0.0769, 0.0768, 0.0766,0.0768, 0.0772, 0.0769, 0.0770,0.077
SingleSource/Benchmarks/Polybench/linear-algebra/kernels/syrk/syrk, 0.0752, 0.0751, 0.0752,0.0752, 0.0751, 0.0750, 0.0750,0.075
SingleSource/Benchmarks/Polybench/linear-algebra/kernels/trisolv/trisolv, 0.0620, 0.0620, 0.0620,0.062, 0.0623, 0.0624, 0.0622,0.0623
SingleSource/Benchmarks/Polybench/linear-algebra/kernels/trmm/trmm, 0.0712, 0.0711, 0.0710,0.0711, 0.0715, 0.0713, 0.0713,0.0713
SingleSource/Benchmarks/Polybench/linear-algebra/solvers/durbin/durbin, 0.0870, 0.0869, 0.0867,0.0869, 0.0869, 0.0869, 0.0870,0.0869
SingleSource/Benchmarks/Polybench/linear-algebra/solvers/dynprog/dynprog, 0.0720, 0.0717, 0.0717,0.0717, 0.0720, 0.0718, 0.0719,0.0719
SingleSource/Benchmarks/Polybench/linear-algebra/solvers/gramschmidt/gramschmidt, 0.1010, 0.1006, 0.1007,0.1007, 0.1010, 0.1010, 0.1009,0.101
SingleSource/Benchmarks/Polybench/linear-algebra/solvers/lu/lu, 0.0882, 0.0882, 0.0881,0.0882, 0.0883, 0.0880, 0.0880,0.088
SingleSource/Benchmarks/Polybench/medley/floyd-warshall/floyd-warshall, 0.0974, 0.0740, 0.0740,0.074, 0.0742, 0.0911, 0.0742,0.0742
SingleSource/Benchmarks/Polybench/medley/reg_detect/reg_detect, 0.4173, 0.4179, 0.4177,0.4177, 0.4164, 0.4165, 0.4173,0.4165
SingleSource/Benchmarks/Polybench/stencils/adi/adi, 0.0888, 0.0888, 0.0887,0.0888, 0.0891, 0.0889, 0.0888,0.0889
SingleSource/Benchmarks/Polybench/stencils/fdtd-2d/fdtd-2d, 0.1369, 0.1370, 0.1368,0.1369, 0.1364, 0.1365, 0.1363,0.1364
SingleSource/Benchmarks/Polybench/stencils/fdtd-apml/fdtd-apml, 0.1303, 0.1301, 0.1299,0.1301, 0.1302, 0.1299, 0.1300,0.13
SingleSource/Benchmarks/Polybench/stencils/jacobi-1d-imper/jacobi-1d-imper, 0.0827, 0.0826, 0.0824,0.0826, 0.0830, 0.0827, 0.0827,0.0827
SingleSource/Benchmarks/Polybench/stencils/jacobi-2d-imper/jacobi-2d-imper, 0.1113, 0.1113, 0.1112,0.1113, 0.1115, 0.1113, 0.1114,0.1114
SingleSource/Benchmarks/Polybench/stencils/seidel-2d/seidel-2d, 0.0686, 0.0686, 0.0684,0.0686, 0.0690, 0.0689, 0.0688,0.0689
SingleSource/Benchmarks/Shootout-C++/EH/except, 0.1295, 0.1293, 0.1293,0.1293, 0.1300, 0.1296, 0.1295,0.1296
SingleSource/Benchmarks/Shootout-C++/ackermann, 0.1163, 0.1161, 0.1160,0.1161, 0.1169, 0.1167, 0.1166,0.1167
SingleSource/Benchmarks/Shootout-C++/ary, 0.1543, 0.1541, 0.1543,0.1543, 0.1546, 0.1539, 0.1539,0.1539
SingleSource/Benchmarks/Shootout-C++/ary2, 0.1558, 0.1558, 0.1554,0.1558, 0.1565, 0.1561, 0.1558,0.1561
SingleSource/Benchmarks/Shootout-C++/ary3, 0.1585, 0.1581, 0.1576,0.1581, 0.1580, 0.1575, 0.1577,0.1577
SingleSource/Benchmarks/Shootout-C++/fibo, 0.1143, 0.1146, 0.1141,0.1143, 0.1151, 0.1144, 0.1144,0.1144
SingleSource/Benchmarks/Shootout-C++/hash, 0.2697, 0.2686, 0.2694,0.2694, 0.2674, 0.2660, 0.2669,0.2669
SingleSource/Benchmarks/Shootout-C++/hash2, 0.3287, 0.3342, 0.3277,0.3287, 0.3137, 0.3018, 0.3256,0.3137
SingleSource/Benchmarks/Shootout-C++/heapsort, 0.1314, 0.1308, 0.1309,0.1309, 0.1313, 0.1307, 0.1306,0.1307
SingleSource/Benchmarks/Shootout-C++/lists, 0.1611, 0.1611, 0.1608,0.1611, 0.1747, 0.1600, 0.1602,0.1602
SingleSource/Benchmarks/Shootout-C++/lists1, 0.1969, 0.2107, 0.2148,0.2107, 0.2081, 0.2048, 0.2165,0.2081
SingleSource/Benchmarks/Shootout-C++/matrix, 0.1836, 0.1833, 0.1827,0.1833, 0.1828, 0.1831, 0.1833,0.1831
SingleSource/Benchmarks/Shootout-C++/methcall, 0.1247, 0.1242, 0.1244,0.1244, 0.1237, 0.1239, 0.1237,0.1237
SingleSource/Benchmarks/Shootout-C++/moments, 0.2438, 0.2440, 0.2432,0.2438, 0.2383, 0.2390, 0.2383,0.2383
SingleSource/Benchmarks/Shootout-C++/nestedloop, 0.1150, 0.1168, 0.1245,0.1168, 0.1200, 0.1196, 0.1191,0.1196
SingleSource/Benchmarks/Shootout-C++/objinst, 0.1409, 0.1549, 0.1564,0.1549, 0.1529, 0.1539, 0.1590,0.1539
SingleSource/Benchmarks/Shootout-C++/random, 0.1245, 0.1242, 0.1245,0.1245, 0.1244, 0.1242, 0.1243,0.1243
SingleSource/Benchmarks/Shootout-C++/sieve, 0.1849, 0.1844, 0.1840,0.1844, 0.1836, 0.1834, 0.1836,0.1836
SingleSource/Benchmarks/Shootout-C++/strcat, 0.1250, 0.1252, 0.1247,0.125, 0.1256, 0.1254, 0.1252,0.1254
SingleSource/Benchmarks/Shootout/ackermann, 0.0224, 0.0222, 0.0223,0.0223, 0.0224, 0.0223, 0.0224,0.0224
SingleSource/Benchmarks/Shootout/ary3, 0.0333, 0.0332, 0.0333,0.0333, 0.0335, 0.0334, 0.0335,0.0335
SingleSource/Benchmarks/Shootout/fib2, 0.0187, 0.0186, 0.0186,0.0186, 0.0186, 0.0187, 0.0187,0.0187
SingleSource/Benchmarks/Shootout/hash, 0.0541, 0.0500, 0.0499,0.05, 0.0599, 0.0501, 0.0501,0.0501
SingleSource/Benchmarks/Shootout/heapsort, 0.0379, 0.0378, 0.0378,0.0378, 0.0380, 0.0379, 0.0380,0.038
SingleSource/Benchmarks/Shootout/lists, 0.0658, 0.0656, 0.0656,0.0656, 0.0657, 0.0656, 0.0657,0.0657
SingleSource/Benchmarks/Shootout/matrix, 0.0811, 0.0808, 0.0809,0.0809, 0.0812, 0.0811, 0.0811,0.0811
SingleSource/Benchmarks/Shootout/methcall, 0.0304, 0.0304, 0.0304,0.0304, 0.0306, 0.0306, 0.0306,0.0306
SingleSource/Benchmarks/Shootout/nestedloop, 0.0231, 0.0231, 0.0230,0.0231, 0.0231, 0.0231, 0.0231,0.0231
SingleSource/Benchmarks/Shootout/objinst, 0.0363, 0.0362, 0.0361,0.0362, 0.0364, 0.0364, 0.0364,0.0364
SingleSource/Benchmarks/Shootout/random, 0.0289, 0.0288, 0.0288,0.0288, 0.0290, 0.0291, 0.0290,0.029
SingleSource/Benchmarks/Shootout/sieve, 0.0244, 0.0242, 0.0241,0.0242, 0.0244, 0.0243, 0.0244,0.0244
SingleSource/Benchmarks/Shootout/strcat, 0.0263, 0.0261, 0.0261,0.0261, 0.0262, 0.0263, 0.0263,0.0263
SingleSource/Benchmarks/SmallPT/smallpt, 0.0985, 0.0983, 0.0981,0.0983, 0.0982, 0.0981, 0.0983,0.0982
SingleSource/Benchmarks/Stanford/Bubblesort, 0.0328, 0.0327, 0.0326,0.0327, 0.0329, 0.0328, 0.0329,0.0329
SingleSource/Benchmarks/Stanford/FloatMM, 0.0519, 0.0519, 0.0518,0.0519, 0.0519, 0.0517, 0.0518,0.0518
SingleSource/Benchmarks/Stanford/Oscar, 0.0614, 0.0612, 0.0612,0.0612, 0.0662, 0.0662, 0.0662,0.0662
SingleSource/Benchmarks/Stanford/Perm, 0.0314, 0.0300, 0.0300,0.03, 0.0302, 0.0320, 0.0302,0.0302
SingleSource/Benchmarks/Stanford/Puzzle, 0.1087, 0.1086, 0.1087,0.1087, 0.1089, 0.1089, 0.1091,0.1089
SingleSource/Benchmarks/Stanford/Queens, 0.0434, 0.0434, 0.0433,0.0434, 0.0436, 0.0434, 0.0435,0.0435
SingleSource/Benchmarks/Stanford/Quicksort, 0.0452, 0.0361, 0.0361,0.0361, 0.0363, 0.0425, 0.0362,0.0363
SingleSource/Benchmarks/Stanford/RealMM, 0.0491, 0.0489, 0.0490,0.049, 0.0490, 0.0489, 0.0489,0.0489
SingleSource/Benchmarks/Stanford/Towers, 0.0538, 0.0467, 0.0468,0.0468, 0.0469, 0.0502, 0.0469,0.0469
SingleSource/Benchmarks/Stanford/Treesort, 0.0372, 0.0371, 0.0371,0.0371, 0.0372, 0.0373, 0.0374,0.0373
SingleSource/Regression/C/2004-08-12-InlinerAndAllocas, 0.0185, 0.0184, 0.0184,0.0184, 0.0185, 0.0184, 0.0185,0.0185
SingleSource/Regression/C/uint64_to_float, 0.0867, 0.0713, 0.0604,0.0713, 0.0878, 0.0863, 0.0863,0.0863
Total elapsed time,-,-,-,362.7586,-,-,-,362.39360000000005
Total failure,-,-,-,0,-,-,-,0
