Benchmarks,/mnt/freezedisk/llvm-intptr-insts-opt-noprov-noaa-5.0-release/bin/clang,/mnt/freezedisk/llvm-intptr-insts-opt-noprov-noaa-5.0-release/bin/clang,/mnt/freezedisk/llvm-intptr-insts-opt-noprov-noaa-5.0-release/bin/clang,median
MultiSource/Applications/ALAC/decode/alacconvert-decode, 0.0129, 0.0130, 0.0130,0.013
MultiSource/Applications/ALAC/encode/alacconvert-encode, 0.0266, 0.0265, 0.0266,0.0266
MultiSource/Applications/ClamAV/clamscan, 0.1666, 0.2088, 0.2105,0.2088
MultiSource/Applications/JM/ldecod/ldecod, 0.0362, 0.0360, 0.0361,0.0361
MultiSource/Applications/JM/lencod/lencod, 3.1650, 3.1662, 3.1644,3.165
MultiSource/Applications/SIBsim4/SIBsim4, 2.1634, 2.0867, 2.1075,2.1075
MultiSource/Applications/SPASS/SPASS, 6.7009, 6.6845, 6.7299,6.7009
MultiSource/Applications/aha/aha, 1.0378, 1.0387, 1.0374,1.0378
MultiSource/Applications/d/make_dparser, 0.0156, 0.0156, 0.0157,0.0156
MultiSource/Applications/hbd/hbd, 0.0018, 0.0016, 0.0016,0.0016
MultiSource/Applications/hexxagon/hexxagon, 7.0585, 7.0584, 7.0585,7.0585
MultiSource/Applications/kimwitu++/kc, 0.0278, 0.0282, 0.0282,0.0282
MultiSource/Applications/lambda-0.1.3/lambda, 2.6764, 2.6812, 2.6770,2.677
MultiSource/Applications/lua/lua,11.1138,11.1044,11.0743,11.1044
MultiSource/Applications/minisat/minisat, 4.1826, 4.2060, 4.1346,4.1826
MultiSource/Applications/obsequi/Obsequi, 1.0946, 1.0935, 1.0933,1.0935
MultiSource/Applications/oggenc/oggenc, 0.0916, 0.0761, 0.0762,0.0762
MultiSource/Applications/sgefa/sgefa, 0.1526, 0.1526, 0.1526,0.1526
MultiSource/Applications/siod/siod, 1.0865, 1.0846, 1.0847,1.0847
MultiSource/Applications/spiff/spiff, 1.2807, 1.2818, 1.2822,1.2818
MultiSource/Applications/sqlite3/sqlite3, 1.7970, 1.7790, 1.7828,1.7828
MultiSource/Applications/viterbi/viterbi, 1.2774, 1.2778, 1.2777,1.2777
MultiSource/Benchmarks/7zip/7zip-benchmark, 6.3407, 6.3405, 6.3400,6.3405
MultiSource/Benchmarks/ASCI_Purple/SMG2000/smg2000, 1.1689, 1.1704, 1.1661,1.1689
MultiSource/Benchmarks/ASC_Sequoia/AMGmk/AMGmk, 4.9969, 4.9900, 4.9959,4.9959
MultiSource/Benchmarks/ASC_Sequoia/CrystalMk/CrystalMk, 7.2731, 7.2735, 7.2732,7.2732
MultiSource/Benchmarks/ASC_Sequoia/IRSmk/IRSmk, 2.9992, 2.9967, 2.9887,2.9967
MultiSource/Benchmarks/BitBench/drop3/drop3, 0.1801, 0.1877, 0.1835,0.1835
MultiSource/Benchmarks/BitBench/five11/five11, 1.1080, 1.1090, 1.1082,1.1082
MultiSource/Benchmarks/BitBench/uudecode/uudecode, 0.0596, 0.0596, 0.0596,0.0596
MultiSource/Benchmarks/BitBench/uuencode/uuencode, 0.0105, 0.0105, 0.0104,0.0105
MultiSource/Benchmarks/Bullet/bullet, 3.3324, 3.3309, 3.3418,3.3324
MultiSource/Benchmarks/DOE-ProxyApps-C++/CLAMR/CLAMR, 1.1201, 1.1204, 1.1202,1.1202
MultiSource/Benchmarks/DOE-ProxyApps-C++/HPCCG/HPCCG, 0.9040, 0.9042, 0.9045,0.9042
MultiSource/Benchmarks/DOE-ProxyApps-C++/PENNANT/PENNANT, 0.3697, 0.3697, 0.3699,0.3697
MultiSource/Benchmarks/DOE-ProxyApps-C++/miniFE/miniFE, 2.4654, 2.4665, 2.4650,2.4654
MultiSource/Benchmarks/DOE-ProxyApps-C/Pathfinder/PathFinder, 2.0990, 2.0975, 2.1254,2.099
MultiSource/Benchmarks/DOE-ProxyApps-C/RSBench/rsbench, 0.5781, 0.5663, 0.5851,0.5781
MultiSource/Benchmarks/DOE-ProxyApps-C/SimpleMOC/SimpleMOC, 3.7861, 3.8020, 3.8036,3.802
MultiSource/Benchmarks/DOE-ProxyApps-C/XSBench/XSBench, 2.4335, 2.4330, 2.4349,2.4335
MultiSource/Benchmarks/DOE-ProxyApps-C/miniAMR/miniAMR, 0.7719, 0.7714, 0.7711,0.7714
MultiSource/Benchmarks/DOE-ProxyApps-C/miniGMG/miniGMG, 5.2013, 5.2017, 5.2013,5.2013
MultiSource/Benchmarks/Fhourstones-3.1/fhourstones3.1, 0.7759, 0.7711, 0.7713,0.7713
MultiSource/Benchmarks/Fhourstones/fhourstones, 0.5950, 0.5804, 0.5829,0.5829
MultiSource/Benchmarks/FreeBench/analyzer/analyzer, 0.1291, 0.0398, 0.0402,0.0402
MultiSource/Benchmarks/FreeBench/distray/distray, 0.1837, 0.1345, 0.1346,0.1346
MultiSource/Benchmarks/FreeBench/fourinarow/fourinarow, 0.1858, 0.1756, 0.1756,0.1756
MultiSource/Benchmarks/FreeBench/mason/mason, 0.1604, 0.1305, 0.1304,0.1305
MultiSource/Benchmarks/FreeBench/neural/neural, 0.1599, 0.1153, 0.1153,0.1153
MultiSource/Benchmarks/FreeBench/pcompress2/pcompress2, 0.1051, 0.1051, 0.1051,0.1051
MultiSource/Benchmarks/FreeBench/pifft/pifft, 0.0812, 0.0651, 0.0651,0.0651
MultiSource/Benchmarks/MallocBench/cfrac/cfrac, 0.7620, 0.7625, 0.7621,0.7621
MultiSource/Benchmarks/MallocBench/espresso/espresso, 0.4557, 0.2988, 0.2986,0.2988
MultiSource/Benchmarks/MallocBench/gs/gs, 0.2078, 0.0271, 0.0271,0.0271
MultiSource/Benchmarks/McCat/01-qbsort/qbsort, 0.0390, 0.0391, 0.0391,0.0391
MultiSource/Benchmarks/McCat/03-testtrie/testtrie, 0.0061, 0.0063, 0.0063,0.0063
MultiSource/Benchmarks/McCat/04-bisect/bisect, 0.0748, 0.0749, 0.0748,0.0748
MultiSource/Benchmarks/McCat/05-eks/eks, 0.0034, 0.0034, 0.0034,0.0034
MultiSource/Benchmarks/McCat/08-main/main, 0.0427, 0.0426, 0.0427,0.0427
MultiSource/Benchmarks/McCat/09-vor/vor, 0.0833, 0.0830, 0.0831,0.0831
MultiSource/Benchmarks/McCat/12-IOtest/iotest, 0.2148, 0.2145, 0.2143,0.2145
MultiSource/Benchmarks/McCat/17-bintr/bintr, 0.0815, 0.0810, 0.0813,0.0813
MultiSource/Benchmarks/McCat/18-imp/imp, 0.0555, 0.0556, 0.0554,0.0555
MultiSource/Benchmarks/MiBench/automotive-basicmath/automotive-basicmath, 0.2225, 0.2226, 0.2226,0.2226
MultiSource/Benchmarks/MiBench/automotive-bitcount/automotive-bitcount, 0.0546, 0.0546, 0.0605,0.0546
MultiSource/Benchmarks/MiBench/automotive-susan/automotive-susan, 0.0284, 0.0285, 0.0284,0.0284
MultiSource/Benchmarks/MiBench/consumer-jpeg/consumer-jpeg, 0.0029, 0.0030, 0.0030,0.003
MultiSource/Benchmarks/MiBench/consumer-lame/consumer-lame, 0.1170, 0.1167, 0.1169,0.1169
MultiSource/Benchmarks/MiBench/consumer-typeset/consumer-typeset, 0.0833, 0.0825, 0.0828,0.0828
MultiSource/Benchmarks/MiBench/network-dijkstra/network-dijkstra, 0.0245, 0.0245, 0.0245,0.0245
MultiSource/Benchmarks/MiBench/network-patricia/network-patricia, 0.0712, 0.0711, 0.0711,0.0711
MultiSource/Benchmarks/MiBench/security-rijndael/security-rijndael, 0.0221, 0.0220, 0.0218,0.022
MultiSource/Benchmarks/MiBench/security-sha/security-sha, 0.0229, 0.0343, 0.0350,0.0343
MultiSource/Benchmarks/MiBench/telecomm-CRC32/telecomm-CRC32, 0.2665, 0.1993, 0.2083,0.2083
MultiSource/Benchmarks/MiBench/telecomm-FFT/telecomm-fft, 0.0381, 0.0382, 0.0381,0.0381
MultiSource/Benchmarks/MiBench/telecomm-adpcm/telecomm-adpcm, 0.0749, 0.0833, 0.0828,0.0828
MultiSource/Benchmarks/MiBench/telecomm-gsm/telecomm-gsm, 0.1120, 0.1035, 0.0998,0.1035
MultiSource/Benchmarks/NPB-serial/is/is, 5.0634, 5.0224, 5.0632,5.0632
MultiSource/Benchmarks/Olden/bh/bh, 1.2815, 1.2779, 1.2779,1.2779
MultiSource/Benchmarks/Olden/bisort/bisort, 0.3646, 0.3618, 0.3614,0.3618
MultiSource/Benchmarks/Olden/em3d/em3d, 1.7022, 1.7018, 1.7018,1.7018
MultiSource/Benchmarks/Olden/health/health, 0.1433, 0.1437, 0.1437,0.1437
MultiSource/Benchmarks/Olden/mst/mst, 0.0515, 0.0517, 0.0514,0.0515
MultiSource/Benchmarks/Olden/perimeter/perimeter, 0.1214, 0.1221, 0.1217,0.1217
MultiSource/Benchmarks/Olden/power/power, 1.0533, 1.0535, 1.0534,1.0534
MultiSource/Benchmarks/Olden/treeadd/treeadd, 0.1260, 0.1267, 0.1264,0.1264
MultiSource/Benchmarks/Olden/tsp/tsp, 1.1738, 1.1725, 1.1722,1.1725
MultiSource/Benchmarks/Olden/voronoi/voronoi, 0.2167, 0.2171, 0.2170,0.217
MultiSource/Benchmarks/PAQ8p/paq8p,42.5926,42.6276,42.6154,42.6154
MultiSource/Benchmarks/Prolangs-C++/city/city, 0.0050, 0.0050, 0.0050,0.005
MultiSource/Benchmarks/Prolangs-C++/employ/employ, 0.0048, 0.0048, 0.0049,0.0048
MultiSource/Benchmarks/Prolangs-C++/life/life, 0.7160, 0.7139, 0.7171,0.716
MultiSource/Benchmarks/Prolangs-C++/ocean/ocean, 0.0361, 0.0360, 0.0360,0.036
MultiSource/Benchmarks/Prolangs-C++/primes/primes, 0.2152, 0.2138, 0.2135,0.2138
MultiSource/Benchmarks/Prolangs-C++/simul/simul, 0.0038, 0.0038, 0.0038,0.0038
MultiSource/Benchmarks/Prolangs-C/agrep/agrep, 0.2188, 0.0028, 0.0028,0.0028
MultiSource/Benchmarks/Prolangs-C/bison/mybison, 0.0218, 0.0085, 0.0019,0.0085
MultiSource/Benchmarks/Prolangs-C/gnugo/gnugo, 0.0604, 0.0251, 0.0250,0.0251
MultiSource/Benchmarks/Ptrdist/anagram/anagram, 0.6680, 0.6003, 0.6002,0.6003
MultiSource/Benchmarks/Ptrdist/bc/bc, 0.3991, 0.3648, 0.3649,0.3649
MultiSource/Benchmarks/Ptrdist/ft/ft, 0.6375, 0.6864, 0.6319,0.6375
MultiSource/Benchmarks/Ptrdist/ks/ks, 0.6758, 0.6548, 0.6537,0.6548
MultiSource/Benchmarks/Ptrdist/yacr2/yacr2, 0.5601, 0.5301, 0.5308,0.5308
MultiSource/Benchmarks/SciMark2-C/scimark2,42.0947,42.1049,42.0981,42.0981
MultiSource/Benchmarks/TSVC/ControlFlow-dbl/ControlFlow-dbl, 3.7383, 3.7370, 3.7427,3.7383
MultiSource/Benchmarks/TSVC/ControlFlow-flt/ControlFlow-flt, 3.5248, 3.5252, 3.5487,3.5252
MultiSource/Benchmarks/TSVC/ControlLoops-dbl/ControlLoops-dbl, 2.5414, 2.5435, 2.5401,2.5414
MultiSource/Benchmarks/TSVC/ControlLoops-flt/ControlLoops-flt, 2.3538, 2.3434, 2.3501,2.3501
MultiSource/Benchmarks/TSVC/CrossingThresholds-dbl/CrossingThresholds-dbl, 2.1491, 2.1491, 2.1493,2.1491
MultiSource/Benchmarks/TSVC/CrossingThresholds-flt/CrossingThresholds-flt, 1.6212, 1.6311, 1.6304,1.6304
MultiSource/Benchmarks/TSVC/Equivalencing-dbl/Equivalencing-dbl, 1.3867, 1.3865, 1.3874,1.3867
MultiSource/Benchmarks/TSVC/Equivalencing-flt/Equivalencing-flt, 0.9697, 0.9679, 0.9710,0.9697
MultiSource/Benchmarks/TSVC/Expansion-dbl/Expansion-dbl, 1.9837, 1.9834, 1.9872,1.9837
MultiSource/Benchmarks/TSVC/Expansion-flt/Expansion-flt, 1.1832, 1.1805, 1.1839,1.1832
MultiSource/Benchmarks/TSVC/GlobalDataFlow-dbl/GlobalDataFlow-dbl, 2.8528, 2.8498, 2.8509,2.8509
MultiSource/Benchmarks/TSVC/GlobalDataFlow-flt/GlobalDataFlow-flt, 1.5008, 1.4952, 1.5018,1.5008
MultiSource/Benchmarks/TSVC/IndirectAddressing-dbl/IndirectAddressing-dbl, 2.4793, 2.4724, 2.4734,2.4734
MultiSource/Benchmarks/TSVC/IndirectAddressing-flt/IndirectAddressing-flt, 2.2434, 2.2450, 2.2447,2.2447
MultiSource/Benchmarks/TSVC/InductionVariable-dbl/InductionVariable-dbl, 3.0486, 3.0484, 3.0483,3.0484
MultiSource/Benchmarks/TSVC/InductionVariable-flt/InductionVariable-flt, 2.5616, 2.5616, 2.5619,2.5616
MultiSource/Benchmarks/TSVC/LinearDependence-dbl/LinearDependence-dbl, 5.7129, 5.7125, 5.7063,5.7125
MultiSource/Benchmarks/TSVC/LinearDependence-flt/LinearDependence-flt, 4.9747, 4.9799, 4.9873,4.9799
MultiSource/Benchmarks/TSVC/LoopRerolling-dbl/LoopRerolling-dbl, 4.6108, 4.6104, 4.6110,4.6108
MultiSource/Benchmarks/TSVC/LoopRerolling-flt/LoopRerolling-flt, 3.8291, 3.8362, 3.8207,3.8291
MultiSource/Benchmarks/TSVC/LoopRestructuring-dbl/LoopRestructuring-dbl, 3.6492, 3.6454, 3.6509,3.6492
MultiSource/Benchmarks/TSVC/LoopRestructuring-flt/LoopRestructuring-flt, 2.9613, 2.9426, 2.7434,2.9426
MultiSource/Benchmarks/TSVC/NodeSplitting-dbl/NodeSplitting-dbl, 5.0290, 5.0281, 5.0285,5.0285
MultiSource/Benchmarks/TSVC/NodeSplitting-flt/NodeSplitting-flt, 4.6583, 4.6564, 4.6552,4.6564
MultiSource/Benchmarks/TSVC/Packing-dbl/Packing-dbl, 2.3252, 2.3246, 2.3258,2.3252
MultiSource/Benchmarks/TSVC/Packing-flt/Packing-flt, 2.1146, 2.1184, 2.1260,2.1184
MultiSource/Benchmarks/TSVC/Recurrences-dbl/Recurrences-dbl, 3.5010, 3.5013, 3.5011,3.5011
MultiSource/Benchmarks/TSVC/Recurrences-flt/Recurrences-flt, 3.5007, 3.5008, 3.5009,3.5008
MultiSource/Benchmarks/TSVC/Reductions-dbl/Reductions-dbl, 3.4399, 3.4401, 3.4399,3.4399
MultiSource/Benchmarks/TSVC/Reductions-flt/Reductions-flt, 5.9349, 5.9352, 5.9350,5.935
MultiSource/Benchmarks/TSVC/Searching-dbl/Searching-dbl, 2.2757, 2.2752, 2.2756,2.2756
MultiSource/Benchmarks/TSVC/Searching-flt/Searching-flt, 2.4349, 2.4341, 2.4328,2.4341
MultiSource/Benchmarks/TSVC/StatementReordering-dbl/StatementReordering-dbl, 2.2436, 2.2452, 2.2495,2.2452
MultiSource/Benchmarks/TSVC/StatementReordering-flt/StatementReordering-flt, 1.8274, 1.8288, 1.8261,1.8274
MultiSource/Benchmarks/TSVC/Symbolics-dbl/Symbolics-dbl, 2.4546, 2.4549, 2.4549,2.4549
MultiSource/Benchmarks/TSVC/Symbolics-flt/Symbolics-flt, 1.3893, 1.4005, 1.3896,1.3896
MultiSource/Benchmarks/Trimaran/enc-3des/enc-3des, 1.2895, 1.2897, 1.2899,1.2897
MultiSource/Benchmarks/Trimaran/enc-md5/enc-md5, 1.2242, 1.2243, 1.2244,1.2243
MultiSource/Benchmarks/Trimaran/enc-pc1/enc-pc1, 0.3440, 0.3440, 0.3440,0.344
MultiSource/Benchmarks/Trimaran/enc-rc4/enc-rc4, 0.7285, 0.8082, 0.7272,0.7285
MultiSource/Benchmarks/Trimaran/netbench-crc/netbench-crc, 0.6211, 0.6213, 0.6216,0.6213
MultiSource/Benchmarks/Trimaran/netbench-url/netbench-url, 2.9796, 2.9798, 2.9795,2.9796
MultiSource/Benchmarks/VersaBench/8b10b/8b10b, 3.6119, 3.6153, 3.6089,3.6119
MultiSource/Benchmarks/VersaBench/beamformer/beamformer, 0.7488, 0.7489, 0.7488,0.7488
MultiSource/Benchmarks/VersaBench/bmm/bmm, 1.6458, 1.6460, 1.6460,1.646
MultiSource/Benchmarks/VersaBench/dbms/dbms, 0.9005, 0.8888, 0.8983,0.8983
MultiSource/Benchmarks/VersaBench/ecbdes/ecbdes, 1.6931, 1.6933, 1.6931,1.6931
MultiSource/Benchmarks/llubenchmark/llu, 4.2475, 4.1964, 4.1916,4.1964
MultiSource/Benchmarks/mafft/pairlocalalign,24.7174,24.7197,24.7206,24.7197
MultiSource/Benchmarks/mediabench/adpcm/rawcaudio/rawcaudio, 0.0137, 0.0111, 0.0055,0.0111
MultiSource/Benchmarks/mediabench/adpcm/rawdaudio/rawdaudio, 0.0017, 0.0016, 0.0078,0.0017
MultiSource/Benchmarks/mediabench/g721/g721encode/encode, 0.0297, 0.0296, 0.0297,0.0297
MultiSource/Benchmarks/mediabench/gsm/toast/toast, 0.0131, 0.0131, 0.0131,0.0131
MultiSource/Benchmarks/mediabench/jpeg/jpeg-6a/cjpeg, 0.0034, 0.0030, 0.0034,0.0034
MultiSource/Benchmarks/mediabench/mpeg2/mpeg2dec/mpeg2decode, 0.0130, 0.0128, 0.0130,0.013
MultiSource/Benchmarks/nbench/nbench, 1.2732, 1.2719, 1.2729,1.2729
MultiSource/Benchmarks/sim/sim, 2.7391, 2.6908, 2.6910,2.691
MultiSource/Benchmarks/tramp3d-v4/tramp3d-v4, 0.2391, 0.2391, 0.2389,0.2391
SingleSource/Benchmarks/Adobe-C++/functionobjects, 3.0379, 3.0371, 3.0377,3.0377
SingleSource/Benchmarks/Adobe-C++/loop_unroll, 1.7699, 1.7752, 1.7736,1.7736
SingleSource/Benchmarks/Adobe-C++/simple_types_constant_folding, 0.6647, 0.6645, 0.6645,0.6645
SingleSource/Benchmarks/Adobe-C++/simple_types_loop_invariant, 1.5938, 1.5935, 1.5954,1.5938
SingleSource/Benchmarks/Adobe-C++/stepanov_abstraction, 4.2401, 4.2399, 4.2398,4.2399
SingleSource/Benchmarks/Adobe-C++/stepanov_vector, 2.2540, 2.2537, 2.2540,2.254
SingleSource/Benchmarks/BenchmarkGame/Large/fasta, 0.6499, 0.6502, 0.6515,0.6502
SingleSource/Benchmarks/BenchmarkGame/fannkuch, 2.0906, 2.0905, 2.0887,2.0905
SingleSource/Benchmarks/BenchmarkGame/n-body, 1.3732, 1.3732, 1.3732,1.3732
SingleSource/Benchmarks/BenchmarkGame/nsieve-bits, 0.4895, 0.4837, 0.4853,0.4853
SingleSource/Benchmarks/BenchmarkGame/partialsums, 0.5687, 0.5685, 0.5686,0.5686
SingleSource/Benchmarks/BenchmarkGame/puzzle, 0.1290, 0.1294, 0.1289,0.129
SingleSource/Benchmarks/BenchmarkGame/recursive, 0.7043, 0.7042, 0.7043,0.7043
SingleSource/Benchmarks/BenchmarkGame/spectral-norm, 0.9768, 0.9768, 0.9768,0.9768
SingleSource/Benchmarks/CoyoteBench/almabench,12.6217,12.6223,12.6220,12.622
SingleSource/Benchmarks/CoyoteBench/fftbench, 0.6412, 0.6507, 0.6424,0.6424
SingleSource/Benchmarks/CoyoteBench/huffbench, 9.0383, 9.0516, 9.0357,9.0383
SingleSource/Benchmarks/CoyoteBench/lpbench, 1.8161, 1.8184, 1.8175,1.8175
SingleSource/Benchmarks/Dhrystone/dry, 0.3046, 0.3046, 0.3046,0.3046
SingleSource/Benchmarks/Dhrystone/fldry, 0.3653, 0.3654, 0.3654,0.3654
SingleSource/Benchmarks/Linpack/linpack-pc, 1.2438, 1.2393, 1.2394,1.2394
SingleSource/Benchmarks/McGill/chomp, 1.3003, 1.3054, 1.2078,1.3003
SingleSource/Benchmarks/McGill/misr, 0.1013, 0.1013, 0.1013,0.1013
SingleSource/Benchmarks/McGill/queens, 1.7519, 1.7518, 1.7520,1.7519
SingleSource/Benchmarks/Misc-C++-EH/spirit, 2.6474, 2.6602, 2.6533,2.6533
SingleSource/Benchmarks/Misc-C++/Large/ray, 3.1393, 3.1393, 3.1394,3.1393
SingleSource/Benchmarks/Misc-C++/Large/sphereflake, 5.6075, 5.6075, 5.6077,5.6075
SingleSource/Benchmarks/Misc-C++/bigfib, 0.1909, 0.1909, 0.1910,0.1909
SingleSource/Benchmarks/Misc-C++/mandel-text, 1.6107, 1.6085, 1.6146,1.6107
SingleSource/Benchmarks/Misc-C++/oopack_v1p8, 0.1619, 0.1619, 0.1619,0.1619
SingleSource/Benchmarks/Misc-C++/stepanov_container, 3.1029, 3.1019, 3.1081,3.1029
SingleSource/Benchmarks/Misc-C++/stepanov_v1p2, 7.9036, 7.9036, 7.9037,7.9036
SingleSource/Benchmarks/Misc/ReedSolomon, 3.1535, 3.1534, 3.1538,3.1535
SingleSource/Benchmarks/Misc/dt, 0.6668, 0.6668, 0.6668,0.6668
SingleSource/Benchmarks/Misc/evalloop, 0.3692, 0.3682, 0.3682,0.3682
SingleSource/Benchmarks/Misc/fbench, 1.7459, 1.7139, 1.7139,1.7139
SingleSource/Benchmarks/Misc/ffbench, 0.5835, 0.5871, 0.5863,0.5863
SingleSource/Benchmarks/Misc/flops,10.6308,10.6592,10.6887,10.6592
SingleSource/Benchmarks/Misc/flops-1, 3.5813, 3.5824, 3.5820,3.582
SingleSource/Benchmarks/Misc/flops-2, 0.8625, 0.8625, 0.8625,0.8625
SingleSource/Benchmarks/Misc/flops-3, 5.4131, 5.4130, 5.5081,5.4131
SingleSource/Benchmarks/Misc/flops-4, 2.3271, 2.3271, 2.3271,2.3271
SingleSource/Benchmarks/Misc/flops-5, 4.2757, 4.2756, 4.3231,4.2757
SingleSource/Benchmarks/Misc/flops-6, 3.3937, 3.3943, 3.4195,3.3943
SingleSource/Benchmarks/Misc/flops-7, 1.5900, 1.5900, 1.5900,1.59
SingleSource/Benchmarks/Misc/flops-8, 2.8969, 2.8968, 2.8968,2.8968
SingleSource/Benchmarks/Misc/fp-convert, 2.6301, 2.6301, 2.6302,2.6301
SingleSource/Benchmarks/Misc/himenobmtxpa, 0.5161, 0.5184, 0.5149,0.5161
SingleSource/Benchmarks/Misc/lowercase, 0.0007, 0.0007, 0.0007,0.0007
SingleSource/Benchmarks/Misc/mandel, 0.8336, 0.8336, 0.8336,0.8336
SingleSource/Benchmarks/Misc/mandel-2, 1.2779, 1.2779, 1.2779,1.2779
SingleSource/Benchmarks/Misc/matmul_f64_4x4, 1.2951, 1.2951, 1.2951,1.2951
SingleSource/Benchmarks/Misc/oourafft, 6.0178, 6.0179, 6.0171,6.0178
SingleSource/Benchmarks/Misc/perlin, 3.8802, 3.8805, 3.8805,3.8805
SingleSource/Benchmarks/Misc/pi, 0.6942, 0.6941, 0.6942,0.6942
SingleSource/Benchmarks/Misc/revertBits, 0.3294, 0.3294, 0.3294,0.3294
SingleSource/Benchmarks/Misc/richards_benchmark, 0.4968, 0.4971, 0.4975,0.4971
SingleSource/Benchmarks/Misc/salsa20, 4.1613, 4.6178, 4.6180,4.6178
SingleSource/Benchmarks/Misc/whetstone, 1.0248, 1.0248, 1.0273,1.0248
SingleSource/Benchmarks/Polybench/datamining/correlation/correlation, 1.6643, 1.6675, 1.6670,1.667
SingleSource/Benchmarks/Polybench/datamining/covariance/covariance, 1.6545, 1.6634, 1.6528,1.6545
SingleSource/Benchmarks/Polybench/linear-algebra/kernels/atax/atax, 0.1701, 0.1702, 0.1702,0.1702
SingleSource/Benchmarks/Polybench/linear-algebra/kernels/bicg/bicg, 0.2125, 0.2125, 0.2125,0.2125
SingleSource/Benchmarks/Polybench/linear-algebra/kernels/cholesky/cholesky, 0.4561, 0.4595, 0.4571,0.4571
SingleSource/Benchmarks/Polybench/linear-algebra/kernels/doitgen/doitgen, 0.7801, 0.7822, 0.7873,0.7822
SingleSource/Benchmarks/Polybench/linear-algebra/kernels/gemver/gemver, 0.3263, 0.3261, 0.3217,0.3261
SingleSource/Benchmarks/Polybench/linear-algebra/kernels/gesummv/gesummv, 0.3064, 0.3064, 0.3065,0.3064
SingleSource/Benchmarks/Polybench/linear-algebra/kernels/mvt/mvt, 0.2482, 0.2483, 0.2484,0.2483
SingleSource/Benchmarks/Polybench/linear-algebra/kernels/symm/symm,15.4980,16.5309,16.3621,16.3621
SingleSource/Benchmarks/Polybench/linear-algebra/kernels/syr2k/syr2k, 9.1857, 9.1870, 9.1848,9.1857
SingleSource/Benchmarks/Polybench/linear-algebra/kernels/syrk/syrk, 4.3776, 4.6337, 4.6337,4.6337
SingleSource/Benchmarks/Polybench/linear-algebra/kernels/trisolv/trisolv, 0.1639, 0.1639, 0.1638,0.1639
SingleSource/Benchmarks/Polybench/linear-algebra/kernels/trmm/trmm, 2.3622, 2.2353, 2.3560,2.356
SingleSource/Benchmarks/Polybench/linear-algebra/solvers/durbin/durbin, 0.4074, 0.4068, 0.4072,0.4072
SingleSource/Benchmarks/Polybench/linear-algebra/solvers/dynprog/dynprog, 0.2821, 0.2814, 0.2815,0.2815
SingleSource/Benchmarks/Polybench/linear-algebra/solvers/gramschmidt/gramschmidt, 1.7374, 1.6398, 1.6891,1.6891
SingleSource/Benchmarks/Polybench/linear-algebra/solvers/lu/lu, 0.0021, 0.0021, 0.0021,0.0021
SingleSource/Benchmarks/Polybench/medley/floyd-warshall/floyd-warshall, 5.9740, 5.9738, 5.9740,5.974
SingleSource/Benchmarks/Polybench/medley/reg_detect/reg_detect, 0.0155, 0.0155, 0.0155,0.0155
SingleSource/Benchmarks/Polybench/stencils/adi/adi, 2.8048, 2.8059, 2.8060,2.8059
SingleSource/Benchmarks/Polybench/stencils/fdtd-2d/fdtd-2d, 0.4107, 0.4089, 0.4099,0.4099
SingleSource/Benchmarks/Polybench/stencils/fdtd-apml/fdtd-apml, 0.7232, 0.7288, 0.7215,0.7232
SingleSource/Benchmarks/Polybench/stencils/jacobi-1d-imper/jacobi-1d-imper, 0.0036, 0.0036, 0.0036,0.0036
SingleSource/Benchmarks/Polybench/stencils/jacobi-2d-imper/jacobi-2d-imper, 0.1497, 0.1493, 0.1496,0.1496
SingleSource/Benchmarks/Polybench/stencils/seidel-2d/seidel-2d, 0.6592, 0.6593, 0.6593,0.6593
SingleSource/Benchmarks/Shootout-C++/EH/except, 0.1200, 0.1207, 0.1207,0.1207
SingleSource/Benchmarks/Shootout-C++/ackermann, 0.6571, 0.6571, 0.6572,0.6571
SingleSource/Benchmarks/Shootout-C++/ary, 0.0141, 0.0140, 0.0141,0.0141
SingleSource/Benchmarks/Shootout-C++/ary2, 0.0149, 0.0149, 0.0149,0.0149
SingleSource/Benchmarks/Shootout-C++/ary3, 0.5347, 0.5477, 0.5356,0.5356
SingleSource/Benchmarks/Shootout-C++/fibo, 1.4778, 1.4770, 1.4770,1.477
SingleSource/Benchmarks/Shootout-C++/hash, 0.3067, 0.3079, 0.3068,0.3068
SingleSource/Benchmarks/Shootout-C++/hash2, 1.7278, 1.7268, 1.7276,1.7276
SingleSource/Benchmarks/Shootout-C++/heapsort, 2.0299, 2.0284, 2.0303,2.0299
SingleSource/Benchmarks/Shootout-C++/lists, 2.9835, 2.9630, 2.9763,2.9763
SingleSource/Benchmarks/Shootout-C++/lists1, 0.1317, 0.1338, 0.1323,0.1323
SingleSource/Benchmarks/Shootout-C++/matrix, 1.1247, 1.1246, 1.1246,1.1246
SingleSource/Benchmarks/Shootout-C++/methcall, 3.4496, 3.4496, 3.4548,3.4496
SingleSource/Benchmarks/Shootout-C++/moments, 0.0441, 0.0441, 0.0442,0.0441
SingleSource/Benchmarks/Shootout-C++/nestedloop, 0.0008, 0.0008, 0.0008,0.0008
SingleSource/Benchmarks/Shootout-C++/objinst, 0.0008, 0.0008, 0.0008,0.0008
SingleSource/Benchmarks/Shootout-C++/random, 1.7449, 1.7448, 1.7448,1.7448
SingleSource/Benchmarks/Shootout-C++/sieve, 1.3514, 1.2791, 1.2765,1.2791
SingleSource/Benchmarks/Shootout-C++/strcat, 0.0405, 0.0404, 0.0405,0.0405
SingleSource/Benchmarks/Shootout/ackermann, 0.0033, 0.0033, 0.0033,0.0033
SingleSource/Benchmarks/Shootout/ary3, 0.6048, 0.5905, 0.5990,0.599
SingleSource/Benchmarks/Shootout/fib2, 1.4766, 1.4776, 1.4770,1.477
SingleSource/Benchmarks/Shootout/hash, 2.7673, 2.7600, 2.7571,2.76
SingleSource/Benchmarks/Shootout/heapsort, 2.0347, 2.0366, 2.0369,2.0366
SingleSource/Benchmarks/Shootout/lists, 4.0804, 4.0813, 4.0808,4.0808
SingleSource/Benchmarks/Shootout/matrix, 1.0573, 1.0572, 1.0572,1.0572
SingleSource/Benchmarks/Shootout/methcall, 3.2760, 3.2759, 3.2762,3.276
SingleSource/Benchmarks/Shootout/nestedloop, 0.0007, 0.0007, 0.0007,0.0007
SingleSource/Benchmarks/Shootout/objinst, 0.0007, 0.0007, 0.0007,0.0007
SingleSource/Benchmarks/Shootout/random, 1.7448, 1.7447, 1.7448,1.7448
SingleSource/Benchmarks/Shootout/sieve, 3.4680, 3.4708, 3.4721,3.4708
SingleSource/Benchmarks/Shootout/strcat, 0.1051, 0.1051, 0.1052,0.1051
SingleSource/Benchmarks/SmallPT/smallpt, 7.5392, 7.5471, 7.5347,7.5392
SingleSource/Benchmarks/Stanford/Bubblesort, 0.0157, 0.0158, 0.0158,0.0158
SingleSource/Benchmarks/Stanford/FloatMM, 0.2002, 0.2011, 0.2011,0.2011
SingleSource/Benchmarks/Stanford/Oscar, 0.0024, 0.0024, 0.0024,0.0024
SingleSource/Benchmarks/Stanford/Perm, 0.0145, 0.0145, 0.0145,0.0145
SingleSource/Benchmarks/Stanford/Puzzle, 0.0793, 0.0793, 0.0792,0.0793
SingleSource/Benchmarks/Stanford/Queens, 0.0071, 0.0074, 0.0072,0.0072
SingleSource/Benchmarks/Stanford/Quicksort, 0.0302, 0.0302, 0.0302,0.0302
SingleSource/Benchmarks/Stanford/RealMM, 0.0014, 0.0014, 0.0014,0.0014
SingleSource/Benchmarks/Stanford/Towers, 0.0083, 0.0083, 0.0083,0.0083
SingleSource/Benchmarks/Stanford/Treesort, 0.0544, 0.0544, 0.0546,0.0544
SingleSource/Regression/C/2004-08-12-InlinerAndAllocas, 0.0013, 0.0013, 0.0013,0.0013
SingleSource/Regression/C/uint64_to_float, 0.2465, 0.2465, 0.2465,0.2465
Total elapsed time,-,-,-,588.3441000000003
Total failure,-,-,-,0
