Benchmarks,base-5.0,base-5.0,base-5.0,median,insts-opt-noprov-noaa-5.0,insts-opt-noprov-noaa-5.0,insts-opt-noprov-noaa-5.0,median,Slowdown(%)
SingleSource/Benchmarks/Shootout-C++/sieve, 1.1506, 1.1507, 1.1273,1.1506, 1.3034, 1.3187, 1.2509,1.3034,13.280027811576556
MultiSource/Benchmarks/mediabench/jpeg/jpeg-6a/cjpeg, 0.0046, 0.0046, 0.0046,0.0046, 0.0048, 0.0048, 0.0048,0.0048,4.347826086956519
MultiSource/Benchmarks/Bullet/bullet, 2.9578, 2.9534, 2.9595,2.9578, 3.0354, 3.0327, 3.0388,3.0354,2.623571573466754
SingleSource/Benchmarks/Polybench/linear-algebra/kernels/gemver/gemver, 0.3181, 0.3155, 0.3157,0.3157, 0.3228, 0.3203, 0.3222,0.3222,2.05891669306304
MultiSource/Benchmarks/mediabench/adpcm/rawcaudio/rawcaudio, 0.0049, 0.0050, 0.0049,0.0049, 0.0050, 0.0050, 0.0049,0.005,2.0408163265306145
MultiSource/Benchmarks/Prolangs-C++/employ/employ, 0.0062, 0.0062, 0.0063,0.0062, 0.0063, 0.0063, 0.0062,0.0063,1.6129032258064502
MultiSource/Applications/minisat/minisat, 3.7353, 3.7420, 3.7331,3.7353, 3.7950, 3.7912, 3.7973,3.795,1.5982651995823494
SingleSource/Benchmarks/Misc-C++-EH/spirit, 2.3832, 2.3846, 2.3836,2.3836, 2.4210, 2.4207, 2.4206,2.4207,1.556469206242661
MultiSource/Benchmarks/Olden/voronoi/voronoi, 0.1971, 0.1966, 0.1966,0.1966, 0.2000, 0.1993, 0.1991,0.1993,1.3733468972533025
MultiSource/Applications/sqlite3/sqlite3, 1.6308, 1.6309, 1.6622,1.6309, 1.6522, 1.6546, 1.6473,1.6522,1.3060273468636918
MultiSource/Applications/lambda-0.1.3/lambda, 2.4242, 2.4552, 2.4170,2.4242, 2.4554, 2.4545, 2.4522,2.4545,1.2498968731952775
MultiSource/Applications/SIBsim4/SIBsim4, 1.9135, 1.8879, 1.9281,1.9135, 1.9347, 1.9548, 1.9307,1.9347,1.107917428795413
MultiSource/Benchmarks/Prolangs-C++/life/life, 0.6573, 0.6596, 0.6616,0.6596, 0.6659, 0.6624, 0.6658,0.6658,0.9399636143117007
MultiSource/Benchmarks/Ptrdist/bc/bc, 0.3351, 0.3351, 0.3349,0.3351, 0.3381, 0.3379, 0.3381,0.3381,0.8952551477171111
SingleSource/Benchmarks/Shootout-C++/EH/except, 0.1114, 0.1120, 0.1099,0.1114, 0.1108, 0.1123, 0.1124,0.1123,0.8078994614003632
MultiSource/Benchmarks/mediabench/mpeg2/mpeg2dec/mpeg2decode, 0.0137, 0.0136, 0.0136,0.0136, 0.0136, 0.0137, 0.0137,0.0137,0.7352941176470562
SingleSource/Benchmarks/Polybench/linear-algebra/solvers/gramschmidt/gramschmidt, 1.4110, 1.4104, 1.4169,1.411, 1.4259, 1.4134, 1.4209,1.4209,0.7016300496102135
SingleSource/Benchmarks/Polybench/stencils/jacobi-2d-imper/jacobi-2d-imper, 0.1525, 0.1518, 0.1519,0.1519, 0.1528, 0.1529, 0.1525,0.1528,0.5924950625411318
MultiSource/Benchmarks/BitBench/five11/five11, 1.0382, 1.0203, 1.0196,1.0203, 1.0205, 1.0261, 1.0554,1.0261,0.5684602567872288
SingleSource/Benchmarks/Misc/whetstone, 0.9292, 0.9314, 0.9361,0.9314, 0.9361, 0.9385, 0.9291,0.9361,0.5046167060339224
MultiSource/Benchmarks/Ptrdist/ks/ks, 0.6009, 0.5977, 0.5971,0.5977, 0.6017, 0.5978, 0.6006,0.6006,0.48519324075624315
MultiSource/Benchmarks/TSVC/GlobalDataFlow-flt/GlobalDataFlow-flt, 1.3829, 1.3700, 1.3707,1.3707, 1.3773, 1.3836, 1.3730,1.3773,0.4815057999562278
SingleSource/Benchmarks/Polybench/datamining/correlation/correlation, 1.4119, 1.4222, 1.4138,1.4138, 1.4180, 1.4223, 1.4202,1.4202,0.4526807186306492
SingleSource/Benchmarks/Shootout-C++/hash2, 1.5755, 1.5778, 1.5774,1.5774, 1.5815, 1.5839, 1.5836,1.5836,0.39305185748699234
MultiSource/Benchmarks/TSVC/Packing-flt/Packing-flt, 1.9048, 1.9432, 1.9267,1.9267, 1.9338, 1.9090, 1.9489,1.9338,0.3685057351948906
SingleSource/Benchmarks/Stanford/Quicksort, 0.0276, 0.0276, 0.0276,0.0276, 0.0276, 0.0277, 0.0277,0.0277,0.36231884057971175
MultiSource/Benchmarks/Prolangs-C++/primes/primes, 0.1954, 0.1950, 0.1950,0.195, 0.1953, 0.1957, 0.1959,0.1957,0.35897435897436214
MultiSource/Applications/kimwitu++/kc, 0.0279, 0.0279, 0.0279,0.0279, 0.0280, 0.0278, 0.0280,0.028,0.35842293906809264
SingleSource/Benchmarks/BenchmarkGame/recursive, 0.6511, 0.6441, 0.6439,0.6441, 0.6464, 0.6517, 0.6464,0.6464,0.3570874087874598
MultiSource/Benchmarks/McCat/12-IOtest/iotest, 0.1968, 0.1974, 0.1987,0.1974, 0.1984, 0.1981, 0.1974,0.1981,0.35460992907800915
MultiSource/Benchmarks/mediabench/g721/g721encode/encode, 0.0290, 0.0290, 0.0290,0.029, 0.0290, 0.0291, 0.0291,0.0291,0.34482758620688614
SingleSource/Benchmarks/Adobe-C++/functionobjects, 2.7600, 2.7611, 2.7608,2.7608, 2.7675, 2.7692, 2.7687,2.7687,0.2861489423355401
SingleSource/Benchmarks/Misc/flops, 9.7740, 9.7389, 9.7398,9.7398, 9.6693, 9.7676, 9.7714,9.7676,0.28542680547853916
SingleSource/Benchmarks/Shootout/hash, 2.5467, 2.5365, 2.5719,2.5467, 2.5979, 2.5539, 2.5347,2.5539,0.2827188125809954
MultiSource/Benchmarks/McCat/09-vor/vor, 0.0779, 0.0778, 0.0780,0.0779, 0.0781, 0.0780, 0.0781,0.0781,0.25673940949937357
MultiSource/Benchmarks/MallocBench/espresso/espresso, 0.2745, 0.2753, 0.2747,0.2747, 0.2754, 0.2759, 0.2754,0.2754,0.2548234437568242
MultiSource/Benchmarks/mafft/pairlocalalign,22.5442,22.5445,22.5448,22.5445,22.5944,22.5947,22.5951,22.5947,0.2226707179134646
SingleSource/Benchmarks/Misc/ffbench, 0.5394, 0.5403, 0.5371,0.5394, 0.5383, 0.5416, 0.5406,0.5406,0.22246941045604984
MultiSource/Benchmarks/MiBench/telecomm-CRC32/telecomm-CRC32, 0.1366, 0.1362, 0.1385,0.1366, 0.1369, 0.1363, 0.1369,0.1369,0.21961932650071958
SingleSource/Benchmarks/Shootout-C++/hash, 0.2857, 0.2844, 0.2840,0.2844, 0.2839, 0.2850, 0.2853,0.285,0.21097046413500742
MultiSource/Benchmarks/TSVC/CrossingThresholds-flt/CrossingThresholds-flt, 1.4951, 1.4920, 1.4881,1.492, 1.4855, 1.4951, 1.4958,1.4951,0.20777479892761797
SingleSource/Benchmarks/Linpack/linpack-pc, 1.1361, 1.1344, 1.1361,1.1361, 1.1349, 1.1383, 1.1478,1.1383,0.19364492562274904
SingleSource/Benchmarks/Polybench/linear-algebra/solvers/durbin/durbin, 0.3915, 0.4010, 0.3921,0.3921, 0.3928, 0.4014, 0.3915,0.3928,0.17852588625351107
SingleSource/Benchmarks/Misc-C++/bigfib, 0.1775, 0.1768, 0.1768,0.1768, 0.1777, 0.1771, 0.1769,0.1771,0.16968325791855143
SingleSource/Benchmarks/BenchmarkGame/puzzle, 0.1183, 0.1181, 0.1181,0.1181, 0.1184, 0.1183, 0.1181,0.1183,0.16934801016088574
MultiSource/Benchmarks/MiBench/telecomm-adpcm/telecomm-adpcm, 0.0640, 0.0639, 0.0639,0.0639, 0.0640, 0.0640, 0.0640,0.064,0.15649452269170805
MultiSource/Benchmarks/MiBench/network-patricia/network-patricia, 0.0671, 0.0672, 0.0671,0.0671, 0.0672, 0.0672, 0.0672,0.0672,0.14903129657226621
SingleSource/Benchmarks/Shootout/lists, 3.7554, 3.7722, 3.7652,3.7652, 3.7721, 3.7672, 3.7704,3.7704,0.138106873472843
MultiSource/Benchmarks/7zip/7zip-benchmark, 5.8032, 5.8049, 5.8030,5.8032, 5.8112, 5.8112, 5.8112,5.8112,0.13785497656464418
MultiSource/Benchmarks/BitBench/drop3/drop3, 0.1458, 0.1458, 0.1460,0.1458, 0.1460, 0.1460, 0.1460,0.146,0.137174211248281
MultiSource/Benchmarks/DOE-ProxyApps-C++/PENNANT/PENNANT, 0.3780, 0.3776, 0.3774,0.3776, 0.3788, 0.3780, 0.3781,0.3781,0.13241525423728362
SingleSource/Benchmarks/Polybench/datamining/covariance/covariance, 1.4080, 1.4119, 1.4041,1.408, 1.4136, 1.4080, 1.4097,1.4097,0.12073863636363757
SingleSource/Benchmarks/Adobe-C++/loop_unroll, 1.6254, 1.6244, 1.6248,1.6248, 1.6267, 1.6284, 1.6226,1.6267,0.11693746922698534
MultiSource/Benchmarks/ASC_Sequoia/AMGmk/AMGmk, 4.5880, 4.5830, 4.5809,4.583, 4.6004, 4.5800, 4.5883,4.5883,0.11564477416539098
MultiSource/Applications/spiff/spiff, 1.1778, 1.1761, 1.1754,1.1761, 1.1774, 1.1771, 1.1778,1.1774,0.11053481846783342
SingleSource/Benchmarks/McGill/misr, 0.0926, 0.0926, 0.0927,0.0926, 0.0927, 0.0926, 0.0927,0.0927,0.1079913606911509
MultiSource/Benchmarks/FreeBench/pcompress2/pcompress2, 0.0946, 0.0947, 0.0946,0.0946, 0.0946, 0.0947, 0.0947,0.0947,0.10570824524314126
SingleSource/Benchmarks/Shootout/strcat, 0.1003, 0.1003, 0.1002,0.1003, 0.1004, 0.1004, 0.1004,0.1004,0.09970089730808596
MultiSource/Benchmarks/TSVC/ControlFlow-flt/ControlFlow-flt, 3.2199, 3.1904, 3.2174,3.2174, 3.2204, 3.2175, 3.2246,3.2204,0.0932429912351651
SingleSource/Benchmarks/Shootout-C++/fibo, 1.3500, 1.3494, 1.3510,1.35, 1.3512, 1.3503, 1.3522,1.3512,0.0888888888888717
MultiSource/Benchmarks/Olden/perimeter/perimeter, 0.1133, 0.1130, 0.1130,0.113, 0.1136, 0.1131, 0.1131,0.1131,0.08849557522123686
MultiSource/Benchmarks/TSVC/StatementReordering-dbl/StatementReordering-dbl, 2.0587, 2.0585, 2.0594,2.0587, 2.0605, 2.0578, 2.0608,2.0605,0.08743381745763834
MultiSource/Benchmarks/TSVC/Symbolics-flt/Symbolics-flt, 1.2709, 1.2767, 1.2693,1.2709, 1.2796, 1.2720, 1.2706,1.272,0.08655283657250656
MultiSource/Benchmarks/TSVC/LinearDependence-dbl/LinearDependence-dbl, 5.2304, 5.2290, 5.2294,5.2294, 5.2353, 5.2280, 5.2339,5.2339,0.08605193712472037
MultiSource/Benchmarks/sim/sim, 2.4075, 2.4078, 2.4090,2.4078, 2.4098, 2.4096, 2.4113,2.4098,0.08306337735692892
SingleSource/Benchmarks/Polybench/stencils/adi/adi, 2.6052, 2.6051, 2.6063,2.6052, 2.6073, 2.6074, 2.6057,2.6073,0.08060801473974699
MultiSource/Benchmarks/Trimaran/netbench-crc/netbench-crc, 0.5695, 0.5693, 0.5691,0.5693, 0.5697, 0.5697, 0.5696,0.5697,0.07026172492534677
SingleSource/Benchmarks/Polybench/linear-algebra/kernels/gesummv/gesummv, 0.2907, 0.2864, 0.2905,0.2905, 0.2907, 0.2907, 0.2905,0.2907,0.0688468158347888
MultiSource/Benchmarks/Olden/bisort/bisort, 0.3270, 0.3262, 0.3271,0.327, 0.3272, 0.3284, 0.3272,0.3272,0.06116207951070152
MultiSource/Benchmarks/SciMark2-C/scimark2,38.4742,38.4702,38.4665,38.4702,38.5199,38.4882,38.4935,38.4935,0.06056636045561614
MultiSource/Benchmarks/Trimaran/enc-3des/enc-3des, 1.1783, 1.1781, 1.1787,1.1783, 1.1794, 1.1789, 1.1782,1.1789,0.05092081812783089
MultiSource/Benchmarks/DOE-ProxyApps-C/miniGMG/miniGMG, 5.0094, 5.0105, 5.0158,5.0105, 5.0139, 5.0129, 5.0087,5.0129,0.04789941123639618
SingleSource/Benchmarks/BenchmarkGame/nsieve-bits, 0.4363, 0.4332, 0.4319,0.4332, 0.4309, 0.4334, 0.4368,0.4334,0.046168051708228575
SingleSource/Benchmarks/Polybench/stencils/fdtd-apml/fdtd-apml, 0.6655, 0.6649, 0.6691,0.6655, 0.6658, 0.6661, 0.6652,0.6658,0.04507888805409532
MultiSource/Benchmarks/TSVC/InductionVariable-dbl/InductionVariable-dbl, 2.8009, 2.7996, 2.8020,2.8009, 2.8015, 2.8028, 2.8021,2.8021,0.04284337177336006
MultiSource/Benchmarks/DOE-ProxyApps-C/miniAMR/miniAMR, 0.7164, 0.7145, 0.7143,0.7145, 0.7150, 0.7143, 0.7148,0.7148,0.04198740377885368
SingleSource/Benchmarks/McGill/chomp, 1.2197, 1.2183, 1.2198,1.2197, 1.2183, 1.2208, 1.2202,1.2202,0.04099368697221273
MultiSource/Benchmarks/Trimaran/enc-pc1/enc-pc1, 0.3145, 0.3146, 0.3145,0.3145, 0.3145, 0.3146, 0.3146,0.3146,0.031796502384739966
SingleSource/Benchmarks/Polybench/medley/floyd-warshall/floyd-warshall, 5.4314, 5.4339, 5.4381,5.4339, 5.4334, 5.4356, 5.4363,5.4356,0.03128508069709657
MultiSource/Benchmarks/TSVC/GlobalDataFlow-dbl/GlobalDataFlow-dbl, 2.6190, 2.6193, 2.6184,2.619, 2.6197, 2.6204, 2.6187,2.6197,0.026727758686506675
MultiSource/Benchmarks/TSVC/ControlFlow-dbl/ControlFlow-dbl, 3.4381, 3.4419, 3.4400,3.44, 3.4409, 3.4424, 3.4405,3.4409,0.026162790697670246
SingleSource/Benchmarks/Misc/flops-1, 3.2764, 3.1886, 3.2765,3.2764, 3.2773, 3.2771, 3.2764,3.2771,0.021364912709054273
MultiSource/Benchmarks/TSVC/LoopRestructuring-dbl/LoopRestructuring-dbl, 3.3716, 3.3801, 3.3759,3.3759, 3.3820, 3.3766, 3.3758,3.3766,0.020735211351041727
SingleSource/Benchmarks/Shootout/matrix, 0.9675, 0.9681, 0.9684,0.9681, 0.9683, 0.9679, 0.9684,0.9683,0.020659022828239948
SingleSource/Benchmarks/Misc-C++/mandel-text, 1.4706, 1.4702, 1.4725,1.4706, 1.4709, 1.4694, 1.4717,1.4709,0.0203998368013103
SingleSource/Benchmarks/Shootout-C++/matrix, 1.0281, 1.0282, 1.0283,1.0282, 1.0284, 1.0279, 1.0284,1.0284,0.019451468585884868
MultiSource/Benchmarks/Olden/em3d/em3d, 1.5615, 1.5613, 1.5611,1.5613, 1.5616, 1.5616, 1.5613,1.5616,0.01921475693333896
MultiSource/Benchmarks/Ptrdist/anagram/anagram, 0.5504, 0.5504, 0.5504,0.5504, 0.5505, 0.5505, 0.5504,0.5505,0.01816860465115866
SingleSource/Benchmarks/Polybench/linear-algebra/kernels/syr2k/syr2k, 8.1617, 8.4107, 8.4129,8.4107, 8.4114, 8.4122, 8.4134,8.4122,0.01783442519647238
MultiSource/Applications/hexxagon/hexxagon, 6.4693, 6.4696, 6.4701,6.4696, 6.4708, 6.4699, 6.4707,6.4707,0.017002596760229416
SingleSource/Benchmarks/Polybench/linear-algebra/kernels/doitgen/doitgen, 0.7147, 0.7146, 0.7257,0.7147, 0.7148, 0.7169, 0.7146,0.7148,0.013991884706876512
MultiSource/Benchmarks/Fhourstones-3.1/fhourstones3.1, 0.7277, 0.7273, 0.7276,0.7276, 0.7277, 0.7278, 0.7276,0.7277,0.013743815283118188
MultiSource/Benchmarks/Trimaran/netbench-url/netbench-url, 2.7273, 2.7272, 2.7274,2.7273, 2.7276, 2.7276, 2.7271,2.7276,0.010999890001084367
MultiSource/Benchmarks/TSVC/Packing-dbl/Packing-dbl, 2.1456, 2.1458, 2.1459,2.1458, 2.1463, 2.1445, 2.1460,2.146,0.009320533134493658
MultiSource/Benchmarks/TSVC/Expansion-flt/Expansion-flt, 1.0771, 1.0845, 1.0880,1.0845, 1.0869, 1.0846, 1.0844,1.0846,0.009220839096357736
MultiSource/Benchmarks/TSVC/Searching-flt/Searching-flt, 2.2254, 2.2247, 2.2249,2.2249, 2.2238, 2.2256, 2.2251,2.2251,0.008989168052497831
MultiSource/Benchmarks/TSVC/Symbolics-dbl/Symbolics-dbl, 2.2565, 2.2571, 2.2569,2.2569, 2.2572, 2.2571, 2.2566,2.2571,0.008861712969121527
SingleSource/Benchmarks/SmallPT/smallpt, 6.9121, 6.9115, 6.9048,6.9115, 6.9129, 6.9119, 6.9121,6.9121,0.008681183534675618
MultiSource/Benchmarks/TSVC/ControlLoops-dbl/ControlLoops-dbl, 2.3333, 2.3308, 2.3304,2.3308, 2.3312, 2.3304, 2.3310,2.331,0.008580744808650564
SingleSource/Benchmarks/Shootout/fib2, 1.3502, 1.3511, 1.3555,1.3511, 1.3489, 1.3546, 1.3512,1.3512,0.0074013766560465655
SingleSource/Benchmarks/Misc/oourafft, 5.5017, 5.5018, 5.5015,5.5017, 5.5021, 5.5016, 5.5031,5.5021,0.007270480033461091
SingleSource/Benchmarks/Misc-C++/Large/ray, 2.8694, 2.8695, 2.8693,2.8694, 2.8696, 2.8695, 2.8696,2.8696,0.006970098278391568
SingleSource/Benchmarks/Adobe-C++/simple_types_loop_invariant, 1.4573, 1.4571, 1.4578,1.4573, 1.4577, 1.4574, 1.4573,1.4574,0.006862005077890032
MultiSource/Benchmarks/VersaBench/bmm/bmm, 1.5053, 1.5054, 1.5054,1.5054, 1.5055, 1.5053, 1.5055,1.5055,0.006642752756746972
MultiSource/Benchmarks/VersaBench/ecbdes/ecbdes, 1.5482, 1.5482, 1.5483,1.5482, 1.5483, 1.5482, 1.5483,1.5483,0.00645911380958708
MultiSource/Benchmarks/TSVC/Expansion-dbl/Expansion-dbl, 1.8342, 1.8348, 1.8339,1.8342, 1.8356, 1.8339, 1.8343,1.8343,0.0054519681605080805
SingleSource/Benchmarks/Shootout-C++/heapsort, 1.9371, 1.9366, 1.9331,1.9366, 1.9382, 1.9355, 1.9367,1.9367,0.005163688939369138
MultiSource/Benchmarks/TSVC/Recurrences-flt/Recurrences-flt, 3.2012, 3.2013, 3.2010,3.2012, 3.2013, 3.2013, 3.2013,3.2013,0.003123828564288722
SingleSource/Benchmarks/Misc/flops-5, 3.9099, 3.9096, 3.9096,3.9096, 3.9097, 3.9096, 3.9531,3.9097,0.0025578064251963184
SingleSource/Benchmarks/Misc-C++/Large/sphereflake, 5.1270, 5.1271, 5.1270,5.127, 5.1271, 5.1270, 5.1272,5.1271,0.0019504583577356627
SingleSource/Regression/C/uint64_to_float, 0.2254, 0.2254, 0.2254,0.2254, 0.2254, 0.2254, 0.2254,0.2254,0.0
SingleSource/Regression/C/2004-08-12-InlinerAndAllocas, 0.0012, 0.0012, 0.0012,0.0012, 0.0012, 0.0012, 0.0012,0.0012,0.0
SingleSource/Benchmarks/Stanford/Treesort, 0.0497, 0.0497, 0.0497,0.0497, 0.0498, 0.0496, 0.0497,0.0497,0.0
SingleSource/Benchmarks/Stanford/Towers, 0.0076, 0.0076, 0.0076,0.0076, 0.0076, 0.0076, 0.0076,0.0076,0.0
SingleSource/Benchmarks/Stanford/RealMM, 0.0013, 0.0013, 0.0013,0.0013, 0.0013, 0.0013, 0.0013,0.0013,0.0
SingleSource/Benchmarks/Stanford/Puzzle, 0.0726, 0.0726, 0.0725,0.0726, 0.0726, 0.0726, 0.0726,0.0726,0.0
SingleSource/Benchmarks/Stanford/Perm, 0.0133, 0.0133, 0.0133,0.0133, 0.0133, 0.0133, 0.0133,0.0133,0.0
SingleSource/Benchmarks/Stanford/FloatMM, 0.1839, 0.1839, 0.1840,0.1839, 0.1839, 0.1839, 0.1840,0.1839,0.0
SingleSource/Benchmarks/Stanford/Bubblesort, 0.0143, 0.0144, 0.0144,0.0144, 0.0144, 0.0144, 0.0145,0.0144,0.0
SingleSource/Benchmarks/Shootout/random, 1.5955, 1.5954, 1.5954,1.5954, 1.5954, 1.5954, 1.5954,1.5954,0.0
SingleSource/Benchmarks/Shootout/objinst, 0.0007, 0.0007, 0.0007,0.0007, 0.0007, 0.0007, 0.0007,0.0007,0.0
SingleSource/Benchmarks/Shootout/nestedloop, 0.0007, 0.0007, 0.0007,0.0007, 0.0007, 0.0007, 0.0007,0.0007,0.0
SingleSource/Benchmarks/Shootout/ackermann, 0.0030, 0.0030, 0.0030,0.003, 0.0030, 0.0031, 0.0030,0.003,0.0
SingleSource/Benchmarks/Shootout-C++/random, 1.5956, 1.5955, 1.5955,1.5955, 1.5955, 1.5955, 1.5955,1.5955,0.0
SingleSource/Benchmarks/Shootout-C++/objinst, 0.0007, 0.0007, 0.0007,0.0007, 0.0007, 0.0007, 0.0007,0.0007,0.0
SingleSource/Benchmarks/Shootout-C++/nestedloop, 0.0007, 0.0007, 0.0007,0.0007, 0.0007, 0.0007, 0.0007,0.0007,0.0
SingleSource/Benchmarks/Shootout-C++/lists1, 0.1237, 0.1261, 0.1242,0.1242, 0.1248, 0.1241, 0.1242,0.1242,0.0
SingleSource/Benchmarks/Shootout-C++/ary, 0.0217, 0.0217, 0.0217,0.0217, 0.0216, 0.0217, 0.0217,0.0217,0.0
SingleSource/Benchmarks/Shootout-C++/ackermann, 0.6009, 0.6009, 0.6009,0.6009, 0.6009, 0.6009, 0.6009,0.6009,0.0
SingleSource/Benchmarks/Polybench/stencils/seidel-2d/seidel-2d, 0.6027, 0.6027, 0.6027,0.6027, 0.6027, 0.6027, 0.6027,0.6027,0.0
SingleSource/Benchmarks/Polybench/stencils/jacobi-1d-imper/jacobi-1d-imper, 0.0033, 0.0033, 0.0033,0.0033, 0.0033, 0.0032, 0.0033,0.0033,0.0
SingleSource/Benchmarks/Polybench/medley/reg_detect/reg_detect, 0.0142, 0.0142, 0.0142,0.0142, 0.0142, 0.0142, 0.0142,0.0142,0.0
SingleSource/Benchmarks/Polybench/linear-algebra/kernels/mvt/mvt, 0.2353, 0.2352, 0.2350,0.2352, 0.2354, 0.2352, 0.2351,0.2352,0.0
SingleSource/Benchmarks/Polybench/linear-algebra/kernels/bicg/bicg, 0.1994, 0.1994, 0.1993,0.1994, 0.1994, 0.1994, 0.1995,0.1994,0.0
SingleSource/Benchmarks/Misc/matmul_f64_4x4, 1.1842, 1.1843, 1.1842,1.1842, 1.1843, 1.1842, 1.1842,1.1842,0.0
SingleSource/Benchmarks/Misc/mandel-2, 1.1685, 1.1685, 1.1685,1.1685, 1.1685, 1.1685, 1.1685,1.1685,0.0
SingleSource/Benchmarks/Misc/mandel, 0.7622, 0.7623, 0.7623,0.7623, 0.7623, 0.7623, 0.7622,0.7623,0.0
SingleSource/Benchmarks/Misc/lowercase, 0.0007, 0.0007, 0.0007,0.0007, 0.0007, 0.0007, 0.0007,0.0007,0.0
SingleSource/Benchmarks/Misc/fp-convert, 2.4051, 2.4051, 2.4051,2.4051, 2.4051, 2.4051, 2.4051,2.4051,0.0
SingleSource/Benchmarks/Misc/flops-8, 2.6490, 2.6489, 2.6489,2.6489, 2.6489, 2.6488, 2.6489,2.6489,0.0
SingleSource/Benchmarks/Misc/flops-7, 1.4540, 1.4539, 1.4539,1.4539, 1.4539, 1.4539, 1.4539,1.4539,0.0
SingleSource/Benchmarks/Misc/flops-6, 3.1269, 3.1268, 3.1268,3.1268, 3.1268, 3.1472, 3.1268,3.1268,0.0
SingleSource/Benchmarks/Misc/flops-4, 2.1280, 2.1279, 2.1279,2.1279, 2.1714, 2.1279, 2.1279,2.1279,0.0
SingleSource/Benchmarks/Misc/flops-3, 4.9500, 4.9497, 4.9497,4.9497, 4.9498, 4.9497, 4.9497,4.9497,0.0
SingleSource/Benchmarks/Misc/flops-2, 0.7887, 0.7886, 0.7886,0.7886, 0.7886, 0.7886, 0.7887,0.7886,0.0
SingleSource/Benchmarks/Misc/fbench, 1.5669, 1.5669, 1.5669,1.5669, 1.5669, 1.5669, 1.5669,1.5669,0.0
SingleSource/Benchmarks/Misc/dt, 0.6098, 0.6098, 0.6098,0.6098, 0.6098, 0.6098, 0.6098,0.6098,0.0
SingleSource/Benchmarks/Misc/ReedSolomon, 2.8623, 2.8622, 2.8622,2.8622, 2.8622, 2.8621, 2.8622,2.8622,0.0
SingleSource/Benchmarks/Misc-C++/stepanov_v1p2, 7.2271, 7.2272, 7.2272,7.2272, 7.2273, 7.2272, 7.2272,7.2272,0.0
SingleSource/Benchmarks/Misc-C++/oopack_v1p8, 0.1481, 0.1481, 0.1479,0.1481, 0.1481, 0.1481, 0.1481,0.1481,0.0
SingleSource/Benchmarks/Dhrystone/fldry, 0.3341, 0.3341, 0.3341,0.3341, 0.3341, 0.3341, 0.3341,0.3341,0.0
SingleSource/Benchmarks/Dhrystone/dry, 0.2785, 0.2785, 0.2786,0.2785, 0.2785, 0.2785, 0.2786,0.2785,0.0
SingleSource/Benchmarks/BenchmarkGame/spectral-norm, 0.8932, 0.8932, 0.8932,0.8932, 0.8932, 0.8932, 0.8932,0.8932,0.0
SingleSource/Benchmarks/BenchmarkGame/partialsums, 0.5198, 0.5199, 0.5199,0.5199, 0.5199, 0.5199, 0.5199,0.5199,0.0
SingleSource/Benchmarks/BenchmarkGame/n-body, 1.2557, 1.2557, 1.2557,1.2557, 1.2557, 1.2556, 1.2557,1.2557,0.0
SingleSource/Benchmarks/BenchmarkGame/fannkuch, 1.9104, 1.9129, 1.9110,1.911, 1.9103, 1.9110, 1.9127,1.911,0.0
SingleSource/Benchmarks/Adobe-C++/simple_types_constant_folding, 0.6077, 0.6079, 0.6076,0.6077, 0.6077, 0.6077, 0.6077,0.6077,0.0
MultiSource/Benchmarks/mediabench/gsm/toast/toast, 0.0139, 0.0140, 0.0139,0.0139, 0.0139, 0.0139, 0.0139,0.0139,0.0
MultiSource/Benchmarks/mediabench/adpcm/rawdaudio/rawdaudio, 0.0034, 0.0034, 0.0034,0.0034, 0.0034, 0.0034, 0.0034,0.0034,0.0
MultiSource/Benchmarks/Trimaran/enc-rc4/enc-rc4, 0.6658, 0.6653, 0.6656,0.6656, 0.6656, 0.6656, 0.6652,0.6656,0.0
MultiSource/Benchmarks/Trimaran/enc-md5/enc-md5, 1.1196, 1.1195, 1.1195,1.1195, 1.1195, 1.1195, 1.1196,1.1195,0.0
MultiSource/Benchmarks/TSVC/Reductions-flt/Reductions-flt, 5.4270, 5.4270, 5.4269,5.427, 5.4271, 5.4269, 5.4270,5.427,0.0
MultiSource/Benchmarks/TSVC/Reductions-dbl/Reductions-dbl, 3.1455, 3.1457, 3.1456,3.1456, 3.1456, 3.1456, 3.1456,3.1456,0.0
MultiSource/Benchmarks/TSVC/LoopRerolling-dbl/LoopRerolling-dbl, 4.2280, 4.2289, 4.2281,4.2281, 4.2285, 4.2281, 4.2280,4.2281,0.0
MultiSource/Benchmarks/TSVC/ControlLoops-flt/ControlLoops-flt, 2.1514, 2.1562, 2.1497,2.1514, 2.1557, 2.1514, 2.1466,2.1514,0.0
MultiSource/Benchmarks/Prolangs-C/gnugo/gnugo, 0.0249, 0.0250, 0.0250,0.025, 0.0250, 0.0250, 0.0251,0.025,0.0
MultiSource/Benchmarks/Prolangs-C/bison/mybison, 0.0037, 0.0037, 0.0036,0.0037, 0.0036, 0.0037, 0.0037,0.0037,0.0
MultiSource/Benchmarks/Prolangs-C/agrep/agrep, 0.0045, 0.0045, 0.0045,0.0045, 0.0045, 0.0045, 0.0045,0.0045,0.0
MultiSource/Benchmarks/Prolangs-C++/simul/simul, 0.0035, 0.0035, 0.0035,0.0035, 0.0035, 0.0035, 0.0035,0.0035,0.0
MultiSource/Benchmarks/Prolangs-C++/ocean/ocean, 0.0363, 0.0364, 0.0363,0.0363, 0.0363, 0.0363, 0.0363,0.0363,0.0
MultiSource/Benchmarks/Prolangs-C++/city/city, 0.0046, 0.0046, 0.0046,0.0046, 0.0046, 0.0046, 0.0046,0.0046,0.0
MultiSource/Benchmarks/MiBench/telecomm-gsm/telecomm-gsm, 0.0930, 0.0931, 0.0930,0.093, 0.0930, 0.0930, 0.0931,0.093,0.0
MultiSource/Benchmarks/MiBench/telecomm-FFT/telecomm-fft, 0.0352, 0.0353, 0.0353,0.0353, 0.0353, 0.0353, 0.0353,0.0353,0.0
MultiSource/Benchmarks/MiBench/security-sha/security-sha, 0.0146, 0.0146, 0.0146,0.0146, 0.0145, 0.0146, 0.0146,0.0146,0.0
MultiSource/Benchmarks/MiBench/security-rijndael/security-rijndael, 0.0217, 0.0218, 0.0218,0.0218, 0.0217, 0.0218, 0.0218,0.0218,0.0
MultiSource/Benchmarks/MiBench/consumer-jpeg/consumer-jpeg, 0.0046, 0.0045, 0.0046,0.0046, 0.0046, 0.0046, 0.0045,0.0046,0.0
MultiSource/Benchmarks/MiBench/automotive-susan/automotive-susan, 0.0277, 0.0278, 0.0278,0.0278, 0.0278, 0.0277, 0.0279,0.0278,0.0
MultiSource/Benchmarks/McCat/18-imp/imp, 0.0527, 0.0528, 0.0526,0.0527, 0.0527, 0.0528, 0.0527,0.0527,0.0
MultiSource/Benchmarks/McCat/08-main/main, 0.0390, 0.0391, 0.0390,0.039, 0.0390, 0.0390, 0.0390,0.039,0.0
MultiSource/Benchmarks/McCat/05-eks/eks, 0.0031, 0.0031, 0.0031,0.0031, 0.0031, 0.0031, 0.0031,0.0031,0.0
MultiSource/Benchmarks/McCat/04-bisect/bisect, 0.0703, 0.0703, 0.0703,0.0703, 0.0703, 0.0703, 0.0703,0.0703,0.0
MultiSource/Benchmarks/McCat/03-testtrie/testtrie, 0.0074, 0.0074, 0.0074,0.0074, 0.0074, 0.0075, 0.0074,0.0074,0.0
MultiSource/Benchmarks/FreeBench/neural/neural, 0.1073, 0.1073, 0.1073,0.1073, 0.1073, 0.1073, 0.1073,0.1073,0.0
MultiSource/Benchmarks/FreeBench/fourinarow/fourinarow, 0.1624, 0.1625, 0.1625,0.1625, 0.1625, 0.1625, 0.1624,0.1625,0.0
MultiSource/Benchmarks/FreeBench/distray/distray, 0.1248, 0.1248, 0.1249,0.1248, 0.1248, 0.1249, 0.1248,0.1248,0.0
MultiSource/Benchmarks/DOE-ProxyApps-C++/CLAMR/CLAMR, 1.0247, 1.0247, 1.0249,1.0247, 1.0247, 1.0246, 1.0248,1.0247,0.0
MultiSource/Benchmarks/BitBench/uuencode/uuencode, 0.0114, 0.0114, 0.0114,0.0114, 0.0114, 0.0114, 0.0114,0.0114,0.0
MultiSource/Benchmarks/BitBench/uudecode/uudecode, 0.0565, 0.0564, 0.0564,0.0564, 0.0564, 0.0564, 0.0564,0.0564,0.0
MultiSource/Applications/sgefa/sgefa, 0.1396, 0.1396, 0.1396,0.1396, 0.1396, 0.1396, 0.1396,0.1396,0.0
MultiSource/Applications/obsequi/Obsequi, 1.0391, 1.0390, 1.0392,1.0391, 1.0390, 1.0391, 1.0392,1.0391,0.0
MultiSource/Applications/hbd/hbd, 0.0034, 0.0034, 0.0034,0.0034, 0.0034, 0.0034, 0.0034,0.0034,0.0
MultiSource/Applications/JM/lencod/lencod, 2.9022, 2.8995, 2.9027,2.9022, 2.9028, 2.9020, 2.9022,2.9022,0.0
MultiSource/Applications/ALAC/encode/alacconvert-encode, 0.0262, 0.0262, 0.0262,0.0262, 0.0262, 0.0262, 0.0261,0.0262,0.0
MultiSource/Applications/ALAC/decode/alacconvert-decode, 0.0137, 0.0137, 0.0137,0.0137, 0.0137, 0.0137, 0.0137,0.0137,0.0
MultiSource/Benchmarks/ASC_Sequoia/CrystalMk/CrystalMk, 6.6507, 6.6508, 6.6507,6.6507, 6.6506, 6.6505, 6.6506,6.6506,-0.0015036011246860603
MultiSource/Benchmarks/TSVC/Recurrences-dbl/Recurrences-dbl, 3.2016, 3.2017, 3.2016,3.2016, 3.2016, 3.2014, 3.2015,3.2015,-0.003123438280860924
MultiSource/Benchmarks/DOE-ProxyApps-C/XSBench/XSBench, 2.2199, 2.2217, 2.2216,2.2216, 2.2216, 2.2202, 2.2215,2.2215,-0.004501260352907099
SingleSource/Benchmarks/Misc/salsa20, 4.2228, 4.2228, 4.2227,4.2228, 4.2228, 4.2226, 4.2224,4.2226,-0.004736193994514526
SingleSource/Benchmarks/CoyoteBench/huffbench, 8.2789, 8.2815, 8.2946,8.2815, 8.2839, 8.2749, 8.2810,8.281,-0.006037553583271293
SingleSource/Benchmarks/McGill/queens, 1.6020, 1.6010, 1.6016,1.6016, 1.6011, 1.6017, 1.6015,1.6015,-0.006243756243751175
MultiSource/Benchmarks/Olden/tsp/tsp, 1.0733, 1.0726, 1.0735,1.0733, 1.0737, 1.0732, 1.0731,1.0732,-0.009317059536007033
MultiSource/Benchmarks/TSVC/Searching-dbl/Searching-dbl, 2.0806, 2.0811, 2.0813,2.0811, 2.0809, 2.0804, 2.0809,2.0809,-0.009610302244000835
SingleSource/Benchmarks/Shootout/methcall, 2.9959, 2.9956, 2.9960,2.9959, 2.9956, 2.9956, 2.9955,2.9956,-0.010013685369991698
MultiSource/Benchmarks/TSVC/CrossingThresholds-dbl/CrossingThresholds-dbl, 1.9838, 1.9842, 1.9843,1.9842, 1.9840, 1.9838, 1.9842,1.984,-0.0100796290696481
MultiSource/Benchmarks/Olden/power/power, 0.9634, 0.9633, 0.9634,0.9634, 0.9633, 0.9631, 0.9634,0.9633,-0.010379904504875803
SingleSource/Benchmarks/CoyoteBench/almabench,11.5584,11.5607,11.5626,11.5607,11.5612,11.5594,11.5553,11.5594,-0.01124499381526256
SingleSource/Benchmarks/Misc/perlin, 3.5486, 3.5485, 3.5484,3.5485, 3.5481, 3.5484, 3.5481,3.5481,-0.011272368606463079
MultiSource/Benchmarks/TSVC/NodeSplitting-dbl/NodeSplitting-dbl, 4.6031, 4.6037, 4.6053,4.6037, 4.6053, 4.6027, 4.6031,4.6031,-0.013032995199502295
SingleSource/Benchmarks/Misc/pi, 0.6348, 0.6347, 0.6348,0.6348, 0.6347, 0.6347, 0.6348,0.6347,-0.01575299306868505
MultiSource/Benchmarks/TSVC/NodeSplitting-flt/NodeSplitting-flt, 4.2598, 4.2629, 4.2587,4.2598, 4.2627, 4.2591, 4.2582,4.2591,-0.016432696370727307
MultiSource/Benchmarks/TSVC/LinearDependence-flt/LinearDependence-flt, 4.5604, 4.5616, 4.5551,4.5604, 4.5594, 4.5600, 4.5561,4.5594,-0.021927901061302713
MultiSource/Benchmarks/TSVC/LoopRerolling-flt/LoopRerolling-flt, 3.5087, 3.5113, 3.5050,3.5087, 3.5122, 3.5035, 3.5079,3.5079,-0.02280046740958941
MultiSource/Benchmarks/Olden/bh/bh, 1.1810, 1.1813, 1.1813,1.1813, 1.1810, 1.1810, 1.1868,1.181,-0.025395750444423548
MultiSource/Applications/viterbi/viterbi, 1.1748, 1.1737, 1.1761,1.1748, 1.1738, 1.1745, 1.1749,1.1745,-0.025536261491310164
MultiSource/Benchmarks/VersaBench/beamformer/beamformer, 0.6857, 0.6860, 0.6860,0.686, 0.6859, 0.6858, 0.6858,0.6858,-0.029154518950447184
SingleSource/Benchmarks/Misc/revertBits, 0.3013, 0.3013, 0.3012,0.3013, 0.3012, 0.3012, 0.3012,0.3012,-0.033189512114173425
MultiSource/Benchmarks/TSVC/Equivalencing-flt/Equivalencing-flt, 0.8885, 0.8867, 0.8870,0.887, 0.8877, 0.8867, 0.8854,0.8867,-0.033821871476880094
MultiSource/Benchmarks/ASCI_Purple/SMG2000/smg2000, 1.2861, 1.2848, 1.2838,1.2848, 1.2833, 1.2848, 1.2843,1.2843,-0.03891656288915746
MultiSource/Applications/aha/aha, 0.9486, 0.9476, 0.9479,0.9479, 0.9475, 0.9472, 0.9479,0.9475,-0.042198544150218176
MultiSource/Benchmarks/nbench/nbench, 1.1635, 1.1638, 1.1627,1.1635, 1.1628, 1.1630, 1.1630,1.163,-0.042973785990541025
MultiSource/Benchmarks/TSVC/IndirectAddressing-flt/IndirectAddressing-flt, 2.0545, 2.0562, 2.0559,2.0559, 2.0548, 2.0554, 2.0550,2.055,-0.04377644827081584
SingleSource/Benchmarks/Misc/richards_benchmark, 0.4547, 0.4546, 0.4548,0.4547, 0.4542, 0.4545, 0.4547,0.4545,-0.04398504508467127
MultiSource/Benchmarks/tramp3d-v4/tramp3d-v4, 0.2193, 0.2191, 0.2191,0.2191, 0.2192, 0.2190, 0.2190,0.219,-0.04564125969875876
MultiSource/Benchmarks/TSVC/IndirectAddressing-dbl/IndirectAddressing-dbl, 2.2738, 2.2777, 2.2723,2.2738, 2.2711, 2.2726, 2.2779,2.2726,-0.05277509015744197
SingleSource/Benchmarks/Shootout-C++/lists, 2.6441, 2.6528, 2.6381,2.6441, 2.6408, 2.6425, 2.6455,2.6425,-0.0605120835066697
SingleSource/Benchmarks/Shootout/heapsort, 1.9435, 1.9454, 1.9415,1.9435, 1.9414, 1.9423, 1.9453,1.9423,-0.06174427579109798
SingleSource/Benchmarks/Polybench/linear-algebra/kernels/atax/atax, 0.1605, 0.1605, 0.1603,0.1605, 0.1604, 0.1605, 0.1604,0.1604,-0.06230529595017131
MultiSource/Benchmarks/TSVC/InductionVariable-flt/InductionVariable-flt, 2.3440, 2.3460, 2.3418,2.344, 2.3423, 2.3428, 2.3379,2.3423,-0.07252559726962371
SingleSource/Benchmarks/Shootout/sieve, 3.1698, 3.1731, 3.1742,3.1731, 3.1706, 3.1661, 3.1709,3.1706,-0.07878730578928517
MultiSource/Benchmarks/DOE-ProxyApps-C/SimpleMOC/SimpleMOC, 3.4692, 3.4704, 3.4819,3.4704, 3.4913, 3.4676, 3.4634,3.4676,-0.08068234209313019
MultiSource/Benchmarks/FreeBench/mason/mason, 0.1210, 0.1210, 0.1209,0.121, 0.1209, 0.1209, 0.1210,0.1209,-0.08264462809917106
MultiSource/Benchmarks/ASC_Sequoia/IRSmk/IRSmk, 2.7247, 2.7245, 2.7231,2.7245, 2.7222, 2.7216, 2.7286,2.7222,-0.08441915947879908
MultiSource/Applications/lua/lua,10.1832,10.1809,10.1809,10.1809,10.2290,10.1682,10.1719,10.1719,-0.08840082900332114
MultiSource/Benchmarks/MiBench/consumer-lame/consumer-lame, 0.1089, 0.1089, 0.1088,0.1089, 0.1088, 0.1087, 0.1088,0.1088,-0.09182736455464191
MultiSource/Benchmarks/DOE-ProxyApps-C++/HPCCG/HPCCG, 0.8368, 0.8374, 0.8373,0.8373, 0.8365, 0.8365, 0.8369,0.8365,-0.0955452048250316
MultiSource/Benchmarks/VersaBench/8b10b/8b10b, 3.2906, 3.3001, 3.2883,3.2906, 3.2872, 3.2874, 3.2903,3.2874,-0.0972467027289925
MultiSource/Benchmarks/MiBench/automotive-basicmath/automotive-basicmath, 0.2052, 0.2055, 0.2058,0.2055, 0.2053, 0.2053, 0.2055,0.2053,-0.09732360097322035
SingleSource/Benchmarks/BenchmarkGame/Large/fasta, 0.5906, 0.5899, 0.5906,0.5906, 0.5900, 0.5897, 0.5901,0.59,-0.10159160176093085
MultiSource/Benchmarks/MallocBench/cfrac/cfrac, 0.6969, 0.6972, 0.6978,0.6972, 0.6966, 0.6964, 0.6964,0.6964,-0.11474469305794432
MultiSource/Benchmarks/Ptrdist/yacr2/yacr2, 0.4872, 0.4869, 0.4869,0.4869, 0.4862, 0.4863, 0.4870,0.4863,-0.12322858903265343
MultiSource/Benchmarks/PAQ8p/paq8p,39.0364,39.0627,39.0595,39.0595,39.0212,39.0094,39.0030,39.0094,-0.12826585081734398
MultiSource/Benchmarks/TSVC/Equivalencing-dbl/Equivalencing-dbl, 1.2722, 1.2732, 1.2734,1.2732, 1.2708, 1.2715, 1.2732,1.2715,-0.13352183474709678
MultiSource/Benchmarks/TSVC/StatementReordering-flt/StatementReordering-flt, 1.6735, 1.6746, 1.6748,1.6746, 1.6737, 1.6713, 1.6722,1.6722,-0.14331780723756404
SingleSource/Benchmarks/Shootout-C++/methcall, 3.1544, 3.1591, 3.1590,3.159, 3.1544, 3.1590, 3.1543,3.1544,-0.14561570117125333
SingleSource/Benchmarks/Polybench/linear-algebra/solvers/dynprog/dynprog, 0.2574, 0.2572, 0.2570,0.2572, 0.2566, 0.2570, 0.2568,0.2568,-0.15552099533437946
MultiSource/Benchmarks/FreeBench/pifft/pifft, 0.0613, 0.0616, 0.0615,0.0615, 0.0613, 0.0614, 0.0614,0.0614,-0.1626016260162566
SingleSource/Benchmarks/Polybench/linear-algebra/kernels/cholesky/cholesky, 0.4156, 0.4152, 0.4164,0.4156, 0.4165, 0.4149, 0.4148,0.4149,-0.1684311838306196
SingleSource/Benchmarks/CoyoteBench/lpbench, 2.4085, 2.3847, 2.3917,2.3917, 2.3873, 2.3986, 2.3863,2.3873,-0.18396956139984377
MultiSource/Benchmarks/Fhourstones/fhourstones, 0.4917, 0.4904, 0.4943,0.4917, 0.4969, 0.4907, 0.4906,0.4907,-0.20337604230221684
MultiSource/Benchmarks/DOE-ProxyApps-C++/miniFE/miniFE, 2.4173, 2.4230, 2.4261,2.423, 2.4195, 2.4180, 2.4130,2.418,-0.20635575732562694
SingleSource/Benchmarks/Misc/evalloop, 0.3336, 0.3363, 0.3358,0.3358, 0.3350, 0.3352, 0.3344,0.335,-0.2382370458606231
MultiSource/Benchmarks/VersaBench/dbms/dbms, 0.7967, 0.7981, 0.7968,0.7968, 0.7959, 0.7946, 0.7949,0.7949,-0.2384538152610305
SingleSource/Benchmarks/Shootout-C++/strcat, 0.0386, 0.0386, 0.0385,0.0386, 0.0384, 0.0387, 0.0385,0.0385,-0.2590673575129654
MultiSource/Applications/JM/ldecod/ldecod, 0.0380, 0.0380, 0.0380,0.038, 0.0379, 0.0380, 0.0379,0.0379,-0.2631578947368318
SingleSource/Benchmarks/Misc/himenobmtxpa, 0.5096, 0.5029, 0.4978,0.5029, 0.5013, 0.5015, 0.5067,0.5015,-0.27838536488369314
MultiSource/Benchmarks/Olden/health/health, 0.1404, 0.1399, 0.1405,0.1404, 0.1403, 0.1400, 0.1398,0.14,-0.2849002849002691
MultiSource/Benchmarks/DOE-ProxyApps-C/RSBench/rsbench, 0.5224, 0.5308, 0.5283,0.5283, 0.5321, 0.5267, 0.5266,0.5267,-0.30285822449366284
SingleSource/Benchmarks/Misc-C++/stepanov_container, 2.6580, 2.6474, 2.6592,2.658, 2.6658, 2.6495, 2.6475,2.6495,-0.3197893152746323
SingleSource/Benchmarks/Polybench/stencils/fdtd-2d/fdtd-2d, 0.5108, 0.5085, 0.5104,0.5104, 0.5069, 0.5090, 0.5086,0.5086,-0.3526645768024861
MultiSource/Benchmarks/MallocBench/gs/gs, 0.0274, 0.0274, 0.0275,0.0274, 0.0273, 0.0274, 0.0273,0.0273,-0.36496350364962904
SingleSource/Benchmarks/Shootout-C++/moments, 0.0503, 0.0504, 0.0504,0.0504, 0.0504, 0.0502, 0.0502,0.0502,-0.3968253968253954
MultiSource/Benchmarks/DOE-ProxyApps-C/Pathfinder/PathFinder, 1.9430, 1.9434, 1.9430,1.943, 1.9345, 1.9349, 1.9372,1.9349,-0.41688111168296516
MultiSource/Applications/oggenc/oggenc, 0.0709, 0.0709, 0.0713,0.0709, 0.0707, 0.0706, 0.0706,0.0706,-0.42313117066291595
SingleSource/Benchmarks/Shootout-C++/ary2, 0.0217, 0.0218, 0.0218,0.0218, 0.0217, 0.0217, 0.0218,0.0217,-0.4587155963302725
MultiSource/Benchmarks/Olden/treeadd/treeadd, 0.1172, 0.1172, 0.1166,0.1172, 0.1173, 0.1166, 0.1166,0.1166,-0.5119453924914752
MultiSource/Benchmarks/FreeBench/analyzer/analyzer, 0.0393, 0.0389, 0.0383,0.0389, 0.0386, 0.0389, 0.0387,0.0387,-0.5141388174807138
SingleSource/Benchmarks/Polybench/linear-algebra/kernels/symm/symm,14.8965,14.6728,14.8502,14.8502,14.7700,14.5519,15.2772,14.77,-0.5400600665310895
SingleSource/Benchmarks/CoyoteBench/fftbench, 0.7378, 0.7347, 0.7368,0.7368, 0.7325, 0.7310, 0.7379,0.7325,-0.583604777415847
SingleSource/Benchmarks/Adobe-C++/stepanov_abstraction, 3.9012, 3.8997, 3.9004,3.9004, 3.8764, 3.8774, 3.8767,3.8767,-0.6076299866680346
MultiSource/Benchmarks/Olden/mst/mst, 0.0492, 0.0489, 0.0486,0.0489, 0.0487, 0.0486, 0.0482,0.0486,-0.613496932515345
MultiSource/Benchmarks/NPB-serial/is/is, 4.6297, 4.7479, 4.6673,4.6673, 4.6297, 4.6297, 4.7424,4.6297,-0.805604953613448
MultiSource/Applications/d/make_dparser, 0.0163, 0.0163, 0.0162,0.0163, 0.0161, 0.0161, 0.0161,0.0161,-1.2269938650306678
SingleSource/Benchmarks/Stanford/Queens, 0.0068, 0.0066, 0.0067,0.0067, 0.0067, 0.0066, 0.0066,0.0066,-1.4925373134328401
SingleSource/Benchmarks/Polybench/linear-algebra/kernels/syrk/syrk, 4.2102, 4.2221, 4.2229,4.2221, 4.2226, 4.1450, 3.9974,4.145,-1.82610549252743
MultiSource/Benchmarks/MiBench/consumer-typeset/consumer-typeset, 0.0805, 0.0807, 0.0799,0.0805, 0.0790, 0.0793, 0.0790,0.079,-1.8633540372670843
SingleSource/Benchmarks/Shootout-C++/ary3, 0.6807, 0.6824, 0.7118,0.6824, 0.6838, 0.6547, 0.6682,0.6682,-2.0808909730363423
SingleSource/Benchmarks/Adobe-C++/stepanov_vector, 2.1096, 2.1098, 2.1099,2.1098, 2.0617, 2.0626, 2.0617,2.0617,-2.2798369513697847
SingleSource/Benchmarks/Shootout/ary3, 0.7146, 0.7145, 0.6994,0.7145, 0.6937, 0.7133, 0.6904,0.6937,-2.9111266620014065
MultiSource/Benchmarks/TSVC/LoopRestructuring-flt/LoopRestructuring-flt, 2.7255, 2.5726, 2.6926,2.6926, 2.6084, 2.7183, 2.6115,2.6115,-3.0119587016266824
MultiSource/Applications/siod/siod, 1.0349, 1.0342, 1.0333,1.0342, 0.9846, 0.9859, 1.0159,0.9859,-4.67027654225488
SingleSource/Benchmarks/Polybench/linear-algebra/solvers/lu/lu, 0.0019, 0.0020, 0.0020,0.002, 0.0019, 0.0019, 0.0019,0.0019,-5.000000000000004
SingleSource/Benchmarks/Stanford/Oscar, 0.0029, 0.0029, 0.0029,0.0029, 0.0022, 0.0022, 0.0022,0.0022,-24.13793103448275
Total elapsed time,-,-,-,539.5071000000006,-,-,-,539.6080000000003,0.018702256188962707
Total failure,-,-,-,0,-,-,-,0,
Geom. avg slowdown,,,,,,,,,-0.0611485075423%
