Benchmarks,base,base,base,base,base,median,intptr,intptr,intptr,intptr,intptr,median,Slowdown(%)
SingleSource/Benchmarks/CoyoteBench/almabench, 0.0623, 0.0621, 0.0622, 0.0620, 0.0617,0.0621, 0.0634, 0.0634, 0.0635, 0.0633, 0.0637,0.0634,2.0933977455716457
MultiSource/Benchmarks/TSVC/CrossingThresholds-flt/CrossingThresholds-flt, 2.1830, 2.1830, 2.1832, 2.1818, 2.1719,2.183, 2.2008, 2.1991, 2.2032, 2.2035, 2.2053,2.2032,0.925332111772792
MultiSource/Benchmarks/TSVC/Expansion-flt/Expansion-flt, 2.2436, 2.2445, 2.2362, 2.2424, 2.2492,2.2436, 2.2658, 2.2630, 2.2658, 2.2594, 2.2612,2.263,0.8646817614547997
MultiSource/Benchmarks/Trimaran/enc-3des/enc-3des, 0.2630, 0.2625, 0.2629, 0.2622, 0.2626,0.2626, 0.2647, 0.2641, 0.2643, 0.2651, 0.2649,0.2647,0.7996953541507867
MultiSource/Benchmarks/TSVC/Reductions-dbl/Reductions-dbl, 2.5065, 2.5054, 2.4998, 2.5072, 2.5107,2.5065, 2.5145, 2.5148, 2.5258, 2.5253, 2.5247,2.5247,0.7261121085178512
MultiSource/Benchmarks/TSVC/StatementReordering-flt/StatementReordering-flt, 2.1371, 2.1338, 2.1477, 2.1188, 2.1370,2.137, 2.1513, 2.1523, 2.1483, 2.1434, 2.1523,2.1513,0.6691623771642563
MultiSource/Benchmarks/TSVC/LinearDependence-flt/LinearDependence-flt, 2.2839, 2.2775, 2.2781, 2.2830, 2.2695,2.2781, 2.3111, 2.2914, 2.3010, 2.2873, 2.2922,2.2922,0.6189368333260115
MultiSource/Benchmarks/TSVC/Packing-flt/Packing-flt, 2.1295, 2.1309, 2.1331, 2.1262, 2.1302,2.1302, 2.1432, 2.1513, 2.1386, 2.1478, 2.1408,2.1432,0.6102713360248035
MultiSource/Benchmarks/Trimaran/enc-md5/enc-md5, 0.1671, 0.1672, 0.1670, 0.1673, 0.1667,0.1671, 0.1677, 0.1683, 0.1680, 0.1677, 0.1680,0.168,0.5385996409335903
MultiSource/Benchmarks/TSVC/Packing-dbl/Packing-dbl, 2.3816, 2.3840, 2.3839, 2.3833, 2.3903,2.3839, 2.3965, 2.3964, 2.4013, 2.3844, 2.3984,2.3965,0.5285456604723349
MultiSource/Benchmarks/TSVC/Searching-dbl/Searching-dbl, 2.3676, 2.3685, 2.3719, 2.3715, 2.3704,2.3704, 2.3995, 2.3795, 2.3844, 2.3793, 2.3817,2.3817,0.4767127910900948
MultiSource/Benchmarks/TSVC/Equivalencing-flt/Equivalencing-flt, 2.1921, 2.1919, 2.1930, 2.1956, 2.2008,2.193, 2.1913, 2.2003, 2.2076, 2.2034, 2.2140,2.2034,0.47423620611033446
MultiSource/Benchmarks/TSVC/Recurrences-flt/Recurrences-flt, 2.1285, 2.1375, 2.1298, 2.1284, 2.1314,2.1298, 2.1361, 2.1358, 2.1417, 2.1414, 2.1399,2.1399,0.4742229317306723
SingleSource/Benchmarks/McGill/queens, 0.0448, 0.0448, 0.0449, 0.0450, 0.0449,0.0449, 0.0451, 0.0452, 0.0450, 0.0451, 0.0450,0.0451,0.44543429844097204
MultiSource/Benchmarks/TSVC/IndirectAddressing-flt/IndirectAddressing-flt, 2.1689, 2.1697, 2.1697, 2.1700, 2.1611,2.1697, 2.1902, 2.1630, 2.1824, 2.1793, 2.1662,2.1793,0.44245748260127726
MultiSource/Benchmarks/TSVC/ControlFlow-dbl/ControlFlow-dbl, 2.6041, 2.6206, 2.6223, 2.6260, 2.6208,2.6208, 2.6327, 2.6288, 2.6321, 2.6193, 2.6414,2.6321,0.43116605616604353
MultiSource/Benchmarks/TSVC/LoopRestructuring-dbl/LoopRestructuring-dbl, 2.4647, 2.4717, 2.4685, 2.4667, 2.4622,2.4667, 2.4770, 2.4751, 2.4852, 2.4791, 2.4751,2.477,0.4175619248388607
MultiSource/Benchmarks/TSVC/ControlLoops-flt/ControlLoops-flt, 2.2457, 2.2532, 2.2533, 2.2533, 2.2553,2.2533, 2.2625, 2.2680, 2.2603, 2.2608, 2.2705,2.2625,0.40829006346250196
MultiSource/Benchmarks/TSVC/LoopRerolling-dbl/LoopRerolling-dbl, 2.4067, 2.3996, 2.4018, 2.4100, 2.4027,2.4027, 2.4124, 2.4112, 2.4110, 2.4132, 2.4149,2.4124,0.4037124901152822
MultiSource/Benchmarks/TSVC/Symbolics-flt/Symbolics-flt, 2.1908, 2.1899, 2.1868, 2.1835, 2.1877,2.1877, 2.1995, 2.1905, 2.1965, 2.1921, 2.1967,2.1965,0.40224893724001287
MultiSource/Benchmarks/TSVC/Recurrences-dbl/Recurrences-dbl, 2.3859, 2.3852, 2.3894, 2.3870, 2.3890,2.387, 2.3964, 2.3953, 2.3973, 2.3957, 2.3979,2.3964,0.3937997486384459
MultiSource/Benchmarks/TSVC/StatementReordering-dbl/StatementReordering-dbl, 2.3945, 2.3862, 2.3948, 2.3874, 2.3945,2.3945, 2.3999, 2.4027, 2.4037, 2.4062, 2.4058,2.4037,0.38421382334516974
MultiSource/Benchmarks/TSVC/NodeSplitting-dbl/NodeSplitting-dbl, 2.4268, 2.4276, 2.4323, 2.4244, 2.4290,2.4276, 2.4368, 2.4336, 2.4362, 2.4344, 2.4356,2.4356,0.3295435821387471
MultiSource/Benchmarks/VersaBench/ecbdes/ecbdes, 0.2156, 0.2162, 0.2154, 0.2164, 0.2164,0.2162, 0.2166, 0.2172, 0.2169, 0.2170, 0.2169,0.2169,0.3237742830712431
MultiSource/Benchmarks/TSVC/Symbolics-dbl/Symbolics-dbl, 2.4404, 2.4508, 2.4452, 2.4419, 2.4412,2.4419, 2.4494, 2.4495, 2.4511, 2.4498, 2.4500,2.4498,0.3235185716040867
SingleSource/Benchmarks/BenchmarkGame/nsieve-bits, 0.0310, 0.0312, 0.0311, 0.0311, 0.0312,0.0311, 0.0311, 0.0311, 0.0312, 0.0312, 0.0312,0.0312,0.3215434083601254
MultiSource/Benchmarks/Prolangs-C++/life/life, 0.0628, 0.0630, 0.0630, 0.0627, 0.0627,0.0628, 0.0630, 0.0627, 0.0631, 0.0631, 0.0630,0.063,0.31847133757962887
MultiSource/Benchmarks/TSVC/ControlLoops-dbl/ControlLoops-dbl, 2.5065, 2.5126, 2.5076, 2.5098, 2.5089,2.5089, 2.5168, 2.5144, 2.5199, 2.5163, 2.5157,2.5163,0.2949499780780407
SingleSource/Benchmarks/Shootout-C++/moments, 0.2384, 0.2374, 0.2370, 0.2375, 0.2374,0.2374, 0.2379, 0.2393, 0.2390, 0.2372, 0.2381,0.2381,0.29486099410278577
MultiSource/Benchmarks/TSVC/Equivalencing-dbl/Equivalencing-dbl, 2.4592, 2.4520, 2.4527, 2.4511, 2.4549,2.4527, 2.4586, 2.4639, 2.4639, 2.4596, 2.4598,2.4598,0.2894769030048483
MultiSource/Benchmarks/TSVC/LoopRestructuring-flt/LoopRestructuring-flt, 2.2109, 2.2122, 2.2137, 2.2201, 2.2131,2.2131, 2.2194, 2.2175, 2.2268, 2.2053, 2.2198,2.2194,0.2846685644571023
MultiSource/Applications/JM/ldecod/ldecod, 6.5155, 6.5501, 6.5232, 6.5152, 6.5537,6.5232, 6.5416, 6.5761, 6.5590, 6.5350, 6.5344,6.5416,0.28207014961980637
MultiSource/Benchmarks/TSVC/GlobalDataFlow-dbl/GlobalDataFlow-dbl, 2.4977, 2.5003, 2.4966, 2.5037, 2.5016,2.5003, 2.4844, 2.5039, 2.5066, 2.5114, 2.5081,2.5066,0.2519697636283569
MultiSource/Benchmarks/BitBench/drop3/drop3, 0.0410, 0.0411, 0.0410, 0.0410, 0.0410,0.041, 0.0409, 0.0411, 0.0411, 0.0412, 0.0410,0.0411,0.24390243902439046
MultiSource/Benchmarks/McCat/04-bisect/bisect, 0.1247, 0.1249, 0.1246, 0.1245, 0.1246,0.1246, 0.1249, 0.1251, 0.1250, 0.1249, 0.1249,0.1249,0.24077046548955927
MultiSource/Benchmarks/TSVC/CrossingThresholds-dbl/CrossingThresholds-dbl, 2.4525, 2.4510, 2.4548, 2.4504, 2.4519,2.4519, 2.4552, 2.4558, 2.4603, 2.4639, 2.4578,2.4578,0.24062971573066694
MultiSource/Benchmarks/TSVC/Expansion-dbl/Expansion-dbl, 2.5068, 2.5165, 2.5078, 2.5232, 2.5135,2.5135, 2.5130, 2.5195, 2.5153, 2.5218, 2.5237,2.5195,0.2387109608116056
MultiSource/Benchmarks/BitBench/uudecode/uudecode, 0.0427, 0.0426, 0.0429, 0.0427, 0.0429,0.0427, 0.0428, 0.0427, 0.0430, 0.0428, 0.0428,0.0428,0.23419203747072626
MultiSource/Benchmarks/TSVC/IndirectAddressing-dbl/IndirectAddressing-dbl, 2.4386, 2.4312, 2.4348, 2.4318, 2.4337,2.4337, 2.4393, 2.4207, 2.4451, 2.4402, 2.4228,2.4393,0.2301023133500335
MultiSource/Benchmarks/TSVC/Searching-flt/Searching-flt, 2.1178, 2.1189, 2.1131, 2.1238, 2.1129,2.1178, 2.1220, 2.1224, 2.1258, 2.1224, 2.1238,2.1224,0.21720653508356946
MultiSource/Benchmarks/TSVC/InductionVariable-dbl/InductionVariable-dbl, 2.4738, 2.4650, 2.4815, 2.4658, 2.4768,2.4738, 2.4824, 2.4592, 2.4803, 2.4791, 2.4692,2.4791,0.21424529064595355
MultiSource/Benchmarks/Prolangs-C++/simul/simul, 0.0491, 0.0493, 0.0493, 0.0490, 0.0490,0.0491, 0.0489, 0.0493, 0.0489, 0.0494, 0.0492,0.0492,0.20366598778005507
SingleSource/Benchmarks/SmallPT/smallpt, 0.0994, 0.0993, 0.0996, 0.0995, 0.0994,0.0994, 0.1000, 0.0996, 0.1000, 0.0995, 0.0996,0.0996,0.2012072434607548
MultiSource/Benchmarks/Prolangs-C++/ocean/ocean, 0.1015, 0.1023, 0.1017, 0.1017, 0.1015,0.1017, 0.1024, 0.1019, 0.1018, 0.1017, 0.1020,0.1019,0.1966568338249708
MultiSource/Applications/d/make_dparser, 2.5215, 2.5131, 2.5119, 2.5184, 2.5126,2.5131, 2.5199, 2.5172, 2.5155, 2.5179, 2.5221,2.5179,0.19099916437865794
MultiSource/Benchmarks/TSVC/Reductions-flt/Reductions-flt, 2.2576, 2.2524, 2.2518, 2.2513, 2.2598,2.2524, 2.2555, 2.2567, 2.2636, 2.2549, 2.2673,2.2567,0.19090747646952622
MultiSource/Benchmarks/McCat/18-imp/imp, 0.3304, 0.3315, 0.3319, 0.3323, 0.3322,0.3319, 0.3315, 0.3329, 0.3325, 0.3325, 0.3326,0.3325,0.18077734257306854
SingleSource/Benchmarks/Misc/richards_benchmark, 0.0582, 0.0583, 0.0582, 0.0583, 0.0583,0.0583, 0.0584, 0.0584, 0.0584, 0.0585, 0.0584,0.0584,0.17152658662094034
SingleSource/Benchmarks/Shootout-C++/EH/except, 0.1263, 0.1266, 0.1257, 0.1268, 0.1264,0.1264, 0.1269, 0.1266, 0.1270, 0.1263, 0.1262,0.1266,0.15822784810124446
MultiSource/Benchmarks/Trimaran/enc-pc1/enc-pc1, 0.0651, 0.0653, 0.0652, 0.0655, 0.0652,0.0652, 0.0653, 0.0653, 0.0654, 0.0657, 0.0653,0.0653,0.15337423312884457
SingleSource/Benchmarks/Stanford/Oscar, 0.0654, 0.0655, 0.0654, 0.0655, 0.0658,0.0655, 0.0656, 0.0655, 0.0656, 0.0654, 0.0657,0.0656,0.15267175572519776
MultiSource/Benchmarks/nbench/nbench, 1.2013, 1.2072, 1.2074, 1.2069, 1.2066,1.2069, 1.2070, 1.2086, 1.2093, 1.2074, 1.2086,1.2086,0.14085674040928975
MultiSource/Benchmarks/TSVC/InductionVariable-flt/InductionVariable-flt, 2.2160, 2.2208, 2.2114, 2.2149, 2.2128,2.2149, 2.2177, 2.2144, 2.2203, 2.2260, 2.2179,2.2179,0.13544629554382848
MultiSource/Benchmarks/FreeBench/fourinarow/fourinarow, 0.3753, 0.3740, 0.3741, 0.3748, 0.3738,0.3741, 0.3744, 0.3729, 0.3747, 0.3746, 0.3746,0.3746,0.13365410318095794
MultiSource/Benchmarks/PAQ8p/paq8p, 2.0441, 2.0470, 2.0562, 2.0487, 2.0546,2.0487, 2.0555, 2.0594, 2.0514, 2.0473, 2.0507,2.0514,0.131790891785033
SingleSource/Benchmarks/Polybench/linear-algebra/kernels/syr2k/syr2k, 0.0870, 0.0872, 0.0871, 0.0874, 0.0872,0.0872, 0.0871, 0.0873, 0.0874, 0.0871, 0.0873,0.0873,0.11467889908256534
SingleSource/Benchmarks/Shootout-C++/hash, 0.2633, 0.2628, 0.2623, 0.2618, 0.2617,0.2623, 0.2629, 0.2622, 0.2610, 0.2632, 0.2626,0.2626,0.1143728555089707
MultiSource/Benchmarks/mediabench/jpeg/jpeg-6a/cjpeg, 4.2830, 4.2962, 4.2921, 4.2935, 4.2992,4.2935, 4.2904, 4.2897, 4.3002, 4.2984, 4.3006,4.2984,0.11412600442530785
MultiSource/Benchmarks/Ptrdist/anagram/anagram, 0.0952, 0.0955, 0.0952, 0.0950, 0.0951,0.0952, 0.0955, 0.0952, 0.0953, 0.0951, 0.0954,0.0953,0.10504201680670011
MultiSource/Benchmarks/Ptrdist/ft/ft, 0.1927, 0.1928, 0.1925, 0.1930, 0.1924,0.1927, 0.1929, 0.1923, 0.1927, 0.1933, 0.1930,0.1929,0.10378827192525364
MultiSource/Benchmarks/MiBench/consumer-lame/consumer-lame, 4.2395, 4.2255, 4.2305, 4.2237, 4.2411,4.2305, 4.2322, 4.2375, 4.2328, 4.2345, 4.2469,4.2345,0.0945514714572715
SingleSource/Benchmarks/Polybench/linear-algebra/kernels/doitgen/doitgen, 0.1122, 0.1123, 0.1125, 0.1121, 0.1122,0.1122, 0.1120, 0.1119, 0.1123, 0.1124, 0.1124,0.1123,0.08912655971480277
SingleSource/Benchmarks/Adobe-C++/simple_types_constant_folding, 2.2658, 2.2621, 2.2707, 2.2645, 2.2716,2.2658, 2.2678, 2.2740, 2.2616, 2.2679, 2.2663,2.2678,0.08826904404624081
SingleSource/Benchmarks/Adobe-C++/simple_types_loop_invariant, 1.8333, 1.8309, 1.8323, 1.8312, 1.8355,1.8323, 1.8383, 1.8273, 1.8357, 1.8339, 1.8325,1.8339,0.08732194509633029
MultiSource/Benchmarks/mafft/pairlocalalign, 9.4229, 9.4343, 9.4337, 9.4244, 9.4391,9.4337, 9.4335, 9.4112, 9.4453, 9.4413, 9.4590,9.4413,0.08056223963026632
MultiSource/Benchmarks/Ptrdist/bc/bc, 0.9929, 0.9932, 0.9940, 0.9935, 0.9947,0.9935, 0.9942, 0.9926, 0.9945, 0.9934, 0.9943,0.9942,0.07045797684952504
MultiSource/Benchmarks/MiBench/telecomm-gsm/telecomm-gsm, 1.0623, 1.0629, 1.0618, 1.0638, 1.0626,1.0626, 1.0617, 1.0632, 1.0649, 1.0641, 1.0630,1.0632,0.05646527385656519
MultiSource/Benchmarks/McCat/05-eks/eks, 0.5900, 0.5897, 0.5903, 0.5899, 0.5898,0.5899, 0.5899, 0.5902, 0.5907, 0.5902, 0.5897,0.5902,0.05085607730124231
MultiSource/Benchmarks/Trimaran/netbench-url/netbench-url, 0.1999, 0.2005, 0.1999, 0.2012, 0.2003,0.2003, 0.1999, 0.2007, 0.1999, 0.2007, 0.2004,0.2004,0.04992511233150587
SingleSource/Benchmarks/Misc-C++/Large/sphereflake, 0.2120, 0.2122, 0.2120, 0.2124, 0.2127,0.2122, 0.2125, 0.2124, 0.2112, 0.2123, 0.2115,0.2123,0.04712535344013613
MultiSource/Benchmarks/ASC_Sequoia/CrystalMk/CrystalMk, 0.2308, 0.2307, 0.2307, 0.2316, 0.2309,0.2308, 0.2308, 0.2313, 0.2309, 0.2311, 0.2306,0.2309,0.043327556325811756
MultiSource/Applications/JM/lencod/lencod,15.0088,15.0041,15.0141,15.0277,15.0259,15.0141,15.0161,15.0205,15.0163,15.0307,15.0320,15.0205,0.04262659766487431
MultiSource/Applications/spiff/spiff, 0.7045, 0.7054, 0.7050, 0.7062, 0.7056,0.7054, 0.7045, 0.7057, 0.7064, 0.7057, 0.7052,0.7057,0.042529061525375944
MultiSource/Benchmarks/mediabench/gsm/toast/toast, 1.0602, 1.0620, 1.0610, 1.0619, 1.0619,1.0619, 1.0603, 1.0610, 1.0623, 1.0626, 1.0622,1.0622,0.028251247763444454
MultiSource/Benchmarks/MiBench/consumer-typeset/consumer-typeset, 9.6703, 9.6751, 9.6750, 9.6748, 9.6810,9.675, 9.6774, 9.6771, 9.6799, 9.6680, 9.6877,9.6774,0.02480620155038693
MultiSource/Benchmarks/MallocBench/espresso/espresso, 4.8297, 4.8453, 4.8462, 4.8537, 4.8507,4.8462, 4.8409, 4.8486, 4.8426, 4.8472, 4.8524,4.8472,0.020634724113755
MultiSource/Applications/SIBsim4/SIBsim4, 1.2556, 1.2552, 1.2541, 1.2521, 1.2533,1.2541, 1.2551, 1.2517, 1.2558, 1.2519, 1.2543,1.2543,0.015947691571649436
SingleSource/Benchmarks/Adobe-C++/stepanov_vector, 0.7588, 0.7588, 0.7575, 0.7571, 0.7581,0.7581, 0.7582, 0.7567, 0.7583, 0.7586, 0.7578,0.7582,0.013190871916624047
SingleSource/Regression/C/2004-08-12-InlinerAndAllocas, 0.0177, 0.0178, 0.0177, 0.0179, 0.0179,0.0178, 0.0179, 0.0177, 0.0178, 0.0178, 0.0177,0.0178,0.0
SingleSource/Benchmarks/Stanford/Treesort, 0.0359, 0.0359, 0.0363, 0.0364, 0.0361,0.0361, 0.0361, 0.0362, 0.0361, 0.0362, 0.0360,0.0361,0.0
SingleSource/Benchmarks/Stanford/Towers, 0.0446, 0.0448, 0.0446, 0.0446, 0.0447,0.0446, 0.0446, 0.0445, 0.0447, 0.0446, 0.0446,0.0446,0.0
SingleSource/Benchmarks/Stanford/FloatMM, 0.0592, 0.0591, 0.0592, 0.0591, 0.0592,0.0592, 0.0592, 0.0591, 0.0593, 0.0592, 0.0592,0.0592,0.0
SingleSource/Benchmarks/Shootout/strcat, 0.0252, 0.0253, 0.0252, 0.0253, 0.0252,0.0252, 0.0251, 0.0251, 0.0252, 0.0253, 0.0252,0.0252,0.0
SingleSource/Benchmarks/Shootout/objinst, 0.0344, 0.0343, 0.0342, 0.0344, 0.0342,0.0343, 0.0342, 0.0342, 0.0343, 0.0343, 0.0343,0.0343,0.0
SingleSource/Benchmarks/Shootout/nestedloop, 0.0224, 0.0225, 0.0224, 0.0225, 0.0224,0.0224, 0.0224, 0.0225, 0.0224, 0.0224, 0.0223,0.0224,0.0
SingleSource/Benchmarks/Shootout/lists, 0.0716, 0.0717, 0.0715, 0.0716, 0.0716,0.0716, 0.0714, 0.0714, 0.0716, 0.0717, 0.0716,0.0716,0.0
SingleSource/Benchmarks/Shootout/fib2, 0.0183, 0.0183, 0.0182, 0.0183, 0.0183,0.0183, 0.0182, 0.0182, 0.0183, 0.0183, 0.0183,0.0183,0.0
SingleSource/Benchmarks/Shootout-C++/ary, 0.1542, 0.1556, 0.1541, 0.1550, 0.1544,0.1544, 0.1539, 0.1543, 0.1544, 0.1547, 0.1549,0.1544,0.0
SingleSource/Benchmarks/Shootout-C++/ackermann, 0.1141, 0.1154, 0.1150, 0.1149, 0.1150,0.115, 0.1140, 0.1150, 0.1152, 0.1147, 0.1150,0.115,0.0
SingleSource/Benchmarks/Polybench/stencils/jacobi-2d-imper/jacobi-2d-imper, 0.1291, 0.1293, 0.1293, 0.1289, 0.1290,0.1291, 0.1291, 0.1287, 0.1287, 0.1294, 0.1292,0.1291,0.0
SingleSource/Benchmarks/Polybench/stencils/jacobi-1d-imper/jacobi-1d-imper, 0.0906, 0.0902, 0.0902, 0.0905, 0.0904,0.0904, 0.0900, 0.0905, 0.0904, 0.0902, 0.0905,0.0904,0.0
SingleSource/Benchmarks/Polybench/medley/floyd-warshall/floyd-warshall, 0.0848, 0.0857, 0.0853, 0.0853, 0.0856,0.0853, 0.0851, 0.0852, 0.0856, 0.0854, 0.0853,0.0853,0.0
SingleSource/Benchmarks/Polybench/linear-algebra/kernels/syrk/syrk, 0.0864, 0.0865, 0.0861, 0.0863, 0.0863,0.0863, 0.0863, 0.0863, 0.0863, 0.0862, 0.0864,0.0863,0.0
SingleSource/Benchmarks/Polybench/linear-algebra/kernels/cholesky/cholesky, 0.1146, 0.1144, 0.1146, 0.1145, 0.1145,0.1145, 0.1144, 0.1145, 0.1150, 0.1145, 0.1148,0.1145,0.0
SingleSource/Benchmarks/Polybench/linear-algebra/kernels/bicg/bicg, 0.0840, 0.0839, 0.0841, 0.0838, 0.0838,0.0839, 0.0838, 0.0839, 0.0840, 0.0842, 0.0839,0.0839,0.0
SingleSource/Benchmarks/Misc/perlin, 0.0440, 0.0441, 0.0440, 0.0442, 0.0440,0.044, 0.0439, 0.0442, 0.0440, 0.0440, 0.0442,0.044,0.0
SingleSource/Benchmarks/Misc/lowercase, 0.0244, 0.0245, 0.0244, 0.0246, 0.0245,0.0245, 0.0244, 0.0244, 0.0245, 0.0245, 0.0245,0.0245,0.0
SingleSource/Benchmarks/Misc/himenobmtxpa, 0.2358, 0.2359, 0.2358, 0.2360, 0.2364,0.2359, 0.2357, 0.2355, 0.2359, 0.2359, 0.2360,0.2359,0.0
SingleSource/Benchmarks/Misc/dt, 0.0320, 0.0320, 0.0320, 0.0322, 0.0319,0.032, 0.0318, 0.0320, 0.0321, 0.0321, 0.0320,0.032,0.0
SingleSource/Benchmarks/McGill/misr, 0.0523, 0.0522, 0.0523, 0.0521, 0.0521,0.0522, 0.0521, 0.0522, 0.0523, 0.0524, 0.0521,0.0522,0.0
SingleSource/Benchmarks/McGill/chomp, 0.1755, 0.1761, 0.1752, 0.1753, 0.1754,0.1754, 0.1757, 0.1751, 0.1754, 0.1755, 0.1753,0.1754,0.0
SingleSource/Benchmarks/BenchmarkGame/puzzle, 0.0550, 0.0550, 0.0551, 0.0549, 0.0551,0.055, 0.0549, 0.0549, 0.0550, 0.0550, 0.0551,0.055,0.0
SingleSource/Benchmarks/BenchmarkGame/n-body, 0.0755, 0.0755, 0.0754, 0.0760, 0.0756,0.0755, 0.0752, 0.0756, 0.0756, 0.0754, 0.0755,0.0755,0.0
MultiSource/Benchmarks/mediabench/adpcm/rawcaudio/rawcaudio, 0.0540, 0.0540, 0.0540, 0.0543, 0.0540,0.054, 0.0540, 0.0541, 0.0541, 0.0540, 0.0540,0.054,0.0
MultiSource/Benchmarks/llubenchmark/llu, 0.0490, 0.0490, 0.0490, 0.0491, 0.0489,0.049, 0.0490, 0.0489, 0.0490, 0.0491, 0.0488,0.049,0.0
MultiSource/Benchmarks/Trimaran/netbench-crc/netbench-crc, 0.0770, 0.0772, 0.0774, 0.0769, 0.0774,0.0772, 0.0771, 0.0773, 0.0772, 0.0774, 0.0770,0.0772,0.0
MultiSource/Benchmarks/Prolangs-C++/primes/primes, 0.0227, 0.0228, 0.0227, 0.0228, 0.0228,0.0228, 0.0227, 0.0227, 0.0228, 0.0228, 0.0228,0.0228,0.0
MultiSource/Benchmarks/Olden/bh/bh, 0.2500, 0.2505, 0.2495, 0.2498, 0.2500,0.25, 0.2491, 0.2502, 0.2500, 0.2491, 0.2508,0.25,0.0
MultiSource/Benchmarks/NPB-serial/is/is, 0.0696, 0.0696, 0.0695, 0.0695, 0.0697,0.0696, 0.0696, 0.0694, 0.0698, 0.0698, 0.0696,0.0696,0.0
MultiSource/Benchmarks/MiBench/telecomm-CRC32/telecomm-CRC32, 0.0328, 0.0330, 0.0328, 0.0329, 0.0329,0.0329, 0.0330, 0.0329, 0.0331, 0.0328, 0.0328,0.0329,0.0
MultiSource/Benchmarks/MiBench/network-patricia/network-patricia, 0.0764, 0.0766, 0.0766, 0.0767, 0.0768,0.0766, 0.0764, 0.0767, 0.0765, 0.0767, 0.0766,0.0766,0.0
MultiSource/Benchmarks/FreeBench/analyzer/analyzer, 0.2396, 0.2389, 0.2393, 0.2401, 0.2387,0.2393, 0.2393, 0.2391, 0.2403, 0.2391, 0.2398,0.2393,0.0
MultiSource/Benchmarks/Fhourstones-3.1/fhourstones3.1, 0.1296, 0.1289, 0.1290, 0.1290, 0.1296,0.129, 0.1290, 0.1292, 0.1289, 0.1291, 0.1289,0.129,0.0
MultiSource/Benchmarks/mediabench/mpeg2/mpeg2dec/mpeg2decode, 1.3179, 1.3176, 1.3175, 1.3182, 1.3195,1.3179, 1.3162, 1.3176, 1.3191, 1.3186, 1.3178,1.3178,-0.007587829122090994
MultiSource/Benchmarks/Prolangs-C/agrep/agrep, 1.3114, 1.3114, 1.3105, 1.3111, 1.3125,1.3114, 1.3096, 1.3110, 1.3114, 1.3121, 1.3113,1.3113,-0.0076254384627105765
MultiSource/Benchmarks/ASCI_Purple/SMG2000/smg2000, 6.0540, 6.0493, 6.0468, 6.0509, 6.0515,6.0509, 6.0397, 6.0447, 6.0499, 6.0522, 6.0588,6.0499,-0.01652646713712347
MultiSource/Benchmarks/tramp3d-v4/tramp3d-v4,18.5799,18.5775,18.5928,18.5400,18.5857,18.5799,18.6062,18.5768,18.5716,18.5723,18.5817,18.5768,-0.016684696903646046
MultiSource/Benchmarks/MiBench/security-rijndael/security-rijndael, 0.4000, 0.4000, 0.3999, 0.3996, 0.3998,0.3999, 0.4002, 0.3995, 0.3998, 0.3999, 0.3988,0.3998,-0.025006251562886828
MultiSource/Benchmarks/VersaBench/beamformer/beamformer, 0.3772, 0.3768, 0.3769, 0.3765, 0.3777,0.3769, 0.3768, 0.3766, 0.3776, 0.3765, 0.3779,0.3768,-0.026532236667553555
MultiSource/Benchmarks/MiBench/consumer-jpeg/consumer-jpeg, 4.2520, 4.2872, 4.2885, 4.2852, 4.2922,4.2872, 4.2859, 4.2781, 4.2971, 4.2897, 4.2799,4.2859,-0.030322821421924218
MultiSource/Applications/hbd/hbd, 1.1482, 1.1498, 1.1486, 1.1497, 1.1511,1.1497, 1.1465, 1.1487, 1.1510, 1.1493, 1.1505,1.1493,-0.034791684787327526
SingleSource/Benchmarks/Adobe-C++/loop_unroll, 4.8225, 4.8272, 4.8347, 4.8248, 4.8253,4.8253, 4.8235, 4.8176, 4.8284, 4.8286, 4.8195,4.8235,-0.03730338010072831
MultiSource/Benchmarks/MiBench/automotive-bitcount/automotive-bitcount, 0.2410, 0.2414, 0.2408, 0.2418, 0.2415,0.2414, 0.2403, 0.2402, 0.2413, 0.2414, 0.2413,0.2413,-0.041425020712515526
MultiSource/Applications/ALAC/decode/alacconvert-decode, 1.0290, 1.0367, 1.0335, 1.0246, 1.0337,1.0335, 1.0279, 1.0341, 1.0325, 1.0343, 1.0330,1.033,-0.048379293662326184
SingleSource/Benchmarks/Shootout-C++/nestedloop, 0.1136, 0.1141, 0.1134, 0.1139, 0.1138,0.1138, 0.1138, 0.1142, 0.1131, 0.1132, 0.1137,0.1137,-0.08787346221441616
SingleSource/Benchmarks/Shootout-C++/fibo, 0.1127, 0.1129, 0.1126, 0.1134, 0.1138,0.1129, 0.1125, 0.1128, 0.1128, 0.1132, 0.1128,0.1128,-0.08857395925597755
SingleSource/Benchmarks/Misc-C++-EH/spirit, 3.1452, 3.1551, 3.1480, 3.1476, 3.1411,3.1476, 3.1473, 3.1478, 3.1448, 3.1406, 3.1444,3.1448,-0.08895666539585623
MultiSource/Benchmarks/Prolangs-C/bison/mybison, 1.5714, 1.5712, 1.5710, 1.5721, 1.5722,1.5714, 1.5691, 1.5709, 1.5700, 1.5699, 1.5713,1.57,-0.08909252895505926
MultiSource/Benchmarks/7zip/7zip-benchmark,33.5310,33.5615,33.5498,33.5660,33.5593,33.5593,33.4634,33.5377,33.5078,33.5338,33.5293,33.5293,-0.0893939980869729
MultiSource/Applications/oggenc/oggenc, 4.8667, 4.8504, 4.8588, 4.8487, 4.8654,4.8588, 4.8530, 4.8536, 4.8711, 4.8564, 4.8544,4.8544,-0.09055733926071063
SingleSource/Benchmarks/Polybench/linear-algebra/solvers/durbin/durbin, 0.1069, 0.1068, 0.1070, 0.1069, 0.1071,0.1069, 0.1067, 0.1068, 0.1068, 0.1069, 0.1074,0.1068,-0.0935453695041999
SingleSource/Benchmarks/Polybench/stencils/adi/adi, 0.1035, 0.1037, 0.1036, 0.1035, 0.1035,0.1035, 0.1033, 0.1036, 0.1034, 0.1034, 0.1034,0.1034,-0.09661835748790981
MultiSource/Benchmarks/Bullet/bullet,22.4717,22.4709,22.4607,22.4823,22.4766,22.4717,22.4175,22.4472,22.4499,22.4642,22.4546,22.4499,-0.09701090705197535
MultiSource/Applications/lambda-0.1.3/lambda, 0.5102, 0.5108, 0.5108, 0.5115, 0.5107,0.5108, 0.5099, 0.5111, 0.5103, 0.5103, 0.5116,0.5103,-0.09788566953798927
SingleSource/Benchmarks/Polybench/datamining/covariance/covariance, 0.0991, 0.0990, 0.0990, 0.0993, 0.0993,0.0991, 0.0991, 0.0990, 0.0990, 0.0990, 0.0992,0.099,-0.10090817356204207
MultiSource/Benchmarks/sim/sim, 0.2959, 0.2945, 0.2947, 0.2947, 0.2949,0.2947, 0.2942, 0.2946, 0.2944, 0.2943, 0.2944,0.2944,-0.10179843909060571
MultiSource/Benchmarks/ASC_Sequoia/IRSmk/IRSmk, 0.0963, 0.0966, 0.0959, 0.0964, 0.0966,0.0964, 0.0961, 0.0963, 0.0965, 0.0964, 0.0963,0.0963,-0.10373443983402453
SingleSource/Benchmarks/Shootout-C++/sieve, 0.1787, 0.1799, 0.1790, 0.1796, 0.1796,0.1796, 0.1805, 0.1791, 0.1794, 0.1794, 0.1794,0.1794,-0.11135857461024301
SingleSource/Benchmarks/Polybench/linear-algebra/kernels/mvt/mvt, 0.0895, 0.0892, 0.0895, 0.0893, 0.0892,0.0893, 0.0892, 0.0892, 0.0894, 0.0891, 0.0892,0.0892,-0.11198208286674616
SingleSource/Benchmarks/Polybench/linear-algebra/solvers/dynprog/dynprog, 0.0857, 0.0858, 0.0857, 0.0858, 0.0861,0.0858, 0.0855, 0.0857, 0.0857, 0.0857, 0.0860,0.0857,-0.11655011655011815
SingleSource/Benchmarks/Polybench/linear-algebra/kernels/symm/symm, 0.0852, 0.0849, 0.0849, 0.0851, 0.0848,0.0849, 0.0848, 0.0850, 0.0849, 0.0844, 0.0847,0.0848,-0.11778563015312216
MultiSource/Benchmarks/DOE-ProxyApps-C/XSBench/XSBench, 0.3385, 0.3399, 0.3396, 0.3394, 0.3390,0.3394, 0.3385, 0.3392, 0.3389, 0.3394, 0.3390,0.339,-0.11785503830287203
SingleSource/Benchmarks/Polybench/datamining/correlation/correlation, 0.0833, 0.0836, 0.0838, 0.0835, 0.0836,0.0836, 0.0835, 0.0835, 0.0836, 0.0835, 0.0837,0.0835,-0.11961722488037507
MultiSource/Applications/SPASS/SPASS,11.8674,11.8705,11.8721,11.8864,11.8910,11.8721,11.8563,11.8739,11.8513,11.8576,11.8744,11.8576,-0.12213508983246468
SingleSource/Benchmarks/Polybench/stencils/fdtd-2d/fdtd-2d, 0.1623, 0.1623, 0.1623, 0.1623, 0.1627,0.1623, 0.1619, 0.1621, 0.1623, 0.1621, 0.1625,0.1621,-0.12322858903266454
MultiSource/Benchmarks/Fhourstones/fhourstones, 0.1594, 0.1592, 0.1592, 0.1592, 0.1591,0.1592, 0.1587, 0.1591, 0.1590, 0.1590, 0.1584,0.159,-0.12562814070352646
SingleSource/Benchmarks/Shootout-C++/ary3, 0.1589, 0.1584, 0.1580, 0.1584, 0.1584,0.1584, 0.1588, 0.1582, 0.1581, 0.1580, 0.1589,0.1582,-0.12626262626262985
MultiSource/Applications/viterbi/viterbi, 0.1565, 0.1568, 0.1564, 0.1568, 0.1570,0.1568, 0.1564, 0.1566, 0.1566, 0.1567, 0.1564,0.1566,-0.12755102040816757
SingleSource/Benchmarks/Adobe-C++/stepanov_abstraction, 0.6086, 0.6100, 0.6094, 0.6102, 0.6097,0.6097, 0.6109, 0.6088, 0.6090, 0.6087, 0.6089,0.6089,-0.131212071510578
SingleSource/Benchmarks/Polybench/stencils/seidel-2d/seidel-2d, 0.0759, 0.0762, 0.0761, 0.0763, 0.0763,0.0762, 0.0759, 0.0761, 0.0760, 0.0762, 0.0761,0.0761,-0.1312335958005284
MultiSource/Benchmarks/SciMark2-C/scimark2, 0.3716, 0.3717, 0.3714, 0.3721, 0.3719,0.3717, 0.3710, 0.3715, 0.3721, 0.3712, 0.3710,0.3712,-0.13451708366962745
SingleSource/Benchmarks/Misc/ReedSolomon, 0.2196, 0.2200, 0.2200, 0.2196, 0.2198,0.2198, 0.2195, 0.2195, 0.2198, 0.2195, 0.2205,0.2195,-0.13648771610554888
MultiSource/Benchmarks/MiBench/automotive-susan/automotive-susan, 0.8630, 0.8702, 0.8695, 0.8704, 0.8665,0.8695, 0.8684, 0.8647, 0.8625, 0.8683, 0.8690,0.8683,-0.13801035077631862
MultiSource/Benchmarks/MallocBench/gs/gs, 3.5397, 3.5405, 3.5408, 3.5423, 3.5421,3.5408, 3.5307, 3.5343, 3.5369, 3.5373, 3.5358,3.5358,-0.14121102575689326
SingleSource/Benchmarks/Shootout-C++/objinst, 0.1386, 0.1386, 0.1381, 0.1392, 0.1392,0.1386, 0.1389, 0.1385, 0.1384, 0.1380, 0.1380,0.1384,-0.14430014430014682
MultiSource/Benchmarks/VersaBench/8b10b/8b10b, 0.0692, 0.0692, 0.0689, 0.0696, 0.0690,0.0692, 0.0689, 0.0691, 0.0690, 0.0692, 0.0691,0.0691,-0.14450867052023808
MultiSource/Benchmarks/MallocBench/cfrac/cfrac, 0.8072, 0.8086, 0.8068, 0.8088, 0.8074,0.8074, 0.8037, 0.8058, 0.8062, 0.8073, 0.8064,0.8062,-0.14862521674510187
MultiSource/Benchmarks/MiBench/security-sha/security-sha, 0.1297, 0.1302, 0.1292, 0.1296, 0.1297,0.1297, 0.1294, 0.1295, 0.1296, 0.1294, 0.1296,0.1295,-0.15420200462606948
MultiSource/Benchmarks/McCat/09-vor/vor, 0.2557, 0.2560, 0.2550, 0.2562, 0.2558,0.2558, 0.2554, 0.2553, 0.2562, 0.2563, 0.2553,0.2554,-0.15637216575450363
SingleSource/Benchmarks/Polybench/linear-algebra/solvers/gramschmidt/gramschmidt, 0.1251, 0.1254, 0.1254, 0.1256, 0.1255,0.1254, 0.1252, 0.1251, 0.1252, 0.1255, 0.1254,0.1252,-0.15948963317384823
MultiSource/Benchmarks/Olden/mst/mst, 0.1243, 0.1242, 0.1239, 0.1242, 0.1244,0.1242, 0.1239, 0.1240, 0.1240, 0.1243, 0.1243,0.124,-0.16103059581320522
MultiSource/Applications/sqlite3/sqlite3,12.5753,12.5602,12.5829,12.6308,12.5924,12.5829,12.5750,12.5614,12.5487,12.5675,12.5626,12.5626,-0.16133005904839237
MultiSource/Benchmarks/FreeBench/neural/neural, 0.1791, 0.1794, 0.1790, 0.1794, 0.1795,0.1794, 0.1791, 0.1786, 0.1796, 0.1787, 0.1792,0.1791,-0.16722408026755842
SingleSource/Benchmarks/Stanford/Puzzle, 0.1169, 0.1167, 0.1170, 0.1168, 0.1169,0.1169, 0.1166, 0.1165, 0.1167, 0.1167, 0.1167,0.1167,-0.17108639863131492
MultiSource/Benchmarks/VersaBench/dbms/dbms, 0.8701, 0.8715, 0.8718, 0.8734, 0.8729,0.8718, 0.8674, 0.8703, 0.8716, 0.8716, 0.8696,0.8703,-0.17205781142464183
SingleSource/Benchmarks/Adobe-C++/functionobjects, 0.4617, 0.4600, 0.4593, 0.4593, 0.4606,0.46, 0.4605, 0.4590, 0.4590, 0.4592, 0.4596,0.4592,-0.17391304347826875
SingleSource/Benchmarks/Linpack/linpack-pc, 0.3955, 0.3958, 0.3956, 0.3948, 0.3958,0.3956, 0.3946, 0.3943, 0.3949, 0.3950, 0.3963,0.3949,-0.17694641051567706
SingleSource/Benchmarks/BenchmarkGame/spectral-norm, 0.0559, 0.0561, 0.0562, 0.0560, 0.0558,0.056, 0.0559, 0.0559, 0.0559, 0.0558, 0.0560,0.0559,-0.17857142857143904
MultiSource/Benchmarks/Ptrdist/yacr2/yacr2, 0.6120, 0.6100, 0.6120, 0.6122, 0.6109,0.612, 0.6109, 0.6111, 0.6114, 0.6104, 0.6103,0.6109,-0.17973856209150263
SingleSource/Benchmarks/Stanford/RealMM, 0.0556, 0.0556, 0.0559, 0.0556, 0.0557,0.0556, 0.0555, 0.0557, 0.0555, 0.0556, 0.0555,0.0555,-0.17985611510790145
MultiSource/Applications/ClamAV/clamscan,12.9675,12.9710,12.9639,13.0105,12.9943,12.971,12.9201,12.9934,12.9428,12.9474,12.9669,12.9474,-0.18194433736797855
MultiSource/Applications/kimwitu++/kc,10.3439,10.3430,10.3420,10.3359,10.3406,10.342,10.3130,10.3519,10.3852,10.3231,10.3203,10.3231,-0.1827499516534603
MultiSource/Benchmarks/mediabench/adpcm/rawdaudio/rawdaudio, 0.0540, 0.0542, 0.0539, 0.0540, 0.0542,0.054, 0.0537, 0.0539, 0.0541, 0.0542, 0.0537,0.0539,-0.18518518518517713
MultiSource/Benchmarks/BitBench/five11/five11, 0.0532, 0.0534, 0.0534, 0.0534, 0.0534,0.0534, 0.0533, 0.0532, 0.0533, 0.0533, 0.0532,0.0533,-0.1872659176029967
SingleSource/Benchmarks/Polybench/linear-algebra/solvers/lu/lu, 0.1039, 0.1045, 0.1044, 0.1042, 0.1042,0.1042, 0.1036, 0.1040, 0.1041, 0.1040, 0.1041,0.104,-0.19193857965451588
MultiSource/Benchmarks/Trimaran/enc-rc4/enc-rc4, 0.0498, 0.0497, 0.0499, 0.0496, 0.0500,0.0498, 0.0495, 0.0499, 0.0499, 0.0497, 0.0495,0.0497,-0.20080321285139702
MultiSource/Benchmarks/ASC_Sequoia/AMGmk/AMGmk, 0.5791, 0.5801, 0.5794, 0.5808, 0.5799,0.5799, 0.5787, 0.5777, 0.5800, 0.5787, 0.5789,0.5787,-0.20693222969476732
MultiSource/Benchmarks/Prolangs-C++/employ/employ, 0.1916, 0.1935, 0.1914, 0.1937, 0.1926,0.1926, 0.1925, 0.1922, 0.1920, 0.1917, 0.1931,0.1922,-0.20768431983384517
SingleSource/Benchmarks/Shootout/hash, 0.0478, 0.0481, 0.0481, 0.0482, 0.0481,0.0481, 0.0481, 0.0480, 0.0483, 0.0480, 0.0480,0.048,-0.20790020790020236
SingleSource/Benchmarks/BenchmarkGame/fannkuch, 0.0479, 0.0478, 0.0477, 0.0477, 0.0479,0.0478, 0.0476, 0.0477, 0.0477, 0.0478, 0.0477,0.0477,-0.20920502092051096
MultiSource/Benchmarks/FreeBench/mason/mason, 0.0465, 0.0466, 0.0465, 0.0467, 0.0466,0.0466, 0.0465, 0.0465, 0.0465, 0.0465, 0.0464,0.0465,-0.21459227467811592
SingleSource/Benchmarks/Stanford/Queens, 0.0453, 0.0451, 0.0455, 0.0454, 0.0454,0.0454, 0.0453, 0.0452, 0.0452, 0.0453, 0.0453,0.0453,-0.22026431718061845
MultiSource/Benchmarks/McCat/01-qbsort/qbsort, 0.0900, 0.0901, 0.0899, 0.0904, 0.0904,0.0901, 0.0899, 0.0899, 0.0902, 0.0904, 0.0898,0.0899,-0.2219755826859071
SingleSource/Benchmarks/Polybench/linear-algebra/kernels/atax/atax, 0.0878, 0.0880, 0.0879, 0.0880, 0.0878,0.0879, 0.0876, 0.0878, 0.0877, 0.0876, 0.0877,0.0877,-0.22753128555177415
MultiSource/Benchmarks/McCat/03-testtrie/testtrie, 0.0845, 0.0848, 0.0849, 0.0843, 0.0846,0.0846, 0.0841, 0.0844, 0.0848, 0.0843, 0.0847,0.0844,-0.23640661938533203
MultiSource/Benchmarks/BitBench/uuencode/uuencode, 0.0420, 0.0418, 0.0417, 0.0418, 0.0418,0.0418, 0.0418, 0.0416, 0.0418, 0.0417, 0.0417,0.0417,-0.23923444976076125
SingleSource/Benchmarks/BenchmarkGame/Large/fasta, 0.0415, 0.0416, 0.0417, 0.0417, 0.0418,0.0417, 0.0416, 0.0417, 0.0417, 0.0416, 0.0415,0.0416,-0.23980815347722784
SingleSource/Benchmarks/Polybench/linear-algebra/kernels/trmm/trmm, 0.0829, 0.0828, 0.0831, 0.0828, 0.0829,0.0829, 0.0825, 0.0829, 0.0827, 0.0827, 0.0827,0.0827,-0.24125452352232735
SingleSource/Benchmarks/Misc/mandel, 0.0411, 0.0415, 0.0412, 0.0412, 0.0411,0.0412, 0.0410, 0.0410, 0.0412, 0.0411, 0.0412,0.0411,-0.24271844660195274
SingleSource/Benchmarks/Shootout/matrix, 0.0820, 0.0820, 0.0819, 0.0819, 0.0821,0.082, 0.0817, 0.0818, 0.0819, 0.0821, 0.0818,0.0818,-0.24390243902440156
SingleSource/Benchmarks/Dhrystone/fldry, 0.0410, 0.0409, 0.0410, 0.0408, 0.0409,0.0409, 0.0407, 0.0408, 0.0409, 0.0408, 0.0406,0.0408,-0.24449877750610804
MultiSource/Benchmarks/MiBench/network-dijkstra/network-dijkstra, 0.0408, 0.0406, 0.0410, 0.0409, 0.0411,0.0409, 0.0408, 0.0407, 0.0408, 0.0409, 0.0408,0.0408,-0.24449877750610804
SingleSource/Benchmarks/Shootout-C++/random, 0.1229, 0.1226, 0.1229, 0.1226, 0.1225,0.1226, 0.1223, 0.1222, 0.1230, 0.1231, 0.1221,0.1223,-0.2446982055464897
MultiSource/Benchmarks/Olden/power/power, 0.1208, 0.1206, 0.1204, 0.1204, 0.1206,0.1206, 0.1200, 0.1203, 0.1204, 0.1204, 0.1203,0.1203,-0.24875621890546595
SingleSource/Benchmarks/Shootout-C++/lists, 0.1573, 0.1585, 0.1585, 0.1579, 0.1577,0.1579, 0.1574, 0.1574, 0.1581, 0.1577, 0.1575,0.1575,-0.2533248891703699
SingleSource/Benchmarks/Misc/ffbench, 0.0787, 0.0788, 0.0788, 0.0790, 0.0786,0.0788, 0.0784, 0.0785, 0.0788, 0.0788, 0.0786,0.0786,-0.25380710659898
SingleSource/Benchmarks/Shootout-C++/matrix, 0.1942, 0.1950, 0.1940, 0.1949, 0.1956,0.1949, 0.1940, 0.1948, 0.1944, 0.1949, 0.1944,0.1944,-0.2565418163160582
SingleSource/Benchmarks/Dhrystone/dry, 0.0382, 0.0383, 0.0384, 0.0380, 0.0383,0.0383, 0.0380, 0.0382, 0.0380, 0.0382, 0.0382,0.0382,-0.26109660574413773
SingleSource/Benchmarks/Polybench/linear-algebra/kernels/gemver/gemver, 0.1068, 0.1076, 0.1071, 0.1070, 0.1069,0.107, 0.1066, 0.1069, 0.1066, 0.1067, 0.1069,0.1067,-0.2803738317756932
SingleSource/Benchmarks/Stanford/Quicksort, 0.0355, 0.0357, 0.0356, 0.0356, 0.0354,0.0356, 0.0354, 0.0356, 0.0354, 0.0356, 0.0355,0.0355,-0.2808988764045006
MultiSource/Benchmarks/Olden/perimeter/perimeter, 0.0713, 0.0712, 0.0712, 0.0714, 0.0712,0.0712, 0.0709, 0.0710, 0.0711, 0.0709, 0.0712,0.071,-0.2808988764045006
MultiSource/Applications/lua/lua, 3.0714, 3.0741, 3.0664, 3.0743, 3.0710,3.0714, 3.0635, 3.0566, 3.0599, 3.0660, 3.0625,3.0625,-0.2897701373966277
SingleSource/Benchmarks/Misc/whetstone, 0.0684, 0.0684, 0.0684, 0.0683, 0.0686,0.0684, 0.0680, 0.0681, 0.0684, 0.0682, 0.0683,0.0682,-0.29239766081872176
SingleSource/Benchmarks/Stanford/Bubblesort, 0.0341, 0.0340, 0.0341, 0.0343, 0.0341,0.0341, 0.0339, 0.0340, 0.0340, 0.0340, 0.0340,0.034,-0.293255131964798
MultiSource/Benchmarks/Olden/health/health, 0.1279, 0.1284, 0.1284, 0.1282, 0.1278,0.1282, 0.1273, 0.1273, 0.1278, 0.1280, 0.1283,0.1278,-0.31201248049922414
MultiSource/Benchmarks/FreeBench/distray/distray, 0.0934, 0.0931, 0.0932, 0.0932, 0.0931,0.0932, 0.0928, 0.0928, 0.0930, 0.0929, 0.0929,0.0929,-0.32188841201717944
SingleSource/Benchmarks/Misc/fp-convert, 0.0307, 0.0306, 0.0307, 0.0304, 0.0306,0.0306, 0.0305, 0.0305, 0.0306, 0.0306, 0.0305,0.0305,-0.32679738562091387
MultiSource/Benchmarks/FreeBench/pifft/pifft, 1.0877, 1.0822, 1.0907, 1.0857, 1.0875,1.0875, 1.0839, 1.0835, 1.0870, 1.0824, 1.0842,1.0839,-0.3310344827586076
SingleSource/Benchmarks/Polybench/stencils/fdtd-apml/fdtd-apml, 0.1499, 0.1494, 0.1496, 0.1493, 0.1496,0.1496, 0.1490, 0.1493, 0.1494, 0.1491, 0.1490,0.1491,-0.33422459893047707
MultiSource/Benchmarks/TSVC/ControlFlow-flt/ControlFlow-flt, 2.3572, 2.3861, 2.3884, 2.3750, 2.3613,2.375, 2.3670, 2.3667, 2.3755, 2.3669, 2.3692,2.367,-0.3368421052631576
MultiSource/Benchmarks/Olden/bisort/bisort, 0.0592, 0.0591, 0.0590, 0.0593, 0.0592,0.0592, 0.0591, 0.0587, 0.0589, 0.0590, 0.0590,0.059,-0.33783783783785104
SingleSource/Benchmarks/Shootout/methcall, 0.0293, 0.0294, 0.0292, 0.0294, 0.0293,0.0293, 0.0292, 0.0291, 0.0293, 0.0293, 0.0292,0.0292,-0.341296928327639
MultiSource/Benchmarks/Olden/em3d/em3d, 0.1726, 0.1725, 0.1720, 0.1726, 0.1726,0.1726, 0.1717, 0.1729, 0.1723, 0.1720, 0.1718,0.172,-0.34762456546930665
SingleSource/Benchmarks/Misc/matmul_f64_4x4, 0.0288, 0.0287, 0.0287, 0.0287, 0.0287,0.0287, 0.0286, 0.0285, 0.0286, 0.0286, 0.0285,0.0286,-0.34843205574912606
MultiSource/Benchmarks/Prolangs-C/gnugo/gnugo, 0.6952, 0.6956, 0.6957, 0.6957, 0.6956,0.6956, 0.6917, 0.6940, 0.6949, 0.6930, 0.6931,0.6931,-0.3594019551466321
MultiSource/Benchmarks/VersaBench/bmm/bmm, 0.0550, 0.0550, 0.0550, 0.0549, 0.0550,0.055, 0.0549, 0.0547, 0.0548, 0.0549, 0.0547,0.0548,-0.363636363636366
MultiSource/Benchmarks/MiBench/automotive-basicmath/automotive-basicmath, 0.1357, 0.1358, 0.1353, 0.1358, 0.1360,0.1358, 0.1349, 0.1353, 0.1349, 0.1357, 0.1353,0.1353,-0.3681885125184081
SingleSource/Benchmarks/Misc/flops-2, 0.0270, 0.0271, 0.0270, 0.0273, 0.0271,0.0271, 0.0269, 0.0272, 0.0270, 0.0270, 0.0270,0.027,-0.36900369003689537
MultiSource/Benchmarks/Ptrdist/ks/ks, 0.1356, 0.1354, 0.1350, 0.1356, 0.1353,0.1354, 0.1347, 0.1349, 0.1355, 0.1353, 0.1347,0.1349,-0.36927621861152504
MultiSource/Applications/hexxagon/hexxagon, 0.6972, 0.6976, 0.6967, 0.7000, 0.6977,0.6976, 0.6939, 0.6952, 0.6944, 0.6955, 0.6950,0.695,-0.372706422018354
SingleSource/Benchmarks/Misc/flops-5, 0.0263, 0.0265, 0.0265, 0.0265, 0.0264,0.0265, 0.0264, 0.0264, 0.0263, 0.0264, 0.0263,0.0264,-0.37735849056603765
SingleSource/Benchmarks/Shootout-C++/heapsort, 0.1313, 0.1311, 0.1314, 0.1309, 0.1314,0.1313, 0.1298, 0.1308, 0.1308, 0.1307, 0.1309,0.1308,-0.38080731150038627
SingleSource/Benchmarks/Misc/flops-7, 0.0250, 0.0251, 0.0250, 0.0251, 0.0251,0.0251, 0.0248, 0.0249, 0.0250, 0.0250, 0.0250,0.025,-0.3984063745019917
SingleSource/Benchmarks/BenchmarkGame/recursive, 0.0247, 0.0247, 0.0247, 0.0248, 0.0248,0.0247, 0.0245, 0.0246, 0.0246, 0.0245, 0.0246,0.0246,-0.4048582995951344
SingleSource/Benchmarks/Misc/flops, 0.0730, 0.0733, 0.0730, 0.0731, 0.0727,0.073, 0.0727, 0.0725, 0.0726, 0.0730, 0.0727,0.0727,-0.4109589041095818
SingleSource/Benchmarks/Shootout/sieve, 0.0242, 0.0241, 0.0242, 0.0242, 0.0242,0.0242, 0.0239, 0.0241, 0.0242, 0.0242, 0.0240,0.0241,-0.4132231404958664
MultiSource/Applications/aha/aha, 0.0950, 0.0951, 0.0951, 0.0954, 0.0954,0.0951, 0.0947, 0.0946, 0.0948, 0.0945, 0.0949,0.0947,-0.4206098843322792
SingleSource/Benchmarks/Polybench/linear-algebra/kernels/gesummv/gesummv, 0.0701, 0.0701, 0.0706, 0.0702, 0.0701,0.0701, 0.0699, 0.0698, 0.0698, 0.0698, 0.0698,0.0698,-0.42796005706133844
MultiSource/Benchmarks/Olden/tsp/tsp, 0.1139, 0.1139, 0.1137, 0.1142, 0.1141,0.1139, 0.1131, 0.1134, 0.1134, 0.1135, 0.1130,0.1134,-0.4389815627743654
SingleSource/Benchmarks/Polybench/linear-algebra/kernels/trisolv/trisolv, 0.0676, 0.0679, 0.0679, 0.0680, 0.0676,0.0679, 0.0675, 0.0676, 0.0676, 0.0678, 0.0677,0.0676,-0.44182621502210084
SingleSource/Benchmarks/Misc-C++/mandel-text, 0.0224, 0.0225, 0.0225, 0.0225, 0.0226,0.0225, 0.0224, 0.0222, 0.0224, 0.0225, 0.0224,0.0224,-0.4444444444444473
MultiSource/Benchmarks/McCat/17-bintr/bintr, 0.0647, 0.0649, 0.0646, 0.0652, 0.0651,0.0649, 0.0646, 0.0648, 0.0646, 0.0646, 0.0649,0.0646,-0.46224961479197635
SingleSource/Benchmarks/CoyoteBench/lpbench, 0.1941, 0.1941, 0.1941, 0.1944, 0.1940,0.1941, 0.1935, 0.1932, 0.1931, 0.1932, 0.1932,0.1932,-0.46367851622873824
SingleSource/Benchmarks/Shootout-C++/strcat, 0.1231, 0.1233, 0.1227, 0.1231, 0.1227,0.1231, 0.1222, 0.1221, 0.1231, 0.1225, 0.1232,0.1225,-0.4874086108854647
SingleSource/Benchmarks/Misc/pi, 0.0196, 0.0196, 0.0195, 0.0197, 0.0196,0.0196, 0.0195, 0.0196, 0.0195, 0.0195, 0.0195,0.0195,-0.5102040816326481
MultiSource/Benchmarks/Prolangs-C++/city/city, 0.8753, 0.8799, 0.8756, 0.8790, 0.8784,0.8784, 0.8739, 0.8764, 0.8739, 0.8738, 0.8756,0.8739,-0.5122950819672067
SingleSource/Benchmarks/Shootout/heapsort, 0.0385, 0.0386, 0.0385, 0.0384, 0.0385,0.0385, 0.0382, 0.0385, 0.0383, 0.0383, 0.0384,0.0383,-0.5194805194805197
SingleSource/Benchmarks/Misc-C++/stepanov_v1p2, 0.1713, 0.1702, 0.1714, 0.1706, 0.1702,0.1706, 0.1697, 0.1697, 0.1697, 0.1703, 0.1699,0.1697,-0.5275498241500642
SingleSource/Benchmarks/Misc/fbench, 0.0522, 0.0523, 0.0523, 0.0522, 0.0522,0.0522, 0.0516, 0.0519, 0.0519, 0.0519, 0.0522,0.0519,-0.5747126436781658
MultiSource/Benchmarks/McCat/12-IOtest/iotest, 0.0853, 0.0850, 0.0853, 0.0857, 0.0856,0.0853, 0.0849, 0.0845, 0.0850, 0.0848, 0.0846,0.0848,-0.586166471277838
SingleSource/Benchmarks/Stanford/Perm, 0.0300, 0.0300, 0.0298, 0.0300, 0.0299,0.03, 0.0297, 0.0300, 0.0298, 0.0297, 0.0300,0.0298,-0.6666666666666599
SingleSource/Benchmarks/Shootout/random, 0.0280, 0.0282, 0.0282, 0.0282, 0.0283,0.0282, 0.0279, 0.0280, 0.0281, 0.0280, 0.0280,0.028,-0.7092198581560294
SingleSource/Benchmarks/BenchmarkGame/partialsums, 0.0280, 0.0280, 0.0279, 0.0281, 0.0280,0.028, 0.0278, 0.0277, 0.0278, 0.0278, 0.0278,0.0278,-0.7142857142857229
SingleSource/Benchmarks/Misc/salsa20, 0.0547, 0.0545, 0.0545, 0.0547, 0.0547,0.0547, 0.0543, 0.0544, 0.0543, 0.0543, 0.0543,0.0543,-0.7312614259597727
SingleSource/Benchmarks/Shootout-C++/methcall, 0.1228, 0.1224, 0.1231, 0.1225, 0.1235,0.1228, 0.1216, 0.1220, 0.1218, 0.1219, 0.1223,0.1219,-0.7328990228013144
SingleSource/Benchmarks/Misc-C++/bigfib, 0.4289, 0.4275, 0.4277, 0.4271, 0.4262,0.4275, 0.4240, 0.4243, 0.4253, 0.4242, 0.4258,0.4243,-0.7485380116958984
SingleSource/Benchmarks/Misc/flops-6, 0.0265, 0.0264, 0.0265, 0.0265, 0.0266,0.0265, 0.0263, 0.0264, 0.0263, 0.0263, 0.0263,0.0263,-0.7547169811320753
SingleSource/Benchmarks/Misc/flops-8, 0.0262, 0.0261, 0.0260, 0.0260, 0.0262,0.0261, 0.0257, 0.0259, 0.0258, 0.0259, 0.0259,0.0259,-0.766283524904221
SingleSource/Benchmarks/Misc/flops-1, 0.0252, 0.0254, 0.0254, 0.0254, 0.0255,0.0254, 0.0252, 0.0252, 0.0252, 0.0252, 0.0252,0.0252,-0.7874015748031482
SingleSource/Benchmarks/Shootout-C++/ary2, 0.1620, 0.1610, 0.1617, 0.1610, 0.1616,0.1616, 0.1596, 0.1601, 0.1602, 0.1607, 0.1602,0.1602,-0.866336633663356
SingleSource/Benchmarks/Shootout/ackermann, 0.0217, 0.0217, 0.0215, 0.0218, 0.0217,0.0217, 0.0214, 0.0216, 0.0215, 0.0217, 0.0214,0.0215,-0.9216589861751223
MultiSource/Benchmarks/Olden/voronoi/voronoi, 0.2252, 0.2250, 0.2245, 0.2244, 0.2248,0.2248, 0.2222, 0.2224, 0.2227, 0.2217, 0.2226,0.2224,-1.067615658362997
SingleSource/Benchmarks/Misc/flops-3, 0.0252, 0.0253, 0.0253, 0.0251, 0.0253,0.0253, 0.0250, 0.0251, 0.0252, 0.0250, 0.0250,0.025,-1.1857707509881354
SingleSource/Benchmarks/CoyoteBench/huffbench, 0.0878, 0.0878, 0.0876, 0.0876, 0.0875,0.0876, 0.0856, 0.0857, 0.0857, 0.0859, 0.0857,0.0857,-2.168949771689499
Total elapsed time,-,-,-,-,-,349.74600000000004,-,-,-,-,-,349.89709999999985,0.043202781447049254
Total failure,-,-,-,-,-,0,-,-,-,-,-,0,
