Benchmarks,/mnt/freezedisk/llvm-intptr-base-release/bin/clang,/mnt/freezedisk/llvm-intptr-base-release/bin/clang,/mnt/freezedisk/llvm-intptr-base-release/bin/clang,/mnt/freezedisk/llvm-intptr-base-release/bin/clang,/mnt/freezedisk/llvm-intptr-base-release/bin/clang,median,/mnt/freezedisk/llvm-intptr-intptr-instcombine-release/bin/clang,/mnt/freezedisk/llvm-intptr-intptr-instcombine-release/bin/clang,/mnt/freezedisk/llvm-intptr-intptr-instcombine-release/bin/clang,/mnt/freezedisk/llvm-intptr-intptr-instcombine-release/bin/clang,/mnt/freezedisk/llvm-intptr-intptr-instcombine-release/bin/clang,median
MultiSource/Applications/ALAC/decode/alacconvert-decode, 0.0131, 0.0131, 0.0132, 0.0132, 0.0132,0.0132, 0.0132, 0.0130, 0.0132, 0.0132, 0.0132,0.0132
MultiSource/Applications/ALAC/encode/alacconvert-encode, 0.0287, 0.0282, 0.0266, 0.0266, 0.0285,0.0282, 0.0329, 0.0268, 0.0262, 0.0267, 0.0296,0.0268
MultiSource/Applications/ClamAV/clamscan, 0.2925, 0.2401, 0.2405, 0.2443, 0.2289,0.2405, 0.2436, 0.2506, 0.2427, 0.2418, 0.2472,0.2436
MultiSource/Applications/JM/ldecod/ldecod, 0.0416, 0.0453, 0.0461, 0.0395, 0.0429,0.0429, 0.0377, 0.0459, 0.0487, 0.0436, 0.0444,0.0444
MultiSource/Applications/JM/lencod/lencod, 3.1720, 3.1819, 3.1735, 3.1805, 3.1839,3.1805, 3.1793, 3.1749, 3.1818, 3.1817, 3.1811,3.1811
MultiSource/Applications/SIBsim4/SIBsim4, 2.1035, 2.0819, 2.0903, 2.1239, 2.1303,2.1035, 2.0847, 2.0807, 2.1119, 2.1104, 2.1016,2.1016
MultiSource/Applications/SPASS/SPASS, 6.6920, 6.6883, 6.6940, 6.6843, 6.7089,6.692, 6.8034, 6.6982, 6.8005, 6.6963, 6.7002,6.7002
MultiSource/Applications/aha/aha, 1.0668, 1.0676, 1.0662, 1.0658, 1.0675,1.0668, 1.0658, 1.0658, 1.0665, 1.0658, 1.0661,1.0658
MultiSource/Applications/d/make_dparser, 0.0160, 0.0159, 0.0159, 0.0161, 0.0160,0.016, 0.0161, 0.0160, 0.0161, 0.0161, 0.0161,0.0161
MultiSource/Applications/hbd/hbd, 0.0019, 0.0019, 0.0018, 0.0019, 0.0018,0.0019, 0.0019, 0.0019, 0.0019, 0.0019, 0.0019,0.0019
MultiSource/Applications/hexxagon/hexxagon, 6.5798, 6.5793, 6.5797, 6.5804, 6.5791,6.5797, 6.5804, 6.5801, 6.5801, 6.5791, 6.5803,6.5801
MultiSource/Applications/kimwitu++/kc, 0.0282, 0.0280, 0.0281, 0.0282, 0.0280,0.0281, 0.0282, 0.0279, 0.0283, 0.0281, 0.0280,0.0281
MultiSource/Applications/lambda-0.1.3/lambda, 2.5853, 2.5821, 2.5790, 2.5846, 2.5812,2.5821, 2.5799, 2.5807, 2.5811, 2.5815, 2.5804,2.5807
MultiSource/Applications/lua/lua,11.5878,11.5789,11.6215,11.6218,11.6136,11.6136,11.4780,11.4842,11.4855,11.4921,11.4867,11.4855
MultiSource/Applications/minisat/minisat, 4.1914, 4.1926, 4.1635, 4.2026, 4.1996,4.1926, 4.0847, 4.0760, 4.2063, 4.2118, 4.1812,4.1812
MultiSource/Applications/obsequi/Obsequi, 1.0727, 1.0716, 1.0717, 1.0717, 1.0716,1.0717, 1.0705, 1.0707, 1.0706, 1.0725, 1.0706,1.0706
MultiSource/Applications/oggenc/oggenc, 0.0755, 0.0756, 0.0756, 0.0756, 0.0757,0.0756, 0.0762, 0.0763, 0.0895, 0.0763, 0.0764,0.0763
MultiSource/Applications/sgefa/sgefa, 0.1154, 0.1153, 0.1154, 0.1154, 0.1155,0.1154, 0.1155, 0.1155, 0.1155, 0.1154, 0.1155,0.1155
MultiSource/Applications/siod/siod, 1.1099, 1.1090, 1.1074, 1.1088, 1.1099,1.109, 1.1095, 1.1090, 1.1098, 1.1094, 1.1095,1.1095
MultiSource/Applications/spiff/spiff, 1.3019, 1.3005, 1.3024, 1.3004, 1.3031,1.3019, 1.2992, 1.3019, 1.3021, 1.3011, 1.3040,1.3019
MultiSource/Applications/sqlite3/sqlite3, 1.8225, 1.8176, 1.8091, 1.8175, 1.8140,1.8175, 1.8099, 1.8037, 1.8025, 1.8050, 1.8119,1.805
MultiSource/Applications/viterbi/viterbi, 1.2841, 1.2858, 1.2836, 1.2876, 1.2838,1.2841, 1.2877, 1.2810, 1.2867, 1.2876, 1.2887,1.2876
MultiSource/Benchmarks/7zip/7zip-benchmark, 6.3293, 6.3369, 6.3301, 6.3252, 6.3296,6.3296, 6.3241, 6.3363, 6.3357, 6.3267, 6.3298,6.3298
MultiSource/Benchmarks/ASCI_Purple/SMG2000/smg2000, 1.1761, 1.1821, 1.1850, 1.1772, 1.1745,1.1772, 1.1814, 1.1760, 1.1781, 1.1762, 1.1744,1.1762
MultiSource/Benchmarks/ASC_Sequoia/AMGmk/AMGmk, 5.0533, 5.0450, 5.0407, 5.0316, 5.0535,5.045, 5.0434, 5.0621, 5.0314, 5.0270, 5.0550,5.0434
MultiSource/Benchmarks/ASC_Sequoia/CrystalMk/CrystalMk, 6.6766, 6.6763, 6.6756, 6.6764, 6.6768,6.6764, 6.6765, 6.6768, 6.6764, 6.6758, 6.6768,6.6765
MultiSource/Benchmarks/ASC_Sequoia/IRSmk/IRSmk, 3.0001, 3.0079, 3.0140, 3.0160, 3.0017,3.0079, 3.0135, 2.9986, 3.0102, 2.9901, 3.0155,3.0102
MultiSource/Benchmarks/BitBench/drop3/drop3, 0.1890, 0.1840, 0.1869, 0.1880, 0.1918,0.188, 0.1902, 0.1917, 0.1900, 0.1925, 0.1867,0.1902
MultiSource/Benchmarks/BitBench/five11/five11, 1.1186, 1.1156, 1.1171, 1.1188, 1.1163,1.1171, 1.1239, 1.1148, 1.1254, 1.1164, 1.1334,1.1239
MultiSource/Benchmarks/BitBench/uudecode/uudecode, 0.0598, 0.0599, 0.0596, 0.0597, 0.0599,0.0598, 0.0599, 0.0598, 0.0598, 0.0598, 0.0599,0.0598
MultiSource/Benchmarks/BitBench/uuencode/uuencode, 0.0111, 0.0110, 0.0111, 0.0110, 0.0110,0.011, 0.0111, 0.0111, 0.0111, 0.0109, 0.0110,0.0111
MultiSource/Benchmarks/Bullet/bullet, 3.2883, 3.2909, 3.2928, 3.2920, 3.2908,3.2909, 3.2915, 3.2900, 3.2867, 3.3038, 3.2900,3.29
MultiSource/Benchmarks/DOE-ProxyApps-C/XSBench/XSBench, 2.4357, 2.4354, 2.4320, 2.4328, 2.4266,2.4328, 2.4305, 2.4327, 2.4360, 2.4316, 2.4387,2.4327
MultiSource/Benchmarks/Fhourstones-3.1/fhourstones3.1, 0.8126, 0.8109, 0.8109, 0.8112, 0.8110,0.811, 0.8109, 0.8110, 0.8146, 0.8151, 0.8094,0.811
MultiSource/Benchmarks/Fhourstones/fhourstones, 0.6289, 0.6205, 0.6124, 0.6181, 0.6078,0.6181, 0.6195, 0.6165, 0.6156, 0.6210, 0.6066,0.6165
MultiSource/Benchmarks/FreeBench/analyzer/analyzer, 0.0400, 0.0402, 0.0400, 0.0396, 0.0399,0.04, 0.0403, 0.0398, 0.0397, 0.0395, 0.0401,0.0398
MultiSource/Benchmarks/FreeBench/distray/distray, 0.1382, 0.1381, 0.1382, 0.1381, 0.1381,0.1381, 0.1381, 0.1381, 0.1382, 0.1382, 0.1381,0.1381
MultiSource/Benchmarks/FreeBench/fourinarow/fourinarow, 0.1772, 0.1772, 0.1772, 0.1774, 0.1772,0.1772, 0.1772, 0.1772, 0.1772, 0.1772, 0.1773,0.1772
MultiSource/Benchmarks/FreeBench/mason/mason, 0.1300, 0.1300, 0.1301, 0.1299, 0.1299,0.13, 0.1299, 0.1299, 0.1298, 0.1299, 0.1298,0.1299
MultiSource/Benchmarks/FreeBench/neural/neural, 0.1648, 0.1648, 0.1647, 0.1649, 0.1647,0.1648, 0.1647, 0.1649, 0.1646, 0.1647, 0.1647,0.1647
MultiSource/Benchmarks/FreeBench/pcompress2/pcompress2, 0.1032, 0.1033, 0.1033, 0.1030, 0.1032,0.1032, 0.1031, 0.1032, 0.1032, 0.1032, 0.1032,0.1032
MultiSource/Benchmarks/FreeBench/pifft/pifft, 0.0644, 0.0644, 0.0645, 0.0645, 0.0643,0.0644, 0.0643, 0.0644, 0.0646, 0.0644, 0.0645,0.0644
MultiSource/Benchmarks/MallocBench/cfrac/cfrac, 0.7722, 0.7716, 0.7716, 0.7719, 0.7716,0.7716, 0.7721, 0.7718, 0.7716, 0.7720, 0.7718,0.7718
MultiSource/Benchmarks/MallocBench/espresso/espresso, 0.3079, 0.3075, 0.3077, 0.3077, 0.3075,0.3077, 0.3078, 0.3079, 0.3077, 0.3080, 0.3080,0.3079
MultiSource/Benchmarks/MallocBench/gs/gs, 0.0237, 0.0234, 0.0238, 0.0237, 0.0237,0.0237, 0.0237, 0.0235, 0.0236, 0.0236, 0.0237,0.0236
MultiSource/Benchmarks/McCat/01-qbsort/qbsort, 0.0395, 0.0395, 0.0395, 0.0395, 0.0395,0.0395, 0.0396, 0.0395, 0.0394, 0.0395, 0.0393,0.0395
MultiSource/Benchmarks/McCat/03-testtrie/testtrie, 0.0065, 0.0064, 0.0066, 0.0065, 0.0064,0.0065, 0.0065, 0.0066, 0.0065, 0.0065, 0.0065,0.0065
MultiSource/Benchmarks/McCat/04-bisect/bisect, 0.0789, 0.0789, 0.0790, 0.0790, 0.0789,0.0789, 0.0790, 0.0790, 0.0790, 0.0790, 0.0790,0.079
MultiSource/Benchmarks/McCat/05-eks/eks, 0.0036, 0.0036, 0.0036, 0.0036, 0.0036,0.0036, 0.0036, 0.0036, 0.0036, 0.0036, 0.0036,0.0036
MultiSource/Benchmarks/McCat/08-main/main, 0.0429, 0.0429, 0.0429, 0.0429, 0.0430,0.0429, 0.0429, 0.0429, 0.0429, 0.0429, 0.0429,0.0429
MultiSource/Benchmarks/McCat/09-vor/vor, 0.0840, 0.0842, 0.0841, 0.0843, 0.0840,0.0841, 0.0842, 0.0838, 0.0840, 0.0842, 0.0839,0.084
MultiSource/Benchmarks/McCat/12-IOtest/iotest, 0.2134, 0.2148, 0.2137, 0.2140, 0.2137,0.2137, 0.2136, 0.2162, 0.2154, 0.2171, 0.2148,0.2154
MultiSource/Benchmarks/McCat/17-bintr/bintr, 0.0807, 0.0814, 0.0805, 0.0828, 0.0810,0.081, 0.0810, 0.0812, 0.0822, 0.0815, 0.0810,0.0812
MultiSource/Benchmarks/McCat/18-imp/imp, 0.0676, 0.0677, 0.0676, 0.0678, 0.0676,0.0676, 0.0678, 0.0678, 0.0679, 0.0678, 0.0678,0.0678
MultiSource/Benchmarks/MiBench/automotive-basicmath/automotive-basicmath, 0.2225, 0.2226, 0.2225, 0.2227, 0.2227,0.2226, 0.2226, 0.2228, 0.2226, 0.2227, 0.2231,0.2227
MultiSource/Benchmarks/MiBench/automotive-bitcount/automotive-bitcount, 0.0563, 0.0601, 0.0537, 0.0529, 0.0553,0.0553, 0.0536, 0.0591, 0.0548, 0.0536, 0.0561,0.0548
MultiSource/Benchmarks/MiBench/automotive-susan/automotive-susan, 0.0290, 0.0284, 0.0284, 0.0290, 0.0284,0.0284, 0.0285, 0.0287, 0.0285, 0.0283, 0.0282,0.0285
MultiSource/Benchmarks/MiBench/consumer-jpeg/consumer-jpeg, 0.0030, 0.0031, 0.0030, 0.0031, 0.0031,0.0031, 0.0030, 0.0031, 0.0032, 0.0031, 0.0030,0.0031
MultiSource/Benchmarks/MiBench/consumer-lame/consumer-lame, 0.1238, 0.1186, 0.1184, 0.1183, 0.1186,0.1186, 0.1187, 0.1185, 0.1185, 0.1186, 0.1184,0.1185
MultiSource/Benchmarks/MiBench/consumer-typeset/consumer-typeset, 0.0945, 0.1264, 0.1086, 0.1037, 0.0991,0.1037, 0.1097, 0.1095, 0.0940, 0.1100, 0.1253,0.1097
MultiSource/Benchmarks/MiBench/network-dijkstra/network-dijkstra, 0.0249, 0.0250, 0.0249, 0.0249, 0.0250,0.0249, 0.0249, 0.0249, 0.0250, 0.0250, 0.0251,0.025
MultiSource/Benchmarks/MiBench/network-patricia/network-patricia, 0.0708, 0.0709, 0.0708, 0.0708, 0.0708,0.0708, 0.0708, 0.0708, 0.0708, 0.0707, 0.0710,0.0708
MultiSource/Benchmarks/MiBench/security-rijndael/security-rijndael, 0.0281, 0.0219, 0.0218, 0.0219, 0.0220,0.0219, 0.0219, 0.0218, 0.0220, 0.0217, 0.0219,0.0219
MultiSource/Benchmarks/MiBench/security-sha/security-sha, 0.0149, 0.0279, 0.0349, 0.0349, 0.0339,0.0339, 0.0365, 0.0363, 0.0375, 0.0356, 0.0374,0.0365
MultiSource/Benchmarks/MiBench/telecomm-CRC32/telecomm-CRC32, 0.1941, 0.1938, 0.2008, 0.1938, 0.1939,0.1939, 0.2024, 0.1952, 0.1963, 0.1973, 0.1993,0.1973
MultiSource/Benchmarks/MiBench/telecomm-FFT/telecomm-fft, 0.0385, 0.0385, 0.0386, 0.0386, 0.0385,0.0385, 0.0385, 0.0386, 0.0385, 0.0386, 0.0385,0.0385
MultiSource/Benchmarks/MiBench/telecomm-adpcm/telecomm-adpcm, 0.0743, 0.0698, 0.0725, 0.0742, 0.0721,0.0725, 0.0793, 0.0792, 0.0795, 0.0756, 0.0792,0.0792
MultiSource/Benchmarks/MiBench/telecomm-gsm/telecomm-gsm, 0.1110, 0.1112, 0.1110, 0.1110, 0.1112,0.111, 0.1112, 0.1112, 0.1111, 0.1111, 0.1112,0.1112
MultiSource/Benchmarks/NPB-serial/is/is, 5.1791, 5.1800, 5.1824, 5.1863, 5.1827,5.1824, 5.1879, 5.1775, 5.1790, 5.1785, 5.1824,5.179
MultiSource/Benchmarks/Olden/bh/bh, 1.2758, 1.2713, 1.2687, 1.2732, 1.2740,1.2732, 1.2706, 1.2685, 1.2682, 1.2734, 1.2711,1.2706
MultiSource/Benchmarks/Olden/bisort/bisort, 0.3707, 0.3708, 0.3693, 0.3697, 0.3691,0.3697, 0.3689, 0.3702, 0.3691, 0.3688, 0.3684,0.3689
MultiSource/Benchmarks/Olden/em3d/em3d, 1.7042, 1.7038, 1.7042, 1.7044, 1.7043,1.7042, 1.7042, 1.7042, 1.7042, 1.7038, 1.7047,1.7042
MultiSource/Benchmarks/Olden/health/health, 0.1455, 0.1457, 0.1456, 0.1455, 0.1456,0.1456, 0.1453, 0.1453, 0.1457, 0.1454, 0.1454,0.1454
MultiSource/Benchmarks/Olden/mst/mst, 0.0526, 0.0527, 0.0525, 0.0524, 0.0523,0.0525, 0.0526, 0.0524, 0.0525, 0.0523, 0.0527,0.0525
MultiSource/Benchmarks/Olden/perimeter/perimeter, 0.1230, 0.1231, 0.1226, 0.1227, 0.1231,0.123, 0.1229, 0.1228, 0.1232, 0.1230, 0.1231,0.123
MultiSource/Benchmarks/Olden/power/power, 1.0749, 1.0749, 1.0749, 1.0750, 1.0750,1.0749, 1.0750, 1.0749, 1.0750, 1.0750, 1.0749,1.075
MultiSource/Benchmarks/Olden/treeadd/treeadd, 0.1272, 0.1269, 0.1270, 0.1269, 0.1271,0.127, 0.1272, 0.1268, 0.1269, 0.1271, 0.1271,0.1271
MultiSource/Benchmarks/Olden/tsp/tsp, 1.1802, 1.1811, 1.1802, 1.1804, 1.1807,1.1804, 1.1813, 1.1813, 1.1808, 1.1801, 1.1807,1.1808
MultiSource/Benchmarks/Olden/voronoi/voronoi, 0.2113, 0.2105, 0.2104, 0.2109, 0.2106,0.2106, 0.2109, 0.2112, 0.2114, 0.2117, 0.2111,0.2112
MultiSource/Benchmarks/PAQ8p/paq8p,43.8365,43.8326,43.9132,43.8226,43.8846,43.8365,43.8659,43.8738,43.8979,43.8541,43.8473,43.8659
MultiSource/Benchmarks/Prolangs-C++/city/city, 0.0051, 0.0051, 0.0051, 0.0051, 0.0051,0.0051, 0.0051, 0.0051, 0.0051, 0.0051, 0.0051,0.0051
MultiSource/Benchmarks/Prolangs-C++/employ/employ, 0.0050, 0.0051, 0.0050, 0.0051, 0.0050,0.005, 0.0050, 0.0050, 0.0050, 0.0050, 0.0050,0.005
MultiSource/Benchmarks/Prolangs-C++/life/life, 0.7085, 0.7090, 0.7080, 0.7078, 0.7086,0.7085, 0.7063, 0.7083, 0.7087, 0.7087, 0.7068,0.7083
MultiSource/Benchmarks/Prolangs-C++/ocean/ocean, 0.0362, 0.0362, 0.0362, 0.0363, 0.0362,0.0362, 0.0363, 0.0362, 0.0362, 0.0364, 0.0362,0.0362
MultiSource/Benchmarks/Prolangs-C++/primes/primes, 0.2121, 0.2129, 0.2127, 0.2125, 0.2133,0.2127, 0.2122, 0.2125, 0.2122, 0.2133, 0.2131,0.2125
MultiSource/Benchmarks/Prolangs-C++/simul/simul, 0.0040, 0.0040, 0.0040, 0.0040, 0.0039,0.004, 0.0040, 0.0040, 0.0039, 0.0040, 0.0040,0.004
MultiSource/Benchmarks/Prolangs-C/agrep/agrep, 0.0084, 0.0029, 0.0031, 0.0031, 0.0029,0.0031, 0.0029, 0.0031, 0.0030, 0.0031, 0.0030,0.003
MultiSource/Benchmarks/Prolangs-C/bison/mybison, 0.0020, 0.0092, 0.0021, 0.0021, 0.0022,0.0021, 0.0021, 0.0145, 0.0022, 0.0022, 0.0022,0.0022
MultiSource/Benchmarks/Prolangs-C/gnugo/gnugo, 0.0234, 0.0234, 0.0234, 0.0234, 0.0232,0.0234, 0.0235, 0.0234, 0.0234, 0.0234, 0.0235,0.0234
MultiSource/Benchmarks/Ptrdist/anagram/anagram, 0.6656, 0.6658, 0.6657, 0.6659, 0.6658,0.6658, 0.6658, 0.6657, 0.6656, 0.6657, 0.6657,0.6657
MultiSource/Benchmarks/Ptrdist/bc/bc, 0.3574, 0.3573, 0.3577, 0.3573, 0.3575,0.3574, 0.3573, 0.3574, 0.3575, 0.3573, 0.3573,0.3573
MultiSource/Benchmarks/Ptrdist/ft/ft, 0.6178, 0.6377, 0.6383, 0.6113, 0.6660,0.6377, 0.6499, 0.6133, 0.6233, 0.6765, 0.6073,0.6233
MultiSource/Benchmarks/Ptrdist/ks/ks, 0.6200, 0.6169, 0.6182, 0.6173, 0.6203,0.6182, 0.6185, 0.6183, 0.6181, 0.6177, 0.6177,0.6181
MultiSource/Benchmarks/Ptrdist/yacr2/yacr2, 0.5117, 0.5115, 0.5117, 0.5114, 0.5116,0.5116, 0.5115, 0.5119, 0.5117, 0.5119, 0.5118,0.5118
MultiSource/Benchmarks/SciMark2-C/scimark2,43.2835,43.2823,43.2817,43.0778,43.2831,43.2823,43.2851,43.2862,43.2848,43.2785,43.2442,43.2848
MultiSource/Benchmarks/TSVC/ControlFlow-dbl/ControlFlow-dbl, 3.7946, 3.7971, 3.8108, 3.8009, 3.8004,3.8004, 3.8164, 3.7985, 3.7975, 3.7998, 3.7977,3.7985
MultiSource/Benchmarks/TSVC/ControlFlow-flt/ControlFlow-flt, 3.5870, 3.6031, 3.6080, 3.6162, 3.6100,3.608, 3.6121, 3.5915, 3.5925, 3.6124, 3.5868,3.5925
MultiSource/Benchmarks/TSVC/ControlLoops-dbl/ControlLoops-dbl, 2.5296, 2.5289, 2.5360, 2.5307, 2.5293,2.5296, 2.5380, 2.5290, 2.5385, 2.5311, 2.5279,2.5311
MultiSource/Benchmarks/TSVC/ControlLoops-flt/ControlLoops-flt, 2.3394, 2.3372, 2.3456, 2.3435, 2.3424,2.3424, 2.3424, 2.3447, 2.3456, 2.3435, 2.3373,2.3435
MultiSource/Benchmarks/TSVC/CrossingThresholds-dbl/CrossingThresholds-dbl, 2.1480, 2.1724, 2.1495, 2.1495, 2.1498,2.1495, 2.1478, 2.1486, 2.1717, 2.1721, 2.1475,2.1486
MultiSource/Benchmarks/TSVC/CrossingThresholds-flt/CrossingThresholds-flt, 1.6320, 1.6155, 1.6389, 1.6345, 1.6194,1.632, 1.6264, 1.6185, 1.6269, 1.6135, 1.6196,1.6196
MultiSource/Benchmarks/TSVC/Equivalencing-dbl/Equivalencing-dbl, 1.3816, 1.3804, 1.3804, 1.3809, 1.3856,1.3809, 1.3800, 1.3875, 1.3796, 1.3806, 1.3821,1.3806
MultiSource/Benchmarks/TSVC/Equivalencing-flt/Equivalencing-flt, 0.9700, 0.9674, 0.9656, 0.9696, 0.9677,0.9677, 0.9692, 0.9694, 0.9677, 0.9706, 0.9685,0.9692
MultiSource/Benchmarks/TSVC/Expansion-dbl/Expansion-dbl, 1.9840, 1.9615, 1.9616, 1.9646, 1.9637,1.9637, 1.9601, 1.9615, 1.9589, 1.9571, 1.9835,1.9601
MultiSource/Benchmarks/TSVC/Expansion-flt/Expansion-flt, 1.1585, 1.1584, 1.1635, 1.1623, 1.1583,1.1585, 1.1614, 1.1675, 1.1576, 1.1666, 1.1717,1.1666
MultiSource/Benchmarks/TSVC/GlobalDataFlow-dbl/GlobalDataFlow-dbl, 2.8511, 2.8382, 2.8393, 2.8406, 2.8514,2.8406, 2.8405, 2.8372, 2.8383, 2.8384, 2.8390,2.8384
MultiSource/Benchmarks/TSVC/GlobalDataFlow-flt/GlobalDataFlow-flt, 1.4973, 1.4926, 1.4868, 1.4994, 1.4963,1.4963, 1.4966, 1.4992, 1.5003, 1.4923, 1.5061,1.4992
MultiSource/Benchmarks/TSVC/IndirectAddressing-dbl/IndirectAddressing-dbl, 2.4756, 2.4751, 2.4741, 2.4910, 2.4926,2.4756, 2.4862, 2.4762, 2.4745, 2.4741, 2.4792,2.4762
MultiSource/Benchmarks/TSVC/IndirectAddressing-flt/IndirectAddressing-flt, 2.3029, 2.3036, 2.3016, 2.3036, 2.3052,2.3036, 2.3038, 2.3045, 2.2995, 2.3035, 2.3020,2.3035
MultiSource/Benchmarks/TSVC/InductionVariable-dbl/InductionVariable-dbl, 3.0500, 3.0518, 3.0289, 3.0320, 3.0318,3.032, 3.0491, 3.0332, 3.0325, 3.0312, 3.0337,3.0332
MultiSource/Benchmarks/TSVC/InductionVariable-flt/InductionVariable-flt, 2.5527, 2.5629, 2.5578, 2.5506, 2.5540,2.554, 2.5540, 2.5476, 2.5538, 2.5568, 2.5486,2.5538
MultiSource/Benchmarks/TSVC/LinearDependence-dbl/LinearDependence-dbl, 5.8571, 5.8489, 5.8580, 5.8483, 5.8489,5.8489, 5.8578, 5.8488, 5.8494, 5.8572, 5.8578,5.8572
MultiSource/Benchmarks/TSVC/LinearDependence-flt/LinearDependence-flt, 5.1319, 5.1267, 5.1268, 5.1266, 5.1261,5.1267, 5.1252, 5.1260, 5.1272, 5.1271, 5.1264,5.1264
MultiSource/Benchmarks/TSVC/LoopRerolling-dbl/LoopRerolling-dbl, 4.5836, 4.5758, 4.5905, 4.5873, 4.5824,4.5836, 4.5992, 4.5835, 4.5842, 4.6079, 4.5872,4.5872
MultiSource/Benchmarks/TSVC/LoopRerolling-flt/LoopRerolling-flt, 3.8184, 3.8257, 3.8259, 3.8223, 3.8268,3.8257, 3.8311, 3.8271, 3.8178, 3.8206, 3.8268,3.8268
MultiSource/Benchmarks/TSVC/LoopRestructuring-dbl/LoopRestructuring-dbl, 3.5771, 3.6511, 3.5770, 3.6420, 3.5858,3.5858, 3.5801, 3.6395, 3.5843, 3.5729, 3.5893,3.5843
MultiSource/Benchmarks/TSVC/LoopRestructuring-flt/LoopRestructuring-flt, 3.0010, 3.0104, 2.7983, 2.9889, 2.8661,2.9889, 2.8706, 2.9951, 2.8873, 2.9403, 2.9670,2.9403
MultiSource/Benchmarks/TSVC/NodeSplitting-dbl/NodeSplitting-dbl, 5.0266, 5.0244, 5.0275, 5.0261, 5.0245,5.0261, 5.0169, 5.0166, 5.0185, 5.0247, 5.0165,5.0169
MultiSource/Benchmarks/TSVC/NodeSplitting-flt/NodeSplitting-flt, 4.6414, 4.6443, 4.6402, 4.6426, 4.6439,4.6426, 4.6433, 4.6416, 4.6400, 4.6423, 4.6416,4.6416
MultiSource/Benchmarks/TSVC/Packing-dbl/Packing-dbl, 2.3274, 2.2783, 2.2791, 2.2800, 2.3263,2.28, 2.2788, 2.3256, 2.3259, 2.2795, 2.2795,2.2795
MultiSource/Benchmarks/TSVC/Packing-flt/Packing-flt, 2.0887, 2.1024, 2.0887, 2.1251, 2.1156,2.1024, 2.0942, 2.1300, 2.1048, 2.1070, 2.1008,2.1048
MultiSource/Benchmarks/TSVC/Recurrences-dbl/Recurrences-dbl, 3.5012, 3.5012, 3.5012, 3.5012, 3.5011,3.5012, 3.5012, 3.5012, 3.5012, 3.5012, 3.5012,3.5012
MultiSource/Benchmarks/TSVC/Recurrences-flt/Recurrences-flt, 3.5009, 3.5009, 3.5008, 3.5009, 3.5008,3.5009, 3.5007, 3.5011, 3.5009, 3.5007, 3.5010,3.5009
MultiSource/Benchmarks/TSVC/Reductions-dbl/Reductions-dbl, 3.4766, 3.4766, 3.4765, 3.4765, 3.4765,3.4765, 3.4764, 3.4765, 3.4765, 3.4765, 3.4765,3.4765
MultiSource/Benchmarks/TSVC/Reductions-flt/Reductions-flt, 5.9694, 5.9694, 5.9694, 5.9695, 5.9694,5.9694, 5.9696, 5.9694, 5.9694, 5.9694, 5.9693,5.9694
MultiSource/Benchmarks/TSVC/Searching-dbl/Searching-dbl, 2.2883, 2.2883, 2.2888, 2.2886, 2.2886,2.2886, 2.2885, 2.2884, 2.2882, 2.2880, 2.2883,2.2883
MultiSource/Benchmarks/TSVC/Searching-flt/Searching-flt, 2.4477, 2.4469, 2.4482, 2.4480, 2.4469,2.4477, 2.4470, 2.4466, 2.4482, 2.4477, 2.4476,2.4476
MultiSource/Benchmarks/TSVC/StatementReordering-dbl/StatementReordering-dbl, 2.2409, 2.2336, 2.2311, 2.2431, 2.2406,2.2406, 2.2357, 2.2452, 2.2359, 2.2460, 2.2317,2.2359
MultiSource/Benchmarks/TSVC/StatementReordering-flt/StatementReordering-flt, 1.8242, 1.8281, 1.8245, 1.8229, 1.8222,1.8242, 1.8289, 1.8253, 1.8259, 1.8254, 1.8264,1.8259
MultiSource/Benchmarks/TSVC/Symbolics-dbl/Symbolics-dbl, 2.4425, 2.4569, 2.4417, 2.4423, 2.4415,2.4423, 2.4414, 2.4422, 2.4418, 2.4415, 2.4572,2.4418
MultiSource/Benchmarks/TSVC/Symbolics-flt/Symbolics-flt, 1.3916, 1.3929, 1.3915, 1.3986, 1.3963,1.3929, 1.3927, 1.3948, 1.4042, 1.3913, 1.3994,1.3948
MultiSource/Benchmarks/Trimaran/enc-3des/enc-3des, 1.2778, 1.2773, 1.2773, 1.2772, 1.2776,1.2773, 1.2778, 1.2774, 1.2772, 1.2774, 1.2774,1.2774
MultiSource/Benchmarks/Trimaran/enc-md5/enc-md5, 1.3929, 1.3929, 1.3929, 1.3929, 1.3929,1.3929, 1.3929, 1.3929, 1.3929, 1.3930, 1.3928,1.3929
MultiSource/Benchmarks/Trimaran/enc-pc1/enc-pc1, 0.3533, 0.3534, 0.3533, 0.3534, 0.3533,0.3533, 0.3533, 0.3534, 0.3534, 0.3534, 0.3533,0.3534
MultiSource/Benchmarks/Trimaran/enc-rc4/enc-rc4, 0.7243, 0.7248, 0.7245, 0.7243, 0.7246,0.7245, 0.7243, 0.7241, 0.7243, 0.7247, 0.7245,0.7243
MultiSource/Benchmarks/Trimaran/netbench-crc/netbench-crc, 0.6208, 0.6209, 0.6211, 0.6209, 0.6209,0.6209, 0.6210, 0.6225, 0.6207, 0.6211, 0.6209,0.621
MultiSource/Benchmarks/Trimaran/netbench-url/netbench-url, 2.9791, 2.9795, 2.9789, 2.9790, 2.9789,2.979, 2.9790, 2.9791, 2.9794, 2.9788, 2.9787,2.979
MultiSource/Benchmarks/VersaBench/8b10b/8b10b, 3.6128, 3.5862, 3.5948, 3.5867, 3.5940,3.594, 3.5877, 3.6022, 3.5890, 3.5885, 3.5879,3.5885
MultiSource/Benchmarks/VersaBench/beamformer/beamformer, 0.7499, 0.7496, 0.7497, 0.7497, 0.7498,0.7497, 0.7497, 0.7498, 0.7496, 0.7498, 0.7497,0.7497
MultiSource/Benchmarks/VersaBench/bmm/bmm, 1.6967, 1.6959, 1.6961, 1.6966, 1.6951,1.6961, 1.6962, 1.6958, 1.6966, 1.6959, 1.6961,1.6961
MultiSource/Benchmarks/VersaBench/dbms/dbms, 0.8959, 0.9051, 0.9152, 0.9074, 0.8923,0.9051, 0.9111, 0.8997, 0.9022, 0.8983, 0.9069,0.9022
MultiSource/Benchmarks/VersaBench/ecbdes/ecbdes, 1.6924, 1.6923, 1.6923, 1.6923, 1.6923,1.6923, 1.6923, 1.6922, 1.6924, 1.6924, 1.6923,1.6923
MultiSource/Benchmarks/llubenchmark/llu, 4.1192, 4.1686, 4.0966, 4.0885, 4.0572,4.0966, 4.1130, 4.0930, 4.0586, 4.1017, 4.0788,4.093
MultiSource/Benchmarks/mafft/pairlocalalign,24.8711,24.8260,24.8263,24.8274,24.8269,24.8269,24.8274,24.8262,24.8287,24.8264,24.8264,24.8264
MultiSource/Benchmarks/mediabench/adpcm/rawcaudio/rawcaudio, 0.0029, 0.0028, 0.0029, 0.0028, 0.0030,0.0029, 0.0030, 0.0030, 0.0028, 0.0029, 0.0029,0.0029
MultiSource/Benchmarks/mediabench/adpcm/rawdaudio/rawdaudio, 0.0018, 0.0018, 0.0018, 0.0018, 0.0017,0.0018, 0.0018, 0.0019, 0.0020, 0.0018, 0.0019,0.0019
MultiSource/Benchmarks/mediabench/g721/g721encode/encode, 0.0291, 0.0291, 0.0290, 0.0290, 0.0291,0.0291, 0.0289, 0.0291, 0.0291, 0.0290, 0.0290,0.029
MultiSource/Benchmarks/mediabench/gsm/toast/toast, 0.0144, 0.0145, 0.0145, 0.0144, 0.0144,0.0144, 0.0143, 0.0145, 0.0145, 0.0144, 0.0145,0.0145
MultiSource/Benchmarks/mediabench/jpeg/jpeg-6a/cjpeg, 0.0033, 0.0032, 0.0033, 0.0033, 0.0032,0.0033, 0.0032, 0.0033, 0.0034, 0.0034, 0.0033,0.0033
MultiSource/Benchmarks/mediabench/mpeg2/mpeg2dec/mpeg2decode, 0.0154, 0.0155, 0.0154, 0.0154, 0.0155,0.0154, 0.0153, 0.0154, 0.0154, 0.0155, 0.0155,0.0154
MultiSource/Benchmarks/nbench/nbench, 1.1888, 1.1898, 1.1892, 1.1919, 1.1889,1.1892, 1.1895, 1.1885, 1.1897, 1.1896, 1.1909,1.1896
MultiSource/Benchmarks/sim/sim, 2.5951, 2.5974, 2.5970, 2.5984, 2.5978,2.5974, 2.5954, 2.5942, 2.6001, 2.6006, 2.5962,2.5962
MultiSource/Benchmarks/tramp3d-v4/tramp3d-v4, 0.2643, 0.2645, 0.2640, 0.2640, 0.2642,0.2642, 0.2640, 0.2639, 0.2643, 0.2640, 0.2641,0.264
SingleSource/Benchmarks/Adobe-C++/functionobjects, 2.9983, 2.9980, 2.9992, 2.9998, 2.9985,2.9985, 3.0000, 2.9987, 2.9981, 2.9991, 2.9988,2.9988
SingleSource/Benchmarks/Adobe-C++/loop_unroll, 1.8180, 1.8181, 1.8155, 1.8197, 1.8201,1.8181, 1.8206, 1.8216, 1.8214, 1.8230, 1.8236,1.8216
SingleSource/Benchmarks/Adobe-C++/simple_types_constant_folding, 0.6691, 0.6691, 0.6691, 0.6692, 0.6691,0.6691, 0.6691, 0.6691, 0.6691, 0.6692, 0.6691,0.6691
SingleSource/Benchmarks/Adobe-C++/simple_types_loop_invariant, 1.6064, 1.6068, 1.6069, 1.6067, 1.6068,1.6068, 1.6065, 1.6064, 1.6065, 1.6076, 1.6065,1.6065
SingleSource/Benchmarks/Adobe-C++/stepanov_abstraction, 4.2373, 4.2367, 4.2368, 4.2375, 4.2375,4.2373, 4.2371, 4.2383, 4.2381, 4.2367, 4.2375,4.2375
SingleSource/Benchmarks/Adobe-C++/stepanov_vector, 2.2587, 2.2592, 2.2590, 2.2589, 2.2588,2.2589, 2.2591, 2.2587, 2.2586, 2.2592, 2.2586,2.2587
SingleSource/Benchmarks/BenchmarkGame/Large/fasta, 0.6498, 0.6492, 0.6491, 0.6492, 0.6495,0.6492, 0.6489, 0.6485, 0.6489, 0.6486, 0.6424,0.6486
SingleSource/Benchmarks/BenchmarkGame/fannkuch, 1.8618, 1.8631, 1.8636, 1.8626, 1.8628,1.8628, 1.8633, 1.8628, 1.8622, 1.8639, 1.8638,1.8633
SingleSource/Benchmarks/BenchmarkGame/n-body, 1.3718, 1.3717, 1.3718, 1.3718, 1.3718,1.3718, 1.3718, 1.3718, 1.3718, 1.3718, 1.3718,1.3718
SingleSource/Benchmarks/BenchmarkGame/nsieve-bits, 0.4886, 0.4906, 0.4899, 0.4988, 0.4872,0.4899, 0.4989, 0.5033, 0.4851, 0.4843, 0.4981,0.4981
SingleSource/Benchmarks/BenchmarkGame/partialsums, 0.5687, 0.5687, 0.5687, 0.5687, 0.5687,0.5687, 0.5687, 0.5687, 0.5687, 0.5688, 0.5687,0.5687
SingleSource/Benchmarks/BenchmarkGame/puzzle, 0.1136, 0.1138, 0.1138, 0.1136, 0.1136,0.1136, 0.1138, 0.1143, 0.1136, 0.1136, 0.1136,0.1136
SingleSource/Benchmarks/BenchmarkGame/recursive, 0.7054, 0.7044, 0.7122, 0.7043, 0.7155,0.7054, 0.7044, 0.7044, 0.7158, 0.7044, 0.7062,0.7044
SingleSource/Benchmarks/BenchmarkGame/spectral-norm, 0.9733, 0.9733, 0.9733, 0.9734, 0.9733,0.9733, 0.9733, 0.9733, 0.9733, 0.9733, 0.9733,0.9733
SingleSource/Benchmarks/CoyoteBench/almabench,12.6502,12.6508,12.6485,12.6491,12.6496,12.6496,12.6461,12.6462,12.6461,12.6468,12.6466,12.6462
SingleSource/Benchmarks/CoyoteBench/fftbench, 0.6315, 0.6376, 0.6340, 0.6450, 0.6340,0.634, 0.6825, 0.6355, 0.6430, 0.6488, 0.6576,0.6488
SingleSource/Benchmarks/CoyoteBench/huffbench, 9.2888, 9.2868, 9.2872, 9.2917, 9.2912,9.2888, 9.2870, 9.2870, 9.2894, 9.2904, 9.2901,9.2894
SingleSource/Benchmarks/CoyoteBench/lpbench, 1.8218, 1.8253, 1.8334, 1.8247, 1.8262,1.8253, 1.8232, 1.8244, 1.8233, 1.8210, 1.8340,1.8233
SingleSource/Benchmarks/Dhrystone/dry, 0.3351, 0.3351, 0.3351, 0.3351, 0.3351,0.3351, 0.3351, 0.3351, 0.3351, 0.3351, 0.3351,0.3351
SingleSource/Benchmarks/Dhrystone/fldry, 0.3655, 0.3655, 0.3655, 0.3658, 0.3655,0.3655, 0.3655, 0.3655, 0.3655, 0.3655, 0.3654,0.3655
SingleSource/Benchmarks/Linpack/linpack-pc, 1.2592, 1.2578, 1.2619, 1.2609, 1.2581,1.2592, 1.2583, 1.2587, 1.2584, 1.2621, 1.2589,1.2587
SingleSource/Benchmarks/McGill/chomp, 1.2778, 1.3048, 1.2792, 1.2801, 1.3084,1.2801, 1.2766, 1.2803, 1.2790, 1.3079, 1.3042,1.2803
SingleSource/Benchmarks/McGill/misr, 0.1012, 0.1012, 0.1012, 0.1012, 0.1012,0.1012, 0.1012, 0.1012, 0.1012, 0.1012, 0.1012,0.1012
SingleSource/Benchmarks/McGill/queens, 1.5487, 1.5485, 1.5494, 1.5488, 1.5489,1.5488, 1.5488, 1.5485, 1.5489, 1.5486, 1.5485,1.5486
SingleSource/Benchmarks/Misc-C++-EH/spirit, 2.6250, 2.6247, 2.6258, 2.6240, 2.6225,2.6247, 2.6213, 2.6214, 2.6209, 2.6204, 2.6214,2.6213
SingleSource/Benchmarks/Misc-C++/Large/ray, 3.1382, 3.1382, 3.1382, 3.1382, 3.1381,3.1382, 3.1382, 3.1381, 3.1382, 3.1382, 3.1382,3.1382
SingleSource/Benchmarks/Misc-C++/Large/sphereflake, 6.2819, 6.2818, 6.2819, 6.2820, 6.2815,6.2819, 6.2817, 6.2819, 6.2819, 6.2817, 6.2816,6.2817
SingleSource/Benchmarks/Misc-C++/bigfib, 0.1916, 0.1916, 0.1920, 0.1918, 0.1923,0.1918, 0.1918, 0.1920, 0.1919, 0.1921, 0.1921,0.192
SingleSource/Benchmarks/Misc-C++/mandel-text, 1.6115, 1.6125, 1.6124, 1.6117, 1.6126,1.6124, 1.6147, 1.6120, 1.6109, 1.6117, 1.6125,1.612
SingleSource/Benchmarks/Misc-C++/oopack_v1p8, 0.1617, 0.1616, 0.1618, 0.1619, 0.1617,0.1617, 0.1620, 0.1620, 0.1620, 0.1616, 0.1618,0.162
SingleSource/Benchmarks/Misc-C++/stepanov_container, 2.9396, 2.8998, 3.0950, 3.0665, 3.0661,3.0661, 3.0539, 2.9610, 3.0777, 3.0753, 3.0682,3.0682
SingleSource/Benchmarks/Misc-C++/stepanov_v1p2, 7.9035, 7.9033, 7.9034, 7.9034, 7.9033,7.9034, 7.9034, 7.9033, 7.9033, 7.9034, 7.9034,7.9034
SingleSource/Benchmarks/Misc/ReedSolomon, 3.1254, 3.1257, 3.1252, 3.1283, 3.1278,3.1257, 3.1276, 3.1251, 3.1253, 3.1279, 3.1274,3.1274
SingleSource/Benchmarks/Misc/dt, 0.6919, 0.6919, 0.6919, 0.6919, 0.6919,0.6919, 0.6919, 0.6918, 0.6919, 0.6919, 0.6919,0.6919
SingleSource/Benchmarks/Misc/fbench, 1.7523, 1.7523, 1.7523, 1.7523, 1.7523,1.7523, 1.7523, 1.7522, 1.7523, 1.7523, 1.7523,1.7523
SingleSource/Benchmarks/Misc/ffbench, 0.5810, 0.5879, 0.5864, 0.5785, 0.5868,0.5864, 0.5829, 0.5764, 0.5874, 0.5759, 0.5913,0.5829
SingleSource/Benchmarks/Misc/flops,10.6546,10.6551,10.6751,10.6558,10.6425,10.6551,10.6555,10.6542,10.6391,10.6384,10.6346,10.6391
SingleSource/Benchmarks/Misc/flops-1, 3.6289, 3.6289, 3.6289, 3.6289, 3.6288,3.6289, 3.6289, 3.6289, 3.6289, 3.6289, 3.6289,3.6289
SingleSource/Benchmarks/Misc/flops-2, 0.8627, 0.8627, 0.8628, 0.8627, 0.8628,0.8627, 0.8627, 0.8627, 0.8627, 0.8629, 0.8627,0.8627
SingleSource/Benchmarks/Misc/flops-3, 5.5082, 5.5081, 5.5082, 5.5081, 5.5081,5.5081, 5.5082, 5.5081, 5.5082, 5.5082, 5.5082,5.5082
SingleSource/Benchmarks/Misc/flops-4, 2.3748, 2.3747, 2.3273, 2.2323, 2.2321,2.3273, 2.2323, 2.3747, 2.3273, 2.3273, 2.2323,2.3273
SingleSource/Benchmarks/Misc/flops-5, 4.3251, 4.2775, 4.2776, 4.3250, 4.3250,4.325, 4.2775, 4.3250, 4.3251, 4.3251, 4.3250,4.325
SingleSource/Benchmarks/Misc/flops-6, 3.1817, 3.1818, 3.1818, 3.1818, 3.1818,3.1818, 3.1818, 3.1818, 3.1818, 3.1818, 3.1818,3.1818
SingleSource/Benchmarks/Misc/flops-7, 1.5902, 1.5901, 1.5902, 1.5901, 1.5901,1.5901, 1.5901, 1.5901, 1.5901, 1.5902, 1.5902,1.5901
SingleSource/Benchmarks/Misc/flops-8, 3.7515, 3.8465, 3.8465, 3.7515, 3.7991,3.7991, 3.8465, 3.8465, 3.8465, 3.7516, 3.7515,3.8465
SingleSource/Benchmarks/Misc/fp-convert, 3.0626, 3.0626, 3.0626, 3.0626, 3.0626,3.0626, 3.0626, 3.0626, 3.0626, 3.0626, 3.0626,3.0626
SingleSource/Benchmarks/Misc/himenobmtxpa, 0.6001, 0.5983, 0.6012, 0.5932, 0.5940,0.5983, 0.5900, 0.5951, 0.5920, 0.5922, 0.5943,0.5922
SingleSource/Benchmarks/Misc/lowercase, 0.0009, 0.0009, 0.0008, 0.0008, 0.0008,0.0008, 0.0009, 0.0009, 0.0009, 0.0009, 0.0009,0.0009
SingleSource/Benchmarks/Misc/mandel, 0.8338, 0.8337, 0.8338, 0.8337, 0.8338,0.8338, 0.8338, 0.8338, 0.8338, 0.8338, 0.8337,0.8338
SingleSource/Benchmarks/Misc/mandel-2, 1.2781, 1.2781, 1.2780, 1.2781, 1.2780,1.2781, 1.2780, 1.2780, 1.2781, 1.2780, 1.2780,1.278
SingleSource/Benchmarks/Misc/matmul_f64_4x4, 1.2953, 1.2953, 1.2953, 1.2951, 1.2951,1.2953, 1.2953, 1.2953, 1.2953, 1.2953, 1.2952,1.2953
SingleSource/Benchmarks/Misc/oourafft, 6.1772, 6.0850, 6.0807, 6.0807, 6.0852,6.085, 6.0812, 6.0807, 6.0811, 6.0807, 6.0807,6.0807
SingleSource/Benchmarks/Misc/perlin, 3.8540, 3.8545, 3.8539, 3.8537, 3.8533,3.8539, 3.8537, 3.8538, 3.8535, 3.8538, 3.8536,3.8537
SingleSource/Benchmarks/Misc/pi, 0.6944, 0.6943, 0.6943, 0.6943, 0.6943,0.6943, 0.6943, 0.6943, 0.6943, 0.6944, 0.6943,0.6943
SingleSource/Benchmarks/Misc/richards_benchmark, 0.5320, 0.5319, 0.5317, 0.5316, 0.5311,0.5317, 0.5316, 0.5317, 0.5319, 0.5323, 0.5321,0.5319
SingleSource/Benchmarks/Misc/salsa20, 4.8286, 4.8286, 4.8284, 4.8173, 4.8171,4.8284, 4.8173, 4.8175, 4.8285, 4.8286, 4.8230,4.823
SingleSource/Benchmarks/Misc/whetstone, 1.0251, 1.0251, 1.0200, 1.0202, 1.0278,1.0251, 1.0251, 1.0277, 1.0276, 1.0278, 1.0276,1.0276
SingleSource/Benchmarks/Polybench/datamining/correlation/correlation, 1.6614, 1.6591, 1.6557, 1.6551, 1.6478,1.6557, 1.6615, 1.6612, 1.6543, 1.6563, 1.6481,1.6563
SingleSource/Benchmarks/Polybench/datamining/covariance/covariance, 1.6325, 1.6438, 1.6435, 1.6502, 1.6376,1.6435, 1.6469, 1.6485, 1.6377, 1.6378, 1.6432,1.6432
SingleSource/Benchmarks/Polybench/linear-algebra/kernels/atax/atax, 0.1705, 0.1705, 0.1706, 0.1705, 0.1705,0.1705, 0.1705, 0.1703, 0.1705, 0.1705, 0.1705,0.1705
SingleSource/Benchmarks/Polybench/linear-algebra/kernels/bicg/bicg, 0.2127, 0.2129, 0.2127, 0.2129, 0.2128,0.2128, 0.2129, 0.2128, 0.2128, 0.2128, 0.2128,0.2128
SingleSource/Benchmarks/Polybench/linear-algebra/kernels/cholesky/cholesky, 0.5676, 0.5697, 0.5731, 0.5719, 0.5652,0.5697, 0.5728, 0.5703, 0.5714, 0.5647, 0.5730,0.5714
SingleSource/Benchmarks/Polybench/linear-algebra/kernels/doitgen/doitgen, 0.7915, 0.7904, 0.7907, 0.7919, 0.7905,0.7907, 0.7905, 0.7905, 0.8009, 0.7920, 0.7923,0.792
SingleSource/Benchmarks/Polybench/linear-algebra/kernels/gemver/gemver, 0.3244, 0.3283, 0.3239, 0.3185, 0.3238,0.3239, 0.3190, 0.3283, 0.3287, 0.3181, 0.3238,0.3238
SingleSource/Benchmarks/Polybench/linear-algebra/kernels/gesummv/gesummv, 0.3065, 0.3065, 0.3067, 0.3066, 0.3064,0.3065, 0.3067, 0.3065, 0.3065, 0.3066, 0.3065,0.3065
SingleSource/Benchmarks/Polybench/linear-algebra/kernels/mvt/mvt, 0.2430, 0.2466, 0.2461, 0.2471, 0.2417,0.2461, 0.2466, 0.2463, 0.2418, 0.2431, 0.2467,0.2463
SingleSource/Benchmarks/Polybench/linear-algebra/kernels/symm/symm,17.6997,17.6434,17.1881,17.3628,17.4134,17.4134,17.6927,16.8868,17.4404,17.5054,17.6621,17.5054
SingleSource/Benchmarks/Polybench/linear-algebra/kernels/syr2k/syr2k, 8.7803, 8.7825, 8.7804, 8.7793, 8.7820,8.7804, 8.7809, 8.7803, 8.7776, 8.7825, 8.7798,8.7803
SingleSource/Benchmarks/Polybench/linear-algebra/kernels/syrk/syrk, 4.4131, 4.4128, 4.4139, 4.4135, 4.4136,4.4135, 4.4123, 4.4134, 4.4132, 4.4134, 4.4131,4.4132
SingleSource/Benchmarks/Polybench/linear-algebra/kernels/trisolv/trisolv, 0.1738, 0.1737, 0.1737, 0.1738, 0.1737,0.1737, 0.1738, 0.1737, 0.1737, 0.1737, 0.1640,0.1737
SingleSource/Benchmarks/Polybench/linear-algebra/kernels/trmm/trmm, 2.2413, 2.3631, 2.3649, 2.3617, 2.3481,2.3617, 2.3487, 2.3609, 2.3483, 2.2359, 2.3628,2.3487
SingleSource/Benchmarks/Polybench/linear-algebra/solvers/durbin/durbin, 0.4076, 0.3979, 0.4074, 0.3977, 0.3979,0.3979, 0.4083, 0.3986, 0.3983, 0.4080, 0.3985,0.3986
SingleSource/Benchmarks/Polybench/linear-algebra/solvers/dynprog/dynprog, 0.2810, 0.2803, 0.2811, 0.2804, 0.2810,0.281, 0.2808, 0.2805, 0.2807, 0.2804, 0.2803,0.2805
SingleSource/Benchmarks/Polybench/linear-algebra/solvers/gramschmidt/gramschmidt, 1.6302, 1.5925, 1.6110, 1.5591, 1.4886,1.5925, 1.5947, 1.6270, 1.5242, 1.4904, 1.5458,1.5458
SingleSource/Benchmarks/Polybench/linear-algebra/solvers/lu/lu, 0.0023, 0.0023, 0.0023, 0.0023, 0.0023,0.0023, 0.0023, 0.0023, 0.0023, 0.0023, 0.0023,0.0023
SingleSource/Benchmarks/Polybench/medley/floyd-warshall/floyd-warshall, 3.4404, 3.4419, 3.4333, 3.4400, 3.4428,3.4404, 3.4367, 3.4416, 3.4414, 3.4363, 3.4385,3.4385
SingleSource/Benchmarks/Polybench/medley/reg_detect/reg_detect, 0.0175, 0.0176, 0.0175, 0.0175, 0.0175,0.0175, 0.0175, 0.0175, 0.0175, 0.0175, 0.0175,0.0175
SingleSource/Benchmarks/Polybench/stencils/adi/adi, 2.7996, 2.7998, 2.7988, 2.7999, 2.7994,2.7996, 2.7989, 2.7995, 2.7998, 2.7987, 2.7981,2.7989
SingleSource/Benchmarks/Polybench/stencils/fdtd-2d/fdtd-2d, 0.4036, 0.4055, 0.4046, 0.4025, 0.4043,0.4043, 0.4058, 0.4054, 0.4016, 0.4099, 0.4002,0.4054
SingleSource/Benchmarks/Polybench/stencils/fdtd-apml/fdtd-apml, 0.7220, 0.7251, 0.7233, 0.7230, 0.7223,0.723, 0.7241, 0.7388, 0.7291, 0.7283, 0.7227,0.7283
SingleSource/Benchmarks/Polybench/stencils/jacobi-1d-imper/jacobi-1d-imper, 0.0037, 0.0038, 0.0037, 0.0036, 0.0037,0.0037, 0.0037, 0.0038, 0.0038, 0.0037, 0.0037,0.0037
SingleSource/Benchmarks/Polybench/stencils/jacobi-2d-imper/jacobi-2d-imper, 0.1433, 0.1441, 0.1460, 0.1448, 0.1437,0.1441, 0.1434, 0.1462, 0.1435, 0.1440, 0.1432,0.1435
SingleSource/Benchmarks/Polybench/stencils/seidel-2d/seidel-2d, 0.6474, 0.6473, 0.6473, 0.6473, 0.6473,0.6473, 0.6473, 0.6474, 0.6473, 0.6473, 0.6473,0.6473
SingleSource/Benchmarks/Shootout-C++/EH/except, 0.1205, 0.1201, 0.1202, 0.1209, 0.1205,0.1205, 0.1202, 0.1204, 0.1203, 0.1209, 0.1205,0.1204
SingleSource/Benchmarks/Shootout-C++/ackermann, 0.6574, 0.6573, 0.6573, 0.6573, 0.6573,0.6573, 0.6573, 0.6573, 0.6572, 0.6574, 0.6574,0.6573
SingleSource/Benchmarks/Shootout-C++/ary, 0.0142, 0.0143, 0.0142, 0.0143, 0.0143,0.0143, 0.0143, 0.0143, 0.0142, 0.0143, 0.0142,0.0143
SingleSource/Benchmarks/Shootout-C++/ary2, 0.0150, 0.0150, 0.0150, 0.0151, 0.0151,0.015, 0.0150, 0.0150, 0.0150, 0.0150, 0.0150,0.015
SingleSource/Benchmarks/Shootout-C++/ary3, 0.5417, 0.5431, 0.5356, 0.5339, 0.5351,0.5356, 0.5499, 0.5364, 0.5406, 0.5398, 0.5434,0.5406
SingleSource/Benchmarks/Shootout-C++/fibo, 1.4751, 1.4733, 1.4739, 1.4736, 1.4735,1.4736, 1.4729, 1.4748, 1.4745, 1.4739, 1.4738,1.4739
SingleSource/Benchmarks/Shootout-C++/hash, 0.3228, 0.3212, 0.3214, 0.3220, 0.3216,0.3216, 0.3213, 0.3237, 0.3231, 0.3224, 0.3220,0.3224
SingleSource/Benchmarks/Shootout-C++/hash2, 1.7362, 1.7346, 1.7364, 1.7367, 1.7341,1.7362, 1.7368, 1.7368, 1.7371, 1.7345, 1.7363,1.7368
SingleSource/Benchmarks/Shootout-C++/heapsort, 2.0369, 2.0464, 2.0376, 2.0351, 2.0374,2.0374, 2.0366, 2.0389, 2.0376, 2.0388, 2.0481,2.0388
SingleSource/Benchmarks/Shootout-C++/lists, 2.9675, 2.9788, 2.9739, 2.9646, 2.9744,2.9739, 2.9811, 2.9743, 2.9734, 2.9640, 2.9698,2.9734
SingleSource/Benchmarks/Shootout-C++/lists1, 0.1326, 0.1329, 0.1327, 0.1319, 0.1334,0.1327, 0.1332, 0.1330, 0.1324, 0.1327, 0.1321,0.1327
SingleSource/Benchmarks/Shootout-C++/matrix, 1.6994, 1.6994, 1.6993, 1.6993, 1.6994,1.6994, 1.6993, 1.6994, 1.7079, 1.6994, 1.6994,1.6994
SingleSource/Benchmarks/Shootout-C++/methcall, 3.5509, 3.5508, 3.5459, 3.5459, 3.5459,3.5459, 3.5509, 3.5507, 3.5509, 3.5460, 3.5509,3.5509
SingleSource/Benchmarks/Shootout-C++/moments, 0.0506, 0.0504, 0.0506, 0.0506, 0.0505,0.0506, 0.0506, 0.0506, 0.0507, 0.0506, 0.0505,0.0506
SingleSource/Benchmarks/Shootout-C++/nestedloop, 0.0009, 0.0010, 0.0010, 0.0009, 0.0009,0.0009, 0.0009, 0.0009, 0.0009, 0.0009, 0.0010,0.0009
SingleSource/Benchmarks/Shootout-C++/objinst, 0.0009, 0.0009, 0.0010, 0.0009, 0.0010,0.0009, 0.0009, 0.0009, 0.0009, 0.0010, 0.0008,0.0009
SingleSource/Benchmarks/Shootout-C++/random, 1.7450, 1.7449, 1.7450, 1.7450, 1.7450,1.745, 1.7450, 1.7450, 1.7450, 1.7450, 1.7450,1.745
SingleSource/Benchmarks/Shootout-C++/sieve, 1.3083, 1.3338, 1.2505, 1.3827, 1.3219,1.3219, 1.2300, 1.2981, 1.3406, 1.2668, 1.2710,1.271
SingleSource/Benchmarks/Shootout-C++/strcat, 0.0406, 0.0404, 0.0406, 0.0406, 0.0405,0.0406, 0.0406, 0.0406, 0.0406, 0.0406, 0.0406,0.0406
SingleSource/Benchmarks/Shootout/ackermann, 0.0035, 0.0035, 0.0035, 0.0035, 0.0035,0.0035, 0.0035, 0.0035, 0.0034, 0.0035, 0.0035,0.0035
SingleSource/Benchmarks/Shootout/ary3, 0.5930, 0.5884, 0.5879, 0.5976, 0.5899,0.5899, 0.5993, 0.5972, 0.5883, 0.5899, 0.6000,0.5972
SingleSource/Benchmarks/Shootout/fib2, 1.4728, 1.4726, 1.4738, 1.4729, 1.4732,1.4729, 1.4731, 1.4724, 1.4724, 1.4736, 1.4740,1.4731
SingleSource/Benchmarks/Shootout/hash, 2.7552, 2.7520, 2.7493, 2.7722, 2.7605,2.7552, 2.7603, 2.7547, 2.7511, 2.7654, 2.7542,2.7547
SingleSource/Benchmarks/Shootout/heapsort, 2.0329, 2.0195, 2.0209, 2.0374, 2.0366,2.0329, 2.0392, 2.0278, 2.0228, 2.0251, 2.0213,2.0251
SingleSource/Benchmarks/Shootout/lists, 4.1167, 4.1178, 4.1159, 4.1160, 4.1164,4.1164, 4.1175, 4.1176, 4.1177, 4.1168, 4.1184,4.1176
SingleSource/Benchmarks/Shootout/matrix, 1.0906, 1.0908, 1.0906, 1.0906, 1.0906,1.0906, 1.0906, 1.0903, 1.0905, 1.0905, 1.0905,1.0905
SingleSource/Benchmarks/Shootout/methcall, 3.2759, 3.2759, 3.2762, 3.2759, 3.2761,3.2759, 3.2762, 3.2761, 3.2763, 3.2763, 3.2766,3.2763
SingleSource/Benchmarks/Shootout/nestedloop, 0.0009, 0.0009, 0.0009, 0.0009, 0.0009,0.0009, 0.0009, 0.0009, 0.0009, 0.0009, 0.0009,0.0009
SingleSource/Benchmarks/Shootout/objinst, 0.0009, 0.0009, 0.0009, 0.0009, 0.0009,0.0009, 0.0009, 0.0009, 0.0009, 0.0009, 0.0009,0.0009
SingleSource/Benchmarks/Shootout/random, 1.7449, 1.7449, 1.7449, 1.7449, 1.7449,1.7449, 1.7449, 1.7449, 1.7449, 1.7449, 1.7449,1.7449
SingleSource/Benchmarks/Shootout/sieve, 3.4659, 3.4676, 3.4666, 3.4663, 3.4689,3.4666, 3.4673, 3.4677, 3.4662, 3.4675, 3.4677,3.4675
SingleSource/Benchmarks/Shootout/strcat, 0.1051, 0.1053, 0.1052, 0.1053, 0.1053,0.1053, 0.1051, 0.1053, 0.1051, 0.1052, 0.1051,0.1051
SingleSource/Benchmarks/SmallPT/smallpt, 7.5908, 7.5909, 7.5890, 7.5934, 7.5923,7.5909, 7.5904, 7.5924, 7.5909, 7.5902, 7.5936,7.5909
SingleSource/Benchmarks/Stanford/Bubblesort, 0.0161, 0.0160, 0.0161, 0.0161, 0.0161,0.0161, 0.0161, 0.0161, 0.0161, 0.0161, 0.0161,0.0161
SingleSource/Benchmarks/Stanford/FloatMM, 0.2021, 0.2022, 0.2022, 0.2019, 0.2021,0.2021, 0.2023, 0.2022, 0.2021, 0.2021, 0.2021,0.2021
SingleSource/Benchmarks/Stanford/Oscar, 0.0034, 0.0034, 0.0034, 0.0034, 0.0032,0.0034, 0.0035, 0.0034, 0.0034, 0.0034, 0.0034,0.0034
SingleSource/Benchmarks/Stanford/Perm, 0.0147, 0.0147, 0.0147, 0.0147, 0.0147,0.0147, 0.0147, 0.0147, 0.0147, 0.0147, 0.0147,0.0147
SingleSource/Benchmarks/Stanford/Puzzle, 0.0773, 0.0773, 0.0773, 0.0773, 0.0773,0.0773, 0.0773, 0.0773, 0.0773, 0.0772, 0.0773,0.0773
SingleSource/Benchmarks/Stanford/Queens, 0.0077, 0.0076, 0.0078, 0.0078, 0.0078,0.0078, 0.0077, 0.0076, 0.0077, 0.0077, 0.0078,0.0077
SingleSource/Benchmarks/Stanford/Quicksort, 0.0303, 0.0303, 0.0303, 0.0304, 0.0304,0.0303, 0.0303, 0.0303, 0.0304, 0.0304, 0.0303,0.0303
SingleSource/Benchmarks/Stanford/RealMM, 0.0016, 0.0016, 0.0015, 0.0016, 0.0016,0.0016, 0.0015, 0.0016, 0.0016, 0.0016, 0.0016,0.0016
SingleSource/Benchmarks/Stanford/Towers, 0.0082, 0.0082, 0.0082, 0.0082, 0.0082,0.0082, 0.0082, 0.0082, 0.0082, 0.0082, 0.0082,0.0082
SingleSource/Benchmarks/Stanford/Treesort, 0.0548, 0.0547, 0.0547, 0.0547, 0.0548,0.0547, 0.0547, 0.0548, 0.0547, 0.0546, 0.0548,0.0547
SingleSource/Regression/C/2004-08-12-InlinerAndAllocas, 0.0015, 0.0015, 0.0015, 0.0014, 0.0015,0.0015, 0.0015, 0.0015, 0.0015, 0.0015, 0.0015,0.0015
SingleSource/Regression/C/uint64_to_float, 0.2603, 0.2602, 0.2603, 0.2602, 0.2603,0.2603, 0.2603, 0.2603, 0.2602, 0.2603, 0.2603,0.2603
Total elapsed time,-,-,-,-,-,573.8451000000006,-,-,-,-,-,573.6988000000002
Total failure,-,-,-,-,-,0,-,-,-,-,-,0
