Benchmarks,/mnt/freezedisk/llvm-intptr-base-release/bin/clang,/mnt/freezedisk/llvm-intptr-base-release/bin/clang,/mnt/freezedisk/llvm-intptr-base-release/bin/clang,/mnt/freezedisk/llvm-intptr-base-release/bin/clang,/mnt/freezedisk/llvm-intptr-base-release/bin/clang,median,/mnt/freezedisk/llvm-intptr-intptr-instcombine-release/bin/clang,/mnt/freezedisk/llvm-intptr-intptr-instcombine-release/bin/clang,/mnt/freezedisk/llvm-intptr-intptr-instcombine-release/bin/clang,/mnt/freezedisk/llvm-intptr-intptr-instcombine-release/bin/clang,/mnt/freezedisk/llvm-intptr-intptr-instcombine-release/bin/clang,median,/mnt/freezedisk/llvm-intptr-intptr-opt-release/bin/clang,/mnt/freezedisk/llvm-intptr-intptr-opt-release/bin/clang,/mnt/freezedisk/llvm-intptr-intptr-opt-release/bin/clang,/mnt/freezedisk/llvm-intptr-intptr-opt-release/bin/clang,/mnt/freezedisk/llvm-intptr-intptr-opt-release/bin/clang,median,/mnt/freezedisk/llvm-intptr-intptr-release/bin/clang,/mnt/freezedisk/llvm-intptr-intptr-release/bin/clang,/mnt/freezedisk/llvm-intptr-intptr-release/bin/clang,/mnt/freezedisk/llvm-intptr-intptr-release/bin/clang,/mnt/freezedisk/llvm-intptr-intptr-release/bin/clang,median
MultiSource/Applications/ALAC/decode/alacconvert-decode, 0.0131, 0.0131, 0.0132, 0.0132, 0.0132,0.0132, 0.0132, 0.0130, 0.0132, 0.0132, 0.0132,0.0132, 0.0132, 0.0132, 0.0131, 0.0132, 0.0132,0.0132, 0.0132, 0.0132, 0.0132, 0.0132, 0.0132,0.0132
MultiSource/Applications/ALAC/encode/alacconvert-encode, 0.0287, 0.0282, 0.0266, 0.0266, 0.0285,0.0282, 0.0329, 0.0268, 0.0262, 0.0267, 0.0296,0.0268, 0.0266, 0.0304, 0.0285, 0.0323, 0.0296,0.0296, 0.0306, 0.0266, 0.0270, 0.0324, 0.0301,0.0301
MultiSource/Applications/ClamAV/clamscan, 0.2925, 0.2401, 0.2405, 0.2443, 0.2289,0.2405, 0.2436, 0.2506, 0.2427, 0.2418, 0.2472,0.2436, 0.2675, 0.2278, 0.2571, 0.2441, 0.2281,0.2441, 0.3480, 0.2218, 0.2563, 0.2722, 0.2309,0.2563
MultiSource/Applications/JM/ldecod/ldecod, 0.0416, 0.0453, 0.0461, 0.0395, 0.0429,0.0429, 0.0377, 0.0459, 0.0487, 0.0436, 0.0444,0.0444, 0.0473, 0.0443, 0.0432, 0.0474, 0.0480,0.0473, 0.0485, 0.0458, 0.0476, 0.0420, 0.0434,0.0458
MultiSource/Applications/JM/lencod/lencod, 3.1720, 3.1819, 3.1735, 3.1805, 3.1839,3.1805, 3.1793, 3.1749, 3.1818, 3.1817, 3.1811,3.1811, 3.1717, 3.1571, 3.1712, 3.1738, 3.1728,3.1717, 3.1738, 3.1732, 3.1742, 3.1808, 3.1718,3.1738
MultiSource/Applications/SIBsim4/SIBsim4, 2.1035, 2.0819, 2.0903, 2.1239, 2.1303,2.1035, 2.0847, 2.0807, 2.1119, 2.1104, 2.1016,2.1016, 2.0846, 2.1221, 2.0855, 2.0953, 2.0837,2.0855, 2.1098, 2.0924, 2.1480, 2.1031, 2.0905,2.1031
MultiSource/Applications/SPASS/SPASS, 6.6920, 6.6883, 6.6940, 6.6843, 6.7089,6.692, 6.8034, 6.6982, 6.8005, 6.6963, 6.7002,6.7002, 6.7948, 5.9799, 6.6894, 6.8024, 6.6964,6.6964, 6.7359, 6.7096, 6.7803, 6.7115, 6.7037,6.7115
MultiSource/Applications/aha/aha, 1.0668, 1.0676, 1.0662, 1.0658, 1.0675,1.0668, 1.0658, 1.0658, 1.0665, 1.0658, 1.0661,1.0658, 1.0663, 1.0662, 1.0671, 1.0665, 1.0664,1.0664, 1.0664, 1.0661, 1.0669, 1.0667, 1.0673,1.0667
MultiSource/Applications/d/make_dparser, 0.0160, 0.0159, 0.0159, 0.0161, 0.0160,0.016, 0.0161, 0.0160, 0.0161, 0.0161, 0.0161,0.0161, 0.0159, 0.0159, 0.0160, 0.0160, 0.0159,0.0159, 0.0161, 0.0160, 0.0160, 0.0160, 0.0160,0.016
MultiSource/Applications/hbd/hbd, 0.0019, 0.0019, 0.0018, 0.0019, 0.0018,0.0019, 0.0019, 0.0019, 0.0019, 0.0019, 0.0019,0.0019, 0.0019, 0.0019, 0.0019, 0.0018, 0.0019,0.0019, 0.0019, 0.0018, 0.0018, 0.0018, 0.0018,0.0018
MultiSource/Applications/hexxagon/hexxagon, 6.5798, 6.5793, 6.5797, 6.5804, 6.5791,6.5797, 6.5804, 6.5801, 6.5801, 6.5791, 6.5803,6.5801, 6.5801, 6.5790, 6.5799, 6.5809, 6.5800,6.58, 6.5795, 6.5795, 6.5789, 6.5793, 6.5798,6.5795
MultiSource/Applications/kimwitu++/kc, 0.0282, 0.0280, 0.0281, 0.0282, 0.0280,0.0281, 0.0282, 0.0279, 0.0283, 0.0281, 0.0280,0.0281, 0.0282, 0.0280, 0.0281, 0.0282, 0.0280,0.0281, 0.0283, 0.0286, 0.0280, 0.0280, 0.0286,0.0283
MultiSource/Applications/lambda-0.1.3/lambda, 2.5853, 2.5821, 2.5790, 2.5846, 2.5812,2.5821, 2.5799, 2.5807, 2.5811, 2.5815, 2.5804,2.5807, 2.5798, 2.5879, 2.5792, 2.5799, 2.5824,2.5799, 2.5811, 2.5804, 2.5849, 2.5848, 2.5799,2.5811
MultiSource/Applications/lua/lua,11.5878,11.5789,11.6215,11.6218,11.6136,11.6136,11.4780,11.4842,11.4855,11.4921,11.4867,11.4855,11.4901,11.4935,11.4638,11.4619,11.5065,11.4901,11.4888,11.4929,11.4757,11.4616,11.5100,11.4888
MultiSource/Applications/minisat/minisat, 4.1914, 4.1926, 4.1635, 4.2026, 4.1996,4.1926, 4.0847, 4.0760, 4.2063, 4.2118, 4.1812,4.1812, 4.1489, 4.2157, 4.2088, 4.2096, 4.1845,4.2088, 4.1493, 4.2167, 4.2013, 4.2055, 4.2013,4.2013
MultiSource/Applications/obsequi/Obsequi, 1.0727, 1.0716, 1.0717, 1.0717, 1.0716,1.0717, 1.0705, 1.0707, 1.0706, 1.0725, 1.0706,1.0706, 1.0705, 1.0706, 1.0727, 1.0706, 1.0715,1.0706, 1.0705, 1.0729, 1.0708, 1.0718, 1.0707,1.0708
MultiSource/Applications/oggenc/oggenc, 0.0755, 0.0756, 0.0756, 0.0756, 0.0757,0.0756, 0.0762, 0.0763, 0.0895, 0.0763, 0.0764,0.0763, 0.0762, 0.0763, 0.0763, 0.0761, 0.0763,0.0763, 0.0762, 0.0763, 0.0764, 0.0762, 0.0763,0.0763
MultiSource/Applications/sgefa/sgefa, 0.1154, 0.1153, 0.1154, 0.1154, 0.1155,0.1154, 0.1155, 0.1155, 0.1155, 0.1154, 0.1155,0.1155, 0.1154, 0.1154, 0.1153, 0.1165, 0.1153,0.1154, 0.1154, 0.1153, 0.1153, 0.1154, 0.1153,0.1153
MultiSource/Applications/siod/siod, 1.1099, 1.1090, 1.1074, 1.1088, 1.1099,1.109, 1.1095, 1.1090, 1.1098, 1.1094, 1.1095,1.1095, 1.1096, 1.1095, 1.1097, 1.1103, 1.1094,1.1096, 1.1088, 1.1098, 1.1096, 1.1100, 1.1090,1.1096
MultiSource/Applications/spiff/spiff, 1.3019, 1.3005, 1.3024, 1.3004, 1.3031,1.3019, 1.2992, 1.3019, 1.3021, 1.3011, 1.3040,1.3019, 1.3055, 1.2998, 1.3052, 1.2969, 1.3002,1.3002, 1.3009, 1.3032, 1.3011, 1.3031, 1.3030,1.303
MultiSource/Applications/sqlite3/sqlite3, 1.8225, 1.8176, 1.8091, 1.8175, 1.8140,1.8175, 1.8099, 1.8037, 1.8025, 1.8050, 1.8119,1.805, 1.8031, 1.8067, 1.8121, 1.8008, 1.8175,1.8067, 1.8042, 1.8014, 1.8169, 1.8026, 1.8034,1.8034
MultiSource/Applications/viterbi/viterbi, 1.2841, 1.2858, 1.2836, 1.2876, 1.2838,1.2841, 1.2877, 1.2810, 1.2867, 1.2876, 1.2887,1.2876, 1.2821, 1.2867, 1.2893, 1.2848, 1.2895,1.2867, 1.2886, 1.2830, 1.2821, 1.2901, 1.2819,1.283
MultiSource/Benchmarks/7zip/7zip-benchmark, 6.3293, 6.3369, 6.3301, 6.3252, 6.3296,6.3296, 6.3241, 6.3363, 6.3357, 6.3267, 6.3298,6.3298, 6.3249, 6.3354, 6.3246, 6.3241, 6.3306,6.3249, 6.3287, 6.3364, 6.3361, 6.3302, 6.3312,6.3312
MultiSource/Benchmarks/ASCI_Purple/SMG2000/smg2000, 1.1761, 1.1821, 1.1850, 1.1772, 1.1745,1.1772, 1.1814, 1.1760, 1.1781, 1.1762, 1.1744,1.1762, 1.1857, 1.1774, 1.1765, 1.1867, 1.1870,1.1857, 1.1837, 1.1775, 1.1770, 1.1835, 1.1751,1.1775
MultiSource/Benchmarks/ASC_Sequoia/AMGmk/AMGmk, 5.0533, 5.0450, 5.0407, 5.0316, 5.0535,5.045, 5.0434, 5.0621, 5.0314, 5.0270, 5.0550,5.0434, 5.0442, 5.0484, 5.0313, 5.0389, 5.0415,5.0415, 5.0472, 5.0265, 5.0441, 5.0496, 5.0444,5.0444
MultiSource/Benchmarks/ASC_Sequoia/CrystalMk/CrystalMk, 6.6766, 6.6763, 6.6756, 6.6764, 6.6768,6.6764, 6.6765, 6.6768, 6.6764, 6.6758, 6.6768,6.6765, 6.6772, 6.6760, 6.6762, 6.6760, 6.6765,6.6762, 6.6754, 6.6768, 6.6773, 6.6768, 6.6760,6.6768
MultiSource/Benchmarks/ASC_Sequoia/IRSmk/IRSmk, 3.0001, 3.0079, 3.0140, 3.0160, 3.0017,3.0079, 3.0135, 2.9986, 3.0102, 2.9901, 3.0155,3.0102, 3.0096, 2.9979, 2.9972, 2.9878, 2.9864,2.9972, 3.0078, 2.9901, 2.9994, 3.0135, 2.9949,2.9994
MultiSource/Benchmarks/BitBench/drop3/drop3, 0.1890, 0.1840, 0.1869, 0.1880, 0.1918,0.188, 0.1902, 0.1917, 0.1900, 0.1925, 0.1867,0.1902, 0.1846, 0.1827, 0.1820, 0.1805, 0.1860,0.1827, 0.1878, 0.1907, 0.1839, 0.1854, 0.1919,0.1878
MultiSource/Benchmarks/BitBench/five11/five11, 1.1186, 1.1156, 1.1171, 1.1188, 1.1163,1.1171, 1.1239, 1.1148, 1.1254, 1.1164, 1.1334,1.1239, 1.1247, 1.1161, 1.1172, 1.1180, 1.1165,1.1172, 1.1181, 1.1166, 1.1217, 1.1171, 1.1176,1.1176
MultiSource/Benchmarks/BitBench/uudecode/uudecode, 0.0598, 0.0599, 0.0596, 0.0597, 0.0599,0.0598, 0.0599, 0.0598, 0.0598, 0.0598, 0.0599,0.0598, 0.0598, 0.0598, 0.0598, 0.0598, 0.0598,0.0598, 0.0597, 0.0599, 0.0599, 0.0599, 0.0599,0.0599
MultiSource/Benchmarks/BitBench/uuencode/uuencode, 0.0111, 0.0110, 0.0111, 0.0110, 0.0110,0.011, 0.0111, 0.0111, 0.0111, 0.0109, 0.0110,0.0111, 0.0110, 0.0111, 0.0110, 0.0110, 0.0110,0.011, 0.0110, 0.0110, 0.0110, 0.0111, 0.0111,0.011
MultiSource/Benchmarks/Bullet/bullet, 3.2883, 3.2909, 3.2928, 3.2920, 3.2908,3.2909, 3.2915, 3.2900, 3.2867, 3.3038, 3.2900,3.29, 3.2876, 3.2901, 3.2899, 3.2965, 3.2888,3.2899, 3.2893, 3.2877, 3.2953, 3.2945, 3.2988,3.2945
MultiSource/Benchmarks/DOE-ProxyApps-C/XSBench/XSBench, 2.4357, 2.4354, 2.4320, 2.4328, 2.4266,2.4328, 2.4305, 2.4327, 2.4360, 2.4316, 2.4387,2.4327, 2.4337, 2.4323, 2.4342, 2.4296, 2.4375,2.4337, 2.4304, 2.4319, 2.4318, 2.4337, 2.4289,2.4318
MultiSource/Benchmarks/Fhourstones-3.1/fhourstones3.1, 0.8126, 0.8109, 0.8109, 0.8112, 0.8110,0.811, 0.8109, 0.8110, 0.8146, 0.8151, 0.8094,0.811, 0.8109, 0.8093, 0.8110, 0.8112, 0.8126,0.811, 0.8110, 0.8094, 0.8124, 0.8113, 0.8108,0.811
MultiSource/Benchmarks/Fhourstones/fhourstones, 0.6289, 0.6205, 0.6124, 0.6181, 0.6078,0.6181, 0.6195, 0.6165, 0.6156, 0.6210, 0.6066,0.6165, 0.5971, 0.6136, 0.6166, 0.6095, 0.6077,0.6095, 0.5907, 0.6025, 0.5995, 0.6192, 0.6083,0.6025
MultiSource/Benchmarks/FreeBench/analyzer/analyzer, 0.0400, 0.0402, 0.0400, 0.0396, 0.0399,0.04, 0.0403, 0.0398, 0.0397, 0.0395, 0.0401,0.0398, 0.0402, 0.0402, 0.0403, 0.0399, 0.0397,0.0402, 0.0392, 0.0403, 0.0401, 0.0407, 0.0402,0.0402
MultiSource/Benchmarks/FreeBench/distray/distray, 0.1382, 0.1381, 0.1382, 0.1381, 0.1381,0.1381, 0.1381, 0.1381, 0.1382, 0.1382, 0.1381,0.1381, 0.1381, 0.1382, 0.1381, 0.1381, 0.1381,0.1381, 0.1381, 0.1380, 0.1381, 0.1382, 0.1381,0.1381
MultiSource/Benchmarks/FreeBench/fourinarow/fourinarow, 0.1772, 0.1772, 0.1772, 0.1774, 0.1772,0.1772, 0.1772, 0.1772, 0.1772, 0.1772, 0.1773,0.1772, 0.1772, 0.1772, 0.1772, 0.1771, 0.1772,0.1772, 0.1772, 0.1773, 0.1772, 0.1771, 0.1772,0.1772
MultiSource/Benchmarks/FreeBench/mason/mason, 0.1300, 0.1300, 0.1301, 0.1299, 0.1299,0.13, 0.1299, 0.1299, 0.1298, 0.1299, 0.1298,0.1299, 0.1299, 0.1298, 0.1299, 0.1300, 0.1300,0.1299, 0.1299, 0.1299, 0.1299, 0.1298, 0.1299,0.1299
MultiSource/Benchmarks/FreeBench/neural/neural, 0.1648, 0.1648, 0.1647, 0.1649, 0.1647,0.1648, 0.1647, 0.1649, 0.1646, 0.1647, 0.1647,0.1647, 0.1648, 0.1646, 0.1647, 0.1647, 0.1648,0.1647, 0.1647, 0.1649, 0.1649, 0.1648, 0.1648,0.1648
MultiSource/Benchmarks/FreeBench/pcompress2/pcompress2, 0.1032, 0.1033, 0.1033, 0.1030, 0.1032,0.1032, 0.1031, 0.1032, 0.1032, 0.1032, 0.1032,0.1032, 0.1032, 0.1033, 0.1032, 0.1032, 0.1032,0.1032, 0.1032, 0.1032, 0.1031, 0.1032, 0.1031,0.1032
MultiSource/Benchmarks/FreeBench/pifft/pifft, 0.0644, 0.0644, 0.0645, 0.0645, 0.0643,0.0644, 0.0643, 0.0644, 0.0646, 0.0644, 0.0645,0.0644, 0.0642, 0.0644, 0.0643, 0.0644, 0.0644,0.0644, 0.0644, 0.0643, 0.0643, 0.0644, 0.0644,0.0644
MultiSource/Benchmarks/MallocBench/cfrac/cfrac, 0.7722, 0.7716, 0.7716, 0.7719, 0.7716,0.7716, 0.7721, 0.7718, 0.7716, 0.7720, 0.7718,0.7718, 0.7721, 0.7723, 0.7717, 0.7718, 0.7715,0.7718, 0.7717, 0.7716, 0.7718, 0.7719, 0.7723,0.7718
MultiSource/Benchmarks/MallocBench/espresso/espresso, 0.3079, 0.3075, 0.3077, 0.3077, 0.3075,0.3077, 0.3078, 0.3079, 0.3077, 0.3080, 0.3080,0.3079, 0.3077, 0.3079, 0.3075, 0.3075, 0.3078,0.3077, 0.3077, 0.3074, 0.3078, 0.3078, 0.3074,0.3077
MultiSource/Benchmarks/MallocBench/gs/gs, 0.0237, 0.0234, 0.0238, 0.0237, 0.0237,0.0237, 0.0237, 0.0235, 0.0236, 0.0236, 0.0237,0.0236, 0.0237, 0.0237, 0.0236, 0.0235, 0.0236,0.0236, 0.0236, 0.0234, 0.0236, 0.0235, 0.0235,0.0235
MultiSource/Benchmarks/McCat/01-qbsort/qbsort, 0.0395, 0.0395, 0.0395, 0.0395, 0.0395,0.0395, 0.0396, 0.0395, 0.0394, 0.0395, 0.0393,0.0395, 0.0395, 0.0394, 0.0396, 0.0394, 0.0395,0.0395, 0.0395, 0.0395, 0.0396, 0.0394, 0.0395,0.0395
MultiSource/Benchmarks/McCat/03-testtrie/testtrie, 0.0065, 0.0064, 0.0066, 0.0065, 0.0064,0.0065, 0.0065, 0.0066, 0.0065, 0.0065, 0.0065,0.0065, 0.0065, 0.0065, 0.0064, 0.0065, 0.0064,0.0065, 0.0065, 0.0064, 0.0064, 0.0065, 0.0064,0.0064
MultiSource/Benchmarks/McCat/04-bisect/bisect, 0.0789, 0.0789, 0.0790, 0.0790, 0.0789,0.0789, 0.0790, 0.0790, 0.0790, 0.0790, 0.0790,0.079, 0.0789, 0.0790, 0.0790, 0.0790, 0.0788,0.079, 0.0790, 0.0789, 0.0790, 0.0789, 0.0790,0.079
MultiSource/Benchmarks/McCat/05-eks/eks, 0.0036, 0.0036, 0.0036, 0.0036, 0.0036,0.0036, 0.0036, 0.0036, 0.0036, 0.0036, 0.0036,0.0036, 0.0036, 0.0036, 0.0036, 0.0035, 0.0036,0.0036, 0.0036, 0.0036, 0.0036, 0.0036, 0.0036,0.0036
MultiSource/Benchmarks/McCat/08-main/main, 0.0429, 0.0429, 0.0429, 0.0429, 0.0430,0.0429, 0.0429, 0.0429, 0.0429, 0.0429, 0.0429,0.0429, 0.0429, 0.0429, 0.0429, 0.0429, 0.0429,0.0429, 0.0429, 0.0429, 0.0429, 0.0429, 0.0429,0.0429
MultiSource/Benchmarks/McCat/09-vor/vor, 0.0840, 0.0842, 0.0841, 0.0843, 0.0840,0.0841, 0.0842, 0.0838, 0.0840, 0.0842, 0.0839,0.084, 0.0843, 0.0841, 0.0840, 0.0838, 0.0838,0.084, 0.0839, 0.0838, 0.0842, 0.0838, 0.0842,0.0839
MultiSource/Benchmarks/McCat/12-IOtest/iotest, 0.2134, 0.2148, 0.2137, 0.2140, 0.2137,0.2137, 0.2136, 0.2162, 0.2154, 0.2171, 0.2148,0.2154, 0.2138, 0.2146, 0.2142, 0.2155, 0.2142,0.2142, 0.2155, 0.2160, 0.2152, 0.2142, 0.2146,0.2152
MultiSource/Benchmarks/McCat/17-bintr/bintr, 0.0807, 0.0814, 0.0805, 0.0828, 0.0810,0.081, 0.0810, 0.0812, 0.0822, 0.0815, 0.0810,0.0812, 0.0818, 0.0814, 0.0807, 0.0812, 0.0814,0.0814, 0.0801, 0.0812, 0.0813, 0.0816, 0.0811,0.0812
MultiSource/Benchmarks/McCat/18-imp/imp, 0.0676, 0.0677, 0.0676, 0.0678, 0.0676,0.0676, 0.0678, 0.0678, 0.0679, 0.0678, 0.0678,0.0678, 0.0676, 0.0675, 0.0677, 0.0676, 0.0676,0.0676, 0.0676, 0.0677, 0.0679, 0.0678, 0.0676,0.0677
MultiSource/Benchmarks/MiBench/automotive-basicmath/automotive-basicmath, 0.2225, 0.2226, 0.2225, 0.2227, 0.2227,0.2226, 0.2226, 0.2228, 0.2226, 0.2227, 0.2231,0.2227, 0.2226, 0.2232, 0.2225, 0.2225, 0.2225,0.2225, 0.2229, 0.2226, 0.2230, 0.2226, 0.2226,0.2226
MultiSource/Benchmarks/MiBench/automotive-bitcount/automotive-bitcount, 0.0563, 0.0601, 0.0537, 0.0529, 0.0553,0.0553, 0.0536, 0.0591, 0.0548, 0.0536, 0.0561,0.0548, 0.0564, 0.0541, 0.0542, 0.0550, 0.0606,0.055, 0.0615, 0.0549, 0.0536, 0.0592, 0.0549,0.0549
MultiSource/Benchmarks/MiBench/automotive-susan/automotive-susan, 0.0290, 0.0284, 0.0284, 0.0290, 0.0284,0.0284, 0.0285, 0.0287, 0.0285, 0.0283, 0.0282,0.0285, 0.0285, 0.0285, 0.0285, 0.0286, 0.0283,0.0285, 0.0283, 0.0284, 0.0288, 0.0284, 0.0284,0.0284
MultiSource/Benchmarks/MiBench/consumer-jpeg/consumer-jpeg, 0.0030, 0.0031, 0.0030, 0.0031, 0.0031,0.0031, 0.0030, 0.0031, 0.0032, 0.0031, 0.0030,0.0031, 0.0029, 0.0031, 0.0031, 0.0030, 0.0030,0.003, 0.0030, 0.0030, 0.0030, 0.0030, 0.0031,0.003
MultiSource/Benchmarks/MiBench/consumer-lame/consumer-lame, 0.1238, 0.1186, 0.1184, 0.1183, 0.1186,0.1186, 0.1187, 0.1185, 0.1185, 0.1186, 0.1184,0.1185, 0.1189, 0.1185, 0.1187, 0.1185, 0.1187,0.1187, 0.1184, 0.1187, 0.1188, 0.1187, 0.1184,0.1187
MultiSource/Benchmarks/MiBench/consumer-typeset/consumer-typeset, 0.0945, 0.1264, 0.1086, 0.1037, 0.0991,0.1037, 0.1097, 0.1095, 0.0940, 0.1100, 0.1253,0.1097, 0.1048, 0.1051, 0.1001, 0.1051, 0.1063,0.1051, 0.1037, 0.1010, 0.1170, 0.1116, 0.1052,0.1052
MultiSource/Benchmarks/MiBench/network-dijkstra/network-dijkstra, 0.0249, 0.0250, 0.0249, 0.0249, 0.0250,0.0249, 0.0249, 0.0249, 0.0250, 0.0250, 0.0251,0.025, 0.0250, 0.0250, 0.0249, 0.0249, 0.0249,0.0249, 0.0248, 0.0249, 0.0250, 0.0249, 0.0250,0.0249
MultiSource/Benchmarks/MiBench/network-patricia/network-patricia, 0.0708, 0.0709, 0.0708, 0.0708, 0.0708,0.0708, 0.0708, 0.0708, 0.0708, 0.0707, 0.0710,0.0708, 0.0708, 0.0708, 0.0708, 0.0708, 0.0708,0.0708, 0.0708, 0.0708, 0.0709, 0.0708, 0.0708,0.0708
MultiSource/Benchmarks/MiBench/security-rijndael/security-rijndael, 0.0281, 0.0219, 0.0218, 0.0219, 0.0220,0.0219, 0.0219, 0.0218, 0.0220, 0.0217, 0.0219,0.0219, 0.0220, 0.0218, 0.0221, 0.0219, 0.0219,0.0219, 0.0218, 0.0218, 0.0218, 0.0218, 0.0218,0.0218
MultiSource/Benchmarks/MiBench/security-sha/security-sha, 0.0149, 0.0279, 0.0349, 0.0349, 0.0339,0.0339, 0.0365, 0.0363, 0.0375, 0.0356, 0.0374,0.0365, 0.0272, 0.0328, 0.0309, 0.0359, 0.0293,0.0309, 0.0316, 0.0342, 0.0318, 0.0273, 0.0270,0.0316
MultiSource/Benchmarks/MiBench/telecomm-CRC32/telecomm-CRC32, 0.1941, 0.1938, 0.2008, 0.1938, 0.1939,0.1939, 0.2024, 0.1952, 0.1963, 0.1973, 0.1993,0.1973, 0.1940, 0.2027, 0.1976, 0.1969, 0.2000,0.1976, 0.1982, 0.1919, 0.1977, 0.1964, 0.2009,0.1977
MultiSource/Benchmarks/MiBench/telecomm-FFT/telecomm-fft, 0.0385, 0.0385, 0.0386, 0.0386, 0.0385,0.0385, 0.0385, 0.0386, 0.0385, 0.0386, 0.0385,0.0385, 0.0385, 0.0386, 0.0385, 0.0386, 0.0386,0.0386, 0.0385, 0.0385, 0.0386, 0.0385, 0.0386,0.0385
MultiSource/Benchmarks/MiBench/telecomm-adpcm/telecomm-adpcm, 0.0743, 0.0698, 0.0725, 0.0742, 0.0721,0.0725, 0.0793, 0.0792, 0.0795, 0.0756, 0.0792,0.0792, 0.0749, 0.0698, 0.0705, 0.0761, 0.0702,0.0705, 0.0738, 0.0791, 0.0742, 0.0754, 0.0692,0.0742
MultiSource/Benchmarks/MiBench/telecomm-gsm/telecomm-gsm, 0.1110, 0.1112, 0.1110, 0.1110, 0.1112,0.111, 0.1112, 0.1112, 0.1111, 0.1111, 0.1112,0.1112, 0.1109, 0.1112, 0.1111, 0.1111, 0.1111,0.1111, 0.1112, 0.1109, 0.1110, 0.1112, 0.1110,0.111
MultiSource/Benchmarks/NPB-serial/is/is, 5.1791, 5.1800, 5.1824, 5.1863, 5.1827,5.1824, 5.1879, 5.1775, 5.1790, 5.1785, 5.1824,5.179, 5.1773, 5.1905, 5.1905, 5.1835, 5.1787,5.1835, 5.1848, 5.1774, 5.1869, 5.1827, 5.1796,5.1827
MultiSource/Benchmarks/Olden/bh/bh, 1.2758, 1.2713, 1.2687, 1.2732, 1.2740,1.2732, 1.2706, 1.2685, 1.2682, 1.2734, 1.2711,1.2706, 1.2724, 1.2714, 1.2694, 1.2698, 1.2698,1.2698, 1.2700, 1.2699, 1.2693, 1.2734, 1.2729,1.27
MultiSource/Benchmarks/Olden/bisort/bisort, 0.3707, 0.3708, 0.3693, 0.3697, 0.3691,0.3697, 0.3689, 0.3702, 0.3691, 0.3688, 0.3684,0.3689, 0.3681, 0.3689, 0.3710, 0.3694, 0.3680,0.3689, 0.3692, 0.3695, 0.3704, 0.3683, 0.3688,0.3692
MultiSource/Benchmarks/Olden/em3d/em3d, 1.7042, 1.7038, 1.7042, 1.7044, 1.7043,1.7042, 1.7042, 1.7042, 1.7042, 1.7038, 1.7047,1.7042, 1.7047, 1.7043, 1.7044, 1.7038, 1.7041,1.7043, 1.7039, 1.7039, 1.7040, 1.7042, 1.7044,1.704
MultiSource/Benchmarks/Olden/health/health, 0.1455, 0.1457, 0.1456, 0.1455, 0.1456,0.1456, 0.1453, 0.1453, 0.1457, 0.1454, 0.1454,0.1454, 0.1456, 0.1453, 0.1459, 0.1450, 0.1456,0.1456, 0.1453, 0.1453, 0.1453, 0.1457, 0.1455,0.1453
MultiSource/Benchmarks/Olden/mst/mst, 0.0526, 0.0527, 0.0525, 0.0524, 0.0523,0.0525, 0.0526, 0.0524, 0.0525, 0.0523, 0.0527,0.0525, 0.0527, 0.0528, 0.0527, 0.0517, 0.0528,0.0527, 0.0528, 0.0527, 0.0529, 0.0527, 0.0525,0.0527
MultiSource/Benchmarks/Olden/perimeter/perimeter, 0.1230, 0.1231, 0.1226, 0.1227, 0.1231,0.123, 0.1229, 0.1228, 0.1232, 0.1230, 0.1231,0.123, 0.1235, 0.1232, 0.1231, 0.1228, 0.1233,0.1232, 0.1235, 0.1234, 0.1231, 0.1232, 0.1231,0.1232
MultiSource/Benchmarks/Olden/power/power, 1.0749, 1.0749, 1.0749, 1.0750, 1.0750,1.0749, 1.0750, 1.0749, 1.0750, 1.0750, 1.0749,1.075, 1.0749, 1.0750, 1.0750, 1.0749, 1.0750,1.075, 1.0749, 1.0749, 1.0749, 1.0749, 1.0750,1.0749
MultiSource/Benchmarks/Olden/treeadd/treeadd, 0.1272, 0.1269, 0.1270, 0.1269, 0.1271,0.127, 0.1272, 0.1268, 0.1269, 0.1271, 0.1271,0.1271, 0.1270, 0.1271, 0.1273, 0.1265, 0.1269,0.127, 0.1268, 0.1268, 0.1271, 0.1269, 0.1271,0.1269
MultiSource/Benchmarks/Olden/tsp/tsp, 1.1802, 1.1811, 1.1802, 1.1804, 1.1807,1.1804, 1.1813, 1.1813, 1.1808, 1.1801, 1.1807,1.1808, 1.1807, 1.1812, 1.1804, 1.1804, 1.1803,1.1804, 1.1808, 1.1810, 1.1812, 1.1804, 1.1801,1.1808
MultiSource/Benchmarks/Olden/voronoi/voronoi, 0.2113, 0.2105, 0.2104, 0.2109, 0.2106,0.2106, 0.2109, 0.2112, 0.2114, 0.2117, 0.2111,0.2112, 0.2174, 0.2171, 0.2172, 0.2164, 0.2177,0.2172, 0.2159, 0.2161, 0.2163, 0.2165, 0.2167,0.2163
MultiSource/Benchmarks/PAQ8p/paq8p,43.8365,43.8326,43.9132,43.8226,43.8846,43.8365,43.8659,43.8738,43.8979,43.8541,43.8473,43.8659,43.8662,43.8963,43.8440,43.8457,43.8605,43.8605,43.8658,43.8775,43.8965,43.8585,43.8952,43.8775
MultiSource/Benchmarks/Prolangs-C++/city/city, 0.0051, 0.0051, 0.0051, 0.0051, 0.0051,0.0051, 0.0051, 0.0051, 0.0051, 0.0051, 0.0051,0.0051, 0.0051, 0.0051, 0.0051, 0.0051, 0.0050,0.0051, 0.0051, 0.0051, 0.0051, 0.0050, 0.0051,0.0051
MultiSource/Benchmarks/Prolangs-C++/employ/employ, 0.0050, 0.0051, 0.0050, 0.0051, 0.0050,0.005, 0.0050, 0.0050, 0.0050, 0.0050, 0.0050,0.005, 0.0050, 0.0050, 0.0050, 0.0050, 0.0049,0.005, 0.0049, 0.0050, 0.0050, 0.0050, 0.0050,0.005
MultiSource/Benchmarks/Prolangs-C++/life/life, 0.7085, 0.7090, 0.7080, 0.7078, 0.7086,0.7085, 0.7063, 0.7083, 0.7087, 0.7087, 0.7068,0.7083, 0.7075, 0.7067, 0.7077, 0.7076, 0.7087,0.7076, 0.7074, 0.7080, 0.7074, 0.7087, 0.7076,0.7076
MultiSource/Benchmarks/Prolangs-C++/ocean/ocean, 0.0362, 0.0362, 0.0362, 0.0363, 0.0362,0.0362, 0.0363, 0.0362, 0.0362, 0.0364, 0.0362,0.0362, 0.0362, 0.0362, 0.0363, 0.0361, 0.0363,0.0362, 0.0362, 0.0363, 0.0363, 0.0363, 0.0364,0.0363
MultiSource/Benchmarks/Prolangs-C++/primes/primes, 0.2121, 0.2129, 0.2127, 0.2125, 0.2133,0.2127, 0.2122, 0.2125, 0.2122, 0.2133, 0.2131,0.2125, 0.2137, 0.2136, 0.2133, 0.2123, 0.2118,0.2133, 0.2145, 0.2125, 0.2135, 0.2132, 0.2128,0.2132
MultiSource/Benchmarks/Prolangs-C++/simul/simul, 0.0040, 0.0040, 0.0040, 0.0040, 0.0039,0.004, 0.0040, 0.0040, 0.0039, 0.0040, 0.0040,0.004, 0.0040, 0.0040, 0.0039, 0.0040, 0.0040,0.004, 0.0040, 0.0040, 0.0040, 0.0040, 0.0040,0.004
MultiSource/Benchmarks/Prolangs-C/agrep/agrep, 0.0084, 0.0029, 0.0031, 0.0031, 0.0029,0.0031, 0.0029, 0.0031, 0.0030, 0.0031, 0.0030,0.003, 0.0030, 0.0030, 0.0030, 0.0030, 0.0030,0.003, 0.0029, 0.0031, 0.0030, 0.0031, 0.0031,0.0031
MultiSource/Benchmarks/Prolangs-C/bison/mybison, 0.0020, 0.0092, 0.0021, 0.0021, 0.0022,0.0021, 0.0021, 0.0145, 0.0022, 0.0022, 0.0022,0.0022, 0.0021, 0.0021, 0.0020, 0.0022, 0.0022,0.0021, 0.0021, 0.0021, 0.0022, 0.0022, 0.0021,0.0021
MultiSource/Benchmarks/Prolangs-C/gnugo/gnugo, 0.0234, 0.0234, 0.0234, 0.0234, 0.0232,0.0234, 0.0235, 0.0234, 0.0234, 0.0234, 0.0235,0.0234, 0.0234, 0.0234, 0.0234, 0.0234, 0.0235,0.0234, 0.0234, 0.0234, 0.0234, 0.0234, 0.0234,0.0234
MultiSource/Benchmarks/Ptrdist/anagram/anagram, 0.6656, 0.6658, 0.6657, 0.6659, 0.6658,0.6658, 0.6658, 0.6657, 0.6656, 0.6657, 0.6657,0.6657, 0.6657, 0.6655, 0.6656, 0.6657, 0.6657,0.6657, 0.6655, 0.6658, 0.6657, 0.6656, 0.6656,0.6656
MultiSource/Benchmarks/Ptrdist/bc/bc, 0.3574, 0.3573, 0.3577, 0.3573, 0.3575,0.3574, 0.3573, 0.3574, 0.3575, 0.3573, 0.3573,0.3573, 0.3575, 0.3575, 0.3575, 0.3573, 0.3574,0.3575, 0.3575, 0.3572, 0.3575, 0.3574, 0.3576,0.3575
MultiSource/Benchmarks/Ptrdist/ft/ft, 0.6178, 0.6377, 0.6383, 0.6113, 0.6660,0.6377, 0.6499, 0.6133, 0.6233, 0.6765, 0.6073,0.6233, 0.6482, 0.6093, 0.6530, 0.6868, 0.5969,0.6482, 0.6143, 0.6077, 0.6306, 0.6123, 0.6525,0.6143
MultiSource/Benchmarks/Ptrdist/ks/ks, 0.6200, 0.6169, 0.6182, 0.6173, 0.6203,0.6182, 0.6185, 0.6183, 0.6181, 0.6177, 0.6177,0.6181, 0.6201, 0.6186, 0.6163, 0.6181, 0.6191,0.6186, 0.6163, 0.6171, 0.6204, 0.6181, 0.6185,0.6181
MultiSource/Benchmarks/Ptrdist/yacr2/yacr2, 0.5117, 0.5115, 0.5117, 0.5114, 0.5116,0.5116, 0.5115, 0.5119, 0.5117, 0.5119, 0.5118,0.5118, 0.5117, 0.5117, 0.5115, 0.5115, 0.5117,0.5117, 0.5117, 0.5115, 0.5117, 0.5116, 0.5115,0.5116
MultiSource/Benchmarks/SciMark2-C/scimark2,43.2835,43.2823,43.2817,43.0778,43.2831,43.2823,43.2851,43.2862,43.2848,43.2785,43.2442,43.2848,43.1214,43.0444,43.2444,43.2930,43.2836,43.2444,43.1283,43.2820,43.2697,43.2929,43.2927,43.282
MultiSource/Benchmarks/TSVC/ControlFlow-dbl/ControlFlow-dbl, 3.7946, 3.7971, 3.8108, 3.8009, 3.8004,3.8004, 3.8164, 3.7985, 3.7975, 3.7998, 3.7977,3.7985, 3.8011, 3.8038, 3.8170, 3.7920, 3.7944,3.8011, 3.8058, 3.8050, 3.8195, 3.7968, 3.8199,3.8058
MultiSource/Benchmarks/TSVC/ControlFlow-flt/ControlFlow-flt, 3.5870, 3.6031, 3.6080, 3.6162, 3.6100,3.608, 3.6121, 3.5915, 3.5925, 3.6124, 3.5868,3.5925, 3.6144, 3.6028, 3.6330, 3.6085, 3.6376,3.6144, 3.5949, 3.6243, 3.5750, 3.6127, 3.6026,3.6026
MultiSource/Benchmarks/TSVC/ControlLoops-dbl/ControlLoops-dbl, 2.5296, 2.5289, 2.5360, 2.5307, 2.5293,2.5296, 2.5380, 2.5290, 2.5385, 2.5311, 2.5279,2.5311, 2.5380, 2.5383, 2.5386, 2.5298, 2.5399,2.5383, 2.5287, 2.5390, 2.5300, 2.5313, 2.5371,2.5313
MultiSource/Benchmarks/TSVC/ControlLoops-flt/ControlLoops-flt, 2.3394, 2.3372, 2.3456, 2.3435, 2.3424,2.3424, 2.3424, 2.3447, 2.3456, 2.3435, 2.3373,2.3435, 2.3455, 2.3437, 2.3365, 2.3491, 2.3570,2.3455, 2.3552, 2.3450, 2.3475, 2.3376, 2.3443,2.345
MultiSource/Benchmarks/TSVC/CrossingThresholds-dbl/CrossingThresholds-dbl, 2.1480, 2.1724, 2.1495, 2.1495, 2.1498,2.1495, 2.1478, 2.1486, 2.1717, 2.1721, 2.1475,2.1486, 2.1486, 2.1488, 2.1720, 2.1489, 2.1713,2.1489, 2.1721, 2.1722, 2.1714, 2.1491, 2.1483,2.1714
MultiSource/Benchmarks/TSVC/CrossingThresholds-flt/CrossingThresholds-flt, 1.6320, 1.6155, 1.6389, 1.6345, 1.6194,1.632, 1.6264, 1.6185, 1.6269, 1.6135, 1.6196,1.6196, 1.6225, 1.6291, 1.6316, 1.6344, 1.6405,1.6316, 1.6238, 1.6317, 1.6133, 1.6131, 1.6229,1.6229
MultiSource/Benchmarks/TSVC/Equivalencing-dbl/Equivalencing-dbl, 1.3816, 1.3804, 1.3804, 1.3809, 1.3856,1.3809, 1.3800, 1.3875, 1.3796, 1.3806, 1.3821,1.3806, 1.3811, 1.3802, 1.3786, 1.3810, 1.3800,1.3802, 1.3858, 1.3804, 1.3777, 1.3805, 1.3804,1.3804
MultiSource/Benchmarks/TSVC/Equivalencing-flt/Equivalencing-flt, 0.9700, 0.9674, 0.9656, 0.9696, 0.9677,0.9677, 0.9692, 0.9694, 0.9677, 0.9706, 0.9685,0.9692, 0.9683, 0.9726, 0.9673, 0.9683, 0.9697,0.9683, 0.9694, 0.9679, 0.9663, 0.9679, 0.9688,0.9679
MultiSource/Benchmarks/TSVC/Expansion-dbl/Expansion-dbl, 1.9840, 1.9615, 1.9616, 1.9646, 1.9637,1.9637, 1.9601, 1.9615, 1.9589, 1.9571, 1.9835,1.9601, 1.9879, 1.9867, 1.9847, 1.9641, 1.9859,1.9859, 1.9605, 1.9825, 1.9588, 1.9590, 1.9591,1.9591
MultiSource/Benchmarks/TSVC/Expansion-flt/Expansion-flt, 1.1585, 1.1584, 1.1635, 1.1623, 1.1583,1.1585, 1.1614, 1.1675, 1.1576, 1.1666, 1.1717,1.1666, 1.1679, 1.1611, 1.1577, 1.1628, 1.1684,1.1628, 1.1611, 1.1535, 1.1699, 1.1623, 1.1637,1.1623
MultiSource/Benchmarks/TSVC/GlobalDataFlow-dbl/GlobalDataFlow-dbl, 2.8511, 2.8382, 2.8393, 2.8406, 2.8514,2.8406, 2.8405, 2.8372, 2.8383, 2.8384, 2.8390,2.8384, 2.8519, 2.8378, 2.8395, 2.8390, 2.8403,2.8395, 2.8519, 2.8528, 2.8375, 2.8401, 2.8386,2.8401
MultiSource/Benchmarks/TSVC/GlobalDataFlow-flt/GlobalDataFlow-flt, 1.4973, 1.4926, 1.4868, 1.4994, 1.4963,1.4963, 1.4966, 1.4992, 1.5003, 1.4923, 1.5061,1.4992, 1.4934, 1.4987, 1.4924, 1.4939, 1.4935,1.4935, 1.4888, 1.4977, 1.4923, 1.4990, 1.5019,1.4977
MultiSource/Benchmarks/TSVC/IndirectAddressing-dbl/IndirectAddressing-dbl, 2.4756, 2.4751, 2.4741, 2.4910, 2.4926,2.4756, 2.4862, 2.4762, 2.4745, 2.4741, 2.4792,2.4762, 2.4799, 2.4886, 2.4850, 2.4762, 2.4868,2.485, 2.4953, 2.4793, 2.4755, 2.4734, 2.4702,2.4755
MultiSource/Benchmarks/TSVC/IndirectAddressing-flt/IndirectAddressing-flt, 2.3029, 2.3036, 2.3016, 2.3036, 2.3052,2.3036, 2.3038, 2.3045, 2.2995, 2.3035, 2.3020,2.3035, 2.3027, 2.3015, 2.3001, 2.3023, 2.3023,2.3023, 2.3020, 2.3026, 2.3019, 2.3008, 2.3018,2.3019
MultiSource/Benchmarks/TSVC/InductionVariable-dbl/InductionVariable-dbl, 3.0500, 3.0518, 3.0289, 3.0320, 3.0318,3.032, 3.0491, 3.0332, 3.0325, 3.0312, 3.0337,3.0332, 3.0341, 3.0503, 3.0498, 3.0330, 3.0335,3.0341, 3.0336, 3.0328, 3.0300, 3.0493, 3.0496,3.0336
MultiSource/Benchmarks/TSVC/InductionVariable-flt/InductionVariable-flt, 2.5527, 2.5629, 2.5578, 2.5506, 2.5540,2.554, 2.5540, 2.5476, 2.5538, 2.5568, 2.5486,2.5538, 2.5601, 2.5499, 2.5527, 2.5541, 2.5575,2.5541, 2.5579, 2.5541, 2.5544, 2.5564, 2.5542,2.5544
MultiSource/Benchmarks/TSVC/LinearDependence-dbl/LinearDependence-dbl, 5.8571, 5.8489, 5.8580, 5.8483, 5.8489,5.8489, 5.8578, 5.8488, 5.8494, 5.8572, 5.8578,5.8572, 5.8589, 5.8489, 5.8566, 5.8581, 5.8479,5.8566, 5.8569, 5.8482, 5.8572, 5.8488, 5.8490,5.849
MultiSource/Benchmarks/TSVC/LinearDependence-flt/LinearDependence-flt, 5.1319, 5.1267, 5.1268, 5.1266, 5.1261,5.1267, 5.1252, 5.1260, 5.1272, 5.1271, 5.1264,5.1264, 5.1272, 5.1256, 5.1254, 5.1252, 5.1264,5.1256, 5.1266, 5.1307, 5.1261, 5.1259, 5.1256,5.1261
MultiSource/Benchmarks/TSVC/LoopRerolling-dbl/LoopRerolling-dbl, 4.5836, 4.5758, 4.5905, 4.5873, 4.5824,4.5836, 4.5992, 4.5835, 4.5842, 4.6079, 4.5872,4.5872, 4.5986, 4.6014, 4.5880, 4.5840, 4.5857,4.588, 4.5832, 4.6037, 4.5885, 4.5896, 4.5829,4.5885
MultiSource/Benchmarks/TSVC/LoopRerolling-flt/LoopRerolling-flt, 3.8184, 3.8257, 3.8259, 3.8223, 3.8268,3.8257, 3.8311, 3.8271, 3.8178, 3.8206, 3.8268,3.8268, 3.8162, 3.8216, 3.8273, 3.8196, 3.8255,3.8216, 3.8298, 3.8286, 3.8263, 3.8256, 3.8261,3.8263
MultiSource/Benchmarks/TSVC/LoopRestructuring-dbl/LoopRestructuring-dbl, 3.5771, 3.6511, 3.5770, 3.6420, 3.5858,3.5858, 3.5801, 3.6395, 3.5843, 3.5729, 3.5893,3.5843, 3.5765, 3.5804, 3.5821, 3.6438, 3.6497,3.5821, 3.5856, 3.6439, 3.5788, 3.5806, 3.6405,3.5856
MultiSource/Benchmarks/TSVC/LoopRestructuring-flt/LoopRestructuring-flt, 3.0010, 3.0104, 2.7983, 2.9889, 2.8661,2.9889, 2.8706, 2.9951, 2.8873, 2.9403, 2.9670,2.9403, 2.8677, 2.9651, 2.8342, 2.9443, 2.8372,2.8677, 2.9279, 2.9212, 2.8978, 2.8349, 2.8219,2.8978
MultiSource/Benchmarks/TSVC/NodeSplitting-dbl/NodeSplitting-dbl, 5.0266, 5.0244, 5.0275, 5.0261, 5.0245,5.0261, 5.0169, 5.0166, 5.0185, 5.0247, 5.0165,5.0169, 5.0199, 5.0274, 5.0166, 5.0183, 5.0275,5.0199, 5.0259, 5.0189, 5.0163, 5.0170, 5.0277,5.0189
MultiSource/Benchmarks/TSVC/NodeSplitting-flt/NodeSplitting-flt, 4.6414, 4.6443, 4.6402, 4.6426, 4.6439,4.6426, 4.6433, 4.6416, 4.6400, 4.6423, 4.6416,4.6416, 4.6434, 4.6382, 4.6412, 4.6394, 4.6433,4.6412, 4.6451, 4.6403, 4.6416, 4.6438, 4.6443,4.6438
MultiSource/Benchmarks/TSVC/Packing-dbl/Packing-dbl, 2.3274, 2.2783, 2.2791, 2.2800, 2.3263,2.28, 2.2788, 2.3256, 2.3259, 2.2795, 2.2795,2.2795, 2.3269, 2.2804, 2.2793, 2.3261, 2.3259,2.3259, 2.2792, 2.2800, 2.2768, 2.3280, 2.2792,2.2792
MultiSource/Benchmarks/TSVC/Packing-flt/Packing-flt, 2.0887, 2.1024, 2.0887, 2.1251, 2.1156,2.1024, 2.0942, 2.1300, 2.1048, 2.1070, 2.1008,2.1048, 2.0835, 2.1003, 2.1391, 2.0972, 2.0946,2.0972, 2.0922, 2.1002, 2.1081, 2.0804, 2.1188,2.1002
MultiSource/Benchmarks/TSVC/Recurrences-dbl/Recurrences-dbl, 3.5012, 3.5012, 3.5012, 3.5012, 3.5011,3.5012, 3.5012, 3.5012, 3.5012, 3.5012, 3.5012,3.5012, 3.5013, 3.5012, 3.5012, 3.5013, 3.5012,3.5012, 3.5012, 3.5012, 3.5013, 3.5012, 3.5012,3.5012
MultiSource/Benchmarks/TSVC/Recurrences-flt/Recurrences-flt, 3.5009, 3.5009, 3.5008, 3.5009, 3.5008,3.5009, 3.5007, 3.5011, 3.5009, 3.5007, 3.5010,3.5009, 3.5009, 3.5010, 3.5010, 3.5009, 3.5008,3.5009, 3.5008, 3.5010, 3.5010, 3.5008, 3.5006,3.5008
MultiSource/Benchmarks/TSVC/Reductions-dbl/Reductions-dbl, 3.4766, 3.4766, 3.4765, 3.4765, 3.4765,3.4765, 3.4764, 3.4765, 3.4765, 3.4765, 3.4765,3.4765, 3.4766, 3.4765, 3.4765, 3.4765, 3.4765,3.4765, 3.4765, 3.4766, 3.4766, 3.4765, 3.4765,3.4765
MultiSource/Benchmarks/TSVC/Reductions-flt/Reductions-flt, 5.9694, 5.9694, 5.9694, 5.9695, 5.9694,5.9694, 5.9696, 5.9694, 5.9694, 5.9694, 5.9693,5.9694, 5.9694, 5.9693, 5.9694, 5.9695, 5.9695,5.9694, 5.9693, 5.9694, 5.9695, 5.9694, 5.9694,5.9694
MultiSource/Benchmarks/TSVC/Searching-dbl/Searching-dbl, 2.2883, 2.2883, 2.2888, 2.2886, 2.2886,2.2886, 2.2885, 2.2884, 2.2882, 2.2880, 2.2883,2.2883, 2.2885, 2.2884, 2.2882, 2.2885, 2.2878,2.2884, 2.2885, 2.2883, 2.2887, 2.2884, 2.2884,2.2884
MultiSource/Benchmarks/TSVC/Searching-flt/Searching-flt, 2.4477, 2.4469, 2.4482, 2.4480, 2.4469,2.4477, 2.4470, 2.4466, 2.4482, 2.4477, 2.4476,2.4476, 2.4479, 2.4479, 2.4481, 2.4481, 2.4467,2.4479, 2.4471, 2.4462, 2.4472, 2.4458, 2.4481,2.4471
MultiSource/Benchmarks/TSVC/StatementReordering-dbl/StatementReordering-dbl, 2.2409, 2.2336, 2.2311, 2.2431, 2.2406,2.2406, 2.2357, 2.2452, 2.2359, 2.2460, 2.2317,2.2359, 2.2414, 2.2429, 2.2425, 2.2388, 2.2412,2.2414, 2.2447, 2.2346, 2.2391, 2.2351, 2.2379,2.2379
MultiSource/Benchmarks/TSVC/StatementReordering-flt/StatementReordering-flt, 1.8242, 1.8281, 1.8245, 1.8229, 1.8222,1.8242, 1.8289, 1.8253, 1.8259, 1.8254, 1.8264,1.8259, 1.8218, 1.8259, 1.8276, 1.8261, 1.8212,1.8259, 1.8270, 1.8234, 1.8202, 1.8237, 1.8266,1.8237
MultiSource/Benchmarks/TSVC/Symbolics-dbl/Symbolics-dbl, 2.4425, 2.4569, 2.4417, 2.4423, 2.4415,2.4423, 2.4414, 2.4422, 2.4418, 2.4415, 2.4572,2.4418, 2.4429, 2.4428, 2.4565, 2.4416, 2.4423,2.4428, 2.4423, 2.4578, 2.4421, 2.4565, 2.4414,2.4423
MultiSource/Benchmarks/TSVC/Symbolics-flt/Symbolics-flt, 1.3916, 1.3929, 1.3915, 1.3986, 1.3963,1.3929, 1.3927, 1.3948, 1.4042, 1.3913, 1.3994,1.3948, 1.3944, 1.3918, 1.3891, 1.3962, 1.3984,1.3944, 1.3898, 1.3956, 1.3969, 1.3922, 1.3891,1.3922
MultiSource/Benchmarks/Trimaran/enc-3des/enc-3des, 1.2778, 1.2773, 1.2773, 1.2772, 1.2776,1.2773, 1.2778, 1.2774, 1.2772, 1.2774, 1.2774,1.2774, 1.2772, 1.2773, 1.2773, 1.2773, 1.2777,1.2773, 1.2775, 1.2776, 1.2774, 1.2775, 1.2773,1.2775
MultiSource/Benchmarks/Trimaran/enc-md5/enc-md5, 1.3929, 1.3929, 1.3929, 1.3929, 1.3929,1.3929, 1.3929, 1.3929, 1.3929, 1.3930, 1.3928,1.3929, 1.3929, 1.3929, 1.3929, 1.3930, 1.3929,1.3929, 1.3929, 1.3929, 1.3929, 1.3930, 1.3929,1.3929
MultiSource/Benchmarks/Trimaran/enc-pc1/enc-pc1, 0.3533, 0.3534, 0.3533, 0.3534, 0.3533,0.3533, 0.3533, 0.3534, 0.3534, 0.3534, 0.3533,0.3534, 0.3533, 0.3533, 0.3534, 0.3533, 0.3534,0.3533, 0.3533, 0.3534, 0.3532, 0.3533, 0.3534,0.3533
MultiSource/Benchmarks/Trimaran/enc-rc4/enc-rc4, 0.7243, 0.7248, 0.7245, 0.7243, 0.7246,0.7245, 0.7243, 0.7241, 0.7243, 0.7247, 0.7245,0.7243, 0.7243, 0.7242, 0.7245, 0.7247, 0.7243,0.7243, 0.7238, 0.7247, 0.7244, 0.7239, 0.7247,0.7244
MultiSource/Benchmarks/Trimaran/netbench-crc/netbench-crc, 0.6208, 0.6209, 0.6211, 0.6209, 0.6209,0.6209, 0.6210, 0.6225, 0.6207, 0.6211, 0.6209,0.621, 0.6208, 0.6209, 0.6209, 0.6204, 0.6212,0.6209, 0.6210, 0.6211, 0.6209, 0.6214, 0.6209,0.621
MultiSource/Benchmarks/Trimaran/netbench-url/netbench-url, 2.9791, 2.9795, 2.9789, 2.9790, 2.9789,2.979, 2.9790, 2.9791, 2.9794, 2.9788, 2.9787,2.979, 2.9792, 2.9789, 2.9792, 2.9793, 2.9792,2.9792, 2.9789, 2.9792, 2.9797, 2.9789, 2.9788,2.9789
MultiSource/Benchmarks/VersaBench/8b10b/8b10b, 3.6128, 3.5862, 3.5948, 3.5867, 3.5940,3.594, 3.5877, 3.6022, 3.5890, 3.5885, 3.5879,3.5885, 3.6001, 3.5899, 3.5884, 3.5912, 3.5934,3.5912, 3.5924, 3.5889, 3.5908, 3.5927, 3.5902,3.5908
MultiSource/Benchmarks/VersaBench/beamformer/beamformer, 0.7499, 0.7496, 0.7497, 0.7497, 0.7498,0.7497, 0.7497, 0.7498, 0.7496, 0.7498, 0.7497,0.7497, 0.7499, 0.7497, 0.7499, 0.7497, 0.7497,0.7497, 0.7498, 0.7497, 0.7498, 0.7497, 0.7499,0.7498
MultiSource/Benchmarks/VersaBench/bmm/bmm, 1.6967, 1.6959, 1.6961, 1.6966, 1.6951,1.6961, 1.6962, 1.6958, 1.6966, 1.6959, 1.6961,1.6961, 1.6962, 1.6962, 1.6964, 1.6963, 1.6962,1.6962, 1.6959, 1.6960, 1.6966, 1.6952, 1.6963,1.696
MultiSource/Benchmarks/VersaBench/dbms/dbms, 0.8959, 0.9051, 0.9152, 0.9074, 0.8923,0.9051, 0.9111, 0.8997, 0.9022, 0.8983, 0.9069,0.9022, 0.8966, 0.9052, 0.8982, 0.9091, 0.9007,0.9007, 0.8984, 0.8961, 0.9071, 0.9024, 0.8947,0.8984
MultiSource/Benchmarks/VersaBench/ecbdes/ecbdes, 1.6924, 1.6923, 1.6923, 1.6923, 1.6923,1.6923, 1.6923, 1.6922, 1.6924, 1.6924, 1.6923,1.6923, 1.6924, 1.6923, 1.6923, 1.6924, 1.6924,1.6924, 1.6923, 1.6922, 1.6924, 1.6923, 1.6923,1.6923
MultiSource/Benchmarks/llubenchmark/llu, 4.1192, 4.1686, 4.0966, 4.0885, 4.0572,4.0966, 4.1130, 4.0930, 4.0586, 4.1017, 4.0788,4.093, 4.0883, 4.0503, 4.1270, 4.0464, 4.1596,4.0883, 4.0654, 4.1425, 4.1008, 4.0865, 3.8572,4.0865
MultiSource/Benchmarks/mafft/pairlocalalign,24.8711,24.8260,24.8263,24.8274,24.8269,24.8269,24.8274,24.8262,24.8287,24.8264,24.8264,24.8264,24.8273,24.8265,24.8266,24.8268,24.8262,24.8266,24.8267,24.8259,24.8261,24.8267,24.8270,24.8267
MultiSource/Benchmarks/mediabench/adpcm/rawcaudio/rawcaudio, 0.0029, 0.0028, 0.0029, 0.0028, 0.0030,0.0029, 0.0030, 0.0030, 0.0028, 0.0029, 0.0029,0.0029, 0.0028, 0.0029, 0.0029, 0.0029, 0.0029,0.0029, 0.0028, 0.0028, 0.0031, 0.0029, 0.0030,0.0029
MultiSource/Benchmarks/mediabench/adpcm/rawdaudio/rawdaudio, 0.0018, 0.0018, 0.0018, 0.0018, 0.0017,0.0018, 0.0018, 0.0019, 0.0020, 0.0018, 0.0019,0.0019, 0.0018, 0.0018, 0.0017, 0.0018, 0.0017,0.0018, 0.0018, 0.0018, 0.0017, 0.0018, 0.0018,0.0018
MultiSource/Benchmarks/mediabench/g721/g721encode/encode, 0.0291, 0.0291, 0.0290, 0.0290, 0.0291,0.0291, 0.0289, 0.0291, 0.0291, 0.0290, 0.0290,0.029, 0.0290, 0.0290, 0.0290, 0.0290, 0.0290,0.029, 0.0290, 0.0291, 0.0291, 0.0290, 0.0291,0.0291
MultiSource/Benchmarks/mediabench/gsm/toast/toast, 0.0144, 0.0145, 0.0145, 0.0144, 0.0144,0.0144, 0.0143, 0.0145, 0.0145, 0.0144, 0.0145,0.0145, 0.0145, 0.0145, 0.0145, 0.0144, 0.0146,0.0145, 0.0145, 0.0145, 0.0145, 0.0145, 0.0146,0.0145
MultiSource/Benchmarks/mediabench/jpeg/jpeg-6a/cjpeg, 0.0033, 0.0032, 0.0033, 0.0033, 0.0032,0.0033, 0.0032, 0.0033, 0.0034, 0.0034, 0.0033,0.0033, 0.0031, 0.0032, 0.0033, 0.0032, 0.0032,0.0032, 0.0034, 0.0033, 0.0034, 0.0032, 0.0033,0.0033
MultiSource/Benchmarks/mediabench/mpeg2/mpeg2dec/mpeg2decode, 0.0154, 0.0155, 0.0154, 0.0154, 0.0155,0.0154, 0.0153, 0.0154, 0.0154, 0.0155, 0.0155,0.0154, 0.0155, 0.0154, 0.0152, 0.0154, 0.0154,0.0154, 0.0153, 0.0154, 0.0154, 0.0155, 0.0153,0.0154
MultiSource/Benchmarks/nbench/nbench, 1.1888, 1.1898, 1.1892, 1.1919, 1.1889,1.1892, 1.1895, 1.1885, 1.1897, 1.1896, 1.1909,1.1896, 1.1878, 1.1897, 1.1885, 1.1889, 1.1887,1.1887, 1.1880, 1.1881, 1.1892, 1.1885, 1.1911,1.1885
MultiSource/Benchmarks/sim/sim, 2.5951, 2.5974, 2.5970, 2.5984, 2.5978,2.5974, 2.5954, 2.5942, 2.6001, 2.6006, 2.5962,2.5962, 2.5942, 2.6004, 2.5971, 2.5989, 2.5971,2.5971, 2.5934, 2.6010, 2.5991, 2.5948, 2.5968,2.5968
MultiSource/Benchmarks/tramp3d-v4/tramp3d-v4, 0.2643, 0.2645, 0.2640, 0.2640, 0.2642,0.2642, 0.2640, 0.2639, 0.2643, 0.2640, 0.2641,0.264, 0.2643, 0.2642, 0.2643, 0.2641, 0.2645,0.2643, 0.2639, 0.2641, 0.2642, 0.2641, 0.2642,0.2641
SingleSource/Benchmarks/Adobe-C++/functionobjects, 2.9983, 2.9980, 2.9992, 2.9998, 2.9985,2.9985, 3.0000, 2.9987, 2.9981, 2.9991, 2.9988,2.9988, 2.9989, 3.0000, 2.9987, 2.9997, 2.9997,2.9997, 3.0004, 3.0015, 2.9980, 2.9989, 2.9988,2.9989
SingleSource/Benchmarks/Adobe-C++/loop_unroll, 1.8180, 1.8181, 1.8155, 1.8197, 1.8201,1.8181, 1.8206, 1.8216, 1.8214, 1.8230, 1.8236,1.8216, 1.8240, 1.8246, 1.8172, 1.8176, 1.8229,1.8229, 1.8213, 1.8214, 1.8217, 1.8216, 1.8185,1.8214
SingleSource/Benchmarks/Adobe-C++/simple_types_constant_folding, 0.6691, 0.6691, 0.6691, 0.6692, 0.6691,0.6691, 0.6691, 0.6691, 0.6691, 0.6692, 0.6691,0.6691, 0.6691, 0.6691, 0.6691, 0.6691, 0.6691,0.6691, 0.6691, 0.6692, 0.6691, 0.6695, 0.6691,0.6691
SingleSource/Benchmarks/Adobe-C++/simple_types_loop_invariant, 1.6064, 1.6068, 1.6069, 1.6067, 1.6068,1.6068, 1.6065, 1.6064, 1.6065, 1.6076, 1.6065,1.6065, 1.6069, 1.6072, 1.6065, 1.6067, 1.6070,1.6069, 1.6063, 1.6064, 1.6065, 1.6081, 1.6066,1.6065
SingleSource/Benchmarks/Adobe-C++/stepanov_abstraction, 4.2373, 4.2367, 4.2368, 4.2375, 4.2375,4.2373, 4.2371, 4.2383, 4.2381, 4.2367, 4.2375,4.2375, 4.2382, 4.2377, 4.2378, 4.2377, 4.2375,4.2377, 4.2371, 4.2390, 4.2392, 4.2378, 4.2380,4.238
SingleSource/Benchmarks/Adobe-C++/stepanov_vector, 2.2587, 2.2592, 2.2590, 2.2589, 2.2588,2.2589, 2.2591, 2.2587, 2.2586, 2.2592, 2.2586,2.2587, 2.2585, 2.2582, 2.2587, 2.2591, 2.2591,2.2587, 2.2588, 2.2594, 2.2593, 2.2596, 2.2586,2.2593
SingleSource/Benchmarks/BenchmarkGame/Large/fasta, 0.6498, 0.6492, 0.6491, 0.6492, 0.6495,0.6492, 0.6489, 0.6485, 0.6489, 0.6486, 0.6424,0.6486, 0.6495, 0.6496, 0.6490, 0.6486, 0.6492,0.6492, 0.6494, 0.6493, 0.6492, 0.6495, 0.6492,0.6493
SingleSource/Benchmarks/BenchmarkGame/fannkuch, 1.8618, 1.8631, 1.8636, 1.8626, 1.8628,1.8628, 1.8633, 1.8628, 1.8622, 1.8639, 1.8638,1.8633, 1.8636, 1.8629, 1.8628, 1.8633, 1.8625,1.8629, 1.8627, 1.8637, 1.8623, 1.8624, 1.8621,1.8624
SingleSource/Benchmarks/BenchmarkGame/n-body, 1.3718, 1.3717, 1.3718, 1.3718, 1.3718,1.3718, 1.3718, 1.3718, 1.3718, 1.3718, 1.3718,1.3718, 1.3718, 1.3719, 1.3722, 1.3718, 1.3719,1.3719, 1.3718, 1.3719, 1.3718, 1.3718, 1.3718,1.3718
SingleSource/Benchmarks/BenchmarkGame/nsieve-bits, 0.4886, 0.4906, 0.4899, 0.4988, 0.4872,0.4899, 0.4989, 0.5033, 0.4851, 0.4843, 0.4981,0.4981, 0.4992, 0.4964, 0.4913, 0.4865, 0.4853,0.4913, 0.4936, 0.4908, 0.4877, 0.4977, 0.4920,0.492
SingleSource/Benchmarks/BenchmarkGame/partialsums, 0.5687, 0.5687, 0.5687, 0.5687, 0.5687,0.5687, 0.5687, 0.5687, 0.5687, 0.5688, 0.5687,0.5687, 0.5692, 0.5687, 0.5687, 0.5687, 0.5686,0.5687, 0.5687, 0.5687, 0.5687, 0.5688, 0.5687,0.5687
SingleSource/Benchmarks/BenchmarkGame/puzzle, 0.1136, 0.1138, 0.1138, 0.1136, 0.1136,0.1136, 0.1138, 0.1143, 0.1136, 0.1136, 0.1136,0.1136, 0.1136, 0.1136, 0.1136, 0.1136, 0.1138,0.1136, 0.1136, 0.1136, 0.1136, 0.1135, 0.1139,0.1136
SingleSource/Benchmarks/BenchmarkGame/recursive, 0.7054, 0.7044, 0.7122, 0.7043, 0.7155,0.7054, 0.7044, 0.7044, 0.7158, 0.7044, 0.7062,0.7044, 0.7045, 0.7125, 0.7045, 0.7044, 0.7074,0.7045, 0.7043, 0.7045, 0.7045, 0.7046, 0.7044,0.7045
SingleSource/Benchmarks/BenchmarkGame/spectral-norm, 0.9733, 0.9733, 0.9733, 0.9734, 0.9733,0.9733, 0.9733, 0.9733, 0.9733, 0.9733, 0.9733,0.9733, 0.9733, 0.9734, 0.9733, 0.9732, 0.9733,0.9733, 0.9733, 0.9733, 0.9733, 0.9733, 0.9733,0.9733
SingleSource/Benchmarks/CoyoteBench/almabench,12.6502,12.6508,12.6485,12.6491,12.6496,12.6496,12.6461,12.6462,12.6461,12.6468,12.6466,12.6462,12.6463,12.6458,12.6463,12.6462,12.6464,12.6463,12.6614,12.6464,12.6555,12.6461,12.6460,12.6464
SingleSource/Benchmarks/CoyoteBench/fftbench, 0.6315, 0.6376, 0.6340, 0.6450, 0.6340,0.634, 0.6825, 0.6355, 0.6430, 0.6488, 0.6576,0.6488, 0.6401, 0.6340, 0.6326, 0.6458, 0.6359,0.6359, 0.6386, 0.6409, 0.6370, 0.6339, 0.6336,0.637
SingleSource/Benchmarks/CoyoteBench/huffbench, 9.2888, 9.2868, 9.2872, 9.2917, 9.2912,9.2888, 9.2870, 9.2870, 9.2894, 9.2904, 9.2901,9.2894, 9.2874, 9.2893, 9.2871, 9.2880, 9.2887,9.288, 9.2863, 9.2883, 9.2842, 9.2891, 9.2922,9.2883
SingleSource/Benchmarks/CoyoteBench/lpbench, 1.8218, 1.8253, 1.8334, 1.8247, 1.8262,1.8253, 1.8232, 1.8244, 1.8233, 1.8210, 1.8340,1.8233, 1.8276, 1.8208, 1.8284, 1.8262, 1.8298,1.8276, 1.8258, 1.8302, 1.8245, 1.8250, 1.8253,1.8253
SingleSource/Benchmarks/Dhrystone/dry, 0.3351, 0.3351, 0.3351, 0.3351, 0.3351,0.3351, 0.3351, 0.3351, 0.3351, 0.3351, 0.3351,0.3351, 0.3351, 0.3351, 0.3351, 0.3351, 0.3351,0.3351, 0.3351, 0.3351, 0.3350, 0.3351, 0.3350,0.3351
SingleSource/Benchmarks/Dhrystone/fldry, 0.3655, 0.3655, 0.3655, 0.3658, 0.3655,0.3655, 0.3655, 0.3655, 0.3655, 0.3655, 0.3654,0.3655, 0.3655, 0.3655, 0.3655, 0.3655, 0.3655,0.3655, 0.3655, 0.3655, 0.3655, 0.3655, 0.3655,0.3655
SingleSource/Benchmarks/Linpack/linpack-pc, 1.2592, 1.2578, 1.2619, 1.2609, 1.2581,1.2592, 1.2583, 1.2587, 1.2584, 1.2621, 1.2589,1.2587, 1.2578, 1.2652, 1.2612, 1.2859, 1.2601,1.2612, 1.2586, 1.2575, 1.2602, 1.2587, 1.2588,1.2587
SingleSource/Benchmarks/McGill/chomp, 1.2778, 1.3048, 1.2792, 1.2801, 1.3084,1.2801, 1.2766, 1.2803, 1.2790, 1.3079, 1.3042,1.2803, 1.2786, 1.3049, 1.2808, 1.2761, 1.2777,1.2786, 1.3082, 1.3069, 1.2746, 1.3082, 1.3050,1.3069
SingleSource/Benchmarks/McGill/misr, 0.1012, 0.1012, 0.1012, 0.1012, 0.1012,0.1012, 0.1012, 0.1012, 0.1012, 0.1012, 0.1012,0.1012, 0.1012, 0.1012, 0.1012, 0.1012, 0.1012,0.1012, 0.1012, 0.1012, 0.1012, 0.1012, 0.1012,0.1012
SingleSource/Benchmarks/McGill/queens, 1.5487, 1.5485, 1.5494, 1.5488, 1.5489,1.5488, 1.5488, 1.5485, 1.5489, 1.5486, 1.5485,1.5486, 1.5486, 1.5490, 1.5487, 1.5492, 1.5487,1.5487, 1.5485, 1.5489, 1.5488, 1.5486, 1.5490,1.5488
SingleSource/Benchmarks/Misc-C++-EH/spirit, 2.6250, 2.6247, 2.6258, 2.6240, 2.6225,2.6247, 2.6213, 2.6214, 2.6209, 2.6204, 2.6214,2.6213, 2.6219, 2.6212, 2.6202, 2.6211, 2.6211,2.6211, 2.6215, 2.6219, 2.6210, 2.6210, 2.6223,2.6215
SingleSource/Benchmarks/Misc-C++/Large/ray, 3.1382, 3.1382, 3.1382, 3.1382, 3.1381,3.1382, 3.1382, 3.1381, 3.1382, 3.1382, 3.1382,3.1382, 3.1382, 3.1382, 3.1381, 3.1381, 3.1381,3.1381, 3.1397, 3.1383, 3.1382, 3.1382, 3.1382,3.1382
SingleSource/Benchmarks/Misc-C++/Large/sphereflake, 6.2819, 6.2818, 6.2819, 6.2820, 6.2815,6.2819, 6.2817, 6.2819, 6.2819, 6.2817, 6.2816,6.2817, 6.2819, 6.2817, 6.2819, 6.2820, 6.2820,6.2819, 6.2817, 6.2820, 6.2820, 6.2819, 6.2819,6.2819
SingleSource/Benchmarks/Misc-C++/bigfib, 0.1916, 0.1916, 0.1920, 0.1918, 0.1923,0.1918, 0.1918, 0.1920, 0.1919, 0.1921, 0.1921,0.192, 0.1920, 0.1916, 0.1920, 0.1918, 0.1916,0.1918, 0.1918, 0.1918, 0.1921, 0.1920, 0.1919,0.1919
SingleSource/Benchmarks/Misc-C++/mandel-text, 1.6115, 1.6125, 1.6124, 1.6117, 1.6126,1.6124, 1.6147, 1.6120, 1.6109, 1.6117, 1.6125,1.612, 1.6144, 1.6146, 1.6145, 1.6111, 1.6154,1.6145, 1.6139, 1.6117, 1.6127, 1.6134, 1.6139,1.6134
SingleSource/Benchmarks/Misc-C++/oopack_v1p8, 0.1617, 0.1616, 0.1618, 0.1619, 0.1617,0.1617, 0.1620, 0.1620, 0.1620, 0.1616, 0.1618,0.162, 0.1617, 0.1615, 0.1619, 0.1620, 0.1620,0.1619, 0.1615, 0.1617, 0.1618, 0.1616, 0.1617,0.1617
SingleSource/Benchmarks/Misc-C++/stepanov_container, 2.9396, 2.8998, 3.0950, 3.0665, 3.0661,3.0661, 3.0539, 2.9610, 3.0777, 3.0753, 3.0682,3.0682, 3.0768, 3.0516, 2.8880, 2.9683, 3.0415,3.0415, 3.0558, 3.0588, 3.0701, 2.9238, 3.0675,3.0588
SingleSource/Benchmarks/Misc-C++/stepanov_v1p2, 7.9035, 7.9033, 7.9034, 7.9034, 7.9033,7.9034, 7.9034, 7.9033, 7.9033, 7.9034, 7.9034,7.9034, 7.9034, 7.9033, 7.9034, 7.9033, 7.9033,7.9033, 7.9033, 7.9035, 7.9034, 7.9034, 7.9033,7.9034
SingleSource/Benchmarks/Misc/ReedSolomon, 3.1254, 3.1257, 3.1252, 3.1283, 3.1278,3.1257, 3.1276, 3.1251, 3.1253, 3.1279, 3.1274,3.1274, 3.1266, 3.1256, 3.1256, 3.1256, 3.1278,3.1256, 3.1279, 3.1274, 3.1284, 3.1277, 3.1279,3.1279
SingleSource/Benchmarks/Misc/dt, 0.6919, 0.6919, 0.6919, 0.6919, 0.6919,0.6919, 0.6919, 0.6918, 0.6919, 0.6919, 0.6919,0.6919, 0.6919, 0.6918, 0.6918, 0.6919, 0.6919,0.6919, 0.6919, 0.6918, 0.6919, 0.6919, 0.6918,0.6919
SingleSource/Benchmarks/Misc/fbench, 1.7523, 1.7523, 1.7523, 1.7523, 1.7523,1.7523, 1.7523, 1.7522, 1.7523, 1.7523, 1.7523,1.7523, 1.7523, 1.7523, 1.7523, 1.7523, 1.7523,1.7523, 1.7523, 1.7523, 1.7523, 1.7523, 1.7523,1.7523
SingleSource/Benchmarks/Misc/ffbench, 0.5810, 0.5879, 0.5864, 0.5785, 0.5868,0.5864, 0.5829, 0.5764, 0.5874, 0.5759, 0.5913,0.5829, 0.5866, 0.5763, 0.5877, 0.5794, 0.5770,0.5794, 0.5843, 0.5875, 0.5768, 0.5760, 0.5784,0.5784
SingleSource/Benchmarks/Misc/flops,10.6546,10.6551,10.6751,10.6558,10.6425,10.6551,10.6555,10.6542,10.6391,10.6384,10.6346,10.6391,10.6537,10.6388,10.5816,10.6243,10.6340,10.634,10.6356,10.6393,10.6551,10.6782,10.6408,10.6408
SingleSource/Benchmarks/Misc/flops-1, 3.6289, 3.6289, 3.6289, 3.6289, 3.6288,3.6289, 3.6289, 3.6289, 3.6289, 3.6289, 3.6289,3.6289, 3.6288, 3.6289, 3.6289, 3.6289, 3.6289,3.6289, 3.6289, 3.6290, 3.6290, 3.6289, 3.6289,3.6289
SingleSource/Benchmarks/Misc/flops-2, 0.8627, 0.8627, 0.8628, 0.8627, 0.8628,0.8627, 0.8627, 0.8627, 0.8627, 0.8629, 0.8627,0.8627, 0.8627, 0.8628, 0.8627, 0.8628, 0.8628,0.8628, 0.8627, 0.8628, 0.8627, 0.8627, 0.8627,0.8627
SingleSource/Benchmarks/Misc/flops-3, 5.5082, 5.5081, 5.5082, 5.5081, 5.5081,5.5081, 5.5082, 5.5081, 5.5082, 5.5082, 5.5082,5.5082, 5.5081, 5.5082, 5.5082, 5.5082, 5.5082,5.5082, 5.5081, 5.5082, 5.5080, 5.5081, 5.5082,5.5081
SingleSource/Benchmarks/Misc/flops-4, 2.3748, 2.3747, 2.3273, 2.2323, 2.2321,2.3273, 2.2323, 2.3747, 2.3273, 2.3273, 2.2323,2.3273, 2.2322, 2.3747, 2.3747, 2.3747, 2.3747,2.3747, 2.3747, 2.3748, 2.3747, 2.3747, 2.3747,2.3747
SingleSource/Benchmarks/Misc/flops-5, 4.3251, 4.2775, 4.2776, 4.3250, 4.3250,4.325, 4.2775, 4.3250, 4.3251, 4.3251, 4.3250,4.325, 4.2776, 4.2776, 4.2776, 4.2776, 4.2776,4.2776, 4.3250, 4.2777, 4.3250, 4.2774, 4.2777,4.2777
SingleSource/Benchmarks/Misc/flops-6, 3.1817, 3.1818, 3.1818, 3.1818, 3.1818,3.1818, 3.1818, 3.1818, 3.1818, 3.1818, 3.1818,3.1818, 3.1818, 3.1818, 3.1818, 3.1818, 3.1818,3.1818, 3.1817, 3.1819, 3.1817, 3.1818, 3.1818,3.1818
SingleSource/Benchmarks/Misc/flops-7, 1.5902, 1.5901, 1.5902, 1.5901, 1.5901,1.5901, 1.5901, 1.5901, 1.5901, 1.5902, 1.5902,1.5901, 1.5901, 1.5901, 1.5901, 1.5901, 1.5900,1.5901, 1.5901, 1.5902, 1.5902, 1.5902, 1.5901,1.5902
SingleSource/Benchmarks/Misc/flops-8, 3.7515, 3.8465, 3.8465, 3.7515, 3.7991,3.7991, 3.8465, 3.8465, 3.8465, 3.7516, 3.7515,3.8465, 3.8465, 3.7516, 3.8464, 3.7515, 3.8464,3.8464, 3.8464, 3.8466, 3.8465, 3.8465, 3.8465,3.8465
SingleSource/Benchmarks/Misc/fp-convert, 3.0626, 3.0626, 3.0626, 3.0626, 3.0626,3.0626, 3.0626, 3.0626, 3.0626, 3.0626, 3.0626,3.0626, 3.0626, 3.0626, 3.0626, 3.0626, 3.0626,3.0626, 3.0625, 3.0626, 3.0626, 3.0626, 3.0626,3.0626
SingleSource/Benchmarks/Misc/himenobmtxpa, 0.6001, 0.5983, 0.6012, 0.5932, 0.5940,0.5983, 0.5900, 0.5951, 0.5920, 0.5922, 0.5943,0.5922, 0.5936, 0.5993, 0.5928, 0.5924, 0.5928,0.5928, 0.5979, 0.5930, 0.5976, 0.5938, 0.5915,0.5938
SingleSource/Benchmarks/Misc/lowercase, 0.0009, 0.0009, 0.0008, 0.0008, 0.0008,0.0008, 0.0009, 0.0009, 0.0009, 0.0009, 0.0009,0.0009, 0.0009, 0.0009, 0.0009, 0.0009, 0.0009,0.0009, 0.0009, 0.0008, 0.0009, 0.0009, 0.0009,0.0009
SingleSource/Benchmarks/Misc/mandel, 0.8338, 0.8337, 0.8338, 0.8337, 0.8338,0.8338, 0.8338, 0.8338, 0.8338, 0.8338, 0.8337,0.8338, 0.8338, 0.8337, 0.8336, 0.8338, 0.8338,0.8338, 0.8337, 0.8338, 0.8338, 0.8338, 0.8337,0.8338
SingleSource/Benchmarks/Misc/mandel-2, 1.2781, 1.2781, 1.2780, 1.2781, 1.2780,1.2781, 1.2780, 1.2780, 1.2781, 1.2780, 1.2780,1.278, 1.2780, 1.2780, 1.2779, 1.2780, 1.2780,1.278, 1.2780, 1.2780, 1.2780, 1.2780, 1.2780,1.278
SingleSource/Benchmarks/Misc/matmul_f64_4x4, 1.2953, 1.2953, 1.2953, 1.2951, 1.2951,1.2953, 1.2953, 1.2953, 1.2953, 1.2953, 1.2952,1.2953, 1.2953, 1.2951, 1.2953, 1.2953, 1.2953,1.2953, 1.2953, 1.2953, 1.2953, 1.2953, 1.2953,1.2953
SingleSource/Benchmarks/Misc/oourafft, 6.1772, 6.0850, 6.0807, 6.0807, 6.0852,6.085, 6.0812, 6.0807, 6.0811, 6.0807, 6.0807,6.0807, 6.0807, 6.0816, 6.0807, 6.0807, 6.0809,6.0807, 6.0807, 6.0808, 6.0808, 6.0848, 6.0806,6.0808
SingleSource/Benchmarks/Misc/perlin, 3.8540, 3.8545, 3.8539, 3.8537, 3.8533,3.8539, 3.8537, 3.8538, 3.8535, 3.8538, 3.8536,3.8537, 3.8542, 3.8540, 3.8538, 3.8540, 3.8539,3.854, 3.8533, 3.8546, 3.8535, 3.8535, 3.8539,3.8535
SingleSource/Benchmarks/Misc/pi, 0.6944, 0.6943, 0.6943, 0.6943, 0.6943,0.6943, 0.6943, 0.6943, 0.6943, 0.6944, 0.6943,0.6943, 0.6944, 0.6943, 0.6943, 0.6943, 0.6942,0.6943, 0.6943, 0.6943, 0.6944, 0.6943, 0.6943,0.6943
SingleSource/Benchmarks/Misc/richards_benchmark, 0.5320, 0.5319, 0.5317, 0.5316, 0.5311,0.5317, 0.5316, 0.5317, 0.5319, 0.5323, 0.5321,0.5319, 0.5317, 0.5319, 0.5316, 0.5315, 0.5311,0.5316, 0.5320, 0.5320, 0.5311, 0.5319, 0.5314,0.5319
SingleSource/Benchmarks/Misc/salsa20, 4.8286, 4.8286, 4.8284, 4.8173, 4.8171,4.8284, 4.8173, 4.8175, 4.8285, 4.8286, 4.8230,4.823, 4.8286, 4.8285, 4.8176, 4.8285, 4.8245,4.8285, 4.8172, 4.8285, 4.8178, 4.8175, 4.8286,4.8178
SingleSource/Benchmarks/Misc/whetstone, 1.0251, 1.0251, 1.0200, 1.0202, 1.0278,1.0251, 1.0251, 1.0277, 1.0276, 1.0278, 1.0276,1.0276, 1.0252, 1.0252, 1.0276, 1.0276, 1.0277,1.0276, 1.0276, 1.0251, 1.0277, 1.0200, 1.0278,1.0276
SingleSource/Benchmarks/Polybench/datamining/correlation/correlation, 1.6614, 1.6591, 1.6557, 1.6551, 1.6478,1.6557, 1.6615, 1.6612, 1.6543, 1.6563, 1.6481,1.6563, 1.6491, 1.6598, 1.6531, 1.6551, 1.6574,1.6551, 1.6501, 1.6533, 1.6569, 1.6557, 1.6538,1.6538
SingleSource/Benchmarks/Polybench/datamining/covariance/covariance, 1.6325, 1.6438, 1.6435, 1.6502, 1.6376,1.6435, 1.6469, 1.6485, 1.6377, 1.6378, 1.6432,1.6432, 1.6434, 1.6399, 1.6535, 1.6541, 1.6450,1.645, 1.6510, 1.6493, 1.6529, 1.6481, 1.6413,1.6493
SingleSource/Benchmarks/Polybench/linear-algebra/kernels/atax/atax, 0.1705, 0.1705, 0.1706, 0.1705, 0.1705,0.1705, 0.1705, 0.1703, 0.1705, 0.1705, 0.1705,0.1705, 0.1706, 0.1707, 0.1705, 0.1706, 0.1705,0.1706, 0.1705, 0.1707, 0.1706, 0.1706, 0.1705,0.1706
SingleSource/Benchmarks/Polybench/linear-algebra/kernels/bicg/bicg, 0.2127, 0.2129, 0.2127, 0.2129, 0.2128,0.2128, 0.2129, 0.2128, 0.2128, 0.2128, 0.2128,0.2128, 0.2128, 0.2128, 0.2128, 0.2128, 0.2128,0.2128, 0.2127, 0.2129, 0.2128, 0.2128, 0.2127,0.2128
SingleSource/Benchmarks/Polybench/linear-algebra/kernels/cholesky/cholesky, 0.5676, 0.5697, 0.5731, 0.5719, 0.5652,0.5697, 0.5728, 0.5703, 0.5714, 0.5647, 0.5730,0.5714, 0.5702, 0.5671, 0.5689, 0.5728, 0.5658,0.5689, 0.5676, 0.5699, 0.5682, 0.5725, 0.5712,0.5699
SingleSource/Benchmarks/Polybench/linear-algebra/kernels/doitgen/doitgen, 0.7915, 0.7904, 0.7907, 0.7919, 0.7905,0.7907, 0.7905, 0.7905, 0.8009, 0.7920, 0.7923,0.792, 0.7920, 0.7907, 0.7908, 0.7907, 0.7906,0.7907, 0.7979, 0.7907, 0.8005, 0.7989, 0.7905,0.7979
SingleSource/Benchmarks/Polybench/linear-algebra/kernels/gemver/gemver, 0.3244, 0.3283, 0.3239, 0.3185, 0.3238,0.3239, 0.3190, 0.3283, 0.3287, 0.3181, 0.3238,0.3238, 0.3190, 0.3189, 0.3182, 0.3245, 0.3237,0.319, 0.3232, 0.3192, 0.3192, 0.3238, 0.3236,0.3232
SingleSource/Benchmarks/Polybench/linear-algebra/kernels/gesummv/gesummv, 0.3065, 0.3065, 0.3067, 0.3066, 0.3064,0.3065, 0.3067, 0.3065, 0.3065, 0.3066, 0.3065,0.3065, 0.3065, 0.3066, 0.3065, 0.3065, 0.3064,0.3065, 0.3066, 0.3067, 0.3065, 0.3065, 0.3067,0.3066
SingleSource/Benchmarks/Polybench/linear-algebra/kernels/mvt/mvt, 0.2430, 0.2466, 0.2461, 0.2471, 0.2417,0.2461, 0.2466, 0.2463, 0.2418, 0.2431, 0.2467,0.2463, 0.2418, 0.2420, 0.2482, 0.2484, 0.2415,0.242, 0.2469, 0.2465, 0.2418, 0.2463, 0.2467,0.2465
SingleSource/Benchmarks/Polybench/linear-algebra/kernels/symm/symm,17.6997,17.6434,17.1881,17.3628,17.4134,17.4134,17.6927,16.8868,17.4404,17.5054,17.6621,17.5054,17.5871,17.1667,17.6221,17.7001,17.3254,17.5871,17.5113,17.2021,17.5451,17.5685,17.8390,17.5451
SingleSource/Benchmarks/Polybench/linear-algebra/kernels/syr2k/syr2k, 8.7803, 8.7825, 8.7804, 8.7793, 8.7820,8.7804, 8.7809, 8.7803, 8.7776, 8.7825, 8.7798,8.7803, 8.7821, 8.7786, 8.7823, 8.7823, 8.7810,8.7821, 8.7809, 8.7780, 8.7820, 8.7806, 8.7813,8.7809
SingleSource/Benchmarks/Polybench/linear-algebra/kernels/syrk/syrk, 4.4131, 4.4128, 4.4139, 4.4135, 4.4136,4.4135, 4.4123, 4.4134, 4.4132, 4.4134, 4.4131,4.4132, 4.4137, 4.4122, 4.4138, 4.4149, 4.4130,4.4137, 4.4140, 4.4123, 4.4137, 4.4134, 4.4137,4.4137
SingleSource/Benchmarks/Polybench/linear-algebra/kernels/trisolv/trisolv, 0.1738, 0.1737, 0.1737, 0.1738, 0.1737,0.1737, 0.1738, 0.1737, 0.1737, 0.1737, 0.1640,0.1737, 0.1736, 0.1738, 0.1737, 0.1776, 0.1738,0.1738, 0.1737, 0.1737, 0.1737, 0.1737, 0.1736,0.1737
SingleSource/Benchmarks/Polybench/linear-algebra/kernels/trmm/trmm, 2.2413, 2.3631, 2.3649, 2.3617, 2.3481,2.3617, 2.3487, 2.3609, 2.3483, 2.2359, 2.3628,2.3487, 2.3650, 2.2518, 2.2485, 2.4222, 2.2372,2.2518, 2.2314, 2.3537, 2.2529, 2.3503, 2.2498,2.2529
SingleSource/Benchmarks/Polybench/linear-algebra/solvers/durbin/durbin, 0.4076, 0.3979, 0.4074, 0.3977, 0.3979,0.3979, 0.4083, 0.3986, 0.3983, 0.4080, 0.3985,0.3986, 0.3973, 0.3978, 0.3981, 0.4067, 0.3985,0.3981, 0.4077, 0.4072, 0.4079, 0.3983, 0.3986,0.4072
SingleSource/Benchmarks/Polybench/linear-algebra/solvers/dynprog/dynprog, 0.2810, 0.2803, 0.2811, 0.2804, 0.2810,0.281, 0.2808, 0.2805, 0.2807, 0.2804, 0.2803,0.2805, 0.2812, 0.2807, 0.2809, 0.2807, 0.2804,0.2807, 0.2802, 0.2800, 0.2810, 0.2800, 0.2808,0.2802
SingleSource/Benchmarks/Polybench/linear-algebra/solvers/gramschmidt/gramschmidt, 1.6302, 1.5925, 1.6110, 1.5591, 1.4886,1.5925, 1.5947, 1.6270, 1.5242, 1.4904, 1.5458,1.5458, 1.6694, 1.5415, 1.5127, 1.5056, 1.5155,1.5155, 1.6256, 1.5100, 1.7223, 1.5300, 1.5620,1.562
SingleSource/Benchmarks/Polybench/linear-algebra/solvers/lu/lu, 0.0023, 0.0023, 0.0023, 0.0023, 0.0023,0.0023, 0.0023, 0.0023, 0.0023, 0.0023, 0.0023,0.0023, 0.0023, 0.0023, 0.0023, 0.0023, 0.0023,0.0023, 0.0023, 0.0023, 0.0023, 0.0023, 0.0022,0.0023
SingleSource/Benchmarks/Polybench/medley/floyd-warshall/floyd-warshall, 3.4404, 3.4419, 3.4333, 3.4400, 3.4428,3.4404, 3.4367, 3.4416, 3.4414, 3.4363, 3.4385,3.4385, 3.4414, 3.4348, 3.4424, 3.5284, 3.4460,3.4424, 3.4435, 3.4366, 3.4387, 3.4393, 3.4351,3.4387
SingleSource/Benchmarks/Polybench/medley/reg_detect/reg_detect, 0.0175, 0.0176, 0.0175, 0.0175, 0.0175,0.0175, 0.0175, 0.0175, 0.0175, 0.0175, 0.0175,0.0175, 0.0175, 0.0175, 0.0175, 0.0174, 0.0175,0.0175, 0.0175, 0.0175, 0.0175, 0.0175, 0.0175,0.0175
SingleSource/Benchmarks/Polybench/stencils/adi/adi, 2.7996, 2.7998, 2.7988, 2.7999, 2.7994,2.7996, 2.7989, 2.7995, 2.7998, 2.7987, 2.7981,2.7989, 2.7994, 2.7995, 2.7988, 2.7972, 2.7985,2.7988, 2.7989, 2.8000, 2.7996, 2.7986, 2.7997,2.7996
SingleSource/Benchmarks/Polybench/stencils/fdtd-2d/fdtd-2d, 0.4036, 0.4055, 0.4046, 0.4025, 0.4043,0.4043, 0.4058, 0.4054, 0.4016, 0.4099, 0.4002,0.4054, 0.4045, 0.4061, 0.4064, 0.4071, 0.4053,0.4061, 0.4025, 0.4085, 0.4065, 0.4021, 0.4074,0.4065
SingleSource/Benchmarks/Polybench/stencils/fdtd-apml/fdtd-apml, 0.7220, 0.7251, 0.7233, 0.7230, 0.7223,0.723, 0.7241, 0.7388, 0.7291, 0.7283, 0.7227,0.7283, 0.7364, 0.7224, 0.7210, 0.7380, 0.7241,0.7241, 0.7247, 0.7210, 0.7245, 0.7233, 0.7220,0.7233
SingleSource/Benchmarks/Polybench/stencils/jacobi-1d-imper/jacobi-1d-imper, 0.0037, 0.0038, 0.0037, 0.0036, 0.0037,0.0037, 0.0037, 0.0038, 0.0038, 0.0037, 0.0037,0.0037, 0.0037, 0.0037, 0.0037, 0.0038, 0.0037,0.0037, 0.0037, 0.0037, 0.0037, 0.0037, 0.0037,0.0037
SingleSource/Benchmarks/Polybench/stencils/jacobi-2d-imper/jacobi-2d-imper, 0.1433, 0.1441, 0.1460, 0.1448, 0.1437,0.1441, 0.1434, 0.1462, 0.1435, 0.1440, 0.1432,0.1435, 0.1435, 0.1453, 0.1434, 0.1449, 0.1438,0.1438, 0.1434, 0.1444, 0.1439, 0.1450, 0.1434,0.1439
SingleSource/Benchmarks/Polybench/stencils/seidel-2d/seidel-2d, 0.6474, 0.6473, 0.6473, 0.6473, 0.6473,0.6473, 0.6473, 0.6474, 0.6473, 0.6473, 0.6473,0.6473, 0.6473, 0.6473, 0.6473, 0.6632, 0.6473,0.6473, 0.6473, 0.6474, 0.6474, 0.6474, 0.6474,0.6474
SingleSource/Benchmarks/Shootout-C++/EH/except, 0.1205, 0.1201, 0.1202, 0.1209, 0.1205,0.1205, 0.1202, 0.1204, 0.1203, 0.1209, 0.1205,0.1204, 0.1209, 0.1205, 0.1208, 0.1208, 0.1206,0.1208, 0.1206, 0.1210, 0.1203, 0.1203, 0.1206,0.1206
SingleSource/Benchmarks/Shootout-C++/ackermann, 0.6574, 0.6573, 0.6573, 0.6573, 0.6573,0.6573, 0.6573, 0.6573, 0.6572, 0.6574, 0.6574,0.6573, 0.6574, 0.6574, 0.6574, 0.6573, 0.6573,0.6574, 0.6573, 0.6573, 0.6573, 0.6573, 0.6573,0.6573
SingleSource/Benchmarks/Shootout-C++/ary, 0.0142, 0.0143, 0.0142, 0.0143, 0.0143,0.0143, 0.0143, 0.0143, 0.0142, 0.0143, 0.0142,0.0143, 0.0142, 0.0144, 0.0143, 0.0142, 0.0142,0.0142, 0.0143, 0.0142, 0.0143, 0.0143, 0.0142,0.0143
SingleSource/Benchmarks/Shootout-C++/ary2, 0.0150, 0.0150, 0.0150, 0.0151, 0.0151,0.015, 0.0150, 0.0150, 0.0150, 0.0150, 0.0150,0.015, 0.0151, 0.0151, 0.0150, 0.0150, 0.0150,0.015, 0.0150, 0.0150, 0.0150, 0.0150, 0.0150,0.015
SingleSource/Benchmarks/Shootout-C++/ary3, 0.5417, 0.5431, 0.5356, 0.5339, 0.5351,0.5356, 0.5499, 0.5364, 0.5406, 0.5398, 0.5434,0.5406, 0.5347, 0.5343, 0.5420, 0.5432, 0.5403,0.5403, 0.5372, 0.5385, 0.5364, 0.5328, 0.5440,0.5372
SingleSource/Benchmarks/Shootout-C++/fibo, 1.4751, 1.4733, 1.4739, 1.4736, 1.4735,1.4736, 1.4729, 1.4748, 1.4745, 1.4739, 1.4738,1.4739, 1.4724, 1.4729, 1.4747, 1.4727, 1.4767,1.4729, 1.4724, 1.4749, 1.4730, 1.4730, 1.4745,1.473
SingleSource/Benchmarks/Shootout-C++/hash, 0.3228, 0.3212, 0.3214, 0.3220, 0.3216,0.3216, 0.3213, 0.3237, 0.3231, 0.3224, 0.3220,0.3224, 0.3217, 0.3220, 0.3229, 0.3245, 0.3226,0.3226, 0.3219, 0.3226, 0.3223, 0.3224, 0.3222,0.3223
SingleSource/Benchmarks/Shootout-C++/hash2, 1.7362, 1.7346, 1.7364, 1.7367, 1.7341,1.7362, 1.7368, 1.7368, 1.7371, 1.7345, 1.7363,1.7368, 1.7352, 1.7345, 1.7341, 1.7342, 1.7371,1.7345, 1.7364, 1.7365, 1.7366, 1.7357, 1.7353,1.7364
SingleSource/Benchmarks/Shootout-C++/heapsort, 2.0369, 2.0464, 2.0376, 2.0351, 2.0374,2.0374, 2.0366, 2.0389, 2.0376, 2.0388, 2.0481,2.0388, 2.0367, 2.0554, 2.0356, 2.0490, 2.0531,2.049, 2.0468, 2.0367, 2.0370, 2.0377, 2.0364,2.037
SingleSource/Benchmarks/Shootout-C++/lists, 2.9675, 2.9788, 2.9739, 2.9646, 2.9744,2.9739, 2.9811, 2.9743, 2.9734, 2.9640, 2.9698,2.9734, 2.9710, 2.9775, 2.9763, 2.9808, 2.9807,2.9775, 2.9734, 2.9819, 2.9765, 2.9688, 2.9635,2.9734
SingleSource/Benchmarks/Shootout-C++/lists1, 0.1326, 0.1329, 0.1327, 0.1319, 0.1334,0.1327, 0.1332, 0.1330, 0.1324, 0.1327, 0.1321,0.1327, 0.1313, 0.1316, 0.1327, 0.1331, 0.1318,0.1318, 0.1310, 0.1335, 0.1334, 0.1302, 0.1325,0.1325
SingleSource/Benchmarks/Shootout-C++/matrix, 1.6994, 1.6994, 1.6993, 1.6993, 1.6994,1.6994, 1.6993, 1.6994, 1.7079, 1.6994, 1.6994,1.6994, 1.6993, 1.6992, 1.6992, 1.6993, 1.6992,1.6992, 1.6994, 1.6994, 1.6992, 1.7079, 1.6994,1.6994
SingleSource/Benchmarks/Shootout-C++/methcall, 3.5509, 3.5508, 3.5459, 3.5459, 3.5459,3.5459, 3.5509, 3.5507, 3.5509, 3.5460, 3.5509,3.5509, 3.5460, 3.5459, 3.5508, 3.5458, 3.5509,3.546, 3.5459, 3.5509, 3.5459, 3.5508, 3.5509,3.5508
SingleSource/Benchmarks/Shootout-C++/moments, 0.0506, 0.0504, 0.0506, 0.0506, 0.0505,0.0506, 0.0506, 0.0506, 0.0507, 0.0506, 0.0505,0.0506, 0.0504, 0.0507, 0.0505, 0.0505, 0.0504,0.0505, 0.0505, 0.0505, 0.0505, 0.0505, 0.0505,0.0505
SingleSource/Benchmarks/Shootout-C++/nestedloop, 0.0009, 0.0010, 0.0010, 0.0009, 0.0009,0.0009, 0.0009, 0.0009, 0.0009, 0.0009, 0.0010,0.0009, 0.0009, 0.0009, 0.0009, 0.0009, 0.0009,0.0009, 0.0009, 0.0009, 0.0009, 0.0009, 0.0009,0.0009
SingleSource/Benchmarks/Shootout-C++/objinst, 0.0009, 0.0009, 0.0010, 0.0009, 0.0010,0.0009, 0.0009, 0.0009, 0.0009, 0.0010, 0.0008,0.0009, 0.0010, 0.0009, 0.0009, 0.0009, 0.0009,0.0009, 0.0010, 0.0009, 0.0009, 0.0010, 0.0009,0.0009
SingleSource/Benchmarks/Shootout-C++/random, 1.7450, 1.7449, 1.7450, 1.7450, 1.7450,1.745, 1.7450, 1.7450, 1.7450, 1.7450, 1.7450,1.745, 1.7450, 1.7450, 1.7450, 1.7449, 1.7450,1.745, 1.7449, 1.7450, 1.7450, 1.7449, 1.7449,1.7449
SingleSource/Benchmarks/Shootout-C++/sieve, 1.3083, 1.3338, 1.2505, 1.3827, 1.3219,1.3219, 1.2300, 1.2981, 1.3406, 1.2668, 1.2710,1.271, 1.2708, 1.3370, 1.2895, 1.3529, 1.2533,1.2895, 1.2689, 1.3226, 1.2787, 1.3360, 1.2931,1.2931
SingleSource/Benchmarks/Shootout-C++/strcat, 0.0406, 0.0404, 0.0406, 0.0406, 0.0405,0.0406, 0.0406, 0.0406, 0.0406, 0.0406, 0.0406,0.0406, 0.0406, 0.0406, 0.0406, 0.0406, 0.0406,0.0406, 0.0406, 0.0406, 0.0407, 0.0407, 0.0405,0.0406
SingleSource/Benchmarks/Shootout/ackermann, 0.0035, 0.0035, 0.0035, 0.0035, 0.0035,0.0035, 0.0035, 0.0035, 0.0034, 0.0035, 0.0035,0.0035, 0.0035, 0.0035, 0.0035, 0.0035, 0.0034,0.0035, 0.0035, 0.0035, 0.0035, 0.0035, 0.0035,0.0035
SingleSource/Benchmarks/Shootout/ary3, 0.5930, 0.5884, 0.5879, 0.5976, 0.5899,0.5899, 0.5993, 0.5972, 0.5883, 0.5899, 0.6000,0.5972, 0.5858, 0.5884, 0.5971, 0.5899, 0.5880,0.5884, 0.5860, 0.5916, 0.5941, 0.5869, 0.5887,0.5887
SingleSource/Benchmarks/Shootout/fib2, 1.4728, 1.4726, 1.4738, 1.4729, 1.4732,1.4729, 1.4731, 1.4724, 1.4724, 1.4736, 1.4740,1.4731, 1.4744, 1.4720, 1.4741, 1.4729, 1.4730,1.473, 1.4728, 1.4729, 1.4730, 1.4742, 1.4730,1.473
SingleSource/Benchmarks/Shootout/hash, 2.7552, 2.7520, 2.7493, 2.7722, 2.7605,2.7552, 2.7603, 2.7547, 2.7511, 2.7654, 2.7542,2.7547, 2.7700, 2.7640, 2.7554, 2.7691, 2.7541,2.764, 2.7560, 2.7743, 2.7722, 2.7612, 2.7624,2.7624
SingleSource/Benchmarks/Shootout/heapsort, 2.0329, 2.0195, 2.0209, 2.0374, 2.0366,2.0329, 2.0392, 2.0278, 2.0228, 2.0251, 2.0213,2.0251, 2.0270, 2.0241, 2.0212, 2.0369, 2.0325,2.027, 2.0310, 2.0167, 2.0371, 2.0234, 2.0235,2.0235
SingleSource/Benchmarks/Shootout/lists, 4.1167, 4.1178, 4.1159, 4.1160, 4.1164,4.1164, 4.1175, 4.1176, 4.1177, 4.1168, 4.1184,4.1176, 4.1161, 4.1192, 4.1178, 4.1168, 4.1168,4.1168, 4.1165, 4.1178, 4.1166, 4.1190, 4.1185,4.1178
SingleSource/Benchmarks/Shootout/matrix, 1.0906, 1.0908, 1.0906, 1.0906, 1.0906,1.0906, 1.0906, 1.0903, 1.0905, 1.0905, 1.0905,1.0905, 1.0904, 1.0908, 1.0908, 1.0906, 1.0905,1.0906, 1.0909, 1.0906, 1.0906, 1.0906, 1.0907,1.0906
SingleSource/Benchmarks/Shootout/methcall, 3.2759, 3.2759, 3.2762, 3.2759, 3.2761,3.2759, 3.2762, 3.2761, 3.2763, 3.2763, 3.2766,3.2763, 3.2763, 3.2766, 3.2761, 3.2763, 3.2760,3.2763, 3.2762, 3.2759, 3.2761, 3.2763, 3.2761,3.2761
SingleSource/Benchmarks/Shootout/nestedloop, 0.0009, 0.0009, 0.0009, 0.0009, 0.0009,0.0009, 0.0009, 0.0009, 0.0009, 0.0009, 0.0009,0.0009, 0.0008, 0.0009, 0.0009, 0.0009, 0.0009,0.0009, 0.0009, 0.0009, 0.0009, 0.0009, 0.0008,0.0009
SingleSource/Benchmarks/Shootout/objinst, 0.0009, 0.0009, 0.0009, 0.0009, 0.0009,0.0009, 0.0009, 0.0009, 0.0009, 0.0009, 0.0009,0.0009, 0.0009, 0.0009, 0.0009, 0.0009, 0.0009,0.0009, 0.0009, 0.0009, 0.0009, 0.0009, 0.0009,0.0009
SingleSource/Benchmarks/Shootout/random, 1.7449, 1.7449, 1.7449, 1.7449, 1.7449,1.7449, 1.7449, 1.7449, 1.7449, 1.7449, 1.7449,1.7449, 1.7448, 1.7449, 1.7449, 1.7448, 1.7449,1.7449, 1.7449, 1.7449, 1.7449, 1.7449, 1.7449,1.7449
SingleSource/Benchmarks/Shootout/sieve, 3.4659, 3.4676, 3.4666, 3.4663, 3.4689,3.4666, 3.4673, 3.4677, 3.4662, 3.4675, 3.4677,3.4675, 3.4682, 3.4692, 3.4675, 3.4689, 3.4674,3.4682, 3.4675, 3.4691, 3.4682, 3.4661, 3.4675,3.4675
SingleSource/Benchmarks/Shootout/strcat, 0.1051, 0.1053, 0.1052, 0.1053, 0.1053,0.1053, 0.1051, 0.1053, 0.1051, 0.1052, 0.1051,0.1051, 0.1052, 0.1052, 0.1053, 0.1051, 0.1051,0.1052, 0.1052, 0.1051, 0.1053, 0.1053, 0.1053,0.1053
SingleSource/Benchmarks/SmallPT/smallpt, 7.5908, 7.5909, 7.5890, 7.5934, 7.5923,7.5909, 7.5904, 7.5924, 7.5909, 7.5902, 7.5936,7.5909, 7.5906, 7.5902, 7.5905, 7.5910, 7.5906,7.5906, 7.5895, 7.5924, 7.5915, 7.5904, 7.5910,7.591
SingleSource/Benchmarks/Stanford/Bubblesort, 0.0161, 0.0160, 0.0161, 0.0161, 0.0161,0.0161, 0.0161, 0.0161, 0.0161, 0.0161, 0.0161,0.0161, 0.0160, 0.0161, 0.0161, 0.0161, 0.0160,0.0161, 0.0161, 0.0161, 0.0160, 0.0161, 0.0161,0.0161
SingleSource/Benchmarks/Stanford/FloatMM, 0.2021, 0.2022, 0.2022, 0.2019, 0.2021,0.2021, 0.2023, 0.2022, 0.2021, 0.2021, 0.2021,0.2021, 0.2021, 0.2021, 0.2022, 0.2021, 0.2022,0.2021, 0.2022, 0.2021, 0.2020, 0.2021, 0.2022,0.2021
SingleSource/Benchmarks/Stanford/Oscar, 0.0034, 0.0034, 0.0034, 0.0034, 0.0032,0.0034, 0.0035, 0.0034, 0.0034, 0.0034, 0.0034,0.0034, 0.0034, 0.0034, 0.0034, 0.0034, 0.0034,0.0034, 0.0034, 0.0034, 0.0034, 0.0033, 0.0032,0.0034
SingleSource/Benchmarks/Stanford/Perm, 0.0147, 0.0147, 0.0147, 0.0147, 0.0147,0.0147, 0.0147, 0.0147, 0.0147, 0.0147, 0.0147,0.0147, 0.0147, 0.0147, 0.0147, 0.0147, 0.0147,0.0147, 0.0146, 0.0147, 0.0147, 0.0147, 0.0147,0.0147
SingleSource/Benchmarks/Stanford/Puzzle, 0.0773, 0.0773, 0.0773, 0.0773, 0.0773,0.0773, 0.0773, 0.0773, 0.0773, 0.0772, 0.0773,0.0773, 0.0773, 0.0773, 0.0772, 0.0773, 0.0773,0.0773, 0.0774, 0.0773, 0.0772, 0.0773, 0.0772,0.0773
SingleSource/Benchmarks/Stanford/Queens, 0.0077, 0.0076, 0.0078, 0.0078, 0.0078,0.0078, 0.0077, 0.0076, 0.0077, 0.0077, 0.0078,0.0077, 0.0078, 0.0077, 0.0078, 0.0077, 0.0077,0.0077, 0.0078, 0.0078, 0.0079, 0.0078, 0.0076,0.0078
SingleSource/Benchmarks/Stanford/Quicksort, 0.0303, 0.0303, 0.0303, 0.0304, 0.0304,0.0303, 0.0303, 0.0303, 0.0304, 0.0304, 0.0303,0.0303, 0.0302, 0.0303, 0.0303, 0.0304, 0.0303,0.0303, 0.0303, 0.0303, 0.0303, 0.0304, 0.0302,0.0303
SingleSource/Benchmarks/Stanford/RealMM, 0.0016, 0.0016, 0.0015, 0.0016, 0.0016,0.0016, 0.0015, 0.0016, 0.0016, 0.0016, 0.0016,0.0016, 0.0015, 0.0016, 0.0016, 0.0016, 0.0016,0.0016, 0.0015, 0.0015, 0.0015, 0.0015, 0.0016,0.0015
SingleSource/Benchmarks/Stanford/Towers, 0.0082, 0.0082, 0.0082, 0.0082, 0.0082,0.0082, 0.0082, 0.0082, 0.0082, 0.0082, 0.0082,0.0082, 0.0082, 0.0082, 0.0082, 0.0082, 0.0082,0.0082, 0.0081, 0.0082, 0.0082, 0.0082, 0.0082,0.0082
SingleSource/Benchmarks/Stanford/Treesort, 0.0548, 0.0547, 0.0547, 0.0547, 0.0548,0.0547, 0.0547, 0.0548, 0.0547, 0.0546, 0.0548,0.0547, 0.0547, 0.0548, 0.0548, 0.0546, 0.0547,0.0547, 0.0546, 0.0548, 0.0547, 0.0546, 0.0545,0.0546
SingleSource/Regression/C/2004-08-12-InlinerAndAllocas, 0.0015, 0.0015, 0.0015, 0.0014, 0.0015,0.0015, 0.0015, 0.0015, 0.0015, 0.0015, 0.0015,0.0015, 0.0015, 0.0014, 0.0015, 0.0015, 0.0015,0.0015, 0.0013, 0.0015, 0.0015, 0.0015, 0.0015,0.0015
SingleSource/Regression/C/uint64_to_float, 0.2603, 0.2602, 0.2603, 0.2602, 0.2603,0.2603, 0.2603, 0.2603, 0.2602, 0.2603, 0.2603,0.2603, 0.2603, 0.2603, 0.2602, 0.2603, 0.2602,0.2603, 0.2602, 0.2603, 0.2603, 0.2603, 0.2603,0.2603
Total elapsed time,-,-,-,-,-,573.8451000000006,-,-,-,-,-,573.6988000000002,-,-,-,-,-,573.6098000000006,-,-,-,-,-,573.6699000000001
Total failure,-,-,-,-,-,0,-,-,-,-,-,0,-,-,-,-,-,0,-,-,-,-,-,0
