Benchmarks,/mnt/freezedisk/llvm-intptr-insts-opt-noprov-5.0-release/bin/clang,/mnt/freezedisk/llvm-intptr-insts-opt-noprov-5.0-release/bin/clang,/mnt/freezedisk/llvm-intptr-insts-opt-noprov-5.0-release/bin/clang,median,/mnt/freezedisk/llvm-intptr-nocapture-opt-noprov-5.0-release/bin/clang,/mnt/freezedisk/llvm-intptr-nocapture-opt-noprov-5.0-release/bin/clang,/mnt/freezedisk/llvm-intptr-nocapture-opt-noprov-5.0-release/bin/clang,median
MultiSource/Applications/ALAC/decode/alacconvert-decode, 0.9355, 0.9362, 0.9346,0.9355, 0.9431, 0.9404, 0.9469,0.9431
MultiSource/Applications/ALAC/encode/alacconvert-encode, 0.9232, 0.9228, 0.9233,0.9232, 0.9258, 0.9247, 0.9241,0.9247
MultiSource/Applications/ClamAV/clamscan,14.2489,14.2276,14.2272,14.2276,14.2406,14.2485,14.2543,14.2485
MultiSource/Applications/JM/ldecod/ldecod, 6.2358, 6.2115, 6.2139,6.2139, 6.2403, 6.2537, 6.2357,6.2403
MultiSource/Applications/JM/lencod/lencod,14.6152,14.6099,14.6181,14.6152,14.6512,14.6483,14.6440,14.6483
MultiSource/Applications/SIBsim4/SIBsim4, 1.1536, 1.1342, 1.1346,1.1346, 1.1377, 1.1518, 1.1361,1.1377
MultiSource/Applications/SPASS/SPASS,11.9565,11.9444,11.9532,11.9532,11.9856,11.9711,11.9803,11.9803
MultiSource/Applications/aha/aha, 0.1061, 0.1073, 0.1040,0.1061, 0.1066, 0.1003, 0.1010,0.101
MultiSource/Applications/d/make_dparser, 2.5811, 2.5673, 2.5752,2.5752, 2.5846, 2.5830, 2.5771,2.583
MultiSource/Applications/hbd/hbd, 1.1597, 1.1582, 1.1626,1.1597, 1.1681, 1.1647, 1.1594,1.1647
MultiSource/Applications/hexxagon/hexxagon, 0.6533, 0.6528, 0.6536,0.6533, 0.6550, 0.6554, 0.6536,0.655
MultiSource/Applications/kimwitu++/kc,10.9045,10.9361,10.9049,10.9049,10.9622,10.9203,10.9387,10.9387
MultiSource/Applications/lambda-0.1.3/lambda, 0.5419, 0.5416, 0.5425,0.5419, 0.5439, 0.5434, 0.5443,0.5439
MultiSource/Applications/lua/lua, 3.1839, 3.1889, 3.1929,3.1889, 3.1852, 3.1873, 3.1852,3.1852
MultiSource/Applications/minisat/minisat, 0.6179, 0.6121, 0.6107,0.6121, 0.6067, 0.6191, 0.6094,0.6094
MultiSource/Applications/obsequi/Obsequi, 0.9471, 0.9457, 0.9547,0.9471, 0.9499, 0.9492, 0.9557,0.9499
MultiSource/Applications/oggenc/oggenc, 4.7839, 4.7819, 4.7928,4.7839, 4.8128, 4.7915, 4.7997,4.7997
MultiSource/Applications/sgefa/sgefa, 0.3829, 0.3825, 0.3827,0.3827, 0.3845, 0.3838, 0.3894,0.3845
MultiSource/Applications/siod/siod, 1.9267, 1.9281, 1.9250,1.9267, 1.9238, 1.9453, 1.9279,1.9279
MultiSource/Applications/spiff/spiff, 0.7338, 0.7311, 0.7355,0.7338, 0.7302, 0.7319, 0.7305,0.7305
MultiSource/Applications/sqlite3/sqlite3,14.5750,14.5370,14.5235,14.537,14.6066,14.5745,14.5813,14.5813
MultiSource/Applications/viterbi/viterbi, 0.1621, 0.1621, 0.1621,0.1621, 0.1626, 0.1624, 0.1621,0.1624
MultiSource/Benchmarks/7zip/7zip-benchmark,33.4298,33.3962,33.4107,33.4107,33.5494,33.5197,33.5115,33.5197
MultiSource/Benchmarks/ASCI_Purple/SMG2000/smg2000, 5.5664, 5.5570, 5.5635,5.5635, 5.5899, 5.5816, 5.5781,5.5816
MultiSource/Benchmarks/ASC_Sequoia/AMGmk/AMGmk, 0.5804, 0.5749, 0.5749,0.5749, 0.5782, 0.5856, 0.5864,0.5856
MultiSource/Benchmarks/ASC_Sequoia/CrystalMk/CrystalMk, 0.2137, 0.2136, 0.2375,0.2137, 0.2148, 0.2138, 0.2137,0.2138
MultiSource/Benchmarks/ASC_Sequoia/IRSmk/IRSmk, 0.0989, 0.0990, 0.0991,0.099, 0.0988, 0.0988, 0.0987,0.0988
MultiSource/Benchmarks/BitBench/drop3/drop3, 0.0418, 0.0418, 0.0418,0.0418, 0.0418, 0.0418, 0.0417,0.0418
MultiSource/Benchmarks/BitBench/five11/five11, 0.0525, 0.0524, 0.0525,0.0525, 0.0525, 0.0525, 0.0524,0.0525
MultiSource/Benchmarks/BitBench/uudecode/uudecode, 0.0423, 0.0424, 0.0422,0.0423, 0.0426, 0.0424, 0.0424,0.0424
MultiSource/Benchmarks/BitBench/uuencode/uuencode, 0.0417, 0.0416, 0.0416,0.0416, 0.0417, 0.0417, 0.0416,0.0417
MultiSource/Benchmarks/Bullet/bullet,22.6881,22.6740,22.6843,22.6843,22.7643,22.7688,22.6839,22.7643
MultiSource/Benchmarks/DOE-ProxyApps-C++/CLAMR/CLAMR,17.5812,17.5663,17.5804,17.5804,17.6251,17.5922,17.5932,17.5932
MultiSource/Benchmarks/DOE-ProxyApps-C++/HPCCG/HPCCG, 1.3765, 1.3771, 1.3775,1.3771, 1.3799, 1.3789, 1.3802,1.3799
MultiSource/Benchmarks/DOE-ProxyApps-C++/PENNANT/PENNANT, 4.0033, 4.0027, 4.0070,4.0033, 4.0155, 4.0096, 4.0093,4.0096
MultiSource/Benchmarks/DOE-ProxyApps-C++/miniFE/miniFE, 2.5244, 2.5231, 2.5257,2.5244, 2.5276, 2.5332, 2.5308,2.5308
MultiSource/Benchmarks/DOE-ProxyApps-C/Pathfinder/PathFinder, 0.7943, 0.7937, 0.7964,0.7943, 0.7971, 0.7907, 0.7977,0.7971
MultiSource/Benchmarks/DOE-ProxyApps-C/RSBench/rsbench, 0.3959, 0.3923, 0.3926,0.3926, 0.3955, 0.3963, 0.4025,0.3963
MultiSource/Benchmarks/DOE-ProxyApps-C/SimpleMOC/SimpleMOC, 0.8470, 0.8458, 0.8477,0.847, 0.8496, 0.8483, 0.8480,0.8483
MultiSource/Benchmarks/DOE-ProxyApps-C/XSBench/XSBench, 0.3423, 0.3421, 0.3424,0.3423, 0.3444, 0.3438, 0.3441,0.3441
MultiSource/Benchmarks/DOE-ProxyApps-C/miniAMR/miniAMR, 1.3184, 1.3171, 1.3184,1.3184, 1.3236, 1.3219, 1.3231,1.3231
MultiSource/Benchmarks/DOE-ProxyApps-C/miniGMG/miniGMG, 0.9583, 0.9570, 0.9587,0.9583, 0.9586, 0.9584, 0.9585,0.9585
MultiSource/Benchmarks/Fhourstones-3.1/fhourstones3.1, 0.1152, 0.1149, 0.1150,0.115, 0.1152, 0.1153, 0.1153,0.1153
MultiSource/Benchmarks/Fhourstones/fhourstones, 0.1554, 0.1554, 0.1555,0.1554, 0.1561, 0.1559, 0.1558,0.1559
MultiSource/Benchmarks/FreeBench/analyzer/analyzer, 0.2324, 0.2324, 0.2321,0.2324, 0.2327, 0.2325, 0.2322,0.2325
MultiSource/Benchmarks/FreeBench/distray/distray, 0.0912, 0.0912, 0.0911,0.0912, 0.0918, 0.0916, 0.0917,0.0917
MultiSource/Benchmarks/FreeBench/fourinarow/fourinarow, 0.3336, 0.3336, 0.3333,0.3336, 0.3332, 0.3326, 0.3323,0.3326
MultiSource/Benchmarks/FreeBench/mason/mason, 0.0483, 0.0483, 0.0483,0.0483, 0.0484, 0.0484, 0.0484,0.0484
MultiSource/Benchmarks/FreeBench/neural/neural, 0.1744, 0.1741, 0.1743,0.1743, 0.1747, 0.1742, 0.1743,0.1743
MultiSource/Benchmarks/FreeBench/pcompress2/pcompress2, 0.2468, 0.2439, 0.2443,0.2443, 0.2489, 0.2497, 0.2495,0.2495
MultiSource/Benchmarks/FreeBench/pifft/pifft, 0.9156, 0.9142, 0.9148,0.9148, 0.9174, 0.9162, 0.9152,0.9162
MultiSource/Benchmarks/MallocBench/cfrac/cfrac, 0.8357, 0.8452, 0.8351,0.8357, 0.8400, 0.8398, 0.8386,0.8398
MultiSource/Benchmarks/MallocBench/espresso/espresso, 4.5189, 4.5067, 4.5135,4.5135, 4.5160, 4.5207, 4.5107,4.516
MultiSource/Benchmarks/MallocBench/gs/gs, 3.6352, 3.6354, 3.6343,3.6352, 3.6424, 3.6413, 3.6354,3.6413
MultiSource/Benchmarks/McCat/01-qbsort/qbsort, 0.1013, 0.1026, 0.0971,0.1013, 0.1039, 0.1034, 0.1012,0.1034
MultiSource/Benchmarks/McCat/03-testtrie/testtrie, 0.0871, 0.0867, 0.0868,0.0868, 0.0871, 0.0869, 0.0870,0.087
MultiSource/Benchmarks/McCat/04-bisect/bisect, 0.1247, 0.1246, 0.1246,0.1246, 0.1254, 0.1251, 0.1252,0.1252
MultiSource/Benchmarks/McCat/05-eks/eks, 0.5073, 0.5065, 0.5071,0.5071, 0.5095, 0.5085, 0.5084,0.5085
MultiSource/Benchmarks/McCat/08-main/main, 0.2347, 0.2346, 0.2350,0.2347, 0.2358, 0.2354, 0.2355,0.2355
MultiSource/Benchmarks/McCat/09-vor/vor, 0.2622, 0.2621, 0.2623,0.2622, 0.2631, 0.2626, 0.2626,0.2626
MultiSource/Benchmarks/McCat/12-IOtest/iotest, 0.0888, 0.0890, 0.0890,0.089, 0.0891, 0.0889, 0.0888,0.0889
MultiSource/Benchmarks/McCat/17-bintr/bintr, 0.0671, 0.0671, 0.0669,0.0671, 0.0671, 0.0671, 0.0672,0.0671
MultiSource/Benchmarks/McCat/18-imp/imp, 0.3213, 0.3212, 0.3213,0.3213, 0.3226, 0.3223, 0.3220,0.3223
MultiSource/Benchmarks/MiBench/automotive-basicmath/automotive-basicmath, 0.1386, 0.1386, 0.1387,0.1386, 0.1395, 0.1395, 0.1393,0.1395
MultiSource/Benchmarks/MiBench/automotive-bitcount/automotive-bitcount, 0.2449, 0.2450, 0.2446,0.2449, 0.2455, 0.2451, 0.2448,0.2451
MultiSource/Benchmarks/MiBench/automotive-susan/automotive-susan, 0.6356, 0.6300, 0.6342,0.6342, 0.6318, 0.6366, 0.6334,0.6334
MultiSource/Benchmarks/MiBench/consumer-jpeg/consumer-jpeg, 4.3310, 4.3282, 4.3329,4.331, 4.3435, 4.3399, 4.3377,4.3399
MultiSource/Benchmarks/MiBench/consumer-lame/consumer-lame, 3.8979, 3.8973, 3.8956,3.8973, 3.9098, 3.9044, 3.9068,3.9068
MultiSource/Benchmarks/MiBench/consumer-typeset/consumer-typeset, 9.6423, 9.6455, 9.6392,9.6423, 9.6606, 9.6616, 9.6508,9.6606
MultiSource/Benchmarks/MiBench/network-dijkstra/network-dijkstra, 0.0406, 0.0406, 0.0407,0.0406, 0.0408, 0.0408, 0.0408,0.0408
MultiSource/Benchmarks/MiBench/network-patricia/network-patricia, 0.0839, 0.0834, 0.0825,0.0834, 0.0809, 0.0820, 0.0806,0.0809
MultiSource/Benchmarks/MiBench/security-rijndael/security-rijndael, 0.3908, 0.3908, 0.3911,0.3908, 0.3895, 0.3894, 0.3890,0.3894
MultiSource/Benchmarks/MiBench/security-sha/security-sha, 0.1149, 0.1148, 0.1147,0.1148, 0.1148, 0.1150, 0.1148,0.1148
MultiSource/Benchmarks/MiBench/telecomm-CRC32/telecomm-CRC32, 0.0339, 0.0338, 0.0339,0.0339, 0.0338, 0.0339, 0.0339,0.0339
MultiSource/Benchmarks/MiBench/telecomm-FFT/telecomm-fft, 0.1357, 0.1356, 0.1356,0.1356, 0.1365, 0.1363, 0.1361,0.1363
MultiSource/Benchmarks/MiBench/telecomm-adpcm/telecomm-adpcm, 0.0531, 0.0671, 0.0532,0.0532, 0.0534, 0.0533, 0.0532,0.0533
MultiSource/Benchmarks/MiBench/telecomm-gsm/telecomm-gsm, 1.0051, 1.0063, 1.0111,1.0063, 1.0160, 1.0121, 1.0139,1.0139
MultiSource/Benchmarks/NPB-serial/is/is, 0.0634, 0.0632, 0.0634,0.0634, 0.0634, 0.0632, 0.0632,0.0632
MultiSource/Benchmarks/Olden/bh/bh, 0.2491, 0.2489, 0.2493,0.2491, 0.2508, 0.2499, 0.2496,0.2499
MultiSource/Benchmarks/Olden/bisort/bisort, 0.0610, 0.0611, 0.0611,0.0611, 0.0610, 0.0610, 0.0609,0.061
MultiSource/Benchmarks/Olden/em3d/em3d, 0.1690, 0.1693, 0.1692,0.1692, 0.1695, 0.1691, 0.1690,0.1691
MultiSource/Benchmarks/Olden/health/health, 0.1316, 0.1315, 0.1314,0.1315, 0.1326, 0.1319, 0.1320,0.132
MultiSource/Benchmarks/Olden/mst/mst, 0.1201, 0.1203, 0.1201,0.1201, 0.1202, 0.1202, 0.1200,0.1202
MultiSource/Benchmarks/Olden/perimeter/perimeter, 0.0741, 0.0742, 0.0743,0.0742, 0.0743, 0.0742, 0.0742,0.0742
MultiSource/Benchmarks/Olden/power/power, 0.1233, 0.1232, 0.1234,0.1233, 0.1240, 0.1238, 0.1238,0.1238
MultiSource/Benchmarks/Olden/treeadd/treeadd, 0.0521, 0.0522, 0.0522,0.0522, 0.0524, 0.0522, 0.0520,0.0522
MultiSource/Benchmarks/Olden/tsp/tsp, 0.1218, 0.1219, 0.1219,0.1219, 0.1225, 0.1217, 0.1220,0.122
MultiSource/Benchmarks/Olden/voronoi/voronoi, 0.2121, 0.2121, 0.2122,0.2121, 0.2102, 0.2098, 0.2101,0.2101
MultiSource/Benchmarks/PAQ8p/paq8p, 1.8889, 1.8852, 1.8864,1.8864, 1.8947, 1.8912, 1.8830,1.8912
MultiSource/Benchmarks/Prolangs-C++/city/city, 0.8853, 0.8865, 0.8845,0.8853, 0.8898, 0.8877, 0.8868,0.8877
MultiSource/Benchmarks/Prolangs-C++/employ/employ, 0.1961, 0.1962, 0.1969,0.1962, 0.1966, 0.1971, 0.1964,0.1966
MultiSource/Benchmarks/Prolangs-C++/life/life, 0.0583, 0.0582, 0.0584,0.0583, 0.0581, 0.0582, 0.0582,0.0582
MultiSource/Benchmarks/Prolangs-C++/ocean/ocean, 0.1065, 0.1064, 0.1068,0.1065, 0.1067, 0.1067, 0.1065,0.1067
MultiSource/Benchmarks/Prolangs-C++/primes/primes, 0.0239, 0.0239, 0.0238,0.0239, 0.0239, 0.0238, 0.0238,0.0238
MultiSource/Benchmarks/Prolangs-C++/simul/simul, 0.0512, 0.0513, 0.0515,0.0513, 0.0515, 0.0515, 0.0511,0.0515
MultiSource/Benchmarks/Prolangs-C/agrep/agrep, 1.3146, 1.3108, 1.3086,1.3108, 1.3156, 1.3168, 1.3204,1.3168
MultiSource/Benchmarks/Prolangs-C/bison/mybison, 1.5763, 1.5750, 1.5754,1.5754, 1.5800, 1.5784, 1.5780,1.5784
MultiSource/Benchmarks/Prolangs-C/gnugo/gnugo, 0.6962, 0.6965, 0.6959,0.6962, 0.6966, 0.6961, 0.6960,0.6961
MultiSource/Benchmarks/Ptrdist/anagram/anagram, 0.0977, 0.0973, 0.0976,0.0976, 0.0980, 0.0979, 0.0978,0.0979
MultiSource/Benchmarks/Ptrdist/bc/bc, 0.9851, 0.9841, 0.9844,0.9844, 0.9876, 0.9867, 0.9868,0.9868
MultiSource/Benchmarks/Ptrdist/ft/ft, 0.1996, 0.1996, 0.1998,0.1996, 0.2003, 0.2003, 0.1999,0.2003
MultiSource/Benchmarks/Ptrdist/ks/ks, 0.1412, 0.1410, 0.1412,0.1412, 0.1409, 0.1409, 0.1408,0.1409
MultiSource/Benchmarks/Ptrdist/yacr2/yacr2, 0.5929, 0.5917, 0.5921,0.5921, 0.5925, 0.5914, 0.5924,0.5924
MultiSource/Benchmarks/SciMark2-C/scimark2, 0.3568, 0.3576, 0.3569,0.3569, 0.3578, 0.3569, 0.3570,0.357
MultiSource/Benchmarks/TSVC/ControlFlow-dbl/ControlFlow-dbl, 2.1264, 2.1249, 2.1251,2.1251, 2.1320, 2.1247, 2.1240,2.1247
MultiSource/Benchmarks/TSVC/ControlFlow-flt/ControlFlow-flt, 1.7871, 1.7874, 1.7867,1.7871, 1.7948, 1.7939, 1.7924,1.7939
MultiSource/Benchmarks/TSVC/ControlLoops-dbl/ControlLoops-dbl, 2.0319, 2.0306, 2.0279,2.0306, 2.0375, 2.0361, 2.0344,2.0361
MultiSource/Benchmarks/TSVC/ControlLoops-flt/ControlLoops-flt, 1.6999, 1.6956, 1.7017,1.6999, 1.7076, 1.7099, 1.7053,1.7076
MultiSource/Benchmarks/TSVC/CrossingThresholds-dbl/CrossingThresholds-dbl, 1.9868, 1.9835, 1.9853,1.9853, 1.9952, 1.9896, 1.9917,1.9917
MultiSource/Benchmarks/TSVC/CrossingThresholds-flt/CrossingThresholds-flt, 1.6542, 1.6532, 1.6518,1.6532, 1.6579, 1.6567, 1.6332,1.6567
MultiSource/Benchmarks/TSVC/Equivalencing-dbl/Equivalencing-dbl, 1.9984, 1.9959, 1.9976,1.9976, 2.0076, 1.9962, 1.9931,1.9962
MultiSource/Benchmarks/TSVC/Equivalencing-flt/Equivalencing-flt, 1.6639, 1.6610, 1.6628,1.6628, 1.6615, 1.6594, 1.6591,1.6594
MultiSource/Benchmarks/TSVC/Expansion-dbl/Expansion-dbl, 2.0259, 2.0268, 2.0268,2.0268, 2.0342, 2.0317, 2.0312,2.0317
MultiSource/Benchmarks/TSVC/Expansion-flt/Expansion-flt, 1.7024, 1.6958, 1.6970,1.697, 1.7072, 1.7043, 1.7051,1.7051
MultiSource/Benchmarks/TSVC/GlobalDataFlow-dbl/GlobalDataFlow-dbl, 2.0242, 2.0235, 2.0214,2.0235, 2.0297, 2.0254, 2.0116,2.0254
MultiSource/Benchmarks/TSVC/GlobalDataFlow-flt/GlobalDataFlow-flt, 1.6957, 1.6909, 1.6885,1.6909, 1.7005, 1.6964, 1.6962,1.6964
MultiSource/Benchmarks/TSVC/IndirectAddressing-dbl/IndirectAddressing-dbl, 1.9800, 1.9786, 1.9794,1.9794, 1.9860, 1.9815, 1.9825,1.9825
MultiSource/Benchmarks/TSVC/IndirectAddressing-flt/IndirectAddressing-flt, 1.6415, 1.6370, 1.6490,1.6415, 1.6482, 1.6427, 1.6429,1.6429
MultiSource/Benchmarks/TSVC/InductionVariable-dbl/InductionVariable-dbl, 2.0042, 2.0014, 2.0027,2.0027, 2.0074, 2.0056, 2.0048,2.0056
MultiSource/Benchmarks/TSVC/InductionVariable-flt/InductionVariable-flt, 1.6711, 1.6678, 1.6687,1.6687, 1.6737, 1.6540, 1.6723,1.6723
MultiSource/Benchmarks/TSVC/LinearDependence-dbl/LinearDependence-dbl, 2.0413, 2.0487, 2.0473,2.0473, 2.0518, 2.0519, 2.0488,2.0518
MultiSource/Benchmarks/TSVC/LinearDependence-flt/LinearDependence-flt, 1.7192, 1.7208, 1.7173,1.7192, 1.7264, 1.7325, 1.7266,1.7266
MultiSource/Benchmarks/TSVC/LoopRerolling-dbl/LoopRerolling-dbl, 1.9586, 1.9576, 1.9597,1.9586, 1.9632, 1.9578, 1.9577,1.9578
MultiSource/Benchmarks/TSVC/LoopRerolling-flt/LoopRerolling-flt, 1.6259, 1.6202, 1.6218,1.6218, 1.6286, 1.6303, 1.6218,1.6286
MultiSource/Benchmarks/TSVC/LoopRestructuring-dbl/LoopRestructuring-dbl, 2.0020, 1.9986, 1.9922,1.9986, 2.0064, 2.0042, 2.0017,2.0042
MultiSource/Benchmarks/TSVC/LoopRestructuring-flt/LoopRestructuring-flt, 1.6699, 1.6657, 1.6677,1.6677, 1.6742, 1.6754, 1.6729,1.6742
MultiSource/Benchmarks/TSVC/NodeSplitting-dbl/NodeSplitting-dbl, 1.9774, 1.9779, 1.9788,1.9779, 1.9837, 1.9785, 1.9796,1.9796
MultiSource/Benchmarks/TSVC/NodeSplitting-flt/NodeSplitting-flt, 1.6412, 1.6418, 1.6434,1.6418, 1.6424, 1.6438, 1.6323,1.6424
MultiSource/Benchmarks/TSVC/Packing-dbl/Packing-dbl, 1.9454, 1.9465, 1.9218,1.9454, 1.9473, 1.9434, 1.9426,1.9434
MultiSource/Benchmarks/TSVC/Packing-flt/Packing-flt, 1.6136, 1.6090, 1.6089,1.609, 1.6184, 1.6199, 1.6166,1.6184
MultiSource/Benchmarks/TSVC/Recurrences-dbl/Recurrences-dbl, 1.9513, 1.9414, 1.9426,1.9426, 1.9484, 1.9431, 1.9411,1.9431
MultiSource/Benchmarks/TSVC/Recurrences-flt/Recurrences-flt, 1.6087, 1.6149, 1.6105,1.6105, 1.6199, 1.6195, 1.6164,1.6195
MultiSource/Benchmarks/TSVC/Reductions-dbl/Reductions-dbl, 2.0439, 2.0395, 2.0435,2.0435, 2.0485, 2.0435, 2.0498,2.0485
MultiSource/Benchmarks/TSVC/Reductions-flt/Reductions-flt, 1.7139, 1.7076, 1.7106,1.7106, 1.7129, 1.7142, 1.7093,1.7129
MultiSource/Benchmarks/TSVC/Searching-dbl/Searching-dbl, 1.9281, 1.9256, 1.9347,1.9281, 1.9392, 1.9336, 1.9321,1.9336
MultiSource/Benchmarks/TSVC/Searching-flt/Searching-flt, 1.5955, 1.5976, 1.5952,1.5955, 1.6024, 1.6028, 1.6044,1.6028
MultiSource/Benchmarks/TSVC/StatementReordering-dbl/StatementReordering-dbl, 1.9443, 1.9493, 1.9442,1.9443, 1.9506, 1.9514, 1.9487,1.9506
MultiSource/Benchmarks/TSVC/StatementReordering-flt/StatementReordering-flt, 1.6096, 1.6095, 1.6089,1.6095, 1.6133, 1.6113, 1.5928,1.6113
MultiSource/Benchmarks/TSVC/Symbolics-dbl/Symbolics-dbl, 1.9854, 1.9806, 1.9822,1.9822, 1.9898, 1.9873, 1.9902,1.9898
MultiSource/Benchmarks/TSVC/Symbolics-flt/Symbolics-flt, 1.6519, 1.6497, 1.6481,1.6497, 1.6581, 1.6548, 1.6585,1.6581
MultiSource/Benchmarks/Trimaran/enc-3des/enc-3des, 0.2364, 0.2373, 0.2371,0.2371, 0.2375, 0.2372, 0.2371,0.2372
MultiSource/Benchmarks/Trimaran/enc-md5/enc-md5, 0.1476, 0.1475, 0.1474,0.1475, 0.1488, 0.1487, 0.1488,0.1488
MultiSource/Benchmarks/Trimaran/enc-pc1/enc-pc1, 0.0632, 0.0633, 0.0633,0.0633, 0.0635, 0.0636, 0.0635,0.0635
MultiSource/Benchmarks/Trimaran/enc-rc4/enc-rc4, 0.0485, 0.0484, 0.0484,0.0484, 0.0485, 0.0484, 0.0485,0.0485
MultiSource/Benchmarks/Trimaran/netbench-crc/netbench-crc, 0.0746, 0.0747, 0.0747,0.0747, 0.0747, 0.0747, 0.0744,0.0747
MultiSource/Benchmarks/Trimaran/netbench-url/netbench-url, 0.1999, 0.2000, 0.2001,0.2, 0.2004, 0.1999, 0.1996,0.1999
MultiSource/Benchmarks/VersaBench/8b10b/8b10b, 0.0709, 0.0708, 0.0709,0.0709, 0.0710, 0.0711, 0.0707,0.071
MultiSource/Benchmarks/VersaBench/beamformer/beamformer, 0.3039, 0.3096, 0.3041,0.3041, 0.3025, 0.3110, 0.3106,0.3106
MultiSource/Benchmarks/VersaBench/bmm/bmm, 0.0496, 0.0495, 0.0495,0.0495, 0.0497, 0.0497, 0.0497,0.0497
MultiSource/Benchmarks/VersaBench/dbms/dbms, 0.9334, 0.9308, 0.9302,0.9308, 0.9324, 0.9451, 0.9242,0.9324
MultiSource/Benchmarks/VersaBench/ecbdes/ecbdes, 0.2056, 0.2052, 0.2055,0.2055, 0.2065, 0.2060, 0.2061,0.2061
MultiSource/Benchmarks/llubenchmark/llu, 0.0459, 0.0460, 0.0459,0.0459, 0.0458, 0.0458, 0.0457,0.0458
MultiSource/Benchmarks/mafft/pairlocalalign, 8.6119, 8.6022, 8.6092,8.6092, 8.6332, 8.6217, 8.6214,8.6217
MultiSource/Benchmarks/mediabench/adpcm/rawcaudio/rawcaudio, 0.0533, 0.0534, 0.0534,0.0534, 0.0535, 0.0535, 0.0535,0.0535
MultiSource/Benchmarks/mediabench/adpcm/rawdaudio/rawdaudio, 0.0532, 0.0532, 0.0534,0.0532, 0.0534, 0.0534, 0.0534,0.0534
MultiSource/Benchmarks/mediabench/g721/g721encode/encode, 0.1883, 0.1882, 0.1884,0.1883, 0.1888, 0.1885, 0.1887,0.1887
MultiSource/Benchmarks/mediabench/gsm/toast/toast, 1.0026, 1.0024, 1.0032,1.0026, 1.0062, 1.0045, 1.0041,1.0045
MultiSource/Benchmarks/mediabench/jpeg/jpeg-6a/cjpeg, 4.3781, 4.3821, 4.3804,4.3804, 4.3989, 4.3911, 4.3872,4.3911
MultiSource/Benchmarks/mediabench/mpeg2/mpeg2dec/mpeg2decode, 1.3068, 1.3041, 1.3050,1.305, 1.3079, 1.3108, 1.3046,1.3079
MultiSource/Benchmarks/nbench/nbench, 1.1034, 1.1028, 1.1035,1.1034, 1.1049, 1.1028, 1.1035,1.1035
MultiSource/Benchmarks/sim/sim, 0.2800, 0.2800, 0.2798,0.28, 0.2813, 0.2804, 0.2811,0.2811
MultiSource/Benchmarks/tramp3d-v4/tramp3d-v4,19.7888,19.7799,19.8250,19.7888,19.8557,19.8098,19.8332,19.8332
SingleSource/Benchmarks/Adobe-C++/functionobjects, 0.4368, 0.4371, 0.4373,0.4371, 0.4361, 0.4361, 0.4360,0.4361
SingleSource/Benchmarks/Adobe-C++/loop_unroll, 4.3089, 4.3015, 4.3068,4.3068, 4.3176, 4.3158, 4.3102,4.3158
SingleSource/Benchmarks/Adobe-C++/simple_types_constant_folding, 2.4339, 2.4285, 2.4324,2.4324, 2.4412, 2.4399, 2.4334,2.4399
SingleSource/Benchmarks/Adobe-C++/simple_types_loop_invariant, 1.9683, 1.9695, 1.9629,1.9683, 1.9735, 1.9618, 1.9688,1.9688
SingleSource/Benchmarks/Adobe-C++/stepanov_abstraction, 0.5386, 0.5389, 0.5391,0.5389, 0.5416, 0.5416, 0.5399,0.5416
SingleSource/Benchmarks/Adobe-C++/stepanov_vector, 0.8404, 0.8394, 0.8388,0.8394, 0.8413, 0.8413, 0.8396,0.8413
SingleSource/Benchmarks/BenchmarkGame/Large/fasta, 0.0437, 0.0398, 0.0451,0.0437, 0.0433, 0.0417, 0.0461,0.0433
SingleSource/Benchmarks/BenchmarkGame/fannkuch, 0.0505, 0.0506, 0.0505,0.0505, 0.0505, 0.0504, 0.0504,0.0504
SingleSource/Benchmarks/BenchmarkGame/n-body, 0.0696, 0.0694, 0.0697,0.0696, 0.0699, 0.0698, 0.0698,0.0698
SingleSource/Benchmarks/BenchmarkGame/nsieve-bits, 0.0309, 0.0310, 0.0310,0.031, 0.0311, 0.0310, 0.0311,0.0311
SingleSource/Benchmarks/BenchmarkGame/partialsums, 0.0321, 0.0287, 0.0400,0.0321, 0.0374, 0.0359, 0.0302,0.0359
SingleSource/Benchmarks/BenchmarkGame/puzzle, 0.0546, 0.0545, 0.0546,0.0546, 0.0546, 0.0546, 0.0544,0.0546
SingleSource/Benchmarks/BenchmarkGame/recursive, 0.0369, 0.0253, 0.0314,0.0314, 0.0302, 0.0295, 0.0299,0.0299
SingleSource/Benchmarks/BenchmarkGame/spectral-norm, 0.0533, 0.0533, 0.0533,0.0533, 0.0535, 0.0535, 0.0534,0.0535
SingleSource/Benchmarks/CoyoteBench/almabench, 0.0679, 0.0678, 0.0678,0.0678, 0.0656, 0.0655, 0.0655,0.0655
SingleSource/Benchmarks/CoyoteBench/fftbench, 0.6115, 0.5526, 0.5592,0.5592, 0.5439, 0.5494, 0.5512,0.5494
SingleSource/Benchmarks/CoyoteBench/huffbench, 0.0828, 0.0828, 0.0829,0.0828, 0.0833, 0.0830, 0.0828,0.083
SingleSource/Benchmarks/CoyoteBench/lpbench, 0.1481, 0.1479, 0.1483,0.1481, 0.1491, 0.1490, 0.1488,0.149
SingleSource/Benchmarks/Dhrystone/dry, 0.0397, 0.0398, 0.0398,0.0398, 0.0399, 0.0397, 0.0398,0.0398
SingleSource/Benchmarks/Dhrystone/fldry, 0.0430, 0.0429, 0.0429,0.0429, 0.0430, 0.0428, 0.0429,0.0429
SingleSource/Benchmarks/Linpack/linpack-pc, 0.3050, 0.3054, 0.3050,0.305, 0.3056, 0.3049, 0.3050,0.305
SingleSource/Benchmarks/McGill/chomp, 0.1847, 0.1839, 0.1844,0.1844, 0.1848, 0.1843, 0.1841,0.1843
SingleSource/Benchmarks/McGill/misr, 0.0520, 0.0519, 0.0520,0.052, 0.0521, 0.0521, 0.0520,0.0521
SingleSource/Benchmarks/McGill/queens, 0.0436, 0.0436, 0.0437,0.0436, 0.0438, 0.0436, 0.0437,0.0437
SingleSource/Benchmarks/Misc-C++-EH/spirit, 3.5340, 3.5773, 3.5306,3.534, 3.5333, 3.5385, 3.5443,3.5385
SingleSource/Benchmarks/Misc-C++/Large/ray, 0.2093, 0.2241, 0.2279,0.2241, 0.2100, 0.2279, 0.2102,0.2102
SingleSource/Benchmarks/Misc-C++/Large/sphereflake, 0.2189, 0.2186, 0.2186,0.2186, 0.2192, 0.2191, 0.2189,0.2191
SingleSource/Benchmarks/Misc-C++/bigfib, 0.4537, 0.4355, 0.4595,0.4537, 0.4435, 0.4608, 0.4539,0.4539
SingleSource/Benchmarks/Misc-C++/mandel-text, 0.0229, 0.0230, 0.0230,0.023, 0.0231, 0.0230, 0.0230,0.023
SingleSource/Benchmarks/Misc-C++/oopack_v1p8, 0.1101, 0.1282, 0.1293,0.1282, 0.1257, 0.1105, 0.1211,0.1211
SingleSource/Benchmarks/Misc-C++/stepanov_container, 0.6709, 0.6476, 0.6463,0.6476, 0.6679, 0.6840, 0.6588,0.6679
SingleSource/Benchmarks/Misc-C++/stepanov_v1p2, 0.1701, 0.1700, 0.1703,0.1701, 0.1704, 0.1703, 0.1700,0.1703
SingleSource/Benchmarks/Misc/ReedSolomon, 0.1871, 0.1869, 0.1871,0.1871, 0.1873, 0.1872, 0.1870,0.1872
SingleSource/Benchmarks/Misc/dt, 0.0312, 0.0311, 0.0312,0.0312, 0.0314, 0.0313, 0.0313,0.0313
SingleSource/Benchmarks/Misc/evalloop, 0.0349, 0.0349, 0.0349,0.0349, 0.0349, 0.0350, 0.0349,0.0349
SingleSource/Benchmarks/Misc/fbench, 0.0526, 0.0526, 0.0526,0.0526, 0.0526, 0.0527, 0.0527,0.0527
SingleSource/Benchmarks/Misc/ffbench, 0.0659, 0.0658, 0.0659,0.0659, 0.0660, 0.0658, 0.0659,0.0659
SingleSource/Benchmarks/Misc/flops, 0.0757, 0.0756, 0.0757,0.0757, 0.0759, 0.0758, 0.0759,0.0759
SingleSource/Benchmarks/Misc/flops-1, 0.0260, 0.0260, 0.0260,0.026, 0.0262, 0.0261, 0.0261,0.0261
SingleSource/Benchmarks/Misc/flops-2, 0.0270, 0.0269, 0.0269,0.0269, 0.0271, 0.0270, 0.0270,0.027
SingleSource/Benchmarks/Misc/flops-3, 0.0258, 0.0258, 0.0259,0.0258, 0.0259, 0.0259, 0.0259,0.0259
SingleSource/Benchmarks/Misc/flops-4, 0.0263, 0.0263, 0.0263,0.0263, 0.0265, 0.0265, 0.0264,0.0265
SingleSource/Benchmarks/Misc/flops-5, 0.0269, 0.0270, 0.0270,0.027, 0.0271, 0.0270, 0.0270,0.027
SingleSource/Benchmarks/Misc/flops-6, 0.0269, 0.0269, 0.0269,0.0269, 0.0270, 0.0270, 0.0270,0.027
SingleSource/Benchmarks/Misc/flops-7, 0.0257, 0.0257, 0.0258,0.0257, 0.0259, 0.0258, 0.0258,0.0258
SingleSource/Benchmarks/Misc/flops-8, 0.0269, 0.0270, 0.0269,0.0269, 0.0271, 0.0271, 0.0269,0.0271
SingleSource/Benchmarks/Misc/fp-convert, 0.0290, 0.0290, 0.0290,0.029, 0.0291, 0.0291, 0.0290,0.0291
SingleSource/Benchmarks/Misc/himenobmtxpa, 0.1747, 0.1744, 0.1750,0.1747, 0.1742, 0.1738, 0.1740,0.174
SingleSource/Benchmarks/Misc/lowercase, 0.0242, 0.0242, 0.0242,0.0242, 0.0242, 0.0243, 0.0242,0.0242
SingleSource/Benchmarks/Misc/mandel, 0.0561, 0.0427, 0.0567,0.0561, 0.0557, 0.0618, 0.0586,0.0586
SingleSource/Benchmarks/Misc/mandel-2, 0.0312, 0.0309, 0.0310,0.031, 0.0310, 0.0433, 0.0308,0.031
SingleSource/Benchmarks/Misc/matmul_f64_4x4, 0.0272, 0.0272, 0.0273,0.0272, 0.0272, 0.0272, 0.0271,0.0272
SingleSource/Benchmarks/Misc/oourafft, 0.2088, 0.2086, 0.2085,0.2086, 0.2094, 0.2089, 0.2090,0.209
SingleSource/Benchmarks/Misc/perlin, 0.0439, 0.0439, 0.0440,0.0439, 0.0440, 0.0440, 0.0440,0.044
SingleSource/Benchmarks/Misc/pi, 0.0200, 0.0200, 0.0200,0.02, 0.0200, 0.0200, 0.0200,0.02
SingleSource/Benchmarks/Misc/revertBits, 0.0244, 0.0245, 0.0244,0.0244, 0.0244, 0.0243, 0.0244,0.0244
SingleSource/Benchmarks/Misc/richards_benchmark, 0.0621, 0.0621, 0.0620,0.0621, 0.0621, 0.0621, 0.0621,0.0621
SingleSource/Benchmarks/Misc/salsa20, 0.0531, 0.0531, 0.0530,0.0531, 0.0527, 0.0528, 0.0527,0.0527
SingleSource/Benchmarks/Misc/whetstone, 0.0658, 0.0656, 0.0659,0.0658, 0.0659, 0.0659, 0.0658,0.0659
SingleSource/Benchmarks/Polybench/datamining/correlation/correlation, 0.0751, 0.0748, 0.0750,0.075, 0.0752, 0.0752, 0.0751,0.0752
SingleSource/Benchmarks/Polybench/datamining/covariance/covariance, 0.0825, 0.0822, 0.0823,0.0823, 0.0823, 0.0825, 0.0824,0.0824
SingleSource/Benchmarks/Polybench/linear-algebra/kernels/atax/atax, 0.0788, 0.0786, 0.0787,0.0787, 0.0788, 0.0789, 0.0787,0.0788
SingleSource/Benchmarks/Polybench/linear-algebra/kernels/bicg/bicg, 0.0773, 0.0772, 0.0773,0.0773, 0.0772, 0.0773, 0.0771,0.0772
SingleSource/Benchmarks/Polybench/linear-algebra/kernels/cholesky/cholesky, 0.0910, 0.0907, 0.0907,0.0907, 0.0909, 0.0912, 0.0910,0.091
SingleSource/Benchmarks/Polybench/linear-algebra/kernels/doitgen/doitgen, 0.0959, 0.0959, 0.0959,0.0959, 0.0964, 0.0963, 0.0964,0.0964
SingleSource/Benchmarks/Polybench/linear-algebra/kernels/gemver/gemver, 0.0894, 0.0891, 0.0892,0.0892, 0.0899, 0.0896, 0.0897,0.0897
SingleSource/Benchmarks/Polybench/linear-algebra/kernels/gesummv/gesummv, 0.0657, 0.0655, 0.0657,0.0657, 0.0660, 0.0659, 0.0658,0.0659
SingleSource/Benchmarks/Polybench/linear-algebra/kernels/mvt/mvt, 0.0796, 0.0796, 0.0794,0.0796, 0.0797, 0.0796, 0.0797,0.0797
SingleSource/Benchmarks/Polybench/linear-algebra/kernels/symm/symm, 0.0754, 0.0755, 0.0755,0.0755, 0.0758, 0.0755, 0.0757,0.0757
SingleSource/Benchmarks/Polybench/linear-algebra/kernels/syr2k/syr2k, 0.0768, 0.0766, 0.0765,0.0766, 0.0770, 0.0770, 0.0767,0.077
SingleSource/Benchmarks/Polybench/linear-algebra/kernels/syrk/syrk, 0.0750, 0.0749, 0.0750,0.075, 0.0751, 0.0752, 0.0751,0.0751
SingleSource/Benchmarks/Polybench/linear-algebra/kernels/trisolv/trisolv, 0.0621, 0.0620, 0.0621,0.0621, 0.0624, 0.0622, 0.0622,0.0622
SingleSource/Benchmarks/Polybench/linear-algebra/kernels/trmm/trmm, 0.0712, 0.0711, 0.0712,0.0712, 0.0713, 0.0711, 0.0713,0.0713
SingleSource/Benchmarks/Polybench/linear-algebra/solvers/durbin/durbin, 0.0866, 0.0865, 0.0865,0.0865, 0.0868, 0.0868, 0.0867,0.0868
SingleSource/Benchmarks/Polybench/linear-algebra/solvers/dynprog/dynprog, 0.0716, 0.0717, 0.0715,0.0716, 0.0719, 0.0719, 0.0718,0.0719
SingleSource/Benchmarks/Polybench/linear-algebra/solvers/gramschmidt/gramschmidt, 0.1010, 0.1008, 0.1008,0.1008, 0.1010, 0.1009, 0.1010,0.101
SingleSource/Benchmarks/Polybench/linear-algebra/solvers/lu/lu, 0.0885, 0.0882, 0.0883,0.0883, 0.0886, 0.0884, 0.0883,0.0884
SingleSource/Benchmarks/Polybench/medley/floyd-warshall/floyd-warshall, 0.0843, 0.0743, 0.0896,0.0843, 0.0862, 0.0918, 0.0901,0.0901
SingleSource/Benchmarks/Polybench/medley/reg_detect/reg_detect, 0.4161, 0.4159, 0.4162,0.4161, 0.4204, 0.4195, 0.4194,0.4195
SingleSource/Benchmarks/Polybench/stencils/adi/adi, 0.0885, 0.0882, 0.0882,0.0882, 0.0887, 0.0888, 0.0888,0.0888
SingleSource/Benchmarks/Polybench/stencils/fdtd-2d/fdtd-2d, 0.1368, 0.1366, 0.1369,0.1368, 0.1373, 0.1368, 0.1371,0.1371
SingleSource/Benchmarks/Polybench/stencils/fdtd-apml/fdtd-apml, 0.1299, 0.1296, 0.1298,0.1298, 0.1302, 0.1300, 0.1303,0.1302
SingleSource/Benchmarks/Polybench/stencils/jacobi-1d-imper/jacobi-1d-imper, 0.0827, 0.0826, 0.0825,0.0826, 0.0827, 0.0825, 0.0824,0.0825
SingleSource/Benchmarks/Polybench/stencils/jacobi-2d-imper/jacobi-2d-imper, 0.1114, 0.1111, 0.1111,0.1111, 0.1120, 0.1115, 0.1115,0.1115
SingleSource/Benchmarks/Polybench/stencils/seidel-2d/seidel-2d, 0.0686, 0.0688, 0.0687,0.0687, 0.0689, 0.0688, 0.0686,0.0688
SingleSource/Benchmarks/Shootout-C++/EH/except, 0.1288, 0.1290, 0.1290,0.129, 0.1292, 0.1291, 0.1292,0.1292
SingleSource/Benchmarks/Shootout-C++/ackermann, 0.1157, 0.1161, 0.1160,0.116, 0.1161, 0.1165, 0.1160,0.1161
SingleSource/Benchmarks/Shootout-C++/ary, 0.1531, 0.1530, 0.1535,0.1531, 0.1541, 0.1536, 0.1535,0.1536
SingleSource/Benchmarks/Shootout-C++/ary2, 0.1545, 0.1549, 0.1547,0.1547, 0.1554, 0.1554, 0.1552,0.1554
SingleSource/Benchmarks/Shootout-C++/ary3, 0.1575, 0.1576, 0.1569,0.1575, 0.1578, 0.1582, 0.1581,0.1581
SingleSource/Benchmarks/Shootout-C++/fibo, 0.1139, 0.1144, 0.1138,0.1139, 0.1145, 0.1146, 0.1142,0.1145
SingleSource/Benchmarks/Shootout-C++/hash, 0.2661, 0.2652, 0.2660,0.266, 0.2668, 0.2657, 0.2656,0.2657
SingleSource/Benchmarks/Shootout-C++/hash2, 0.3248, 0.3090, 0.3164,0.3164, 0.3228, 0.3307, 0.3262,0.3262
SingleSource/Benchmarks/Shootout-C++/heapsort, 0.1304, 0.1299, 0.1303,0.1303, 0.1316, 0.1310, 0.1313,0.1313
SingleSource/Benchmarks/Shootout-C++/lists, 0.1593, 0.1590, 0.1595,0.1593, 0.1598, 0.1598, 0.1595,0.1598
SingleSource/Benchmarks/Shootout-C++/lists1, 0.2035, 0.2150, 0.2002,0.2035, 0.2010, 0.2144, 0.2065,0.2065
SingleSource/Benchmarks/Shootout-C++/matrix, 0.1827, 0.1826, 0.1828,0.1827, 0.1831, 0.1826, 0.1823,0.1826
SingleSource/Benchmarks/Shootout-C++/methcall, 0.1230, 0.1231, 0.1233,0.1231, 0.1240, 0.1235, 0.1237,0.1237
SingleSource/Benchmarks/Shootout-C++/moments, 0.2369, 0.2368, 0.2367,0.2368, 0.2387, 0.2382, 0.2377,0.2382
SingleSource/Benchmarks/Shootout-C++/nestedloop, 0.1202, 0.1240, 0.1167,0.1202, 0.1208, 0.1187, 0.1189,0.1189
SingleSource/Benchmarks/Shootout-C++/objinst, 0.1496, 0.1569, 0.1484,0.1496, 0.1481, 0.1601, 0.1510,0.151
SingleSource/Benchmarks/Shootout-C++/random, 0.1240, 0.1239, 0.1237,0.1239, 0.1244, 0.1244, 0.1247,0.1244
SingleSource/Benchmarks/Shootout-C++/sieve, 0.1823, 0.1824, 0.1827,0.1824, 0.1829, 0.1834, 0.1837,0.1834
SingleSource/Benchmarks/Shootout-C++/strcat, 0.1249, 0.1246, 0.1245,0.1246, 0.1254, 0.1251, 0.1250,0.1251
SingleSource/Benchmarks/Shootout/ackermann, 0.0223, 0.0223, 0.0224,0.0223, 0.0224, 0.0223, 0.0223,0.0223
SingleSource/Benchmarks/Shootout/ary3, 0.0334, 0.0334, 0.0335,0.0334, 0.0335, 0.0335, 0.0334,0.0335
SingleSource/Benchmarks/Shootout/fib2, 0.0186, 0.0187, 0.0187,0.0187, 0.0186, 0.0186, 0.0186,0.0186
SingleSource/Benchmarks/Shootout/hash, 0.0501, 0.0499, 0.0500,0.05, 0.0501, 0.0500, 0.0500,0.05
SingleSource/Benchmarks/Shootout/heapsort, 0.0378, 0.0377, 0.0378,0.0378, 0.0380, 0.0380, 0.0379,0.038
SingleSource/Benchmarks/Shootout/lists, 0.0656, 0.0655, 0.0655,0.0655, 0.0655, 0.0656, 0.0655,0.0655
SingleSource/Benchmarks/Shootout/matrix, 0.0813, 0.0813, 0.0813,0.0813, 0.0810, 0.0808, 0.0808,0.0808
SingleSource/Benchmarks/Shootout/methcall, 0.0305, 0.0306, 0.0305,0.0305, 0.0304, 0.0305, 0.0304,0.0304
SingleSource/Benchmarks/Shootout/nestedloop, 0.0231, 0.0231, 0.0231,0.0231, 0.0232, 0.0231, 0.0231,0.0231
SingleSource/Benchmarks/Shootout/objinst, 0.0363, 0.0362, 0.0363,0.0363, 0.0364, 0.0363, 0.0363,0.0363
SingleSource/Benchmarks/Shootout/random, 0.0288, 0.0288, 0.0289,0.0288, 0.0291, 0.0290, 0.0290,0.029
SingleSource/Benchmarks/Shootout/sieve, 0.0243, 0.0243, 0.0243,0.0243, 0.0243, 0.0243, 0.0243,0.0243
SingleSource/Benchmarks/Shootout/strcat, 0.0262, 0.0261, 0.0261,0.0261, 0.0263, 0.0261, 0.0261,0.0261
SingleSource/Benchmarks/SmallPT/smallpt, 0.0977, 0.0975, 0.0978,0.0977, 0.0984, 0.0984, 0.0980,0.0984
SingleSource/Benchmarks/Stanford/Bubblesort, 0.0328, 0.0328, 0.0328,0.0328, 0.0326, 0.0326, 0.0326,0.0326
SingleSource/Benchmarks/Stanford/FloatMM, 0.0518, 0.0518, 0.0518,0.0518, 0.0519, 0.0519, 0.0517,0.0519
SingleSource/Benchmarks/Stanford/Oscar, 0.0660, 0.0661, 0.0662,0.0661, 0.0663, 0.0661, 0.0661,0.0661
SingleSource/Benchmarks/Stanford/Perm, 0.0316, 0.0301, 0.0311,0.0311, 0.0409, 0.0337, 0.0373,0.0373
SingleSource/Benchmarks/Stanford/Puzzle, 0.1090, 0.1090, 0.1090,0.109, 0.1092, 0.1093, 0.1091,0.1092
SingleSource/Benchmarks/Stanford/Queens, 0.0435, 0.0434, 0.0434,0.0434, 0.0434, 0.0434, 0.0434,0.0434
SingleSource/Benchmarks/Stanford/Quicksort, 0.0375, 0.0362, 0.0387,0.0375, 0.0396, 0.0433, 0.0479,0.0433
SingleSource/Benchmarks/Stanford/RealMM, 0.0489, 0.0488, 0.0490,0.0489, 0.0489, 0.0488, 0.0488,0.0488
SingleSource/Benchmarks/Stanford/Towers, 0.0569, 0.0468, 0.0573,0.0569, 0.0567, 0.0527, 0.0492,0.0527
SingleSource/Benchmarks/Stanford/Treesort, 0.0372, 0.0372, 0.0373,0.0372, 0.0371, 0.0371, 0.0371,0.0371
SingleSource/Regression/C/2004-08-12-InlinerAndAllocas, 0.0184, 0.0184, 0.0184,0.0184, 0.0184, 0.0184, 0.0184,0.0184
SingleSource/Regression/C/uint64_to_float, 0.0721, 0.0831, 0.0798,0.0798, 0.0656, 0.0724, 0.0731,0.0724
Total elapsed time,-,-,-,361.6580999999998,-,-,-,362.5184999999999
Total failure,-,-,-,0,-,-,-,0
