Benchmarks,base-5.0,base-5.0,base-5.0,median,nocapture-opt-noprov-5.0,nocapture-opt-noprov-5.0,nocapture-opt-noprov-5.0,median,Slowdown(%)
SingleSource/Benchmarks/Adobe-C++/stepanov_vector, 0.7304, 0.7314, 0.7294,0.7304, 0.8413, 0.8413, 0.8396,0.8413,15.183461117196062
SingleSource/Benchmarks/Stanford/Oscar, 0.0613, 0.0611, 0.0612,0.0612, 0.0663, 0.0661, 0.0661,0.0661,8.006535947712434
MultiSource/Benchmarks/Olden/mst/mst, 0.1169, 0.1164, 0.1165,0.1165, 0.1202, 0.1202, 0.1200,0.1202,3.175965665236058
SingleSource/Benchmarks/Misc/himenobmtxpa, 0.1703, 0.1699, 0.1699,0.1699, 0.1742, 0.1738, 0.1740,0.174,2.413184226015308
MultiSource/Benchmarks/McCat/08-main/main, 0.2318, 0.2318, 0.2318,0.2318, 0.2358, 0.2354, 0.2355,0.2355,1.5962036238136301
MultiSource/Benchmarks/DOE-ProxyApps-C/XSBench/XSBench, 0.3400, 0.3392, 0.3393,0.3393, 0.3444, 0.3438, 0.3441,0.3441,1.4146772767462457
MultiSource/Benchmarks/Trimaran/enc-md5/enc-md5, 0.1472, 0.1471, 0.1471,0.1471, 0.1488, 0.1487, 0.1488,0.1488,1.155676410605011
MultiSource/Benchmarks/FreeBench/analyzer/analyzer, 0.2301, 0.2297, 0.2299,0.2299, 0.2327, 0.2325, 0.2322,0.2325,1.1309264897781723
SingleSource/Benchmarks/Shootout/random, 0.0289, 0.0287, 0.0287,0.0287, 0.0291, 0.0290, 0.0290,0.029,1.0452961672474004
MultiSource/Applications/ALAC/decode/alacconvert-decode, 0.9340, 0.9356, 0.9337,0.934, 0.9431, 0.9404, 0.9469,0.9431,0.9743040685224802
SingleSource/Benchmarks/Shootout/nestedloop, 0.0230, 0.0229, 0.0229,0.0229, 0.0232, 0.0231, 0.0231,0.0231,0.8733624454148492
SingleSource/Benchmarks/CoyoteBench/almabench, 0.0651, 0.0650, 0.0650,0.065, 0.0656, 0.0655, 0.0655,0.0655,0.7692307692307665
MultiSource/Benchmarks/McCat/04-bisect/bisect, 0.1246, 0.1243, 0.1241,0.1243, 0.1254, 0.1251, 0.1252,0.1252,0.7240547063555924
MultiSource/Benchmarks/Fhourstones-3.1/fhourstones3.1, 0.1146, 0.1145, 0.1144,0.1145, 0.1152, 0.1153, 0.1153,0.1153,0.698689956331866
SingleSource/Benchmarks/McGill/queens, 0.0436, 0.0434, 0.0434,0.0434, 0.0438, 0.0436, 0.0437,0.0437,0.691244239631339
SingleSource/Benchmarks/BenchmarkGame/nsieve-bits, 0.0309, 0.0309, 0.0309,0.0309, 0.0311, 0.0310, 0.0311,0.0311,0.6472491909385036
MultiSource/Benchmarks/MiBench/consumer-lame/consumer-lame, 3.8825, 3.8817, 3.8816,3.8817, 3.9098, 3.9044, 3.9068,3.9068,0.6466239018986464
SingleSource/Benchmarks/Misc/ReedSolomon, 0.1860, 0.1862, 0.1860,0.186, 0.1873, 0.1872, 0.1870,0.1872,0.6451612903225934
SingleSource/Benchmarks/Polybench/linear-algebra/kernels/doitgen/doitgen, 0.0958, 0.0958, 0.0959,0.0958, 0.0964, 0.0963, 0.0964,0.0964,0.6263048016701411
MultiSource/Benchmarks/DOE-ProxyApps-C/SimpleMOC/SimpleMOC, 0.8434, 0.8427, 0.8431,0.8431, 0.8496, 0.8483, 0.8480,0.8483,0.6167714387379952
SingleSource/Benchmarks/Shootout/ary3, 0.0333, 0.0332, 0.0333,0.0333, 0.0335, 0.0335, 0.0334,0.0335,0.6006006006005871
MultiSource/Benchmarks/MiBench/telecomm-FFT/telecomm-fft, 0.1356, 0.1355, 0.1355,0.1355, 0.1365, 0.1363, 0.1361,0.1363,0.5904059040590326
SingleSource/Benchmarks/Polybench/stencils/seidel-2d/seidel-2d, 0.0686, 0.0684, 0.0684,0.0684, 0.0689, 0.0688, 0.0686,0.0688,0.5847953216374213
MultiSource/Benchmarks/VersaBench/8b10b/8b10b, 0.0708, 0.0705, 0.0706,0.0706, 0.0710, 0.0711, 0.0707,0.071,0.5665722379603277
MultiSource/Benchmarks/MiBench/telecomm-adpcm/telecomm-adpcm, 0.0531, 0.0530, 0.0529,0.053, 0.0534, 0.0533, 0.0532,0.0533,0.5660377358490676
SingleSource/Benchmarks/Shootout/objinst, 0.0363, 0.0361, 0.0361,0.0361, 0.0364, 0.0363, 0.0363,0.0363,0.5540166204986097
SingleSource/Benchmarks/BenchmarkGame/puzzle, 0.0544, 0.0543, 0.0542,0.0543, 0.0546, 0.0546, 0.0544,0.0546,0.5524861878453136
SingleSource/Benchmarks/Polybench/datamining/correlation/correlation, 0.0748, 0.0748, 0.0749,0.0748, 0.0752, 0.0752, 0.0751,0.0752,0.5347593582887722
SingleSource/Benchmarks/Shootout/heapsort, 0.0379, 0.0377, 0.0378,0.0378, 0.0380, 0.0380, 0.0379,0.038,0.5291005291005346
SingleSource/Benchmarks/Misc/pi, 0.0199, 0.0199, 0.0199,0.0199, 0.0200, 0.0200, 0.0200,0.02,0.5025125628140614
MultiSource/Benchmarks/Trimaran/enc-pc1/enc-pc1, 0.0633, 0.0631, 0.0632,0.0632, 0.0635, 0.0636, 0.0635,0.0635,0.4746835443038
MultiSource/Benchmarks/mediabench/gsm/toast/toast, 1.0007, 0.9998, 0.9996,0.9998, 1.0062, 1.0045, 1.0041,1.0045,0.47009401880375723
SingleSource/Benchmarks/Stanford/Puzzle, 0.1087, 0.1087, 0.1086,0.1087, 0.1092, 0.1093, 0.1091,0.1092,0.4599816007359703
SingleSource/Benchmarks/Shootout-C++/heapsort, 0.1311, 0.1307, 0.1307,0.1307, 0.1316, 0.1310, 0.1313,0.1313,0.45906656465186657
SingleSource/Benchmarks/Shootout/ackermann, 0.0223, 0.0222, 0.0221,0.0222, 0.0224, 0.0223, 0.0223,0.0223,0.45045045045044585
SingleSource/Benchmarks/BenchmarkGame/n-body, 0.0696, 0.0695, 0.0695,0.0695, 0.0699, 0.0698, 0.0698,0.0698,0.4316546762589857
SingleSource/Benchmarks/Polybench/linear-algebra/kernels/trmm/trmm, 0.0710, 0.0710, 0.0710,0.071, 0.0713, 0.0711, 0.0713,0.0713,0.4225352112676273
SingleSource/Benchmarks/Adobe-C++/simple_types_constant_folding, 2.4279, 2.4322, 2.4298,2.4298, 2.4412, 2.4399, 2.4334,2.4399,0.4156720717754636
SingleSource/Benchmarks/Misc/lowercase, 0.0242, 0.0241, 0.0241,0.0241, 0.0242, 0.0243, 0.0242,0.0242,0.4149377593360981
SingleSource/Benchmarks/Shootout/sieve, 0.0242, 0.0242, 0.0242,0.0242, 0.0243, 0.0243, 0.0243,0.0243,0.4132231404958553
SingleSource/Benchmarks/Polybench/medley/reg_detect/reg_detect, 0.4178, 0.4181, 0.4177,0.4178, 0.4204, 0.4195, 0.4194,0.4195,0.40689325035900836
MultiSource/Benchmarks/Olden/power/power, 0.1233, 0.1234, 0.1232,0.1233, 0.1240, 0.1238, 0.1238,0.1238,0.40551500405514584
MultiSource/Benchmarks/VersaBench/bmm/bmm, 0.0496, 0.0495, 0.0494,0.0495, 0.0497, 0.0497, 0.0497,0.0497,0.40404040404040664
MultiSource/Benchmarks/Trimaran/netbench-crc/netbench-crc, 0.0745, 0.0741, 0.0744,0.0744, 0.0747, 0.0747, 0.0744,0.0747,0.40322580645162365
SingleSource/Benchmarks/BenchmarkGame/fannkuch, 0.0504, 0.0502, 0.0502,0.0502, 0.0505, 0.0504, 0.0504,0.0504,0.3984063745019917
MultiSource/Benchmarks/VersaBench/ecbdes/ecbdes, 0.2053, 0.2054, 0.2052,0.2053, 0.2065, 0.2060, 0.2061,0.2061,0.3896736483195218
MultiSource/Benchmarks/Olden/treeadd/treeadd, 0.0521, 0.0520, 0.0520,0.052, 0.0524, 0.0522, 0.0520,0.0522,0.38461538461540545
SingleSource/Benchmarks/Misc/fbench, 0.0525, 0.0525, 0.0524,0.0525, 0.0526, 0.0527, 0.0527,0.0527,0.3809523809523707
SingleSource/Benchmarks/Misc/flops-4, 0.0264, 0.0262, 0.0264,0.0264, 0.0265, 0.0265, 0.0264,0.0265,0.37878787878786735
MultiSource/Benchmarks/mediabench/adpcm/rawdaudio/rawdaudio, 0.0532, 0.0531, 0.0532,0.0532, 0.0534, 0.0534, 0.0534,0.0534,0.375939849624074
SingleSource/Benchmarks/BenchmarkGame/spectral-norm, 0.0534, 0.0533, 0.0533,0.0533, 0.0535, 0.0535, 0.0534,0.0535,0.37523452157597337
MultiSource/Benchmarks/mediabench/adpcm/rawcaudio/rawcaudio, 0.0534, 0.0533, 0.0533,0.0533, 0.0535, 0.0535, 0.0535,0.0535,0.37523452157597337
SingleSource/Benchmarks/Misc/flops-6, 0.0270, 0.0269, 0.0269,0.0269, 0.0270, 0.0270, 0.0270,0.027,0.3717472118959009
SingleSource/Benchmarks/Misc/flops-2, 0.0270, 0.0269, 0.0269,0.0269, 0.0271, 0.0270, 0.0270,0.027,0.3717472118959009
SingleSource/Benchmarks/Misc/flops-8, 0.0271, 0.0270, 0.0270,0.027, 0.0271, 0.0271, 0.0269,0.0271,0.37037037037037646
SingleSource/Benchmarks/Polybench/stencils/jacobi-2d-imper/jacobi-2d-imper, 0.1113, 0.1111, 0.1110,0.1111, 0.1120, 0.1115, 0.1115,0.1115,0.36003600360035026
MultiSource/Benchmarks/MiBench/automotive-basicmath/automotive-basicmath, 0.1392, 0.1388, 0.1390,0.139, 0.1395, 0.1395, 0.1393,0.1395,0.3597122302158251
MultiSource/Benchmarks/mediabench/mpeg2/mpeg2dec/mpeg2decode, 1.3002, 1.3075, 1.3033,1.3033, 1.3079, 1.3108, 1.3046,1.3079,0.3529502033300158
MultiSource/Benchmarks/TSVC/Reductions-dbl/Reductions-dbl, 2.0416, 2.0413, 2.0388,2.0413, 2.0485, 2.0435, 2.0498,2.0485,0.3527164062117283
MultiSource/Benchmarks/MiBench/security-sha/security-sha, 0.1145, 0.1144, 0.1141,0.1144, 0.1148, 0.1150, 0.1148,0.1148,0.34965034965035446
SingleSource/Benchmarks/Misc/fp-convert, 0.0290, 0.0290, 0.0289,0.029, 0.0291, 0.0291, 0.0290,0.0291,0.34482758620688614
SingleSource/Benchmarks/Polybench/linear-algebra/solvers/lu/lu, 0.0884, 0.0881, 0.0880,0.0881, 0.0886, 0.0884, 0.0883,0.0884,0.34052213393871433
SingleSource/Benchmarks/Polybench/linear-algebra/kernels/gemver/gemver, 0.0894, 0.0895, 0.0893,0.0894, 0.0899, 0.0896, 0.0897,0.0897,0.3355704697986628
MultiSource/Benchmarks/ASCI_Purple/SMG2000/smg2000, 5.5712, 5.5506, 5.5630,5.563, 5.5899, 5.5816, 5.5781,5.5816,0.3343519683624008
SingleSource/Benchmarks/Shootout/methcall, 0.0303, 0.0304, 0.0303,0.0303, 0.0304, 0.0305, 0.0304,0.0304,0.3300330033003229
MultiSource/Benchmarks/TSVC/Recurrences-flt/Recurrences-flt, 1.6142, 1.6137, 1.6142,1.6142, 1.6199, 1.6195, 1.6164,1.6195,0.3283360178416572
SingleSource/Benchmarks/Polybench/linear-algebra/kernels/trisolv/trisolv, 0.0621, 0.0619, 0.0620,0.062, 0.0624, 0.0622, 0.0622,0.0622,0.3225806451612856
SingleSource/Benchmarks/Misc/dt, 0.0313, 0.0312, 0.0312,0.0312, 0.0314, 0.0313, 0.0313,0.0313,0.3205128205128194
MultiSource/Benchmarks/mediabench/g721/g721encode/encode, 0.1883, 0.1881, 0.1881,0.1881, 0.1888, 0.1885, 0.1887,0.1887,0.31897926634769647
MultiSource/Benchmarks/NPB-serial/is/is, 0.0631, 0.0630, 0.0630,0.063, 0.0634, 0.0632, 0.0632,0.0632,0.31746031746031633
SingleSource/Benchmarks/Shootout-C++/ary3, 0.1576, 0.1582, 0.1576,0.1576, 0.1578, 0.1582, 0.1581,0.1581,0.31725888324873885
MultiSource/Benchmarks/Prolangs-C/gnugo/gnugo, 0.6955, 0.6939, 0.6938,0.6939, 0.6966, 0.6961, 0.6960,0.6961,0.3170485660758171
SingleSource/Benchmarks/Polybench/stencils/fdtd-apml/fdtd-apml, 0.1299, 0.1298, 0.1298,0.1298, 0.1302, 0.1300, 0.1303,0.1302,0.30816640986133237
MultiSource/Benchmarks/TSVC/ControlLoops-flt/ControlLoops-flt, 1.7054, 1.7024, 1.7019,1.7024, 1.7076, 1.7099, 1.7053,1.7076,0.30545112781954487
MultiSource/Benchmarks/Olden/health/health, 0.1319, 0.1314, 0.1316,0.1316, 0.1326, 0.1319, 0.1320,0.132,0.3039513677811634
MultiSource/Benchmarks/McCat/17-bintr/bintr, 0.0671, 0.0669, 0.0668,0.0669, 0.0671, 0.0671, 0.0672,0.0671,0.2989536621823774
SingleSource/Benchmarks/Polybench/linear-algebra/solvers/gramschmidt/gramschmidt, 0.1007, 0.1008, 0.1006,0.1007, 0.1010, 0.1009, 0.1010,0.101,0.2979145978152964
MultiSource/Benchmarks/MiBench/telecomm-CRC32/telecomm-CRC32, 0.0339, 0.0338, 0.0338,0.0338, 0.0338, 0.0339, 0.0339,0.0339,0.2958579881656931
MultiSource/Benchmarks/DOE-ProxyApps-C/miniAMR/miniAMR, 1.3190, 1.3192, 1.3193,1.3192, 1.3236, 1.3219, 1.3231,1.3231,0.2956337174044865
MultiSource/Benchmarks/7zip/7zip-benchmark,33.4213,33.4405,33.4126,33.4213,33.5494,33.5197,33.5115,33.5197,0.2944230176564089
MultiSource/Applications/d/make_dparser, 2.5747, 2.5765, 2.5755,2.5755, 2.5846, 2.5830, 2.5771,2.583,0.2912055911473699
MultiSource/Benchmarks/TSVC/Expansion-flt/Expansion-flt, 1.6988, 1.7002, 1.7011,1.7002, 1.7072, 1.7043, 1.7051,1.7051,0.2882013880719958
MultiSource/Benchmarks/MallocBench/espresso/espresso, 4.5032, 4.5013, 4.5052,4.5032, 4.5160, 4.5207, 4.5107,4.516,0.28424231657488974
MultiSource/Benchmarks/Prolangs-C++/ocean/ocean, 0.1064, 0.1064, 0.1064,0.1064, 0.1067, 0.1067, 0.1065,0.1067,0.28195488721804995
MultiSource/Benchmarks/ASC_Sequoia/CrystalMk/CrystalMk, 0.2137, 0.2132, 0.2131,0.2132, 0.2148, 0.2138, 0.2137,0.2138,0.2814258911819856
MultiSource/Benchmarks/SciMark2-C/scimark2, 0.3563, 0.3560, 0.3554,0.356, 0.3578, 0.3569, 0.3570,0.357,0.2808988764045006
SingleSource/Benchmarks/Adobe-C++/loop_unroll, 4.2995, 4.3144, 4.3039,4.3039, 4.3176, 4.3158, 4.3102,4.3158,0.2764934129510621
MultiSource/Benchmarks/TSVC/LoopRerolling-flt/LoopRerolling-flt, 1.6242, 1.6263, 1.6198,1.6242, 1.6286, 1.6303, 1.6218,1.6286,0.270902598202194
SingleSource/Benchmarks/Misc/flops, 0.0757, 0.0756, 0.0757,0.0757, 0.0759, 0.0758, 0.0759,0.0759,0.26420079260236484
SingleSource/Benchmarks/Polybench/linear-algebra/kernels/syr2k/syr2k, 0.0768, 0.0768, 0.0769,0.0768, 0.0770, 0.0770, 0.0767,0.077,0.26041666666667407
MultiSource/Benchmarks/Fhourstones/fhourstones, 0.1558, 0.1553, 0.1555,0.1555, 0.1561, 0.1559, 0.1558,0.1559,0.25723472668810476
SingleSource/Benchmarks/Polybench/linear-algebra/kernels/atax/atax, 0.0788, 0.0786, 0.0786,0.0786, 0.0788, 0.0789, 0.0787,0.0788,0.2544529262086481
SingleSource/Benchmarks/Dhrystone/dry, 0.0397, 0.0397, 0.0398,0.0397, 0.0399, 0.0397, 0.0398,0.0398,0.25188916876575096
MultiSource/Benchmarks/MiBench/telecomm-gsm/telecomm-gsm, 1.0120, 1.0060, 1.0114,1.0114, 1.0160, 1.0121, 1.0139,1.0139,0.24718212378880278
MultiSource/Benchmarks/MiBench/network-dijkstra/network-dijkstra, 0.0408, 0.0406, 0.0407,0.0407, 0.0408, 0.0408, 0.0408,0.0408,0.24570024570025328
MultiSource/Benchmarks/MiBench/automotive-bitcount/automotive-bitcount, 0.2447, 0.2441, 0.2445,0.2445, 0.2455, 0.2451, 0.2448,0.2451,0.24539877300613355
MultiSource/Benchmarks/BitBench/uuencode/uuencode, 0.0417, 0.0415, 0.0416,0.0416, 0.0417, 0.0417, 0.0416,0.0417,0.24038461538462563
MultiSource/Benchmarks/BitBench/drop3/drop3, 0.0417, 0.0417, 0.0416,0.0417, 0.0418, 0.0418, 0.0417,0.0418,0.23980815347721673
SingleSource/Benchmarks/Dhrystone/fldry, 0.0428, 0.0427, 0.0428,0.0428, 0.0430, 0.0428, 0.0429,0.0429,0.23364485981309802
SingleSource/Benchmarks/Linpack/linpack-pc, 0.3047, 0.3042, 0.3043,0.3043, 0.3056, 0.3049, 0.3050,0.305,0.23003614853762677
SingleSource/Benchmarks/Misc/perlin, 0.0439, 0.0439, 0.0439,0.0439, 0.0440, 0.0440, 0.0440,0.044,0.227790432801811
SingleSource/Benchmarks/Polybench/stencils/fdtd-2d/fdtd-2d, 0.1368, 0.1369, 0.1368,0.1368, 0.1373, 0.1368, 0.1371,0.1371,0.21929824561404132
MultiSource/Benchmarks/llubenchmark/llu, 0.0457, 0.0458, 0.0457,0.0457, 0.0458, 0.0458, 0.0457,0.0458,0.2188183807439792
MultiSource/Benchmarks/Trimaran/enc-rc4/enc-rc4, 0.0484, 0.0484, 0.0483,0.0484, 0.0485, 0.0484, 0.0485,0.0485,0.20661157024794985
MultiSource/Benchmarks/Prolangs-C/agrep/agrep, 1.3141, 1.3183, 1.3114,1.3141, 1.3156, 1.3168, 1.3204,1.3168,0.20546381553914195
SingleSource/Benchmarks/Shootout/hash, 0.0500, 0.0499, 0.0499,0.0499, 0.0501, 0.0500, 0.0500,0.05,0.20040080160321772
MultiSource/Benchmarks/McCat/05-eks/eks, 0.5082, 0.5066, 0.5075,0.5075, 0.5095, 0.5085, 0.5084,0.5085,0.19704433497536034
MultiSource/Applications/ALAC/encode/alacconvert-encode, 0.9229, 0.9235, 0.9222,0.9229, 0.9258, 0.9247, 0.9241,0.9247,0.19503738216490873
MultiSource/Benchmarks/Prolangs-C++/simul/simul, 0.0514, 0.0511, 0.0516,0.0514, 0.0515, 0.0515, 0.0511,0.0515,0.1945525291828787
SingleSource/Benchmarks/Stanford/FloatMM, 0.0518, 0.0518, 0.0518,0.0518, 0.0519, 0.0519, 0.0517,0.0519,0.19305019305020377
SingleSource/Benchmarks/McGill/misr, 0.0520, 0.0519, 0.0520,0.052, 0.0521, 0.0521, 0.0520,0.0521,0.19230769230769162
MultiSource/Benchmarks/TSVC/Reductions-flt/Reductions-flt, 1.7099, 1.7063, 1.7110,1.7099, 1.7129, 1.7142, 1.7093,1.7129,0.17544885665830012
MultiSource/Applications/JM/lencod/lencod,14.6309,14.6229,14.6109,14.6229,14.6512,14.6483,14.6440,14.6483,0.17370015523596738
MultiSource/Applications/JM/ldecod/ldecod, 6.2299, 6.2295, 6.2276,6.2295, 6.2403, 6.2537, 6.2357,6.2403,0.17336864916928096
MultiSource/Benchmarks/Prolangs-C++/life/life, 0.0581, 0.0581, 0.0581,0.0581, 0.0581, 0.0582, 0.0582,0.0582,0.1721170395869276
MultiSource/Benchmarks/Olden/bisort/bisort, 0.0609, 0.0609, 0.0608,0.0609, 0.0610, 0.0610, 0.0609,0.061,0.16420361247946325
SingleSource/Benchmarks/Shootout-C++/random, 0.1243, 0.1242, 0.1241,0.1242, 0.1244, 0.1244, 0.1247,0.1244,0.16103059581320522
SingleSource/Benchmarks/Shootout-C++/strcat, 0.1249, 0.1253, 0.1247,0.1249, 0.1254, 0.1251, 0.1250,0.1251,0.16012810248198228
MultiSource/Benchmarks/TSVC/GlobalDataFlow-flt/GlobalDataFlow-flt, 1.6937, 1.6968, 1.6931,1.6937, 1.7005, 1.6964, 1.6962,1.6964,0.15941430005312895
MultiSource/Benchmarks/Ptrdist/yacr2/yacr2, 0.5918, 0.5915, 0.5910,0.5915, 0.5925, 0.5914, 0.5924,0.5924,0.15215553677092597
SingleSource/Benchmarks/Misc/ffbench, 0.0659, 0.0657, 0.0658,0.0658, 0.0660, 0.0658, 0.0659,0.0659,0.1519756838905817
MultiSource/Benchmarks/TSVC/Symbolics-flt/Symbolics-flt, 1.6556, 1.6603, 1.6529,1.6556, 1.6581, 1.6548, 1.6585,1.6581,0.15100265764678156
MultiSource/Benchmarks/TSVC/IndirectAddressing-dbl/IndirectAddressing-dbl, 1.9796, 1.9766, 1.9812,1.9796, 1.9860, 1.9815, 1.9825,1.9825,0.14649424126085275
MultiSource/Benchmarks/sim/sim, 0.2807, 0.2811, 0.2806,0.2807, 0.2813, 0.2804, 0.2811,0.2811,0.14250089063057025
SingleSource/Benchmarks/Polybench/linear-algebra/solvers/dynprog/dynprog, 0.0717, 0.0718, 0.0719,0.0718, 0.0719, 0.0719, 0.0718,0.0719,0.139275766016711
SingleSource/Benchmarks/Polybench/linear-algebra/kernels/symm/symm, 0.0756, 0.0755, 0.0757,0.0756, 0.0758, 0.0755, 0.0757,0.0757,0.1322751322751392
MultiSource/Benchmarks/FreeBench/pifft/pifft, 0.9149, 0.9150, 0.9157,0.915, 0.9174, 0.9162, 0.9152,0.9162,0.13114754098360049
MultiSource/Applications/viterbi/viterbi, 0.1623, 0.1620, 0.1622,0.1622, 0.1626, 0.1624, 0.1621,0.1624,0.12330456226878894
MultiSource/Benchmarks/McCat/03-testtrie/testtrie, 0.0870, 0.0868, 0.0869,0.0869, 0.0871, 0.0869, 0.0870,0.087,0.11507479861909697
MultiSource/Benchmarks/McCat/12-IOtest/iotest, 0.0888, 0.0889, 0.0887,0.0888, 0.0891, 0.0889, 0.0888,0.0889,0.11261261261261701
MultiSource/Benchmarks/TSVC/LoopRerolling-dbl/LoopRerolling-dbl, 1.9593, 1.9452, 1.9558,1.9558, 1.9632, 1.9578, 1.9577,1.9578,0.10225994477963685
SingleSource/Benchmarks/SmallPT/smallpt, 0.0982, 0.0983, 0.0983,0.0983, 0.0984, 0.0984, 0.0980,0.0984,0.10172939979653517
MultiSource/Benchmarks/TSVC/LoopRestructuring-flt/LoopRestructuring-flt, 1.6725, 1.6705, 1.6781,1.6725, 1.6742, 1.6754, 1.6729,1.6742,0.10164424514198522
MultiSource/Benchmarks/TSVC/Symbolics-dbl/Symbolics-dbl, 1.9919, 1.9862, 1.9879,1.9879, 1.9898, 1.9873, 1.9902,1.9898,0.0955782484028278
SingleSource/Benchmarks/Adobe-C++/simple_types_loop_invariant, 1.9672, 1.9705, 1.9637,1.9672, 1.9735, 1.9618, 1.9688,1.9688,0.08133387555917526
MultiSource/Benchmarks/Olden/bh/bh, 0.2495, 0.2497, 0.2499,0.2497, 0.2508, 0.2499, 0.2496,0.2499,0.08009611533841277
MultiSource/Benchmarks/Prolangs-C/bison/mybison, 1.5772, 1.5772, 1.5762,1.5772, 1.5800, 1.5784, 1.5780,1.5784,0.07608419984783676
MultiSource/Applications/lua/lua, 3.1828, 3.1866, 3.1769,3.1828, 3.1852, 3.1873, 3.1852,3.1852,0.07540530350635954
MultiSource/Benchmarks/DOE-ProxyApps-C/Pathfinder/PathFinder, 0.7995, 0.7965, 0.7953,0.7965, 0.7971, 0.7907, 0.7977,0.7971,0.07532956685498693
MultiSource/Benchmarks/TSVC/Searching-flt/Searching-flt, 1.6016, 1.6040, 1.6013,1.6016, 1.6024, 1.6028, 1.6044,1.6028,0.07492507492508071
MultiSource/Benchmarks/McCat/18-imp/imp, 0.3218, 0.3221, 0.3221,0.3221, 0.3226, 0.3223, 0.3220,0.3223,0.062092517851586315
MultiSource/Benchmarks/FreeBench/neural/neural, 0.1741, 0.1742, 0.1744,0.1742, 0.1747, 0.1742, 0.1743,0.1743,0.05740528128588274
MultiSource/Benchmarks/TSVC/GlobalDataFlow-dbl/GlobalDataFlow-dbl, 2.0243, 2.0231, 2.0247,2.0243, 2.0297, 2.0254, 2.0116,2.0254,0.054339771772937695
MultiSource/Benchmarks/TSVC/NodeSplitting-flt/NodeSplitting-flt, 1.6419, 1.6352, 1.6459,1.6419, 1.6424, 1.6438, 1.6323,1.6424,0.030452524514301693
MultiSource/Benchmarks/MallocBench/gs/gs, 3.6434, 3.6384, 3.6404,3.6404, 3.6424, 3.6413, 3.6354,3.6413,0.024722557960665803
MultiSource/Applications/sqlite3/sqlite3,14.5631,14.5803,14.5780,14.578,14.6066,14.5745,14.5813,14.5813,0.022636850048018964
MultiSource/Applications/ClamAV/clamscan,14.2364,14.2558,14.2457,14.2457,14.2406,14.2485,14.2543,14.2485,0.019655053805722744
MultiSource/Benchmarks/TSVC/StatementReordering-dbl/StatementReordering-dbl, 1.9611, 1.9493, 1.9503,1.9503, 1.9506, 1.9514, 1.9487,1.9506,0.015382248884776573
MultiSource/Benchmarks/DOE-ProxyApps-C/miniGMG/miniGMG, 0.9584, 0.9580, 0.9586,0.9584, 0.9586, 0.9584, 0.9585,0.9585,0.010434056761265964
MultiSource/Benchmarks/TSVC/LinearDependence-dbl/LinearDependence-dbl, 2.0478, 2.0549, 2.0516,2.0516, 2.0518, 2.0519, 2.0488,2.0518,0.009748488984206993
MultiSource/Benchmarks/nbench/nbench, 1.1022, 1.1048, 1.1034,1.1034, 1.1049, 1.1028, 1.1035,1.1035,0.009062896501710327
MultiSource/Benchmarks/mediabench/jpeg/jpeg-6a/cjpeg, 4.3914, 4.3910, 4.3876,4.391, 4.3989, 4.3911, 4.3872,4.3911,0.0022773855613777982
SingleSource/Regression/C/2004-08-12-InlinerAndAllocas, 0.0185, 0.0184, 0.0183,0.0184, 0.0184, 0.0184, 0.0184,0.0184,0.0
SingleSource/Benchmarks/Stanford/Queens, 0.0434, 0.0433, 0.0434,0.0434, 0.0434, 0.0434, 0.0434,0.0434,0.0
SingleSource/Benchmarks/Stanford/Bubblesort, 0.0327, 0.0326, 0.0326,0.0326, 0.0326, 0.0326, 0.0326,0.0326,0.0
SingleSource/Benchmarks/Shootout/strcat, 0.0262, 0.0261, 0.0261,0.0261, 0.0263, 0.0261, 0.0261,0.0261,0.0
SingleSource/Benchmarks/Shootout/fib2, 0.0187, 0.0185, 0.0186,0.0186, 0.0186, 0.0186, 0.0186,0.0186,0.0
SingleSource/Benchmarks/Shootout-C++/ackermann, 0.1161, 0.1165, 0.1161,0.1161, 0.1161, 0.1165, 0.1160,0.1161,0.0
SingleSource/Benchmarks/Polybench/stencils/jacobi-1d-imper/jacobi-1d-imper, 0.0824, 0.0825, 0.0825,0.0825, 0.0827, 0.0825, 0.0824,0.0825,0.0
SingleSource/Benchmarks/Polybench/stencils/adi/adi, 0.0889, 0.0888, 0.0886,0.0888, 0.0887, 0.0888, 0.0888,0.0888,0.0
SingleSource/Benchmarks/Polybench/linear-algebra/solvers/durbin/durbin, 0.0869, 0.0867, 0.0868,0.0868, 0.0868, 0.0868, 0.0867,0.0868,0.0
SingleSource/Benchmarks/Polybench/linear-algebra/kernels/gesummv/gesummv, 0.0659, 0.0659, 0.0660,0.0659, 0.0660, 0.0659, 0.0658,0.0659,0.0
SingleSource/Benchmarks/Polybench/linear-algebra/kernels/cholesky/cholesky, 0.0912, 0.0910, 0.0908,0.091, 0.0909, 0.0912, 0.0910,0.091,0.0
SingleSource/Benchmarks/Polybench/datamining/covariance/covariance, 0.0825, 0.0824, 0.0824,0.0824, 0.0823, 0.0825, 0.0824,0.0824,0.0
SingleSource/Benchmarks/Misc/richards_benchmark, 0.0623, 0.0621, 0.0621,0.0621, 0.0621, 0.0621, 0.0621,0.0621,0.0
SingleSource/Benchmarks/Misc/revertBits, 0.0244, 0.0244, 0.0243,0.0244, 0.0244, 0.0243, 0.0244,0.0244,0.0
SingleSource/Benchmarks/Misc/matmul_f64_4x4, 0.0272, 0.0271, 0.0272,0.0272, 0.0272, 0.0272, 0.0271,0.0272,0.0
SingleSource/Benchmarks/Misc/flops-7, 0.0258, 0.0257, 0.0258,0.0258, 0.0259, 0.0258, 0.0258,0.0258,0.0
SingleSource/Benchmarks/Misc/flops-5, 0.0271, 0.0269, 0.0270,0.027, 0.0271, 0.0270, 0.0270,0.027,0.0
SingleSource/Benchmarks/Misc/flops-3, 0.0259, 0.0258, 0.0259,0.0259, 0.0259, 0.0259, 0.0259,0.0259,0.0
SingleSource/Benchmarks/Misc/flops-1, 0.0261, 0.0260, 0.0261,0.0261, 0.0262, 0.0261, 0.0261,0.0261,0.0
SingleSource/Benchmarks/Misc-C++/stepanov_v1p2, 0.1704, 0.1700, 0.1703,0.1703, 0.1704, 0.1703, 0.1700,0.1703,0.0
SingleSource/Benchmarks/Misc-C++/mandel-text, 0.0231, 0.0230, 0.0230,0.023, 0.0231, 0.0230, 0.0230,0.023,0.0
SingleSource/Benchmarks/Misc-C++/Large/sphereflake, 0.2193, 0.2189, 0.2191,0.2191, 0.2192, 0.2191, 0.2189,0.2191,0.0
MultiSource/Benchmarks/Trimaran/netbench-url/netbench-url, 0.1999, 0.1992, 0.2000,0.1999, 0.2004, 0.1999, 0.1996,0.1999,0.0
MultiSource/Benchmarks/Prolangs-C++/primes/primes, 0.0239, 0.0238, 0.0238,0.0238, 0.0239, 0.0238, 0.0238,0.0238,0.0
MultiSource/Benchmarks/Olden/perimeter/perimeter, 0.0742, 0.0742, 0.0741,0.0742, 0.0743, 0.0742, 0.0742,0.0742,0.0
MultiSource/Benchmarks/FreeBench/mason/mason, 0.0485, 0.0483, 0.0484,0.0484, 0.0484, 0.0484, 0.0484,0.0484,0.0
MultiSource/Benchmarks/BitBench/uudecode/uudecode, 0.0425, 0.0424, 0.0423,0.0424, 0.0426, 0.0424, 0.0424,0.0424,0.0
MultiSource/Benchmarks/BitBench/five11/five11, 0.0525, 0.0525, 0.0524,0.0525, 0.0525, 0.0525, 0.0524,0.0525,0.0
MultiSource/Benchmarks/Bullet/bullet,22.7947,22.7656,22.7647,22.7656,22.7643,22.7688,22.6839,22.7643,-0.005710370031974943
MultiSource/Benchmarks/MiBench/consumer-jpeg/consumer-jpeg, 4.3415, 4.3409, 4.3388,4.3409, 4.3435, 4.3399, 4.3377,4.3399,-0.023036697459055677
MultiSource/Benchmarks/PAQ8p/paq8p, 1.8882, 1.8919, 1.8950,1.8919, 1.8947, 1.8912, 1.8830,1.8912,-0.03699984142924162
MultiSource/Benchmarks/Trimaran/enc-3des/enc-3des, 0.2373, 0.2374, 0.2369,0.2373, 0.2375, 0.2372, 0.2371,0.2372,-0.04214075010535723
MultiSource/Benchmarks/Ptrdist/ft/ft, 0.2004, 0.2004, 0.2006,0.2004, 0.2003, 0.2003, 0.1999,0.2003,-0.04990019960079417
MultiSource/Applications/spiff/spiff, 0.7330, 0.7287, 0.7309,0.7309, 0.7302, 0.7319, 0.7305,0.7305,-0.05472704884388335
SingleSource/Benchmarks/Shootout-C++/matrix, 0.1832, 0.1827, 0.1827,0.1827, 0.1831, 0.1826, 0.1823,0.1826,-0.054734537493150714
MultiSource/Applications/oggenc/oggenc, 4.8087, 4.7926, 4.8026,4.8026, 4.8128, 4.7915, 4.7997,4.7997,-0.06038395868904756
MultiSource/Benchmarks/TSVC/Packing-flt/Packing-flt, 1.6237, 1.6196, 1.6140,1.6196, 1.6184, 1.6199, 1.6166,1.6184,-0.07409236848603395
MultiSource/Benchmarks/TSVC/LoopRestructuring-dbl/LoopRestructuring-dbl, 2.0043, 2.0127, 2.0058,2.0058, 2.0064, 2.0042, 2.0017,2.0042,-0.07976867085450756
SingleSource/Benchmarks/Shootout-C++/fibo, 0.1146, 0.1146, 0.1142,0.1146, 0.1145, 0.1146, 0.1142,0.1145,-0.08726003490400203
MultiSource/Benchmarks/TSVC/LinearDependence-flt/LinearDependence-flt, 1.7305, 1.7282, 1.7243,1.7282, 1.7264, 1.7325, 1.7266,1.7266,-0.09258187709756394
MultiSource/Benchmarks/TSVC/ControlFlow-flt/ControlFlow-flt, 1.7957, 1.8013, 1.7921,1.7957, 1.7948, 1.7939, 1.7924,1.7939,-0.10023946093445923
MultiSource/Benchmarks/ASC_Sequoia/IRSmk/IRSmk, 0.0989, 0.0989, 0.0987,0.0989, 0.0988, 0.0988, 0.0987,0.0988,-0.10111223458039165
MultiSource/Benchmarks/Ptrdist/anagram/anagram, 0.0981, 0.0980, 0.0979,0.098, 0.0980, 0.0979, 0.0978,0.0979,-0.10204081632653184
MultiSource/Benchmarks/FreeBench/distray/distray, 0.0919, 0.0918, 0.0918,0.0918, 0.0918, 0.0916, 0.0917,0.0917,-0.10893246187364536
MultiSource/Applications/hexxagon/hexxagon, 0.6553, 0.6579, 0.6558,0.6558, 0.6550, 0.6554, 0.6536,0.655,-0.12198841110094838
SingleSource/Benchmarks/Polybench/linear-algebra/kernels/bicg/bicg, 0.0774, 0.0773, 0.0772,0.0773, 0.0772, 0.0773, 0.0771,0.0772,-0.1293661060801976
SingleSource/Benchmarks/Polybench/linear-algebra/kernels/syrk/syrk, 0.0753, 0.0752, 0.0751,0.0752, 0.0751, 0.0752, 0.0751,0.0751,-0.13297872340426453
SingleSource/Benchmarks/CoyoteBench/lpbench, 0.1494, 0.1492, 0.1488,0.1492, 0.1491, 0.1490, 0.1488,0.149,-0.13404825737265424
MultiSource/Benchmarks/TSVC/Searching-dbl/Searching-dbl, 1.9374, 1.9364, 1.9347,1.9364, 1.9392, 1.9336, 1.9321,1.9336,-0.1445982235075305
SingleSource/Benchmarks/Misc/whetstone, 0.0660, 0.0660, 0.0658,0.066, 0.0659, 0.0659, 0.0658,0.0659,-0.15151515151515804
SingleSource/Benchmarks/Shootout/lists, 0.0657, 0.0655, 0.0656,0.0656, 0.0655, 0.0656, 0.0655,0.0655,-0.1524390243902496
SingleSource/Benchmarks/Shootout-C++/EH/except, 0.1293, 0.1294, 0.1296,0.1294, 0.1292, 0.1291, 0.1292,0.1292,-0.1545595054095683
MultiSource/Benchmarks/MallocBench/cfrac/cfrac, 0.8411, 0.8453, 0.8361,0.8411, 0.8400, 0.8398, 0.8386,0.8398,-0.1545595054095794
MultiSource/Benchmarks/TSVC/CrossingThresholds-dbl/CrossingThresholds-dbl, 1.9979, 1.9951, 1.9954,1.9954, 1.9952, 1.9896, 1.9917,1.9917,-0.18542648090608127
MultiSource/Benchmarks/TSVC/Expansion-dbl/Expansion-dbl, 2.0348, 2.0361, 2.0358,2.0358, 2.0342, 2.0317, 2.0312,2.0317,-0.20139502898124384
MultiSource/Benchmarks/Ptrdist/bc/bc, 0.9888, 0.9885, 0.9891,0.9888, 0.9876, 0.9867, 0.9868,0.9868,-0.20226537216828655
SingleSource/Benchmarks/Stanford/RealMM, 0.0489, 0.0490, 0.0489,0.0489, 0.0489, 0.0488, 0.0488,0.0488,-0.2044989775051076
SingleSource/Benchmarks/McGill/chomp, 0.1844, 0.1847, 0.1847,0.1847, 0.1848, 0.1843, 0.1841,0.1843,-0.21656740660531693
MultiSource/Benchmarks/TSVC/IndirectAddressing-flt/IndirectAddressing-flt, 1.6493, 1.6465, 1.6459,1.6465, 1.6482, 1.6427, 1.6429,1.6429,-0.21864561190404475
MultiSource/Benchmarks/Olden/em3d/em3d, 0.1699, 0.1693, 0.1695,0.1695, 0.1695, 0.1691, 0.1690,0.1691,-0.23598820058997605
MultiSource/Benchmarks/TSVC/ControlFlow-dbl/ControlFlow-dbl, 2.1298, 2.1484, 2.1293,2.1298, 2.1320, 2.1247, 2.1240,2.1247,-0.2394591041412375
SingleSource/Benchmarks/Shootout/matrix, 0.0810, 0.0809, 0.0810,0.081, 0.0810, 0.0808, 0.0808,0.0808,-0.24691358024692134
SingleSource/Benchmarks/Shootout-C++/ary2, 0.1558, 0.1562, 0.1557,0.1558, 0.1554, 0.1554, 0.1552,0.1554,-0.25673940949935137
SingleSource/Benchmarks/Stanford/Treesort, 0.0372, 0.0372, 0.0372,0.0372, 0.0371, 0.0371, 0.0371,0.0371,-0.26881720430106393
MultiSource/Benchmarks/DOE-ProxyApps-C++/HPCCG/HPCCG, 1.3850, 1.3834, 1.3838,1.3838, 1.3799, 1.3789, 1.3802,1.3799,-0.28183263477381537
MultiSource/Benchmarks/Ptrdist/ks/ks, 0.1413, 0.1414, 0.1410,0.1413, 0.1409, 0.1409, 0.1408,0.1409,-0.2830856334041121
MultiSource/Benchmarks/mafft/pairlocalalign, 8.6469, 8.6488, 8.6447,8.6469, 8.6332, 8.6217, 8.6214,8.6217,-0.2914339242965691
MultiSource/Benchmarks/TSVC/Recurrences-dbl/Recurrences-dbl, 1.9472, 1.9529, 1.9489,1.9489, 1.9484, 1.9431, 1.9411,1.9431,-0.297603776489308
MultiSource/Applications/hbd/hbd, 1.1683, 1.1715, 1.1674,1.1683, 1.1681, 1.1647, 1.1594,1.1647,-0.3081400325258721
MultiSource/Benchmarks/TSVC/ControlLoops-dbl/ControlLoops-dbl, 2.0432, 2.0424, 2.0402,2.0424, 2.0375, 2.0361, 2.0344,2.0361,-0.30846063454761374
MultiSource/Benchmarks/TSVC/InductionVariable-dbl/InductionVariable-dbl, 2.0148, 2.0120, 2.0116,2.012, 2.0074, 2.0056, 2.0048,2.0056,-0.31809145129225724
MultiSource/Applications/obsequi/Obsequi, 0.9460, 0.9530, 0.9593,0.953, 0.9499, 0.9492, 0.9557,0.9499,-0.3252885624344115
SingleSource/Benchmarks/Shootout-C++/sieve, 0.1840, 0.1839, 0.1843,0.184, 0.1829, 0.1834, 0.1837,0.1834,-0.3260869565217317
MultiSource/Benchmarks/TSVC/Equivalencing-dbl/Equivalencing-dbl, 2.0037, 2.0015, 2.0034,2.0034, 2.0076, 1.9962, 1.9931,1.9962,-0.3593890386343279
SingleSource/Benchmarks/Polybench/linear-algebra/kernels/mvt/mvt, 0.0800, 0.0799, 0.0800,0.08, 0.0797, 0.0796, 0.0797,0.0797,-0.3750000000000142
SingleSource/Benchmarks/Misc/salsa20, 0.0529, 0.0529, 0.0529,0.0529, 0.0527, 0.0528, 0.0527,0.0527,-0.3780718336484079
MultiSource/Benchmarks/MiBench/consumer-typeset/consumer-typeset, 9.6940, 9.6975, 9.7000,9.6975, 9.6606, 9.6616, 9.6508,9.6606,-0.38051044083525776
MultiSource/Benchmarks/Prolangs-C++/employ/employ, 0.1975, 0.1978, 0.1973,0.1975, 0.1966, 0.1971, 0.1964,0.1966,-0.45569620253165244
MultiSource/Benchmarks/TSVC/Equivalencing-flt/Equivalencing-flt, 1.6673, 1.6681, 1.6667,1.6673, 1.6615, 1.6594, 1.6591,1.6594,-0.47381994841960706
MultiSource/Benchmarks/Olden/tsp/tsp, 0.1229, 0.1225, 0.1226,0.1226, 0.1225, 0.1217, 0.1220,0.122,-0.4893964110929905
MultiSource/Applications/siod/siod, 1.9353, 1.9376, 1.9455,1.9376, 1.9238, 1.9453, 1.9279,1.9279,-0.5006193228736633
MultiSource/Benchmarks/Prolangs-C++/city/city, 0.8922, 0.8920, 0.8925,0.8922, 0.8898, 0.8877, 0.8868,0.8877,-0.5043712172158599
SingleSource/Benchmarks/Shootout-C++/ary, 0.1540, 0.1546, 0.1544,0.1544, 0.1541, 0.1536, 0.1535,0.1536,-0.5181347150259197
MultiSource/Benchmarks/FreeBench/fourinarow/fourinarow, 0.3345, 0.3341, 0.3345,0.3345, 0.3332, 0.3326, 0.3323,0.3326,-0.568011958146486
SingleSource/Benchmarks/Misc/evalloop, 0.0351, 0.0351, 0.0351,0.0351, 0.0349, 0.0350, 0.0349,0.0349,-0.5698005698005715
MultiSource/Benchmarks/tramp3d-v4/tramp3d-v4,19.9512,19.9657,19.9427,19.9512,19.8557,19.8098,19.8332,19.8332,-0.5914431212157623
SingleSource/Benchmarks/Shootout-C++/methcall, 0.1245, 0.1246, 0.1245,0.1245, 0.1240, 0.1235, 0.1237,0.1237,-0.6425702811244993
MultiSource/Benchmarks/DOE-ProxyApps-C++/PENNANT/PENNANT, 4.0357, 4.0390, 4.0341,4.0357, 4.0155, 4.0096, 4.0093,4.0096,-0.6467279530193104
MultiSource/Applications/kimwitu++/kc,10.9953,11.0139,11.0106,11.0106,10.9622,10.9203,10.9387,10.9387,-0.6530071022469164
MultiSource/Applications/SPASS/SPASS,12.0595,12.0593,12.0540,12.0593,11.9856,11.9711,11.9803,11.9803,-0.6550960669359007
SingleSource/Benchmarks/Shootout-C++/lists, 0.1610, 0.1609, 0.1604,0.1609, 0.1598, 0.1598, 0.1595,0.1598,-0.6836544437538783
MultiSource/Benchmarks/DOE-ProxyApps-C++/miniFE/miniFE, 2.5495, 2.5492, 2.5478,2.5492, 2.5276, 2.5332, 2.5308,2.5308,-0.7217950729640599
MultiSource/Benchmarks/MiBench/automotive-susan/automotive-susan, 0.6331, 0.6383, 0.6404,0.6383, 0.6318, 0.6366, 0.6334,0.6334,-0.7676641077863144
SingleSource/Benchmarks/CoyoteBench/huffbench, 0.0837, 0.0836, 0.0837,0.0837, 0.0833, 0.0830, 0.0828,0.083,-0.8363201911588902
MultiSource/Benchmarks/McCat/09-vor/vor, 0.2651, 0.2647, 0.2649,0.2649, 0.2631, 0.2626, 0.2626,0.2626,-0.8682521706304347
MultiSource/Benchmarks/MiBench/security-rijndael/security-rijndael, 0.3923, 0.3929, 0.3929,0.3929, 0.3895, 0.3894, 0.3890,0.3894,-0.8908119114278468
SingleSource/Benchmarks/Misc-C++-EH/spirit, 3.5765, 3.6039, 3.5727,3.5765, 3.5333, 3.5385, 3.5443,3.5385,-1.0624912624073723
MultiSource/Benchmarks/DOE-ProxyApps-C++/CLAMR/CLAMR,17.8268,17.8052,17.8187,17.8187,17.6251,17.5922,17.5932,17.5932,-1.265524420973474
SingleSource/Benchmarks/Shootout-C++/hash, 0.2694, 0.2697, 0.2686,0.2694, 0.2668, 0.2657, 0.2656,0.2657,-1.3734224201930156
SingleSource/Benchmarks/Shootout-C++/moments, 0.2441, 0.2436, 0.2442,0.2441, 0.2387, 0.2382, 0.2377,0.2382,-2.417042195821395
SingleSource/Benchmarks/Adobe-C++/functionobjects, 0.4526, 0.4520, 0.4519,0.452, 0.4361, 0.4361, 0.4360,0.4361,-3.5176991150442483
SingleSource/Benchmarks/Adobe-C++/stepanov_abstraction, 0.6047, 0.6091, 0.6049,0.6049, 0.5416, 0.5416, 0.5399,0.5416,-10.46453959332121
MultiSource/Benchmarks/Olden/voronoi/voronoi, 0.2349, 0.2349, 0.2349,0.2349, 0.2102, 0.2098, 0.2101,0.2101,-10.557684120902511
Total elapsed time,-,-,-,362.8894000000005,-,-,-,362.5184999999999,-0.10220744943241211
Total failure,-,-,-,0,-,-,-,0,
Geom. avg slowdown,,,,,,,,,0.0931677994709%
