Benchmarks,base-5.0,base-5.0,base-5.0,median,nocapture-opt-noprov-5.0,nocapture-opt-noprov-5.0,nocapture-opt-noprov-5.0,median,Slowdown(%)
SingleSource/Benchmarks/Adobe-C++/stepanov_vector, 0.6803, 0.6865, 0.6831,0.6831, 0.7860, 0.7795, 0.7817,0.7817,14.434197042892682
SingleSource/Benchmarks/Stanford/Oscar, 0.0580, 0.0580, 0.0580,0.058, 0.0628, 0.0627, 0.0626,0.0627,8.103448275862068
MultiSource/Benchmarks/Olden/mst/mst, 0.1146, 0.1145, 0.1146,0.1146, 0.1188, 0.1185, 0.1183,0.1185,3.4031413612565453
MultiSource/Benchmarks/DOE-ProxyApps-C/RSBench/rsbench, 0.3625, 0.3628, 0.3624,0.3625, 0.3726, 0.3716, 0.3712,0.3716,2.5103448275862084
MultiSource/Benchmarks/McCat/08-main/main, 0.2204, 0.2201, 0.2201,0.2201, 0.2256, 0.2250, 0.2249,0.225,2.22626079054975
SingleSource/Benchmarks/Misc/himenobmtxpa, 0.1582, 0.1581, 0.1578,0.1581, 0.1616, 0.1615, 0.1612,0.1615,2.1505376344086002
SingleSource/Benchmarks/Misc/flops-1, 0.0256, 0.0256, 0.0255,0.0256, 0.0262, 0.0259, 0.0261,0.0261,1.953125
SingleSource/Benchmarks/Misc/flops-4, 0.0258, 0.0258, 0.0258,0.0258, 0.0265, 0.0263, 0.0263,0.0263,1.9379844961240345
SingleSource/Benchmarks/Misc/flops-6, 0.0264, 0.0264, 0.0264,0.0264, 0.0271, 0.0269, 0.0268,0.0269,1.8939393939394034
SingleSource/Benchmarks/Misc/flops-5, 0.0264, 0.0264, 0.0264,0.0264, 0.0270, 0.0269, 0.0268,0.0269,1.8939393939394034
MultiSource/Benchmarks/DOE-ProxyApps-C/XSBench/XSBench, 0.3228, 0.3228, 0.3225,0.3228, 0.3295, 0.3287, 0.3287,0.3287,1.8277571251549052
SingleSource/Benchmarks/Misc/dt, 0.0303, 0.0304, 0.0303,0.0303, 0.0310, 0.0308, 0.0308,0.0308,1.650165016501659
MultiSource/Benchmarks/Trimaran/enc-md5/enc-md5, 0.1362, 0.1365, 0.1362,0.1362, 0.1385, 0.1384, 0.1384,0.1384,1.6152716593245353
SingleSource/Benchmarks/Misc/flops-7, 0.0253, 0.0253, 0.0253,0.0253, 0.0259, 0.0257, 0.0257,0.0257,1.5810276679842028
SingleSource/Benchmarks/Misc/flops-3, 0.0254, 0.0254, 0.0254,0.0254, 0.0259, 0.0257, 0.0258,0.0258,1.5748031496062964
SingleSource/Benchmarks/Misc/flops-2, 0.0264, 0.0265, 0.0265,0.0265, 0.0270, 0.0269, 0.0268,0.0269,1.5094339622641506
SingleSource/Benchmarks/Shootout/random, 0.0283, 0.0283, 0.0283,0.0283, 0.0288, 0.0286, 0.0287,0.0287,1.4134275618374659
MultiSource/Benchmarks/mediabench/adpcm/rawcaudio/rawcaudio, 0.0526, 0.0526, 0.0528,0.0526, 0.0535, 0.0533, 0.0530,0.0533,1.3307984790874583
MultiSource/Benchmarks/Olden/treeadd/treeadd, 0.0534, 0.0533, 0.0533,0.0533, 0.0544, 0.0540, 0.0538,0.054,1.31332082551594
MultiSource/Applications/spiff/spiff, 0.6928, 0.6932, 0.6932,0.6932, 0.7042, 0.7020, 0.7011,0.702,1.2694748990190297
MultiSource/Benchmarks/FreeBench/analyzer/analyzer, 0.2207, 0.2208, 0.2207,0.2207, 0.2240, 0.2235, 0.2230,0.2235,1.2686905301313889
SingleSource/Benchmarks/Shootout-C++/ary3, 0.1460, 0.1461, 0.1460,0.146, 0.1480, 0.1478, 0.1477,0.1478,1.2328767123287676
MultiSource/Benchmarks/MiBench/telecomm-FFT/telecomm-fft, 0.1300, 0.1299, 0.1298,0.1299, 0.1319, 0.1315, 0.1315,0.1315,1.231716705157826
SingleSource/Benchmarks/Misc/mandel, 0.0412, 0.0412, 0.0412,0.0412, 0.0419, 0.0417, 0.0417,0.0417,1.2135922330097193
SingleSource/Benchmarks/CoyoteBench/almabench, 0.0617, 0.0615, 0.0616,0.0616, 0.0624, 0.0623, 0.0623,0.0623,1.1363636363636243
SingleSource/Benchmarks/Polybench/linear-algebra/kernels/symm/symm, 0.0708, 0.0710, 0.0707,0.0708, 0.0718, 0.0716, 0.0716,0.0716,1.1299435028248483
SingleSource/Benchmarks/Shootout-C++/strcat, 0.1162, 0.1163, 0.1163,0.1163, 0.1179, 0.1176, 0.1173,0.1176,1.1177987962166736
MultiSource/Benchmarks/MiBench/automotive-basicmath/automotive-basicmath, 0.1349, 0.1352, 0.1349,0.1349, 0.1370, 0.1364, 0.1363,0.1364,1.111934766493694
SingleSource/Benchmarks/Shootout/heapsort, 0.0365, 0.0366, 0.0365,0.0365, 0.0371, 0.0369, 0.0369,0.0369,1.0958904109589218
SingleSource/Benchmarks/Polybench/stencils/seidel-2d/seidel-2d, 0.0645, 0.0646, 0.0646,0.0646, 0.0654, 0.0652, 0.0653,0.0653,1.0835913312693402
MultiSource/Benchmarks/DOE-ProxyApps-C/SimpleMOC/SimpleMOC, 0.7931, 0.7935, 0.7923,0.7931, 0.8035, 0.8016, 0.8015,0.8016,1.0717437901903937
SingleSource/Benchmarks/BenchmarkGame/partialsums, 0.0282, 0.0281, 0.0282,0.0282, 0.0286, 0.0285, 0.0285,0.0285,1.0638297872340496
SingleSource/Benchmarks/Shootout/fib2, 0.0189, 0.0189, 0.0190,0.0189, 0.0192, 0.0191, 0.0190,0.0191,1.058201058201047
MultiSource/Benchmarks/Olden/power/power, 0.1186, 0.1185, 0.1187,0.1186, 0.1201, 0.1198, 0.1196,0.1198,1.0118043844856706
MultiSource/Benchmarks/BitBench/five11/five11, 0.0499, 0.0500, 0.0499,0.0499, 0.0504, 0.0504, 0.0503,0.0504,1.002004008016022
MultiSource/Benchmarks/McCat/04-bisect/bisect, 0.1197, 0.1199, 0.1198,0.1198, 0.1212, 0.1210, 0.1208,0.121,1.001669449081799
SingleSource/Benchmarks/Misc/fbench, 0.0500, 0.0501, 0.0500,0.05, 0.0507, 0.0505, 0.0505,0.0505,1.0000000000000009
MultiSource/Benchmarks/BitBench/uuencode/uuencode, 0.0400, 0.0400, 0.0400,0.04, 0.0404, 0.0404, 0.0404,0.0404,1.0000000000000009
MultiSource/Benchmarks/BitBench/drop3/drop3, 0.0401, 0.0402, 0.0401,0.0401, 0.0405, 0.0405, 0.0405,0.0405,0.9975062344139696
SingleSource/Benchmarks/Misc/pi, 0.0201, 0.0202, 0.0201,0.0201, 0.0205, 0.0203, 0.0203,0.0203,0.995024875621886
SingleSource/Benchmarks/BenchmarkGame/nsieve-bits, 0.0303, 0.0302, 0.0302,0.0302, 0.0306, 0.0305, 0.0305,0.0305,0.9933774834437026
SingleSource/Benchmarks/Polybench/linear-algebra/kernels/syrk/syrk, 0.0706, 0.0706, 0.0705,0.0706, 0.0715, 0.0713, 0.0712,0.0713,0.9915014164306069
SingleSource/Benchmarks/Misc/salsa20, 0.0505, 0.0504, 0.0505,0.0505, 0.0511, 0.0510, 0.0509,0.051,0.9900990099009688
SingleSource/Benchmarks/BenchmarkGame/spectral-norm, 0.0507, 0.0508, 0.0506,0.0507, 0.0513, 0.0512, 0.0511,0.0512,0.9861932938856066
MultiSource/Benchmarks/ASC_Sequoia/CrystalMk/CrystalMk, 0.2070, 0.2066, 0.2066,0.2066, 0.2091, 0.2086, 0.2085,0.2086,0.9680542110358292
SingleSource/Benchmarks/Misc/ffbench, 0.0622, 0.0622, 0.0621,0.0622, 0.0628, 0.0629, 0.0624,0.0628,0.9646302250803762
MultiSource/Benchmarks/MiBench/telecomm-adpcm/telecomm-adpcm, 0.0526, 0.0526, 0.0525,0.0526, 0.0534, 0.0530, 0.0531,0.0531,0.9505703422053147
SingleSource/Benchmarks/Polybench/linear-algebra/kernels/atax/atax, 0.0740, 0.0741, 0.0739,0.074, 0.0747, 0.0747, 0.0745,0.0747,0.9459459459459474
MultiSource/Benchmarks/Olden/health/health, 0.1280, 0.1282, 0.1283,0.1282, 0.1299, 0.1294, 0.1293,0.1294,0.9360374414976391
MultiSource/Benchmarks/MiBench/security-sha/security-sha, 0.1085, 0.1085, 0.1085,0.1085, 0.1097, 0.1093, 0.1095,0.1095,0.9216589861751112
MultiSource/Benchmarks/MiBench/telecomm-CRC32/telecomm-CRC32, 0.0329, 0.0331, 0.0329,0.0329, 0.0333, 0.0332, 0.0331,0.0332,0.911854103343468
SingleSource/Benchmarks/Shootout/ackermann, 0.0223, 0.0223, 0.0223,0.0223, 0.0227, 0.0225, 0.0225,0.0225,0.8968609865470878
SingleSource/Benchmarks/Misc/evalloop, 0.0339, 0.0340, 0.0339,0.0339, 0.0343, 0.0342, 0.0341,0.0342,0.8849557522123908
MultiSource/Benchmarks/MiBench/automotive-bitcount/automotive-bitcount, 0.2409, 0.2411, 0.2410,0.241, 0.2443, 0.2431, 0.2430,0.2431,0.871369294605806
SingleSource/Benchmarks/Shootout-C++/random, 0.1155, 0.1155, 0.1155,0.1155, 0.1169, 0.1165, 0.1165,0.1165,0.8658008658008587
SingleSource/Benchmarks/Polybench/linear-algebra/kernels/trisolv/trisolv, 0.0588, 0.0589, 0.0588,0.0588, 0.0595, 0.0593, 0.0592,0.0593,0.8503401360544283
MultiSource/Benchmarks/Trimaran/netbench-crc/netbench-crc, 0.0718, 0.0717, 0.0719,0.0718, 0.0727, 0.0724, 0.0724,0.0724,0.8356545961002881
SingleSource/Benchmarks/Misc/lowercase, 0.0240, 0.0240, 0.0240,0.024, 0.0244, 0.0242, 0.0242,0.0242,0.8333333333333304
MultiSource/Benchmarks/ASCI_Purple/SMG2000/smg2000, 5.1736, 5.1781, 5.1694,5.1736, 5.2235, 5.2155, 5.2166,5.2166,0.8311427246018077
SingleSource/Benchmarks/Shootout/sieve, 0.0240, 0.0241, 0.0241,0.0241, 0.0244, 0.0243, 0.0243,0.0243,0.8298755186721962
SingleSource/Benchmarks/Shootout-C++/heapsort, 0.1214, 0.1216, 0.1215,0.1215, 0.1227, 0.1225, 0.1225,0.1225,0.8230452674897082
MultiSource/Benchmarks/McCat/03-testtrie/testtrie, 0.0853, 0.0855, 0.0853,0.0853, 0.0864, 0.0860, 0.0860,0.086,0.8206330597889666
MultiSource/Benchmarks/MiBench/consumer-lame/consumer-lame, 3.6175, 3.6197, 3.6129,3.6175, 3.6532, 3.6466, 3.6427,3.6466,0.8044229440220985
SingleSource/Benchmarks/Polybench/linear-algebra/kernels/mvt/mvt, 0.0747, 0.0747, 0.0746,0.0747, 0.0755, 0.0753, 0.0753,0.0753,0.8032128514056325
SingleSource/Benchmarks/BenchmarkGame/recursive, 0.0250, 0.0251, 0.0250,0.025, 0.0253, 0.0252, 0.0252,0.0252,0.8000000000000007
MultiSource/Benchmarks/MiBench/network-patricia/network-patricia, 0.0754, 0.0755, 0.0755,0.0755, 0.0763, 0.0761, 0.0760,0.0761,0.7947019867549754
MultiSource/Benchmarks/McCat/12-IOtest/iotest, 0.0887, 0.0887, 0.0892,0.0887, 0.0901, 0.0894, 0.0893,0.0894,0.7891770011273946
SingleSource/Benchmarks/Polybench/stencils/jacobi-1d-imper/jacobi-1d-imper, 0.0774, 0.0775, 0.0774,0.0774, 0.0782, 0.0779, 0.0780,0.078,0.7751937984496138
SingleSource/Benchmarks/Shootout-C++/ary, 0.1427, 0.1428, 0.1426,0.1427, 0.1442, 0.1438, 0.1437,0.1438,0.7708479327260154
MultiSource/Benchmarks/VersaBench/ecbdes/ecbdes, 0.1958, 0.1958, 0.1956,0.1958, 0.1978, 0.1972, 0.1973,0.1973,0.766087844739527
MultiSource/Benchmarks/McCat/17-bintr/bintr, 0.0655, 0.0654, 0.0656,0.0655, 0.0662, 0.0658, 0.0660,0.066,0.7633587786259444
SingleSource/Benchmarks/BenchmarkGame/n-body, 0.0656, 0.0657, 0.0655,0.0656, 0.0661, 0.0661, 0.0660,0.0661,0.7621951219512146
MultiSource/Benchmarks/mediabench/adpcm/rawdaudio/rawdaudio, 0.0526, 0.0526, 0.0525,0.0526, 0.0533, 0.0530, 0.0530,0.053,0.7604562737642429
MultiSource/Benchmarks/mediabench/gsm/toast/toast, 0.9602, 0.9604, 0.9596,0.9602, 0.9709, 0.9674, 0.9671,0.9674,0.7498437825453008
SingleSource/Benchmarks/Shootout-C++/fibo, 0.1065, 0.1067, 0.1067,0.1067, 0.1078, 0.1075, 0.1073,0.1075,0.7497656982192957
SingleSource/Benchmarks/Misc/matmul_f64_4x4, 0.0267, 0.0267, 0.0267,0.0267, 0.0271, 0.0269, 0.0269,0.0269,0.7490636704119868
MultiSource/Benchmarks/VersaBench/dbms/dbms, 0.9039, 0.9040, 0.9050,0.904, 0.9168, 0.9104, 0.9107,0.9107,0.741150442477867
SingleSource/Benchmarks/Polybench/linear-algebra/solvers/dynprog/dynprog, 0.0675, 0.0675, 0.0673,0.0675, 0.0683, 0.0680, 0.0680,0.068,0.7407407407407307
SingleSource/Benchmarks/Polybench/linear-algebra/solvers/durbin/durbin, 0.0812, 0.0813, 0.0812,0.0812, 0.0820, 0.0818, 0.0817,0.0818,0.738916256157629
SingleSource/Benchmarks/Shootout-C++/ackermann, 0.1084, 0.1084, 0.1083,0.1084, 0.1094, 0.1092, 0.1091,0.1092,0.738007380073813
MultiSource/Benchmarks/DOE-ProxyApps-C++/HPCCG/HPCCG, 1.2980, 1.2990, 1.2985,1.2985, 1.3106, 1.3080, 1.3072,1.308,0.7316134000770136
MultiSource/Applications/obsequi/Obsequi, 0.9100, 0.9021, 0.9033,0.9033, 0.9141, 0.9099, 0.9061,0.9099,0.7306542676851491
MultiSource/Benchmarks/ASC_Sequoia/IRSmk/IRSmk, 0.0959, 0.0960, 0.0958,0.0959, 0.0970, 0.0966, 0.0966,0.0966,0.7299270072992803
SingleSource/Benchmarks/Dhrystone/fldry, 0.0412, 0.0412, 0.0412,0.0412, 0.0417, 0.0415, 0.0414,0.0415,0.728155339805836
MultiSource/Benchmarks/SciMark2-C/scimark2, 0.3460, 0.3460, 0.3454,0.346, 0.3496, 0.3485, 0.3479,0.3485,0.7225433526011571
SingleSource/Benchmarks/Polybench/medley/floyd-warshall/floyd-warshall, 0.0698, 0.0699, 0.0697,0.0698, 0.0705, 0.0703, 0.0702,0.0703,0.7163323782235054
SingleSource/Benchmarks/Misc/perlin, 0.0422, 0.0423, 0.0422,0.0422, 0.0426, 0.0425, 0.0425,0.0425,0.7109004739336511
MultiSource/Benchmarks/VersaBench/8b10b/8b10b, 0.0705, 0.0704, 0.0705,0.0705, 0.0712, 0.0710, 0.0710,0.071,0.7092198581560183
SingleSource/Benchmarks/Polybench/datamining/correlation/correlation, 0.0706, 0.0707, 0.0707,0.0707, 0.0714, 0.0712, 0.0711,0.0712,0.7072135785006983
SingleSource/Benchmarks/Polybench/linear-algebra/kernels/cholesky/cholesky, 0.0849, 0.0851, 0.0847,0.0849, 0.0856, 0.0855, 0.0855,0.0855,0.7067137809187329
SingleSource/Benchmarks/Misc/fp-convert, 0.0284, 0.0284, 0.0284,0.0284, 0.0288, 0.0286, 0.0286,0.0286,0.7042253521126751
SingleSource/Benchmarks/Misc/flops, 0.0710, 0.0710, 0.0710,0.071, 0.0719, 0.0715, 0.0715,0.0715,0.7042253521126751
SingleSource/Benchmarks/Polybench/linear-algebra/kernels/syr2k/syr2k, 0.0723, 0.0723, 0.0721,0.0723, 0.0730, 0.0728, 0.0728,0.0728,0.6915629322268302
SingleSource/Benchmarks/Polybench/linear-algebra/kernels/bicg/bicg, 0.0725, 0.0726, 0.0724,0.0725, 0.0732, 0.0730, 0.0730,0.073,0.6896551724137945
MultiSource/Benchmarks/MiBench/telecomm-gsm/telecomm-gsm, 0.9594, 0.9605, 0.9603,0.9603, 0.9705, 0.9668, 0.9669,0.9669,0.6872852233676952
MultiSource/Benchmarks/Olden/perimeter/perimeter, 0.0736, 0.0735, 0.0737,0.0736, 0.0744, 0.0741, 0.0741,0.0741,0.6793478260869623
MultiSource/Benchmarks/Prolangs-C/gnugo/gnugo, 0.6857, 0.6858, 0.6864,0.6858, 0.6933, 0.6904, 0.6897,0.6904,0.6707494896471378
SingleSource/Benchmarks/Stanford/Towers, 0.0448, 0.0447, 0.0448,0.0448, 0.0452, 0.0451, 0.0450,0.0451,0.6696428571428603
SingleSource/Benchmarks/Polybench/linear-algebra/kernels/doitgen/doitgen, 0.0898, 0.0898, 0.0896,0.0898, 0.0905, 0.0904, 0.0904,0.0904,0.6681514476614581
MultiSource/Benchmarks/McCat/01-qbsort/qbsort, 0.0906, 0.0906, 0.0905,0.0906, 0.0916, 0.0911, 0.0912,0.0912,0.6622516556291425
SingleSource/Benchmarks/Polybench/stencils/fdtd-apml/fdtd-apml, 0.1209, 0.1211, 0.1208,0.1209, 0.1218, 0.1217, 0.1214,0.1217,0.6617038875103454
SingleSource/Benchmarks/Polybench/datamining/covariance/covariance, 0.0775, 0.0774, 0.0773,0.0774, 0.0780, 0.0779, 0.0778,0.0779,0.6459948320413522
SingleSource/Benchmarks/Misc-C++/Large/sphereflake, 0.2018, 0.2020, 0.2018,0.2018, 0.2038, 0.2031, 0.2031,0.2031,0.6442021803766185
SingleSource/Benchmarks/Polybench/linear-algebra/kernels/gesummv/gesummv, 0.0622, 0.0622, 0.0620,0.0622, 0.0627, 0.0626, 0.0624,0.0626,0.643086816720273
SingleSource/Benchmarks/Stanford/Bubblesort, 0.0318, 0.0318, 0.0318,0.0318, 0.0321, 0.0320, 0.0320,0.032,0.6289308176100628
SingleSource/Benchmarks/Shootout/ary3, 0.0325, 0.0325, 0.0324,0.0325, 0.0328, 0.0327, 0.0326,0.0327,0.6153846153846176
MultiSource/Applications/hexxagon/hexxagon, 0.6090, 0.6094, 0.6092,0.6092, 0.6137, 0.6129, 0.6125,0.6129,0.6073539067629641
SingleSource/Benchmarks/Polybench/linear-algebra/kernels/trmm/trmm, 0.0670, 0.0670, 0.0668,0.067, 0.0676, 0.0674, 0.0674,0.0674,0.5970149253731405
SingleSource/Benchmarks/Polybench/linear-algebra/kernels/gemver/gemver, 0.0838, 0.0838, 0.0836,0.0838, 0.0844, 0.0843, 0.0842,0.0843,0.5966587112171906
MultiSource/Benchmarks/Trimaran/enc-3des/enc-3des, 0.2197, 0.2185, 0.2185,0.2185, 0.2198, 0.2196, 0.2198,0.2198,0.594965675057213
MultiSource/Benchmarks/Olden/bh/bh, 0.2366, 0.2366, 0.2365,0.2366, 0.2384, 0.2377, 0.2380,0.238,0.591715976331364
MultiSource/Benchmarks/MallocBench/espresso/espresso, 4.1907, 4.1945, 4.1869,4.1907, 4.2222, 4.2151, 4.2123,4.2151,0.5822416302765587
SingleSource/Benchmarks/Polybench/stencils/jacobi-2d-imper/jacobi-2d-imper, 0.1038, 0.1039, 0.1035,0.1038, 0.1044, 0.1044, 0.1041,0.1044,0.5780346820809301
SingleSource/Benchmarks/Stanford/Quicksort, 0.0350, 0.0351, 0.0350,0.035, 0.0353, 0.0352, 0.0351,0.0352,0.5714285714285783
SingleSource/Benchmarks/Shootout/objinst, 0.0351, 0.0351, 0.0351,0.0351, 0.0355, 0.0353, 0.0352,0.0353,0.5698005698005604
MultiSource/Benchmarks/TSVC/NodeSplitting-flt/NodeSplitting-flt, 1.5041, 1.5028, 1.5009,1.5028, 1.5113, 1.5229, 1.5044,1.5113,0.565610859728527
MultiSource/Benchmarks/McCat/05-eks/eks, 0.4792, 0.4790, 0.4787,0.479, 0.4826, 0.4817, 0.4815,0.4817,0.5636743215031492
SingleSource/Benchmarks/Shootout-C++/nestedloop, 0.1071, 0.1074, 0.1072,0.1072, 0.1083, 0.1078, 0.1078,0.1078,0.5597014925373234
SingleSource/Benchmarks/Shootout-C++/ary2, 0.1441, 0.1442, 0.1441,0.1441, 0.1453, 0.1449, 0.1449,0.1449,0.5551700208188626
SingleSource/Benchmarks/Polybench/stencils/fdtd-2d/fdtd-2d, 0.1268, 0.1268, 0.1264,0.1268, 0.1277, 0.1275, 0.1273,0.1275,0.5520504731861164
MultiSource/Benchmarks/Prolangs-C++/employ/employ, 0.1845, 0.1849, 0.1848,0.1848, 0.1862, 0.1857, 0.1858,0.1858,0.5411255411255311
MultiSource/Benchmarks/ASC_Sequoia/AMGmk/AMGmk, 0.5407, 0.5408, 0.5396,0.5407, 0.5444, 0.5436, 0.5433,0.5436,0.5363417791751424
MultiSource/Benchmarks/Fhourstones/fhourstones, 0.1504, 0.1505, 0.1504,0.1504, 0.1518, 0.1512, 0.1511,0.1512,0.5319148936170137
MultiSource/Benchmarks/Ptrdist/ks/ks, 0.1332, 0.1336, 0.1332,0.1332, 0.1339, 0.1339, 0.1338,0.1339,0.5255255255255165
MultiSource/Benchmarks/FreeBench/pcompress2/pcompress2, 0.2283, 0.2286, 0.2285,0.2285, 0.2302, 0.2297, 0.2295,0.2297,0.5251641137855589
MultiSource/Benchmarks/Trimaran/netbench-url/netbench-url, 0.1908, 0.1910, 0.1910,0.191, 0.1925, 0.1920, 0.1918,0.192,0.5235602094240788
MultiSource/Benchmarks/TSVC/InductionVariable-flt/InductionVariable-flt, 1.5276, 1.5280, 1.5373,1.528, 1.5360, 1.5472, 1.5343,1.536,0.5235602094240788
SingleSource/Benchmarks/Misc/ReedSolomon, 0.1724, 0.1726, 0.1721,0.1724, 0.1736, 0.1733, 0.1732,0.1733,0.5220417633410745
MultiSource/Benchmarks/MiBench/network-dijkstra/network-dijkstra, 0.0393, 0.0392, 0.0392,0.0392, 0.0395, 0.0394, 0.0393,0.0394,0.5102040816326481
MultiSource/Benchmarks/NPB-serial/is/is, 0.0597, 0.0599, 0.0597,0.0597, 0.0601, 0.0600, 0.0599,0.06,0.5025125628140614
MultiSource/Benchmarks/Olden/bisort/bisort, 0.0599, 0.0600, 0.0601,0.06, 0.0605, 0.0603, 0.0602,0.0603,0.5000000000000115
MultiSource/Benchmarks/McCat/18-imp/imp, 0.3030, 0.3031, 0.3031,0.3031, 0.3051, 0.3046, 0.3046,0.3046,0.4948861761794765
MultiSource/Benchmarks/BitBench/uudecode/uudecode, 0.0407, 0.0407, 0.0407,0.0407, 0.0411, 0.0409, 0.0409,0.0409,0.49140049140048436
MultiSource/Benchmarks/mediabench/g721/g721encode/encode, 0.1838, 0.1839, 0.1841,0.1839, 0.1860, 0.1848, 0.1848,0.1848,0.4893964110929794
SingleSource/Benchmarks/Polybench/linear-algebra/solvers/lu/lu, 0.0825, 0.0827, 0.0828,0.0827, 0.0832, 0.0831, 0.0830,0.0831,0.48367593712213
SingleSource/Benchmarks/Misc/whetstone, 0.0623, 0.0623, 0.0622,0.0623, 0.0628, 0.0626, 0.0626,0.0626,0.48154093097914075
SingleSource/Benchmarks/Stanford/Queens, 0.0416, 0.0416, 0.0416,0.0416, 0.0419, 0.0418, 0.0418,0.0418,0.48076923076922906
SingleSource/Benchmarks/McGill/queens, 0.0419, 0.0419, 0.0419,0.0419, 0.0423, 0.0421, 0.0420,0.0421,0.4773269689737347
MultiSource/Benchmarks/VersaBench/beamformer/beamformer, 0.2754, 0.2757, 0.2748,0.2754, 0.2767, 0.2769, 0.2764,0.2767,0.4720406681191003
MultiSource/Benchmarks/Prolangs-C++/city/city, 0.8302, 0.8313, 0.8305,0.8305, 0.8362, 0.8343, 0.8340,0.8343,0.45755568934378044
MultiSource/Applications/ALAC/encode/alacconvert-encode, 0.8692, 0.8701, 0.8690,0.8692, 0.8750, 0.8731, 0.8729,0.8731,0.4486884491486487
MultiSource/Applications/viterbi/viterbi, 0.1564, 0.1562, 0.1563,0.1563, 0.1577, 0.1570, 0.1570,0.157,0.44785668586053706
MultiSource/Applications/aha/aha, 0.0910, 0.0912, 0.0910,0.091, 0.0918, 0.0914, 0.0913,0.0914,0.439560439560438
SingleSource/Benchmarks/Misc-C++/mandel-text, 0.0230, 0.0230, 0.0230,0.023, 0.0232, 0.0231, 0.0230,0.0231,0.43478260869564966
MultiSource/Benchmarks/TSVC/StatementReordering-flt/StatementReordering-flt, 1.4756, 1.4753, 1.4746,1.4753, 1.4825, 1.4817, 1.4787,1.4817,0.4338100725276295
SingleSource/Benchmarks/Shootout/nestedloop, 0.0231, 0.0231, 0.0230,0.0231, 0.0234, 0.0232, 0.0231,0.0232,0.43290043290042934
SingleSource/Benchmarks/Stanford/RealMM, 0.0466, 0.0466, 0.0465,0.0466, 0.0470, 0.0468, 0.0467,0.0468,0.42918454935620964
MultiSource/Applications/ALAC/decode/alacconvert-decode, 0.8694, 0.8700, 0.8693,0.8694, 0.8748, 0.8731, 0.8724,0.8731,0.42558086036348364
SingleSource/Benchmarks/Polybench/linear-algebra/solvers/gramschmidt/gramschmidt, 0.0945, 0.0944, 0.0941,0.0944, 0.0949, 0.0948, 0.0946,0.0948,0.4237288135593209
MultiSource/Benchmarks/VersaBench/bmm/bmm, 0.0474, 0.0473, 0.0473,0.0473, 0.0477, 0.0475, 0.0475,0.0475,0.42283298097252064
MultiSource/Benchmarks/Prolangs-C++/primes/primes, 0.0238, 0.0238, 0.0238,0.0238, 0.0241, 0.0239, 0.0238,0.0239,0.42016806722688926
SingleSource/Benchmarks/Shootout/hash, 0.0477, 0.0478, 0.0478,0.0478, 0.0482, 0.0480, 0.0479,0.048,0.4184100418409997
SingleSource/Benchmarks/BenchmarkGame/fannkuch, 0.0479, 0.0480, 0.0480,0.048, 0.0484, 0.0482, 0.0482,0.0482,0.4166666666666652
MultiSource/Benchmarks/DOE-ProxyApps-C/miniGMG/miniGMG, 0.8903, 0.8903, 0.8889,0.8903, 0.8947, 0.8940, 0.8930,0.894,0.4155902504773712
SingleSource/Benchmarks/Misc/revertBits, 0.0241, 0.0242, 0.0242,0.0242, 0.0245, 0.0243, 0.0243,0.0243,0.4132231404958553
SingleSource/Benchmarks/Shootout-C++/matrix, 0.1695, 0.1695, 0.1695,0.1695, 0.1707, 0.1702, 0.1702,0.1702,0.41297935103243866
MultiSource/Benchmarks/Prolangs-C/agrep/agrep, 1.2218, 1.2230, 1.2215,1.2218, 1.2290, 1.2268, 1.2261,1.2268,0.40923228024225544
MultiSource/Benchmarks/TSVC/Searching-dbl/Searching-dbl, 1.7676, 1.7666, 1.7694,1.7676, 1.7727, 1.7748, 1.7798,1.7748,0.40733197556006573
MultiSource/Benchmarks/DOE-ProxyApps-C/miniAMR/miniAMR, 1.2348, 1.2356, 1.2333,1.2348, 1.2423, 1.2398, 1.2394,1.2398,0.4049238743116357
SingleSource/Benchmarks/McGill/misr, 0.0496, 0.0496, 0.0497,0.0496, 0.0500, 0.0498, 0.0498,0.0498,0.40322580645160144
MultiSource/Benchmarks/TSVC/CrossingThresholds-flt/CrossingThresholds-flt, 1.5136, 1.5141, 1.5108,1.5136, 1.5196, 1.5192, 1.5228,1.5196,0.3964059196617242
SingleSource/Benchmarks/Stanford/Puzzle, 0.1018, 0.1018, 0.1017,0.1018, 0.1024, 0.1022, 0.1021,0.1022,0.39292730844793233
MultiSource/Benchmarks/MallocBench/cfrac/cfrac, 0.8156, 0.8159, 0.8161,0.8159, 0.8229, 0.8191, 0.8182,0.8191,0.39220492707441323
SingleSource/Benchmarks/Shootout/strcat, 0.0259, 0.0259, 0.0259,0.0259, 0.0262, 0.0260, 0.0260,0.026,0.38610038610038533
SingleSource/Benchmarks/BenchmarkGame/puzzle, 0.0518, 0.0518, 0.0516,0.0518, 0.0522, 0.0520, 0.0520,0.052,0.38610038610038533
SingleSource/Benchmarks/Shootout-C++/objinst, 0.1307, 0.1309, 0.1307,0.1307, 0.1315, 0.1312, 0.1311,0.1312,0.38255547054322214
MultiSource/Benchmarks/TSVC/LinearDependence-flt/LinearDependence-flt, 1.5714, 1.5711, 1.5677,1.5711, 1.5767, 1.5845, 1.5771,1.5771,0.3818980332251254
MultiSource/Benchmarks/Olden/em3d/em3d, 0.1651, 0.1649, 0.1648,0.1649, 0.1662, 0.1655, 0.1655,0.1655,0.3638568829593902
SingleSource/Benchmarks/Polybench/stencils/adi/adi, 0.0832, 0.0833, 0.0830,0.0832, 0.0838, 0.0835, 0.0835,0.0835,0.36057692307693845
SingleSource/Benchmarks/Shootout-C++/methcall, 0.1154, 0.1155, 0.1154,0.1154, 0.1161, 0.1157, 0.1158,0.1158,0.34662045060658286
MultiSource/Benchmarks/TSVC/Reductions-flt/Reductions-flt, 1.5666, 1.5646, 1.5651,1.5651, 1.5719, 1.5705, 1.5683,1.5705,0.34502587694078546
SingleSource/Benchmarks/Stanford/Perm, 0.0294, 0.0295, 0.0295,0.0295, 0.0298, 0.0296, 0.0296,0.0296,0.3389830508474745
SingleSource/Benchmarks/Shootout/methcall, 0.0298, 0.0297, 0.0298,0.0298, 0.0301, 0.0299, 0.0299,0.0299,0.3355704697986628
MultiSource/Benchmarks/Trimaran/enc-pc1/enc-pc1, 0.0598, 0.0599, 0.0599,0.0599, 0.0603, 0.0601, 0.0600,0.0601,0.33388981636059967
MultiSource/Benchmarks/DOE-ProxyApps-C/Pathfinder/PathFinder, 0.7454, 0.7455, 0.7455,0.7455, 0.7498, 0.7479, 0.7476,0.7479,0.32193158953721657
MultiSource/Benchmarks/TSVC/IndirectAddressing-dbl/IndirectAddressing-dbl, 1.8125, 1.8106, 1.8076,1.8106, 1.8167, 1.8163, 1.8141,1.8163,0.31481276924776314
MultiSource/Benchmarks/sim/sim, 0.2589, 0.2594, 0.2589,0.2589, 0.2599, 0.2597, 0.2592,0.2597,0.30899961375046026
MultiSource/Benchmarks/TSVC/LoopRestructuring-dbl/LoopRestructuring-dbl, 1.8314, 1.8298, 1.8261,1.8298, 1.8220, 1.8365, 1.8353,1.8353,0.3005792982839539
SingleSource/Benchmarks/Shootout-C++/sieve, 0.1664, 0.1666, 0.1664,0.1664, 0.1671, 0.1668, 0.1669,0.1669,0.30048076923077094
MultiSource/Benchmarks/nbench/nbench, 1.0201, 1.0211, 1.0199,1.0201, 1.0231, 1.0231, 1.0214,1.0231,0.29408881482206883
MultiSource/Benchmarks/TSVC/InductionVariable-dbl/InductionVariable-dbl, 1.8304, 1.8300, 1.8267,1.83, 1.8410, 1.8346, 1.8353,1.8353,0.28961748633880013
MultiSource/Benchmarks/TSVC/LoopRestructuring-flt/LoopRestructuring-flt, 1.5291, 1.5293, 1.5241,1.5291, 1.5374, 1.5335, 1.5331,1.5335,0.28775096461972627
MultiSource/Benchmarks/TSVC/CrossingThresholds-dbl/CrossingThresholds-dbl, 1.8159, 1.8148, 1.8112,1.8148, 1.8227, 1.8200, 1.8186,1.82,0.2865329512893977
MultiSource/Benchmarks/TSVC/Equivalencing-flt/Equivalencing-flt, 1.5266, 1.5216, 1.5180,1.5216, 1.5259, 1.5287, 1.5236,1.5259,0.28259726603574453
MultiSource/Benchmarks/Fhourstones-3.1/fhourstones3.1, 0.1076, 0.1078, 0.1076,0.1076, 0.1080, 0.1079, 0.1078,0.1079,0.27881040892192566
SingleSource/Benchmarks/Stanford/Treesort, 0.0359, 0.0360, 0.0360,0.036, 0.0363, 0.0361, 0.0361,0.0361,0.2777777777777768
MultiSource/Benchmarks/PAQ8p/paq8p, 1.7285, 1.7320, 1.7278,1.7285, 1.7352, 1.7333, 1.7319,1.7333,0.2776974255134679
MultiSource/Applications/lua/lua, 2.9670, 2.9700, 2.9682,2.9682, 2.9794, 2.9764, 2.9745,2.9764,0.27626170743211276
SingleSource/Benchmarks/Shootout/matrix, 0.0762, 0.0763, 0.0761,0.0762, 0.0765, 0.0764, 0.0763,0.0764,0.2624671916010346
MultiSource/Benchmarks/MallocBench/gs/gs, 3.4501, 3.4530, 3.4521,3.4521, 3.4692, 3.4608, 3.4586,3.4608,0.2520205092552352
MultiSource/Benchmarks/TSVC/LinearDependence-dbl/LinearDependence-dbl, 1.8727, 1.8716, 1.8684,1.8716, 1.8776, 1.8750, 1.8763,1.8763,0.25112203462278604
MultiSource/Applications/sgefa/sgefa, 0.3589, 0.3597, 0.3584,0.3589, 0.3604, 0.3598, 0.3595,0.3598,0.25076623014768096
MultiSource/Benchmarks/FreeBench/neural/neural, 0.1616, 0.1618, 0.1615,0.1616, 0.1622, 0.1620, 0.1617,0.162,0.24752475247524774
MultiSource/Benchmarks/MiBench/automotive-susan/automotive-susan, 0.5729, 0.5753, 0.5809,0.5753, 0.5767, 0.5731, 0.5781,0.5767,0.24335129497652375
MultiSource/Benchmarks/mediabench/mpeg2/mpeg2dec/mpeg2decode, 1.2207, 1.2224, 1.2199,1.2207, 1.2257, 1.2236, 1.2220,1.2236,0.2375686081756534
MultiSource/Benchmarks/FreeBench/distray/distray, 0.0861, 0.0860, 0.0860,0.086, 0.0863, 0.0862, 0.0861,0.0862,0.23255813953488857
MultiSource/Benchmarks/7zip/7zip-benchmark,31.1266,31.1495,31.1207,31.1266,31.2496,31.1957,31.1805,31.1957,0.2219966202540613
MultiSource/Benchmarks/Trimaran/enc-rc4/enc-rc4, 0.0464, 0.0464, 0.0464,0.0464, 0.0466, 0.0465, 0.0465,0.0465,0.21551724137931494
MultiSource/Benchmarks/TSVC/Symbolics-dbl/Symbolics-dbl, 1.8141, 1.8150, 1.8091,1.8141, 1.8180, 1.8190, 1.8167,1.818,0.2149826360178686
MultiSource/Benchmarks/FreeBench/pifft/pifft, 0.8416, 0.8420, 0.8398,0.8416, 0.8435, 0.8434, 0.8421,0.8434,0.21387832699619747
SingleSource/Benchmarks/Adobe-C++/simple_types_loop_invariant, 1.8034, 1.8057, 1.8023,1.8034, 1.8083, 1.8072, 1.8028,1.8072,0.21071309748252887
SingleSource/Benchmarks/Stanford/FloatMM, 0.0495, 0.0494, 0.0494,0.0494, 0.0496, 0.0495, 0.0495,0.0495,0.2024291497975783
MultiSource/Benchmarks/Prolangs-C++/simul/simul, 0.0492, 0.0495, 0.0494,0.0494, 0.0496, 0.0494, 0.0495,0.0495,0.2024291497975783
MultiSource/Applications/JM/lencod/lencod,13.4737,13.4890,13.4571,13.4737,13.5081,13.5006,13.5007,13.5007,0.20039039016752636
MultiSource/Benchmarks/Prolangs-C++/ocean/ocean, 0.1006, 0.1007, 0.1006,0.1006, 0.1008, 0.1008, 0.1004,0.1008,0.19880715705766772
MultiSource/Benchmarks/FreeBench/fourinarow/fourinarow, 0.3079, 0.3079, 0.3076,0.3079, 0.3085, 0.3083, 0.3086,0.3085,0.19486846378693468
MultiSource/Benchmarks/TSVC/ControlFlow-dbl/ControlFlow-dbl, 1.9279, 1.9470, 1.9441,1.9441, 1.9477, 1.9554, 1.9458,1.9477,0.18517565968829697
SingleSource/Benchmarks/Polybench/medley/reg_detect/reg_detect, 0.3836, 0.3845, 0.3827,0.3836, 0.3847, 0.3843, 0.3842,0.3843,0.18248175182480342
MultiSource/Benchmarks/TSVC/Packing-dbl/Packing-dbl, 1.7808, 1.7807, 1.7774,1.7807, 1.7839, 1.7841, 1.7816,1.7839,0.17970461054641618
SingleSource/Benchmarks/McGill/chomp, 0.1711, 0.1713, 0.1709,0.1711, 0.1717, 0.1714, 0.1712,0.1714,0.1753360607831711
SingleSource/Benchmarks/Misc/richards_benchmark, 0.0590, 0.0590, 0.0590,0.059, 0.0593, 0.0591, 0.0590,0.0591,0.16949152542373724
MultiSource/Benchmarks/Prolangs-C/bison/mybison, 1.4809, 1.4817, 1.4796,1.4809, 1.4860, 1.4833, 1.4818,1.4833,0.1620636099669115
MultiSource/Benchmarks/TSVC/GlobalDataFlow-flt/GlobalDataFlow-flt, 1.5585, 1.5531, 1.5513,1.5531, 1.5530, 1.5567, 1.5556,1.5556,0.16096838580903494
MultiSource/Benchmarks/TSVC/ControlLoops-flt/ControlLoops-flt, 1.5650, 1.5642, 1.5604,1.5642, 1.5666, 1.5711, 1.5654,1.5666,0.15343306482547003
MultiSource/Benchmarks/Bullet/bullet,21.1125,21.1155,21.1081,21.1125,21.1712,21.1444,21.1349,21.1444,0.15109532267614245
MultiSource/Applications/ClamAV/clamscan,13.2865,13.2963,13.2992,13.2963,13.3153,13.3279,13.3097,13.3153,0.1428968961290078
SingleSource/Benchmarks/Linpack/linpack-pc, 0.2813, 0.2833, 0.2804,0.2813, 0.2818, 0.2817, 0.2812,0.2817,0.1421969427657377
MultiSource/Benchmarks/TSVC/Recurrences-dbl/Recurrences-dbl, 1.7797, 1.7794, 1.7758,1.7794, 1.7826, 1.7819, 1.7806,1.7819,0.1404967966730286
MultiSource/Applications/oggenc/oggenc, 4.3714, 4.3788, 4.3688,4.3714, 4.3771, 4.3846, 4.3743,4.3771,0.13039300910464569
SingleSource/Benchmarks/Adobe-C++/simple_types_constant_folding, 2.2287, 2.2310, 2.2263,2.2287, 2.2335, 2.2316, 2.2297,2.2316,0.1301206981648484
MultiSource/Applications/hbd/hbd, 1.1092, 1.1092, 1.1095,1.1092, 1.1138, 1.1105, 1.1097,1.1105,0.11720158672918757
MultiSource/Benchmarks/TSVC/ControlFlow-flt/ControlFlow-flt, 1.6457, 1.6520, 1.6408,1.6457, 1.6475, 1.6468, 1.6504,1.6475,0.10937594944400164
SingleSource/Benchmarks/SmallPT/smallpt, 0.0919, 0.0919, 0.0919,0.0919, 0.0922, 0.0920, 0.0919,0.092,0.10881392818280489
MultiSource/Benchmarks/mediabench/jpeg/jpeg-6a/cjpeg, 4.1256, 4.1294, 4.1233,4.1256, 4.1379, 4.1300, 4.1272,4.13,0.1066511537715531
MultiSource/Applications/JM/ldecod/ldecod, 5.8177, 5.8360, 5.8115,5.8177, 5.8231, 5.8255, 5.8239,5.8239,0.1065713254378764
MultiSource/Benchmarks/Ptrdist/yacr2/yacr2, 0.5568, 0.5576, 0.5568,0.5568, 0.5586, 0.5573, 0.5572,0.5573,0.08979885057471826
MultiSource/Benchmarks/TSVC/Recurrences-flt/Recurrences-flt, 1.4766, 1.4763, 1.4740,1.4763, 1.4776, 1.4825, 1.4761,1.4776,0.08805798279483135
MultiSource/Benchmarks/TSVC/StatementReordering-dbl/StatementReordering-dbl, 1.7797, 1.7796, 1.7756,1.7796, 1.7811, 1.7828, 1.7798,1.7811,0.0842886041807045
MultiSource/Benchmarks/MiBench/security-rijndael/security-rijndael, 0.3631, 0.3634, 0.3636,0.3634, 0.3644, 0.3636, 0.3637,0.3637,0.0825536598789256
MultiSource/Benchmarks/MiBench/consumer-jpeg/consumer-jpeg, 4.0866, 4.0892, 4.0839,4.0866, 4.0975, 4.0899, 4.0872,4.0899,0.08075172515049633
SingleSource/Benchmarks/Misc-C++/stepanov_v1p2, 0.1584, 0.1587, 0.1585,0.1585, 0.1588, 0.1586, 0.1585,0.1586,0.06309148264984632
SingleSource/Benchmarks/Adobe-C++/loop_unroll, 3.9309, 3.9321, 3.9221,3.9309, 3.9339, 3.9333, 3.9297,3.9333,0.06105472029307446
MultiSource/Benchmarks/TSVC/Expansion-dbl/Expansion-dbl, 1.8660, 1.8610, 1.8572,1.861, 1.8666, 1.8620, 1.8601,1.862,0.053734551316497736
MultiSource/Benchmarks/TSVC/Reductions-dbl/Reductions-dbl, 1.8690, 1.8672, 1.8633,1.8672, 1.8694, 1.8680, 1.8667,1.868,0.042844901456740025
MultiSource/Benchmarks/TSVC/Equivalencing-dbl/Equivalencing-dbl, 1.8302, 1.8285, 1.8255,1.8285, 1.8288, 1.8323, 1.8269,1.8288,0.01640689089417169
SingleSource/Benchmarks/Shootout/lists, 0.0622, 0.0623, 0.0621,0.0622, 0.0624, 0.0622, 0.0621,0.0622,0.0
SingleSource/Benchmarks/Shootout-C++/lists1, 0.1787, 0.1790, 0.1788,0.1788, 0.1792, 0.1788, 0.1786,0.1788,0.0
MultiSource/Benchmarks/llubenchmark/llu, 0.0440, 0.0440, 0.0440,0.044, 0.0442, 0.0440, 0.0440,0.044,0.0
MultiSource/Benchmarks/TSVC/Symbolics-flt/Symbolics-flt, 1.5111, 1.5111, 1.5140,1.5111, 1.5121, 1.5111, 1.5110,1.5111,0.0
MultiSource/Benchmarks/TSVC/LoopRerolling-flt/LoopRerolling-flt, 1.4913, 1.4910, 1.4902,1.491, 1.4982, 1.4906, 1.4910,1.491,0.0
MultiSource/Benchmarks/Ptrdist/anagram/anagram, 0.0917, 0.0918, 0.0918,0.0918, 0.0918, 0.0918, 0.0916,0.0918,0.0
MultiSource/Benchmarks/Prolangs-C++/life/life, 0.0554, 0.0554, 0.0553,0.0554, 0.0557, 0.0554, 0.0553,0.0554,0.0
MultiSource/Benchmarks/FreeBench/mason/mason, 0.0463, 0.0464, 0.0463,0.0463, 0.0464, 0.0463, 0.0463,0.0463,0.0
MultiSource/Benchmarks/TSVC/LoopRerolling-dbl/LoopRerolling-dbl, 1.7946, 1.7949, 1.7905,1.7946, 1.7943, 1.7973, 1.7934,1.7943,-0.016716817118023197
MultiSource/Applications/lambda-0.1.3/lambda, 0.5077, 0.5082, 0.5080,0.508, 0.5084, 0.5079, 0.5073,0.5079,-0.019685039370076485
MultiSource/Benchmarks/Ptrdist/ft/ft, 0.1941, 0.1941, 0.1940,0.1941, 0.1947, 0.1939, 0.1940,0.194,-0.05151983513652647
SingleSource/Benchmarks/CoyoteBench/lpbench, 0.1385, 0.1387, 0.1384,0.1385, 0.1388, 0.1384, 0.1383,0.1384,-0.07220216606499408
SingleSource/Benchmarks/Shootout-C++/hash, 0.2475, 0.2478, 0.2475,0.2475, 0.2473, 0.2466, 0.2474,0.2473,-0.08080808080808133
MultiSource/Benchmarks/mafft/pairlocalalign, 7.9662, 7.9707, 7.9531,7.9662, 7.9642, 7.9597, 7.9517,7.9597,-0.0815947377670656
MultiSource/Benchmarks/Olden/tsp/tsp, 0.1200, 0.1202, 0.1203,0.1202, 0.1205, 0.1201, 0.1200,0.1201,-0.08319467554076532
MultiSource/Benchmarks/TSVC/Expansion-flt/Expansion-flt, 1.5608, 1.5632, 1.5583,1.5608, 1.5605, 1.5588, 1.5592,1.5592,-0.1025115325474113
MultiSource/Benchmarks/TSVC/Searching-flt/Searching-flt, 1.4725, 1.4686, 1.4643,1.4686, 1.4659, 1.4710, 1.4670,1.467,-0.10894729674518766
MultiSource/Benchmarks/DOE-ProxyApps-C++/PENNANT/PENNANT, 3.7238, 3.7274, 3.7236,3.7238, 3.7242, 3.7188, 3.7162,3.7188,-0.1342714431494807
MultiSource/Benchmarks/TSVC/ControlLoops-dbl/ControlLoops-dbl, 1.8688, 1.8670, 1.8565,1.867, 1.8653, 1.8638, 1.8624,1.8638,-0.17139796464917811
SingleSource/Benchmarks/Shootout-C++/lists, 0.1603, 0.1613, 0.1602,0.1603, 0.1598, 0.1600, 0.1606,0.16,-0.18714909544603753
MultiSource/Applications/SIBsim4/SIBsim4, 1.0623, 1.0634, 1.0693,1.0634, 1.0605, 1.0652, 1.0614,1.0614,-0.1880759826970113
MultiSource/Benchmarks/Ptrdist/bc/bc, 0.9267, 0.9279, 0.9264,0.9267, 0.9255, 0.9247, 0.9236,0.9247,-0.2158195748354408
MultiSource/Benchmarks/TSVC/Packing-flt/Packing-flt, 1.4790, 1.4868, 1.4832,1.4832, 1.4803, 1.4790, 1.4773,1.479,-0.28317152103559673
MultiSource/Applications/sqlite3/sqlite3,13.3405,13.2667,13.3368,13.3368,13.3076,13.2927,13.2934,13.2934,-0.3254153919980851
MultiSource/Applications/SPASS/SPASS,11.1781,11.1941,11.1776,11.1781,11.1411,11.1416,11.1260,11.1411,-0.3310043746253877
MultiSource/Benchmarks/McCat/09-vor/vor, 0.2540, 0.2544, 0.2546,0.2544, 0.2540, 0.2535, 0.2533,0.2535,-0.35377358490567
MultiSource/Benchmarks/DOE-ProxyApps-C++/miniFE/miniFE, 2.3499, 2.3523, 2.3498,2.3499, 2.3433, 2.3412, 2.3384,2.3412,-0.3702285203625588
SingleSource/Benchmarks/Misc-C++-EH/spirit, 3.3841, 3.3762, 3.3801,3.3801, 3.3686, 3.3651, 3.3647,3.3651,-0.4437738528445978
MultiSource/Benchmarks/MiBench/consumer-typeset/consumer-typeset, 8.9720, 8.9778, 8.9740,8.974, 8.9416, 8.9326, 8.9282,8.9326,-0.4613327390238453
SingleSource/Benchmarks/CoyoteBench/huffbench, 0.0787, 0.0788, 0.0785,0.0787, 0.0786, 0.0783, 0.0783,0.0783,-0.5082592121982366
MultiSource/Applications/siod/siod, 1.8275, 1.8297, 1.8324,1.8297, 1.8304, 1.8191, 1.8168,1.8191,-0.5793299447997002
MultiSource/Applications/kimwitu++/kc,10.0798,10.1225,10.0980,10.098,10.0296,10.0316,10.0310,10.031,-0.663497722321249
MultiSource/Benchmarks/tramp3d-v4/tramp3d-v4,18.3453,18.3408,18.3390,18.3408,18.2059,18.1881,18.1950,18.195,-0.7949489662392062
MultiSource/Benchmarks/DOE-ProxyApps-C++/CLAMR/CLAMR,16.4089,16.4459,16.4073,16.4089,16.2543,16.2606,16.2426,16.2543,-0.9421716263734781
SingleSource/Benchmarks/Shootout-C++/hash2, 0.3174, 0.3182, 0.3187,0.3182, 0.3148, 0.3152, 0.3131,0.3148,-1.06851037083594
SingleSource/Benchmarks/Adobe-C++/functionobjects, 0.4180, 0.4200, 0.4181,0.4181, 0.4035, 0.4037, 0.4031,0.4035,-3.491987562784027
MultiSource/Benchmarks/Olden/voronoi/voronoi, 0.2229, 0.2232, 0.2232,0.2232, 0.2014, 0.2008, 0.2009,0.2009,-9.991039426523308
SingleSource/Benchmarks/Adobe-C++/stepanov_abstraction, 0.5581, 0.5585, 0.5576,0.5581, 0.4974, 0.4973, 0.4970,0.4973,-10.894104999104105
Total elapsed time,-,-,-,336.25460000000044,-,-,-,336.29209999999955,0.01115226379033718
Total failure,-,-,-,0,-,-,-,0,
Geom. avg slowdown,,,,,,,,,0.49951921868%
