Benchmarks,base-5.0,base-5.0,base-5.0,median,insts-opt-noprov-5.0,insts-opt-noprov-5.0,insts-opt-noprov-5.0,median,Slowdown(%)
SingleSource/Benchmarks/Adobe-C++/stepanov_vector, 0.6667, 0.6682, 0.6693,0.6682, 0.7731, 0.7737, 0.7714,0.7731,15.698892547141563
SingleSource/Benchmarks/Stanford/Oscar, 0.0573, 0.0573, 0.0572,0.0573, 0.0620, 0.0620, 0.0620,0.062,8.202443280977324
MultiSource/Benchmarks/Olden/mst/mst, 0.1131, 0.1133, 0.1134,0.1133, 0.1167, 0.1168, 0.1168,0.1168,3.0891438658428916
SingleSource/Benchmarks/Misc/himenobmtxpa, 0.1546, 0.1548, 0.1546,0.1546, 0.1587, 0.1587, 0.1588,0.1587,2.6520051746442563
MultiSource/Benchmarks/DOE-ProxyApps-C/RSBench/rsbench, 0.3567, 0.3578, 0.3572,0.3572, 0.3642, 0.3636, 0.3641,0.3641,1.9316909294512685
SingleSource/Benchmarks/BenchmarkGame/recursive, 0.0247, 0.0249, 0.0247,0.0247, 0.0251, 0.0250, 0.0251,0.0251,1.619433198380582
MultiSource/Applications/minisat/minisat, 0.5504, 0.5485, 0.5483,0.5485, 0.5563, 0.5560, 0.5567,0.5563,1.4220601640838604
MultiSource/Benchmarks/DOE-ProxyApps-C/XSBench/XSBench, 0.3176, 0.3185, 0.3176,0.3176, 0.3221, 0.3218, 0.3224,0.3221,1.416876574307313
MultiSource/Benchmarks/McCat/08-main/main, 0.2184, 0.2180, 0.2183,0.2183, 0.2213, 0.2212, 0.2211,0.2212,1.3284470911589574
SingleSource/Benchmarks/Misc/flops-3, 0.0250, 0.0252, 0.0250,0.025, 0.0253, 0.0251, 0.0253,0.0253,1.200000000000001
SingleSource/Benchmarks/Misc/flops-4, 0.0253, 0.0256, 0.0255,0.0255, 0.0258, 0.0257, 0.0258,0.0258,1.17647058823529
SingleSource/Benchmarks/Misc/flops-5, 0.0259, 0.0261, 0.0260,0.026, 0.0264, 0.0262, 0.0263,0.0263,1.1538461538461497
SingleSource/Benchmarks/Misc/flops-2, 0.0261, 0.0260, 0.0260,0.026, 0.0263, 0.0262, 0.0263,0.0263,1.1538461538461497
SingleSource/Benchmarks/Shootout/random, 0.0277, 0.0278, 0.0277,0.0277, 0.0280, 0.0280, 0.0280,0.028,1.0830324909747446
SingleSource/Benchmarks/Misc/fp-convert, 0.0280, 0.0282, 0.0280,0.028, 0.0283, 0.0282, 0.0283,0.0283,1.0714285714285676
MultiSource/Applications/spiff/spiff, 0.6820, 0.6826, 0.6833,0.6826, 0.6897, 0.6903, 0.6894,0.6897,1.0401406387342549
MultiSource/Benchmarks/FreeBench/analyzer/analyzer, 0.2169, 0.2170, 0.2169,0.2169, 0.2191, 0.2191, 0.2191,0.2191,1.014292300599351
SingleSource/Benchmarks/BenchmarkGame/nsieve-bits, 0.0296, 0.0296, 0.0295,0.0296, 0.0299, 0.0298, 0.0299,0.0299,1.0135135135135087
MultiSource/Benchmarks/DOE-ProxyApps-C/SimpleMOC/SimpleMOC, 0.7787, 0.7798, 0.7790,0.779, 0.7881, 0.7854, 0.7868,0.7868,1.0012836970475059
MultiSource/Benchmarks/Olden/power/power, 0.1172, 0.1176, 0.1174,0.1174, 0.1189, 0.1177, 0.1185,0.1185,0.9369676320272413
SingleSource/Benchmarks/Shootout/ackermann, 0.0221, 0.0221, 0.0221,0.0221, 0.0223, 0.0222, 0.0223,0.0223,0.9049773755656076
SingleSource/Benchmarks/CoyoteBench/fftbench, 0.2927, 0.2910, 0.2922,0.2922, 0.2948, 0.2939, 0.2948,0.2948,0.8898015058179221
SingleSource/Benchmarks/Polybench/stencils/fdtd-2d/fdtd-2d, 0.1241, 0.1240, 0.1240,0.124, 0.1252, 0.1251, 0.1251,0.1251,0.8870967741935409
SingleSource/Benchmarks/Polybench/linear-algebra/kernels/symm/symm, 0.0694, 0.0695, 0.0696,0.0695, 0.0701, 0.0701, 0.0701,0.0701,0.8633093525179714
SingleSource/Benchmarks/BenchmarkGame/fannkuch, 0.0469, 0.0471, 0.0469,0.0469, 0.0474, 0.0473, 0.0473,0.0473,0.8528784648187626
MultiSource/Benchmarks/Prolangs-C++/primes/primes, 0.0235, 0.0236, 0.0235,0.0235, 0.0237, 0.0236, 0.0237,0.0237,0.8510638297872353
MultiSource/Benchmarks/Trimaran/netbench-crc/netbench-crc, 0.0712, 0.0710, 0.0707,0.071, 0.0716, 0.0722, 0.0713,0.0716,0.8450704225352101
SingleSource/Benchmarks/Misc/lowercase, 0.0237, 0.0238, 0.0237,0.0237, 0.0239, 0.0237, 0.0239,0.0239,0.8438818565400963
SingleSource/Benchmarks/Polybench/linear-algebra/kernels/cholesky/cholesky, 0.0831, 0.0834, 0.0831,0.0831, 0.0837, 0.0838, 0.0838,0.0838,0.8423586040914532
SingleSource/Benchmarks/Shootout/sieve, 0.0239, 0.0238, 0.0238,0.0238, 0.0240, 0.0239, 0.0240,0.024,0.8403361344537785
MultiSource/Benchmarks/VersaBench/ecbdes/ecbdes, 0.1923, 0.1929, 0.1925,0.1925, 0.1941, 0.1941, 0.1941,0.1941,0.831168831168827
SingleSource/Benchmarks/Misc/flops-7, 0.0249, 0.0251, 0.0250,0.025, 0.0252, 0.0252, 0.0252,0.0252,0.8000000000000007
MultiSource/Benchmarks/McCat/12-IOtest/iotest, 0.0880, 0.0880, 0.0880,0.088, 0.0894, 0.0885, 0.0887,0.0887,0.7954545454545547
SingleSource/Benchmarks/Polybench/stencils/seidel-2d/seidel-2d, 0.0634, 0.0635, 0.0636,0.0635, 0.0639, 0.0640, 0.0641,0.064,0.7874015748031482
SingleSource/Benchmarks/Shootout-C++/ary, 0.1421, 0.1417, 0.1417,0.1417, 0.1433, 0.1428, 0.1427,0.1428,0.7762879322512406
MultiSource/Benchmarks/mediabench/adpcm/rawdaudio/rawdaudio, 0.0519, 0.0521, 0.0519,0.0519, 0.0524, 0.0523, 0.0523,0.0523,0.770712909441218
SingleSource/Benchmarks/Misc/flops-6, 0.0260, 0.0262, 0.0260,0.026, 0.0262, 0.0262, 0.0262,0.0262,0.7692307692307887
SingleSource/Benchmarks/Polybench/linear-algebra/kernels/trmm/trmm, 0.0657, 0.0658, 0.0656,0.0657, 0.0664, 0.0662, 0.0661,0.0662,0.7610350076103556
MultiSource/Benchmarks/BitBench/uuencode/uuencode, 0.0395, 0.0396, 0.0394,0.0395, 0.0398, 0.0396, 0.0398,0.0398,0.75949367088608
MultiSource/Benchmarks/BitBench/drop3/drop3, 0.0396, 0.0395, 0.0395,0.0395, 0.0398, 0.0397, 0.0398,0.0398,0.75949367088608
MultiSource/Benchmarks/Trimaran/enc-md5/enc-md5, 0.1339, 0.1336, 0.1337,0.1337, 0.1346, 0.1350, 0.1347,0.1347,0.7479431563200967
SingleSource/Benchmarks/Misc/mandel, 0.0404, 0.0407, 0.0405,0.0405, 0.0408, 0.0406, 0.0408,0.0408,0.7407407407407529
SingleSource/Benchmarks/BenchmarkGame/partialsums, 0.0277, 0.0278, 0.0276,0.0277, 0.0279, 0.0278, 0.0280,0.0279,0.7220216606498298
MultiSource/Benchmarks/MiBench/automotive-bitcount/automotive-bitcount, 0.2378, 0.2378, 0.2379,0.2378, 0.2395, 0.2397, 0.2391,0.2395,0.7148864592094073
SingleSource/Benchmarks/Polybench/linear-algebra/kernels/trisolv/trisolv, 0.0578, 0.0578, 0.0578,0.0578, 0.0582, 0.0582, 0.0582,0.0582,0.6920415224913601
MultiSource/Benchmarks/ASC_Sequoia/CrystalMk/CrystalMk, 0.2023, 0.2029, 0.2023,0.2023, 0.2037, 0.2033, 0.2041,0.2037,0.6920415224913379
SingleSource/Benchmarks/Shootout-C++/ary3, 0.1448, 0.1452, 0.1455,0.1452, 0.1465, 0.1462, 0.1459,0.1462,0.688705234159781
SingleSource/Benchmarks/Polybench/linear-algebra/kernels/mvt/mvt, 0.0732, 0.0734, 0.0733,0.0733, 0.0738, 0.0737, 0.0740,0.0738,0.6821282401091366
SingleSource/Benchmarks/Shootout/methcall, 0.0294, 0.0294, 0.0295,0.0294, 0.0295, 0.0296, 0.0296,0.0296,0.6802721088435382
MultiSource/Benchmarks/McCat/04-bisect/bisect, 0.1178, 0.1177, 0.1176,0.1177, 0.1185, 0.1181, 0.1185,0.1185,0.679694137638065
SingleSource/Benchmarks/Misc/dt, 0.0299, 0.0300, 0.0298,0.0299, 0.0301, 0.0301, 0.0302,0.0301,0.6688963210702337
SingleSource/Benchmarks/Shootout-C++/ackermann, 0.1077, 0.1079, 0.1082,0.1079, 0.1090, 0.1086, 0.1081,0.1086,0.6487488415199305
MultiSource/Benchmarks/VersaBench/dbms/dbms, 0.8971, 0.8921, 0.8904,0.8921, 0.9001, 0.8947, 0.8976,0.8976,0.6165228113440113
MultiSource/Benchmarks/SciMark2-C/scimark2, 0.3411, 0.3416, 0.3412,0.3412, 0.3434, 0.3431, 0.3433,0.3433,0.6154747948417416
MultiSource/Benchmarks/MiBench/consumer-lame/consumer-lame, 3.5566, 3.5585, 3.5614,3.5585, 3.5827, 3.5802, 3.5791,3.5802,0.6098075031614414
SingleSource/Benchmarks/Shootout-C++/random, 0.1145, 0.1149, 0.1150,0.1149, 0.1159, 0.1156, 0.1155,0.1156,0.6092254134029584
MultiSource/Benchmarks/BitBench/five11/five11, 0.0493, 0.0492, 0.0494,0.0493, 0.0497, 0.0494, 0.0496,0.0496,0.6085192697768749
MultiSource/Benchmarks/DOE-ProxyApps-C++/HPCCG/HPCCG, 1.2879, 1.2903, 1.2885,1.2885, 1.2995, 1.2959, 1.2963,1.2963,0.6053550640279459
SingleSource/Benchmarks/BenchmarkGame/spectral-norm, 0.0498, 0.0499, 0.0496,0.0498, 0.0501, 0.0501, 0.0502,0.0501,0.6024096385542244
SingleSource/Benchmarks/Polybench/medley/floyd-warshall/floyd-warshall, 0.0685, 0.0684, 0.0685,0.0685, 0.0690, 0.0688, 0.0689,0.0689,0.5839416058394109
MultiSource/Benchmarks/mediabench/adpcm/rawcaudio/rawcaudio, 0.0521, 0.0523, 0.0519,0.0521, 0.0525, 0.0523, 0.0524,0.0524,0.5758157389635254
MultiSource/Benchmarks/Olden/treeadd/treeadd, 0.0529, 0.0527, 0.0529,0.0529, 0.0535, 0.0532, 0.0532,0.0532,0.567107750472573
SingleSource/Benchmarks/Shootout-C++/fibo, 0.1064, 0.1067, 0.1062,0.1064, 0.1070, 0.1071, 0.1069,0.107,0.5639097744360999
SingleSource/Benchmarks/Polybench/linear-algebra/kernels/atax/atax, 0.0726, 0.0728, 0.0726,0.0726, 0.0731, 0.0729, 0.0730,0.073,0.5509641873278293
MultiSource/Benchmarks/Olden/perimeter/perimeter, 0.0728, 0.0728, 0.0727,0.0728, 0.0733, 0.0730, 0.0732,0.0732,0.5494505494505475
SingleSource/Benchmarks/Misc-C++/Large/sphereflake, 0.2010, 0.2005, 0.2005,0.2005, 0.2015, 0.2016, 0.2016,0.2016,0.5486284289276666
SingleSource/Benchmarks/BenchmarkGame/Large/fasta, 0.0374, 0.0376, 0.0374,0.0374, 0.0378, 0.0376, 0.0376,0.0376,0.5347593582887722
SingleSource/Benchmarks/Shootout/fib2, 0.0188, 0.0187, 0.0188,0.0188, 0.0190, 0.0188, 0.0189,0.0189,0.5319148936170137
SingleSource/Benchmarks/Polybench/stencils/jacobi-1d-imper/jacobi-1d-imper, 0.0758, 0.0760, 0.0760,0.076, 0.0764, 0.0762, 0.0764,0.0764,0.5263157894736858
SingleSource/Benchmarks/Shootout-C++/strcat, 0.1157, 0.1163, 0.1157,0.1157, 0.1167, 0.1163, 0.1163,0.1163,0.5185825410544576
MultiSource/Benchmarks/NPB-serial/is/is, 0.0591, 0.0591, 0.0590,0.0591, 0.0594, 0.0594, 0.0594,0.0594,0.5076142131979822
SingleSource/Benchmarks/Misc/pi, 0.0200, 0.0200, 0.0198,0.02, 0.0202, 0.0201, 0.0201,0.0201,0.49999999999998934
SingleSource/Benchmarks/McGill/queens, 0.0413, 0.0413, 0.0414,0.0413, 0.0415, 0.0416, 0.0415,0.0415,0.4842615012106588
MultiSource/Benchmarks/VersaBench/beamformer/beamformer, 0.2713, 0.2710, 0.2713,0.2713, 0.2726, 0.2730, 0.2725,0.2726,0.47917434574273887
MultiSource/Benchmarks/Olden/health/health, 0.1262, 0.1268, 0.1264,0.1264, 0.1272, 0.1270, 0.1270,0.127,0.4746835443038
MultiSource/Benchmarks/ASCI_Purple/SMG2000/smg2000, 5.0853, 5.0865, 5.0923,5.0865, 5.1201, 5.1092, 5.1106,5.1106,0.47380320456109626
SingleSource/Benchmarks/Shootout-C++/nestedloop, 0.1066, 0.1073, 0.1070,0.107, 0.1079, 0.1075, 0.1075,0.1075,0.4672897196261738
SingleSource/Benchmarks/BenchmarkGame/n-body, 0.0645, 0.0646, 0.0644,0.0645, 0.0649, 0.0648, 0.0647,0.0648,0.46511627906975495
MultiSource/Benchmarks/llubenchmark/llu, 0.0431, 0.0431, 0.0430,0.0431, 0.0434, 0.0433, 0.0433,0.0433,0.46403712296982924
SingleSource/Benchmarks/Stanford/Towers, 0.0442, 0.0444, 0.0444,0.0444, 0.0446, 0.0444, 0.0446,0.0446,0.45045045045044585
MultiSource/Benchmarks/MiBench/telecomm-gsm/telecomm-gsm, 0.9453, 0.9442, 0.9447,0.9447, 0.9511, 0.9488, 0.9489,0.9489,0.44458558272466586
MultiSource/Benchmarks/mediabench/g721/g721encode/encode, 0.1817, 0.1820, 0.1818,0.1818, 0.1827, 0.1826, 0.1826,0.1826,0.44004400440045277
SingleSource/Benchmarks/Shootout/nestedloop, 0.0227, 0.0228, 0.0228,0.0228, 0.0228, 0.0229, 0.0229,0.0229,0.43859649122806044
SingleSource/Benchmarks/Stanford/RealMM, 0.0460, 0.0460, 0.0460,0.046, 0.0462, 0.0462, 0.0462,0.0462,0.43478260869564966
SingleSource/Benchmarks/Polybench/linear-algebra/solvers/gramschmidt/gramschmidt, 0.0921, 0.0923, 0.0922,0.0922, 0.0926, 0.0927, 0.0925,0.0926,0.433839479392617
MultiSource/Benchmarks/Prolangs-C++/employ/employ, 0.1847, 0.1849, 0.1843,0.1847, 0.1855, 0.1867, 0.1845,0.1855,0.43313481321061165
SingleSource/Benchmarks/Polybench/linear-algebra/kernels/syrk/syrk, 0.0694, 0.0693, 0.0692,0.0693, 0.0697, 0.0696, 0.0696,0.0696,0.43290043290042934
MultiSource/Benchmarks/VersaBench/8b10b/8b10b, 0.0697, 0.0696, 0.0696,0.0696, 0.0703, 0.0699, 0.0699,0.0699,0.4310344827586299
SingleSource/Benchmarks/Polybench/datamining/correlation/correlation, 0.0697, 0.0696, 0.0697,0.0697, 0.0699, 0.0700, 0.0700,0.07,0.43041606886657924
SingleSource/Benchmarks/Misc/flops, 0.0697, 0.0698, 0.0696,0.0697, 0.0700, 0.0701, 0.0700,0.07,0.43041606886657924
MultiSource/Benchmarks/VersaBench/bmm/bmm, 0.0466, 0.0466, 0.0466,0.0466, 0.0468, 0.0466, 0.0468,0.0468,0.42918454935620964
MultiSource/Benchmarks/mediabench/gsm/toast/toast, 0.9463, 0.9453, 0.9443,0.9453, 0.9519, 0.9484, 0.9493,0.9493,0.42314609118798696
SingleSource/Benchmarks/Polybench/linear-algebra/kernels/syr2k/syr2k, 0.0709, 0.0710, 0.0707,0.0709, 0.0712, 0.0711, 0.0714,0.0712,0.42313117066290484
SingleSource/Benchmarks/Polybench/linear-algebra/kernels/bicg/bicg, 0.0711, 0.0714, 0.0713,0.0713, 0.0716, 0.0716, 0.0717,0.0716,0.42075736325384305
MultiSource/Benchmarks/MallocBench/espresso/espresso, 4.1243, 4.1281, 4.1261,4.1261, 4.1434, 4.1441, 4.1415,4.1434,0.4192821308257155
SingleSource/Benchmarks/Shootout-C++/ary2, 0.1428, 0.1432, 0.1434,0.1432, 0.1438, 0.1438, 0.1432,0.1438,0.41899441340782495
SingleSource/Benchmarks/Misc/revertBits, 0.0239, 0.0240, 0.0239,0.0239, 0.0240, 0.0239, 0.0241,0.024,0.4184100418409997
MultiSource/Benchmarks/Prolangs-C/gnugo/gnugo, 0.6767, 0.6738, 0.6732,0.6738, 0.6799, 0.6766, 0.6765,0.6766,0.41555357672899973
MultiSource/Benchmarks/Prolangs-C++/simul/simul, 0.0486, 0.0487, 0.0484,0.0486, 0.0488, 0.0486, 0.0489,0.0488,0.4115226337448652
SingleSource/Benchmarks/Misc/fbench, 0.0492, 0.0492, 0.0491,0.0492, 0.0495, 0.0494, 0.0493,0.0494,0.40650406504065817
MultiSource/Benchmarks/MiBench/network-patricia/network-patricia, 0.0742, 0.0743, 0.0743,0.0743, 0.0746, 0.0746, 0.0746,0.0746,0.40376850605652326
SingleSource/Benchmarks/Polybench/datamining/covariance/covariance, 0.0760, 0.0758, 0.0760,0.076, 0.0763, 0.0762, 0.0765,0.0763,0.39473684210526994
MultiSource/Benchmarks/TSVC/LinearDependence-flt/LinearDependence-flt, 1.5816, 1.5866, 1.5828,1.5828, 1.5946, 1.5889, 1.5875,1.5889,0.38539297447561793
SingleSource/Benchmarks/Misc/flops-8, 0.0260, 0.0262, 0.0261,0.0261, 0.0262, 0.0261, 0.0262,0.0262,0.3831417624521105
SingleSource/Benchmarks/Misc/matmul_f64_4x4, 0.0265, 0.0265, 0.0263,0.0265, 0.0266, 0.0265, 0.0267,0.0266,0.37735849056603765
MultiSource/Benchmarks/MallocBench/cfrac/cfrac, 0.8039, 0.8057, 0.8039,0.8039, 0.8057, 0.8073, 0.8069,0.8069,0.37318074387362454
SingleSource/Benchmarks/Misc/oourafft, 0.1891, 0.1894, 0.1894,0.1894, 0.1900, 0.1901, 0.1902,0.1901,0.36958817317844783
MultiSource/Applications/lua/lua, 2.9250, 2.9251, 2.9312,2.9251, 2.9344, 2.9355, 2.9387,2.9355,0.355543400225633
SingleSource/Benchmarks/Stanford/Perm, 0.0292, 0.0292, 0.0291,0.0292, 0.0293, 0.0293, 0.0293,0.0293,0.3424657534246478
MultiSource/Benchmarks/ASC_Sequoia/AMGmk/AMGmk, 0.5301, 0.5323, 0.5302,0.5302, 0.5322, 0.5316, 0.5320,0.532,0.3394945303659025
MultiSource/Benchmarks/Prolangs-C++/city/city, 0.8270, 0.8288, 0.8261,0.827, 0.8326, 0.8298, 0.8290,0.8298,0.33857315598548876
MultiSource/Applications/aha/aha, 0.0896, 0.0898, 0.0900,0.0898, 0.0900, 0.0901, 0.0902,0.0901,0.33407572383072903
MultiSource/Benchmarks/TSVC/Symbolics-dbl/Symbolics-dbl, 1.8294, 1.8273, 1.8319,1.8294, 1.8355, 1.8351, 1.8356,1.8355,0.3334426587952244
SingleSource/Benchmarks/Shootout-C++/lists1, 0.1807, 0.1818, 0.1817,0.1817, 0.1826, 0.1815, 0.1823,0.1823,0.3302146395156802
SingleSource/Benchmarks/Misc/ffbench, 0.0609, 0.0611, 0.0608,0.0609, 0.0613, 0.0610, 0.0611,0.0611,0.3284072249589487
SingleSource/Benchmarks/Misc/whetstone, 0.0610, 0.0612, 0.0610,0.061, 0.0614, 0.0611, 0.0612,0.0612,0.3278688524590123
SingleSource/Benchmarks/Polybench/linear-algebra/kernels/gesummv/gesummv, 0.0611, 0.0611, 0.0610,0.0611, 0.0612, 0.0613, 0.0613,0.0613,0.3273322422258529
SingleSource/Benchmarks/Shootout/ary3, 0.0319, 0.0319, 0.0318,0.0319, 0.0320, 0.0320, 0.0320,0.032,0.31347962382446415
MultiSource/Benchmarks/FreeBench/pcompress2/pcompress2, 0.2243, 0.2242, 0.2240,0.2242, 0.2249, 0.2248, 0.2250,0.2249,0.3122212310437078
MultiSource/Benchmarks/TSVC/Symbolics-flt/Symbolics-flt, 1.5181, 1.5186, 1.5194,1.5186, 1.5245, 1.5233, 1.5215,1.5233,0.3094955880416306
MultiSource/Benchmarks/Olden/em3d/em3d, 0.1627, 0.1629, 0.1641,0.1629, 0.1635, 0.1633, 0.1634,0.1634,0.30693677102517913
MultiSource/Benchmarks/MiBench/telecomm-CRC32/telecomm-CRC32, 0.0325, 0.0327, 0.0326,0.0326, 0.0327, 0.0328, 0.0327,0.0327,0.30674846625766694
MultiSource/Applications/ALAC/encode/alacconvert-encode, 0.8541, 0.8558, 0.8559,0.8558, 0.8592, 0.8568, 0.8584,0.8584,0.30380930123861116
MultiSource/Benchmarks/MiBench/automotive-basicmath/automotive-basicmath, 0.1325, 0.1326, 0.1326,0.1326, 0.1330, 0.1330, 0.1328,0.133,0.3016591251885359
SingleSource/Benchmarks/Misc/evalloop, 0.0335, 0.0335, 0.0335,0.0335, 0.0336, 0.0335, 0.0337,0.0336,0.29850746268655914
SingleSource/Benchmarks/Shootout-C++/matrix, 0.1681, 0.1680, 0.1684,0.1681, 0.1691, 0.1686, 0.1685,0.1686,0.2974419988102328
SingleSource/Benchmarks/Linpack/linpack-pc, 0.2763, 0.2756, 0.2759,0.2759, 0.2767, 0.2763, 0.2767,0.2767,0.2899601304820587
SingleSource/Benchmarks/Shootout/objinst, 0.0346, 0.0345, 0.0346,0.0346, 0.0347, 0.0346, 0.0348,0.0347,0.28901734104047616
SingleSource/Benchmarks/Stanford/Quicksort, 0.0347, 0.0346, 0.0347,0.0347, 0.0348, 0.0348, 0.0349,0.0348,0.28818443804032867
MultiSource/Benchmarks/Fhourstones-3.1/fhourstones3.1, 0.1061, 0.1061, 0.1064,0.1061, 0.1063, 0.1064, 0.1064,0.1064,0.2827521206409056
SingleSource/Benchmarks/Polybench/medley/reg_detect/reg_detect, 0.3891, 0.3890, 0.3896,0.3891, 0.3898, 0.3902, 0.3905,0.3902,0.2827036751477774
SingleSource/Benchmarks/Shootout/heapsort, 0.0360, 0.0362, 0.0361,0.0361, 0.0362, 0.0362, 0.0361,0.0362,0.27700831024930483
MultiSource/Benchmarks/TSVC/Equivalencing-flt/Equivalencing-flt, 1.5268, 1.5267, 1.5280,1.5268, 1.5330, 1.5309, 1.5303,1.5309,0.26853549908305574
SingleSource/Benchmarks/Shootout/matrix, 0.0749, 0.0749, 0.0748,0.0749, 0.0750, 0.0751, 0.0751,0.0751,0.2670226969292422
MultiSource/Benchmarks/Trimaran/netbench-url/netbench-url, 0.1886, 0.1885, 0.1883,0.1885, 0.1891, 0.1888, 0.1890,0.189,0.2652519893899141
MultiSource/Applications/hexxagon/hexxagon, 0.6034, 0.6058, 0.6053,0.6053, 0.6081, 0.6067, 0.6069,0.6069,0.2643317363290931
MultiSource/Benchmarks/7zip/7zip-benchmark,30.7740,30.7948,30.7911,30.7911,30.8958,30.8548,30.8708,30.8708,0.2588410287388099
SingleSource/Benchmarks/Misc-C++/Large/ray, 0.1931, 0.1938, 0.1935,0.1935, 0.1940, 0.1943, 0.1939,0.194,0.25839793281654533
MultiSource/Benchmarks/MiBench/network-dijkstra/network-dijkstra, 0.0387, 0.0387, 0.0387,0.0387, 0.0387, 0.0388, 0.0388,0.0388,0.25839793281654533
MultiSource/Applications/ALAC/decode/alacconvert-decode, 0.8543, 0.8553, 0.8557,0.8553, 0.8575, 0.8574, 0.8588,0.8575,0.2572196889980338
SingleSource/Benchmarks/Misc-C++/stepanov_v1p2, 0.1564, 0.1567, 0.1573,0.1567, 0.1572, 0.1568, 0.1571,0.1571,0.2552648372686539
SingleSource/Benchmarks/Polybench/stencils/fdtd-apml/fdtd-apml, 0.1184, 0.1186, 0.1183,0.1184, 0.1185, 0.1187, 0.1190,0.1187,0.2533783783783772
SingleSource/Benchmarks/Polybench/linear-algebra/solvers/durbin/durbin, 0.0795, 0.0795, 0.0798,0.0795, 0.0801, 0.0797, 0.0797,0.0797,0.2515723270440251
MultiSource/Benchmarks/Prolangs-C/agrep/agrep, 1.2018, 1.1998, 1.1998,1.1998, 1.2021, 1.2028, 1.2035,1.2028,0.250041673612289
MultiSource/Benchmarks/TSVC/NodeSplitting-flt/NodeSplitting-flt, 1.5105, 1.5088, 1.5164,1.5105, 1.5145, 1.5125, 1.5139,1.5139,0.22509102946044468
MultiSource/Benchmarks/McCat/01-qbsort/qbsort, 0.0896, 0.0894, 0.0895,0.0895, 0.0897, 0.0898, 0.0897,0.0897,0.22346368715084886
MultiSource/Benchmarks/Ptrdist/yacr2/yacr2, 0.5482, 0.5474, 0.5475,0.5475, 0.5487, 0.5480, 0.5490,0.5487,0.21917808219178436
MultiSource/Benchmarks/Trimaran/enc-rc4/enc-rc4, 0.0459, 0.0459, 0.0457,0.0459, 0.0461, 0.0460, 0.0459,0.046,0.2178649237472685
MultiSource/Benchmarks/TSVC/InductionVariable-flt/InductionVariable-flt, 1.5403, 1.5406, 1.5403,1.5403, 1.5433, 1.5436, 1.5440,1.5436,0.2142439784457606
MultiSource/Applications/obsequi/Obsequi, 0.8759, 0.8766, 0.8771,0.8766, 0.8784, 0.8780, 0.8788,0.8784,0.2053388090349051
SingleSource/Benchmarks/McGill/misr, 0.0491, 0.0491, 0.0490,0.0491, 0.0492, 0.0491, 0.0492,0.0492,0.20366598778005507
MultiSource/Benchmarks/Fhourstones/fhourstones, 0.1487, 0.1490, 0.1491,0.149, 0.1493, 0.1493, 0.1493,0.1493,0.2013422818792021
SingleSource/Benchmarks/Misc/salsa20, 0.0497, 0.0498, 0.0498,0.0498, 0.0499, 0.0499, 0.0500,0.0499,0.20080321285140812
SingleSource/Benchmarks/Stanford/Puzzle, 0.0999, 0.1000, 0.0998,0.0999, 0.1002, 0.1001, 0.1000,0.1001,0.2002002002001957
SingleSource/Benchmarks/Misc-C++/oopack_v1p8, 0.1019, 0.1022, 0.1020,0.102, 0.1024, 0.1021, 0.1022,0.1022,0.19607843137254832
MultiSource/Benchmarks/DOE-ProxyApps-C/miniGMG/miniGMG, 0.8737, 0.8736, 0.8730,0.8736, 0.8752, 0.8745, 0.8753,0.8752,0.1831501831501825
SingleSource/Benchmarks/Adobe-C++/simple_types_constant_folding, 2.2695, 2.2672, 2.2650,2.2672, 2.2728, 2.2713, 2.2649,2.2713,0.1808398023994462
SingleSource/Benchmarks/McGill/chomp, 0.1684, 0.1685, 0.1685,0.1685, 0.1682, 0.1688, 0.1688,0.1688,0.17804154302669684
SingleSource/Benchmarks/Misc/ReedSolomon, 0.1689, 0.1692, 0.1698,0.1692, 0.1695, 0.1693, 0.1698,0.1695,0.17730496453902678
SingleSource/Benchmarks/Shootout-C++/methcall, 0.1150, 0.1154, 0.1151,0.1151, 0.1157, 0.1153, 0.1148,0.1153,0.17376194613381024
SingleSource/Benchmarks/Misc/richards_benchmark, 0.0584, 0.0585, 0.0584,0.0584, 0.0585, 0.0583, 0.0585,0.0585,0.1712328767123239
MultiSource/Benchmarks/nbench/nbench, 1.0068, 1.0061, 1.0066,1.0066, 1.0104, 1.0083, 1.0067,1.0083,0.16888535664614235
MultiSource/Benchmarks/Olden/bisort/bisort, 0.0595, 0.0596, 0.0594,0.0595, 0.0596, 0.0596, 0.0597,0.0596,0.1680672268907557
MultiSource/Benchmarks/FreeBench/pifft/pifft, 0.8332, 0.8324, 0.8339,0.8332, 0.8347, 0.8339, 0.8346,0.8346,0.1680268843014865
SingleSource/Benchmarks/Shootout-C++/EH/except, 0.1200, 0.1197, 0.1201,0.12, 0.1205, 0.1202, 0.1202,0.1202,0.16666666666667052
MultiSource/Benchmarks/DOE-ProxyApps-C/miniAMR/miniAMR, 1.2071, 1.2092, 1.2085,1.2085, 1.2110, 1.2100, 1.2105,1.2105,0.1654944145635051
SingleSource/Benchmarks/Shootout/lists, 0.0612, 0.0614, 0.0615,0.0614, 0.0615, 0.0612, 0.0615,0.0615,0.16286644951140072
MultiSource/Benchmarks/TSVC/Reductions-flt/Reductions-flt, 1.5777, 1.5743, 1.5767,1.5767, 1.5792, 1.5805, 1.5777,1.5792,0.15855901566563801
MultiSource/Benchmarks/TSVC/ControlLoops-flt/ControlLoops-flt, 1.5688, 1.5673, 1.5741,1.5688, 1.5711, 1.5735, 1.5703,1.5711,0.14660887302395675
MultiSource/Benchmarks/TSVC/CrossingThresholds-flt/CrossingThresholds-flt, 1.5248, 1.5248, 1.5257,1.5248, 1.5290, 1.5270, 1.5258,1.527,0.14428121720881926
MultiSource/Benchmarks/TSVC/NodeSplitting-dbl/NodeSplitting-dbl, 1.8154, 1.8168, 1.8139,1.8154, 1.8180, 1.8193, 1.8179,1.818,0.14321912526165104
SingleSource/Benchmarks/Polybench/stencils/adi/adi, 0.0815, 0.0815, 0.0815,0.0815, 0.0817, 0.0816, 0.0816,0.0816,0.12269938650306678
SingleSource/Benchmarks/SmallPT/smallpt, 0.0902, 0.0905, 0.0903,0.0903, 0.0904, 0.0905, 0.0904,0.0904,0.11074197120708451
MultiSource/Benchmarks/TSVC/IndirectAddressing-flt/IndirectAddressing-flt, 1.5180, 1.5181, 1.5191,1.5181, 1.5197, 1.5206, 1.5184,1.5197,0.10539490152163822
MultiSource/Benchmarks/TSVC/LoopRestructuring-dbl/LoopRestructuring-dbl, 1.8436, 1.8511, 1.8454,1.8454, 1.8463, 1.8481, 1.8473,1.8473,0.10295870813916697
MultiSource/Benchmarks/TSVC/Recurrences-flt/Recurrences-flt, 1.4847, 1.4817, 1.4822,1.4822, 1.4837, 1.4840, 1.4822,1.4837,0.10120091755498883
MultiSource/Benchmarks/FreeBench/fourinarow/fourinarow, 0.3017, 0.3016, 0.3025,0.3017, 0.3020, 0.3022, 0.3019,0.302,0.09943652635067135
MultiSource/Benchmarks/McCat/05-eks/eks, 0.4704, 0.4694, 0.4717,0.4704, 0.4714, 0.4707, 0.4708,0.4708,0.08503401360544505
MultiSource/Benchmarks/TSVC/IndirectAddressing-dbl/IndirectAddressing-dbl, 1.8264, 1.8278, 1.8281,1.8278, 1.8292, 1.8289, 1.8292,1.8292,0.07659481343691432
MultiSource/Applications/hbd/hbd, 1.0916, 1.0944, 1.0900,1.0916, 1.0924, 1.0933, 1.0898,1.0924,0.07328691828509815
MultiSource/Benchmarks/MiBench/automotive-susan/automotive-susan, 0.5560, 0.5548, 0.5552,0.5552, 0.5563, 0.5544, 0.5556,0.5556,0.07204610951008217
MultiSource/Benchmarks/PAQ8p/paq8p, 1.7184, 1.7215, 1.7212,1.7212, 1.7224, 1.7224, 1.7205,1.7224,0.06971880083661564
MultiSource/Benchmarks/DOE-ProxyApps-C/Pathfinder/PathFinder, 0.7350, 0.7356, 0.7345,0.735, 0.7355, 0.7351, 0.7362,0.7355,0.06802721088436936
MultiSource/Applications/viterbi/viterbi, 0.1531, 0.1550, 0.1535,0.1535, 0.1537, 0.1536, 0.1534,0.1536,0.06514657980454253
MultiSource/Benchmarks/FreeBench/neural/neural, 0.1580, 0.1583, 0.1582,0.1582, 0.1598, 0.1582, 0.1583,0.1583,0.06321112515801364
MultiSource/Benchmarks/TSVC/Equivalencing-dbl/Equivalencing-dbl, 1.8435, 1.8376, 1.8397,1.8397, 1.8409, 1.8408, 1.8406,1.8408,0.0597923574495951
MultiSource/Benchmarks/TSVC/Reductions-dbl/Reductions-dbl, 1.8838, 1.8825, 1.8847,1.8838, 1.8843, 1.8849, 1.8861,1.8849,0.058392610680546575
MultiSource/Benchmarks/Trimaran/enc-3des/enc-3des, 0.2140, 0.2141, 0.2143,0.2141, 0.2142, 0.2150, 0.2142,0.2142,0.04670714619336991
MultiSource/Applications/ClamAV/clamscan,12.9855,12.9886,12.9998,12.9886,12.9935,12.9926,12.9888,12.9926,0.03079623669988152
MultiSource/Applications/d/make_dparser, 2.3310, 2.3310, 2.3343,2.331, 2.3316, 2.3333, 2.3317,2.3317,0.030030030030037125
MultiSource/Benchmarks/TSVC/CrossingThresholds-dbl/CrossingThresholds-dbl, 1.8300, 1.8304, 1.8327,1.8304, 1.8309, 1.8310, 1.8273,1.8309,0.02731643356643776
SingleSource/Benchmarks/Adobe-C++/simple_types_loop_invariant, 1.8278, 1.8344, 1.8315,1.8315, 1.8317, 1.8335, 1.8278,1.8317,0.010920010920023593
MultiSource/Benchmarks/TSVC/GlobalDataFlow-flt/GlobalDataFlow-flt, 1.5622, 1.5607, 1.5609,1.5609, 1.5610, 1.5612, 1.5557,1.561,0.0064065603177621
SingleSource/Benchmarks/Stanford/Treesort, 0.0358, 0.0357, 0.0356,0.0357, 0.0357, 0.0356, 0.0358,0.0357,0.0
SingleSource/Benchmarks/Stanford/Queens, 0.0412, 0.0411, 0.0412,0.0412, 0.0412, 0.0412, 0.0413,0.0412,0.0
SingleSource/Benchmarks/Shootout/strcat, 0.0255, 0.0255, 0.0254,0.0255, 0.0256, 0.0255, 0.0255,0.0255,0.0
SingleSource/Benchmarks/Shootout-C++/objinst, 0.1292, 0.1301, 0.1299,0.1299, 0.1302, 0.1299, 0.1294,0.1299,0.0
SingleSource/Benchmarks/Misc-C++/mandel-text, 0.0227, 0.0227, 0.0227,0.0227, 0.0227, 0.0227, 0.0228,0.0227,0.0
MultiSource/Benchmarks/Trimaran/enc-pc1/enc-pc1, 0.0588, 0.0589, 0.0587,0.0588, 0.0588, 0.0588, 0.0587,0.0588,0.0
MultiSource/Benchmarks/TSVC/Expansion-flt/Expansion-flt, 1.5667, 1.5655, 1.5669,1.5667, 1.5663, 1.5708, 1.5667,1.5667,0.0
MultiSource/Benchmarks/Ptrdist/ks/ks, 0.1313, 0.1316, 0.1315,0.1315, 0.1319, 0.1315, 0.1314,0.1315,0.0
MultiSource/Benchmarks/Prolangs-C++/life/life, 0.0547, 0.0547, 0.0548,0.0547, 0.0547, 0.0547, 0.0548,0.0547,0.0
MultiSource/Applications/sgefa/sgefa, 0.3522, 0.3519, 0.3521,0.3521, 0.3524, 0.3518, 0.3521,0.3521,0.0
MultiSource/Benchmarks/MallocBench/gs/gs, 3.4163, 3.4164, 3.4211,3.4164, 3.4161, 3.4181, 3.4163,3.4163,-0.002927057721568982
MultiSource/Applications/JM/lencod/lencod,13.2939,13.2927,13.2988,13.2939,13.2933,13.3020,13.2885,13.2933,-0.004513348227386249
MultiSource/Benchmarks/Bullet/bullet,20.9038,20.9442,20.9293,20.9293,20.9309,20.9279,20.9221,20.9279,-0.006689186929331736
MultiSource/Benchmarks/Prolangs-C/bison/mybison, 1.4589, 1.4574, 1.4601,1.4589, 1.4601, 1.4587, 1.4588,1.4588,-0.0068544794022851185
MultiSource/Benchmarks/mediabench/mpeg2/mpeg2dec/mpeg2decode, 1.1995, 1.1996, 1.1991,1.1995, 1.1993, 1.1996, 1.1991,1.1993,-0.016673614005835447
SingleSource/Benchmarks/Adobe-C++/loop_unroll, 3.9933, 3.9884, 3.9968,3.9933, 3.9989, 3.9909, 3.9925,3.9925,-0.020033556206644487
MultiSource/Benchmarks/TSVC/StatementReordering-flt/StatementReordering-flt, 1.4822, 1.4832, 1.4832,1.4832, 1.4828, 1.4806, 1.4831,1.4828,-0.026968716289121897
MultiSource/Benchmarks/TSVC/Searching-flt/Searching-flt, 1.4728, 1.4720, 1.4742,1.4728, 1.4716, 1.4741, 1.4724,1.4724,-0.027159152634448347
MultiSource/Benchmarks/MiBench/security-rijndael/security-rijndael, 0.3565, 0.3556, 0.3560,0.356, 0.3559, 0.3567, 0.3552,0.3559,-0.02808988764044784
MultiSource/Benchmarks/Olden/bh/bh, 0.2353, 0.2351, 0.2358,0.2353, 0.2352, 0.2351, 0.2363,0.2352,-0.042498937526569414
MultiSource/Benchmarks/TSVC/LoopRerolling-dbl/LoopRerolling-dbl, 1.8055, 1.8091, 1.8050,1.8055, 1.8051, 1.8042, 1.8045,1.8045,-0.055386319579064924
SingleSource/Benchmarks/Shootout-C++/sieve, 0.1670, 0.1678, 0.1677,0.1677, 0.1685, 0.1676, 0.1674,0.1676,-0.05963029218842841
MultiSource/Benchmarks/TSVC/Searching-dbl/Searching-dbl, 1.7806, 1.7782, 1.7802,1.7802, 1.7824, 1.7790, 1.7775,1.779,-0.06740815638692776
MultiSource/Benchmarks/MiBench/consumer-jpeg/consumer-jpeg, 4.0191, 4.0212, 4.0226,4.0212, 4.0226, 4.0182, 4.0143,4.0182,-0.07460459564309074
MultiSource/Benchmarks/TSVC/ControlFlow-flt/ControlFlow-flt, 1.6592, 1.6559, 1.6574,1.6574, 1.6561, 1.6543, 1.6573,1.6561,-0.07843610474237428
MultiSource/Benchmarks/mediabench/jpeg/jpeg-6a/cjpeg, 4.0574, 4.0587, 4.0603,4.0587, 4.0549, 4.0551, 4.0542,4.0549,-0.09362603789391244
MultiSource/Benchmarks/TSVC/StatementReordering-dbl/StatementReordering-dbl, 1.7918, 1.7906, 1.7941,1.7918, 1.7927, 1.7901, 1.7892,1.7901,-0.0948766603415585
MultiSource/Benchmarks/McCat/18-imp/imp, 0.2995, 0.2991, 0.2994,0.2994, 0.2991, 0.2991, 0.2992,0.2991,-0.10020040080160886
MultiSource/Benchmarks/TSVC/GlobalDataFlow-dbl/GlobalDataFlow-dbl, 1.8653, 1.8677, 1.8692,1.8677, 1.8681, 1.8657, 1.8637,1.8657,-0.10708357873320251
MultiSource/Benchmarks/Ptrdist/anagram/anagram, 0.0908, 0.0908, 0.0910,0.0908, 0.0909, 0.0904, 0.0907,0.0907,-0.11013215859031478
MultiSource/Applications/JM/ldecod/ldecod, 5.6670, 5.6770, 5.6731,5.6731, 5.6665, 5.6546, 5.6699,5.6665,-0.11633850980944382
MultiSource/Benchmarks/TSVC/Packing-dbl/Packing-dbl, 1.7929, 1.7905, 1.7936,1.7929, 1.7833, 1.7914, 1.7907,1.7907,-0.12270623012995419
MultiSource/Benchmarks/TSVC/ControlLoops-dbl/ControlLoops-dbl, 1.8703, 1.8777, 1.8822,1.8777, 1.8753, 1.8759, 1.8741,1.8753,-0.12781594503914473
MultiSource/Applications/oggenc/oggenc, 4.4049, 4.4055, 4.4059,4.4055, 4.3953, 4.4026, 4.3997,4.3997,-0.13165361479967608
MultiSource/Benchmarks/McCat/17-bintr/bintr, 0.0651, 0.0649, 0.0654,0.0651, 0.0650, 0.0650, 0.0652,0.065,-0.1536098310291889
MultiSource/Benchmarks/TSVC/LoopRerolling-flt/LoopRerolling-flt, 1.4951, 1.4961, 1.4990,1.4961, 1.4976, 1.4938, 1.4928,1.4938,-0.15373303923534865
MultiSource/Benchmarks/mafft/pairlocalalign, 7.8541, 7.8476, 7.8645,7.8541, 7.8447, 7.8417, 7.8383,7.8417,-0.1578793241746257
SingleSource/Benchmarks/Shootout-C++/hash, 0.2453, 0.2461, 0.2452,0.2453, 0.2455, 0.2448, 0.2449,0.2449,-0.16306563391764728
MultiSource/Applications/SIBsim4/SIBsim4, 1.0344, 1.0326, 1.0350,1.0344, 1.0327, 1.0348, 1.0321,1.0327,-0.1643464810518247
MultiSource/Benchmarks/TSVC/Packing-flt/Packing-flt, 1.4842, 1.4863, 1.4865,1.4863, 1.4824, 1.4835, 1.4834,1.4834,-0.19511538720311528
MultiSource/Benchmarks/TSVC/Expansion-dbl/Expansion-dbl, 1.8796, 1.8862, 1.8772,1.8796, 1.8754, 1.8773, 1.8759,1.8759,-0.19685039370078705
MultiSource/Benchmarks/TSVC/LoopRestructuring-flt/LoopRestructuring-flt, 1.5424, 1.5389, 1.5404,1.5404, 1.5373, 1.5372, 1.5385,1.5373,-0.20124642949882476
MultiSource/Benchmarks/DOE-ProxyApps-C++/PENNANT/PENNANT, 3.6937, 3.6961, 3.6969,3.6961, 3.6960, 3.6885, 3.6881,3.6885,-0.20562214225805509
MultiSource/Benchmarks/FreeBench/mason/mason, 0.0456, 0.0456, 0.0457,0.0456, 0.0455, 0.0455, 0.0455,0.0455,-0.21929824561404132
SingleSource/Benchmarks/CoyoteBench/lpbench, 0.1359, 0.1361, 0.1360,0.136, 0.1360, 0.1357, 0.1356,0.1357,-0.22058823529413907
MultiSource/Applications/sqlite3/sqlite3,13.6118,13.5791,13.6090,13.609,13.5752,13.5619,13.5797,13.5752,-0.24836505253875707
MultiSource/Benchmarks/TSVC/Recurrences-dbl/Recurrences-dbl, 1.7919, 1.7935, 1.7970,1.7935, 1.7890, 1.7871, 1.7892,1.789,-0.2509060496236559
MultiSource/Benchmarks/Ptrdist/ft/ft, 0.1913, 0.1914, 0.1916,0.1914, 0.1909, 0.1906, 0.1913,0.1909,-0.2612330198537127
SingleSource/Benchmarks/Shootout-C++/lists, 0.1475, 0.1479, 0.1477,0.1477, 0.1481, 0.1473, 0.1472,0.1473,-0.27081922816520887
MultiSource/Benchmarks/TSVC/LinearDependence-dbl/LinearDependence-dbl, 1.8904, 1.8938, 1.8931,1.8931, 1.8968, 1.8879, 1.8874,1.8879,-0.27468173894670267
MultiSource/Benchmarks/DOE-ProxyApps-C++/miniFE/miniFE, 2.3448, 2.3480, 2.3475,2.3475, 2.3414, 2.3378, 2.3406,2.3406,-0.2939297124600837
SingleSource/Benchmarks/Misc-C++/bigfib, 0.4020, 0.4025, 0.4044,0.4025, 0.4013, 0.4012, 0.4019,0.4013,-0.29813664596274325
MultiSource/Benchmarks/Prolangs-C++/ocean/ocean, 0.0999, 0.1001, 0.1000,0.1, 0.0999, 0.0996, 0.0997,0.0997,-0.30000000000001137
MultiSource/Applications/lambda-0.1.3/lambda, 0.5038, 0.5043, 0.5039,0.5039, 0.5019, 0.5022, 0.5027,0.5022,-0.33736852550110275
MultiSource/Benchmarks/FreeBench/distray/distray, 0.0844, 0.0847, 0.0846,0.0846, 0.0843, 0.0845, 0.0842,0.0843,-0.35460992907800915
SingleSource/Benchmarks/Misc-C++-EH/spirit, 3.2982, 3.3047, 3.3070,3.3047, 3.2924, 3.2914, 3.2968,3.2924,-0.37219717372226624
MultiSource/Benchmarks/Ptrdist/bc/bc, 0.9118, 0.9122, 0.9115,0.9118, 0.9083, 0.9092, 0.9083,0.9083,-0.38385610879579923
MultiSource/Benchmarks/Olden/tsp/tsp, 0.1181, 0.1181, 0.1182,0.1181, 0.1176, 0.1176, 0.1177,0.1176,-0.42337002540220325
MultiSource/Benchmarks/sim/sim, 0.2555, 0.2552, 0.2554,0.2554, 0.2544, 0.2541, 0.2541,0.2541,-0.509005481597502
MultiSource/Applications/siod/siod, 1.7715, 1.7728, 1.7743,1.7728, 1.7621, 1.7617, 1.7668,1.7621,-0.603564981949456
MultiSource/Applications/kimwitu++/kc,10.0899,10.0829,10.0900,10.0899,10.0245,10.0261,10.0234,10.0245,-0.6481729254006474
MultiSource/Applications/SPASS/SPASS,11.0302,11.0224,11.0354,11.0302,10.9589,10.9569,10.9584,10.9584,-0.6509401461442299
MultiSource/Benchmarks/McCat/09-vor/vor, 0.2518, 0.2510, 0.2516,0.2516, 0.2497, 0.2496, 0.2500,0.2497,-0.7551669316375187
MultiSource/Benchmarks/MiBench/consumer-typeset/consumer-typeset, 8.9020, 8.9058, 8.9081,8.9058, 8.8364, 8.8344, 8.8334,8.8344,-0.8017247187226184
MultiSource/Benchmarks/tramp3d-v4/tramp3d-v4,18.6084,18.5813,18.6422,18.6084,18.4517,18.3939,18.4624,18.4517,-0.8420928182971132
SingleSource/Benchmarks/Shootout-C++/hash2, 0.2774, 0.2782, 0.2779,0.2779, 0.2752, 0.2751, 0.2752,0.2752,-0.9715725080964299
MultiSource/Benchmarks/DOE-ProxyApps-C++/CLAMR/CLAMR,16.4173,16.4206,16.4269,16.4206,16.2446,16.2209,16.2321,16.2321,-1.1479483088315923
SingleSource/Benchmarks/Shootout-C++/moments, 0.2239, 0.2246, 0.2241,0.2241, 0.2201, 0.2203, 0.2200,0.2201,-1.7849174475680463
SingleSource/Benchmarks/Misc-C++/stepanov_container, 0.6070, 0.6080, 0.6076,0.6076, 0.5928, 0.5917, 0.5916,0.5917,-2.6168531928900673
SingleSource/Benchmarks/Adobe-C++/functionobjects, 0.4144, 0.4136, 0.4132,0.4136, 0.3980, 0.4000, 0.3988,0.3988,-3.578336557059969
MultiSource/Benchmarks/Olden/voronoi/voronoi, 0.2203, 0.2207, 0.2205,0.2205, 0.2009, 0.2007, 0.2008,0.2008,-8.934240362811785
SingleSource/Benchmarks/Adobe-C++/stepanov_abstraction, 0.5532, 0.5511, 0.5536,0.5532, 0.4936, 0.4930, 0.4925,0.493,-10.882140274765007
Total elapsed time,-,-,-,333.8447,-,-,-,333.50739999999985,-0.10103500220316475
Total failure,-,-,-,0,-,-,-,0,
Geom. avg slowdown,,,,,,,,,0.273160071314%
