Benchmarks,/mnt/freezedisk/llvm-intptr-base-5.0-release/bin/clang,/mnt/freezedisk/llvm-intptr-base-5.0-release/bin/clang,/mnt/freezedisk/llvm-intptr-base-5.0-release/bin/clang,median,/mnt/freezedisk/llvm-intptr-nocapture-opt-noprov-5.0-release/bin/clang,/mnt/freezedisk/llvm-intptr-nocapture-opt-noprov-5.0-release/bin/clang,/mnt/freezedisk/llvm-intptr-nocapture-opt-noprov-5.0-release/bin/clang,median
MultiSource/Applications/ALAC/decode/alacconvert-decode, 0.0132, 0.0131, 0.0131,0.0131, 0.0132, 0.0132, 0.0132,0.0132
MultiSource/Applications/ALAC/encode/alacconvert-encode, 0.0253, 0.0253, 0.0253,0.0253, 0.0253, 0.0254, 0.0253,0.0253
MultiSource/Applications/ClamAV/clamscan, 0.0914, 0.0911, 0.0909,0.0911, 0.0909, 0.0911, 0.0911,0.0911
MultiSource/Applications/JM/ldecod/ldecod, 0.0397, 0.0397, 0.0389,0.0397, 0.0391, 0.0409, 0.0391,0.0391
MultiSource/Applications/JM/lencod/lencod, 2.8141, 2.8304, 2.8289,2.8289, 2.8280, 2.8327, 2.8387,2.8327
MultiSource/Applications/SIBsim4/SIBsim4, 1.8668, 1.8608, 1.8706,1.8668, 1.8728, 1.8620, 1.8647,1.8647
MultiSource/Applications/SPASS/SPASS, 6.2530, 6.3317, 5.6516,6.253, 5.7782, 6.2275, 5.8801,5.8801
MultiSource/Applications/aha/aha, 0.9171, 0.9167, 0.9176,0.9171, 0.9166, 0.9177, 0.9173,0.9173
MultiSource/Applications/d/make_dparser, 0.0158, 0.0158, 0.0159,0.0158, 0.0158, 0.0158, 0.0160,0.0158
MultiSource/Applications/hbd/hbd, 0.0031, 0.0031, 0.0031,0.0031, 0.0031, 0.0031, 0.0031,0.0031
MultiSource/Applications/hexxagon/hexxagon, 6.3006, 6.2992, 6.2987,6.2992, 6.2989, 6.2991, 6.2994,6.2991
MultiSource/Applications/kimwitu++/kc, 0.0270, 0.0271, 0.0270,0.027, 0.0269, 0.0270, 0.0270,0.027
MultiSource/Applications/lambda-0.1.3/lambda, 2.3848, 2.3843, 2.3824,2.3843, 2.3777, 2.3762, 2.3774,2.3774
MultiSource/Applications/lua/lua,10.2144,10.2134,10.2557,10.2144,10.2968,10.2539,10.2480,10.2539
MultiSource/Applications/minisat/minisat, 4.3307, 4.3411, 4.3312,4.3312, 4.2755, 4.3799, 4.3807,4.3799
MultiSource/Applications/obsequi/Obsequi, 1.0154, 1.0157, 1.0146,1.0154, 1.0146, 1.0155, 1.0149,1.0149
MultiSource/Applications/oggenc/oggenc, 0.0686, 0.0687, 0.0687,0.0687, 0.0686, 0.0685, 0.0685,0.0685
MultiSource/Applications/sgefa/sgefa, 0.1358, 0.1358, 0.1358,0.1358, 0.1358, 0.1357, 0.1358,0.1358
MultiSource/Applications/siod/siod, 1.0269, 1.0242, 1.0247,1.0247, 0.9978, 0.9945, 1.0077,0.9978
MultiSource/Applications/spiff/spiff, 1.1487, 1.1461, 1.1505,1.1487, 1.1566, 1.1563, 1.1546,1.1563
MultiSource/Applications/sqlite3/sqlite3, 1.5762, 1.5712, 1.5718,1.5718, 1.5860, 1.5950, 1.5807,1.586
MultiSource/Applications/viterbi/viterbi, 1.1388, 1.1385, 1.1388,1.1388, 1.1391, 1.1388, 1.1383,1.1388
MultiSource/Benchmarks/7zip/7zip-benchmark, 5.8506, 5.8513, 5.8495,5.8506, 5.8934, 5.8948, 5.8940,5.894
MultiSource/Benchmarks/ASCI_Purple/SMG2000/smg2000, 1.5085, 1.5093, 1.4934,1.5085, 1.4922, 1.4935, 1.4892,1.4922
MultiSource/Benchmarks/ASC_Sequoia/AMGmk/AMGmk, 4.8099, 4.8827, 4.8297,4.8297, 4.8279, 4.8563, 4.8494,4.8494
MultiSource/Benchmarks/ASC_Sequoia/CrystalMk/CrystalMk, 6.4711, 6.4712, 6.4709,6.4711, 6.4710, 6.4709, 6.4710,6.471
MultiSource/Benchmarks/ASC_Sequoia/IRSmk/IRSmk, 3.0209, 3.0434, 3.0167,3.0209, 3.0393, 3.0244, 3.0146,3.0244
MultiSource/Benchmarks/BitBench/drop3/drop3, 0.1429, 0.1432, 0.1430,0.143, 0.1428, 0.1428, 0.1428,0.1428
MultiSource/Benchmarks/BitBench/five11/five11, 1.0026, 0.9935, 1.0030,1.0026, 0.9940, 1.0036, 1.0077,1.0036
MultiSource/Benchmarks/BitBench/uudecode/uudecode, 0.0549, 0.0549, 0.0549,0.0549, 0.0550, 0.0550, 0.0549,0.055
MultiSource/Benchmarks/BitBench/uuencode/uuencode, 0.0108, 0.0109, 0.0109,0.0109, 0.0109, 0.0109, 0.0108,0.0109
MultiSource/Benchmarks/Bullet/bullet, 3.1101, 3.1009, 3.1057,3.1057, 3.1711, 3.1703, 3.1711,3.1711
MultiSource/Benchmarks/DOE-ProxyApps-C++/CLAMR/CLAMR, 0.9969, 0.9965, 0.9965,0.9965, 0.9963, 0.9962, 0.9962,0.9962
MultiSource/Benchmarks/DOE-ProxyApps-C++/HPCCG/HPCCG, 0.8129, 0.8121, 0.8120,0.8121, 0.8119, 0.8119, 0.8117,0.8119
MultiSource/Benchmarks/DOE-ProxyApps-C++/PENNANT/PENNANT, 0.3659, 0.3652, 0.3642,0.3652, 0.3646, 0.3643, 0.3649,0.3646
MultiSource/Benchmarks/DOE-ProxyApps-C++/miniFE/miniFE, 2.4574, 2.4582, 2.4539,2.4574, 2.4537, 2.4497, 2.4567,2.4537
MultiSource/Benchmarks/DOE-ProxyApps-C/Pathfinder/PathFinder, 1.8658, 1.8669, 1.8690,1.8669, 1.8350, 1.8379, 1.8365,1.8365
MultiSource/Benchmarks/DOE-ProxyApps-C/RSBench/rsbench, 0.5184, 0.5107, 0.5187,0.5184, 0.5247, 0.5123, 0.5143,0.5143
MultiSource/Benchmarks/DOE-ProxyApps-C/SimpleMOC/SimpleMOC, 3.3941, 3.3702, 3.3769,3.3769, 3.3718, 3.3711, 3.3735,3.3718
MultiSource/Benchmarks/DOE-ProxyApps-C/XSBench/XSBench, 2.3505, 2.3540, 2.3598,2.354, 2.3487, 2.3489, 2.3491,2.3489
MultiSource/Benchmarks/DOE-ProxyApps-C/miniAMR/miniAMR, 0.6882, 0.6878, 0.6912,0.6882, 0.6921, 0.6908, 0.6913,0.6913
MultiSource/Benchmarks/DOE-ProxyApps-C/miniGMG/miniGMG, 4.7916, 4.7922, 4.7774,4.7916, 4.7765, 4.7802, 4.7785,4.7785
MultiSource/Benchmarks/Fhourstones-3.1/fhourstones3.1, 0.7273, 0.7269, 0.7282,0.7273, 0.7256, 0.7254, 0.7250,0.7254
MultiSource/Benchmarks/Fhourstones/fhourstones, 0.7169, 0.7190, 0.7162,0.7169, 0.7217, 0.7195, 0.7180,0.7195
MultiSource/Benchmarks/FreeBench/analyzer/analyzer, 0.0373, 0.0369, 0.0371,0.0371, 0.0368, 0.0371, 0.0366,0.0368
MultiSource/Benchmarks/FreeBench/distray/distray, 0.1213, 0.1213, 0.1214,0.1213, 0.1214, 0.1213, 0.1213,0.1213
MultiSource/Benchmarks/FreeBench/fourinarow/fourinarow, 0.1579, 0.1579, 0.1579,0.1579, 0.1578, 0.1579, 0.1578,0.1578
MultiSource/Benchmarks/FreeBench/mason/mason, 0.1173, 0.1173, 0.1173,0.1173, 0.1171, 0.1172, 0.1173,0.1172
MultiSource/Benchmarks/FreeBench/neural/neural, 0.1043, 0.1042, 0.1043,0.1043, 0.1042, 0.1042, 0.1042,0.1042
MultiSource/Benchmarks/FreeBench/pcompress2/pcompress2, 0.0921, 0.0921, 0.0920,0.0921, 0.0921, 0.0921, 0.0921,0.0921
MultiSource/Benchmarks/FreeBench/pifft/pifft, 0.0596, 0.0597, 0.0596,0.0596, 0.0596, 0.0596, 0.0595,0.0596
MultiSource/Benchmarks/MallocBench/cfrac/cfrac, 0.6779, 0.6778, 0.6775,0.6778, 0.6770, 0.6766, 0.6768,0.6768
MultiSource/Benchmarks/MallocBench/espresso/espresso, 0.2672, 0.2672, 0.2670,0.2672, 0.2689, 0.2685, 0.2688,0.2688
MultiSource/Benchmarks/MallocBench/gs/gs, 0.0265, 0.0266, 0.0264,0.0265, 0.0263, 0.0264, 0.0264,0.0264
MultiSource/Benchmarks/McCat/01-qbsort/qbsort, 0.0358, 0.0358, 0.0358,0.0358, 0.0358, 0.0360, 0.0359,0.0359
MultiSource/Benchmarks/McCat/03-testtrie/testtrie, 0.0071, 0.0070, 0.0070,0.007, 0.0071, 0.0070, 0.0071,0.0071
MultiSource/Benchmarks/McCat/04-bisect/bisect, 0.0682, 0.0682, 0.0682,0.0682, 0.0682, 0.0683, 0.0682,0.0682
MultiSource/Benchmarks/McCat/05-eks/eks, 0.0031, 0.0031, 0.0031,0.0031, 0.0031, 0.0031, 0.0031,0.0031
MultiSource/Benchmarks/McCat/08-main/main, 0.0381, 0.0380, 0.0381,0.0381, 0.0381, 0.0381, 0.0380,0.0381
MultiSource/Benchmarks/McCat/09-vor/vor, 0.0799, 0.0797, 0.0797,0.0797, 0.0800, 0.0802, 0.0809,0.0802
MultiSource/Benchmarks/McCat/12-IOtest/iotest, 0.2071, 0.2092, 0.2063,0.2071, 0.2074, 0.2115, 0.2074,0.2074
MultiSource/Benchmarks/McCat/17-bintr/bintr, 0.0746, 0.0723, 0.0727,0.0727, 0.0728, 0.0726, 0.0740,0.0728
MultiSource/Benchmarks/McCat/18-imp/imp, 0.0512, 0.0512, 0.0513,0.0512, 0.0512, 0.0512, 0.0513,0.0512
MultiSource/Benchmarks/MiBench/automotive-basicmath/automotive-basicmath, 0.2002, 0.2004, 0.2002,0.2002, 0.1998, 0.1999, 0.2000,0.1999
MultiSource/Benchmarks/MiBench/automotive-bitcount/automotive-bitcount, 0.0486, 0.0486, 0.0488,0.0486, 0.0488, 0.0530, 0.0488,0.0488
MultiSource/Benchmarks/MiBench/automotive-susan/automotive-susan, 0.0267, 0.0268, 0.0268,0.0268, 0.0268, 0.0267, 0.0269,0.0268
MultiSource/Benchmarks/MiBench/consumer-jpeg/consumer-jpeg, 0.0043, 0.0043, 0.0042,0.0043, 0.0043, 0.0043, 0.0042,0.0043
MultiSource/Benchmarks/MiBench/consumer-lame/consumer-lame, 0.1055, 0.1055, 0.1056,0.1055, 0.1057, 0.1056, 0.1057,0.1057
MultiSource/Benchmarks/MiBench/consumer-typeset/consumer-typeset, 0.0790, 0.0791, 0.0791,0.0791, 0.0780, 0.0781, 0.0780,0.078
MultiSource/Benchmarks/MiBench/network-dijkstra/network-dijkstra, 0.0234, 0.0234, 0.0234,0.0234, 0.0234, 0.0233, 0.0234,0.0234
MultiSource/Benchmarks/MiBench/network-patricia/network-patricia, 0.0654, 0.0652, 0.0654,0.0654, 0.0653, 0.0653, 0.0652,0.0653
MultiSource/Benchmarks/MiBench/security-rijndael/security-rijndael, 0.0210, 0.0211, 0.0212,0.0211, 0.0211, 0.0211, 0.0210,0.0211
MultiSource/Benchmarks/MiBench/security-sha/security-sha, 0.0141, 0.0141, 0.0141,0.0141, 0.0141, 0.0141, 0.0140,0.0141
MultiSource/Benchmarks/MiBench/telecomm-CRC32/telecomm-CRC32, 0.1354, 0.1347, 0.1343,0.1347, 0.1361, 0.1331, 0.1368,0.1361
MultiSource/Benchmarks/MiBench/telecomm-FFT/telecomm-fft, 0.0343, 0.0344, 0.0343,0.0343, 0.0344, 0.0344, 0.0343,0.0344
MultiSource/Benchmarks/MiBench/telecomm-adpcm/telecomm-adpcm, 0.0621, 0.0621, 0.0622,0.0621, 0.0621, 0.0621, 0.0623,0.0621
MultiSource/Benchmarks/MiBench/telecomm-gsm/telecomm-gsm, 0.0903, 0.0904, 0.0904,0.0904, 0.0900, 0.0900, 0.0900,0.09
MultiSource/Benchmarks/NPB-serial/is/is, 4.4914, 4.4855, 4.5197,4.4914, 4.4836, 4.5198, 4.5978,4.5198
MultiSource/Benchmarks/Olden/bh/bh, 1.1613, 1.1638, 1.1587,1.1613, 1.1637, 1.1639, 1.1636,1.1637
MultiSource/Benchmarks/Olden/bisort/bisort, 0.3737, 0.3741, 0.3745,0.3741, 0.3734, 0.3741, 0.3738,0.3738
MultiSource/Benchmarks/Olden/em3d/em3d, 1.5188, 1.5187, 1.5187,1.5187, 1.5189, 1.5191, 1.5186,1.5189
MultiSource/Benchmarks/Olden/health/health, 0.1361, 0.1361, 0.1358,0.1361, 0.1357, 0.1359, 0.1359,0.1359
MultiSource/Benchmarks/Olden/mst/mst, 0.0546, 0.0544, 0.0544,0.0544, 0.0539, 0.0539, 0.0538,0.0539
MultiSource/Benchmarks/Olden/perimeter/perimeter, 0.1108, 0.1107, 0.1107,0.1107, 0.1111, 0.1110, 0.1111,0.1111
MultiSource/Benchmarks/Olden/power/power, 0.9371, 0.9371, 0.9373,0.9371, 0.9375, 0.9372, 0.9371,0.9372
MultiSource/Benchmarks/Olden/treeadd/treeadd, 0.1139, 0.1139, 0.1140,0.1139, 0.1142, 0.1142, 0.1141,0.1142
MultiSource/Benchmarks/Olden/tsp/tsp, 1.0552, 1.0551, 1.0559,1.0552, 1.0559, 1.0557, 1.0558,1.0558
MultiSource/Benchmarks/Olden/voronoi/voronoi, 0.1949, 0.1951, 0.1950,0.195, 0.1986, 0.1984, 0.1983,0.1984
MultiSource/Benchmarks/PAQ8p/paq8p,39.0826,39.0852,39.1003,39.0852,39.1303,39.1334,39.1529,39.1334
MultiSource/Benchmarks/Prolangs-C++/city/city, 0.0045, 0.0045, 0.0045,0.0045, 0.0045, 0.0045, 0.0045,0.0045
MultiSource/Benchmarks/Prolangs-C++/employ/employ, 0.0059, 0.0058, 0.0058,0.0058, 0.0059, 0.0059, 0.0059,0.0059
MultiSource/Benchmarks/Prolangs-C++/life/life, 0.6387, 0.6544, 0.6427,0.6427, 0.6412, 0.6488, 0.6493,0.6488
MultiSource/Benchmarks/Prolangs-C++/ocean/ocean, 0.0360, 0.0361, 0.0360,0.036, 0.0360, 0.0361, 0.0360,0.036
MultiSource/Benchmarks/Prolangs-C++/primes/primes, 0.1895, 0.1877, 0.1883,0.1883, 0.1885, 0.1895, 0.1882,0.1885
MultiSource/Benchmarks/Prolangs-C++/simul/simul, 0.0034, 0.0034, 0.0034,0.0034, 0.0034, 0.0034, 0.0034,0.0034
MultiSource/Benchmarks/Prolangs-C/agrep/agrep, 0.0042, 0.0043, 0.0042,0.0042, 0.0042, 0.0057, 0.0042,0.0042
MultiSource/Benchmarks/Prolangs-C/bison/mybison, 0.0034, 0.0034, 0.0034,0.0034, 0.0034, 0.0034, 0.0034,0.0034
MultiSource/Benchmarks/Prolangs-C/gnugo/gnugo, 0.0257, 0.0242, 0.0241,0.0242, 0.0242, 0.0241, 0.0242,0.0242
MultiSource/Benchmarks/Ptrdist/anagram/anagram, 0.5360, 0.5360, 0.5362,0.536, 0.5360, 0.5360, 0.5361,0.536
MultiSource/Benchmarks/Ptrdist/bc/bc, 0.3261, 0.3261, 0.3261,0.3261, 0.3289, 0.3290, 0.3290,0.329
MultiSource/Benchmarks/Ptrdist/ft/ft, 0.6844, 0.7218, 0.7362,0.7218, 0.7248, 0.6986, 0.6970,0.6986
MultiSource/Benchmarks/Ptrdist/ks/ks, 0.5817, 0.5824, 0.5866,0.5824, 0.5846, 0.5824, 0.5843,0.5843
MultiSource/Benchmarks/Ptrdist/yacr2/yacr2, 0.4742, 0.4745, 0.4738,0.4742, 0.4746, 0.4743, 0.4744,0.4744
MultiSource/Benchmarks/SciMark2-C/scimark2,37.4309,37.4323,37.4289,37.4309,37.4515,37.4542,37.4617,37.4542
MultiSource/Benchmarks/TSVC/ControlFlow-dbl/ControlFlow-dbl, 3.3093, 3.3105, 3.3149,3.3105, 3.3129, 3.3130, 3.3169,3.313
MultiSource/Benchmarks/TSVC/ControlFlow-flt/ControlFlow-flt, 3.1123, 3.1361, 3.1105,3.1123, 3.1947, 3.1777, 3.1716,3.1777
MultiSource/Benchmarks/TSVC/ControlLoops-dbl/ControlLoops-dbl, 2.2487, 2.2494, 2.2488,2.2488, 2.2483, 2.2479, 2.2478,2.2479
MultiSource/Benchmarks/TSVC/ControlLoops-flt/ControlLoops-flt, 2.0834, 2.0922, 2.0837,2.0837, 2.0875, 2.0911, 2.0910,2.091
MultiSource/Benchmarks/TSVC/CrossingThresholds-dbl/CrossingThresholds-dbl, 1.8840, 1.8838, 1.8842,1.884, 1.8843, 1.8841, 1.8841,1.8841
MultiSource/Benchmarks/TSVC/CrossingThresholds-flt/CrossingThresholds-flt, 1.4436, 1.4359, 1.4417,1.4417, 1.4322, 1.4322, 1.4320,1.4322
MultiSource/Benchmarks/TSVC/Equivalencing-dbl/Equivalencing-dbl, 1.2232, 1.2252, 1.2260,1.2252, 1.2237, 1.2262, 1.2259,1.2259
MultiSource/Benchmarks/TSVC/Equivalencing-flt/Equivalencing-flt, 0.8599, 0.8593, 0.8613,0.8599, 0.8612, 0.8594, 0.8613,0.8612
MultiSource/Benchmarks/TSVC/Expansion-dbl/Expansion-dbl, 1.7374, 1.7389, 1.7337,1.7374, 1.7345, 1.7360, 1.7356,1.7356
MultiSource/Benchmarks/TSVC/Expansion-flt/Expansion-flt, 1.0426, 1.0337, 1.0470,1.0426, 1.0414, 1.0355, 1.0386,1.0386
MultiSource/Benchmarks/TSVC/GlobalDataFlow-dbl/GlobalDataFlow-dbl, 2.5201, 2.5212, 2.5208,2.5208, 2.5211, 2.5203, 2.5196,2.5203
MultiSource/Benchmarks/TSVC/GlobalDataFlow-flt/GlobalDataFlow-flt, 1.3318, 1.3379, 1.3290,1.3318, 1.3352, 1.3325, 1.3250,1.3325
MultiSource/Benchmarks/TSVC/IndirectAddressing-dbl/IndirectAddressing-dbl, 2.1872, 2.1872, 2.1787,2.1872, 2.1784, 2.1805, 2.1834,2.1805
MultiSource/Benchmarks/TSVC/IndirectAddressing-flt/IndirectAddressing-flt, 1.9911, 1.9912, 1.9934,1.9912, 1.9929, 1.9940, 1.9932,1.9932
MultiSource/Benchmarks/TSVC/InductionVariable-dbl/InductionVariable-dbl, 2.6958, 2.6950, 2.6936,2.695, 2.6917, 2.6946, 2.6932,2.6932
MultiSource/Benchmarks/TSVC/InductionVariable-flt/InductionVariable-flt, 2.2708, 2.2712, 2.2709,2.2709, 2.2698, 2.2691, 2.2714,2.2698
MultiSource/Benchmarks/TSVC/LinearDependence-dbl/LinearDependence-dbl, 5.0645, 5.0665, 5.0696,5.0665, 5.0644, 5.0653, 5.0664,5.0653
MultiSource/Benchmarks/TSVC/LinearDependence-flt/LinearDependence-flt, 4.4254, 4.4291, 4.4250,4.4254, 4.4301, 4.4327, 4.4371,4.4327
MultiSource/Benchmarks/TSVC/LoopRerolling-dbl/LoopRerolling-dbl, 4.0812, 4.0817, 4.0814,4.0814, 4.0817, 4.0816, 4.0817,4.0817
MultiSource/Benchmarks/TSVC/LoopRerolling-flt/LoopRerolling-flt, 3.4023, 3.4087, 3.4057,3.4057, 3.4033, 3.4016, 3.3985,3.4016
MultiSource/Benchmarks/TSVC/LoopRestructuring-dbl/LoopRestructuring-dbl, 3.1556, 3.1545, 3.1548,3.1548, 3.1584, 3.1570, 3.1534,3.157
MultiSource/Benchmarks/TSVC/LoopRestructuring-flt/LoopRestructuring-flt, 2.5948, 2.4527, 2.5642,2.5642, 2.5747, 2.5690, 2.6223,2.5747
MultiSource/Benchmarks/TSVC/NodeSplitting-dbl/NodeSplitting-dbl, 4.4581, 4.4598, 4.4602,4.4598, 4.4582, 4.4603, 4.4584,4.4584
MultiSource/Benchmarks/TSVC/NodeSplitting-flt/NodeSplitting-flt, 4.1380, 4.1390, 4.1380,4.138, 4.1315, 4.1290, 4.1322,4.1315
MultiSource/Benchmarks/TSVC/Packing-dbl/Packing-dbl, 2.0191, 2.0193, 2.0190,2.0191, 2.0193, 2.0198, 2.0187,2.0193
MultiSource/Benchmarks/TSVC/Packing-flt/Packing-flt, 1.8584, 1.8527, 1.8536,1.8536, 1.8498, 1.8595, 1.8964,1.8595
MultiSource/Benchmarks/TSVC/Recurrences-dbl/Recurrences-dbl, 3.1150, 3.1150, 3.1148,3.115, 3.1149, 3.1148, 3.1148,3.1148
MultiSource/Benchmarks/TSVC/Recurrences-flt/Recurrences-flt, 3.1146, 3.1146, 3.1145,3.1146, 3.1146, 3.1146, 3.1146,3.1146
MultiSource/Benchmarks/TSVC/Reductions-dbl/Reductions-dbl, 3.0606, 3.0605, 3.0605,3.0605, 3.0605, 3.0604, 3.0605,3.0605
MultiSource/Benchmarks/TSVC/Reductions-flt/Reductions-flt, 5.2804, 5.2804, 5.2802,5.2804, 5.2803, 5.2802, 5.2802,5.2802
MultiSource/Benchmarks/TSVC/Searching-dbl/Searching-dbl, 2.0243, 2.0246, 2.0241,2.0243, 2.0245, 2.0241, 2.0241,2.0241
MultiSource/Benchmarks/TSVC/Searching-flt/Searching-flt, 2.1644, 2.1651, 2.1653,2.1651, 2.1634, 2.1655, 2.1651,2.1651
MultiSource/Benchmarks/TSVC/StatementReordering-dbl/StatementReordering-dbl, 1.9871, 1.9840, 1.9875,1.9871, 1.9863, 1.9863, 1.9898,1.9863
MultiSource/Benchmarks/TSVC/StatementReordering-flt/StatementReordering-flt, 1.6221, 1.6236, 1.6202,1.6221, 1.6191, 1.6193, 1.6208,1.6193
MultiSource/Benchmarks/TSVC/Symbolics-dbl/Symbolics-dbl, 2.1659, 2.1654, 2.1655,2.1655, 2.1651, 2.1658, 2.1643,2.1651
MultiSource/Benchmarks/TSVC/Symbolics-flt/Symbolics-flt, 1.2422, 1.2374, 1.2452,1.2422, 1.2348, 1.2416, 1.2381,1.2381
MultiSource/Benchmarks/Trimaran/enc-3des/enc-3des, 1.1469, 1.1466, 1.1466,1.1466, 1.1470, 1.1473, 1.1470,1.147
MultiSource/Benchmarks/Trimaran/enc-md5/enc-md5, 1.0892, 1.0893, 1.0893,1.0893, 1.0894, 1.0893, 1.0893,1.0893
MultiSource/Benchmarks/Trimaran/enc-pc1/enc-pc1, 0.3061, 0.3061, 0.3061,0.3061, 0.3061, 0.3061, 0.3061,0.3061
MultiSource/Benchmarks/Trimaran/enc-rc4/enc-rc4, 0.6401, 0.7772, 0.6401,0.6401, 0.6394, 0.6394, 0.6397,0.6394
MultiSource/Benchmarks/Trimaran/netbench-crc/netbench-crc, 0.5538, 0.5539, 0.5539,0.5539, 0.5547, 0.5545, 0.5542,0.5545
MultiSource/Benchmarks/Trimaran/netbench-url/netbench-url, 2.6522, 2.6522, 2.6522,2.6522, 2.6523, 2.6522, 2.6539,2.6523
MultiSource/Benchmarks/VersaBench/8b10b/8b10b, 3.2058, 3.1985, 3.2126,3.2058, 3.1988, 3.2015, 3.2012,3.2012
MultiSource/Benchmarks/VersaBench/beamformer/beamformer, 0.6672, 0.6675, 0.6675,0.6675, 0.6674, 0.6672, 0.6673,0.6673
MultiSource/Benchmarks/VersaBench/bmm/bmm, 1.4728, 1.4727, 1.4727,1.4727, 1.4727, 1.4727, 1.4726,1.4727
MultiSource/Benchmarks/VersaBench/dbms/dbms, 0.8802, 0.8821, 0.8822,0.8821, 0.8790, 0.8803, 0.8808,0.8803
MultiSource/Benchmarks/VersaBench/ecbdes/ecbdes, 1.5065, 1.5064, 1.5064,1.5064, 1.5064, 1.5064, 1.5064,1.5064
MultiSource/Benchmarks/llubenchmark/llu, 5.1916, 5.1576, 5.2327,5.1916, 5.0869, 5.1207, 5.1719,5.1207
MultiSource/Benchmarks/mafft/pairlocalalign,21.9295,21.9301,21.9299,21.9299,21.9781,21.9781,21.9772,21.9781
MultiSource/Benchmarks/mediabench/adpcm/rawcaudio/rawcaudio, 0.0046, 0.0058, 0.0047,0.0047, 0.0046, 0.0047, 0.0046,0.0046
MultiSource/Benchmarks/mediabench/adpcm/rawdaudio/rawdaudio, 0.0031, 0.0031, 0.0031,0.0031, 0.0031, 0.0032, 0.0031,0.0031
MultiSource/Benchmarks/mediabench/g721/g721encode/encode, 0.0281, 0.0282, 0.0282,0.0282, 0.0281, 0.0282, 0.0281,0.0281
MultiSource/Benchmarks/mediabench/gsm/toast/toast, 0.0134, 0.0134, 0.0133,0.0134, 0.0134, 0.0133, 0.0134,0.0134
MultiSource/Benchmarks/mediabench/jpeg/jpeg-6a/cjpeg, 0.0043, 0.0043, 0.0043,0.0043, 0.0045, 0.0045, 0.0045,0.0045
MultiSource/Benchmarks/mediabench/mpeg2/mpeg2dec/mpeg2decode, 0.0131, 0.0130, 0.0130,0.013, 0.0132, 0.0131, 0.0132,0.0132
MultiSource/Benchmarks/nbench/nbench, 1.1320, 1.1316, 1.1319,1.1319, 1.1316, 1.1317, 1.1323,1.1317
MultiSource/Benchmarks/sim/sim, 2.2894, 2.2891, 2.2900,2.2894, 2.2879, 2.2880, 2.2901,2.288
MultiSource/Benchmarks/tramp3d-v4/tramp3d-v4, 0.2186, 0.2186, 0.2182,0.2186, 0.2182, 0.2183, 0.2181,0.2182
SingleSource/Benchmarks/Adobe-C++/functionobjects, 2.6860, 2.6898, 2.6851,2.686, 2.6935, 2.6935, 2.6936,2.6935
SingleSource/Benchmarks/Adobe-C++/loop_unroll, 1.5799, 1.5843, 1.5817,1.5817, 1.5816, 1.5815, 1.5800,1.5815
SingleSource/Benchmarks/Adobe-C++/simple_types_constant_folding, 0.5917, 0.5913, 0.5913,0.5913, 0.5913, 0.5913, 0.5912,0.5913
SingleSource/Benchmarks/Adobe-C++/simple_types_loop_invariant, 1.4178, 1.4183, 1.4176,1.4178, 1.4187, 1.4180, 1.4177,1.418
SingleSource/Benchmarks/Adobe-C++/stepanov_abstraction, 3.7945, 3.7950, 3.7951,3.795, 3.7715, 3.7721, 3.7723,3.7721
SingleSource/Benchmarks/Adobe-C++/stepanov_vector, 2.0524, 2.0526, 2.0526,2.0526, 2.0019, 2.0022, 2.0015,2.0019
SingleSource/Benchmarks/BenchmarkGame/Large/fasta, 0.5744, 0.5743, 0.5750,0.5744, 0.5772, 0.5743, 0.5746,0.5746
SingleSource/Benchmarks/BenchmarkGame/fannkuch, 1.8612, 1.8601, 1.8592,1.8601, 1.8596, 1.8589, 1.8606,1.8596
SingleSource/Benchmarks/BenchmarkGame/n-body, 1.2217, 1.2218, 1.2217,1.2217, 1.2217, 1.2217, 1.2217,1.2217
SingleSource/Benchmarks/BenchmarkGame/nsieve-bits, 0.5228, 0.5235, 0.5216,0.5228, 0.5208, 0.5232, 0.5202,0.5208
SingleSource/Benchmarks/BenchmarkGame/partialsums, 0.5059, 0.5060, 0.5059,0.5059, 0.5059, 0.5058, 0.5059,0.5059
SingleSource/Benchmarks/BenchmarkGame/puzzle, 0.1187, 0.1176, 0.1166,0.1176, 0.1169, 0.1172, 0.1176,0.1172
SingleSource/Benchmarks/BenchmarkGame/recursive, 0.6267, 0.6282, 0.6266,0.6267, 0.6364, 0.6267, 0.6367,0.6364
SingleSource/Benchmarks/BenchmarkGame/spectral-norm, 0.8691, 0.8691, 0.8690,0.8691, 0.8691, 0.8691, 0.8690,0.8691
SingleSource/Benchmarks/CoyoteBench/almabench,11.2317,11.2324,11.2310,11.2317,11.2312,11.2314,11.2305,11.2312
SingleSource/Benchmarks/CoyoteBench/fftbench, 0.7203, 0.7197, 0.7074,0.7197, 0.7057, 0.7050, 0.7079,0.7057
SingleSource/Benchmarks/CoyoteBench/huffbench, 8.0678, 8.0589, 8.0562,8.0589, 8.0259, 8.0256, 8.0266,8.0259
SingleSource/Benchmarks/CoyoteBench/lpbench, 2.8588, 2.8720, 2.7521,2.8588, 2.7580, 2.7578, 2.7601,2.758
SingleSource/Benchmarks/Dhrystone/dry, 0.2711, 0.2711, 0.2710,0.2711, 0.2710, 0.2710, 0.2710,0.271
SingleSource/Benchmarks/Dhrystone/fldry, 0.3251, 0.3251, 0.3251,0.3251, 0.3251, 0.3251, 0.3251,0.3251
SingleSource/Benchmarks/Linpack/linpack-pc, 1.1126, 1.1048, 1.1042,1.1048, 1.1129, 1.1050, 1.1080,1.108
SingleSource/Benchmarks/McGill/chomp, 1.1065, 1.1047, 1.1099,1.1065, 1.1038, 1.1089, 1.1085,1.1085
SingleSource/Benchmarks/McGill/misr, 0.0902, 0.0902, 0.0902,0.0902, 0.0902, 0.0902, 0.0902,0.0902
SingleSource/Benchmarks/McGill/queens, 1.5580, 1.5580, 1.5588,1.558, 1.5580, 1.5578, 1.5585,1.558
SingleSource/Benchmarks/Misc-C++-EH/spirit, 2.3143, 2.3139, 2.3141,2.3141, 2.3551, 2.3553, 2.3556,2.3553
SingleSource/Benchmarks/Misc-C++/Large/ray, 2.7917, 2.7918, 2.7917,2.7917, 2.7919, 2.7919, 2.7917,2.7919
SingleSource/Benchmarks/Misc-C++/Large/sphereflake, 4.9901, 4.9899, 4.9896,4.9899, 4.9898, 4.9898, 4.9896,4.9898
SingleSource/Benchmarks/Misc-C++/bigfib, 0.1721, 0.1725, 0.1722,0.1722, 0.1728, 0.1726, 0.1724,0.1726
SingleSource/Benchmarks/Misc-C++/mandel-text, 1.4325, 1.4301, 1.4333,1.4325, 1.4316, 1.4293, 1.4313,1.4313
SingleSource/Benchmarks/Misc-C++/oopack_v1p8, 0.1441, 0.1441, 0.1441,0.1441, 0.1441, 0.1441, 0.1441,0.1441
SingleSource/Benchmarks/Misc-C++/stepanov_container, 3.5665, 3.5723, 3.5694,3.5694, 3.5737, 3.5794, 3.5754,3.5754
SingleSource/Benchmarks/Misc-C++/stepanov_v1p2, 7.0320, 7.0319, 7.0316,7.0319, 7.0318, 7.0318, 7.0316,7.0318
SingleSource/Benchmarks/Misc/ReedSolomon, 2.7858, 2.7858, 2.7859,2.7858, 2.7858, 2.8119, 2.7857,2.7858
SingleSource/Benchmarks/Misc/dt, 0.5933, 0.5933, 0.5933,0.5933, 0.5933, 0.5933, 0.5933,0.5933
SingleSource/Benchmarks/Misc/evalloop, 0.3260, 0.3270, 0.3253,0.326, 0.3249, 0.3265, 0.3258,0.3258
SingleSource/Benchmarks/Misc/fbench, 1.5246, 1.5246, 1.5245,1.5246, 1.5245, 1.5246, 1.5245,1.5245
SingleSource/Benchmarks/Misc/ffbench, 0.5095, 0.5105, 0.5108,0.5105, 0.5131, 0.5115, 0.5084,0.5115
SingleSource/Benchmarks/Misc/flops, 9.3876, 9.4579, 9.4755,9.4579, 9.4713, 9.4959, 9.4084,9.4713
SingleSource/Benchmarks/Misc/flops-1, 3.1880, 3.1879, 3.1007,3.1879, 3.1880, 3.1889, 3.1882,3.1882
SingleSource/Benchmarks/Misc/flops-2, 0.7674, 0.7674, 0.7673,0.7674, 0.7674, 0.7674, 0.7673,0.7674
SingleSource/Benchmarks/Misc/flops-3, 4.8160, 4.8160, 4.8158,4.816, 4.8160, 4.8159, 4.8158,4.8159
SingleSource/Benchmarks/Misc/flops-4, 2.0705, 2.0704, 2.0704,2.0704, 2.1127, 2.0704, 2.0703,2.0704
SingleSource/Benchmarks/Misc/flops-5, 3.8040, 3.8040, 3.8038,3.804, 3.8031, 3.8040, 3.8039,3.8039
SingleSource/Benchmarks/Misc/flops-6, 3.0423, 3.0423, 3.0422,3.0423, 3.0193, 3.0423, 3.0422,3.0422
SingleSource/Benchmarks/Misc/flops-7, 1.4146, 1.4147, 1.4146,1.4146, 1.4146, 1.4146, 1.4146,1.4146
SingleSource/Benchmarks/Misc/flops-8, 2.5351, 2.5773, 2.5772,2.5772, 2.5773, 2.5773, 2.5772,2.5773
SingleSource/Benchmarks/Misc/fp-convert, 2.3401, 2.3401, 2.3400,2.3401, 2.3401, 2.3401, 2.3400,2.3401
SingleSource/Benchmarks/Misc/himenobmtxpa, 0.4918, 0.4970, 0.4939,0.4939, 0.4973, 0.4958, 0.4955,0.4958
SingleSource/Benchmarks/Misc/lowercase, 0.0007, 0.0007, 0.0007,0.0007, 0.0007, 0.0007, 0.0007,0.0007
SingleSource/Benchmarks/Misc/mandel, 0.7417, 0.7417, 0.7417,0.7417, 0.7417, 0.7417, 0.7416,0.7417
SingleSource/Benchmarks/Misc/mandel-2, 1.1369, 1.1370, 1.1369,1.1369, 1.1369, 1.1369, 1.1369,1.1369
SingleSource/Benchmarks/Misc/matmul_f64_4x4, 1.1523, 1.1523, 1.1522,1.1523, 1.1523, 1.1523, 1.1522,1.1523
SingleSource/Benchmarks/Misc/oourafft, 5.3530, 5.3534, 5.3527,5.353, 5.3550, 5.3529, 5.3526,5.3529
SingleSource/Benchmarks/Misc/perlin, 3.4525, 3.4529, 3.4527,3.4527, 3.4524, 3.4522, 3.4525,3.4524
SingleSource/Benchmarks/Misc/pi, 0.6176, 0.6176, 0.6176,0.6176, 0.6176, 0.6176, 0.6176,0.6176
SingleSource/Benchmarks/Misc/revertBits, 0.2932, 0.2931, 0.2931,0.2931, 0.2931, 0.2931, 0.2931,0.2931
SingleSource/Benchmarks/Misc/richards_benchmark, 0.4421, 0.4423, 0.4422,0.4422, 0.4425, 0.4422, 0.4420,0.4422
SingleSource/Benchmarks/Misc/salsa20, 4.1086, 4.1086, 4.1083,4.1086, 4.1086, 4.1084, 4.1084,4.1084
SingleSource/Benchmarks/Misc/whetstone, 0.9131, 0.9108, 0.9063,0.9108, 0.9131, 0.9109, 0.9108,0.9109
SingleSource/Benchmarks/Polybench/datamining/correlation/correlation, 1.7178, 1.7117, 1.7098,1.7117, 1.7124, 1.7111, 1.7057,1.7111
SingleSource/Benchmarks/Polybench/datamining/covariance/covariance, 1.7008, 1.7026, 1.7014,1.7014, 1.7063, 1.7014, 1.7041,1.7041
SingleSource/Benchmarks/Polybench/linear-algebra/kernels/atax/atax, 0.1556, 0.1557, 0.1552,0.1556, 0.1552, 0.1552, 0.1552,0.1552
SingleSource/Benchmarks/Polybench/linear-algebra/kernels/bicg/bicg, 0.1937, 0.1936, 0.1933,0.1936, 0.1933, 0.1933, 0.1933,0.1933
SingleSource/Benchmarks/Polybench/linear-algebra/kernels/cholesky/cholesky, 0.4287, 0.4273, 0.4231,0.4273, 0.4248, 0.4273, 0.4250,0.425
SingleSource/Benchmarks/Polybench/linear-algebra/kernels/doitgen/doitgen, 0.6962, 0.6952, 0.6985,0.6962, 0.6950, 0.6985, 0.6953,0.6953
SingleSource/Benchmarks/Polybench/linear-algebra/kernels/gemver/gemver, 0.3108, 0.3150, 0.3093,0.3108, 0.3100, 0.3160, 0.3132,0.3132
SingleSource/Benchmarks/Polybench/linear-algebra/kernels/gesummv/gesummv, 0.2769, 0.2812, 0.2804,0.2804, 0.2762, 0.2804, 0.2804,0.2804
SingleSource/Benchmarks/Polybench/linear-algebra/kernels/mvt/mvt, 0.2305, 0.2300, 0.2302,0.2302, 0.2253, 0.2298, 0.2257,0.2257
SingleSource/Benchmarks/Polybench/linear-algebra/kernels/symm/symm,24.4596,23.3153,23.5743,23.5743,23.4924,23.6089,23.1619,23.4924
SingleSource/Benchmarks/Polybench/linear-algebra/kernels/syr2k/syr2k, 8.2004, 8.2007, 8.1992,8.2004, 8.2002, 8.1988, 8.0202,8.1988
SingleSource/Benchmarks/Polybench/linear-algebra/kernels/syrk/syrk, 4.1171, 4.1172, 4.1166,4.1171, 3.9019, 4.1179, 4.1171,4.1171
SingleSource/Benchmarks/Polybench/linear-algebra/kernels/trisolv/trisolv, 0.1589, 0.1588, 0.1585,0.1588, 0.1498, 0.1585, 0.1585,0.1585
SingleSource/Benchmarks/Polybench/linear-algebra/kernels/trmm/trmm, 2.0378, 2.0353, 2.1396,2.0378, 2.1384, 2.1384, 2.0338,2.1384
SingleSource/Benchmarks/Polybench/linear-algebra/solvers/durbin/durbin, 0.3977, 0.3972, 0.3951,0.3972, 0.3943, 0.3961, 0.3865,0.3943
SingleSource/Benchmarks/Polybench/linear-algebra/solvers/dynprog/dynprog, 0.2499, 0.2500, 0.2499,0.2499, 0.2502, 0.2502, 0.2501,0.2502
SingleSource/Benchmarks/Polybench/linear-algebra/solvers/gramschmidt/gramschmidt, 2.2355, 2.1939, 1.8483,2.1939, 2.1552, 2.1668, 2.2755,2.1668
SingleSource/Benchmarks/Polybench/linear-algebra/solvers/lu/lu, 0.0019, 0.0019, 0.0019,0.0019, 0.0019, 0.0019, 0.0019,0.0019
SingleSource/Benchmarks/Polybench/medley/floyd-warshall/floyd-warshall, 5.3723, 5.3727, 5.3769,5.3727, 5.3786, 5.3773, 5.3744,5.3773
SingleSource/Benchmarks/Polybench/medley/reg_detect/reg_detect, 0.0138, 0.0138, 0.0138,0.0138, 0.0138, 0.0138, 0.0138,0.0138
SingleSource/Benchmarks/Polybench/stencils/adi/adi, 2.5232, 2.5204, 2.5290,2.5232, 2.5167, 2.5286, 2.5211,2.5211
SingleSource/Benchmarks/Polybench/stencils/fdtd-2d/fdtd-2d, 0.5641, 0.5644, 0.5582,0.5641, 0.5604, 0.5575, 0.5604,0.5604
SingleSource/Benchmarks/Polybench/stencils/fdtd-apml/fdtd-apml, 0.6490, 0.6482, 0.6510,0.649, 0.6531, 0.6482, 0.6498,0.6498
SingleSource/Benchmarks/Polybench/stencils/jacobi-1d-imper/jacobi-1d-imper, 0.0032, 0.0032, 0.0032,0.0032, 0.0032, 0.0032, 0.0032,0.0032
SingleSource/Benchmarks/Polybench/stencils/jacobi-2d-imper/jacobi-2d-imper, 0.1665, 0.1665, 0.1658,0.1665, 0.1658, 0.1644, 0.1656,0.1656
SingleSource/Benchmarks/Polybench/stencils/seidel-2d/seidel-2d, 0.5867, 0.5867, 0.5867,0.5867, 0.5867, 0.5867, 0.5867,0.5867
SingleSource/Benchmarks/Shootout-C++/EH/except, 0.1092, 0.1096, 0.1092,0.1092, 0.1088, 0.1078, 0.1097,0.1088
SingleSource/Benchmarks/Shootout-C++/ackermann, 0.5847, 0.5846, 0.5846,0.5846, 0.5847, 0.5847, 0.5845,0.5847
SingleSource/Benchmarks/Shootout-C++/ary, 0.0207, 0.0206, 0.0200,0.0206, 0.0201, 0.0200, 0.0200,0.02
SingleSource/Benchmarks/Shootout-C++/ary2, 0.0206, 0.0205, 0.0201,0.0205, 0.0201, 0.0201, 0.0201,0.0201
SingleSource/Benchmarks/Shootout-C++/ary3, 0.9856, 0.9613, 0.9624,0.9624, 0.9521, 0.9605, 0.9637,0.9605
SingleSource/Benchmarks/Shootout-C++/fibo, 1.3168, 1.3147, 1.3151,1.3151, 1.3163, 1.3158, 1.3141,1.3158
SingleSource/Benchmarks/Shootout-C++/hash, 0.2799, 0.2792, 0.2800,0.2799, 0.2786, 0.2815, 0.2797,0.2797
SingleSource/Benchmarks/Shootout-C++/hash2, 1.5322, 1.5343, 1.5337,1.5337, 1.5388, 1.5381, 1.5408,1.5388
SingleSource/Benchmarks/Shootout-C++/heapsort, 2.3329, 2.3263, 2.3291,2.3291, 2.3226, 2.3270, 2.3284,2.327
SingleSource/Benchmarks/Shootout-C++/lists, 2.5684, 2.5716, 2.5701,2.5701, 2.5784, 2.5710, 2.5700,2.571
SingleSource/Benchmarks/Shootout-C++/lists1, 0.1195, 0.1207, 0.1209,0.1207, 0.1192, 0.1200, 0.1214,0.12
SingleSource/Benchmarks/Shootout-C++/matrix, 1.0008, 1.0009, 1.0007,1.0008, 1.0008, 1.0007, 1.0012,1.0008
SingleSource/Benchmarks/Shootout-C++/methcall, 3.0692, 3.0721, 3.0690,3.0692, 3.0691, 3.0691, 3.0736,3.0691
SingleSource/Benchmarks/Shootout-C++/moments, 0.0488, 0.0488, 0.0480,0.0488, 0.0481, 0.0479, 0.0480,0.048
SingleSource/Benchmarks/Shootout-C++/nestedloop, 0.0007, 0.0007, 0.0007,0.0007, 0.0007, 0.0007, 0.0007,0.0007
SingleSource/Benchmarks/Shootout-C++/objinst, 0.0007, 0.0007, 0.0007,0.0007, 0.0007, 0.0007, 0.0007,0.0007
SingleSource/Benchmarks/Shootout-C++/random, 1.5524, 1.5524, 1.5523,1.5524, 1.5524, 1.5524, 1.5523,1.5524
SingleSource/Benchmarks/Shootout-C++/sieve, 1.2623, 1.0947, 1.2002,1.2002, 1.1069, 1.1455, 1.1382,1.1382
SingleSource/Benchmarks/Shootout-C++/strcat, 0.0387, 0.0387, 0.0379,0.0387, 0.0379, 0.0379, 0.0379,0.0379
SingleSource/Benchmarks/Shootout/ackermann, 0.0030, 0.0030, 0.0030,0.003, 0.0030, 0.0030, 0.0030,0.003
SingleSource/Benchmarks/Shootout/ary3, 0.9815, 0.9671, 0.9819,0.9815, 0.9677, 0.9715, 0.9921,0.9715
SingleSource/Benchmarks/Shootout/fib2, 1.3244, 1.3149, 1.3127,1.3149, 1.3183, 1.3161, 1.3169,1.3169
SingleSource/Benchmarks/Shootout/hash, 2.5617, 2.5576, 2.5642,2.5617, 2.5651, 2.5720, 2.5657,2.5657
SingleSource/Benchmarks/Shootout/heapsort, 2.3296, 2.3283, 2.3257,2.3283, 2.3297, 2.3239, 2.3281,2.3281
SingleSource/Benchmarks/Shootout/lists, 3.6624, 3.6579, 3.6620,3.662, 3.6665, 3.6620, 3.6626,3.6626
SingleSource/Benchmarks/Shootout/matrix, 0.9419, 0.9416, 0.9409,0.9416, 0.9411, 0.9414, 0.9412,0.9412
SingleSource/Benchmarks/Shootout/methcall, 2.9149, 2.9147, 2.9145,2.9147, 2.9144, 2.9145, 2.9146,2.9145
SingleSource/Benchmarks/Shootout/nestedloop, 0.0007, 0.0007, 0.0007,0.0007, 0.0007, 0.0007, 0.0007,0.0007
SingleSource/Benchmarks/Shootout/objinst, 0.0007, 0.0007, 0.0007,0.0007, 0.0007, 0.0007, 0.0007,0.0007
SingleSource/Benchmarks/Shootout/random, 1.5523, 1.5523, 1.5523,1.5523, 1.5523, 1.5523, 1.5522,1.5523
SingleSource/Benchmarks/Shootout/sieve, 3.0872, 3.0875, 3.0873,3.0873, 3.0831, 3.0861, 3.0880,3.0861
SingleSource/Benchmarks/Shootout/strcat, 0.0982, 0.0981, 0.0979,0.0981, 0.0979, 0.0979, 0.0978,0.0979
SingleSource/Benchmarks/SmallPT/smallpt, 6.7150, 6.7178, 6.7178,6.7178, 6.7178, 6.7081, 6.7177,6.7177
SingleSource/Benchmarks/Stanford/Bubblesort, 0.0140, 0.0140, 0.0140,0.014, 0.0141, 0.0140, 0.0140,0.014
SingleSource/Benchmarks/Stanford/FloatMM, 0.1790, 0.1790, 0.1789,0.179, 0.1790, 0.1790, 0.1790,0.179
SingleSource/Benchmarks/Stanford/Oscar, 0.0029, 0.0029, 0.0029,0.0029, 0.0022, 0.0022, 0.0022,0.0022
SingleSource/Benchmarks/Stanford/Perm, 0.0130, 0.0130, 0.0130,0.013, 0.0130, 0.0130, 0.0130,0.013
SingleSource/Benchmarks/Stanford/Puzzle, 0.0706, 0.0706, 0.0706,0.0706, 0.0707, 0.0706, 0.0707,0.0707
SingleSource/Benchmarks/Stanford/Queens, 0.0066, 0.0065, 0.0065,0.0065, 0.0065, 0.0063, 0.0063,0.0063
SingleSource/Benchmarks/Stanford/Quicksort, 0.0269, 0.0269, 0.0269,0.0269, 0.0269, 0.0269, 0.0269,0.0269
SingleSource/Benchmarks/Stanford/RealMM, 0.0013, 0.0013, 0.0013,0.0013, 0.0013, 0.0013, 0.0013,0.0013
SingleSource/Benchmarks/Stanford/Towers, 0.0074, 0.0074, 0.0074,0.0074, 0.0074, 0.0074, 0.0074,0.0074
SingleSource/Benchmarks/Stanford/Treesort, 0.0483, 0.0483, 0.0483,0.0483, 0.0482, 0.0484, 0.0484,0.0484
SingleSource/Regression/C/2004-08-12-InlinerAndAllocas, 0.0012, 0.0012, 0.0012,0.0012, 0.0012, 0.0012, 0.0012,0.0012
SingleSource/Regression/C/uint64_to_float, 0.2193, 0.2193, 0.2193,0.2193, 0.2193, 0.2193, 0.2193,0.2193
Total elapsed time,-,-,-,544.4181999999998,-,-,-,544.0748
Total failure,-,-,-,0,-,-,-,0
