Benchmarks,base-4.0,base-4.0,base-4.0,median,restrict-pcmp,restrict-pcmp,restrict-pcmp,median,Slowdown(%)
MultiSource/Benchmarks/MiBench/network-patricia/network-patricia, 0.0766, 0.0770, 0.0771,0.077, 0.0875, 0.0876, 0.0883,0.0876,13.76623376623376
MultiSource/Benchmarks/Ptrdist/ft/ft, 0.2035, 0.2074, 0.2050,0.205, 0.2093, 0.2159, 0.2157,0.2157,5.219512195121956
SingleSource/Benchmarks/Adobe-C++/functionobjects, 0.4376, 0.4387, 0.4395,0.4387, 0.4592, 0.4586, 0.4594,0.4592,4.672897196261694
MultiSource/Benchmarks/Prolangs-C++/simul/simul, 0.0503, 0.0499, 0.0501,0.0501, 0.0520, 0.0528, 0.0524,0.0524,4.590818363273463
MultiSource/Applications/lambda-0.1.3/lambda, 0.5082, 0.5095, 0.5105,0.5095, 0.5316, 0.5295, 0.5316,0.5316,4.337585868498528
MultiSource/Benchmarks/McCat/09-vor/vor, 0.2672, 0.2689, 0.2690,0.2689, 0.2757, 0.2776, 0.2783,0.2776,3.2354034957233324
MultiSource/Benchmarks/Fhourstones-3.1/fhourstones3.1, 0.1361, 0.1364, 0.1361,0.1361, 0.1405, 0.1402, 0.1352,0.1402,3.012490815576774
SingleSource/Benchmarks/Misc-C++/bigfib, 0.4211, 0.4225, 0.4221,0.4221, 0.4302, 0.4308, 0.4332,0.4308,2.061122956645356
MultiSource/Applications/spiff/spiff, 0.7427, 0.7482, 0.7429,0.7429, 0.7425, 0.7632, 0.7573,0.7573,1.938349710593612
MultiSource/Benchmarks/MiBench/telecomm-CRC32/telecomm-CRC32, 0.0342, 0.0347, 0.0345,0.0345, 0.0347, 0.0350, 0.0350,0.035,1.449275362318847
SingleSource/Benchmarks/Misc/richards_benchmark, 0.0596, 0.0598, 0.0600,0.0598, 0.0604, 0.0606, 0.0609,0.0606,1.3377926421404673
SingleSource/Benchmarks/Misc-C++/stepanov_container, 0.6471, 0.6442, 0.6448,0.6448, 0.6528, 0.6422, 0.6578,0.6528,1.2406947890818865
MultiSource/Applications/hbd/hbd, 1.1902, 1.1942, 1.1963,1.1942, 1.1901, 1.2079, 1.2128,1.2079,1.1472115223580603
MultiSource/Applications/ClamAV/clamscan,12.5249,12.5149,12.5532,12.5249,12.6556,12.6601,12.6796,12.6601,1.0794497361256372
SingleSource/Benchmarks/Misc/himenobmtxpa, 0.2361, 0.2360, 0.2368,0.2361, 0.2385, 0.2385, 0.2381,0.2385,1.0165184243964287
MultiSource/Benchmarks/TSVC/Packing-dbl/Packing-dbl, 1.9955, 2.0307, 2.0107,2.0107, 2.0316, 2.0304, 2.0309,2.0309,1.00462525488636
MultiSource/Benchmarks/TSVC/InductionVariable-dbl/InductionVariable-dbl, 2.0859, 2.1024, 2.0803,2.0859, 2.1094, 2.1028, 2.1068,2.1068,1.0019655784073933
MultiSource/Benchmarks/mediabench/g721/g721encode/encode, 0.2050, 0.2050, 0.2141,0.205, 0.2031, 0.2128, 0.2069,0.2069,0.9268292682926838
MultiSource/Benchmarks/VersaBench/ecbdes/ecbdes, 0.2268, 0.2334, 0.2341,0.2334, 0.2272, 0.2355, 0.2408,0.2355,0.8997429305912519
MultiSource/Applications/d/make_dparser, 2.5486, 2.5511, 2.5530,2.5511, 2.5709, 2.5726, 2.5783,2.5726,0.8427737054603979
SingleSource/Benchmarks/Misc-C++/oopack_v1p8, 0.1336, 0.1314, 0.1333,0.1333, 0.1325, 0.1344, 0.1356,0.1344,0.8252063015753874
SingleSource/Benchmarks/Misc/mandel, 0.0362, 0.0367, 0.0365,0.0365, 0.0364, 0.0370, 0.0368,0.0368,0.8219178082191858
MultiSource/Benchmarks/TSVC/LoopRerolling-flt/LoopRerolling-flt, 2.2634, 2.2861, 2.2647,2.2647, 2.2827, 2.2824, 2.2817,2.2824,0.7815604715856406
SingleSource/Benchmarks/Polybench/linear-algebra/solvers/gramschmidt/gramschmidt, 0.1280, 0.1283, 0.1283,0.1283, 0.1291, 0.1295, 0.1293,0.1293,0.7794232268121704
SingleSource/Benchmarks/Linpack/linpack-pc, 0.3841, 0.3796, 0.3778,0.3796, 0.3825, 0.3858, 0.3775,0.3825,0.7639620653319357
SingleSource/Benchmarks/Shootout-C++/lists, 0.1573, 0.1575, 0.1584,0.1575, 0.1583, 0.1587, 0.1595,0.1587,0.7619047619047636
SingleSource/Benchmarks/Shootout-C++/ary3, 0.1584, 0.1588, 0.1595,0.1588, 0.1600, 0.1600, 0.1606,0.16,0.7556675062972307
MultiSource/Benchmarks/Olden/health/health, 0.1320, 0.1324, 0.1328,0.1324, 0.1325, 0.1334, 0.1341,0.1334,0.7552870090634434
MultiSource/Benchmarks/ASC_Sequoia/AMGmk/AMGmk, 0.6105, 0.6111, 0.6117,0.6111, 0.6144, 0.6196, 0.6156,0.6156,0.7363770250368384
SingleSource/Benchmarks/Misc/flops-1, 0.0273, 0.0274, 0.0275,0.0274, 0.0273, 0.0276, 0.0276,0.0276,0.7299270072992581
MultiSource/Benchmarks/Prolangs-C/bison/mybison, 1.6124, 1.6150, 1.6185,1.615, 1.6263, 1.6265, 1.6321,1.6265,0.7120743034055854
SingleSource/Benchmarks/Polybench/linear-algebra/kernels/symm/symm, 0.0863, 0.0865, 0.0869,0.0865, 0.0870, 0.0871, 0.0876,0.0871,0.6936416184971206
SingleSource/Benchmarks/Misc/flops-2, 0.0291, 0.0292, 0.0291,0.0291, 0.0292, 0.0293, 0.0296,0.0293,0.6872852233676952
MultiSource/Benchmarks/FreeBench/neural/neural, 0.1763, 0.1765, 0.1768,0.1765, 0.1777, 0.1770, 0.1777,0.1777,0.679886685552411
SingleSource/Benchmarks/Shootout-C++/sieve, 0.1789, 0.1796, 0.1793,0.1793, 0.1808, 0.1802, 0.1805,0.1805,0.6692693809258188
SingleSource/Benchmarks/Misc-C++/Large/sphereflake, 0.2114, 0.2126, 0.2129,0.2126, 0.2140, 0.2131, 0.2145,0.214,0.6585136406396908
SingleSource/Benchmarks/Shootout-C++/methcall, 0.1224, 0.1229, 0.1225,0.1225, 0.1233, 0.1233, 0.1243,0.1233,0.6530612244898037
SingleSource/Benchmarks/Polybench/stencils/fdtd-apml/fdtd-apml, 0.1496, 0.1506, 0.1499,0.1499, 0.1502, 0.1508, 0.1508,0.1508,0.6004002668445585
MultiSource/Benchmarks/Olden/tsp/tsp, 0.1212, 0.1219, 0.1216,0.1216, 0.1220, 0.1223, 0.1235,0.1223,0.5756578947368363
MultiSource/Benchmarks/TSVC/Searching-flt/Searching-flt, 2.2452, 2.2464, 2.2501,2.2464, 2.2517, 2.2635, 2.2593,2.2593,0.5742521367521514
SingleSource/Benchmarks/Polybench/stencils/adi/adi, 0.1045, 0.1047, 0.1048,0.1047, 0.1050, 0.1053, 0.1053,0.1053,0.5730659025787954
MultiSource/Applications/hexxagon/hexxagon, 0.7014, 0.7032, 0.7032,0.7032, 0.7072, 0.7049, 0.7085,0.7072,0.5688282138794021
SingleSource/Benchmarks/Misc-C++-EH/spirit, 3.1150, 3.1043, 3.1448,3.115, 3.1297, 3.1330, 3.1327,3.1327,0.5682182985553563
MultiSource/Benchmarks/MallocBench/gs/gs, 3.6235, 3.6369, 3.6425,3.6369, 3.6451, 3.6574, 3.6707,3.6574,0.5636668591382898
SingleSource/Benchmarks/Polybench/linear-algebra/kernels/gesummv/gesummv, 0.0711, 0.0711, 0.0711,0.0711, 0.0714, 0.0715, 0.0716,0.0715,0.5625879043600568
SingleSource/Benchmarks/Shootout-C++/EH/except, 0.1274, 0.1271, 0.1278,0.1274, 0.1275, 0.1281, 0.1289,0.1281,0.5494505494505253
MultiSource/Applications/kimwitu++/kc,10.1822,10.2119,10.2359,10.2119,10.2494,10.2669,10.2716,10.2669,0.5385873343843883
SingleSource/Benchmarks/Stanford/Quicksort, 0.0373, 0.0374, 0.0376,0.0374, 0.0373, 0.0376, 0.0377,0.0376,0.5347593582887722
SingleSource/Benchmarks/Stanford/Treesort, 0.0377, 0.0379, 0.0380,0.0379, 0.0378, 0.0381, 0.0382,0.0381,0.5277044854881341
SingleSource/Benchmarks/CoyoteBench/almabench, 0.0574, 0.0577, 0.0574,0.0574, 0.0573, 0.0577, 0.0578,0.0577,0.5226480836237002
SingleSource/Benchmarks/Shootout-C++/ackermann, 0.1149, 0.1166, 0.1152,0.1152, 0.1158, 0.1157, 0.1164,0.1158,0.5208333333333259
MultiSource/Benchmarks/TSVC/ControlLoops-flt/ControlLoops-flt, 2.3749, 2.3724, 2.3779,2.3749, 2.3821, 2.3869, 2.3907,2.3869,0.505284433028752
SingleSource/Benchmarks/Polybench/datamining/covariance/covariance, 0.1005, 0.1008, 0.1006,0.1006, 0.1007, 0.1011, 0.1013,0.1011,0.497017892644136
SingleSource/Benchmarks/Shootout-C++/ary2, 0.1617, 0.1616, 0.1627,0.1617, 0.1614, 0.1626, 0.1625,0.1625,0.49474335188619545
MultiSource/Benchmarks/mediabench/gsm/toast/toast, 1.2077, 1.2087, 1.2165,1.2087, 1.2007, 1.2145, 1.2272,1.2145,0.47985438901296806
MultiSource/Benchmarks/Olden/bisort/bisort, 0.0626, 0.0631, 0.0630,0.063, 0.0627, 0.0633, 0.0635,0.0633,0.4761904761904745
MultiSource/Benchmarks/Prolangs-C++/city/city, 0.9344, 0.9347, 0.9293,0.9344, 0.9365, 0.9388, 0.9389,0.9388,0.4708904109588907
SingleSource/Benchmarks/Polybench/linear-algebra/kernels/doitgen/doitgen, 0.1061, 0.1063, 0.1067,0.1063, 0.1064, 0.1070, 0.1068,0.1068,0.470366886171214
SingleSource/Benchmarks/Polybench/linear-algebra/solvers/dynprog/dynprog, 0.0850, 0.0855, 0.0853,0.0853, 0.0852, 0.0857, 0.0857,0.0857,0.4689331770222793
MultiSource/Benchmarks/BitBench/uudecode/uudecode, 0.0447, 0.0449, 0.0447,0.0447, 0.0448, 0.0449, 0.0451,0.0449,0.4474272930648837
SingleSource/Benchmarks/Polybench/stencils/jacobi-1d-imper/jacobi-1d-imper, 0.0913, 0.0918, 0.0916,0.0916, 0.0918, 0.0920, 0.0923,0.092,0.4366812227074135
MultiSource/Benchmarks/McCat/17-bintr/bintr, 0.0682, 0.0691, 0.0689,0.0689, 0.0686, 0.0692, 0.0696,0.0692,0.4354136429608024
MultiSource/Benchmarks/MiBench/consumer-typeset/consumer-typeset, 9.8062, 9.8219, 9.8441,9.8219, 9.8440, 9.8704, 9.8628,9.8628,0.4164163756503303
MultiSource/Applications/lua/lua, 3.0969, 3.1044, 3.1090,3.1044, 3.1116, 3.1171, 3.1239,3.1171,0.409096765880701
MultiSource/Applications/minisat/minisat, 0.6136, 0.6086, 0.6206,0.6136, 0.6113, 0.6337, 0.6161,0.6161,0.40743155149933763
SingleSource/Benchmarks/Shootout-C++/strcat, 0.1233, 0.1238, 0.1229,0.1233, 0.1236, 0.1238, 0.1252,0.1238,0.40551500405514584
SingleSource/Benchmarks/Polybench/stencils/seidel-2d/seidel-2d, 0.0770, 0.0771, 0.0773,0.0771, 0.0773, 0.0774, 0.0777,0.0774,0.3891050583657574
SingleSource/Benchmarks/Shootout-C++/ary, 0.1556, 0.1548, 0.1546,0.1548, 0.1554, 0.1550, 0.1567,0.1554,0.3875968992248069
MultiSource/Benchmarks/TSVC/Equivalencing-dbl/Equivalencing-dbl, 2.0785, 2.0799, 2.0819,2.0799, 2.0920, 2.0706, 2.0879,2.0879,0.38463387662868165
MultiSource/Benchmarks/TSVC/ControlLoops-dbl/ControlLoops-dbl, 2.1303, 2.1304, 2.1329,2.1304, 2.1385, 2.1175, 2.1437,2.1385,0.3802102891475867
SingleSource/Benchmarks/Shootout-C++/heapsort, 0.1314, 0.1331, 0.1320,0.132, 0.1325, 0.1318, 0.1335,0.1325,0.37878787878788955
SingleSource/Benchmarks/Polybench/linear-algebra/kernels/gemver/gemver, 0.1077, 0.1078, 0.1082,0.1078, 0.1081, 0.1082, 0.1085,0.1082,0.37105751391466324
SingleSource/Benchmarks/Polybench/medley/reg_detect/reg_detect, 0.4035, 0.4044, 0.4043,0.4043, 0.4058, 0.4060, 0.4058,0.4058,0.3710116250309259
SingleSource/Benchmarks/Shootout/strcat, 0.0269, 0.0272, 0.0272,0.0272, 0.0270, 0.0273, 0.0274,0.0273,0.3676470588235503
SingleSource/Benchmarks/Misc/flops-3, 0.0272, 0.0275, 0.0273,0.0273, 0.0273, 0.0275, 0.0274,0.0274,0.366300366300365
MultiSource/Benchmarks/BitBench/five11/five11, 0.0555, 0.0556, 0.0556,0.0556, 0.0555, 0.0558, 0.0562,0.0558,0.3597122302158473
SingleSource/Benchmarks/Polybench/stencils/fdtd-2d/fdtd-2d, 0.1696, 0.1699, 0.1698,0.1698, 0.1698, 0.1704, 0.1704,0.1704,0.35335689045936647
SingleSource/Benchmarks/Misc/flops-6, 0.0282, 0.0285, 0.0284,0.0284, 0.0284, 0.0285, 0.0288,0.0285,0.35211267605632646
SingleSource/Benchmarks/Polybench/medley/floyd-warshall/floyd-warshall, 0.0856, 0.0860, 0.0860,0.086, 0.0863, 0.0862, 0.0865,0.0863,0.34883720930234396
SingleSource/Benchmarks/Shootout-C++/nestedloop, 0.1147, 0.1148, 0.1151,0.1148, 0.1150, 0.1152, 0.1155,0.1152,0.34843205574912606
MultiSource/Benchmarks/TSVC/GlobalDataFlow-flt/GlobalDataFlow-flt, 2.3692, 2.3697, 2.3777,2.3697, 2.3868, 2.3779, 2.3752,2.3779,0.34603536312614036
MultiSource/Benchmarks/Trimaran/netbench-url/netbench-url, 0.2073, 0.2076, 0.2074,0.2074, 0.2071, 0.2081, 0.2083,0.2081,0.3375120540019205
SingleSource/Benchmarks/Polybench/linear-algebra/kernels/syr2k/syr2k, 0.0889, 0.0891, 0.0890,0.089, 0.0890, 0.0893, 0.0895,0.0893,0.3370786516853963
MultiSource/Benchmarks/McCat/05-eks/eks, 0.5601, 0.5640, 0.5616,0.5616, 0.5663, 0.5634, 0.5613,0.5634,0.3205128205128194
SingleSource/Benchmarks/Shootout/methcall, 0.0312, 0.0313, 0.0314,0.0313, 0.0310, 0.0314, 0.0314,0.0314,0.31948881789136685
MultiSource/Benchmarks/Olden/bh/bh, 0.2550, 0.2558, 0.2551,0.2551, 0.2559, 0.2557, 0.2574,0.2559,0.3136025088200878
SingleSource/Benchmarks/Misc/dt, 0.0337, 0.0340, 0.0339,0.0339, 0.0339, 0.0340, 0.0345,0.034,0.2949852507374784
SingleSource/Benchmarks/Misc/whetstone, 0.0678, 0.0679, 0.0679,0.0679, 0.0677, 0.0681, 0.0685,0.0681,0.2945508100147265
MultiSource/Benchmarks/FreeBench/analyzer/analyzer, 0.2416, 0.2426, 0.2426,0.2426, 0.2427, 0.2433, 0.2443,0.2433,0.2885408079142504
MultiSource/Benchmarks/Ptrdist/ks/ks, 0.1389, 0.1390, 0.1393,0.139, 0.1387, 0.1394, 0.1396,0.1394,0.2877697841726423
MultiSource/Benchmarks/TSVC/Packing-flt/Packing-flt, 2.2653, 2.2650, 2.2693,2.2653, 2.2726, 2.2713, 2.2717,2.2717,0.28252328609899013
MultiSource/Benchmarks/NPB-serial/is/is, 0.0713, 0.0716, 0.0720,0.0716, 0.0718, 0.0715, 0.0719,0.0718,0.27932960893854997
MultiSource/Benchmarks/7zip/7zip-benchmark,33.1657,33.1924,33.2321,33.1924,33.2851,33.2837,33.3985,33.2851,0.279280799219106
SingleSource/Benchmarks/Stanford/Bubblesort, 0.0357, 0.0360, 0.0361,0.036, 0.0358, 0.0361, 0.0361,0.0361,0.2777777777777768
SingleSource/Benchmarks/Shootout-C++/fibo, 0.1142, 0.1145, 0.1140,0.1142, 0.1145, 0.1143, 0.1149,0.1145,0.26269702276708884
MultiSource/Benchmarks/TSVC/Recurrences-flt/Recurrences-flt, 2.2568, 2.2600, 2.2647,2.26, 2.2659, 2.2513, 2.2695,2.2659,0.26106194690265205
MultiSource/Benchmarks/Olden/perimeter/perimeter, 0.0765, 0.0769, 0.0772,0.0769, 0.0762, 0.0771, 0.0773,0.0771,0.2600780234070399
MultiSource/Benchmarks/FreeBench/pifft/pifft, 1.0529, 1.0529, 1.0564,1.0529, 1.0543, 1.0554, 1.0555,1.0554,0.23743945293950297
SingleSource/Benchmarks/Polybench/datamining/correlation/correlation, 0.0848, 0.0849, 0.0847,0.0848, 0.0850, 0.0849, 0.0859,0.085,0.2358490566037874
MultiSource/Benchmarks/MallocBench/espresso/espresso, 4.7706, 4.7768, 4.7752,4.7752, 4.7797, 4.7862, 4.7958,4.7862,0.23035684369241416
SingleSource/Benchmarks/BenchmarkGame/Large/fasta, 0.0434, 0.0436, 0.0435,0.0435, 0.0434, 0.0436, 0.0438,0.0436,0.22988505747127963
MultiSource/Benchmarks/Prolangs-C/agrep/agrep, 1.3356, 1.3361, 1.3391,1.3361, 1.3384, 1.3391, 1.3443,1.3391,0.22453409175959838
SingleSource/Benchmarks/Misc/perlin, 0.0459, 0.0461, 0.0460,0.046, 0.0458, 0.0461, 0.0464,0.0461,0.21739130434783593
SingleSource/Benchmarks/SmallPT/smallpt, 0.0954, 0.0954, 0.0954,0.0954, 0.0956, 0.0955, 0.0958,0.0956,0.20964360587003572
SingleSource/Benchmarks/Shootout-C++/hash, 0.2587, 0.2574, 0.2580,0.258, 0.2576, 0.2585, 0.2596,0.2585,0.19379844961240345
SingleSource/Benchmarks/Polybench/linear-algebra/solvers/durbin/durbin, 0.1079, 0.1082, 0.1081,0.1081, 0.1083, 0.1083, 0.1091,0.1083,0.18501387604068498
SingleSource/Benchmarks/Adobe-C++/simple_types_constant_folding, 2.3648, 2.3592, 2.3616,2.3616, 2.3552, 2.3669, 2.3659,2.3659,0.18207994579944042
MultiSource/Benchmarks/TSVC/NodeSplitting-dbl/NodeSplitting-dbl, 2.0557, 2.0597, 2.0614,2.0597, 2.0613, 2.0634, 2.0731,2.0634,0.1796378113317676
MultiSource/Benchmarks/FreeBench/fourinarow/fourinarow, 0.2839, 0.2838, 0.2843,0.2839, 0.2844, 0.2841, 0.2849,0.2844,0.17611835153223954
MultiSource/Benchmarks/Olden/voronoi/voronoi, 0.2294, 0.2305, 0.2305,0.2305, 0.2302, 0.2309, 0.2321,0.2309,0.17353579175705125
MultiSource/Applications/SPASS/SPASS,11.7381,11.7345,11.7667,11.7381,11.7568,11.7436,11.7733,11.7568,0.15931028019866567
SingleSource/Benchmarks/BenchmarkGame/n-body, 0.0661, 0.0662, 0.0663,0.0662, 0.0662, 0.0663, 0.0669,0.0663,0.15105740181269312
SingleSource/Benchmarks/Misc/ReedSolomon, 0.2005, 0.2007, 0.2010,0.2007, 0.2008, 0.2010, 0.2014,0.201,0.1494768310911887
SingleSource/Benchmarks/Adobe-C++/simple_types_loop_invariant, 1.8118, 1.8026, 1.8138,1.8118, 1.8145, 1.8092, 1.8149,1.8145,0.14902307097912626
MultiSource/Applications/ALAC/decode/alacconvert-decode, 1.0050, 1.0066, 1.0088,1.0066, 1.0063, 1.0081, 1.0112,1.0081,0.14901649115837134
MultiSource/Benchmarks/MiBench/security-rijndael/security-rijndael, 0.4047, 0.4107, 0.4131,0.4107, 0.4100, 0.4113, 0.4118,0.4113,0.14609203798392478
SingleSource/Benchmarks/Misc/ffbench, 0.0715, 0.0717, 0.0718,0.0717, 0.0715, 0.0718, 0.0721,0.0718,0.1394700139470073
MultiSource/Benchmarks/TSVC/ControlFlow-dbl/ControlFlow-dbl, 2.2376, 2.2366, 2.2407,2.2376, 2.2407, 2.2453, 2.2374,2.2407,0.13854129424382133
MultiSource/Benchmarks/TSVC/ControlFlow-flt/ControlFlow-flt, 2.4858, 2.4919, 2.4880,2.488, 2.4914, 2.4896, 2.4943,2.4914,0.13665594855305496
SingleSource/Benchmarks/Shootout/lists, 0.0732, 0.0735, 0.0734,0.0734, 0.0735, 0.0735, 0.0736,0.0735,0.13623978201633413
MultiSource/Benchmarks/McCat/08-main/main, 0.2413, 0.2468, 0.2455,0.2455, 0.2419, 0.2463, 0.2458,0.2458,0.12219959266801528
MultiSource/Benchmarks/TSVC/IndirectAddressing-flt/IndirectAddressing-flt, 2.2993, 2.3116, 2.3175,2.3116, 2.3126, 2.3144, 2.3143,2.3143,0.11680221491607856
MultiSource/Benchmarks/Ptrdist/anagram/anagram, 0.0858, 0.0860, 0.0857,0.0858, 0.0857, 0.0859, 0.0860,0.0859,0.11655011655011815
SingleSource/Benchmarks/Polybench/linear-algebra/kernels/mvt/mvt, 0.0905, 0.0910, 0.0905,0.0905, 0.0906, 0.0905, 0.0916,0.0906,0.11049723756906271
MultiSource/Benchmarks/FreeBench/distray/distray, 0.0947, 0.0945, 0.0947,0.0947, 0.0945, 0.0950, 0.0948,0.0948,0.10559662090812161
MultiSource/Benchmarks/TSVC/Expansion-flt/Expansion-flt, 2.3830, 2.3849, 2.3899,2.3849, 2.3874, 2.3850, 2.3879,2.3874,0.10482619816343242
MultiSource/Benchmarks/sim/sim, 0.2938, 0.2933, 0.2945,0.2938, 0.2939, 0.2942, 0.2941,0.2941,0.10211027910140835
MultiSource/Benchmarks/TSVC/StatementReordering-flt/StatementReordering-flt, 2.2676, 2.2706, 2.2712,2.2706, 2.2760, 2.2720, 2.2725,2.2725,0.08367832291025223
SingleSource/Benchmarks/Polybench/stencils/jacobi-2d-imper/jacobi-2d-imper, 0.1273, 0.1276, 0.1273,0.1273, 0.1272, 0.1274, 0.1278,0.1274,0.07855459544383603
MultiSource/Benchmarks/TSVC/GlobalDataFlow-dbl/GlobalDataFlow-dbl, 2.1240, 2.1246, 2.1261,2.1246, 2.1261, 2.1243, 2.1261,2.1261,0.07060152499294148
MultiSource/Benchmarks/TSVC/Reductions-flt/Reductions-flt, 2.3806, 2.3831, 2.3934,2.3831, 2.3823, 2.3887, 2.3846,2.3846,0.06294322521085416
MultiSource/Benchmarks/TSVC/LoopRerolling-dbl/LoopRerolling-dbl, 2.0293, 2.0384, 2.0308,2.0308, 2.0308, 2.0320, 2.0320,2.032,0.05909001378765488
SingleSource/Benchmarks/McGill/chomp, 0.1909, 0.1910, 0.1918,0.191, 0.1911, 0.1908, 0.1916,0.1911,0.052356020942401216
MultiSource/Benchmarks/TSVC/Searching-dbl/Searching-dbl, 2.0013, 1.9981, 2.0029,2.0013, 2.0029, 2.0021, 2.0020,2.0021,0.03997401688902169
MultiSource/Benchmarks/Bullet/bullet,22.2749,22.2947,22.3182,22.2947,22.2908,22.3016,22.3663,22.3016,0.03094905964198258
MultiSource/Benchmarks/TSVC/CrossingThresholds-flt/CrossingThresholds-flt, 2.3269, 2.3228, 2.3299,2.3269, 2.3406, 2.3274, 2.3140,2.3274,0.021487816408094496
MultiSource/Benchmarks/mediabench/mpeg2/mpeg2dec/mpeg2decode, 1.3079, 1.3041, 1.3101,1.3079, 1.3020, 1.3081, 1.3112,1.3081,0.015291688967034034
MultiSource/Benchmarks/TSVC/NodeSplitting-flt/NodeSplitting-flt, 2.3088, 2.3090, 2.3127,2.309, 2.3072, 2.3108, 2.3093,2.3093,0.01299263750540458
MultiSource/Applications/JM/ldecod/ldecod, 6.0193, 6.0401, 6.0290,6.029, 6.0293, 6.0213, 6.0311,6.0293,0.004975949577046279
MultiSource/Benchmarks/mediabench/jpeg/jpeg-6a/cjpeg, 4.1726, 4.1812, 4.1862,4.1812, 4.1736, 4.1814, 4.2039,4.1814,0.004783315794520959
MultiSource/Benchmarks/TSVC/LinearDependence-flt/LinearDependence-flt, 2.4224, 2.4301, 2.4321,2.4301, 2.4330, 2.4302, 2.4242,2.4302,0.004115056993558852
SingleSource/Benchmarks/Stanford/Queens, 0.0469, 0.0469, 0.0468,0.0469, 0.0468, 0.0469, 0.0470,0.0469,0.0
SingleSource/Benchmarks/Stanford/Perm, 0.0307, 0.0309, 0.0308,0.0308, 0.0306, 0.0308, 0.0310,0.0308,0.0
SingleSource/Benchmarks/Stanford/FloatMM, 0.0441, 0.0443, 0.0444,0.0443, 0.0442, 0.0443, 0.0445,0.0443,0.0
SingleSource/Benchmarks/Shootout/sieve, 0.0258, 0.0261, 0.0260,0.026, 0.0258, 0.0260, 0.0262,0.026,0.0
SingleSource/Benchmarks/Shootout/objinst, 0.0361, 0.0362, 0.0364,0.0362, 0.0357, 0.0362, 0.0362,0.0362,0.0
SingleSource/Benchmarks/Shootout/heapsort, 0.0401, 0.0405, 0.0404,0.0404, 0.0403, 0.0404, 0.0407,0.0404,0.0
SingleSource/Benchmarks/Shootout/fib2, 0.0202, 0.0204, 0.0205,0.0204, 0.0201, 0.0204, 0.0206,0.0204,0.0
SingleSource/Benchmarks/Shootout/ackermann, 0.0235, 0.0237, 0.0236,0.0236, 0.0234, 0.0236, 0.0239,0.0236,0.0
SingleSource/Benchmarks/Shootout-C++/random, 0.1238, 0.1239, 0.1245,0.1239, 0.1238, 0.1239, 0.1250,0.1239,0.0
SingleSource/Benchmarks/Polybench/linear-algebra/kernels/trmm/trmm, 0.0845, 0.0846, 0.0848,0.0846, 0.0845, 0.0846, 0.0851,0.0846,0.0
SingleSource/Benchmarks/Polybench/linear-algebra/kernels/trisolv/trisolv, 0.0696, 0.0698, 0.0697,0.0697, 0.0697, 0.0697, 0.0701,0.0697,0.0
SingleSource/Benchmarks/Polybench/linear-algebra/kernels/bicg/bicg, 0.0855, 0.0860, 0.0857,0.0857, 0.0855, 0.0861, 0.0857,0.0857,0.0
SingleSource/Benchmarks/Polybench/linear-algebra/kernels/atax/atax, 0.0893, 0.0899, 0.0898,0.0898, 0.0896, 0.0898, 0.0905,0.0898,0.0
SingleSource/Benchmarks/Misc/salsa20, 0.0487, 0.0489, 0.0489,0.0489, 0.0485, 0.0489, 0.0489,0.0489,0.0
SingleSource/Benchmarks/Misc/oourafft, 0.2366, 0.2368, 0.2368,0.2368, 0.2366, 0.2373, 0.2368,0.2368,0.0
SingleSource/Benchmarks/Misc/mandel-2, 0.0316, 0.0316, 0.0317,0.0316, 0.0314, 0.0316, 0.0319,0.0316,0.0
SingleSource/Benchmarks/Misc/fp-convert, 0.0324, 0.0326, 0.0326,0.0326, 0.0326, 0.0325, 0.0327,0.0326,0.0
SingleSource/Benchmarks/Misc/flops-7, 0.0270, 0.0274, 0.0271,0.0271, 0.0270, 0.0271, 0.0275,0.0271,0.0
SingleSource/Benchmarks/Misc/flops-5, 0.0284, 0.0286, 0.0285,0.0285, 0.0285, 0.0285, 0.0289,0.0285,0.0
SingleSource/Benchmarks/Misc/flops-4, 0.0275, 0.0277, 0.0277,0.0277, 0.0275, 0.0277, 0.0279,0.0277,0.0
SingleSource/Benchmarks/Dhrystone/fldry, 0.0425, 0.0425, 0.0427,0.0425, 0.0422, 0.0425, 0.0429,0.0425,0.0
SingleSource/Benchmarks/CoyoteBench/lpbench, 0.1891, 0.1895, 0.1893,0.1893, 0.1893, 0.1892, 0.1893,0.1893,0.0
SingleSource/Benchmarks/CoyoteBench/huffbench, 0.0884, 0.0889, 0.0888,0.0888, 0.0887, 0.0888, 0.0891,0.0888,0.0
SingleSource/Benchmarks/BenchmarkGame/spectral-norm, 0.0577, 0.0581, 0.0582,0.0581, 0.0577, 0.0581, 0.0582,0.0581,0.0
SingleSource/Benchmarks/BenchmarkGame/recursive, 0.0265, 0.0266, 0.0268,0.0266, 0.0263, 0.0266, 0.0267,0.0266,0.0
SingleSource/Benchmarks/BenchmarkGame/puzzle, 0.0568, 0.0569, 0.0569,0.0569, 0.0569, 0.0568, 0.0570,0.0569,0.0
SingleSource/Benchmarks/BenchmarkGame/partialsums, 0.0298, 0.0299, 0.0300,0.0299, 0.0299, 0.0299, 0.0301,0.0299,0.0
SingleSource/Benchmarks/BenchmarkGame/nsieve-bits, 0.0328, 0.0331, 0.0331,0.0331, 0.0329, 0.0331, 0.0334,0.0331,0.0
MultiSource/Benchmarks/Prolangs-C/gnugo/gnugo, 0.6955, 0.6812, 0.6846,0.6846, 0.6846, 0.6803, 0.6927,0.6846,0.0
MultiSource/Benchmarks/MiBench/telecomm-FFT/telecomm-fft, 0.1431, 0.1439, 0.1435,0.1435, 0.1430, 0.1435, 0.1443,0.1435,0.0
MultiSource/Benchmarks/FreeBench/mason/mason, 0.0480, 0.0479, 0.0480,0.048, 0.0478, 0.0480, 0.0481,0.048,0.0
MultiSource/Benchmarks/DOE-ProxyApps-C/XSBench/XSBench, 0.3289, 0.3302, 0.3298,0.3298, 0.3289, 0.3298, 0.3309,0.3298,0.0
MultiSource/Benchmarks/BitBench/uuencode/uuencode, 0.0437, 0.0436, 0.0440,0.0437, 0.0433, 0.0437, 0.0439,0.0437,0.0
MultiSource/Benchmarks/TSVC/Symbolics-flt/Symbolics-flt, 2.3231, 2.3258, 2.3376,2.3258, 2.3310, 2.3237, 2.3254,2.3254,-0.017198383351968438
MultiSource/Applications/sgefa/sgefa, 0.4266, 0.4266, 0.4276,0.4266, 0.4258, 0.4265, 0.4273,0.4265,-0.023441162681669958
MultiSource/Benchmarks/PAQ8p/paq8p, 2.0568, 2.0598, 2.0714,2.0598, 2.0592, 2.0593, 2.0693,2.0593,-0.024274201378782223
SingleSource/Benchmarks/Adobe-C++/loop_unroll, 4.7045, 4.6957, 4.7119,4.7045, 4.7027, 4.7115, 4.7032,4.7032,-0.0276331172281985
MultiSource/Benchmarks/TSVC/LinearDependence-dbl/LinearDependence-dbl, 2.1689, 2.1688, 2.1705,2.1689, 2.1777, 2.1570, 2.1678,2.1678,-0.05071695329428305
MultiSource/Benchmarks/TSVC/LoopRestructuring-flt/LoopRestructuring-flt, 2.3480, 2.3592, 2.3606,2.3592, 2.3622, 2.3511, 2.3580,2.358,-0.050864699898267585
MultiSource/Benchmarks/TSVC/Recurrences-dbl/Recurrences-dbl, 2.0299, 2.0218, 2.0218,2.0218, 2.0211, 2.0207, 2.0201,2.0207,-0.05440696409139134
MultiSource/Benchmarks/MiBench/automotive-basicmath/automotive-basicmath, 0.1349, 0.1362, 0.1358,0.1358, 0.1352, 0.1357, 0.1364,0.1357,-0.07363770250369273
MultiSource/Benchmarks/TSVC/Reductions-dbl/Reductions-dbl, 2.1340, 2.1447, 2.1458,2.1447, 2.1431, 2.1124, 2.1449,2.1431,-0.07460250850933603
MultiSource/Benchmarks/McCat/04-bisect/bisect, 0.1298, 0.1306, 0.1307,0.1306, 0.1299, 0.1305, 0.1313,0.1305,-0.07656967840734552
MultiSource/Benchmarks/TSVC/Equivalencing-flt/Equivalencing-flt, 2.3299, 2.3350, 2.3409,2.335, 2.3353, 2.3315, 2.3330,2.333,-0.08565310492504308
MultiSource/Benchmarks/TSVC/CrossingThresholds-dbl/CrossingThresholds-dbl, 2.0803, 2.0700, 2.0822,2.0803, 2.0829, 2.0785, 2.0766,2.0785,-0.08652598182953275
MultiSource/Benchmarks/TSVC/Expansion-dbl/Expansion-dbl, 2.1278, 2.1329, 2.1378,2.1329, 2.1384, 2.1309, 2.1304,2.1309,-0.09376904683763287
SingleSource/Benchmarks/Polybench/linear-algebra/solvers/lu/lu, 0.1045, 0.1049, 0.1050,0.1049, 0.1048, 0.1047, 0.1053,0.1048,-0.09532888465203504
SingleSource/Benchmarks/Shootout-C++/hash2, 0.3083, 0.3061, 0.3004,0.3061, 0.3058, 0.2976, 0.3182,0.3058,-0.09800718719371604
SingleSource/Benchmarks/Polybench/linear-algebra/kernels/syrk/syrk, 0.0884, 0.0885, 0.0885,0.0885, 0.0882, 0.0884, 0.0891,0.0884,-0.11299435028246929
MultiSource/Benchmarks/TSVC/LoopRestructuring-dbl/LoopRestructuring-dbl, 2.1025, 2.0947, 2.1090,2.1025, 2.1001, 2.1024, 2.0930,2.1001,-0.11414982164090759
MultiSource/Benchmarks/TSVC/StatementReordering-dbl/StatementReordering-dbl, 2.0212, 2.0147, 2.0249,2.0212, 2.0156, 2.0200, 2.0188,2.0188,-0.11874134177715101
MultiSource/Benchmarks/ASC_Sequoia/CrystalMk/CrystalMk, 0.2359, 0.2371, 0.2376,0.2371, 0.2356, 0.2368, 0.2384,0.2368,-0.1265288907633888
MultiSource/Benchmarks/Ptrdist/bc/bc, 1.0222, 1.0215, 1.0217,1.0217, 1.0177, 1.0204, 1.0214,1.0204,-0.12723891553294564
MultiSource/Benchmarks/MiBench/consumer-jpeg/consumer-jpeg, 4.1376, 4.1477, 4.1581,4.1477, 4.1423, 4.1380, 4.1546,4.1423,-0.13019263688310856
MultiSource/Benchmarks/SciMark2-C/scimark2, 0.3779, 0.3802, 0.3807,0.3802, 0.3777, 0.3797, 0.3816,0.3797,-0.13150973172014746
SingleSource/Benchmarks/Misc/flops, 0.0758, 0.0760, 0.0755,0.0758, 0.0755, 0.0757, 0.0761,0.0757,-0.13192612137203907
MultiSource/Benchmarks/mafft/pairlocalalign, 9.4476, 9.4586, 9.4605,9.4586, 9.4457, 9.4515, 9.4426,9.4457,-0.13638382001565086
MultiSource/Benchmarks/Olden/mst/mst, 0.1315, 0.1321, 0.1320,0.132, 0.1308, 0.1318, 0.1321,0.1318,-0.15151515151515804
MultiSource/Applications/JM/lencod/lencod,13.3607,13.3727,13.3954,13.3727,13.3445,13.3513,13.3658,13.3513,-0.1600275187508826
SingleSource/Benchmarks/Stanford/Puzzle, 0.1191, 0.1194, 0.1196,0.1194, 0.1192, 0.1191, 0.1194,0.1192,-0.16750418760469454
MultiSource/Applications/obsequi/Obsequi, 1.0147, 1.0158, 1.0123,1.0147, 1.0179, 1.0126, 1.0130,1.013,-0.16753720311422082
MultiSource/Benchmarks/Olden/treeadd/treeadd, 0.0558, 0.0564, 0.0565,0.0564, 0.0557, 0.0563, 0.0570,0.0563,-0.17730496453900457
SingleSource/Benchmarks/Polybench/linear-algebra/kernels/cholesky/cholesky, 0.1106, 0.1108, 0.1105,0.1106, 0.1103, 0.1104, 0.1110,0.1104,-0.1808318264014508
SingleSource/Benchmarks/Misc/fbench, 0.0538, 0.0540, 0.0540,0.054, 0.0539, 0.0539, 0.0543,0.0539,-0.18518518518517713
MultiSource/Benchmarks/MiBench/telecomm-gsm/telecomm-gsm, 1.1676, 1.1731, 1.1734,1.1731, 1.1661, 1.1709, 1.1753,1.1709,-0.18753729434830557
MultiSource/Benchmarks/TSVC/InductionVariable-flt/InductionVariable-flt, 2.3510, 2.3512, 2.3496,2.351, 2.3513, 2.3463, 2.3465,2.3465,-0.19140791152701953
MultiSource/Benchmarks/nbench/nbench, 1.1792, 1.1759, 1.1751,1.1759, 1.1719, 1.1736, 1.1857,1.1736,-0.19559486350879673
MultiSource/Benchmarks/tramp3d-v4/tramp3d-v4,18.1337,18.0586,18.1548,18.1337,18.1268,18.0938,18.0925,18.0938,-0.22003231552303326
MultiSource/Benchmarks/McCat/03-testtrie/testtrie, 0.0901, 0.0905, 0.0908,0.0905, 0.0900, 0.0903, 0.0908,0.0903,-0.22099447513811432
SingleSource/Benchmarks/Stanford/RealMM, 0.0435, 0.0439, 0.0439,0.0439, 0.0436, 0.0438, 0.0440,0.0438,-0.2277904328018332
SingleSource/Benchmarks/McGill/queens, 0.0437, 0.0438, 0.0439,0.0438, 0.0435, 0.0437, 0.0438,0.0437,-0.22831050228309113
MultiSource/Benchmarks/TSVC/Symbolics-dbl/Symbolics-dbl, 2.0752, 2.0576, 2.0888,2.0752, 2.0704, 2.0692, 2.0726,2.0704,-0.23130300693910977
SingleSource/Benchmarks/Stanford/Towers, 0.0413, 0.0414, 0.0414,0.0414, 0.0409, 0.0413, 0.0416,0.0413,-0.24154589371979673
MultiSource/Benchmarks/Trimaran/enc-md5/enc-md5, 0.1625, 0.1632, 0.1628,0.1628, 0.1619, 0.1624, 0.1628,0.1624,-0.24570024570025328
MultiSource/Benchmarks/FreeBench/pcompress2/pcompress2, 0.2425, 0.2438, 0.2439,0.2438, 0.2424, 0.2432, 0.2445,0.2432,-0.24610336341263084
MultiSource/Applications/ALAC/encode/alacconvert-encode, 1.0146, 1.0057, 1.0139,1.0139, 1.0064, 1.0210, 1.0113,1.0113,-0.25643554591181505
MultiSource/Benchmarks/McCat/18-imp/imp, 0.3297, 0.3338, 0.3358,0.3338, 0.3329, 0.3340, 0.3270,0.3329,-0.2696225284601561
SingleSource/Benchmarks/Shootout/ary3, 0.0350, 0.0350, 0.0352,0.035, 0.0349, 0.0349, 0.0353,0.0349,-0.28571428571428914
MultiSource/Benchmarks/ASCI_Purple/SMG2000/smg2000, 6.2385, 6.2316, 6.2301,6.2316, 6.1999, 6.2134, 6.2334,6.2134,-0.292059824122215
MultiSource/Benchmarks/Fhourstones/fhourstones, 0.1633, 0.1645, 0.1642,0.1642, 0.1632, 0.1637, 0.1646,0.1637,-0.3045066991473777
MultiSource/Benchmarks/TSVC/IndirectAddressing-dbl/IndirectAddressing-dbl, 2.0618, 2.0692, 2.0668,2.0668, 2.0679, 2.0592, 2.0602,2.0602,-0.3193342365008789
SingleSource/Benchmarks/Shootout/random, 0.0300, 0.0301, 0.0301,0.0301, 0.0300, 0.0300, 0.0303,0.03,-0.33222591362126463
MultiSource/Benchmarks/MiBench/consumer-lame/consumer-lame, 3.8723, 3.8805, 3.8802,3.8802, 3.8668, 3.8630, 3.8832,3.8668,-0.34534302355547775
MultiSource/Benchmarks/VersaBench/bmm/bmm, 0.0566, 0.0569, 0.0570,0.0569, 0.0566, 0.0567, 0.0570,0.0567,-0.35149384885764245
MultiSource/Benchmarks/MiBench/automotive-susan/automotive-susan, 0.7744, 0.7753, 0.7764,0.7753, 0.7592, 0.7830, 0.7725,0.7725,-0.3611505223784395
SingleSource/Benchmarks/McGill/misr, 0.0539, 0.0541, 0.0541,0.0541, 0.0539, 0.0539, 0.0543,0.0539,-0.3696857670979603
MultiSource/Benchmarks/Ptrdist/yacr2/yacr2, 0.6209, 0.6214, 0.6226,0.6214, 0.6185, 0.6190, 0.6216,0.619,-0.3862246540070724
MultiSource/Benchmarks/Trimaran/enc-rc4/enc-rc4, 0.0514, 0.0517, 0.0520,0.0517, 0.0516, 0.0514, 0.0515,0.0515,-0.3868471953578423
SingleSource/Benchmarks/Shootout/matrix, 0.0757, 0.0758, 0.0759,0.0758, 0.0752, 0.0755, 0.0756,0.0755,-0.3957783641161061
MultiSource/Benchmarks/Prolangs-C++/primes/primes, 0.0246, 0.0248, 0.0248,0.0248, 0.0244, 0.0247, 0.0249,0.0247,-0.40322580645161255
SingleSource/Benchmarks/Shootout/nestedloop, 0.0245, 0.0246, 0.0248,0.0246, 0.0244, 0.0245, 0.0248,0.0245,-0.40650406504064707
MultiSource/Benchmarks/VersaBench/dbms/dbms, 1.0211, 1.0313, 1.0227,1.0227, 1.0097, 1.0231, 1.0183,1.0183,-0.43023369512075194
SingleSource/Benchmarks/Stanford/Oscar, 0.0663, 0.0665, 0.0665,0.0665, 0.0662, 0.0662, 0.0665,0.0662,-0.4511278195488799
SingleSource/Benchmarks/Misc/pi, 0.0216, 0.0217, 0.0220,0.0217, 0.0215, 0.0216, 0.0218,0.0216,-0.4608294930875556
MultiSource/Benchmarks/MiBench/network-dijkstra/network-dijkstra, 0.0428, 0.0431, 0.0432,0.0431, 0.0429, 0.0429, 0.0431,0.0429,-0.46403712296982924
SingleSource/Benchmarks/Shootout-C++/objinst, 0.1276, 0.1276, 0.1270,0.1276, 0.1270, 0.1265, 0.1275,0.127,-0.470219435736674
MultiSource/Benchmarks/BitBench/drop3/drop3, 0.0420, 0.0423, 0.0423,0.0423, 0.0420, 0.0421, 0.0425,0.0421,-0.47281323877068626
MultiSource/Applications/oggenc/oggenc, 4.7620, 4.7580, 4.7683,4.762, 4.7422, 4.7385, 4.7380,4.7385,-0.49349013019738264
MultiSource/Benchmarks/MiBench/automotive-bitcount/automotive-bitcount, 0.2544, 0.2590, 0.2524,0.2544, 0.2468, 0.2531, 0.2593,0.2531,-0.5110062893081802
SingleSource/Benchmarks/BenchmarkGame/fannkuch, 0.0514, 0.0514, 0.0514,0.0514, 0.0510, 0.0511, 0.0514,0.0511,-0.5836575875486361
MultiSource/Benchmarks/Prolangs-C++/life/life, 0.0653, 0.0650, 0.0657,0.0653, 0.0647, 0.0649, 0.0652,0.0649,-0.6125574272587975
SingleSource/Benchmarks/Shootout-C++/matrix, 0.1711, 0.1721, 0.1723,0.1721, 0.1709, 0.1710, 0.1725,0.171,-0.639163277164434
SingleSource/Benchmarks/Misc/matmul_f64_4x4, 0.0304, 0.0306, 0.0306,0.0306, 0.0303, 0.0304, 0.0308,0.0304,-0.6535947712418277
MultiSource/Benchmarks/VersaBench/beamformer/beamformer, 0.2040, 0.2115, 0.2129,0.2115, 0.2101, 0.2126, 0.2095,0.2101,-0.6619385342789497
SingleSource/Benchmarks/Misc/lowercase, 0.0255, 0.0256, 0.0257,0.0256, 0.0253, 0.0254, 0.0257,0.0254,-0.7812500000000111
SingleSource/Benchmarks/Shootout/hash, 0.0499, 0.0499, 0.0499,0.0499, 0.0493, 0.0495, 0.0501,0.0495,-0.8016032064128154
SingleSource/Benchmarks/Misc-C++/mandel-text, 0.0245, 0.0247, 0.0248,0.0247, 0.0243, 0.0245, 0.0248,0.0245,-0.8097165991902799
MultiSource/Benchmarks/Prolangs-C++/employ/employ, 0.2176, 0.2124, 0.2204,0.2176, 0.2155, 0.2122, 0.2178,0.2155,-0.965073529411764
MultiSource/Applications/SIBsim4/SIBsim4, 1.2789, 1.2623, 1.2797,1.2789, 1.2827, 1.2662, 1.2594,1.2662,-0.9930408945187263
SingleSource/Regression/C/2004-08-12-InlinerAndAllocas, 0.0197, 0.0200, 0.0200,0.02, 0.0196, 0.0198, 0.0202,0.0198,-0.9999999999999898
MultiSource/Applications/sqlite3/sqlite3,12.6795,12.6528,12.6876,12.6795,12.5459,12.5895,12.5353,12.5459,-1.0536693087266902
MultiSource/Benchmarks/MallocBench/cfrac/cfrac, 0.8648, 0.8618, 0.8708,0.8648, 0.8507, 0.8555, 0.8621,0.8555,-1.0753931544865813
MultiSource/Benchmarks/ASC_Sequoia/IRSmk/IRSmk, 0.1104, 0.1128, 0.1140,0.1128, 0.1123, 0.1076, 0.1115,0.1115,-1.1524822695035408
SingleSource/Benchmarks/Shootout-C++/moments, 0.2379, 0.2392, 0.2390,0.239, 0.2353, 0.2346, 0.2367,0.2353,-1.5481171548117123
MultiSource/Benchmarks/Trimaran/enc-3des/enc-3des, 0.2768, 0.2698, 0.2755,0.2755, 0.2768, 0.2695, 0.2636,0.2695,-2.177858439201452
MultiSource/Benchmarks/llubenchmark/llu, 0.0509, 0.0510, 0.0511,0.051, 0.0491, 0.0495, 0.0494,0.0494,-3.1372549019607843
MultiSource/Benchmarks/Prolangs-C++/ocean/ocean, 0.1152, 0.1095, 0.1200,0.1152, 0.1097, 0.1114, 0.1146,0.1114,-3.298611111111105
MultiSource/Applications/aha/aha, 0.1096, 0.1097, 0.1052,0.1096, 0.1020, 0.1053, 0.1053,0.1053,-3.9233576642335732
MultiSource/Benchmarks/mediabench/adpcm/rawcaudio/rawcaudio, 0.0642, 0.0635, 0.0649,0.0642, 0.0633, 0.0613, 0.0614,0.0614,-4.361370716510892
MultiSource/Applications/siod/siod, 1.8127, 1.8128, 1.8280,1.8128, 1.6992, 1.6997, 1.6915,1.6992,-6.266548984995579
SingleSource/Benchmarks/Misc-C++/stepanov_v1p2, 0.1701, 0.1706, 0.1707,0.1706, 0.1450, 0.1462, 0.1457,0.1457,-14.595545134818288
SingleSource/Benchmarks/Adobe-C++/stepanov_abstraction, 0.6009, 0.6006, 0.6032,0.6009, 0.4992, 0.4985, 0.4988,0.4988,-16.99117989682143
SingleSource/Benchmarks/Adobe-C++/stepanov_vector, 0.7873, 0.7901, 0.7853,0.7873, 0.5987, 0.6006, 0.5948,0.5987,-23.955290232439985
Total elapsed time,-,-,-,341.1347999999998,-,-,-,341.1142,-0.006038668584917861
Total failure,-,-,-,0,-,-,-,0,
Geom. avg slowdown,,,,,,,,,-0.0677571492284%
