Benchmarks,/mnt/freezedisk/llvm-intptr-base-5.0-release/bin/clang,/mnt/freezedisk/llvm-intptr-base-5.0-release/bin/clang,/mnt/freezedisk/llvm-intptr-base-5.0-release/bin/clang,median,/mnt/freezedisk/llvm-intptr-br4-aa-release/bin/clang,/mnt/freezedisk/llvm-intptr-br4-aa-release/bin/clang,/mnt/freezedisk/llvm-intptr-br4-aa-release/bin/clang,median
MultiSource/Applications/ALAC/decode/alacconvert-decode, 0.8724, 0.8700, 0.8692,0.87, 0.8745, 0.8736, 0.8731,0.8736
MultiSource/Applications/ALAC/encode/alacconvert-encode, 0.8711, 0.8697, 0.8689,0.8697, 0.8727, 0.8737, 0.8733,0.8733
MultiSource/Applications/ClamAV/clamscan,13.2908,13.2998,13.2841,13.2908,13.2837,13.2908,13.2894,13.2894
MultiSource/Applications/JM/ldecod/ldecod, 5.8120, 5.8161, 5.7956,5.812, 5.8855, 5.8904, 5.8974,5.8904
MultiSource/Applications/JM/lencod/lencod,13.4706,13.4765,13.4591,13.4706,13.5031,13.5158,13.5164,13.5158
MultiSource/Applications/SIBsim4/SIBsim4, 1.0651, 1.0594, 1.0710,1.0651, 1.0656, 1.0667, 1.0747,1.0667
MultiSource/Applications/SPASS/SPASS,11.1845,11.1909,11.1707,11.1845,11.2091,11.2036,11.1972,11.2036
MultiSource/Applications/d/make_dparser, 2.4153, 2.4201, 2.4281,2.4201, 2.4623, 2.4276, 2.4099,2.4276
MultiSource/Applications/hbd/hbd, 1.1115, 1.1099, 1.1094,1.1099, 1.1106, 1.1121, 1.1100,1.1106
MultiSource/Applications/hexxagon/hexxagon, 0.6097, 0.6098, 0.6098,0.6098, 0.6112, 0.6116, 0.6109,0.6112
MultiSource/Applications/kimwitu++/kc,10.0986,10.1197,10.1078,10.1078,10.1217,10.0815,10.0895,10.0895
MultiSource/Applications/lambda-0.1.3/lambda, 0.5085, 0.5084, 0.5080,0.5084, 0.5113, 0.5114, 0.5108,0.5113
MultiSource/Applications/lua/lua, 2.9724, 2.9691, 2.9676,2.9691, 2.9928, 2.9955, 2.9930,2.993
MultiSource/Applications/minisat/minisat, 0.5674, 0.5696, 0.5710,0.5696, 0.5790, 0.5725, 0.5747,0.5747
MultiSource/Applications/obsequi/Obsequi, 0.9014, 0.9097, 0.9098,0.9097, 0.9131, 0.9033, 0.9059,0.9059
MultiSource/Applications/oggenc/oggenc, 4.3726, 4.3812, 4.3683,4.3726, 4.3884, 4.3896, 4.3908,4.3896
MultiSource/Applications/siod/siod, 1.8344, 1.8269, 1.8418,1.8344, 1.8282, 1.8250, 1.8260,1.826
MultiSource/Applications/spiff/spiff, 0.6972, 0.6936, 0.6929,0.6936, 0.6909, 0.6935, 0.6926,0.6926
MultiSource/Applications/sqlite3/sqlite3,13.3446,13.3448,13.3269,13.3446,13.4125,13.4095,13.4260,13.4125
MultiSource/Applications/viterbi/viterbi, 0.1553, 0.1565, 0.1565,0.1565, 0.1579, 0.1581, 0.1577,0.1579
MultiSource/Benchmarks/7zip/7zip-benchmark,31.1589,31.1577,31.1503,31.1577,31.6277,31.6508,31.6254,31.6277
MultiSource/Benchmarks/ASCI_Purple/SMG2000/smg2000, 5.1773, 5.1753, 5.1708,5.1753, 5.2026, 5.2093, 5.2055,5.2055
MultiSource/Benchmarks/Bullet/bullet,21.1085,21.1314,21.1198,21.1198,21.4097,21.4136,21.4000,21.4097
MultiSource/Benchmarks/DOE-ProxyApps-C++/CLAMR/CLAMR,16.4317,16.4361,16.4200,16.4317,16.4528,16.4698,16.4580,16.458
MultiSource/Benchmarks/DOE-ProxyApps-C++/HPCCG/HPCCG, 1.3001, 1.2994, 1.3008,1.3001, 1.3028, 1.3041, 1.3013,1.3028
MultiSource/Benchmarks/DOE-ProxyApps-C++/PENNANT/PENNANT, 3.7277, 3.7287, 3.7274,3.7277, 3.7419, 3.7432, 3.7396,3.7419
MultiSource/Benchmarks/DOE-ProxyApps-C++/miniFE/miniFE, 2.3582, 2.3537, 2.3521,2.3537, 2.3534, 2.3540, 2.3516,2.3534
MultiSource/Benchmarks/DOE-ProxyApps-C/Pathfinder/PathFinder, 0.7475, 0.7456, 0.7449,0.7456, 0.7378, 0.7407, 0.7389,0.7389
MultiSource/Benchmarks/DOE-ProxyApps-C/RSBench/rsbench, 0.3634, 0.3621, 0.3624,0.3624, 0.3647, 0.3657, 0.3649,0.3649
MultiSource/Benchmarks/DOE-ProxyApps-C/SimpleMOC/SimpleMOC, 0.7954, 0.7927, 0.7937,0.7937, 0.7996, 0.8006, 0.8000,0.8
MultiSource/Benchmarks/DOE-ProxyApps-C/XSBench/XSBench, 0.3291, 0.3223, 0.3226,0.3226, 0.3313, 0.3258, 0.3251,0.3258
MultiSource/Benchmarks/DOE-ProxyApps-C/miniGMG/miniGMG, 0.8901, 0.8904, 0.8892,0.8901, 0.8977, 0.8971, 0.8974,0.8974
MultiSource/Benchmarks/MallocBench/cfrac/cfrac, 0.8205, 0.8162, 0.8154,0.8162, 0.8169, 0.8174, 0.8162,0.8169
MultiSource/Benchmarks/MallocBench/espresso/espresso, 4.1960, 4.1909, 4.1889,4.1909, 4.1705, 4.1754, 4.1758,4.1754
MultiSource/Benchmarks/MallocBench/gs/gs, 3.4620, 3.4537, 3.4514,3.4537, 3.4722, 3.4668, 3.4637,3.4668
MultiSource/Benchmarks/McCat/03-testtrie/testtrie, 0.0858, 0.0853, 0.0855,0.0855, 0.0854, 0.0854, 0.0852,0.0854
MultiSource/Benchmarks/McCat/05-eks/eks, 0.4796, 0.4791, 0.4788,0.4791, 0.4867, 0.4873, 0.4871,0.4871
MultiSource/Benchmarks/McCat/08-main/main, 0.2209, 0.2202, 0.2202,0.2202, 0.2269, 0.2273, 0.2270,0.227
MultiSource/Benchmarks/McCat/09-vor/vor, 0.2550, 0.2543, 0.2543,0.2543, 0.2538, 0.2540, 0.2534,0.2538
MultiSource/Benchmarks/McCat/18-imp/imp, 0.3034, 0.3031, 0.3030,0.3031, 0.3012, 0.3013, 0.3010,0.3012
MultiSource/Benchmarks/MiBench/automotive-susan/automotive-susan, 0.5720, 0.5698, 0.5786,0.572, 0.5814, 0.5834, 0.5873,0.5834
MultiSource/Benchmarks/MiBench/consumer-jpeg/consumer-jpeg, 4.0947, 4.0881, 4.0847,4.0881, 4.0964, 4.0986, 4.0964,4.0964
MultiSource/Benchmarks/MiBench/consumer-lame/consumer-lame, 3.6207, 3.6172, 3.6142,3.6172, 3.6357, 3.6386, 3.6384,3.6384
MultiSource/Benchmarks/MiBench/consumer-typeset/consumer-typeset, 8.9759, 8.9772, 8.9750,8.9759, 8.9741, 8.9792, 8.9703,8.9741
MultiSource/Benchmarks/MiBench/network-patricia/network-patricia, 0.0757, 0.0755, 0.0754,0.0755, 0.0752, 0.0754, 0.0752,0.0752
MultiSource/Benchmarks/MiBench/security-sha/security-sha, 0.1088, 0.1086, 0.1085,0.1086, 0.1086, 0.1106, 0.1104,0.1104
MultiSource/Benchmarks/MiBench/telecomm-gsm/telecomm-gsm, 0.9633, 0.9603, 0.9592,0.9603, 0.9760, 0.9762, 0.9753,0.976
MultiSource/Benchmarks/Olden/bh/bh, 0.2371, 0.2367, 0.2365,0.2367, 0.2429, 0.2429, 0.2427,0.2429
MultiSource/Benchmarks/Olden/mst/mst, 0.1151, 0.1146, 0.1145,0.1146, 0.1184, 0.1184, 0.1181,0.1184
MultiSource/Benchmarks/Olden/tsp/tsp, 0.1210, 0.1202, 0.1199,0.1202, 0.1195, 0.1195, 0.1193,0.1195
MultiSource/Benchmarks/Olden/voronoi/voronoi, 0.2237, 0.2230, 0.2233,0.2233, 0.2245, 0.2247, 0.2244,0.2245
MultiSource/Benchmarks/PAQ8p/paq8p, 1.7292, 1.7310, 1.7274,1.7292, 1.7234, 1.7250, 1.7253,1.725
MultiSource/Benchmarks/Prolangs-C++/city/city, 0.8311, 0.8317, 0.8326,0.8317, 0.8300, 0.8314, 0.8290,0.83
MultiSource/Benchmarks/Prolangs-C++/employ/employ, 0.1850, 0.1847, 0.1852,0.185, 0.1850, 0.1852, 0.1848,0.185
MultiSource/Benchmarks/Prolangs-C++/ocean/ocean, 0.1007, 0.1009, 0.1007,0.1007, 0.0998, 0.0998, 0.0997,0.0998
MultiSource/Benchmarks/Prolangs-C/agrep/agrep, 1.2238, 1.2223, 1.2217,1.2223, 1.2331, 1.2339, 1.2338,1.2338
MultiSource/Benchmarks/Prolangs-C/bison/mybison, 1.4872, 1.4810, 1.4795,1.481, 1.4823, 1.4793, 1.4797,1.4797
MultiSource/Benchmarks/Prolangs-C/gnugo/gnugo, 0.6896, 0.6863, 0.6859,0.6863, 0.6870, 0.6875, 0.6861,0.687
MultiSource/Benchmarks/Ptrdist/anagram/anagram, 0.0919, 0.0918, 0.0917,0.0918, 0.0919, 0.0920, 0.0919,0.0919
MultiSource/Benchmarks/Ptrdist/bc/bc, 0.9281, 0.9273, 0.9262,0.9273, 0.9275, 0.9286, 0.9279,0.9279
MultiSource/Benchmarks/Ptrdist/ks/ks, 0.1336, 0.1335, 0.1332,0.1335, 0.1335, 0.1337, 0.1336,0.1336
MultiSource/Benchmarks/Ptrdist/yacr2/yacr2, 0.5580, 0.5575, 0.5562,0.5575, 0.5568, 0.5571, 0.5569,0.5569
MultiSource/Benchmarks/SciMark2-C/scimark2, 0.3471, 0.3455, 0.3455,0.3455, 0.3457, 0.3463, 0.3460,0.346
MultiSource/Benchmarks/Trimaran/enc-3des/enc-3des, 0.2186, 0.2186, 0.2195,0.2186, 0.2189, 0.2187, 0.2188,0.2188
MultiSource/Benchmarks/Trimaran/enc-md5/enc-md5, 0.1364, 0.1363, 0.1361,0.1363, 0.1376, 0.1375, 0.1374,0.1375
MultiSource/Benchmarks/VersaBench/beamformer/beamformer, 0.2756, 0.2753, 0.2748,0.2753, 0.2787, 0.2787, 0.2792,0.2787
MultiSource/Benchmarks/VersaBench/dbms/dbms, 0.9088, 0.9043, 0.9038,0.9043, 0.9044, 0.9072, 0.9047,0.9047
MultiSource/Benchmarks/VersaBench/ecbdes/ecbdes, 0.1964, 0.1958, 0.1958,0.1958, 0.1961, 0.1960, 0.1956,0.196
MultiSource/Benchmarks/mafft/pairlocalalign, 7.9639, 7.9683, 7.9558,7.9639, 7.9608, 7.9634, 7.9696,7.9634
MultiSource/Benchmarks/mediabench/gsm/toast/toast, 0.9637, 0.9602, 0.9597,0.9602, 0.9755, 0.9766, 0.9749,0.9755
MultiSource/Benchmarks/mediabench/jpeg/jpeg-6a/cjpeg, 4.1327, 4.1267, 4.1235,4.1267, 4.1355, 4.1392, 4.1359,4.1359
MultiSource/Benchmarks/sim/sim, 0.2590, 0.2592, 0.2588,0.259, 0.2591, 0.2590, 0.2593,0.2591
MultiSource/Benchmarks/tramp3d-v4/tramp3d-v4,18.3672,18.3775,18.3348,18.3672,18.6588,18.6681,18.6676,18.6676
SingleSource/Benchmarks/Adobe-C++/functionobjects, 0.4186, 0.4189, 0.4181,0.4186, 0.4050, 0.4049, 0.4051,0.405
SingleSource/Benchmarks/Adobe-C++/loop_unroll, 3.9263, 3.9326, 3.9259,3.9263, 3.9046, 3.9078, 3.9126,3.9078
SingleSource/Benchmarks/Adobe-C++/stepanov_abstraction, 0.5582, 0.5585, 0.5578,0.5582, 0.4981, 0.4981, 0.4989,0.4981
SingleSource/Benchmarks/Adobe-C++/stepanov_vector, 0.6861, 0.6789, 0.6803,0.6803, 0.7840, 0.7839, 0.7887,0.784
SingleSource/Benchmarks/CoyoteBench/fftbench, 0.5572, 0.5496, 0.5565,0.5565, 0.5557, 0.5553, 0.5585,0.5557
SingleSource/Benchmarks/Misc-C++-EH/spirit, 3.3780, 3.3760, 3.3773,3.3773, 3.3519, 3.3432, 3.3373,3.3432
SingleSource/Benchmarks/Misc-C++/Large/ray, 0.2148, 0.2063, 0.2166,0.2148, 0.2084, 0.2151, 0.2161,0.2151
SingleSource/Benchmarks/Misc-C++/bigfib, 0.4264, 0.4339, 0.4304,0.4304, 0.4288, 0.4356, 0.4359,0.4356
SingleSource/Benchmarks/Misc-C++/stepanov_container, 0.6745, 0.6656, 0.6727,0.6727, 0.6529, 0.6481, 0.6563,0.6529
SingleSource/Benchmarks/Misc/himenobmtxpa, 0.1581, 0.1581, 0.1577,0.1581, 0.1578, 0.1580, 0.1584,0.158
SingleSource/Benchmarks/Misc/salsa20, 0.0506, 0.0505, 0.0504,0.0505, 0.0539, 0.0540, 0.0538,0.0539
SingleSource/Benchmarks/Shootout-C++/hash, 0.2477, 0.2480, 0.2479,0.2479, 0.2464, 0.2468, 0.2461,0.2464
SingleSource/Benchmarks/Shootout-C++/hash2, 0.3186, 0.3121, 0.3127,0.3127, 0.3086, 0.3109, 0.3145,0.3109
SingleSource/Benchmarks/Shootout-C++/lists, 0.1537, 0.1620, 0.1549,0.1549, 0.1542, 0.1582, 0.1565,0.1565
SingleSource/Benchmarks/Shootout-C++/lists1, 0.1789, 0.1791, 0.1791,0.1791, 0.1778, 0.1779, 0.1777,0.1778
SingleSource/Benchmarks/Shootout-C++/moments, 0.3463, 0.3465, 0.3517,0.3465, 0.3426, 0.3463, 0.3402,0.3426
SingleSource/Benchmarks/Shootout-C++/sieve, 0.1666, 0.1666, 0.1667,0.1666, 0.1666, 0.1669, 0.1666,0.1666
SingleSource/Benchmarks/Shootout/lists, 0.0624, 0.0623, 0.0622,0.0623, 0.0617, 0.0617, 0.0616,0.0617
SingleSource/Benchmarks/SmallPT/smallpt, 0.0920, 0.0921, 0.0920,0.092, 0.0929, 0.0929, 0.0928,0.0929
SingleSource/Benchmarks/Stanford/Oscar, 0.0581, 0.0580, 0.0579,0.058, 0.0625, 0.0626, 0.0625,0.0625
SingleSource/Benchmarks/Stanford/Treesort, 0.0361, 0.0360, 0.0360,0.036, 0.0363, 0.0363, 0.0363,0.0363
Total elapsed time,-,-,-,336.34570000000025,-,-,-,337.8890999999999
Total failure,-,-,-,0,-,-,-,0
