Benchmarks,/mnt/freezedisk/llvm-intptr-base-5.0-release/bin/clang,/mnt/freezedisk/llvm-intptr-base-5.0-release/bin/clang,/mnt/freezedisk/llvm-intptr-base-5.0-release/bin/clang,median,/mnt/freezedisk/llvm-intptr-br4-aa-release/bin/clang,/mnt/freezedisk/llvm-intptr-br4-aa-release/bin/clang,/mnt/freezedisk/llvm-intptr-br4-aa-release/bin/clang,median
MultiSource/Applications/ALAC/decode/alacconvert-decode, 0.0132, 0.0132, 0.0131,0.0132, 0.0132, 0.0133, 0.0132,0.0132
MultiSource/Applications/ALAC/encode/alacconvert-encode, 0.0254, 0.0253, 0.0253,0.0253, 0.0251, 0.0251, 0.0251,0.0251
MultiSource/Applications/ClamAV/clamscan, 0.0910, 0.0919, 0.0920,0.0919, 0.0910, 0.0918, 0.0917,0.0917
MultiSource/Applications/JM/ldecod/ldecod, 0.0392, 0.0391, 0.0390,0.0391, 0.0390, 0.0389, 0.0390,0.039
MultiSource/Applications/JM/lencod/lencod, 2.8300, 2.8298, 2.8295,2.8298, 2.8314, 2.8309, 2.8304,2.8309
MultiSource/Applications/SIBsim4/SIBsim4, 1.8936, 1.8500, 1.9113,1.8936, 1.8580, 1.8382, 1.8340,1.8382
MultiSource/Applications/SPASS/SPASS, 6.2510, 6.2706, 5.6571,6.251, 6.2332, 6.1924, 6.1676,6.1924
MultiSource/Applications/aha/aha, 0.9180, 0.9163, 0.9163,0.9163, 0.9174, 0.9205, 0.9177,0.9177
MultiSource/Applications/d/make_dparser, 0.0158, 0.0158, 0.0159,0.0158, 0.0158, 0.0158, 0.0158,0.0158
MultiSource/Applications/hbd/hbd, 0.0030, 0.0031, 0.0031,0.0031, 0.0031, 0.0030, 0.0031,0.0031
MultiSource/Applications/hexxagon/hexxagon, 6.2986, 6.2990, 6.2994,6.299, 6.3110, 6.3112, 6.3116,6.3112
MultiSource/Applications/kimwitu++/kc, 0.0270, 0.0270, 0.0271,0.027, 0.0272, 0.0270, 0.0272,0.0272
MultiSource/Applications/lambda-0.1.3/lambda, 2.3865, 2.4055, 2.3961,2.3961, 2.3950, 2.3958, 2.3950,2.395
MultiSource/Applications/lua/lua,10.2127,10.1691,10.2142,10.2127,10.2052,10.1908,10.2008,10.2008
MultiSource/Applications/minisat/minisat, 4.3296, 4.3220, 4.3315,4.3296, 4.3784, 4.4260, 4.4014,4.4014
MultiSource/Applications/obsequi/Obsequi, 1.0147, 1.0153, 1.0146,1.0147, 1.0164, 1.0145, 1.0153,1.0153
MultiSource/Applications/oggenc/oggenc, 0.0689, 0.0687, 0.0688,0.0688, 0.0687, 0.0687, 0.0687,0.0687
MultiSource/Applications/sgefa/sgefa, 0.1358, 0.1357, 0.1357,0.1357, 0.1357, 0.1358, 0.1358,0.1358
MultiSource/Applications/siod/siod, 1.0244, 1.0245, 1.0262,1.0245, 0.9924, 0.9915, 0.9912,0.9915
MultiSource/Applications/spiff/spiff, 1.1506, 1.1492, 1.1491,1.1492, 1.1472, 1.1487, 1.1477,1.1477
MultiSource/Applications/sqlite3/sqlite3, 1.5748, 1.5716, 1.5732,1.5732, 1.5819, 1.5838, 1.5869,1.5838
MultiSource/Applications/viterbi/viterbi, 1.1383, 1.1390, 1.1385,1.1385, 1.1375, 1.1376, 1.1378,1.1376
MultiSource/Benchmarks/7zip/7zip-benchmark, 5.8485, 5.8515, 5.8518,5.8515, 5.8790, 5.8764, 5.8798,5.879
MultiSource/Benchmarks/ASCI_Purple/SMG2000/smg2000, 1.4910, 1.4923, 1.4917,1.4917, 1.4923, 1.4921, 1.4934,1.4923
MultiSource/Benchmarks/ASC_Sequoia/AMGmk/AMGmk, 4.8870, 4.8567, 4.9024,4.887, 4.8345, 4.8256, 4.8500,4.8345
MultiSource/Benchmarks/ASC_Sequoia/CrystalMk/CrystalMk, 6.4711, 6.4710, 6.4709,6.471, 6.4710, 6.4709, 6.4710,6.471
MultiSource/Benchmarks/ASC_Sequoia/IRSmk/IRSmk, 3.0430, 3.0225, 3.0297,3.0297, 3.0469, 2.9975, 3.0285,3.0285
MultiSource/Benchmarks/BitBench/drop3/drop3, 0.1429, 0.1428, 0.1427,0.1428, 0.1430, 0.1428, 0.1428,0.1428
MultiSource/Benchmarks/BitBench/five11/five11, 0.9956, 0.9956, 0.9944,0.9956, 1.0271, 1.0213, 0.9990,1.0213
MultiSource/Benchmarks/BitBench/uudecode/uudecode, 0.0549, 0.0550, 0.0566,0.055, 0.0548, 0.0552, 0.0549,0.0549
MultiSource/Benchmarks/BitBench/uuencode/uuencode, 0.0108, 0.0109, 0.0109,0.0109, 0.0108, 0.0109, 0.0108,0.0108
MultiSource/Benchmarks/Bullet/bullet, 3.1019, 3.0965, 3.1059,3.1019, 3.1816, 3.1830, 3.1745,3.1816
MultiSource/Benchmarks/DOE-ProxyApps-C++/CLAMR/CLAMR, 0.9966, 0.9966, 0.9965,0.9966, 0.9962, 0.9964, 0.9964,0.9964
MultiSource/Benchmarks/DOE-ProxyApps-C++/HPCCG/HPCCG, 0.8127, 0.8126, 0.8119,0.8126, 0.8112, 0.8114, 0.8115,0.8114
MultiSource/Benchmarks/DOE-ProxyApps-C++/PENNANT/PENNANT, 0.3621, 0.3635, 0.3638,0.3635, 0.3655, 0.3650, 0.3650,0.365
MultiSource/Benchmarks/DOE-ProxyApps-C++/miniFE/miniFE, 2.4509, 2.4518, 2.4505,2.4509, 2.4527, 2.4491, 2.4522,2.4522
MultiSource/Benchmarks/DOE-ProxyApps-C/Pathfinder/PathFinder, 1.8805, 1.8660, 1.8678,1.8678, 1.8984, 1.8945, 1.8965,1.8965
MultiSource/Benchmarks/DOE-ProxyApps-C/RSBench/rsbench, 0.5196, 0.5179, 0.5008,0.5179, 0.5212, 0.5152, 0.5157,0.5157
MultiSource/Benchmarks/DOE-ProxyApps-C/SimpleMOC/SimpleMOC, 3.3704, 3.3751, 3.3730,3.373, 3.3699, 3.3773, 3.3750,3.375
MultiSource/Benchmarks/DOE-ProxyApps-C/XSBench/XSBench, 2.3554, 2.3499, 2.3518,2.3518, 2.3503, 2.3492, 2.3452,2.3492
MultiSource/Benchmarks/DOE-ProxyApps-C/miniAMR/miniAMR, 0.6916, 0.6905, 0.6897,0.6905, 0.6926, 0.6912, 0.6911,0.6912
MultiSource/Benchmarks/DOE-ProxyApps-C/miniGMG/miniGMG, 4.7778, 4.7781, 4.7788,4.7781, 4.7776, 4.7748, 4.7781,4.7776
MultiSource/Benchmarks/Fhourstones-3.1/fhourstones3.1, 0.7249, 0.7252, 0.7253,0.7252, 0.7254, 0.7250, 0.7255,0.7254
MultiSource/Benchmarks/Fhourstones/fhourstones, 0.7195, 0.7183, 0.7198,0.7195, 0.7204, 0.7215, 0.7193,0.7204
MultiSource/Benchmarks/FreeBench/analyzer/analyzer, 0.0374, 0.0368, 0.0369,0.0369, 0.0366, 0.0365, 0.0369,0.0366
MultiSource/Benchmarks/FreeBench/distray/distray, 0.1214, 0.1213, 0.1213,0.1213, 0.1213, 0.1214, 0.1214,0.1214
MultiSource/Benchmarks/FreeBench/fourinarow/fourinarow, 0.1578, 0.1578, 0.1578,0.1578, 0.1579, 0.1578, 0.1579,0.1579
MultiSource/Benchmarks/FreeBench/mason/mason, 0.1174, 0.1173, 0.1173,0.1173, 0.1173, 0.1174, 0.1172,0.1173
MultiSource/Benchmarks/FreeBench/neural/neural, 0.1042, 0.1042, 0.1042,0.1042, 0.1042, 0.1042, 0.1042,0.1042
MultiSource/Benchmarks/FreeBench/pcompress2/pcompress2, 0.0921, 0.0921, 0.0921,0.0921, 0.0921, 0.0921, 0.0921,0.0921
MultiSource/Benchmarks/FreeBench/pifft/pifft, 0.0596, 0.0596, 0.0596,0.0596, 0.0594, 0.0595, 0.0596,0.0595
MultiSource/Benchmarks/MallocBench/cfrac/cfrac, 0.6776, 0.6777, 0.6778,0.6777, 0.6774, 0.6770, 0.6770,0.677
MultiSource/Benchmarks/MallocBench/espresso/espresso, 0.2673, 0.2670, 0.2673,0.2673, 0.2674, 0.2673, 0.2673,0.2673
MultiSource/Benchmarks/MallocBench/gs/gs, 0.0265, 0.0264, 0.0266,0.0265, 0.0247, 0.0264, 0.0264,0.0264
MultiSource/Benchmarks/McCat/01-qbsort/qbsort, 0.0358, 0.0358, 0.0359,0.0358, 0.0358, 0.0359, 0.0359,0.0359
MultiSource/Benchmarks/McCat/03-testtrie/testtrie, 0.0083, 0.0071, 0.0070,0.0071, 0.0071, 0.0072, 0.0070,0.0071
MultiSource/Benchmarks/McCat/04-bisect/bisect, 0.0683, 0.0683, 0.0683,0.0683, 0.0682, 0.0682, 0.0682,0.0682
MultiSource/Benchmarks/McCat/05-eks/eks, 0.0031, 0.0031, 0.0031,0.0031, 0.0031, 0.0031, 0.0031,0.0031
MultiSource/Benchmarks/McCat/08-main/main, 0.0381, 0.0381, 0.0381,0.0381, 0.0381, 0.0381, 0.0380,0.0381
MultiSource/Benchmarks/McCat/09-vor/vor, 0.0800, 0.0800, 0.0802,0.08, 0.0788, 0.0802, 0.0802,0.0802
MultiSource/Benchmarks/McCat/12-IOtest/iotest, 0.2055, 0.2107, 0.2070,0.207, 0.2064, 0.2075, 0.2019,0.2064
MultiSource/Benchmarks/McCat/17-bintr/bintr, 0.0722, 0.0740, 0.0742,0.074, 0.0728, 0.0729, 0.0724,0.0728
MultiSource/Benchmarks/McCat/18-imp/imp, 0.0512, 0.0514, 0.0512,0.0512, 0.0593, 0.0608, 0.0608,0.0608
MultiSource/Benchmarks/MiBench/automotive-basicmath/automotive-basicmath, 0.2004, 0.1998, 0.1998,0.1998, 0.2003, 0.2001, 0.1999,0.2001
MultiSource/Benchmarks/MiBench/automotive-bitcount/automotive-bitcount, 0.0488, 0.0508, 0.0533,0.0508, 0.0487, 0.0519, 0.0499,0.0499
MultiSource/Benchmarks/MiBench/automotive-susan/automotive-susan, 0.0268, 0.0269, 0.0268,0.0268, 0.0273, 0.0268, 0.0268,0.0268
MultiSource/Benchmarks/MiBench/consumer-jpeg/consumer-jpeg, 0.0027, 0.0042, 0.0043,0.0042, 0.0043, 0.0043, 0.0043,0.0043
MultiSource/Benchmarks/MiBench/consumer-lame/consumer-lame, 0.1040, 0.1053, 0.1056,0.1053, 0.1055, 0.1054, 0.1053,0.1054
MultiSource/Benchmarks/MiBench/consumer-typeset/consumer-typeset, 0.0791, 0.0791, 0.0789,0.0791, 0.0771, 0.0785, 0.0784,0.0784
MultiSource/Benchmarks/MiBench/network-dijkstra/network-dijkstra, 0.0233, 0.0234, 0.0234,0.0234, 0.0219, 0.0234, 0.0234,0.0234
MultiSource/Benchmarks/MiBench/network-patricia/network-patricia, 0.0653, 0.0653, 0.0654,0.0653, 0.0638, 0.0653, 0.0653,0.0653
MultiSource/Benchmarks/MiBench/security-rijndael/security-rijndael, 0.0210, 0.0210, 0.0211,0.021, 0.0196, 0.0211, 0.0210,0.021
MultiSource/Benchmarks/MiBench/security-sha/security-sha, 0.0141, 0.0141, 0.0141,0.0141, 0.0126, 0.0140, 0.0141,0.014
MultiSource/Benchmarks/MiBench/telecomm-CRC32/telecomm-CRC32, 0.1353, 0.1344, 0.1367,0.1353, 0.1347, 0.1324, 0.1350,0.1347
MultiSource/Benchmarks/MiBench/telecomm-FFT/telecomm-fft, 0.0344, 0.0343, 0.0343,0.0343, 0.0343, 0.0343, 0.0343,0.0343
MultiSource/Benchmarks/MiBench/telecomm-adpcm/telecomm-adpcm, 0.0622, 0.0621, 0.0621,0.0621, 0.0606, 0.0622, 0.0621,0.0621
MultiSource/Benchmarks/MiBench/telecomm-gsm/telecomm-gsm, 0.0890, 0.0904, 0.0904,0.0904, 0.0885, 0.0900, 0.0899,0.0899
MultiSource/Benchmarks/NPB-serial/is/is, 4.5197, 4.4903, 4.4836,4.4903, 4.5199, 4.5195, 4.4834,4.5195
MultiSource/Benchmarks/Olden/bh/bh, 1.1635, 1.1638, 1.1637,1.1637, 1.1642, 1.1648, 1.1645,1.1645
MultiSource/Benchmarks/Olden/bisort/bisort, 0.3739, 0.3736, 0.3741,0.3739, 0.3736, 0.3741, 0.3735,0.3736
MultiSource/Benchmarks/Olden/em3d/em3d, 1.5189, 1.5191, 1.5186,1.5189, 1.5188, 1.5190, 1.5186,1.5188
MultiSource/Benchmarks/Olden/health/health, 0.1360, 0.1361, 0.1358,0.136, 0.1360, 0.1360, 0.1359,0.136
MultiSource/Benchmarks/Olden/mst/mst, 0.0544, 0.0544, 0.0546,0.0544, 0.0542, 0.0540, 0.0543,0.0542
MultiSource/Benchmarks/Olden/perimeter/perimeter, 0.1111, 0.1109, 0.1107,0.1109, 0.1108, 0.1108, 0.1109,0.1108
MultiSource/Benchmarks/Olden/power/power, 0.9373, 0.9371, 0.9373,0.9373, 0.9373, 0.9372, 0.9373,0.9373
MultiSource/Benchmarks/Olden/treeadd/treeadd, 0.1142, 0.1141, 0.1142,0.1142, 0.1141, 0.1140, 0.1140,0.114
MultiSource/Benchmarks/Olden/tsp/tsp, 1.0558, 1.0556, 1.0556,1.0556, 1.0561, 1.0555, 1.0558,1.0558
MultiSource/Benchmarks/Olden/voronoi/voronoi, 0.1956, 0.1954, 0.1955,0.1955, 0.1951, 0.1951, 0.1950,0.1951
MultiSource/Benchmarks/PAQ8p/paq8p,39.1254,39.0928,39.0975,39.0975,39.0834,39.0878,39.1109,39.0878
MultiSource/Benchmarks/Prolangs-C++/city/city, 0.0045, 0.0045, 0.0045,0.0045, 0.0045, 0.0045, 0.0045,0.0045
MultiSource/Benchmarks/Prolangs-C++/employ/employ, 0.0059, 0.0059, 0.0059,0.0059, 0.0059, 0.0059, 0.0059,0.0059
MultiSource/Benchmarks/Prolangs-C++/life/life, 0.6415, 0.6394, 0.6450,0.6415, 0.6386, 0.6495, 0.6473,0.6473
MultiSource/Benchmarks/Prolangs-C++/ocean/ocean, 0.0361, 0.0361, 0.0360,0.0361, 0.0361, 0.0361, 0.0361,0.0361
MultiSource/Benchmarks/Prolangs-C++/primes/primes, 0.1893, 0.1886, 0.1888,0.1888, 0.1883, 0.1889, 0.1888,0.1888
MultiSource/Benchmarks/Prolangs-C++/simul/simul, 0.0034, 0.0034, 0.0034,0.0034, 0.0034, 0.0034, 0.0034,0.0034
MultiSource/Benchmarks/Prolangs-C/agrep/agrep, 0.0042, 0.0042, 0.0042,0.0042, 0.0027, 0.0042, 0.0043,0.0042
MultiSource/Benchmarks/Prolangs-C/bison/mybison, 0.0034, 0.0034, 0.0034,0.0034, 0.0019, 0.0033, 0.0034,0.0033
MultiSource/Benchmarks/Prolangs-C/gnugo/gnugo, 0.0241, 0.0242, 0.0242,0.0242, 0.0227, 0.0241, 0.0240,0.024
MultiSource/Benchmarks/Ptrdist/anagram/anagram, 0.5361, 0.5360, 0.5360,0.536, 0.5979, 0.5978, 0.5979,0.5979
MultiSource/Benchmarks/Ptrdist/bc/bc, 0.3261, 0.3262, 0.3262,0.3262, 0.3297, 0.3298, 0.3298,0.3298
MultiSource/Benchmarks/Ptrdist/ft/ft, 0.7266, 0.6904, 0.7171,0.7171, 0.7405, 0.7041, 0.7279,0.7279
MultiSource/Benchmarks/Ptrdist/ks/ks, 0.5843, 0.5833, 0.5868,0.5843, 0.5854, 0.5828, 0.5826,0.5828
MultiSource/Benchmarks/Ptrdist/yacr2/yacr2, 0.4745, 0.4738, 0.4741,0.4741, 0.4739, 0.4743, 0.4739,0.4739
MultiSource/Benchmarks/SciMark2-C/scimark2,37.4286,37.4312,37.4291,37.4291,37.4694,37.4545,37.4526,37.4545
MultiSource/Benchmarks/TSVC/ControlFlow-dbl/ControlFlow-dbl, 3.3173, 3.3115, 3.3150,3.315, 3.3125, 3.3131, 3.3139,3.3131
MultiSource/Benchmarks/TSVC/ControlFlow-flt/ControlFlow-flt, 3.1209, 3.1344, 3.1402,3.1344, 3.1222, 3.1313, 3.1529,3.1313
MultiSource/Benchmarks/TSVC/ControlLoops-dbl/ControlLoops-dbl, 2.2494, 2.2491, 2.2489,2.2491, 2.2490, 2.2478, 2.2483,2.2483
MultiSource/Benchmarks/TSVC/ControlLoops-flt/ControlLoops-flt, 2.0919, 2.0910, 2.0926,2.0919, 2.0921, 2.0897, 2.0864,2.0897
MultiSource/Benchmarks/TSVC/CrossingThresholds-dbl/CrossingThresholds-dbl, 1.8844, 1.8846, 1.8839,1.8844, 1.8835, 1.8841, 1.8836,1.8836
MultiSource/Benchmarks/TSVC/CrossingThresholds-flt/CrossingThresholds-flt, 1.4309, 1.4385, 1.4293,1.4309, 1.4447, 1.4301, 1.4282,1.4301
MultiSource/Benchmarks/TSVC/Equivalencing-dbl/Equivalencing-dbl, 1.2250, 1.2261, 1.2253,1.2253, 1.2257, 1.2253, 1.2268,1.2257
MultiSource/Benchmarks/TSVC/Equivalencing-flt/Equivalencing-flt, 0.8599, 0.8595, 0.8608,0.8599, 0.8615, 0.8618, 0.8600,0.8615
MultiSource/Benchmarks/TSVC/Expansion-dbl/Expansion-dbl, 1.7343, 1.7367, 1.7347,1.7347, 1.7374, 1.7382, 1.7364,1.7374
MultiSource/Benchmarks/TSVC/Expansion-flt/Expansion-flt, 1.0407, 1.0455, 1.0442,1.0442, 1.0374, 1.0332, 1.0440,1.0374
MultiSource/Benchmarks/TSVC/GlobalDataFlow-dbl/GlobalDataFlow-dbl, 2.5201, 2.5203, 2.5194,2.5201, 2.5189, 2.5209, 2.5185,2.5189
MultiSource/Benchmarks/TSVC/GlobalDataFlow-flt/GlobalDataFlow-flt, 1.3284, 1.3304, 1.3361,1.3304, 1.3301, 1.3343, 1.3293,1.3301
MultiSource/Benchmarks/TSVC/IndirectAddressing-dbl/IndirectAddressing-dbl, 2.1866, 2.1843, 2.1835,2.1843, 2.1825, 2.1797, 2.1786,2.1797
MultiSource/Benchmarks/TSVC/IndirectAddressing-flt/IndirectAddressing-flt, 1.9925, 1.9914, 1.9921,1.9921, 1.9941, 1.9906, 1.9929,1.9929
MultiSource/Benchmarks/TSVC/InductionVariable-dbl/InductionVariable-dbl, 2.6931, 2.6909, 2.6935,2.6931, 2.6882, 2.6971, 2.6929,2.6929
MultiSource/Benchmarks/TSVC/InductionVariable-flt/InductionVariable-flt, 2.2722, 2.2681, 2.2718,2.2718, 2.2733, 2.2716, 2.2785,2.2733
MultiSource/Benchmarks/TSVC/LinearDependence-dbl/LinearDependence-dbl, 5.0648, 5.0683, 5.0659,5.0659, 5.0627, 5.0608, 5.0672,5.0627
MultiSource/Benchmarks/TSVC/LinearDependence-flt/LinearDependence-flt, 4.4241, 4.4241, 4.4263,4.4241, 4.4275, 4.4227, 4.4229,4.4229
MultiSource/Benchmarks/TSVC/LoopRerolling-dbl/LoopRerolling-dbl, 4.0813, 4.0814, 4.0810,4.0813, 4.0816, 4.0810, 4.0815,4.0815
MultiSource/Benchmarks/TSVC/LoopRerolling-flt/LoopRerolling-flt, 3.4025, 3.4041, 3.4082,3.4041, 3.4024, 3.4018, 3.4044,3.4024
MultiSource/Benchmarks/TSVC/LoopRestructuring-dbl/LoopRestructuring-dbl, 3.1604, 3.1534, 3.1691,3.1604, 3.1716, 3.1553, 3.1581,3.1581
MultiSource/Benchmarks/TSVC/LoopRestructuring-flt/LoopRestructuring-flt, 2.5338, 2.5801, 2.5882,2.5801, 2.4186, 2.4897, 2.5377,2.4897
MultiSource/Benchmarks/TSVC/NodeSplitting-dbl/NodeSplitting-dbl, 4.4581, 4.4603, 4.4597,4.4597, 4.4581, 4.4580, 4.4584,4.4581
MultiSource/Benchmarks/TSVC/NodeSplitting-flt/NodeSplitting-flt, 4.1420, 4.1395, 4.1377,4.1395, 4.1420, 4.1389, 4.1404,4.1404
MultiSource/Benchmarks/TSVC/Packing-dbl/Packing-dbl, 2.0190, 2.0186, 2.0183,2.0186, 2.0188, 2.0200, 2.0202,2.02
MultiSource/Benchmarks/TSVC/Packing-flt/Packing-flt, 1.8649, 1.8682, 1.8598,1.8649, 1.8636, 1.8578, 1.8523,1.8578
MultiSource/Benchmarks/TSVC/Recurrences-dbl/Recurrences-dbl, 3.1149, 3.1149, 3.1149,3.1149, 3.1149, 3.1148, 3.1151,3.1149
MultiSource/Benchmarks/TSVC/Recurrences-flt/Recurrences-flt, 3.1147, 3.1147, 3.1147,3.1147, 3.1146, 3.1144, 3.1147,3.1146
MultiSource/Benchmarks/TSVC/Reductions-dbl/Reductions-dbl, 3.0605, 3.0605, 3.0605,3.0605, 3.0605, 3.0604, 3.0607,3.0605
MultiSource/Benchmarks/TSVC/Reductions-flt/Reductions-flt, 5.2803, 5.2803, 5.2803,5.2803, 5.2804, 5.2801, 5.2803,5.2803
MultiSource/Benchmarks/TSVC/Searching-dbl/Searching-dbl, 2.0237, 2.0241, 2.0244,2.0241, 2.0245, 2.0245, 2.0243,2.0245
MultiSource/Benchmarks/TSVC/Searching-flt/Searching-flt, 2.1646, 2.1654, 2.1646,2.1646, 2.1646, 2.1655, 2.1655,2.1655
MultiSource/Benchmarks/TSVC/StatementReordering-dbl/StatementReordering-dbl, 1.9871, 1.9847, 1.9901,1.9871, 1.9865, 1.9837, 1.9894,1.9865
MultiSource/Benchmarks/TSVC/StatementReordering-flt/StatementReordering-flt, 1.6206, 1.6206, 1.6216,1.6206, 1.6205, 1.6188, 1.6190,1.619
MultiSource/Benchmarks/TSVC/Symbolics-dbl/Symbolics-dbl, 2.1657, 2.1652, 2.1655,2.1655, 2.1642, 2.1661, 2.1657,2.1657
MultiSource/Benchmarks/TSVC/Symbolics-flt/Symbolics-flt, 1.2380, 1.2323, 1.2358,1.2358, 1.2337, 1.2325, 1.2366,1.2337
MultiSource/Benchmarks/Trimaran/enc-3des/enc-3des, 1.1461, 1.1466, 1.1472,1.1466, 1.1466, 1.1471, 1.1472,1.1471
MultiSource/Benchmarks/Trimaran/enc-md5/enc-md5, 1.0892, 1.0893, 1.0893,1.0893, 1.0892, 1.0892, 1.0893,1.0892
MultiSource/Benchmarks/Trimaran/enc-pc1/enc-pc1, 0.3061, 0.3061, 0.3061,0.3061, 0.3061, 0.3061, 0.3061,0.3061
MultiSource/Benchmarks/Trimaran/enc-rc4/enc-rc4, 0.6399, 0.6397, 0.6397,0.6397, 0.6436, 0.6396, 0.6396,0.6396
MultiSource/Benchmarks/Trimaran/netbench-crc/netbench-crc, 0.5547, 0.5544, 0.5544,0.5544, 0.5542, 0.5542, 0.5542,0.5542
MultiSource/Benchmarks/Trimaran/netbench-url/netbench-url, 2.6523, 2.6522, 2.6521,2.6522, 2.6522, 2.6522, 2.6524,2.6522
MultiSource/Benchmarks/VersaBench/8b10b/8b10b, 3.2022, 3.2103, 3.2152,3.2103, 3.2156, 3.2072, 3.1986,3.2072
MultiSource/Benchmarks/VersaBench/beamformer/beamformer, 0.6674, 0.6675, 0.6674,0.6674, 0.6674, 0.6674, 0.6673,0.6674
MultiSource/Benchmarks/VersaBench/bmm/bmm, 1.4728, 1.4726, 1.4727,1.4727, 1.4727, 1.4726, 1.4725,1.4726
MultiSource/Benchmarks/VersaBench/dbms/dbms, 0.8835, 0.8857, 0.8815,0.8835, 0.8809, 0.8785, 0.8801,0.8801
MultiSource/Benchmarks/VersaBench/ecbdes/ecbdes, 1.5064, 1.5064, 1.5065,1.5064, 1.4073, 1.4072, 1.4072,1.4072
MultiSource/Benchmarks/llubenchmark/llu, 5.1384, 5.1502, 5.1755,5.1502, 5.1214, 5.1388, 5.2124,5.1388
MultiSource/Benchmarks/mafft/pairlocalalign,21.9297,21.9288,21.9279,21.9288,21.9779,21.9789,21.9788,21.9788
MultiSource/Benchmarks/mediabench/adpcm/rawcaudio/rawcaudio, 0.0047, 0.0047, 0.0047,0.0047, 0.0046, 0.0046, 0.0046,0.0046
MultiSource/Benchmarks/mediabench/adpcm/rawdaudio/rawdaudio, 0.0031, 0.0031, 0.0031,0.0031, 0.0032, 0.0041, 0.0031,0.0032
MultiSource/Benchmarks/mediabench/g721/g721encode/encode, 0.0282, 0.0282, 0.0282,0.0282, 0.0281, 0.0282, 0.0281,0.0281
MultiSource/Benchmarks/mediabench/gsm/toast/toast, 0.0134, 0.0133, 0.0133,0.0133, 0.0133, 0.0133, 0.0133,0.0133
MultiSource/Benchmarks/mediabench/jpeg/jpeg-6a/cjpeg, 0.0043, 0.0043, 0.0044,0.0043, 0.0044, 0.0045, 0.0044,0.0044
MultiSource/Benchmarks/mediabench/mpeg2/mpeg2dec/mpeg2decode, 0.0130, 0.0131, 0.0131,0.0131, 0.0130, 0.0131, 0.0131,0.0131
MultiSource/Benchmarks/nbench/nbench, 1.1313, 1.1322, 1.1313,1.1313, 1.1324, 1.1315, 1.1317,1.1317
MultiSource/Benchmarks/sim/sim, 2.2878, 2.2875, 2.2903,2.2878, 2.2913, 2.2893, 2.2892,2.2893
MultiSource/Benchmarks/tramp3d-v4/tramp3d-v4, 0.2181, 0.2186, 0.2185,0.2185, 0.2182, 0.2183, 0.2181,0.2182
SingleSource/Benchmarks/Adobe-C++/functionobjects, 2.6862, 2.6859, 2.6874,2.6862, 2.6944, 2.6947, 2.6943,2.6944
SingleSource/Benchmarks/Adobe-C++/loop_unroll, 1.5797, 1.5802, 1.5822,1.5802, 1.6805, 1.6798, 1.6781,1.6798
SingleSource/Benchmarks/Adobe-C++/simple_types_constant_folding, 0.5913, 0.5913, 0.5913,0.5913, 0.5913, 0.5913, 0.5913,0.5913
SingleSource/Benchmarks/Adobe-C++/simple_types_loop_invariant, 1.4182, 1.4183, 1.4179,1.4182, 1.4184, 1.4184, 1.4185,1.4184
SingleSource/Benchmarks/Adobe-C++/stepanov_abstraction, 3.7961, 3.7947, 3.7948,3.7948, 3.7672, 3.7671, 3.7665,3.7671
SingleSource/Benchmarks/Adobe-C++/stepanov_vector, 2.0521, 2.0526, 2.0528,2.0526, 2.0036, 2.0037, 2.0035,2.0036
SingleSource/Benchmarks/BenchmarkGame/Large/fasta, 0.5746, 0.5748, 0.5749,0.5748, 0.5743, 0.5750, 0.5743,0.5743
SingleSource/Benchmarks/BenchmarkGame/fannkuch, 1.8585, 1.8601, 1.8589,1.8589, 1.8593, 1.8607, 1.8582,1.8593
SingleSource/Benchmarks/BenchmarkGame/n-body, 1.2217, 1.2217, 1.2217,1.2217, 1.2218, 1.2217, 1.2217,1.2217
SingleSource/Benchmarks/BenchmarkGame/nsieve-bits, 0.5186, 0.5210, 0.5230,0.521, 0.5254, 0.5232, 0.5219,0.5232
SingleSource/Benchmarks/BenchmarkGame/partialsums, 0.5059, 0.5059, 0.5059,0.5059, 0.5059, 0.5059, 0.5059,0.5059
SingleSource/Benchmarks/BenchmarkGame/puzzle, 0.1163, 0.1164, 0.1174,0.1164, 0.1200, 0.1184, 0.1188,0.1188
SingleSource/Benchmarks/BenchmarkGame/recursive, 0.6268, 0.6287, 0.6267,0.6268, 0.6344, 0.6266, 0.6265,0.6266
SingleSource/Benchmarks/BenchmarkGame/spectral-norm, 0.8691, 0.8691, 0.8691,0.8691, 0.8691, 0.8691, 0.8691,0.8691
SingleSource/Benchmarks/CoyoteBench/almabench,11.2319,11.2313,11.2316,11.2316,11.2325,11.2311,11.2311,11.2311
SingleSource/Benchmarks/CoyoteBench/fftbench, 0.7131, 0.7080, 0.7080,0.708, 0.7049, 0.7127, 0.7104,0.7104
SingleSource/Benchmarks/CoyoteBench/huffbench, 8.0633, 8.0597, 8.0640,8.0633, 8.0624, 8.0558, 8.0594,8.0594
SingleSource/Benchmarks/CoyoteBench/lpbench, 2.7606, 2.7606, 2.7567,2.7606, 2.7575, 2.7549, 2.7529,2.7549
SingleSource/Benchmarks/Dhrystone/dry, 0.2710, 0.2710, 0.2710,0.271, 0.2710, 0.2710, 0.2710,0.271
SingleSource/Benchmarks/Dhrystone/fldry, 0.3251, 0.3251, 0.3251,0.3251, 0.3251, 0.3251, 0.3251,0.3251
SingleSource/Benchmarks/Linpack/linpack-pc, 1.1122, 1.1051, 1.1105,1.1105, 1.1053, 1.1094, 1.1198,1.1094
SingleSource/Benchmarks/McGill/chomp, 1.1018, 1.1074, 1.1050,1.105, 1.1074, 1.1093, 1.1113,1.1093
SingleSource/Benchmarks/McGill/misr, 0.0902, 0.0902, 0.0902,0.0902, 0.0902, 0.0902, 0.0902,0.0902
SingleSource/Benchmarks/McGill/queens, 1.5575, 1.5575, 1.5574,1.5575, 1.5584, 1.5580, 1.5580,1.558
SingleSource/Benchmarks/Misc-C++-EH/spirit, 2.3143, 2.3139, 2.3143,2.3143, 2.3165, 2.3167, 2.3161,2.3165
SingleSource/Benchmarks/Misc-C++/Large/ray, 2.7919, 2.7917, 2.7917,2.7917, 2.7919, 2.7917, 2.7916,2.7917
SingleSource/Benchmarks/Misc-C++/Large/sphereflake, 4.9897, 4.9898, 4.9897,4.9897, 4.9901, 4.9897, 4.9898,4.9898
SingleSource/Benchmarks/Misc-C++/bigfib, 0.1729, 0.1728, 0.1727,0.1728, 0.1726, 0.1725, 0.1725,0.1725
SingleSource/Benchmarks/Misc-C++/mandel-text, 1.4327, 1.4296, 1.4289,1.4296, 1.4318, 1.4311, 1.4324,1.4318
SingleSource/Benchmarks/Misc-C++/oopack_v1p8, 0.1441, 0.1441, 0.1441,0.1441, 0.1441, 0.1441, 0.1441,0.1441
SingleSource/Benchmarks/Misc-C++/stepanov_container, 3.5775, 3.5691, 3.5697,3.5697, 3.5220, 3.5469, 3.5574,3.5469
SingleSource/Benchmarks/Misc-C++/stepanov_v1p2, 7.0319, 7.0318, 7.0318,7.0318, 7.0323, 7.0319, 7.0318,7.0319
SingleSource/Benchmarks/Misc/ReedSolomon, 2.8117, 2.7859, 2.7855,2.7859, 2.7868, 2.7857, 2.7855,2.7857
SingleSource/Benchmarks/Misc/dt, 0.5933, 0.5933, 0.5933,0.5933, 0.5933, 0.5933, 0.5933,0.5933
SingleSource/Benchmarks/Misc/evalloop, 0.3248, 0.3263, 0.3250,0.325, 0.3263, 0.3265, 0.3255,0.3263
SingleSource/Benchmarks/Misc/fbench, 1.5246, 1.5245, 1.5245,1.5245, 1.5246, 1.5246, 1.5245,1.5246
SingleSource/Benchmarks/Misc/ffbench, 0.5115, 0.5129, 0.5127,0.5127, 0.5115, 0.5107, 0.5114,0.5114
SingleSource/Benchmarks/Misc/flops, 9.4740, 9.4566, 9.4752,9.474, 9.4763, 9.4558, 9.3910,9.4558
SingleSource/Benchmarks/Misc/flops-1, 3.1883, 3.1879, 3.1880,3.188, 3.1887, 3.1879, 3.1884,3.1884
SingleSource/Benchmarks/Misc/flops-2, 0.7674, 0.7673, 0.7674,0.7674, 0.7674, 0.7674, 0.7674,0.7674
SingleSource/Benchmarks/Misc/flops-3, 4.8160, 4.8159, 4.8159,4.8159, 4.8163, 5.0694, 4.8159,4.8163
SingleSource/Benchmarks/Misc/flops-4, 2.0704, 2.0704, 2.0704,2.0704, 2.0705, 2.1549, 2.1549,2.1549
SingleSource/Benchmarks/Misc/flops-5, 3.8040, 3.8039, 3.8039,3.8039, 3.8042, 3.8040, 3.8030,3.804
SingleSource/Benchmarks/Misc/flops-6, 3.0423, 3.0422, 2.9576,3.0422, 3.0425, 3.0423, 3.0621,3.0425
SingleSource/Benchmarks/Misc/flops-7, 1.4146, 1.4146, 1.4146,1.4146, 1.4147, 1.4147, 1.4146,1.4147
SingleSource/Benchmarks/Misc/flops-8, 2.5773, 2.5773, 2.5773,2.5773, 2.5352, 2.6195, 2.6195,2.6195
SingleSource/Benchmarks/Misc/fp-convert, 2.3401, 2.3401, 2.3400,2.3401, 2.3402, 2.3401, 2.3400,2.3401
SingleSource/Benchmarks/Misc/himenobmtxpa, 0.4938, 0.4932, 0.4920,0.4932, 0.4966, 0.5040, 0.4912,0.4966
SingleSource/Benchmarks/Misc/lowercase, 0.0007, 0.0007, 0.0007,0.0007, 0.0007, 0.0007, 0.0007,0.0007
SingleSource/Benchmarks/Misc/mandel, 0.7417, 0.7417, 0.7417,0.7417, 0.7417, 0.7417, 0.7417,0.7417
SingleSource/Benchmarks/Misc/mandel-2, 1.1369, 1.1369, 1.1369,1.1369, 1.1370, 1.1369, 1.1369,1.1369
SingleSource/Benchmarks/Misc/matmul_f64_4x4, 1.1523, 1.1523, 1.1523,1.1523, 1.1524, 1.1523, 1.1523,1.1523
SingleSource/Benchmarks/Misc/oourafft, 5.3531, 5.3531, 5.3539,5.3531, 5.3534, 5.4410, 5.3535,5.3535
SingleSource/Benchmarks/Misc/perlin, 3.4531, 3.4531, 3.4525,3.4531, 3.4527, 3.4527, 3.4522,3.4527
SingleSource/Benchmarks/Misc/pi, 0.6176, 0.6176, 0.6176,0.6176, 0.6176, 0.6176, 0.6176,0.6176
SingleSource/Benchmarks/Misc/revertBits, 0.2931, 0.2931, 0.2931,0.2931, 0.2931, 0.2931, 0.2931,0.2931
SingleSource/Benchmarks/Misc/richards_benchmark, 0.4422, 0.4427, 0.4426,0.4426, 0.4423, 0.4430, 0.4424,0.4424
SingleSource/Benchmarks/Misc/salsa20, 4.1086, 3.7023, 4.1088,4.1086, 4.3903, 3.9741, 4.3898,4.3898
SingleSource/Benchmarks/Misc/whetstone, 0.9132, 0.9141, 0.9040,0.9132, 0.9141, 0.9131, 0.9142,0.9141
SingleSource/Benchmarks/Polybench/datamining/correlation/correlation, 1.7125, 1.7140, 1.7123,1.7125, 1.7102, 1.7120, 1.7141,1.712
SingleSource/Benchmarks/Polybench/datamining/covariance/covariance, 1.7060, 1.7006, 1.7022,1.7022, 1.7038, 1.7046, 1.7017,1.7038
SingleSource/Benchmarks/Polybench/linear-algebra/kernels/atax/atax, 0.1552, 0.1551, 0.1552,0.1552, 0.1552, 0.1552, 0.1552,0.1552
SingleSource/Benchmarks/Polybench/linear-algebra/kernels/bicg/bicg, 0.1933, 0.1934, 0.1934,0.1934, 0.1934, 0.1933, 0.1933,0.1933
SingleSource/Benchmarks/Polybench/linear-algebra/kernels/cholesky/cholesky, 0.4319, 0.4260, 0.4248,0.426, 0.4250, 0.4298, 0.4253,0.4253
SingleSource/Benchmarks/Polybench/linear-algebra/kernels/doitgen/doitgen, 0.6950, 0.6958, 0.6952,0.6952, 0.6953, 0.6981, 0.6957,0.6957
SingleSource/Benchmarks/Polybench/linear-algebra/kernels/gemver/gemver, 0.3139, 0.3143, 0.3138,0.3139, 0.3119, 0.3150, 0.3138,0.3138
SingleSource/Benchmarks/Polybench/linear-algebra/kernels/gesummv/gesummv, 0.2804, 0.2805, 0.2804,0.2804, 0.2805, 0.2805, 0.2762,0.2805
SingleSource/Benchmarks/Polybench/linear-algebra/kernels/mvt/mvt, 0.2299, 0.2255, 0.2301,0.2299, 0.2299, 0.2257, 0.2298,0.2298
SingleSource/Benchmarks/Polybench/linear-algebra/kernels/symm/symm,23.5219,23.5436,23.4381,23.5219,22.9694,23.1804,23.2787,23.1804
SingleSource/Benchmarks/Polybench/linear-algebra/kernels/syr2k/syr2k, 8.1996, 8.2002, 7.8964,8.1996, 8.2008, 8.2008, 8.2003,8.2008
SingleSource/Benchmarks/Polybench/linear-algebra/kernels/syrk/syrk, 3.9257, 4.1169, 3.9015,3.9257, 3.9017, 4.1177, 4.1174,4.1174
SingleSource/Benchmarks/Polybench/linear-algebra/kernels/trisolv/trisolv, 0.1585, 0.1585, 0.1585,0.1585, 0.1585, 0.1585, 0.1585,0.1585
SingleSource/Benchmarks/Polybench/linear-algebra/kernels/trmm/trmm, 2.0456, 2.0377, 2.1322,2.0456, 2.1353, 2.1354, 2.1399,2.1354
SingleSource/Benchmarks/Polybench/linear-algebra/solvers/durbin/durbin, 0.3972, 0.3943, 0.3947,0.3947, 0.3947, 0.3979, 0.3954,0.3954
SingleSource/Benchmarks/Polybench/linear-algebra/solvers/dynprog/dynprog, 0.2499, 0.2502, 0.2500,0.25, 0.2505, 0.2500, 0.2501,0.2501
SingleSource/Benchmarks/Polybench/linear-algebra/solvers/gramschmidt/gramschmidt, 1.7586, 2.1030, 1.7370,1.7586, 1.6469, 2.0384, 1.7891,1.7891
SingleSource/Benchmarks/Polybench/linear-algebra/solvers/lu/lu, 0.0019, 0.0019, 0.0019,0.0019, 0.0019, 0.0019, 0.0019,0.0019
SingleSource/Benchmarks/Polybench/medley/floyd-warshall/floyd-warshall, 5.3797, 5.3781, 5.3773,5.3781, 5.3772, 5.3780, 5.3806,5.378
SingleSource/Benchmarks/Polybench/medley/reg_detect/reg_detect, 0.0138, 0.0138, 0.0138,0.0138, 0.0138, 0.0138, 0.0138,0.0138
SingleSource/Benchmarks/Polybench/stencils/adi/adi, 2.5287, 2.5278, 2.5266,2.5278, 2.5187, 2.5231, 2.5316,2.5231
SingleSource/Benchmarks/Polybench/stencils/fdtd-2d/fdtd-2d, 0.5597, 0.5571, 0.5594,0.5594, 0.5595, 0.5586, 0.5604,0.5595
SingleSource/Benchmarks/Polybench/stencils/fdtd-apml/fdtd-apml, 0.6476, 0.6495, 0.6493,0.6493, 0.6518, 0.6479, 0.6545,0.6518
SingleSource/Benchmarks/Polybench/stencils/jacobi-1d-imper/jacobi-1d-imper, 0.0032, 0.0032, 0.0032,0.0032, 0.0032, 0.0032, 0.0033,0.0032
SingleSource/Benchmarks/Polybench/stencils/jacobi-2d-imper/jacobi-2d-imper, 0.1658, 0.1659, 0.1654,0.1658, 0.1664, 0.1654, 0.1666,0.1664
SingleSource/Benchmarks/Polybench/stencils/seidel-2d/seidel-2d, 0.5868, 0.5867, 0.5867,0.5867, 0.5868, 0.5867, 0.5867,0.5867
SingleSource/Benchmarks/Shootout-C++/EH/except, 0.1091, 0.1071, 0.1094,0.1091, 0.1087, 0.1077, 0.1079,0.1079
SingleSource/Benchmarks/Shootout-C++/ackermann, 0.5847, 0.5847, 0.5848,0.5847, 0.5847, 0.5847, 0.5846,0.5847
SingleSource/Benchmarks/Shootout-C++/ary, 0.0200, 0.0200, 0.0200,0.02, 0.0201, 0.0200, 0.0201,0.0201
SingleSource/Benchmarks/Shootout-C++/ary2, 0.0201, 0.0201, 0.0201,0.0201, 0.0201, 0.0201, 0.0201,0.0201
SingleSource/Benchmarks/Shootout-C++/ary3, 0.9616, 0.9557, 0.9582,0.9582, 0.9527, 0.9635, 0.9479,0.9527
SingleSource/Benchmarks/Shootout-C++/fibo, 1.3140, 1.3138, 1.3152,1.314, 1.3155, 1.3157, 1.3149,1.3155
SingleSource/Benchmarks/Shootout-C++/hash, 0.2794, 0.2777, 0.2792,0.2792, 0.2792, 0.2804, 0.2786,0.2792
SingleSource/Benchmarks/Shootout-C++/hash2, 1.5332, 1.5323, 1.5327,1.5327, 1.5389, 1.5401, 1.5405,1.5401
SingleSource/Benchmarks/Shootout-C++/heapsort, 2.3322, 2.3259, 2.3255,2.3259, 2.3374, 2.3235, 2.3343,2.3343
SingleSource/Benchmarks/Shootout-C++/lists, 2.5800, 2.5637, 2.5627,2.5637, 2.5682, 2.5706, 2.5771,2.5706
SingleSource/Benchmarks/Shootout-C++/lists1, 0.1210, 0.1199, 0.1192,0.1199, 0.1198, 0.1205, 0.1227,0.1205
SingleSource/Benchmarks/Shootout-C++/matrix, 1.0247, 1.0008, 1.0008,1.0008, 1.0010, 1.0007, 1.0008,1.0008
SingleSource/Benchmarks/Shootout-C++/methcall, 3.0691, 3.0737, 3.0691,3.0691, 3.0693, 3.0691, 3.0690,3.0691
SingleSource/Benchmarks/Shootout-C++/moments, 0.0480, 0.0480, 0.0481,0.048, 0.0480, 0.0480, 0.0480,0.048
SingleSource/Benchmarks/Shootout-C++/nestedloop, 0.0007, 0.0007, 0.0007,0.0007, 0.0007, 0.0007, 0.0007,0.0007
SingleSource/Benchmarks/Shootout-C++/objinst, 0.0007, 0.0007, 0.0007,0.0007, 0.0007, 0.0007, 0.0007,0.0007
SingleSource/Benchmarks/Shootout-C++/random, 1.5524, 1.5524, 1.5523,1.5524, 1.5525, 1.5524, 1.5523,1.5524
SingleSource/Benchmarks/Shootout-C++/sieve, 1.1891, 1.1524, 1.1911,1.1891, 1.1517, 1.2501, 1.1974,1.1974
SingleSource/Benchmarks/Shootout-C++/strcat, 0.0380, 0.0379, 0.0379,0.0379, 0.0380, 0.0379, 0.0379,0.0379
SingleSource/Benchmarks/Shootout/ackermann, 0.0030, 0.0030, 0.0030,0.003, 0.0030, 0.0030, 0.0030,0.003
SingleSource/Benchmarks/Shootout/ary3, 0.9741, 0.9811, 0.9762,0.9762, 0.9705, 0.9858, 0.9605,0.9705
SingleSource/Benchmarks/Shootout/fib2, 1.3156, 1.3148, 1.3165,1.3156, 1.3147, 1.3157, 1.3197,1.3157
SingleSource/Benchmarks/Shootout/hash, 2.5695, 2.5733, 2.5627,2.5695, 2.5609, 2.5613, 2.5564,2.5609
SingleSource/Benchmarks/Shootout/heapsort, 2.3255, 2.3304, 2.3211,2.3255, 2.3315, 2.3254, 2.3282,2.3282
SingleSource/Benchmarks/Shootout/lists, 3.6709, 3.6703, 3.6693,3.6703, 3.5047, 3.5045, 3.5039,3.5045
SingleSource/Benchmarks/Shootout/matrix, 0.9411, 0.9416, 0.9417,0.9416, 0.9415, 0.9413, 0.9418,0.9415
SingleSource/Benchmarks/Shootout/methcall, 2.9144, 2.9146, 2.9150,2.9146, 2.9149, 2.9149, 2.9145,2.9149
SingleSource/Benchmarks/Shootout/nestedloop, 0.0007, 0.0007, 0.0007,0.0007, 0.0007, 0.0007, 0.0007,0.0007
SingleSource/Benchmarks/Shootout/objinst, 0.0007, 0.0007, 0.0007,0.0007, 0.0007, 0.0007, 0.0007,0.0007
SingleSource/Benchmarks/Shootout/random, 1.5523, 1.5523, 1.5523,1.5523, 1.5524, 1.5523, 1.5523,1.5523
SingleSource/Benchmarks/Shootout/sieve, 3.0841, 3.0859, 3.0840,3.0841, 3.0849, 3.0878, 3.0914,3.0878
SingleSource/Benchmarks/Shootout/strcat, 0.0979, 0.0980, 0.0980,0.098, 0.0980, 0.0979, 0.0979,0.0979
SingleSource/Benchmarks/SmallPT/smallpt, 6.7181, 6.7162, 6.7172,6.7172, 6.7097, 6.7109, 6.7194,6.7109
SingleSource/Benchmarks/Stanford/Bubblesort, 0.0140, 0.0140, 0.0140,0.014, 0.0141, 0.0140, 0.0141,0.0141
SingleSource/Benchmarks/Stanford/FloatMM, 0.1790, 0.1780, 0.1790,0.179, 0.1790, 0.1780, 0.1790,0.179
SingleSource/Benchmarks/Stanford/Oscar, 0.0029, 0.0029, 0.0029,0.0029, 0.0022, 0.0022, 0.0022,0.0022
SingleSource/Benchmarks/Stanford/Perm, 0.0130, 0.0130, 0.0130,0.013, 0.0130, 0.0130, 0.0130,0.013
SingleSource/Benchmarks/Stanford/Puzzle, 0.0706, 0.0706, 0.0707,0.0706, 0.0707, 0.0706, 0.0706,0.0706
SingleSource/Benchmarks/Stanford/Queens, 0.0063, 0.0063, 0.0066,0.0063, 0.0062, 0.0064, 0.0063,0.0063
SingleSource/Benchmarks/Stanford/Quicksort, 0.0269, 0.0269, 0.0269,0.0269, 0.0269, 0.0269, 0.0269,0.0269
SingleSource/Benchmarks/Stanford/RealMM, 0.0013, 0.0013, 0.0013,0.0013, 0.0013, 0.0013, 0.0013,0.0013
SingleSource/Benchmarks/Stanford/Towers, 0.0074, 0.0074, 0.0074,0.0074, 0.0074, 0.0074, 0.0074,0.0074
SingleSource/Benchmarks/Stanford/Treesort, 0.0484, 0.0485, 0.0485,0.0485, 0.0499, 0.0498, 0.0498,0.0498
SingleSource/Regression/C/2004-08-12-InlinerAndAllocas, 0.0012, 0.0012, 0.0012,0.0012, 0.0012, 0.0012, 0.0012,0.0012
SingleSource/Regression/C/uint64_to_float, 0.2193, 0.2194, 0.2193,0.2193, 0.2193, 0.2194, 0.2193,0.2193
Total elapsed time,-,-,-,543.6979000000002,-,-,-,543.9085000000005
Total failure,-,-,-,0,-,-,-,0
