Benchmarks,/mnt/freezedisk/llvm-intptr-insts-release/bin/clang,/mnt/freezedisk/llvm-intptr-insts-release/bin/clang,/mnt/freezedisk/llvm-intptr-insts-release/bin/clang,median
MultiSource/Applications/ALAC/decode/alacconvert-decode, 0.0141, 0.0141, 0.0143,0.0141
MultiSource/Applications/ALAC/encode/alacconvert-encode, 0.0283, 0.0283, 0.0283,0.0283
MultiSource/Applications/ClamAV/clamscan, 0.1555, 0.1688, 0.1827,0.1688
MultiSource/Applications/JM/ldecod/ldecod, 0.0362, 0.0362, 0.0364,0.0362
MultiSource/Applications/JM/lencod/lencod, 3.2568, 3.2638, 3.2666,3.2638
MultiSource/Applications/SIBsim4/SIBsim4, 2.0843, 2.1276, 2.1456,2.1276
MultiSource/Applications/SPASS/SPASS, 6.6955, 6.8060, 6.6826,6.6955
MultiSource/Applications/aha/aha, 1.0731, 1.0736, 1.0734,1.0734
MultiSource/Applications/d/make_dparser, 0.0159, 0.0157, 0.0159,0.0159
MultiSource/Applications/hbd/hbd, 0.0019, 0.0017, 0.0019,0.0019
MultiSource/Applications/hexxagon/hexxagon, 6.8372, 6.8364, 6.8370,6.837
MultiSource/Applications/kimwitu++/kc, 0.0282, 0.0280, 0.0283,0.0282
MultiSource/Applications/lambda-0.1.3/lambda, 2.6782, 2.6743, 2.6730,2.6743
MultiSource/Applications/lua/lua,11.5139,11.5058,11.5144,11.5139
MultiSource/Applications/minisat/minisat, 4.2104, 4.2125, 4.2055,4.2104
MultiSource/Applications/obsequi/Obsequi, 1.0788, 1.0791, 1.0799,1.0791
MultiSource/Applications/oggenc/oggenc, 0.1441, 0.0813, 0.0862,0.0862
MultiSource/Applications/sgefa/sgefa, 0.1153, 0.1151, 0.1153,0.1153
MultiSource/Applications/siod/siod, 1.1003, 1.0976, 1.0999,1.0999
MultiSource/Applications/spiff/spiff, 1.2872, 1.2869, 1.2842,1.2869
MultiSource/Applications/sqlite3/sqlite3, 1.7934, 1.8087, 1.7878,1.7934
MultiSource/Applications/viterbi/viterbi, 1.2676, 1.2693, 1.2677,1.2677
MultiSource/Benchmarks/7zip/7zip-benchmark, 6.3920, 6.3928, 6.4019,6.3928
MultiSource/Benchmarks/ASCI_Purple/SMG2000/smg2000, 1.1721, 1.1767, 1.1706,1.1721
MultiSource/Benchmarks/ASC_Sequoia/AMGmk/AMGmk, 5.0754, 5.0779, 5.0711,5.0754
MultiSource/Benchmarks/ASC_Sequoia/CrystalMk/CrystalMk, 6.7171, 6.7165, 6.7159,6.7165
MultiSource/Benchmarks/ASC_Sequoia/IRSmk/IRSmk, 3.0328, 2.9969, 3.0147,3.0147
MultiSource/Benchmarks/BitBench/drop3/drop3, 0.1842, 0.1756, 0.1834,0.1834
MultiSource/Benchmarks/BitBench/five11/five11, 1.1150, 1.1198, 1.1195,1.1195
MultiSource/Benchmarks/BitBench/uudecode/uudecode, 0.0806, 0.0741, 0.0790,0.079
MultiSource/Benchmarks/BitBench/uuencode/uuencode, 0.0110, 0.0110, 0.0111,0.011
MultiSource/Benchmarks/Bullet/bullet, 3.2675, 3.2743, 3.2665,3.2675
MultiSource/Benchmarks/DOE-ProxyApps-C/XSBench/XSBench, 2.4404, 2.4425, 2.4393,2.4404
MultiSource/Benchmarks/Fhourstones-3.1/fhourstones3.1, 0.7968, 0.7967, 0.7967,0.7967
MultiSource/Benchmarks/Fhourstones/fhourstones, 0.6124, 0.6149, 0.6003,0.6124
MultiSource/Benchmarks/FreeBench/analyzer/analyzer, 0.0492, 0.0442, 0.0489,0.0489
MultiSource/Benchmarks/FreeBench/distray/distray, 0.1331, 0.1330, 0.1331,0.1331
MultiSource/Benchmarks/FreeBench/fourinarow/fourinarow, 0.1756, 0.1757, 0.1757,0.1757
MultiSource/Benchmarks/FreeBench/mason/mason, 0.1317, 0.1317, 0.1318,0.1317
MultiSource/Benchmarks/FreeBench/neural/neural, 0.1646, 0.1645, 0.1644,0.1645
MultiSource/Benchmarks/FreeBench/pcompress2/pcompress2, 0.1030, 0.1031, 0.1031,0.1031
MultiSource/Benchmarks/FreeBench/pifft/pifft, 0.0640, 0.0640, 0.0641,0.064
MultiSource/Benchmarks/MallocBench/cfrac/cfrac, 0.7727, 0.7728, 0.7730,0.7728
MultiSource/Benchmarks/MallocBench/espresso/espresso, 0.3062, 0.3064, 0.3064,0.3064
MultiSource/Benchmarks/MallocBench/gs/gs, 0.0231, 0.0230, 0.0233,0.0231
MultiSource/Benchmarks/McCat/01-qbsort/qbsort, 0.0544, 0.0449, 0.0490,0.049
MultiSource/Benchmarks/McCat/03-testtrie/testtrie, 0.0065, 0.0064, 0.0065,0.0065
MultiSource/Benchmarks/McCat/04-bisect/bisect, 0.0791, 0.0791, 0.0791,0.0791
MultiSource/Benchmarks/McCat/05-eks/eks, 0.0036, 0.0036, 0.0036,0.0036
MultiSource/Benchmarks/McCat/08-main/main, 0.0429, 0.0428, 0.0428,0.0428
MultiSource/Benchmarks/McCat/09-vor/vor, 0.0955, 0.0923, 0.0912,0.0923
MultiSource/Benchmarks/McCat/12-IOtest/iotest, 0.2157, 0.2155, 0.2146,0.2155
MultiSource/Benchmarks/McCat/17-bintr/bintr, 0.1495, 0.0856, 0.0900,0.09
MultiSource/Benchmarks/McCat/18-imp/imp, 0.0757, 0.0727, 0.0726,0.0727
MultiSource/Benchmarks/MiBench/automotive-basicmath/automotive-basicmath, 0.2227, 0.2228, 0.2230,0.2228
MultiSource/Benchmarks/MiBench/automotive-bitcount/automotive-bitcount, 0.0623, 0.0576, 0.0592,0.0592
MultiSource/Benchmarks/MiBench/automotive-susan/automotive-susan, 0.0396, 0.0399, 0.0397,0.0397
MultiSource/Benchmarks/MiBench/consumer-jpeg/consumer-jpeg, 0.0030, 0.0031, 0.0030,0.003
MultiSource/Benchmarks/MiBench/consumer-lame/consumer-lame, 0.1179, 0.1180, 0.1178,0.1179
MultiSource/Benchmarks/MiBench/consumer-typeset/consumer-typeset, 0.0990, 0.0970, 0.0906,0.097
MultiSource/Benchmarks/MiBench/network-dijkstra/network-dijkstra, 0.0239, 0.0238, 0.0238,0.0238
MultiSource/Benchmarks/MiBench/network-patricia/network-patricia, 0.0872, 0.0807, 0.0757,0.0807
MultiSource/Benchmarks/MiBench/security-rijndael/security-rijndael, 0.0353, 0.0347, 0.0329,0.0347
MultiSource/Benchmarks/MiBench/security-sha/security-sha, 0.0157, 0.0157, 0.0158,0.0157
MultiSource/Benchmarks/MiBench/telecomm-CRC32/telecomm-CRC32, 0.2072, 0.2065, 0.2008,0.2065
MultiSource/Benchmarks/MiBench/telecomm-FFT/telecomm-fft, 0.0386, 0.0386, 0.0386,0.0386
MultiSource/Benchmarks/MiBench/telecomm-adpcm/telecomm-adpcm, 0.0718, 0.0730, 0.0766,0.073
MultiSource/Benchmarks/MiBench/telecomm-gsm/telecomm-gsm, 0.1180, 0.1181, 0.1180,0.118
MultiSource/Benchmarks/NPB-serial/is/is, 5.2044, 5.2129, 5.2073,5.2073
MultiSource/Benchmarks/Olden/bh/bh, 1.2607, 1.2616, 1.2614,1.2614
MultiSource/Benchmarks/Olden/bisort/bisort, 0.3686, 0.3681, 0.3659,0.3681
MultiSource/Benchmarks/Olden/em3d/em3d, 1.7056, 1.7054, 1.7055,1.7055
MultiSource/Benchmarks/Olden/health/health, 0.1455, 0.1453, 0.1452,0.1453
MultiSource/Benchmarks/Olden/mst/mst, 0.0536, 0.0529, 0.0526,0.0529
MultiSource/Benchmarks/Olden/perimeter/perimeter, 0.1232, 0.1227, 0.1228,0.1228
MultiSource/Benchmarks/Olden/power/power, 0.9764, 0.9764, 0.9765,0.9764
MultiSource/Benchmarks/Olden/treeadd/treeadd, 0.1273, 0.1269, 0.1270,0.127
MultiSource/Benchmarks/Olden/tsp/tsp, 1.0844, 1.0855, 1.0841,1.0844
MultiSource/Benchmarks/Olden/voronoi/voronoi, 0.2118, 0.2114, 0.2114,0.2114
MultiSource/Benchmarks/PAQ8p/paq8p,43.9439,43.9221,43.9209,43.9221
MultiSource/Benchmarks/Prolangs-C++/city/city, 0.0052, 0.0052, 0.0051,0.0052
MultiSource/Benchmarks/Prolangs-C++/employ/employ, 0.0050, 0.0051, 0.0049,0.005
MultiSource/Benchmarks/Prolangs-C++/life/life, 0.7119, 0.7086, 0.7109,0.7109
MultiSource/Benchmarks/Prolangs-C++/ocean/ocean, 0.0362, 0.0363, 0.0364,0.0363
MultiSource/Benchmarks/Prolangs-C++/primes/primes, 0.2136, 0.2137, 0.2135,0.2136
MultiSource/Benchmarks/Prolangs-C++/simul/simul, 0.0039, 0.0040, 0.0040,0.004
MultiSource/Benchmarks/Prolangs-C/agrep/agrep, 0.0173, 0.0030, 0.0030,0.003
MultiSource/Benchmarks/Prolangs-C/bison/mybison, 0.0021, 0.0179, 0.0021,0.0021
MultiSource/Benchmarks/Prolangs-C/gnugo/gnugo, 0.0240, 0.0239, 0.0241,0.024
MultiSource/Benchmarks/Ptrdist/anagram/anagram, 0.6876, 0.6889, 0.6807,0.6876
MultiSource/Benchmarks/Ptrdist/bc/bc, 0.3584, 0.3584, 0.3586,0.3584
MultiSource/Benchmarks/Ptrdist/ft/ft, 0.6343, 0.7039, 0.6341,0.6343
MultiSource/Benchmarks/Ptrdist/ks/ks, 0.6728, 0.6595, 0.6593,0.6595
MultiSource/Benchmarks/Ptrdist/yacr2/yacr2, 0.5086, 0.5087, 0.5086,0.5086
MultiSource/Benchmarks/SciMark2-C/scimark2,43.0938,42.8123,42.8158,42.8158
MultiSource/Benchmarks/TSVC/ControlFlow-dbl/ControlFlow-dbl, 3.6824, 3.6826, 3.6733,3.6824
MultiSource/Benchmarks/TSVC/ControlFlow-flt/ControlFlow-flt, 3.4790, 3.4539, 3.4845,3.479
MultiSource/Benchmarks/TSVC/ControlLoops-dbl/ControlLoops-dbl, 2.5318, 2.5388, 2.5297,2.5318
MultiSource/Benchmarks/TSVC/ControlLoops-flt/ControlLoops-flt, 2.3492, 2.3426, 2.3524,2.3492
MultiSource/Benchmarks/TSVC/CrossingThresholds-dbl/CrossingThresholds-dbl, 2.1502, 2.1720, 2.1496,2.1502
MultiSource/Benchmarks/TSVC/CrossingThresholds-flt/CrossingThresholds-flt, 1.6409, 1.6308, 1.6308,1.6308
MultiSource/Benchmarks/TSVC/Equivalencing-dbl/Equivalencing-dbl, 1.3846, 1.3786, 1.3801,1.3801
MultiSource/Benchmarks/TSVC/Equivalencing-flt/Equivalencing-flt, 0.9671, 0.9695, 0.9688,0.9688
MultiSource/Benchmarks/TSVC/Expansion-dbl/Expansion-dbl, 1.9610, 1.9619, 1.9623,1.9619
MultiSource/Benchmarks/TSVC/Expansion-flt/Expansion-flt, 1.1561, 1.1490, 1.1600,1.1561
MultiSource/Benchmarks/TSVC/GlobalDataFlow-dbl/GlobalDataFlow-dbl, 2.8400, 2.8552, 2.8368,2.84
MultiSource/Benchmarks/TSVC/GlobalDataFlow-flt/GlobalDataFlow-flt, 1.4965, 1.4984, 1.5003,1.4984
MultiSource/Benchmarks/TSVC/IndirectAddressing-dbl/IndirectAddressing-dbl, 2.4922, 2.4734, 2.4734,2.4734
MultiSource/Benchmarks/TSVC/IndirectAddressing-flt/IndirectAddressing-flt, 2.3011, 2.3024, 2.3036,2.3024
MultiSource/Benchmarks/TSVC/InductionVariable-dbl/InductionVariable-dbl, 3.0357, 3.0350, 3.0346,3.035
MultiSource/Benchmarks/TSVC/InductionVariable-flt/InductionVariable-flt, 2.5539, 2.5640, 2.5637,2.5637
MultiSource/Benchmarks/TSVC/LinearDependence-dbl/LinearDependence-dbl, 5.1471, 5.1543, 5.1544,5.1543
MultiSource/Benchmarks/TSVC/LinearDependence-flt/LinearDependence-flt, 4.6206, 4.6173, 4.6168,4.6173
MultiSource/Benchmarks/TSVC/LoopRerolling-dbl/LoopRerolling-dbl, 4.5919, 4.6050, 4.5883,4.5919
MultiSource/Benchmarks/TSVC/LoopRerolling-flt/LoopRerolling-flt, 3.8264, 3.8164, 3.8165,3.8165
MultiSource/Benchmarks/TSVC/LoopRestructuring-dbl/LoopRestructuring-dbl, 3.5775, 3.5812, 3.5837,3.5812
MultiSource/Benchmarks/TSVC/LoopRestructuring-flt/LoopRestructuring-flt, 2.9219, 2.9087, 2.8544,2.9087
MultiSource/Benchmarks/TSVC/NodeSplitting-dbl/NodeSplitting-dbl, 5.0212, 5.0233, 5.0233,5.0233
MultiSource/Benchmarks/TSVC/NodeSplitting-flt/NodeSplitting-flt, 4.6436, 4.6466, 4.6463,4.6463
MultiSource/Benchmarks/TSVC/Packing-dbl/Packing-dbl, 2.3288, 2.3271, 2.3280,2.328
MultiSource/Benchmarks/TSVC/Packing-flt/Packing-flt, 2.1091, 2.0886, 2.0984,2.0984
MultiSource/Benchmarks/TSVC/Recurrences-dbl/Recurrences-dbl, 3.5010, 3.5013, 3.5013,3.5013
MultiSource/Benchmarks/TSVC/Recurrences-flt/Recurrences-flt, 3.5008, 3.5011, 3.5010,3.501
MultiSource/Benchmarks/TSVC/Reductions-dbl/Reductions-dbl, 3.4747, 3.4749, 3.4750,3.4749
MultiSource/Benchmarks/TSVC/Reductions-flt/Reductions-flt, 5.9693, 5.9695, 5.9694,5.9694
MultiSource/Benchmarks/TSVC/Searching-dbl/Searching-dbl, 2.2843, 2.2842, 2.2845,2.2843
MultiSource/Benchmarks/TSVC/Searching-flt/Searching-flt, 2.4469, 2.4489, 2.4493,2.4489
MultiSource/Benchmarks/TSVC/StatementReordering-dbl/StatementReordering-dbl, 2.2353, 2.2317, 2.2339,2.2339
MultiSource/Benchmarks/TSVC/StatementReordering-flt/StatementReordering-flt, 1.8227, 1.8266, 1.8250,1.825
MultiSource/Benchmarks/TSVC/Symbolics-dbl/Symbolics-dbl, 2.4422, 2.4423, 2.4423,2.4423
MultiSource/Benchmarks/TSVC/Symbolics-flt/Symbolics-flt, 1.3904, 1.3969, 1.3901,1.3904
MultiSource/Benchmarks/Trimaran/enc-3des/enc-3des, 1.2819, 1.2820, 1.2819,1.2819
MultiSource/Benchmarks/Trimaran/enc-md5/enc-md5, 1.3938, 1.3939, 1.3939,1.3939
MultiSource/Benchmarks/Trimaran/enc-pc1/enc-pc1, 0.3528, 0.3528, 0.3529,0.3528
MultiSource/Benchmarks/Trimaran/enc-rc4/enc-rc4, 0.7357, 0.7349, 0.7340,0.7349
MultiSource/Benchmarks/Trimaran/netbench-crc/netbench-crc, 0.6214, 0.6214, 0.6214,0.6214
MultiSource/Benchmarks/Trimaran/netbench-url/netbench-url, 2.9978, 2.9790, 2.9793,2.9793
MultiSource/Benchmarks/VersaBench/8b10b/8b10b, 3.7716, 3.7949, 3.7622,3.7716
MultiSource/Benchmarks/VersaBench/beamformer/beamformer, 0.6732, 0.6734, 0.6733,0.6733
MultiSource/Benchmarks/VersaBench/bmm/bmm, 1.6827, 1.6827, 1.6827,1.6827
MultiSource/Benchmarks/VersaBench/dbms/dbms, 0.9081, 0.8945, 0.8847,0.8945
MultiSource/Benchmarks/VersaBench/ecbdes/ecbdes, 1.6836, 1.6837, 1.6836,1.6836
MultiSource/Benchmarks/llubenchmark/llu, 3.8426, 4.1072, 4.0763,4.0763
MultiSource/Benchmarks/mafft/pairlocalalign,26.2897,26.2893,26.2890,26.2893
MultiSource/Benchmarks/mediabench/adpcm/rawcaudio/rawcaudio, 0.0029, 0.0029, 0.0029,0.0029
MultiSource/Benchmarks/mediabench/adpcm/rawdaudio/rawdaudio, 0.0018, 0.0017, 0.0018,0.0018
MultiSource/Benchmarks/mediabench/g721/g721encode/encode, 0.0290, 0.0292, 0.0291,0.0291
MultiSource/Benchmarks/mediabench/gsm/toast/toast, 0.0155, 0.0154, 0.0153,0.0154
MultiSource/Benchmarks/mediabench/jpeg/jpeg-6a/cjpeg, 0.0034, 0.0033, 0.0031,0.0033
MultiSource/Benchmarks/mediabench/mpeg2/mpeg2dec/mpeg2decode, 0.0154, 0.0152, 0.0153,0.0153
MultiSource/Benchmarks/nbench/nbench, 1.1952, 1.1958, 1.1947,1.1952
MultiSource/Benchmarks/sim/sim, 2.6173, 2.6129, 2.6144,2.6144
MultiSource/Benchmarks/tramp3d-v4/tramp3d-v4, 0.2667, 0.2667, 0.2663,0.2667
SingleSource/Benchmarks/Adobe-C++/functionobjects, 3.0076, 3.0078, 3.0077,3.0077
SingleSource/Benchmarks/Adobe-C++/loop_unroll, 1.8929, 1.8892, 1.8899,1.8899
SingleSource/Benchmarks/Adobe-C++/simple_types_constant_folding, 0.6684, 0.6684, 0.6684,0.6684
SingleSource/Benchmarks/Adobe-C++/simple_types_loop_invariant, 1.5954, 1.5951, 1.5952,1.5952
SingleSource/Benchmarks/Adobe-C++/stepanov_abstraction, 4.2067, 4.2058, 4.2071,4.2067
SingleSource/Benchmarks/Adobe-C++/stepanov_vector, 2.2398, 2.2394, 2.2395,2.2395
SingleSource/Benchmarks/BenchmarkGame/Large/fasta, 0.6446, 0.6499, 0.6494,0.6494
SingleSource/Benchmarks/BenchmarkGame/fannkuch, 2.2537, 2.2525, 2.2515,2.2525
SingleSource/Benchmarks/BenchmarkGame/n-body, 1.3714, 1.3713, 1.3713,1.3713
SingleSource/Benchmarks/BenchmarkGame/nsieve-bits, 0.4951, 0.4854, 0.4889,0.4889
SingleSource/Benchmarks/BenchmarkGame/partialsums, 0.5688, 0.5687, 0.5688,0.5688
SingleSource/Benchmarks/BenchmarkGame/puzzle, 0.1143, 0.1142, 0.1141,0.1142
SingleSource/Benchmarks/BenchmarkGame/recursive, 0.7068, 0.7045, 0.7125,0.7068
SingleSource/Benchmarks/BenchmarkGame/spectral-norm, 0.9734, 0.9733, 0.9733,0.9733
SingleSource/Benchmarks/CoyoteBench/almabench,12.5953,12.5957,12.5967,12.5957
SingleSource/Benchmarks/CoyoteBench/fftbench, 0.6300, 0.6318, 0.6292,0.63
SingleSource/Benchmarks/CoyoteBench/huffbench, 9.3356, 9.3341, 9.3330,9.3341
SingleSource/Benchmarks/CoyoteBench/lpbench, 1.8246, 1.8242, 1.8222,1.8242
SingleSource/Benchmarks/Dhrystone/dry, 0.3351, 0.3351, 0.3351,0.3351
SingleSource/Benchmarks/Dhrystone/fldry, 0.3655, 0.3655, 0.3655,0.3655
SingleSource/Benchmarks/Linpack/linpack-pc, 1.2875, 1.2869, 1.2877,1.2875
SingleSource/Benchmarks/McGill/chomp, 1.2824, 1.3103, 1.3082,1.3082
SingleSource/Benchmarks/McGill/misr, 0.1016, 0.1016, 0.1014,0.1016
SingleSource/Benchmarks/McGill/queens, 1.5487, 1.5489, 1.5485,1.5487
SingleSource/Benchmarks/Misc-C++-EH/spirit, 2.6234, 2.6226, 2.6226,2.6226
SingleSource/Benchmarks/Misc-C++/Large/ray, 2.8213, 2.8211, 2.8211,2.8211
SingleSource/Benchmarks/Misc-C++/Large/sphereflake, 5.5046, 5.5040, 5.5044,5.5044
SingleSource/Benchmarks/Misc-C++/bigfib, 0.1923, 0.1923, 0.1921,0.1923
SingleSource/Benchmarks/Misc-C++/mandel-text, 1.6048, 1.6058, 1.6050,1.605
SingleSource/Benchmarks/Misc-C++/oopack_v1p8, 0.1641, 0.1641, 0.1633,0.1641
SingleSource/Benchmarks/Misc-C++/stepanov_container, 3.0475, 3.0711, 2.9370,3.0475
SingleSource/Benchmarks/Misc-C++/stepanov_v1p2, 7.9038, 7.9033, 7.9033,7.9033
SingleSource/Benchmarks/Misc/ReedSolomon, 3.1981, 3.1971, 3.1983,3.1981
SingleSource/Benchmarks/Misc/dt, 0.6919, 0.6919, 0.6919,0.6919
SingleSource/Benchmarks/Misc/fbench, 1.7532, 1.7531, 1.7531,1.7531
SingleSource/Benchmarks/Misc/ffbench, 0.5775, 0.5759, 0.5810,0.5775
SingleSource/Benchmarks/Misc/flops,10.6827,10.6821,10.6825,10.6825
SingleSource/Benchmarks/Misc/flops-1, 3.6291, 3.6289, 3.6290,3.629
SingleSource/Benchmarks/Misc/flops-2, 0.8627, 0.8628, 0.8627,0.8627
SingleSource/Benchmarks/Misc/flops-3, 5.5085, 5.5082, 5.4133,5.5082
SingleSource/Benchmarks/Misc/flops-4, 2.2799, 2.2798, 2.2798,2.2798
SingleSource/Benchmarks/Misc/flops-5, 4.3252, 4.2775, 4.2776,4.2776
SingleSource/Benchmarks/Misc/flops-6, 3.4397, 3.4198, 3.4395,3.4395
SingleSource/Benchmarks/Misc/flops-7, 1.5903, 1.5901, 1.5902,1.5902
SingleSource/Benchmarks/Misc/flops-8, 3.8466, 3.8465, 3.7516,3.8465
SingleSource/Benchmarks/Misc/fp-convert, 3.0627, 3.0626, 3.0626,3.0626
SingleSource/Benchmarks/Misc/himenobmtxpa, 0.5077, 0.5087, 0.5091,0.5087
SingleSource/Benchmarks/Misc/lowercase, 0.0009, 0.0008, 0.0009,0.0009
SingleSource/Benchmarks/Misc/mandel, 0.8023, 0.8021, 0.8022,0.8022
SingleSource/Benchmarks/Misc/mandel-2, 1.2782, 1.2781, 1.2780,1.2781
SingleSource/Benchmarks/Misc/matmul_f64_4x4, 1.2953, 1.2953, 1.2953,1.2953
SingleSource/Benchmarks/Misc/oourafft, 6.0626, 6.0602, 6.0595,6.0602
SingleSource/Benchmarks/Misc/perlin, 3.9908, 3.9905, 3.9911,3.9908
SingleSource/Benchmarks/Misc/pi, 0.6944, 0.6943, 0.6943,0.6943
SingleSource/Benchmarks/Misc/richards_benchmark, 0.5314, 0.5318, 0.5311,0.5314
SingleSource/Benchmarks/Misc/salsa20, 4.8269, 4.8285, 4.8287,4.8285
SingleSource/Benchmarks/Misc/whetstone, 1.0275, 1.0275, 1.0199,1.0275
SingleSource/Benchmarks/Polybench/datamining/correlation/correlation, 1.6839, 1.6809, 1.6824,1.6824
SingleSource/Benchmarks/Polybench/datamining/covariance/covariance, 1.6473, 1.6498, 1.6522,1.6498
SingleSource/Benchmarks/Polybench/linear-algebra/kernels/atax/atax, 0.1705, 0.1702, 0.1704,0.1704
SingleSource/Benchmarks/Polybench/linear-algebra/kernels/bicg/bicg, 0.2122, 0.2122, 0.2121,0.2122
SingleSource/Benchmarks/Polybench/linear-algebra/kernels/cholesky/cholesky, 0.4613, 0.4581, 0.4574,0.4581
SingleSource/Benchmarks/Polybench/linear-algebra/kernels/doitgen/doitgen, 0.7859, 0.8277, 0.8058,0.8058
SingleSource/Benchmarks/Polybench/linear-algebra/kernels/gemver/gemver, 0.3221, 0.3267, 0.3186,0.3221
SingleSource/Benchmarks/Polybench/linear-algebra/kernels/gesummv/gesummv, 0.3067, 0.3018, 0.3020,0.302
SingleSource/Benchmarks/Polybench/linear-algebra/kernels/mvt/mvt, 0.2441, 0.2490, 0.2492,0.249
SingleSource/Benchmarks/Polybench/linear-algebra/kernels/symm/symm,15.4737,15.2645,16.2305,15.4737
SingleSource/Benchmarks/Polybench/linear-algebra/kernels/syr2k/syr2k, 8.9880, 9.1870, 9.1881,9.187
SingleSource/Benchmarks/Polybench/linear-algebra/kernels/syrk/syrk, 4.3386, 4.6311, 4.6298,4.6298
SingleSource/Benchmarks/Polybench/linear-algebra/kernels/trisolv/trisolv, 0.1737, 0.1640, 0.1640,0.164
SingleSource/Benchmarks/Polybench/linear-algebra/kernels/trmm/trmm, 2.2302, 2.2474, 2.2395,2.2395
SingleSource/Benchmarks/Polybench/linear-algebra/solvers/durbin/durbin, 0.4082, 0.3986, 0.4081,0.4081
SingleSource/Benchmarks/Polybench/linear-algebra/solvers/dynprog/dynprog, 0.2678, 0.2682, 0.2687,0.2682
SingleSource/Benchmarks/Polybench/linear-algebra/solvers/gramschmidt/gramschmidt, 1.5587, 1.5146, 1.5086,1.5146
SingleSource/Benchmarks/Polybench/linear-algebra/solvers/lu/lu, 0.0023, 0.0023, 0.0023,0.0023
SingleSource/Benchmarks/Polybench/medley/floyd-warshall/floyd-warshall, 3.4299, 3.4405, 3.4328,3.4328
SingleSource/Benchmarks/Polybench/medley/reg_detect/reg_detect, 0.0145, 0.0145, 0.0145,0.0145
SingleSource/Benchmarks/Polybench/stencils/adi/adi, 2.8088, 2.8087, 2.8090,2.8088
SingleSource/Benchmarks/Polybench/stencils/fdtd-2d/fdtd-2d, 0.3937, 0.3942, 0.3941,0.3941
SingleSource/Benchmarks/Polybench/stencils/fdtd-apml/fdtd-apml, 0.7242, 0.7261, 0.7291,0.7261
SingleSource/Benchmarks/Polybench/stencils/jacobi-1d-imper/jacobi-1d-imper, 0.0037, 0.0038, 0.0038,0.0038
SingleSource/Benchmarks/Polybench/stencils/jacobi-2d-imper/jacobi-2d-imper, 0.1461, 0.1461, 0.1467,0.1461
SingleSource/Benchmarks/Polybench/stencils/seidel-2d/seidel-2d, 0.6466, 0.6465, 0.6466,0.6466
SingleSource/Benchmarks/Shootout-C++/EH/except, 0.1206, 0.1203, 0.1209,0.1206
SingleSource/Benchmarks/Shootout-C++/ackermann, 0.6572, 0.6573, 0.6573,0.6573
SingleSource/Benchmarks/Shootout-C++/ary, 0.0143, 0.0143, 0.0142,0.0143
SingleSource/Benchmarks/Shootout-C++/ary2, 0.0150, 0.0150, 0.0150,0.015
SingleSource/Benchmarks/Shootout-C++/ary3, 0.5412, 0.5402, 0.5351,0.5402
SingleSource/Benchmarks/Shootout-C++/fibo, 1.4749, 1.4726, 1.4742,1.4742
SingleSource/Benchmarks/Shootout-C++/hash, 0.3249, 0.3248, 0.3241,0.3248
SingleSource/Benchmarks/Shootout-C++/hash2, 1.8234, 1.8223, 1.8204,1.8223
SingleSource/Benchmarks/Shootout-C++/heapsort, 2.0372, 2.0499, 2.0416,2.0416
SingleSource/Benchmarks/Shootout-C++/lists, 2.9796, 2.9793, 2.9743,2.9793
SingleSource/Benchmarks/Shootout-C++/lists1, 0.1322, 0.1331, 0.1330,0.133
SingleSource/Benchmarks/Shootout-C++/matrix, 1.3226, 1.3228, 1.3226,1.3226
SingleSource/Benchmarks/Shootout-C++/methcall, 3.5509, 3.5459, 3.5460,3.546
SingleSource/Benchmarks/Shootout-C++/moments, 0.0506, 0.0508, 0.0507,0.0507
SingleSource/Benchmarks/Shootout-C++/nestedloop, 0.0009, 0.0009, 0.0009,0.0009
SingleSource/Benchmarks/Shootout-C++/objinst, 0.0009, 0.0010, 0.0008,0.0009
SingleSource/Benchmarks/Shootout-C++/random, 1.7450, 1.7449, 1.7450,1.745
SingleSource/Benchmarks/Shootout-C++/sieve, 1.2804, 1.2462, 1.4525,1.2804
SingleSource/Benchmarks/Shootout-C++/strcat, 0.0406, 0.0406, 0.0406,0.0406
SingleSource/Benchmarks/Shootout/ackermann, 0.0035, 0.0035, 0.0035,0.0035
SingleSource/Benchmarks/Shootout/ary3, 0.5998, 0.5885, 0.5939,0.5939
SingleSource/Benchmarks/Shootout/fib2, 1.4776, 1.4740, 1.4725,1.474
SingleSource/Benchmarks/Shootout/hash, 2.8127, 2.7864, 2.7867,2.7867
SingleSource/Benchmarks/Shootout/heapsort, 2.0262, 2.0352, 2.0329,2.0329
SingleSource/Benchmarks/Shootout/lists, 4.0619, 4.0615, 4.0628,4.0619
SingleSource/Benchmarks/Shootout/matrix, 1.0669, 1.0664, 1.0666,1.0666
SingleSource/Benchmarks/Shootout/methcall, 3.2760, 3.2759, 3.2760,3.276
SingleSource/Benchmarks/Shootout/nestedloop, 0.0009, 0.0009, 0.0009,0.0009
SingleSource/Benchmarks/Shootout/objinst, 0.0009, 0.0009, 0.0009,0.0009
SingleSource/Benchmarks/Shootout/random, 1.7449, 1.7449, 1.7449,1.7449
SingleSource/Benchmarks/Shootout/sieve, 3.4714, 3.4725, 3.4718,3.4718
SingleSource/Benchmarks/Shootout/strcat, 0.1053, 0.1050, 0.1053,0.1053
SingleSource/Benchmarks/SmallPT/smallpt, 7.3911, 7.3918, 7.3923,7.3918
SingleSource/Benchmarks/Stanford/Bubblesort, 0.0161, 0.0162, 0.0162,0.0162
SingleSource/Benchmarks/Stanford/FloatMM, 0.5466, 0.5466, 0.5466,0.5466
SingleSource/Benchmarks/Stanford/Oscar, 0.0034, 0.0032, 0.0034,0.0034
SingleSource/Benchmarks/Stanford/Perm, 0.0147, 0.0147, 0.0147,0.0147
SingleSource/Benchmarks/Stanford/Puzzle, 0.0875, 0.0873, 0.0875,0.0875
SingleSource/Benchmarks/Stanford/Queens, 0.0078, 0.0079, 0.0079,0.0079
SingleSource/Benchmarks/Stanford/Quicksort, 0.0304, 0.0304, 0.0304,0.0304
SingleSource/Benchmarks/Stanford/RealMM, 0.0020, 0.0019, 0.0020,0.002
SingleSource/Benchmarks/Stanford/Towers, 0.0088, 0.0089, 0.0088,0.0088
SingleSource/Benchmarks/Stanford/Treesort, 0.0546, 0.0547, 0.0548,0.0547
SingleSource/Regression/C/2004-08-12-InlinerAndAllocas, 0.0015, 0.0015, 0.0015,0.0015
SingleSource/Regression/C/uint64_to_float, 0.2607, 0.2608, 0.2609,0.2608
Total elapsed time,-,-,-,571.6853000000002
Total failure,-,-,-,0
