---------------------------------------------------------------
>>> ========= '/mnt/ramdisk/mysandbox/test-2017-03-23_07-28-21/SingleSource/Benchmarks/Shootout-C++/moments' Program
---------------------------------------------------------------

TEST-PASS: compile /mnt/ramdisk/mysandbox/test-2017-03-23_07-28-21/SingleSource/Benchmarks/Shootout-C++/moments
TEST-RESULT-compile-success: pass
TEST-RESULT-compile-hash: ca4fb29a9d4df89ef72f0bf1ba8505c0
TEST-RESULT-compile-time: user       0.2440
TEST-RESULT-compile-real-time: real       0.2641

TEST-PASS: exec /mnt/ramdisk/mysandbox/test-2017-03-23_07-28-21/SingleSource/Benchmarks/Shootout-C++/moments
TEST-RESULT-exec-success: pass
TEST-RESULT-exec-time: user       0.0440
TEST-RESULT-exec-real-time: real       0.0506
---------------------------------------------------------------
>>> ========= '/mnt/ramdisk/mysandbox/test-2017-03-23_07-28-21/SingleSource/Benchmarks/Shootout-C++/ackermann' Program
---------------------------------------------------------------

TEST-PASS: compile /mnt/ramdisk/mysandbox/test-2017-03-23_07-28-21/SingleSource/Benchmarks/Shootout-C++/ackermann
TEST-RESULT-compile-success: pass
TEST-RESULT-compile-hash: 328ffe6aa31d1e2142532205e15da27c
TEST-RESULT-compile-time: user       0.1120
TEST-RESULT-compile-real-time: real       0.1321

TEST-PASS: exec /mnt/ramdisk/mysandbox/test-2017-03-23_07-28-21/SingleSource/Benchmarks/Shootout-C++/ackermann
TEST-RESULT-exec-success: pass
TEST-RESULT-exec-time: user       0.6560
TEST-RESULT-exec-real-time: real       0.6574
---------------------------------------------------------------
>>> ========= '/mnt/ramdisk/mysandbox/test-2017-03-23_07-28-21/SingleSource/Benchmarks/Shootout-C++/nestedloop' Program
---------------------------------------------------------------

TEST-PASS: compile /mnt/ramdisk/mysandbox/test-2017-03-23_07-28-21/SingleSource/Benchmarks/Shootout-C++/nestedloop
TEST-RESULT-compile-success: pass
TEST-RESULT-compile-hash: ed7512a2a1bc46c99a9197d4118f210a
TEST-RESULT-compile-time: user       0.1120
TEST-RESULT-compile-real-time: real       0.1313

TEST-PASS: exec /mnt/ramdisk/mysandbox/test-2017-03-23_07-28-21/SingleSource/Benchmarks/Shootout-C++/nestedloop
TEST-RESULT-exec-success: pass
TEST-RESULT-exec-time: user       0.0000
TEST-RESULT-exec-real-time: real       0.0009
---------------------------------------------------------------
>>> ========= '/mnt/ramdisk/mysandbox/test-2017-03-23_07-28-21/SingleSource/Benchmarks/Shootout-C++/hash' Program
---------------------------------------------------------------

TEST-PASS: compile /mnt/ramdisk/mysandbox/test-2017-03-23_07-28-21/SingleSource/Benchmarks/Shootout-C++/hash
TEST-RESULT-compile-success: pass
TEST-RESULT-compile-hash: 64bb7038777a69cebdec24d3c6fdbb11
TEST-RESULT-compile-time: user       0.2680
TEST-RESULT-compile-real-time: real       0.2910

TEST-PASS: exec /mnt/ramdisk/mysandbox/test-2017-03-23_07-28-21/SingleSource/Benchmarks/Shootout-C++/hash
TEST-RESULT-exec-success: pass
TEST-RESULT-exec-time: user       0.2920
TEST-RESULT-exec-real-time: real       0.3223
---------------------------------------------------------------
>>> ========= '/mnt/ramdisk/mysandbox/test-2017-03-23_07-28-21/SingleSource/Benchmarks/Shootout-C++/objinst' Program
---------------------------------------------------------------

TEST-PASS: compile /mnt/ramdisk/mysandbox/test-2017-03-23_07-28-21/SingleSource/Benchmarks/Shootout-C++/objinst
TEST-RESULT-compile-success: pass
TEST-RESULT-compile-hash: 354494da65092f2ea9614e0b04fc4b1b
TEST-RESULT-compile-time: user       0.1440
TEST-RESULT-compile-real-time: real       0.1565

TEST-PASS: exec /mnt/ramdisk/mysandbox/test-2017-03-23_07-28-21/SingleSource/Benchmarks/Shootout-C++/objinst
TEST-RESULT-exec-success: pass
TEST-RESULT-exec-time: user       0.0000
TEST-RESULT-exec-real-time: real       0.0008
---------------------------------------------------------------
>>> ========= '/mnt/ramdisk/mysandbox/test-2017-03-23_07-28-21/SingleSource/Benchmarks/Shootout-C++/strcat' Program
---------------------------------------------------------------

TEST-PASS: compile /mnt/ramdisk/mysandbox/test-2017-03-23_07-28-21/SingleSource/Benchmarks/Shootout-C++/strcat
TEST-RESULT-compile-success: pass
TEST-RESULT-compile-hash: a03df102df25f6c66fe328bc6fe1b259
TEST-RESULT-compile-time: user       0.1120
TEST-RESULT-compile-real-time: real       0.1411

TEST-PASS: exec /mnt/ramdisk/mysandbox/test-2017-03-23_07-28-21/SingleSource/Benchmarks/Shootout-C++/strcat
TEST-RESULT-exec-success: pass
TEST-RESULT-exec-time: user       0.0320
TEST-RESULT-exec-real-time: real       0.0405
---------------------------------------------------------------
>>> ========= '/mnt/ramdisk/mysandbox/test-2017-03-23_07-28-21/SingleSource/Benchmarks/Shootout-C++/ary2' Program
---------------------------------------------------------------

TEST-PASS: compile /mnt/ramdisk/mysandbox/test-2017-03-23_07-28-21/SingleSource/Benchmarks/Shootout-C++/ary2
TEST-RESULT-compile-success: pass
TEST-RESULT-compile-hash: 3bbd39d97e7d4f09e8e1e8cfd0640964
TEST-RESULT-compile-time: user       0.1640
TEST-RESULT-compile-real-time: real       0.1808

TEST-PASS: exec /mnt/ramdisk/mysandbox/test-2017-03-23_07-28-21/SingleSource/Benchmarks/Shootout-C++/ary2
TEST-RESULT-exec-success: pass
TEST-RESULT-exec-time: user       0.0120
TEST-RESULT-exec-real-time: real       0.0151
---------------------------------------------------------------
>>> ========= '/mnt/ramdisk/mysandbox/test-2017-03-23_07-28-21/SingleSource/Benchmarks/Shootout-C++/ary3' Program
---------------------------------------------------------------

TEST-PASS: compile /mnt/ramdisk/mysandbox/test-2017-03-23_07-28-21/SingleSource/Benchmarks/Shootout-C++/ary3
TEST-RESULT-compile-success: pass
TEST-RESULT-compile-hash: 31bd871e1d71c03ae49d6bda1335f18b
TEST-RESULT-compile-time: user       0.1680
TEST-RESULT-compile-real-time: real       0.1786

TEST-PASS: exec /mnt/ramdisk/mysandbox/test-2017-03-23_07-28-21/SingleSource/Benchmarks/Shootout-C++/ary3
TEST-RESULT-exec-success: pass
TEST-RESULT-exec-time: user       0.5320
TEST-RESULT-exec-real-time: real       0.5331
---------------------------------------------------------------
>>> ========= '/mnt/ramdisk/mysandbox/test-2017-03-23_07-28-21/SingleSource/Benchmarks/Shootout-C++/methcall' Program
---------------------------------------------------------------

TEST-PASS: compile /mnt/ramdisk/mysandbox/test-2017-03-23_07-28-21/SingleSource/Benchmarks/Shootout-C++/methcall
TEST-RESULT-compile-success: pass
TEST-RESULT-compile-hash: f61feab4852e77e755e69a11a4e0c9a0
TEST-RESULT-compile-time: user       0.1240
TEST-RESULT-compile-real-time: real       0.1404

TEST-PASS: exec /mnt/ramdisk/mysandbox/test-2017-03-23_07-28-21/SingleSource/Benchmarks/Shootout-C++/methcall
TEST-RESULT-exec-success: pass
TEST-RESULT-exec-time: user       3.5440
TEST-RESULT-exec-real-time: real       3.5459
---------------------------------------------------------------
>>> ========= '/mnt/ramdisk/mysandbox/test-2017-03-23_07-28-21/SingleSource/Benchmarks/Shootout-C++/hash2' Program
---------------------------------------------------------------

TEST-PASS: compile /mnt/ramdisk/mysandbox/test-2017-03-23_07-28-21/SingleSource/Benchmarks/Shootout-C++/hash2
TEST-RESULT-compile-success: pass
TEST-RESULT-compile-hash: 349102327997bb9bb78261d0e3ab979c
TEST-RESULT-compile-time: user       0.3120
TEST-RESULT-compile-real-time: real       0.3271

TEST-PASS: exec /mnt/ramdisk/mysandbox/test-2017-03-23_07-28-21/SingleSource/Benchmarks/Shootout-C++/hash2
TEST-RESULT-exec-success: pass
TEST-RESULT-exec-time: user       1.7360
TEST-RESULT-exec-real-time: real       1.7365
---------------------------------------------------------------
>>> ========= '/mnt/ramdisk/mysandbox/test-2017-03-23_07-28-21/SingleSource/Benchmarks/Shootout-C++/ary' Program
---------------------------------------------------------------

TEST-PASS: compile /mnt/ramdisk/mysandbox/test-2017-03-23_07-28-21/SingleSource/Benchmarks/Shootout-C++/ary
TEST-RESULT-compile-success: pass
TEST-RESULT-compile-hash: 399291176bb8bb4a90f03e31bd7b4e80
TEST-RESULT-compile-time: user       0.1520
TEST-RESULT-compile-real-time: real       0.1749

TEST-PASS: exec /mnt/ramdisk/mysandbox/test-2017-03-23_07-28-21/SingleSource/Benchmarks/Shootout-C++/ary
TEST-RESULT-exec-success: pass
TEST-RESULT-exec-time: user       0.0040
TEST-RESULT-exec-real-time: real       0.0142
---------------------------------------------------------------
>>> ========= '/mnt/ramdisk/mysandbox/test-2017-03-23_07-28-21/SingleSource/Benchmarks/Shootout-C++/heapsort' Program
---------------------------------------------------------------

TEST-PASS: compile /mnt/ramdisk/mysandbox/test-2017-03-23_07-28-21/SingleSource/Benchmarks/Shootout-C++/heapsort
TEST-RESULT-compile-success: pass
TEST-RESULT-compile-hash: aca27ec5c7892ab3124039822f8e9cfb
TEST-RESULT-compile-time: user       0.1360
TEST-RESULT-compile-real-time: real       0.1479

TEST-PASS: exec /mnt/ramdisk/mysandbox/test-2017-03-23_07-28-21/SingleSource/Benchmarks/Shootout-C++/heapsort
TEST-RESULT-exec-success: pass
TEST-RESULT-exec-time: user       2.0320
TEST-RESULT-exec-real-time: real       2.0415
---------------------------------------------------------------
>>> ========= '/mnt/ramdisk/mysandbox/test-2017-03-23_07-28-21/SingleSource/Benchmarks/Shootout-C++/lists1' Program
---------------------------------------------------------------

TEST-PASS: compile /mnt/ramdisk/mysandbox/test-2017-03-23_07-28-21/SingleSource/Benchmarks/Shootout-C++/lists1
TEST-RESULT-compile-success: pass
TEST-RESULT-compile-hash: ca6cac1aef1673b02eabd98edc2511a1
TEST-RESULT-compile-time: user       0.1920
TEST-RESULT-compile-real-time: real       0.2107

TEST-PASS: exec /mnt/ramdisk/mysandbox/test-2017-03-23_07-28-21/SingleSource/Benchmarks/Shootout-C++/lists1
TEST-RESULT-exec-success: pass
TEST-RESULT-exec-time: user       0.1120
TEST-RESULT-exec-real-time: real       0.1301
---------------------------------------------------------------
>>> ========= '/mnt/ramdisk/mysandbox/test-2017-03-23_07-28-21/SingleSource/Benchmarks/Shootout-C++/lists' Program
---------------------------------------------------------------

TEST-PASS: compile /mnt/ramdisk/mysandbox/test-2017-03-23_07-28-21/SingleSource/Benchmarks/Shootout-C++/lists
TEST-RESULT-compile-success: pass
TEST-RESULT-compile-hash: 59da0dabc34e6693b7135b69d58d91d2
TEST-RESULT-compile-time: user       0.1600
TEST-RESULT-compile-real-time: real       0.1784

TEST-PASS: exec /mnt/ramdisk/mysandbox/test-2017-03-23_07-28-21/SingleSource/Benchmarks/Shootout-C++/lists
TEST-RESULT-exec-success: pass
TEST-RESULT-exec-time: user       2.9800
TEST-RESULT-exec-real-time: real       2.9800
---------------------------------------------------------------
>>> ========= '/mnt/ramdisk/mysandbox/test-2017-03-23_07-28-21/SingleSource/Benchmarks/Shootout-C++/sieve' Program
---------------------------------------------------------------

TEST-PASS: compile /mnt/ramdisk/mysandbox/test-2017-03-23_07-28-21/SingleSource/Benchmarks/Shootout-C++/sieve
TEST-RESULT-compile-success: pass
TEST-RESULT-compile-hash: 15372c467cd515cb08a8998204df6fc5
TEST-RESULT-compile-time: user       0.1680
TEST-RESULT-compile-real-time: real       0.1978

TEST-PASS: exec /mnt/ramdisk/mysandbox/test-2017-03-23_07-28-21/SingleSource/Benchmarks/Shootout-C++/sieve
TEST-RESULT-exec-success: pass
TEST-RESULT-exec-time: user       1.2840
TEST-RESULT-exec-real-time: real       1.2846
---------------------------------------------------------------
>>> ========= '/mnt/ramdisk/mysandbox/test-2017-03-23_07-28-21/SingleSource/Benchmarks/Shootout-C++/fibo' Program
---------------------------------------------------------------

TEST-PASS: compile /mnt/ramdisk/mysandbox/test-2017-03-23_07-28-21/SingleSource/Benchmarks/Shootout-C++/fibo
TEST-RESULT-compile-success: pass
TEST-RESULT-compile-hash: c64451647490b03b925389da08b98a55
TEST-RESULT-compile-time: user       0.1040
TEST-RESULT-compile-real-time: real       0.1307

TEST-PASS: exec /mnt/ramdisk/mysandbox/test-2017-03-23_07-28-21/SingleSource/Benchmarks/Shootout-C++/fibo
TEST-RESULT-exec-success: pass
TEST-RESULT-exec-time: user       1.4720
TEST-RESULT-exec-real-time: real       1.4756
---------------------------------------------------------------
>>> ========= '/mnt/ramdisk/mysandbox/test-2017-03-23_07-28-21/SingleSource/Benchmarks/Shootout-C++/matrix' Program
---------------------------------------------------------------

TEST-PASS: compile /mnt/ramdisk/mysandbox/test-2017-03-23_07-28-21/SingleSource/Benchmarks/Shootout-C++/matrix
TEST-RESULT-compile-success: pass
TEST-RESULT-compile-hash: a613e7769e4c047f3448025202e28832
TEST-RESULT-compile-time: user       0.1920
TEST-RESULT-compile-real-time: real       0.2148

TEST-PASS: exec /mnt/ramdisk/mysandbox/test-2017-03-23_07-28-21/SingleSource/Benchmarks/Shootout-C++/matrix
TEST-RESULT-exec-success: pass
TEST-RESULT-exec-time: user       1.6680
TEST-RESULT-exec-real-time: real       1.6697
---------------------------------------------------------------
>>> ========= '/mnt/ramdisk/mysandbox/test-2017-03-23_07-28-21/SingleSource/Benchmarks/Shootout-C++/random' Program
---------------------------------------------------------------

TEST-PASS: compile /mnt/ramdisk/mysandbox/test-2017-03-23_07-28-21/SingleSource/Benchmarks/Shootout-C++/random
TEST-RESULT-compile-success: pass
TEST-RESULT-compile-hash: cdb900f192e5735398733e3eaddf3d9a
TEST-RESULT-compile-time: user       0.1080
TEST-RESULT-compile-real-time: real       0.1397

TEST-PASS: exec /mnt/ramdisk/mysandbox/test-2017-03-23_07-28-21/SingleSource/Benchmarks/Shootout-C++/random
TEST-RESULT-exec-success: pass
TEST-RESULT-exec-time: user       1.7440
TEST-RESULT-exec-real-time: real       1.7448
---------------------------------------------------------------
>>> ========= '/mnt/ramdisk/mysandbox/test-2017-03-23_07-28-21/SingleSource/Benchmarks/Shootout-C++/EH/except' Program
---------------------------------------------------------------

TEST-PASS: compile /mnt/ramdisk/mysandbox/test-2017-03-23_07-28-21/SingleSource/Benchmarks/Shootout-C++/EH/except
TEST-RESULT-compile-success: pass
TEST-RESULT-compile-hash: f8f309862f911c83d476ee5a9404621c
TEST-RESULT-compile-time: user       0.1240
TEST-RESULT-compile-real-time: real       0.1450

TEST-PASS: exec /mnt/ramdisk/mysandbox/test-2017-03-23_07-28-21/SingleSource/Benchmarks/Shootout-C++/EH/except
TEST-RESULT-exec-success: pass
TEST-RESULT-exec-time: user       0.1200
TEST-RESULT-exec-real-time: real       0.1208
