Benchmarks,/mnt/freezedisk/llvm-intptr-base-5.0-release/bin/clang,/mnt/freezedisk/llvm-intptr-base-5.0-release/bin/clang,/mnt/freezedisk/llvm-intptr-base-5.0-release/bin/clang,median,/mnt/freezedisk/llvm-intptr-br3-psub-release/bin/clang,/mnt/freezedisk/llvm-intptr-br3-psub-release/bin/clang,/mnt/freezedisk/llvm-intptr-br3-psub-release/bin/clang,median
MultiSource/Applications/ALAC/decode/alacconvert-decode, 0.8565, 0.8569, 0.8547,0.8565, 0.8593, 0.8597, 0.8616,0.8597
MultiSource/Applications/ALAC/encode/alacconvert-encode, 0.8578, 0.8570, 0.8548,0.857, 0.8591, 0.8595, 0.8609,0.8595
MultiSource/Applications/ClamAV/clamscan,12.9937,12.9935,12.9860,12.9935,12.9825,13.0088,13.0076,13.0076
MultiSource/Applications/JM/ldecod/ldecod, 5.6739, 5.6717, 5.6771,5.6739, 5.6843, 5.6887, 5.6949,5.6887
MultiSource/Applications/JM/lencod/lencod,13.2944,13.2996,13.2901,13.2944,13.3277,13.3486,13.3504,13.3486
MultiSource/Applications/SIBsim4/SIBsim4, 1.0351, 1.0347, 1.0345,1.0347, 1.0373, 1.0393, 1.0381,1.0381
MultiSource/Applications/SPASS/SPASS,11.0359,11.0351,11.0168,11.0351,11.0425,11.0595,11.0670,11.0595
MultiSource/Applications/aha/aha, 0.0901, 0.0902, 0.0897,0.0901, 0.0903, 0.0904, 0.0905,0.0904
MultiSource/Applications/d/make_dparser, 2.3351, 2.3364, 2.3303,2.3351, 2.3246, 2.3283, 2.3315,2.3283
MultiSource/Applications/hbd/hbd, 1.0940, 1.0911, 1.0930,1.093, 1.0908, 1.0917, 1.0943,1.0917
MultiSource/Applications/hexxagon/hexxagon, 0.6053, 0.6064, 0.6050,0.6053, 0.6074, 0.6084, 0.6091,0.6084
MultiSource/Applications/kimwitu++/kc,10.0896,10.0878,10.0639,10.0878,10.0433,10.0605,10.0816,10.0605
MultiSource/Applications/lambda-0.1.3/lambda, 0.5040, 0.5034, 0.5027,0.5034, 0.5045, 0.5054, 0.5051,0.5051
MultiSource/Applications/lua/lua, 2.9301, 2.9317, 2.9254,2.9301, 2.9435, 2.9465, 2.9520,2.9465
MultiSource/Applications/minisat/minisat, 0.5482, 0.5491, 0.5490,0.549, 0.5582, 0.5596, 0.5610,0.5596
MultiSource/Applications/obsequi/Obsequi, 0.8785, 0.8769, 0.8770,0.877, 0.8823, 0.8820, 0.8829,0.8823
MultiSource/Applications/oggenc/oggenc, 4.4045, 4.3990, 4.4047,4.4045, 4.4058, 4.4079, 4.4095,4.4079
MultiSource/Applications/sgefa/sgefa, 0.3525, 0.3529, 0.3522,0.3525, 0.3538, 0.3543, 0.3542,0.3542
MultiSource/Applications/siod/siod, 1.7768, 1.7754, 1.7732,1.7754, 1.7703, 1.7731, 1.7718,1.7718
MultiSource/Applications/spiff/spiff, 0.6833, 0.6827, 0.6827,0.6827, 0.6856, 0.6853, 0.6861,0.6856
MultiSource/Applications/sqlite3/sqlite3,13.5996,13.6016,13.6037,13.6016,13.6400,13.6546,13.6314,13.64
MultiSource/Applications/viterbi/viterbi, 0.1537, 0.1537, 0.1536,0.1537, 0.1555, 0.1541, 0.1544,0.1544
MultiSource/Benchmarks/7zip/7zip-benchmark,30.6786,30.8041,30.7512,30.7512,30.8087,30.8578,30.9135,30.8578
MultiSource/Benchmarks/ASCI_Purple/SMG2000/smg2000, 5.0904, 5.0888, 5.0857,5.0888, 5.1036, 5.1103, 5.1200,5.1103
MultiSource/Benchmarks/ASC_Sequoia/AMGmk/AMGmk, 0.5312, 0.5315, 0.5303,0.5312, 0.5323, 0.5333, 0.5338,0.5333
MultiSource/Benchmarks/ASC_Sequoia/CrystalMk/CrystalMk, 0.2034, 0.2029, 0.2025,0.2029, 0.2053, 0.2041, 0.2039,0.2041
MultiSource/Benchmarks/ASC_Sequoia/IRSmk/IRSmk, 0.0949, 0.0946, 0.0944,0.0946, 0.0948, 0.0950, 0.0951,0.095
MultiSource/Benchmarks/BitBench/drop3/drop3, 0.0398, 0.0396, 0.0396,0.0396, 0.0397, 0.0397, 0.0399,0.0397
MultiSource/Benchmarks/BitBench/five11/five11, 0.0495, 0.0495, 0.0493,0.0495, 0.0496, 0.0496, 0.0498,0.0496
MultiSource/Benchmarks/BitBench/uudecode/uudecode, 0.0402, 0.0403, 0.0401,0.0402, 0.0403, 0.0403, 0.0404,0.0403
MultiSource/Benchmarks/BitBench/uuencode/uuencode, 0.0397, 0.0395, 0.0395,0.0395, 0.0398, 0.0398, 0.0399,0.0398
MultiSource/Benchmarks/Bullet/bullet,20.8266,20.9475,20.9128,20.9128,20.9813,21.0133,21.0439,21.0133
MultiSource/Benchmarks/DOE-ProxyApps-C++/CLAMR/CLAMR,16.4431,16.4327,16.3991,16.4327,16.2719,16.3072,16.2918,16.2918
MultiSource/Benchmarks/DOE-ProxyApps-C++/HPCCG/HPCCG, 1.2597, 1.2899, 1.2882,1.2882, 1.2926, 1.2949, 1.2989,1.2949
MultiSource/Benchmarks/DOE-ProxyApps-C++/PENNANT/PENNANT, 3.6716, 3.6979, 3.6948,3.6948, 3.6981, 3.7033, 3.7053,3.7033
MultiSource/Benchmarks/DOE-ProxyApps-C++/miniFE/miniFE, 2.3407, 2.3497, 2.3478,2.3478, 2.3337, 2.3411, 2.3395,2.3395
MultiSource/Benchmarks/DOE-ProxyApps-C/Pathfinder/PathFinder, 0.7373, 0.7370, 0.7346,0.737, 0.7358, 0.7383, 0.7389,0.7383
MultiSource/Benchmarks/DOE-ProxyApps-C/RSBench/rsbench, 0.3582, 0.3578, 0.3569,0.3578, 0.3589, 0.3597, 0.3618,0.3597
MultiSource/Benchmarks/DOE-ProxyApps-C/SimpleMOC/SimpleMOC, 0.7806, 0.7812, 0.7794,0.7806, 0.7822, 0.7836, 0.7850,0.7836
MultiSource/Benchmarks/DOE-ProxyApps-C/XSBench/XSBench, 0.3189, 0.3180, 0.3179,0.318, 0.3211, 0.3200, 0.3211,0.3211
MultiSource/Benchmarks/DOE-ProxyApps-C/miniAMR/miniAMR, 1.1930, 1.2098, 1.2077,1.2077, 1.2157, 1.2150, 1.2161,1.2157
MultiSource/Benchmarks/DOE-ProxyApps-C/miniGMG/miniGMG, 0.8739, 0.8747, 0.8734,0.8739, 0.8760, 0.8774, 0.8770,0.877
MultiSource/Benchmarks/Fhourstones-3.1/fhourstones3.1, 0.1066, 0.1064, 0.1064,0.1064, 0.1070, 0.1070, 0.1072,0.107
MultiSource/Benchmarks/Fhourstones/fhourstones, 0.1493, 0.1490, 0.1489,0.149, 0.1494, 0.1494, 0.1499,0.1494
MultiSource/Benchmarks/FreeBench/analyzer/analyzer, 0.2175, 0.2173, 0.2168,0.2173, 0.2183, 0.2180, 0.2182,0.2182
MultiSource/Benchmarks/FreeBench/distray/distray, 0.0847, 0.0846, 0.0848,0.0847, 0.0849, 0.0849, 0.0851,0.0849
MultiSource/Benchmarks/FreeBench/fourinarow/fourinarow, 0.3022, 0.3022, 0.3015,0.3022, 0.3027, 0.3028, 0.3029,0.3028
MultiSource/Benchmarks/FreeBench/mason/mason, 0.0458, 0.0457, 0.0456,0.0457, 0.0458, 0.0457, 0.0457,0.0457
MultiSource/Benchmarks/FreeBench/neural/neural, 0.1580, 0.1581, 0.1579,0.158, 0.1588, 0.1591, 0.1590,0.159
MultiSource/Benchmarks/FreeBench/pcompress2/pcompress2, 0.2250, 0.2241, 0.2241,0.2241, 0.2250, 0.2253, 0.2256,0.2253
MultiSource/Benchmarks/FreeBench/pifft/pifft, 0.8340, 0.8337, 0.8337,0.8337, 0.8375, 0.8377, 0.8377,0.8377
MultiSource/Benchmarks/MallocBench/cfrac/cfrac, 0.8073, 0.8052, 0.8041,0.8052, 0.8087, 0.8092, 0.8087,0.8087
MultiSource/Benchmarks/MallocBench/espresso/espresso, 4.1322, 4.1286, 4.1246,4.1286, 4.1386, 4.1442, 4.1491,4.1442
MultiSource/Benchmarks/MallocBench/gs/gs, 3.4251, 3.4206, 3.4159,3.4206, 3.4251, 3.4276, 3.4323,3.4276
MultiSource/Benchmarks/McCat/01-qbsort/qbsort, 0.0899, 0.0896, 0.0896,0.0896, 0.0898, 0.0899, 0.0899,0.0899
MultiSource/Benchmarks/McCat/03-testtrie/testtrie, 0.0846, 0.0847, 0.0845,0.0846, 0.0849, 0.0851, 0.0850,0.085
MultiSource/Benchmarks/McCat/04-bisect/bisect, 0.1180, 0.1177, 0.1176,0.1177, 0.1183, 0.1184, 0.1189,0.1184
MultiSource/Benchmarks/McCat/05-eks/eks, 0.4707, 0.4700, 0.4700,0.47, 0.4711, 0.4716, 0.4722,0.4716
MultiSource/Benchmarks/McCat/08-main/main, 0.2184, 0.2181, 0.2178,0.2181, 0.2215, 0.2223, 0.2233,0.2223
MultiSource/Benchmarks/McCat/09-vor/vor, 0.2522, 0.2513, 0.2509,0.2513, 0.2497, 0.2501, 0.2506,0.2501
MultiSource/Benchmarks/McCat/12-IOtest/iotest, 0.0884, 0.0881, 0.0881,0.0881, 0.0885, 0.0887, 0.0885,0.0885
MultiSource/Benchmarks/McCat/17-bintr/bintr, 0.0651, 0.0650, 0.0651,0.0651, 0.0652, 0.0651, 0.0654,0.0652
MultiSource/Benchmarks/McCat/18-imp/imp, 0.3001, 0.2992, 0.2990,0.2992, 0.2995, 0.3004, 0.3006,0.3004
MultiSource/Benchmarks/MiBench/automotive-basicmath/automotive-basicmath, 0.1327, 0.1325, 0.1326,0.1326, 0.1327, 0.1348, 0.1334,0.1334
MultiSource/Benchmarks/MiBench/automotive-bitcount/automotive-bitcount, 0.2387, 0.2383, 0.2383,0.2383, 0.2385, 0.2389, 0.2410,0.2389
MultiSource/Benchmarks/MiBench/automotive-susan/automotive-susan, 0.5547, 0.5550, 0.5547,0.5547, 0.5566, 0.5572, 0.5587,0.5572
MultiSource/Benchmarks/MiBench/consumer-jpeg/consumer-jpeg, 3.9733, 4.0217, 4.0214,4.0214, 4.0179, 4.0271, 4.0308,4.0271
MultiSource/Benchmarks/MiBench/consumer-lame/consumer-lame, 3.5118, 3.5629, 3.5578,3.5578, 3.5744, 3.5781, 3.5877,3.5781
MultiSource/Benchmarks/MiBench/consumer-typeset/consumer-typeset, 8.9003, 8.9041, 8.9033,8.9033, 8.8348, 8.8525, 8.8585,8.8525
MultiSource/Benchmarks/MiBench/network-dijkstra/network-dijkstra, 0.0389, 0.0388, 0.0388,0.0388, 0.0387, 0.0387, 0.0390,0.0387
MultiSource/Benchmarks/MiBench/network-patricia/network-patricia, 0.0747, 0.0742, 0.0743,0.0743, 0.0744, 0.0745, 0.0746,0.0745
MultiSource/Benchmarks/MiBench/security-rijndael/security-rijndael, 0.3566, 0.3559, 0.3556,0.3559, 0.3563, 0.3564, 0.3565,0.3564
MultiSource/Benchmarks/MiBench/security-sha/security-sha, 0.1071, 0.1070, 0.1070,0.107, 0.1069, 0.1071, 0.1072,0.1071
MultiSource/Benchmarks/MiBench/telecomm-CRC32/telecomm-CRC32, 0.0328, 0.0327, 0.0327,0.0327, 0.0328, 0.0328, 0.0329,0.0328
MultiSource/Benchmarks/MiBench/telecomm-FFT/telecomm-fft, 0.1281, 0.1293, 0.1274,0.1281, 0.1281, 0.1284, 0.1287,0.1284
MultiSource/Benchmarks/MiBench/telecomm-adpcm/telecomm-adpcm, 0.0520, 0.0518, 0.0518,0.0518, 0.0522, 0.0521, 0.0522,0.0522
MultiSource/Benchmarks/MiBench/telecomm-gsm/telecomm-gsm, 0.9464, 0.9442, 0.9449,0.9449, 0.9491, 0.9509, 0.9499,0.9499
MultiSource/Benchmarks/NPB-serial/is/is, 0.0593, 0.0592, 0.0592,0.0592, 0.0594, 0.0595, 0.0595,0.0595
MultiSource/Benchmarks/Olden/bh/bh, 0.2361, 0.2353, 0.2350,0.2353, 0.2356, 0.2363, 0.2367,0.2363
MultiSource/Benchmarks/Olden/bisort/bisort, 0.0596, 0.0595, 0.0598,0.0596, 0.0597, 0.0599, 0.0598,0.0598
MultiSource/Benchmarks/Olden/em3d/em3d, 0.1638, 0.1632, 0.1631,0.1632, 0.1631, 0.1633, 0.1635,0.1633
MultiSource/Benchmarks/Olden/health/health, 0.1268, 0.1268, 0.1269,0.1268, 0.1274, 0.1273, 0.1278,0.1274
MultiSource/Benchmarks/Olden/mst/mst, 0.1139, 0.1134, 0.1135,0.1135, 0.1170, 0.1173, 0.1176,0.1173
MultiSource/Benchmarks/Olden/perimeter/perimeter, 0.0732, 0.0748, 0.0729,0.0732, 0.0732, 0.0732, 0.0732,0.0732
MultiSource/Benchmarks/Olden/power/power, 0.1182, 0.1177, 0.1175,0.1177, 0.1179, 0.1183, 0.1194,0.1183
MultiSource/Benchmarks/Olden/treeadd/treeadd, 0.0534, 0.0532, 0.0532,0.0532, 0.0533, 0.0534, 0.0533,0.0533
MultiSource/Benchmarks/Olden/tsp/tsp, 0.1187, 0.1184, 0.1186,0.1186, 0.1180, 0.1195, 0.1180,0.118
MultiSource/Benchmarks/Olden/voronoi/voronoi, 0.2208, 0.2209, 0.2205,0.2208, 0.2214, 0.2216, 0.2221,0.2216
MultiSource/Benchmarks/PAQ8p/paq8p, 1.7219, 1.7184, 1.7198,1.7198, 1.7306, 1.7280, 1.7283,1.7283
MultiSource/Benchmarks/Prolangs-C++/city/city, 0.8286, 0.8297, 0.8275,0.8286, 0.8297, 0.8324, 0.8335,0.8324
MultiSource/Benchmarks/Prolangs-C++/employ/employ, 0.1844, 0.1849, 0.1845,0.1845, 0.1853, 0.1854, 0.1858,0.1854
MultiSource/Benchmarks/Prolangs-C++/life/life, 0.0548, 0.0547, 0.0547,0.0547, 0.0549, 0.0549, 0.0549,0.0549
MultiSource/Benchmarks/Prolangs-C++/ocean/ocean, 0.1000, 0.0999, 0.0997,0.0999, 0.1002, 0.1000, 0.1003,0.1002
MultiSource/Benchmarks/Prolangs-C++/primes/primes, 0.0237, 0.0237, 0.0235,0.0237, 0.0237, 0.0236, 0.0237,0.0237
MultiSource/Benchmarks/Prolangs-C++/simul/simul, 0.0488, 0.0487, 0.0485,0.0487, 0.0490, 0.0488, 0.0488,0.0488
MultiSource/Benchmarks/Prolangs-C/agrep/agrep, 1.2031, 1.2014, 1.1988,1.2014, 1.2049, 1.2062, 1.2073,1.2062
MultiSource/Benchmarks/Prolangs-C/bison/mybison, 1.4598, 1.4604, 1.4588,1.4598, 1.4638, 1.4653, 1.4663,1.4653
MultiSource/Benchmarks/Prolangs-C/gnugo/gnugo, 0.6761, 0.6747, 0.6771,0.6761, 0.6793, 0.6786, 0.6810,0.6793
MultiSource/Benchmarks/Ptrdist/anagram/anagram, 0.0911, 0.0910, 0.0911,0.0911, 0.0910, 0.0911, 0.0913,0.0911
MultiSource/Benchmarks/Ptrdist/bc/bc, 0.9120, 0.9130, 0.9117,0.912, 0.9107, 0.9128, 0.9132,0.9128
MultiSource/Benchmarks/Ptrdist/ft/ft, 0.1919, 0.1923, 0.1918,0.1919, 0.1907, 0.1929, 0.1919,0.1919
MultiSource/Benchmarks/Ptrdist/ks/ks, 0.1317, 0.1318, 0.1314,0.1317, 0.1317, 0.1322, 0.1323,0.1322
MultiSource/Benchmarks/Ptrdist/yacr2/yacr2, 0.5497, 0.5505, 0.5474,0.5497, 0.5497, 0.5496, 0.5502,0.5497
MultiSource/Benchmarks/SciMark2-C/scimark2, 0.3429, 0.3418, 0.3417,0.3418, 0.3435, 0.3431, 0.3436,0.3435
MultiSource/Benchmarks/TSVC/ControlFlow-dbl/ControlFlow-dbl, 1.9713, 1.9682, 1.9698,1.9698, 1.9795, 1.9829, 1.9815,1.9815
MultiSource/Benchmarks/TSVC/ControlFlow-flt/ControlFlow-flt, 1.6597, 1.6610, 1.6598,1.6598, 1.6665, 1.6658, 1.6678,1.6665
MultiSource/Benchmarks/TSVC/ControlLoops-dbl/ControlLoops-dbl, 1.8798, 1.8809, 1.8787,1.8798, 1.8995, 1.8992, 1.9011,1.8995
MultiSource/Benchmarks/TSVC/ControlLoops-flt/ControlLoops-flt, 1.5715, 1.5728, 1.5671,1.5715, 1.5865, 1.5900, 1.5869,1.5869
MultiSource/Benchmarks/TSVC/CrossingThresholds-dbl/CrossingThresholds-dbl, 1.8329, 1.8327, 1.8335,1.8329, 1.8440, 1.8449, 1.8441,1.8441
MultiSource/Benchmarks/TSVC/CrossingThresholds-flt/CrossingThresholds-flt, 1.5265, 1.5302, 1.5239,1.5265, 1.5339, 1.5328, 1.5335,1.5335
MultiSource/Benchmarks/TSVC/Equivalencing-dbl/Equivalencing-dbl, 1.8438, 1.8427, 1.8403,1.8427, 1.8541, 1.8588, 1.8540,1.8541
MultiSource/Benchmarks/TSVC/Equivalencing-flt/Equivalencing-flt, 1.5314, 1.5371, 1.5270,1.5314, 1.5400, 1.5422, 1.5418,1.5418
MultiSource/Benchmarks/TSVC/Expansion-dbl/Expansion-dbl, 1.8794, 1.8769, 1.8768,1.8769, 1.8843, 1.8876, 1.8824,1.8843
MultiSource/Benchmarks/TSVC/Expansion-flt/Expansion-flt, 1.5672, 1.5665, 1.5648,1.5665, 1.5717, 1.5751, 1.5751,1.5751
MultiSource/Benchmarks/TSVC/GlobalDataFlow-dbl/GlobalDataFlow-dbl, 1.8669, 1.8691, 1.8667,1.8669, 1.8768, 1.8787, 1.8793,1.8787
MultiSource/Benchmarks/TSVC/GlobalDataFlow-flt/GlobalDataFlow-flt, 1.5624, 1.5613, 1.5496,1.5613, 1.5691, 1.5697, 1.5687,1.5691
MultiSource/Benchmarks/TSVC/IndirectAddressing-dbl/IndirectAddressing-dbl, 1.8287, 1.8280, 1.8256,1.828, 1.8300, 1.8284, 1.8319,1.83
MultiSource/Benchmarks/TSVC/IndirectAddressing-flt/IndirectAddressing-flt, 1.5220, 1.5185, 1.5233,1.522, 1.5217, 1.5218, 1.5209,1.5217
MultiSource/Benchmarks/TSVC/InductionVariable-dbl/InductionVariable-dbl, 1.8532, 1.8499, 1.8477,1.8499, 1.8510, 1.8530, 1.8525,1.8525
MultiSource/Benchmarks/TSVC/InductionVariable-flt/InductionVariable-flt, 1.5406, 1.5439, 1.5390,1.5406, 1.5468, 1.5464, 1.5482,1.5468
MultiSource/Benchmarks/TSVC/LinearDependence-dbl/LinearDependence-dbl, 1.8916, 1.8910, 1.8922,1.8916, 1.9040, 1.9046, 1.9059,1.9046
MultiSource/Benchmarks/TSVC/LinearDependence-flt/LinearDependence-flt, 1.5862, 1.5863, 1.5862,1.5862, 1.5886, 1.5926, 1.5906,1.5906
MultiSource/Benchmarks/TSVC/LoopRerolling-dbl/LoopRerolling-dbl, 1.8049, 1.8055, 1.8049,1.8049, 1.8208, 1.8263, 1.8213,1.8213
MultiSource/Benchmarks/TSVC/LoopRerolling-flt/LoopRerolling-flt, 1.4990, 1.4971, 1.4957,1.4971, 1.5092, 1.5095, 1.5085,1.5092
MultiSource/Benchmarks/TSVC/LoopRestructuring-dbl/LoopRestructuring-dbl, 1.8483, 1.8471, 1.8464,1.8471, 1.8488, 1.8508, 1.8477,1.8488
MultiSource/Benchmarks/TSVC/LoopRestructuring-flt/LoopRestructuring-flt, 1.5375, 1.5413, 1.5408,1.5408, 1.5440, 1.5434, 1.5444,1.544
MultiSource/Benchmarks/TSVC/NodeSplitting-dbl/NodeSplitting-dbl, 1.8149, 1.8171, 1.8146,1.8149, 1.8326, 1.8396, 1.8356,1.8356
MultiSource/Benchmarks/TSVC/NodeSplitting-flt/NodeSplitting-flt, 1.5108, 1.5117, 1.5081,1.5108, 1.5229, 1.5229, 1.5295,1.5229
MultiSource/Benchmarks/TSVC/Packing-dbl/Packing-dbl, 1.7932, 1.7958, 1.7937,1.7937, 1.8030, 1.8047, 1.8027,1.803
MultiSource/Benchmarks/TSVC/Packing-flt/Packing-flt, 1.4895, 1.4878, 1.4856,1.4878, 1.4924, 1.4947, 1.4972,1.4947
MultiSource/Benchmarks/TSVC/Recurrences-dbl/Recurrences-dbl, 1.7953, 1.7951, 1.7933,1.7951, 1.7987, 1.8026, 1.8016,1.8016
MultiSource/Benchmarks/TSVC/Recurrences-flt/Recurrences-flt, 1.4811, 1.4870, 1.4864,1.4864, 1.4899, 1.4907, 1.4892,1.4899
MultiSource/Benchmarks/TSVC/Reductions-dbl/Reductions-dbl, 1.8860, 1.8876, 1.8847,1.886, 1.8966, 1.8970, 1.8978,1.897
MultiSource/Benchmarks/TSVC/Reductions-flt/Reductions-flt, 1.5765, 1.5801, 1.5811,1.5801, 1.5879, 1.5916, 1.5844,1.5879
MultiSource/Benchmarks/TSVC/Searching-dbl/Searching-dbl, 1.7789, 1.7873, 1.7805,1.7805, 1.7912, 1.7912, 1.7905,1.7912
MultiSource/Benchmarks/TSVC/Searching-flt/Searching-flt, 1.4766, 1.4792, 1.4731,1.4766, 1.4737, 1.4800, 1.4808,1.48
MultiSource/Benchmarks/TSVC/StatementReordering-dbl/StatementReordering-dbl, 1.7918, 1.7915, 1.7925,1.7918, 1.7986, 1.8014, 1.8039,1.8014
MultiSource/Benchmarks/TSVC/StatementReordering-flt/StatementReordering-flt, 1.4854, 1.4850, 1.4819,1.485, 1.4964, 1.4938, 1.4923,1.4938
MultiSource/Benchmarks/TSVC/Symbolics-dbl/Symbolics-dbl, 1.8323, 1.8323, 1.8285,1.8323, 1.8364, 1.8408, 1.8381,1.8381
MultiSource/Benchmarks/TSVC/Symbolics-flt/Symbolics-flt, 1.5192, 1.5189, 1.5031,1.5189, 1.5382, 1.5310, 1.5314,1.5314
MultiSource/Benchmarks/Trimaran/enc-3des/enc-3des, 0.2123, 0.2140, 0.2141,0.214, 0.2160, 0.2142, 0.2144,0.2144
MultiSource/Benchmarks/Trimaran/enc-md5/enc-md5, 0.1338, 0.1336, 0.1336,0.1336, 0.1336, 0.1337, 0.1339,0.1337
MultiSource/Benchmarks/Trimaran/enc-pc1/enc-pc1, 0.0588, 0.0587, 0.0587,0.0587, 0.0589, 0.0587, 0.0588,0.0588
MultiSource/Benchmarks/Trimaran/enc-rc4/enc-rc4, 0.0460, 0.0460, 0.0457,0.046, 0.0461, 0.0460, 0.0462,0.0461
MultiSource/Benchmarks/Trimaran/netbench-crc/netbench-crc, 0.0710, 0.0711, 0.0711,0.0711, 0.0712, 0.0713, 0.0714,0.0713
MultiSource/Benchmarks/Trimaran/netbench-url/netbench-url, 0.1889, 0.1887, 0.1883,0.1887, 0.1889, 0.1894, 0.1897,0.1894
MultiSource/Benchmarks/VersaBench/8b10b/8b10b, 0.0699, 0.0695, 0.0698,0.0698, 0.0698, 0.0701, 0.0700,0.07
MultiSource/Benchmarks/VersaBench/beamformer/beamformer, 0.2715, 0.2716, 0.2714,0.2715, 0.2725, 0.2728, 0.2737,0.2728
MultiSource/Benchmarks/VersaBench/bmm/bmm, 0.0467, 0.0466, 0.0467,0.0467, 0.0468, 0.0468, 0.0470,0.0468
MultiSource/Benchmarks/VersaBench/dbms/dbms, 0.8969, 0.8946, 0.8938,0.8946, 0.8964, 0.8961, 0.8969,0.8964
MultiSource/Benchmarks/VersaBench/ecbdes/ecbdes, 0.1931, 0.1926, 0.1930,0.193, 0.1932, 0.1936, 0.1939,0.1936
MultiSource/Benchmarks/llubenchmark/llu, 0.0433, 0.0434, 0.0431,0.0433, 0.0433, 0.0432, 0.0434,0.0433
MultiSource/Benchmarks/mafft/pairlocalalign, 7.8611, 7.8619, 7.8539,7.8611, 7.8700, 7.8780, 7.8752,7.8752
MultiSource/Benchmarks/mediabench/adpcm/rawcaudio/rawcaudio, 0.0522, 0.0522, 0.0521,0.0522, 0.0524, 0.0523, 0.0525,0.0524
MultiSource/Benchmarks/mediabench/adpcm/rawdaudio/rawdaudio, 0.0522, 0.0522, 0.0520,0.0522, 0.0522, 0.0524, 0.0524,0.0524
MultiSource/Benchmarks/mediabench/g721/g721encode/encode, 0.1828, 0.1824, 0.1820,0.1824, 0.1832, 0.1831, 0.1834,0.1832
MultiSource/Benchmarks/mediabench/gsm/toast/toast, 0.9462, 0.9447, 0.9446,0.9447, 0.9487, 0.9488, 0.9509,0.9488
MultiSource/Benchmarks/mediabench/jpeg/jpeg-6a/cjpeg, 4.0641, 4.0598, 4.0558,4.0598, 4.0594, 4.0631, 4.0664,4.0631
MultiSource/Benchmarks/mediabench/mpeg2/mpeg2dec/mpeg2decode, 1.2012, 1.1985, 1.1994,1.1994, 1.2040, 1.2082, 1.2056,1.2056
MultiSource/Benchmarks/nbench/nbench, 1.0067, 1.0066, 1.0076,1.0067, 1.0105, 1.0129, 1.0128,1.0128
MultiSource/Benchmarks/sim/sim, 0.2552, 0.2555, 0.2549,0.2552, 0.2555, 0.2555, 0.2555,0.2555
MultiSource/Benchmarks/tramp3d-v4/tramp3d-v4,18.5736,18.6171,18.5789,18.5789,18.4951,18.5071,18.4963,18.4963
SingleSource/Benchmarks/Adobe-C++/functionobjects, 0.4130, 0.4143, 0.4124,0.413, 0.3996, 0.4010, 0.4016,0.401
SingleSource/Benchmarks/Adobe-C++/loop_unroll, 3.9888, 4.0003, 3.9860,3.9888, 4.0047, 4.0096, 4.0084,4.0084
SingleSource/Benchmarks/Adobe-C++/simple_types_constant_folding, 2.2644, 2.2670, 2.2622,2.2644, 2.2780, 2.2808, 2.2814,2.2808
SingleSource/Benchmarks/Adobe-C++/simple_types_loop_invariant, 1.8280, 1.8330, 1.8315,1.8315, 1.8354, 1.8399, 1.8395,1.8395
SingleSource/Benchmarks/Adobe-C++/stepanov_abstraction, 0.5537, 0.5544, 0.5529,0.5537, 0.4946, 0.4954, 0.4961,0.4954
SingleSource/Benchmarks/Adobe-C++/stepanov_vector, 0.6684, 0.6697, 0.6663,0.6684, 0.7731, 0.7740, 0.7734,0.7734
SingleSource/Benchmarks/BenchmarkGame/Large/fasta, 0.0377, 0.0376, 0.0375,0.0376, 0.0377, 0.0378, 0.0378,0.0378
SingleSource/Benchmarks/BenchmarkGame/fannkuch, 0.0470, 0.0470, 0.0471,0.047, 0.0470, 0.0472, 0.0472,0.0472
SingleSource/Benchmarks/BenchmarkGame/n-body, 0.0647, 0.0645, 0.0646,0.0646, 0.0648, 0.0650, 0.0650,0.065
SingleSource/Benchmarks/BenchmarkGame/nsieve-bits, 0.0297, 0.0297, 0.0296,0.0297, 0.0298, 0.0298, 0.0300,0.0298
SingleSource/Benchmarks/BenchmarkGame/partialsums, 0.0278, 0.0277, 0.0277,0.0277, 0.0279, 0.0280, 0.0282,0.028
SingleSource/Benchmarks/BenchmarkGame/puzzle, 0.0512, 0.0512, 0.0522,0.0512, 0.0513, 0.0514, 0.0515,0.0514
SingleSource/Benchmarks/BenchmarkGame/recursive, 0.0248, 0.0249, 0.0249,0.0249, 0.0250, 0.0250, 0.0251,0.025
SingleSource/Benchmarks/BenchmarkGame/spectral-norm, 0.0499, 0.0500, 0.0499,0.0499, 0.0504, 0.0503, 0.0504,0.0504
SingleSource/Benchmarks/CoyoteBench/almabench, 0.0594, 0.0605, 0.0608,0.0605, 0.0608, 0.0611, 0.0610,0.061
SingleSource/Benchmarks/CoyoteBench/fftbench, 0.2927, 0.2937, 0.2935,0.2935, 0.2937, 0.2958, 0.2953,0.2953
SingleSource/Benchmarks/CoyoteBench/huffbench, 0.0773, 0.0773, 0.0771,0.0773, 0.0774, 0.0776, 0.0778,0.0776
SingleSource/Benchmarks/CoyoteBench/lpbench, 0.1362, 0.1361, 0.1358,0.1361, 0.1366, 0.1368, 0.1365,0.1366
SingleSource/Benchmarks/Dhrystone/dry, 0.0363, 0.0380, 0.0381,0.038, 0.0364, 0.0380, 0.0382,0.038
SingleSource/Benchmarks/Dhrystone/fldry, 0.0394, 0.0407, 0.0408,0.0407, 0.0395, 0.0409, 0.0410,0.0409
SingleSource/Benchmarks/Linpack/linpack-pc, 0.2764, 0.2764, 0.2762,0.2764, 0.2771, 0.2778, 0.2777,0.2777
SingleSource/Benchmarks/McGill/chomp, 0.1686, 0.1689, 0.1684,0.1686, 0.1708, 0.1703, 0.1701,0.1703
SingleSource/Benchmarks/McGill/misr, 0.0492, 0.0492, 0.0491,0.0492, 0.0493, 0.0493, 0.0493,0.0493
SingleSource/Benchmarks/McGill/queens, 0.0415, 0.0414, 0.0414,0.0414, 0.0416, 0.0415, 0.0415,0.0415
SingleSource/Benchmarks/Misc-C++-EH/spirit, 3.3071, 3.3114, 3.3021,3.3071, 3.3039, 3.3030, 3.3141,3.3039
SingleSource/Benchmarks/Misc-C++/Large/ray, 0.1932, 0.1938, 0.1930,0.1932, 0.1943, 0.1942, 0.1952,0.1943
SingleSource/Benchmarks/Misc-C++/Large/sphereflake, 0.2010, 0.2007, 0.2005,0.2007, 0.2012, 0.2011, 0.2014,0.2012
SingleSource/Benchmarks/Misc-C++/bigfib, 0.4043, 0.4041, 0.4034,0.4041, 0.4007, 0.4021, 0.4026,0.4021
SingleSource/Benchmarks/Misc-C++/mandel-text, 0.0228, 0.0227, 0.0227,0.0227, 0.0228, 0.0228, 0.0228,0.0228
SingleSource/Benchmarks/Misc-C++/oopack_v1p8, 0.1017, 0.1020, 0.1021,0.102, 0.1026, 0.1027, 0.1029,0.1027
SingleSource/Benchmarks/Misc-C++/stepanov_container, 0.6068, 0.6070, 0.6081,0.607, 0.5934, 0.5948, 0.5931,0.5934
SingleSource/Benchmarks/Misc-C++/stepanov_v1p2, 0.1568, 0.1568, 0.1566,0.1568, 0.1573, 0.1572, 0.1572,0.1572
SingleSource/Benchmarks/Misc/ReedSolomon, 0.1690, 0.1690, 0.1687,0.169, 0.1702, 0.1702, 0.1703,0.1702
SingleSource/Benchmarks/Misc/dt, 0.0299, 0.0300, 0.0299,0.0299, 0.0301, 0.0302, 0.0302,0.0302
SingleSource/Benchmarks/Misc/evalloop, 0.0337, 0.0336, 0.0336,0.0336, 0.0337, 0.0337, 0.0338,0.0337
SingleSource/Benchmarks/Misc/fbench, 0.0494, 0.0493, 0.0492,0.0493, 0.0495, 0.0496, 0.0496,0.0496
SingleSource/Benchmarks/Misc/ffbench, 0.0611, 0.0609, 0.0618,0.0611, 0.0612, 0.0614, 0.0615,0.0614
SingleSource/Benchmarks/Misc/flops, 0.0698, 0.0698, 0.0697,0.0698, 0.0703, 0.0704, 0.0704,0.0704
SingleSource/Benchmarks/Misc/flops-1, 0.0253, 0.0252, 0.0252,0.0252, 0.0253, 0.0254, 0.0253,0.0253
SingleSource/Benchmarks/Misc/flops-2, 0.0261, 0.0261, 0.0261,0.0261, 0.0262, 0.0262, 0.0264,0.0262
SingleSource/Benchmarks/Misc/flops-3, 0.0251, 0.0252, 0.0250,0.0251, 0.0252, 0.0253, 0.0253,0.0253
SingleSource/Benchmarks/Misc/flops-4, 0.0255, 0.0256, 0.0254,0.0255, 0.0257, 0.0258, 0.0258,0.0258
SingleSource/Benchmarks/Misc/flops-5, 0.0260, 0.0261, 0.0260,0.026, 0.0262, 0.0262, 0.0263,0.0262
SingleSource/Benchmarks/Misc/flops-6, 0.0261, 0.0261, 0.0270,0.0261, 0.0262, 0.0263, 0.0264,0.0263
SingleSource/Benchmarks/Misc/flops-7, 0.0251, 0.0268, 0.0249,0.0251, 0.0251, 0.0252, 0.0252,0.0252
SingleSource/Benchmarks/Misc/flops-8, 0.0262, 0.0262, 0.0261,0.0262, 0.0263, 0.0263, 0.0264,0.0263
SingleSource/Benchmarks/Misc/fp-convert, 0.0281, 0.0282, 0.0281,0.0281, 0.0284, 0.0283, 0.0283,0.0283
SingleSource/Benchmarks/Misc/himenobmtxpa, 0.1550, 0.1548, 0.1546,0.1548, 0.1555, 0.1555, 0.1555,0.1555
SingleSource/Benchmarks/Misc/lowercase, 0.0238, 0.0236, 0.0237,0.0237, 0.0239, 0.0238, 0.0239,0.0239
SingleSource/Benchmarks/Misc/mandel, 0.0405, 0.0405, 0.0404,0.0405, 0.0409, 0.0409, 0.0410,0.0409
SingleSource/Benchmarks/Misc/mandel-2, 0.0292, 0.0294, 0.0292,0.0292, 0.0292, 0.0294, 0.0295,0.0294
SingleSource/Benchmarks/Misc/matmul_f64_4x4, 0.0266, 0.0265, 0.0265,0.0265, 0.0266, 0.0266, 0.0266,0.0266
SingleSource/Benchmarks/Misc/oourafft, 0.1894, 0.1898, 0.1893,0.1894, 0.1902, 0.1907, 0.1907,0.1907
SingleSource/Benchmarks/Misc/perlin, 0.0414, 0.0414, 0.0413,0.0414, 0.0414, 0.0415, 0.0415,0.0415
SingleSource/Benchmarks/Misc/pi, 0.0200, 0.0201, 0.0200,0.02, 0.0201, 0.0200, 0.0201,0.0201
SingleSource/Benchmarks/Misc/revertBits, 0.0239, 0.0240, 0.0239,0.0239, 0.0240, 0.0240, 0.0240,0.024
SingleSource/Benchmarks/Misc/richards_benchmark, 0.0585, 0.0585, 0.0583,0.0585, 0.0586, 0.0588, 0.0588,0.0588
SingleSource/Benchmarks/Misc/salsa20, 0.0498, 0.0497, 0.0498,0.0498, 0.0503, 0.0502, 0.0504,0.0503
SingleSource/Benchmarks/Misc/whetstone, 0.0611, 0.0610, 0.0612,0.0611, 0.0613, 0.0615, 0.0616,0.0615
SingleSource/Benchmarks/Polybench/datamining/correlation/correlation, 0.0694, 0.0697, 0.0697,0.0697, 0.0697, 0.0699, 0.0699,0.0699
SingleSource/Benchmarks/Polybench/datamining/covariance/covariance, 0.0771, 0.0759, 0.0758,0.0759, 0.0764, 0.0765, 0.0765,0.0765
SingleSource/Benchmarks/Polybench/linear-algebra/kernels/atax/atax, 0.0726, 0.0729, 0.0744,0.0729, 0.0728, 0.0732, 0.0732,0.0732
SingleSource/Benchmarks/Polybench/linear-algebra/kernels/bicg/bicg, 0.0713, 0.0712, 0.0712,0.0712, 0.0713, 0.0716, 0.0719,0.0716
SingleSource/Benchmarks/Polybench/linear-algebra/kernels/cholesky/cholesky, 0.0831, 0.0832, 0.0831,0.0831, 0.0837, 0.0838, 0.0839,0.0838
SingleSource/Benchmarks/Polybench/linear-algebra/kernels/doitgen/doitgen, 0.0881, 0.0881, 0.0880,0.0881, 0.0885, 0.0886, 0.0887,0.0886
SingleSource/Benchmarks/Polybench/linear-algebra/kernels/gemver/gemver, 0.0820, 0.0821, 0.0819,0.082, 0.0825, 0.0826, 0.0828,0.0826
SingleSource/Benchmarks/Polybench/linear-algebra/kernels/gesummv/gesummv, 0.0610, 0.0611, 0.0611,0.0611, 0.0612, 0.0614, 0.0617,0.0614
SingleSource/Benchmarks/Polybench/linear-algebra/kernels/mvt/mvt, 0.0732, 0.0732, 0.0732,0.0732, 0.0737, 0.0738, 0.0738,0.0738
SingleSource/Benchmarks/Polybench/linear-algebra/kernels/symm/symm, 0.0696, 0.0697, 0.0696,0.0696, 0.0698, 0.0699, 0.0702,0.0699
SingleSource/Benchmarks/Polybench/linear-algebra/kernels/syr2k/syr2k, 0.0709, 0.0711, 0.0709,0.0709, 0.0711, 0.0714, 0.0717,0.0714
SingleSource/Benchmarks/Polybench/linear-algebra/kernels/syrk/syrk, 0.0694, 0.0694, 0.0692,0.0694, 0.0696, 0.0699, 0.0701,0.0699
SingleSource/Benchmarks/Polybench/linear-algebra/kernels/trisolv/trisolv, 0.0580, 0.0578, 0.0578,0.0578, 0.0580, 0.0581, 0.0582,0.0581
SingleSource/Benchmarks/Polybench/linear-algebra/kernels/trmm/trmm, 0.0659, 0.0660, 0.0659,0.0659, 0.0661, 0.0661, 0.0662,0.0661
SingleSource/Benchmarks/Polybench/linear-algebra/solvers/durbin/durbin, 0.0799, 0.0796, 0.0796,0.0796, 0.0799, 0.0800, 0.0803,0.08
SingleSource/Benchmarks/Polybench/linear-algebra/solvers/dynprog/dynprog, 0.0663, 0.0662, 0.0663,0.0663, 0.0667, 0.0667, 0.0667,0.0667
SingleSource/Benchmarks/Polybench/linear-algebra/solvers/gramschmidt/gramschmidt, 0.0922, 0.0922, 0.0921,0.0922, 0.0926, 0.0927, 0.0929,0.0927
SingleSource/Benchmarks/Polybench/linear-algebra/solvers/lu/lu, 0.0810, 0.0810, 0.0810,0.081, 0.0814, 0.0815, 0.0817,0.0815
SingleSource/Benchmarks/Polybench/medley/floyd-warshall/floyd-warshall, 0.0687, 0.0686, 0.0687,0.0687, 0.0687, 0.0689, 0.0691,0.0689
SingleSource/Benchmarks/Polybench/medley/reg_detect/reg_detect, 0.3902, 0.3899, 0.3904,0.3902, 0.3926, 0.3916, 0.3921,0.3921
SingleSource/Benchmarks/Polybench/stencils/adi/adi, 0.0819, 0.0817, 0.0818,0.0818, 0.0818, 0.0820, 0.0822,0.082
SingleSource/Benchmarks/Polybench/stencils/fdtd-2d/fdtd-2d, 0.1242, 0.1243, 0.1243,0.1243, 0.1247, 0.1248, 0.1252,0.1248
SingleSource/Benchmarks/Polybench/stencils/fdtd-apml/fdtd-apml, 0.1188, 0.1183, 0.1186,0.1186, 0.1191, 0.1193, 0.1194,0.1193
SingleSource/Benchmarks/Polybench/stencils/jacobi-1d-imper/jacobi-1d-imper, 0.0759, 0.0761, 0.0759,0.0759, 0.0762, 0.0764, 0.0767,0.0764
SingleSource/Benchmarks/Polybench/stencils/jacobi-2d-imper/jacobi-2d-imper, 0.1017, 0.1019, 0.1018,0.1018, 0.1021, 0.1025, 0.1025,0.1025
SingleSource/Benchmarks/Polybench/stencils/seidel-2d/seidel-2d, 0.0634, 0.0637, 0.0635,0.0635, 0.0638, 0.0639, 0.0640,0.0639
SingleSource/Benchmarks/Shootout-C++/EH/except, 0.1197, 0.1198, 0.1196,0.1197, 0.1199, 0.1203, 0.1204,0.1203
SingleSource/Benchmarks/Shootout-C++/ackermann, 0.1080, 0.1085, 0.1082,0.1082, 0.1083, 0.1085, 0.1089,0.1085
SingleSource/Benchmarks/Shootout-C++/ary, 0.1416, 0.1420, 0.1420,0.142, 0.1428, 0.1426, 0.1430,0.1428
SingleSource/Benchmarks/Shootout-C++/ary2, 0.1429, 0.1437, 0.1436,0.1436, 0.1436, 0.1440, 0.1461,0.144
SingleSource/Benchmarks/Shootout-C++/ary3, 0.1448, 0.1457, 0.1448,0.1448, 0.1458, 0.1460, 0.1463,0.146
SingleSource/Benchmarks/Shootout-C++/fibo, 0.1062, 0.1063, 0.1083,0.1063, 0.1065, 0.1067, 0.1069,0.1067
SingleSource/Benchmarks/Shootout-C++/hash, 0.2452, 0.2464, 0.2458,0.2458, 0.2441, 0.2458, 0.2450,0.245
SingleSource/Benchmarks/Shootout-C++/hash2, 0.2777, 0.2782, 0.2783,0.2782, 0.2759, 0.2762, 0.2753,0.2759
SingleSource/Benchmarks/Shootout-C++/heapsort, 0.1214, 0.1209, 0.1212,0.1212, 0.1215, 0.1218, 0.1218,0.1218
SingleSource/Benchmarks/Shootout-C++/lists, 0.1471, 0.1474, 0.1470,0.1471, 0.1474, 0.1482, 0.1485,0.1482
SingleSource/Benchmarks/Shootout-C++/lists1, 0.1824, 0.1825, 0.1820,0.1824, 0.1830, 0.1821, 0.1822,0.1822
SingleSource/Benchmarks/Shootout-C++/matrix, 0.1680, 0.1681, 0.1680,0.168, 0.1682, 0.1691, 0.1687,0.1687
SingleSource/Benchmarks/Shootout-C++/methcall, 0.1153, 0.1150, 0.1147,0.115, 0.1154, 0.1157, 0.1161,0.1157
SingleSource/Benchmarks/Shootout-C++/moments, 0.2237, 0.2239, 0.2244,0.2239, 0.2190, 0.2196, 0.2201,0.2196
SingleSource/Benchmarks/Shootout-C++/nestedloop, 0.1071, 0.1073, 0.1068,0.1071, 0.1070, 0.1075, 0.1074,0.1074
SingleSource/Benchmarks/Shootout-C++/objinst, 0.1295, 0.1301, 0.1298,0.1298, 0.1306, 0.1305, 0.1312,0.1306
SingleSource/Benchmarks/Shootout-C++/random, 0.1148, 0.1151, 0.1148,0.1148, 0.1154, 0.1157, 0.1157,0.1157
SingleSource/Benchmarks/Shootout-C++/sieve, 0.1684, 0.1682, 0.1675,0.1682, 0.1680, 0.1684, 0.1685,0.1684
SingleSource/Benchmarks/Shootout-C++/strcat, 0.1153, 0.1156, 0.1154,0.1154, 0.1163, 0.1166, 0.1164,0.1164
SingleSource/Benchmarks/Shootout/ackermann, 0.0221, 0.0221, 0.0221,0.0221, 0.0222, 0.0222, 0.0222,0.0222
SingleSource/Benchmarks/Shootout/ary3, 0.0319, 0.0319, 0.0319,0.0319, 0.0321, 0.0321, 0.0320,0.0321
SingleSource/Benchmarks/Shootout/fib2, 0.0189, 0.0188, 0.0187,0.0188, 0.0189, 0.0189, 0.0189,0.0189
SingleSource/Benchmarks/Shootout/hash, 0.0456, 0.0472, 0.0471,0.0471, 0.0473, 0.0471, 0.0472,0.0472
SingleSource/Benchmarks/Shootout/heapsort, 0.0361, 0.0361, 0.0359,0.0361, 0.0363, 0.0363, 0.0365,0.0363
SingleSource/Benchmarks/Shootout/lists, 0.0613, 0.0614, 0.0613,0.0613, 0.0613, 0.0614, 0.0614,0.0614
SingleSource/Benchmarks/Shootout/matrix, 0.0752, 0.0751, 0.0750,0.0751, 0.0751, 0.0751, 0.0752,0.0751
SingleSource/Benchmarks/Shootout/methcall, 0.0295, 0.0294, 0.0294,0.0294, 0.0296, 0.0295, 0.0296,0.0296
SingleSource/Benchmarks/Shootout/nestedloop, 0.0228, 0.0228, 0.0228,0.0228, 0.0229, 0.0228, 0.0229,0.0229
SingleSource/Benchmarks/Shootout/objinst, 0.0331, 0.0346, 0.0346,0.0346, 0.0348, 0.0347, 0.0349,0.0348
SingleSource/Benchmarks/Shootout/random, 0.0279, 0.0278, 0.0277,0.0278, 0.0280, 0.0280, 0.0280,0.028
SingleSource/Benchmarks/Shootout/sieve, 0.0239, 0.0239, 0.0237,0.0239, 0.0239, 0.0238, 0.0240,0.0239
SingleSource/Benchmarks/Shootout/strcat, 0.0241, 0.0255, 0.0255,0.0255, 0.0256, 0.0256, 0.0256,0.0256
SingleSource/Benchmarks/SmallPT/smallpt, 0.0905, 0.0907, 0.0905,0.0905, 0.0909, 0.0910, 0.0908,0.0909
SingleSource/Benchmarks/Stanford/Bubblesort, 0.0315, 0.0315, 0.0315,0.0315, 0.0316, 0.0316, 0.0317,0.0316
SingleSource/Benchmarks/Stanford/FloatMM, 0.0498, 0.0487, 0.0488,0.0488, 0.0489, 0.0490, 0.0490,0.049
SingleSource/Benchmarks/Stanford/Oscar, 0.0576, 0.0575, 0.0574,0.0575, 0.0620, 0.0630, 0.0621,0.0621
SingleSource/Benchmarks/Stanford/Perm, 0.0293, 0.0292, 0.0292,0.0292, 0.0303, 0.0293, 0.0294,0.0294
SingleSource/Benchmarks/Stanford/Puzzle, 0.0999, 0.0998, 0.0999,0.0999, 0.1003, 0.1004, 0.1003,0.1003
SingleSource/Benchmarks/Stanford/Queens, 0.0413, 0.0413, 0.0413,0.0413, 0.0413, 0.0414, 0.0414,0.0414
SingleSource/Benchmarks/Stanford/Quicksort, 0.0348, 0.0347, 0.0347,0.0347, 0.0348, 0.0349, 0.0349,0.0349
SingleSource/Benchmarks/Stanford/RealMM, 0.0473, 0.0461, 0.0460,0.0461, 0.0462, 0.0463, 0.0462,0.0462
SingleSource/Benchmarks/Stanford/Towers, 0.0445, 0.0445, 0.0444,0.0445, 0.0447, 0.0447, 0.0457,0.0447
SingleSource/Benchmarks/Stanford/Treesort, 0.0358, 0.0357, 0.0358,0.0358, 0.0358, 0.0359, 0.0359,0.0359
SingleSource/Regression/C/2004-08-12-InlinerAndAllocas, 0.0171, 0.0185, 0.0186,0.0185, 0.0172, 0.0187, 0.0185,0.0185
SingleSource/Regression/C/uint64_to_float, 0.0338, 0.0335, 0.0334,0.0335, 0.0337, 0.0337, 0.0337,0.0337
Total elapsed time,-,-,-,333.8871000000001,-,-,-,334.6149000000005
Total failure,-,-,-,0,-,-,-,0
