Benchmarks,/mnt/freezedisk/llvm-intptr-base-5.0-release/bin/clang,/mnt/freezedisk/llvm-intptr-base-5.0-release/bin/clang,/mnt/freezedisk/llvm-intptr-base-5.0-release/bin/clang,median,/mnt/freezedisk/llvm-intptr-br3-psub-release/bin/clang,/mnt/freezedisk/llvm-intptr-br3-psub-release/bin/clang,/mnt/freezedisk/llvm-intptr-br3-psub-release/bin/clang,median
MultiSource/Applications/ALAC/decode/alacconvert-decode, 0.0132, 0.0132, 0.0131,0.0132, 0.0131, 0.0131, 0.0131,0.0131
MultiSource/Applications/ALAC/encode/alacconvert-encode, 0.0254, 0.0253, 0.0253,0.0253, 0.0253, 0.0254, 0.0253,0.0253
MultiSource/Applications/ClamAV/clamscan, 0.0910, 0.0919, 0.0920,0.0919, 0.0910, 0.0914, 0.0917,0.0914
MultiSource/Applications/JM/ldecod/ldecod, 0.0392, 0.0391, 0.0390,0.0391, 0.0390, 0.0391, 0.0391,0.0391
MultiSource/Applications/JM/lencod/lencod, 2.8300, 2.8298, 2.8295,2.8298, 2.8318, 2.8259, 2.8302,2.8302
MultiSource/Applications/SIBsim4/SIBsim4, 1.8936, 1.8500, 1.9113,1.8936, 1.8941, 1.8737, 1.8681,1.8737
MultiSource/Applications/SPASS/SPASS, 6.2510, 6.2706, 5.6571,6.251, 5.7858, 6.1710, 6.1674,6.1674
MultiSource/Applications/aha/aha, 0.9180, 0.9163, 0.9163,0.9163, 0.9180, 0.9172, 0.9173,0.9173
MultiSource/Applications/d/make_dparser, 0.0158, 0.0158, 0.0159,0.0158, 0.0159, 0.0158, 0.0158,0.0158
MultiSource/Applications/hbd/hbd, 0.0030, 0.0031, 0.0031,0.0031, 0.0031, 0.0031, 0.0031,0.0031
MultiSource/Applications/hexxagon/hexxagon, 6.2986, 6.2990, 6.2994,6.299, 6.2997, 6.2999, 6.2992,6.2997
MultiSource/Applications/kimwitu++/kc, 0.0270, 0.0270, 0.0271,0.027, 0.0270, 0.0271, 0.0270,0.027
MultiSource/Applications/lambda-0.1.3/lambda, 2.3865, 2.4055, 2.3961,2.3961, 2.3950, 2.3941, 2.3937,2.3941
MultiSource/Applications/lua/lua,10.2127,10.1691,10.2142,10.2127,10.2370,10.1777,10.1795,10.1795
MultiSource/Applications/minisat/minisat, 4.3296, 4.3220, 4.3315,4.3296, 4.3899, 4.3898, 4.4338,4.3899
MultiSource/Applications/obsequi/Obsequi, 1.0147, 1.0153, 1.0146,1.0147, 1.0149, 1.0147, 1.0152,1.0149
MultiSource/Applications/oggenc/oggenc, 0.0689, 0.0687, 0.0688,0.0688, 0.0686, 0.0685, 0.0686,0.0686
MultiSource/Applications/sgefa/sgefa, 0.1358, 0.1357, 0.1357,0.1357, 0.1358, 0.1358, 0.1358,0.1358
MultiSource/Applications/siod/siod, 1.0244, 1.0245, 1.0262,1.0245, 0.9931, 0.9908, 0.9925,0.9925
MultiSource/Applications/spiff/spiff, 1.1506, 1.1492, 1.1491,1.1492, 1.1481, 1.1478, 1.1497,1.1481
MultiSource/Applications/sqlite3/sqlite3, 1.5748, 1.5716, 1.5732,1.5732, 1.5877, 1.5878, 1.5919,1.5878
MultiSource/Applications/viterbi/viterbi, 1.1383, 1.1390, 1.1385,1.1385, 1.1404, 1.1391, 1.1392,1.1392
MultiSource/Benchmarks/7zip/7zip-benchmark, 5.8485, 5.8515, 5.8518,5.8515, 5.8565, 5.8562, 5.8570,5.8565
MultiSource/Benchmarks/ASCI_Purple/SMG2000/smg2000, 1.4910, 1.4923, 1.4917,1.4917, 1.4950, 1.4905, 1.4893,1.4905
MultiSource/Benchmarks/ASC_Sequoia/AMGmk/AMGmk, 4.8870, 4.8567, 4.9024,4.887, 4.8578, 4.8760, 4.8838,4.876
MultiSource/Benchmarks/ASC_Sequoia/CrystalMk/CrystalMk, 6.4711, 6.4710, 6.4709,6.471, 6.4710, 6.4713, 6.4708,6.471
MultiSource/Benchmarks/ASC_Sequoia/IRSmk/IRSmk, 3.0430, 3.0225, 3.0297,3.0297, 3.0595, 3.0325, 3.0403,3.0403
MultiSource/Benchmarks/BitBench/drop3/drop3, 0.1429, 0.1428, 0.1427,0.1428, 0.1427, 0.1428, 0.1427,0.1427
MultiSource/Benchmarks/BitBench/five11/five11, 0.9956, 0.9956, 0.9944,0.9956, 1.0131, 0.9950, 1.0230,1.0131
MultiSource/Benchmarks/BitBench/uudecode/uudecode, 0.0549, 0.0550, 0.0566,0.055, 0.0548, 0.0549, 0.0549,0.0549
MultiSource/Benchmarks/BitBench/uuencode/uuencode, 0.0108, 0.0109, 0.0109,0.0109, 0.0108, 0.0109, 0.0108,0.0108
MultiSource/Benchmarks/Bullet/bullet, 3.1019, 3.0965, 3.1059,3.1019, 3.1726, 3.1771, 3.1662,3.1726
MultiSource/Benchmarks/DOE-ProxyApps-C++/CLAMR/CLAMR, 0.9966, 0.9966, 0.9965,0.9966, 0.9960, 0.9961, 0.9962,0.9961
MultiSource/Benchmarks/DOE-ProxyApps-C++/HPCCG/HPCCG, 0.8127, 0.8126, 0.8119,0.8126, 0.8112, 0.8118, 0.8114,0.8114
MultiSource/Benchmarks/DOE-ProxyApps-C++/PENNANT/PENNANT, 0.3621, 0.3635, 0.3638,0.3635, 0.3639, 0.3638, 0.3639,0.3639
MultiSource/Benchmarks/DOE-ProxyApps-C++/miniFE/miniFE, 2.4509, 2.4518, 2.4505,2.4509, 2.4491, 2.4511, 2.4570,2.4511
MultiSource/Benchmarks/DOE-ProxyApps-C/Pathfinder/PathFinder, 1.8805, 1.8660, 1.8678,1.8678, 1.8691, 1.8902, 1.8720,1.872
MultiSource/Benchmarks/DOE-ProxyApps-C/RSBench/rsbench, 0.5196, 0.5179, 0.5008,0.5179, 0.5193, 0.5128, 0.5241,0.5193
MultiSource/Benchmarks/DOE-ProxyApps-C/SimpleMOC/SimpleMOC, 3.3704, 3.3751, 3.3730,3.373, 3.3781, 3.3646, 3.3739,3.3739
MultiSource/Benchmarks/DOE-ProxyApps-C/XSBench/XSBench, 2.3554, 2.3499, 2.3518,2.3518, 2.3511, 2.3540, 2.3506,2.3511
MultiSource/Benchmarks/DOE-ProxyApps-C/miniAMR/miniAMR, 0.6916, 0.6905, 0.6897,0.6905, 0.6920, 0.6913, 0.6894,0.6913
MultiSource/Benchmarks/DOE-ProxyApps-C/miniGMG/miniGMG, 4.7778, 4.7781, 4.7788,4.7781, 4.7758, 4.7761, 4.7774,4.7761
MultiSource/Benchmarks/Fhourstones-3.1/fhourstones3.1, 0.7249, 0.7252, 0.7253,0.7252, 0.7257, 0.7252, 0.7252,0.7252
MultiSource/Benchmarks/Fhourstones/fhourstones, 0.7195, 0.7183, 0.7198,0.7195, 0.7145, 0.7195, 0.7216,0.7195
MultiSource/Benchmarks/FreeBench/analyzer/analyzer, 0.0374, 0.0368, 0.0369,0.0369, 0.0365, 0.0372, 0.0371,0.0371
MultiSource/Benchmarks/FreeBench/distray/distray, 0.1214, 0.1213, 0.1213,0.1213, 0.1213, 0.1213, 0.1213,0.1213
MultiSource/Benchmarks/FreeBench/fourinarow/fourinarow, 0.1578, 0.1578, 0.1578,0.1578, 0.1578, 0.1579, 0.1579,0.1579
MultiSource/Benchmarks/FreeBench/mason/mason, 0.1174, 0.1173, 0.1173,0.1173, 0.1173, 0.1173, 0.1173,0.1173
MultiSource/Benchmarks/FreeBench/neural/neural, 0.1042, 0.1042, 0.1042,0.1042, 0.1042, 0.1043, 0.1043,0.1043
MultiSource/Benchmarks/FreeBench/pcompress2/pcompress2, 0.0921, 0.0921, 0.0921,0.0921, 0.0921, 0.0921, 0.0921,0.0921
MultiSource/Benchmarks/FreeBench/pifft/pifft, 0.0596, 0.0596, 0.0596,0.0596, 0.0595, 0.0597, 0.0612,0.0597
MultiSource/Benchmarks/MallocBench/cfrac/cfrac, 0.6776, 0.6777, 0.6778,0.6777, 0.6766, 0.6767, 0.6767,0.6767
MultiSource/Benchmarks/MallocBench/espresso/espresso, 0.2673, 0.2670, 0.2673,0.2673, 0.2682, 0.2679, 0.2679,0.2679
MultiSource/Benchmarks/MallocBench/gs/gs, 0.0265, 0.0264, 0.0266,0.0265, 0.0264, 0.0265, 0.0266,0.0265
MultiSource/Benchmarks/McCat/01-qbsort/qbsort, 0.0358, 0.0358, 0.0359,0.0358, 0.0359, 0.0358, 0.0358,0.0358
MultiSource/Benchmarks/McCat/03-testtrie/testtrie, 0.0083, 0.0071, 0.0070,0.0071, 0.0071, 0.0070, 0.0071,0.0071
MultiSource/Benchmarks/McCat/04-bisect/bisect, 0.0683, 0.0683, 0.0683,0.0683, 0.0692, 0.0682, 0.0682,0.0682
MultiSource/Benchmarks/McCat/05-eks/eks, 0.0031, 0.0031, 0.0031,0.0031, 0.0031, 0.0031, 0.0031,0.0031
MultiSource/Benchmarks/McCat/08-main/main, 0.0381, 0.0381, 0.0381,0.0381, 0.0380, 0.0380, 0.0380,0.038
MultiSource/Benchmarks/McCat/09-vor/vor, 0.0800, 0.0800, 0.0802,0.08, 0.0806, 0.0801, 0.0801,0.0801
MultiSource/Benchmarks/McCat/12-IOtest/iotest, 0.2055, 0.2107, 0.2070,0.207, 0.2082, 0.2112, 0.2129,0.2112
MultiSource/Benchmarks/McCat/17-bintr/bintr, 0.0722, 0.0740, 0.0742,0.074, 0.0760, 0.0720, 0.0725,0.0725
MultiSource/Benchmarks/McCat/18-imp/imp, 0.0512, 0.0514, 0.0512,0.0512, 0.0513, 0.0512, 0.0511,0.0512
MultiSource/Benchmarks/MiBench/automotive-basicmath/automotive-basicmath, 0.2004, 0.1998, 0.1998,0.1998, 0.2001, 0.1999, 0.1998,0.1999
MultiSource/Benchmarks/MiBench/automotive-bitcount/automotive-bitcount, 0.0488, 0.0508, 0.0533,0.0508, 0.0486, 0.0511, 0.0486,0.0486
MultiSource/Benchmarks/MiBench/automotive-susan/automotive-susan, 0.0268, 0.0269, 0.0268,0.0268, 0.0268, 0.0268, 0.0268,0.0268
MultiSource/Benchmarks/MiBench/consumer-jpeg/consumer-jpeg, 0.0027, 0.0042, 0.0043,0.0042, 0.0043, 0.0042, 0.0043,0.0043
MultiSource/Benchmarks/MiBench/consumer-lame/consumer-lame, 0.1040, 0.1053, 0.1056,0.1053, 0.1056, 0.1056, 0.1055,0.1056
MultiSource/Benchmarks/MiBench/consumer-typeset/consumer-typeset, 0.0791, 0.0791, 0.0789,0.0791, 0.0781, 0.0787, 0.0783,0.0783
MultiSource/Benchmarks/MiBench/network-dijkstra/network-dijkstra, 0.0233, 0.0234, 0.0234,0.0234, 0.0234, 0.0234, 0.0234,0.0234
MultiSource/Benchmarks/MiBench/network-patricia/network-patricia, 0.0653, 0.0653, 0.0654,0.0653, 0.0653, 0.0654, 0.0653,0.0653
MultiSource/Benchmarks/MiBench/security-rijndael/security-rijndael, 0.0210, 0.0210, 0.0211,0.021, 0.0210, 0.0211, 0.0210,0.021
MultiSource/Benchmarks/MiBench/security-sha/security-sha, 0.0141, 0.0141, 0.0141,0.0141, 0.0141, 0.0141, 0.0140,0.0141
MultiSource/Benchmarks/MiBench/telecomm-CRC32/telecomm-CRC32, 0.1353, 0.1344, 0.1367,0.1353, 0.1339, 0.1346, 0.1329,0.1339
MultiSource/Benchmarks/MiBench/telecomm-FFT/telecomm-fft, 0.0344, 0.0343, 0.0343,0.0343, 0.0343, 0.0344, 0.0343,0.0343
MultiSource/Benchmarks/MiBench/telecomm-adpcm/telecomm-adpcm, 0.0622, 0.0621, 0.0621,0.0621, 0.0622, 0.0622, 0.0621,0.0622
MultiSource/Benchmarks/MiBench/telecomm-gsm/telecomm-gsm, 0.0890, 0.0904, 0.0904,0.0904, 0.0904, 0.0904, 0.0902,0.0904
MultiSource/Benchmarks/NPB-serial/is/is, 4.5197, 4.4903, 4.4836,4.4903, 4.5261, 4.4837, 4.5268,4.5261
MultiSource/Benchmarks/Olden/bh/bh, 1.1635, 1.1638, 1.1637,1.1637, 1.1638, 1.1633, 1.1633,1.1633
MultiSource/Benchmarks/Olden/bisort/bisort, 0.3739, 0.3736, 0.3741,0.3739, 0.3739, 0.3740, 0.3734,0.3739
MultiSource/Benchmarks/Olden/em3d/em3d, 1.5189, 1.5191, 1.5186,1.5189, 1.5187, 1.5187, 1.5188,1.5187
MultiSource/Benchmarks/Olden/health/health, 0.1360, 0.1361, 0.1358,0.136, 0.1358, 0.1358, 0.1362,0.1358
MultiSource/Benchmarks/Olden/mst/mst, 0.0544, 0.0544, 0.0546,0.0544, 0.0540, 0.0543, 0.0541,0.0541
MultiSource/Benchmarks/Olden/perimeter/perimeter, 0.1111, 0.1109, 0.1107,0.1109, 0.1108, 0.1109, 0.1110,0.1109
MultiSource/Benchmarks/Olden/power/power, 0.9373, 0.9371, 0.9373,0.9373, 0.9371, 0.9374, 0.9371,0.9371
MultiSource/Benchmarks/Olden/treeadd/treeadd, 0.1142, 0.1141, 0.1142,0.1142, 0.1141, 0.1141, 0.1141,0.1141
MultiSource/Benchmarks/Olden/tsp/tsp, 1.0558, 1.0556, 1.0556,1.0556, 1.0559, 1.0562, 1.0558,1.0559
MultiSource/Benchmarks/Olden/voronoi/voronoi, 0.1956, 0.1954, 0.1955,0.1955, 0.1949, 0.1951, 0.1951,0.1951
MultiSource/Benchmarks/PAQ8p/paq8p,39.1254,39.0928,39.0975,39.0975,39.0409,39.0666,39.1002,39.0666
MultiSource/Benchmarks/Prolangs-C++/city/city, 0.0045, 0.0045, 0.0045,0.0045, 0.0045, 0.0045, 0.0045,0.0045
MultiSource/Benchmarks/Prolangs-C++/employ/employ, 0.0059, 0.0059, 0.0059,0.0059, 0.0058, 0.0058, 0.0059,0.0058
MultiSource/Benchmarks/Prolangs-C++/life/life, 0.6415, 0.6394, 0.6450,0.6415, 0.6433, 0.6425, 0.6396,0.6425
MultiSource/Benchmarks/Prolangs-C++/ocean/ocean, 0.0361, 0.0361, 0.0360,0.0361, 0.0360, 0.0360, 0.0359,0.036
MultiSource/Benchmarks/Prolangs-C++/primes/primes, 0.1893, 0.1886, 0.1888,0.1888, 0.1896, 0.1895, 0.1887,0.1895
MultiSource/Benchmarks/Prolangs-C++/simul/simul, 0.0034, 0.0034, 0.0034,0.0034, 0.0034, 0.0034, 0.0034,0.0034
MultiSource/Benchmarks/Prolangs-C/agrep/agrep, 0.0042, 0.0042, 0.0042,0.0042, 0.0042, 0.0042, 0.0042,0.0042
MultiSource/Benchmarks/Prolangs-C/bison/mybison, 0.0034, 0.0034, 0.0034,0.0034, 0.0033, 0.0033, 0.0033,0.0033
MultiSource/Benchmarks/Prolangs-C/gnugo/gnugo, 0.0241, 0.0242, 0.0242,0.0242, 0.0242, 0.0241, 0.0241,0.0241
MultiSource/Benchmarks/Ptrdist/anagram/anagram, 0.5361, 0.5360, 0.5360,0.536, 0.5361, 0.5361, 0.5360,0.5361
MultiSource/Benchmarks/Ptrdist/bc/bc, 0.3261, 0.3262, 0.3262,0.3262, 0.3289, 0.3289, 0.3291,0.3289
MultiSource/Benchmarks/Ptrdist/ft/ft, 0.7266, 0.6904, 0.7171,0.7171, 0.7225, 0.7084, 0.7464,0.7225
MultiSource/Benchmarks/Ptrdist/ks/ks, 0.5843, 0.5833, 0.5868,0.5843, 0.5821, 0.5830, 0.5848,0.583
MultiSource/Benchmarks/Ptrdist/yacr2/yacr2, 0.4745, 0.4738, 0.4741,0.4741, 0.4742, 0.4741, 0.4737,0.4741
MultiSource/Benchmarks/SciMark2-C/scimark2,37.4286,37.4312,37.4291,37.4291,37.4516,37.5339,37.4526,37.4526
MultiSource/Benchmarks/TSVC/ControlFlow-dbl/ControlFlow-dbl, 3.3173, 3.3115, 3.3150,3.315, 3.3152, 3.3116, 3.3154,3.3152
MultiSource/Benchmarks/TSVC/ControlFlow-flt/ControlFlow-flt, 3.1209, 3.1344, 3.1402,3.1344, 3.1466, 3.1284, 3.1399,3.1399
MultiSource/Benchmarks/TSVC/ControlLoops-dbl/ControlLoops-dbl, 2.2494, 2.2491, 2.2489,2.2491, 2.2476, 2.2479, 2.2486,2.2479
MultiSource/Benchmarks/TSVC/ControlLoops-flt/ControlLoops-flt, 2.0919, 2.0910, 2.0926,2.0919, 2.0877, 2.0967, 2.0914,2.0914
MultiSource/Benchmarks/TSVC/CrossingThresholds-dbl/CrossingThresholds-dbl, 1.8844, 1.8846, 1.8839,1.8844, 1.8837, 1.8846, 1.8837,1.8837
MultiSource/Benchmarks/TSVC/CrossingThresholds-flt/CrossingThresholds-flt, 1.4309, 1.4385, 1.4293,1.4309, 1.4395, 1.4406, 1.4364,1.4395
MultiSource/Benchmarks/TSVC/Equivalencing-dbl/Equivalencing-dbl, 1.2250, 1.2261, 1.2253,1.2253, 1.2256, 1.2253, 1.2250,1.2253
MultiSource/Benchmarks/TSVC/Equivalencing-flt/Equivalencing-flt, 0.8599, 0.8595, 0.8608,0.8599, 0.8613, 0.8605, 0.8614,0.8613
MultiSource/Benchmarks/TSVC/Expansion-dbl/Expansion-dbl, 1.7343, 1.7367, 1.7347,1.7347, 1.7352, 1.7387, 1.7347,1.7352
MultiSource/Benchmarks/TSVC/Expansion-flt/Expansion-flt, 1.0407, 1.0455, 1.0442,1.0442, 1.0362, 1.0426, 1.0393,1.0393
MultiSource/Benchmarks/TSVC/GlobalDataFlow-dbl/GlobalDataFlow-dbl, 2.5201, 2.5203, 2.5194,2.5201, 2.5201, 2.5197, 2.5199,2.5199
MultiSource/Benchmarks/TSVC/GlobalDataFlow-flt/GlobalDataFlow-flt, 1.3284, 1.3304, 1.3361,1.3304, 1.3317, 1.3302, 1.3411,1.3317
MultiSource/Benchmarks/TSVC/IndirectAddressing-dbl/IndirectAddressing-dbl, 2.1866, 2.1843, 2.1835,2.1843, 2.1801, 2.1813, 2.1840,2.1813
MultiSource/Benchmarks/TSVC/IndirectAddressing-flt/IndirectAddressing-flt, 1.9925, 1.9914, 1.9921,1.9921, 1.9919, 1.9927, 1.9929,1.9927
MultiSource/Benchmarks/TSVC/InductionVariable-dbl/InductionVariable-dbl, 2.6931, 2.6909, 2.6935,2.6931, 2.6942, 2.6921, 2.6959,2.6942
MultiSource/Benchmarks/TSVC/InductionVariable-flt/InductionVariable-flt, 2.2722, 2.2681, 2.2718,2.2718, 2.2707, 2.2666, 2.2719,2.2707
MultiSource/Benchmarks/TSVC/LinearDependence-dbl/LinearDependence-dbl, 5.0648, 5.0683, 5.0659,5.0659, 5.0661, 5.0648, 5.0646,5.0648
MultiSource/Benchmarks/TSVC/LinearDependence-flt/LinearDependence-flt, 4.4241, 4.4241, 4.4263,4.4241, 4.4248, 4.4258, 4.4256,4.4256
MultiSource/Benchmarks/TSVC/LoopRerolling-dbl/LoopRerolling-dbl, 4.0813, 4.0814, 4.0810,4.0813, 4.0812, 4.0815, 4.0810,4.0812
MultiSource/Benchmarks/TSVC/LoopRerolling-flt/LoopRerolling-flt, 3.4025, 3.4041, 3.4082,3.4041, 3.4064, 3.4054, 3.4038,3.4054
MultiSource/Benchmarks/TSVC/LoopRestructuring-dbl/LoopRestructuring-dbl, 3.1604, 3.1534, 3.1691,3.1604, 3.1589, 3.1649, 3.1567,3.1589
MultiSource/Benchmarks/TSVC/LoopRestructuring-flt/LoopRestructuring-flt, 2.5338, 2.5801, 2.5882,2.5801, 2.5702, 2.4788, 2.6203,2.5702
MultiSource/Benchmarks/TSVC/NodeSplitting-dbl/NodeSplitting-dbl, 4.4581, 4.4603, 4.4597,4.4597, 4.4579, 4.4585, 4.4578,4.4579
MultiSource/Benchmarks/TSVC/NodeSplitting-flt/NodeSplitting-flt, 4.1420, 4.1395, 4.1377,4.1395, 4.1363, 4.1409, 4.1367,4.1367
MultiSource/Benchmarks/TSVC/Packing-dbl/Packing-dbl, 2.0190, 2.0186, 2.0183,2.0186, 2.0187, 2.0184, 2.0190,2.0187
MultiSource/Benchmarks/TSVC/Packing-flt/Packing-flt, 1.8649, 1.8682, 1.8598,1.8649, 1.8557, 1.8418, 1.8890,1.8557
MultiSource/Benchmarks/TSVC/Recurrences-dbl/Recurrences-dbl, 3.1149, 3.1149, 3.1149,3.1149, 3.1149, 3.1150, 3.1148,3.1149
MultiSource/Benchmarks/TSVC/Recurrences-flt/Recurrences-flt, 3.1147, 3.1147, 3.1147,3.1147, 3.1146, 3.1148, 3.1144,3.1146
MultiSource/Benchmarks/TSVC/Reductions-dbl/Reductions-dbl, 3.0605, 3.0605, 3.0605,3.0605, 3.0605, 3.0606, 3.0605,3.0605
MultiSource/Benchmarks/TSVC/Reductions-flt/Reductions-flt, 5.2803, 5.2803, 5.2803,5.2803, 5.2802, 5.2806, 5.2801,5.2802
MultiSource/Benchmarks/TSVC/Searching-dbl/Searching-dbl, 2.0237, 2.0241, 2.0244,2.0241, 2.0240, 2.0243, 2.0240,2.024
MultiSource/Benchmarks/TSVC/Searching-flt/Searching-flt, 2.1646, 2.1654, 2.1646,2.1646, 2.1643, 2.1654, 2.1652,2.1652
MultiSource/Benchmarks/TSVC/StatementReordering-dbl/StatementReordering-dbl, 1.9871, 1.9847, 1.9901,1.9871, 1.9834, 1.9866, 1.9905,1.9866
MultiSource/Benchmarks/TSVC/StatementReordering-flt/StatementReordering-flt, 1.6206, 1.6206, 1.6216,1.6206, 1.6227, 1.6210, 1.6224,1.6224
MultiSource/Benchmarks/TSVC/Symbolics-dbl/Symbolics-dbl, 2.1657, 2.1652, 2.1655,2.1655, 2.1652, 2.1658, 2.1655,2.1655
MultiSource/Benchmarks/TSVC/Symbolics-flt/Symbolics-flt, 1.2380, 1.2323, 1.2358,1.2358, 1.2347, 1.2351, 1.2347,1.2347
MultiSource/Benchmarks/Trimaran/enc-3des/enc-3des, 1.1461, 1.1466, 1.1472,1.1466, 1.1469, 1.1469, 1.1471,1.1469
MultiSource/Benchmarks/Trimaran/enc-md5/enc-md5, 1.0892, 1.0893, 1.0893,1.0893, 1.0893, 1.0893, 1.0892,1.0893
MultiSource/Benchmarks/Trimaran/enc-pc1/enc-pc1, 0.3061, 0.3061, 0.3061,0.3061, 0.3061, 0.3061, 0.3060,0.3061
MultiSource/Benchmarks/Trimaran/enc-rc4/enc-rc4, 0.6399, 0.6397, 0.6397,0.6397, 0.6400, 0.6400, 0.6402,0.64
MultiSource/Benchmarks/Trimaran/netbench-crc/netbench-crc, 0.5547, 0.5544, 0.5544,0.5544, 0.5541, 0.5542, 0.5542,0.5542
MultiSource/Benchmarks/Trimaran/netbench-url/netbench-url, 2.6523, 2.6522, 2.6521,2.6522, 2.6521, 2.6524, 2.6521,2.6521
MultiSource/Benchmarks/VersaBench/8b10b/8b10b, 3.2022, 3.2103, 3.2152,3.2103, 3.2009, 3.2048, 3.1980,3.2009
MultiSource/Benchmarks/VersaBench/beamformer/beamformer, 0.6674, 0.6675, 0.6674,0.6674, 0.6675, 0.6676, 0.6672,0.6675
MultiSource/Benchmarks/VersaBench/bmm/bmm, 1.4728, 1.4726, 1.4727,1.4727, 1.4727, 1.4728, 1.4726,1.4727
MultiSource/Benchmarks/VersaBench/dbms/dbms, 0.8835, 0.8857, 0.8815,0.8835, 0.8781, 0.8812, 0.8794,0.8794
MultiSource/Benchmarks/VersaBench/ecbdes/ecbdes, 1.5064, 1.5064, 1.5065,1.5064, 1.5064, 1.5065, 1.5064,1.5064
MultiSource/Benchmarks/llubenchmark/llu, 5.1384, 5.1502, 5.1755,5.1502, 5.2117, 5.2071, 5.1317,5.2071
MultiSource/Benchmarks/mafft/pairlocalalign,21.9297,21.9288,21.9279,21.9288,21.9775,21.9784,21.9780,21.978
MultiSource/Benchmarks/mediabench/adpcm/rawcaudio/rawcaudio, 0.0047, 0.0047, 0.0047,0.0047, 0.0046, 0.0046, 0.0047,0.0046
MultiSource/Benchmarks/mediabench/adpcm/rawdaudio/rawdaudio, 0.0031, 0.0031, 0.0031,0.0031, 0.0032, 0.0031, 0.0031,0.0031
MultiSource/Benchmarks/mediabench/g721/g721encode/encode, 0.0282, 0.0282, 0.0282,0.0282, 0.0281, 0.0282, 0.0282,0.0282
MultiSource/Benchmarks/mediabench/gsm/toast/toast, 0.0134, 0.0133, 0.0133,0.0133, 0.0133, 0.0133, 0.0134,0.0133
MultiSource/Benchmarks/mediabench/jpeg/jpeg-6a/cjpeg, 0.0043, 0.0043, 0.0044,0.0043, 0.0045, 0.0044, 0.0044,0.0044
MultiSource/Benchmarks/mediabench/mpeg2/mpeg2dec/mpeg2decode, 0.0130, 0.0131, 0.0131,0.0131, 0.0131, 0.0131, 0.0131,0.0131
MultiSource/Benchmarks/nbench/nbench, 1.1313, 1.1322, 1.1313,1.1313, 1.1314, 1.1315, 1.1314,1.1314
MultiSource/Benchmarks/sim/sim, 2.2878, 2.2875, 2.2903,2.2878, 2.2900, 2.2905, 2.2885,2.29
MultiSource/Benchmarks/tramp3d-v4/tramp3d-v4, 0.2181, 0.2186, 0.2185,0.2185, 0.2182, 0.2182, 0.2181,0.2182
SingleSource/Benchmarks/Adobe-C++/functionobjects, 2.6862, 2.6859, 2.6874,2.6862, 2.6966, 2.6939, 2.6955,2.6955
SingleSource/Benchmarks/Adobe-C++/loop_unroll, 1.5797, 1.5802, 1.5822,1.5802, 1.5799, 1.5744, 1.5798,1.5798
SingleSource/Benchmarks/Adobe-C++/simple_types_constant_folding, 0.5913, 0.5913, 0.5913,0.5913, 0.5912, 0.5913, 0.5913,0.5913
SingleSource/Benchmarks/Adobe-C++/simple_types_loop_invariant, 1.4182, 1.4183, 1.4179,1.4182, 1.4182, 1.4177, 1.4183,1.4182
SingleSource/Benchmarks/Adobe-C++/stepanov_abstraction, 3.7961, 3.7947, 3.7948,3.7948, 3.7666, 3.7669, 3.7669,3.7669
SingleSource/Benchmarks/Adobe-C++/stepanov_vector, 2.0521, 2.0526, 2.0528,2.0526, 2.0036, 2.0040, 2.0039,2.0039
SingleSource/Benchmarks/BenchmarkGame/Large/fasta, 0.5746, 0.5748, 0.5749,0.5748, 0.5751, 0.5750, 0.5749,0.575
SingleSource/Benchmarks/BenchmarkGame/fannkuch, 1.8585, 1.8601, 1.8589,1.8589, 1.8592, 1.8586, 1.8603,1.8592
SingleSource/Benchmarks/BenchmarkGame/n-body, 1.2217, 1.2217, 1.2217,1.2217, 1.2217, 1.2216, 1.2217,1.2217
SingleSource/Benchmarks/BenchmarkGame/nsieve-bits, 0.5186, 0.5210, 0.5230,0.521, 0.5216, 0.5210, 0.5209,0.521
SingleSource/Benchmarks/BenchmarkGame/partialsums, 0.5059, 0.5059, 0.5059,0.5059, 0.5059, 0.5059, 0.5058,0.5059
SingleSource/Benchmarks/BenchmarkGame/puzzle, 0.1163, 0.1164, 0.1174,0.1164, 0.1177, 0.1169, 0.1167,0.1169
SingleSource/Benchmarks/BenchmarkGame/recursive, 0.6268, 0.6287, 0.6267,0.6268, 0.6267, 0.6296, 0.6268,0.6268
SingleSource/Benchmarks/BenchmarkGame/spectral-norm, 0.8691, 0.8691, 0.8691,0.8691, 0.8690, 0.8690, 0.8691,0.869
SingleSource/Benchmarks/CoyoteBench/almabench,11.2319,11.2313,11.2316,11.2316,11.2310,11.2315,11.2314,11.2314
SingleSource/Benchmarks/CoyoteBench/fftbench, 0.7131, 0.7080, 0.7080,0.708, 0.7123, 0.7057, 0.7089,0.7089
SingleSource/Benchmarks/CoyoteBench/huffbench, 8.0633, 8.0597, 8.0640,8.0633, 8.0603, 8.0600, 8.0613,8.0603
SingleSource/Benchmarks/CoyoteBench/lpbench, 2.7606, 2.7606, 2.7567,2.7606, 2.7592, 2.7599, 2.7548,2.7592
SingleSource/Benchmarks/Dhrystone/dry, 0.2710, 0.2710, 0.2710,0.271, 0.2710, 0.2710, 0.2710,0.271
SingleSource/Benchmarks/Dhrystone/fldry, 0.3251, 0.3251, 0.3251,0.3251, 0.3251, 0.3251, 0.3251,0.3251
SingleSource/Benchmarks/Linpack/linpack-pc, 1.1122, 1.1051, 1.1105,1.1105, 1.1098, 1.1081, 1.1093,1.1093
SingleSource/Benchmarks/McGill/chomp, 1.1018, 1.1074, 1.1050,1.105, 1.1085, 1.1084, 1.1074,1.1084
SingleSource/Benchmarks/McGill/misr, 0.0902, 0.0902, 0.0902,0.0902, 0.0902, 0.0902, 0.0902,0.0902
SingleSource/Benchmarks/McGill/queens, 1.5575, 1.5575, 1.5574,1.5575, 1.5576, 1.5579, 1.5579,1.5579
SingleSource/Benchmarks/Misc-C++-EH/spirit, 2.3143, 2.3139, 2.3143,2.3143, 2.3862, 2.3869, 2.3862,2.3862
SingleSource/Benchmarks/Misc-C++/Large/ray, 2.7919, 2.7917, 2.7917,2.7917, 2.7918, 2.7918, 2.7919,2.7918
SingleSource/Benchmarks/Misc-C++/Large/sphereflake, 4.9897, 4.9898, 4.9897,4.9897, 4.9897, 4.9897, 4.9898,4.9897
SingleSource/Benchmarks/Misc-C++/bigfib, 0.1729, 0.1728, 0.1727,0.1728, 0.1722, 0.1723, 0.1725,0.1723
SingleSource/Benchmarks/Misc-C++/mandel-text, 1.4327, 1.4296, 1.4289,1.4296, 1.4302, 1.4314, 1.4322,1.4314
SingleSource/Benchmarks/Misc-C++/oopack_v1p8, 0.1441, 0.1441, 0.1441,0.1441, 0.1441, 0.1441, 0.1441,0.1441
SingleSource/Benchmarks/Misc-C++/stepanov_container, 3.5775, 3.5691, 3.5697,3.5697, 3.5526, 3.5578, 3.5543,3.5543
SingleSource/Benchmarks/Misc-C++/stepanov_v1p2, 7.0319, 7.0318, 7.0318,7.0318, 7.0316, 7.0318, 7.0319,7.0318
SingleSource/Benchmarks/Misc/ReedSolomon, 2.8117, 2.7859, 2.7855,2.7859, 2.7856, 2.7857, 2.7856,2.7856
SingleSource/Benchmarks/Misc/dt, 0.5933, 0.5933, 0.5933,0.5933, 0.5933, 0.5933, 0.5933,0.5933
SingleSource/Benchmarks/Misc/evalloop, 0.3248, 0.3263, 0.3250,0.325, 0.3258, 0.3265, 0.3259,0.3259
SingleSource/Benchmarks/Misc/fbench, 1.5246, 1.5245, 1.5245,1.5245, 1.5245, 1.5245, 1.5246,1.5245
SingleSource/Benchmarks/Misc/ffbench, 0.5115, 0.5129, 0.5127,0.5127, 0.5102, 0.5105, 0.5114,0.5105
SingleSource/Benchmarks/Misc/flops, 9.4740, 9.4566, 9.4752,9.474, 9.4591, 9.4069, 9.4204,9.4204
SingleSource/Benchmarks/Misc/flops-1, 3.1883, 3.1879, 3.1880,3.188, 3.1882, 3.1886, 3.1031,3.1882
SingleSource/Benchmarks/Misc/flops-2, 0.7674, 0.7673, 0.7674,0.7674, 0.7673, 0.7673, 0.7674,0.7673
SingleSource/Benchmarks/Misc/flops-3, 4.8160, 4.8159, 4.8159,4.8159, 4.8158, 4.8159, 4.8160,4.8159
SingleSource/Benchmarks/Misc/flops-4, 2.0704, 2.0704, 2.0704,2.0704, 2.0703, 2.0704, 2.0704,2.0704
SingleSource/Benchmarks/Misc/flops-5, 3.8040, 3.8039, 3.8039,3.8039, 3.8039, 3.8039, 3.8040,3.8039
SingleSource/Benchmarks/Misc/flops-6, 3.0423, 3.0422, 2.9576,3.0422, 2.9997, 3.0422, 3.0423,3.0422
SingleSource/Benchmarks/Misc/flops-7, 1.4146, 1.4146, 1.4146,1.4146, 1.4146, 1.4146, 1.4146,1.4146
SingleSource/Benchmarks/Misc/flops-8, 2.5773, 2.5773, 2.5773,2.5773, 2.5772, 2.5772, 2.6196,2.5772
SingleSource/Benchmarks/Misc/fp-convert, 2.3401, 2.3401, 2.3400,2.3401, 2.3400, 2.3400, 2.3401,2.34
SingleSource/Benchmarks/Misc/himenobmtxpa, 0.4938, 0.4932, 0.4920,0.4932, 0.4957, 0.4994, 0.4985,0.4985
SingleSource/Benchmarks/Misc/lowercase, 0.0007, 0.0007, 0.0007,0.0007, 0.0007, 0.0007, 0.0007,0.0007
SingleSource/Benchmarks/Misc/mandel, 0.7417, 0.7417, 0.7417,0.7417, 0.7416, 0.7416, 0.7417,0.7416
SingleSource/Benchmarks/Misc/mandel-2, 1.1369, 1.1369, 1.1369,1.1369, 1.1369, 1.1369, 1.1369,1.1369
SingleSource/Benchmarks/Misc/matmul_f64_4x4, 1.1523, 1.1523, 1.1523,1.1523, 1.1522, 1.1522, 1.1523,1.1522
SingleSource/Benchmarks/Misc/oourafft, 5.3531, 5.3531, 5.3539,5.3531, 5.3549, 5.3548, 5.3531,5.3548
SingleSource/Benchmarks/Misc/perlin, 3.4531, 3.4531, 3.4525,3.4531, 3.4529, 3.4527, 3.4527,3.4527
SingleSource/Benchmarks/Misc/pi, 0.6176, 0.6176, 0.6176,0.6176, 0.6176, 0.6176, 0.6176,0.6176
SingleSource/Benchmarks/Misc/revertBits, 0.2931, 0.2931, 0.2931,0.2931, 0.2931, 0.2931, 0.2931,0.2931
SingleSource/Benchmarks/Misc/richards_benchmark, 0.4422, 0.4427, 0.4426,0.4426, 0.4421, 0.4425, 0.4428,0.4425
SingleSource/Benchmarks/Misc/salsa20, 4.1086, 3.7023, 4.1088,4.1086, 4.1086, 4.1085, 4.1086,4.1086
SingleSource/Benchmarks/Misc/whetstone, 0.9132, 0.9141, 0.9040,0.9132, 0.9130, 0.9141, 0.9141,0.9141
SingleSource/Benchmarks/Polybench/datamining/correlation/correlation, 1.7125, 1.7140, 1.7123,1.7125, 1.7074, 1.7094, 1.7120,1.7094
SingleSource/Benchmarks/Polybench/datamining/covariance/covariance, 1.7060, 1.7006, 1.7022,1.7022, 1.7045, 1.7041, 1.6974,1.7041
SingleSource/Benchmarks/Polybench/linear-algebra/kernels/atax/atax, 0.1552, 0.1551, 0.1552,0.1552, 0.1552, 0.1552, 0.1554,0.1552
SingleSource/Benchmarks/Polybench/linear-algebra/kernels/bicg/bicg, 0.1933, 0.1934, 0.1934,0.1934, 0.1933, 0.1933, 0.1933,0.1933
SingleSource/Benchmarks/Polybench/linear-algebra/kernels/cholesky/cholesky, 0.4319, 0.4260, 0.4248,0.426, 0.4250, 0.4258, 0.4255,0.4255
SingleSource/Benchmarks/Polybench/linear-algebra/kernels/doitgen/doitgen, 0.6950, 0.6958, 0.6952,0.6952, 0.6953, 0.6951, 0.6962,0.6953
SingleSource/Benchmarks/Polybench/linear-algebra/kernels/gemver/gemver, 0.3139, 0.3143, 0.3138,0.3139, 0.3137, 0.3144, 0.3138,0.3138
SingleSource/Benchmarks/Polybench/linear-algebra/kernels/gesummv/gesummv, 0.2804, 0.2805, 0.2804,0.2804, 0.2762, 0.2804, 0.2804,0.2804
SingleSource/Benchmarks/Polybench/linear-algebra/kernels/mvt/mvt, 0.2299, 0.2255, 0.2301,0.2299, 0.2259, 0.2295, 0.2300,0.2295
SingleSource/Benchmarks/Polybench/linear-algebra/kernels/symm/symm,23.5219,23.5436,23.4381,23.5219,22.9052,24.1208,24.1242,24.1208
SingleSource/Benchmarks/Polybench/linear-algebra/kernels/syr2k/syr2k, 8.1996, 8.2002, 7.8964,8.1996, 8.2003, 8.1999, 8.2012,8.2003
SingleSource/Benchmarks/Polybench/linear-algebra/kernels/syrk/syrk, 3.9257, 4.1169, 3.9015,3.9257, 3.9011, 4.1171, 4.1171,4.1171
SingleSource/Benchmarks/Polybench/linear-algebra/kernels/trisolv/trisolv, 0.1585, 0.1585, 0.1585,0.1585, 0.1585, 0.1585, 0.1585,0.1585
SingleSource/Benchmarks/Polybench/linear-algebra/kernels/trmm/trmm, 2.0456, 2.0377, 2.1322,2.0456, 2.1310, 2.1361, 2.1316,2.1316
SingleSource/Benchmarks/Polybench/linear-algebra/solvers/durbin/durbin, 0.3972, 0.3943, 0.3947,0.3947, 0.3878, 0.3965, 0.3870,0.3878
SingleSource/Benchmarks/Polybench/linear-algebra/solvers/dynprog/dynprog, 0.2499, 0.2502, 0.2500,0.25, 0.2497, 0.2498, 0.2507,0.2498
SingleSource/Benchmarks/Polybench/linear-algebra/solvers/gramschmidt/gramschmidt, 1.7586, 2.1030, 1.7370,1.7586, 2.1774, 2.1660, 2.3878,2.1774
SingleSource/Benchmarks/Polybench/linear-algebra/solvers/lu/lu, 0.0019, 0.0019, 0.0019,0.0019, 0.0019, 0.0019, 0.0019,0.0019
SingleSource/Benchmarks/Polybench/medley/floyd-warshall/floyd-warshall, 5.3797, 5.3781, 5.3773,5.3781, 5.3797, 5.3765, 5.3758,5.3765
SingleSource/Benchmarks/Polybench/medley/reg_detect/reg_detect, 0.0138, 0.0138, 0.0138,0.0138, 0.0138, 0.0138, 0.0138,0.0138
SingleSource/Benchmarks/Polybench/stencils/adi/adi, 2.5287, 2.5278, 2.5266,2.5278, 2.5270, 2.5190, 2.5234,2.5234
SingleSource/Benchmarks/Polybench/stencils/fdtd-2d/fdtd-2d, 0.5597, 0.5571, 0.5594,0.5594, 0.5591, 0.5582, 0.5594,0.5591
SingleSource/Benchmarks/Polybench/stencils/fdtd-apml/fdtd-apml, 0.6476, 0.6495, 0.6493,0.6493, 0.6510, 0.6498, 0.6467,0.6498
SingleSource/Benchmarks/Polybench/stencils/jacobi-1d-imper/jacobi-1d-imper, 0.0032, 0.0032, 0.0032,0.0032, 0.0032, 0.0032, 0.0032,0.0032
SingleSource/Benchmarks/Polybench/stencils/jacobi-2d-imper/jacobi-2d-imper, 0.1658, 0.1659, 0.1654,0.1658, 0.1651, 0.1656, 0.1658,0.1656
SingleSource/Benchmarks/Polybench/stencils/seidel-2d/seidel-2d, 0.5868, 0.5867, 0.5867,0.5867, 0.5867, 0.5868, 0.5867,0.5867
SingleSource/Benchmarks/Shootout-C++/EH/except, 0.1091, 0.1071, 0.1094,0.1091, 0.1078, 0.1091, 0.1091,0.1091
SingleSource/Benchmarks/Shootout-C++/ackermann, 0.5847, 0.5847, 0.5848,0.5847, 0.5846, 0.5846, 0.5846,0.5846
SingleSource/Benchmarks/Shootout-C++/ary, 0.0200, 0.0200, 0.0200,0.02, 0.0200, 0.0200, 0.0200,0.02
SingleSource/Benchmarks/Shootout-C++/ary2, 0.0201, 0.0201, 0.0201,0.0201, 0.0201, 0.0201, 0.0201,0.0201
SingleSource/Benchmarks/Shootout-C++/ary3, 0.9616, 0.9557, 0.9582,0.9582, 0.9620, 0.9512, 0.9519,0.9519
SingleSource/Benchmarks/Shootout-C++/fibo, 1.3140, 1.3138, 1.3152,1.314, 1.3136, 1.3152, 1.3162,1.3152
SingleSource/Benchmarks/Shootout-C++/hash, 0.2794, 0.2777, 0.2792,0.2792, 0.2791, 0.2787, 0.2800,0.2791
SingleSource/Benchmarks/Shootout-C++/hash2, 1.5332, 1.5323, 1.5327,1.5327, 1.5406, 1.5407, 1.5404,1.5406
SingleSource/Benchmarks/Shootout-C++/heapsort, 2.3322, 2.3259, 2.3255,2.3259, 2.3345, 2.3249, 2.3347,2.3345
SingleSource/Benchmarks/Shootout-C++/lists, 2.5800, 2.5637, 2.5627,2.5637, 2.5678, 2.5680, 2.5765,2.568
SingleSource/Benchmarks/Shootout-C++/lists1, 0.1210, 0.1199, 0.1192,0.1199, 0.1199, 0.1212, 0.1207,0.1207
SingleSource/Benchmarks/Shootout-C++/matrix, 1.0247, 1.0008, 1.0008,1.0008, 1.0008, 1.0247, 1.0008,1.0008
SingleSource/Benchmarks/Shootout-C++/methcall, 3.0691, 3.0737, 3.0691,3.0691, 3.0690, 3.0690, 3.0737,3.069
SingleSource/Benchmarks/Shootout-C++/moments, 0.0480, 0.0480, 0.0481,0.048, 0.0481, 0.0480, 0.0480,0.048
SingleSource/Benchmarks/Shootout-C++/nestedloop, 0.0007, 0.0007, 0.0007,0.0007, 0.0007, 0.0007, 0.0007,0.0007
SingleSource/Benchmarks/Shootout-C++/objinst, 0.0007, 0.0007, 0.0007,0.0007, 0.0007, 0.0007, 0.0007,0.0007
SingleSource/Benchmarks/Shootout-C++/random, 1.5524, 1.5524, 1.5523,1.5524, 1.5523, 1.5523, 1.5524,1.5523
SingleSource/Benchmarks/Shootout-C++/sieve, 1.1891, 1.1524, 1.1911,1.1891, 1.1787, 1.0828, 1.1156,1.1156
SingleSource/Benchmarks/Shootout-C++/strcat, 0.0380, 0.0379, 0.0379,0.0379, 0.0380, 0.0380, 0.0379,0.038
SingleSource/Benchmarks/Shootout/ackermann, 0.0030, 0.0030, 0.0030,0.003, 0.0030, 0.0030, 0.0030,0.003
SingleSource/Benchmarks/Shootout/ary3, 0.9741, 0.9811, 0.9762,0.9762, 0.9814, 0.9789, 0.9811,0.9811
SingleSource/Benchmarks/Shootout/fib2, 1.3156, 1.3148, 1.3165,1.3156, 1.3184, 1.3122, 1.3202,1.3184
SingleSource/Benchmarks/Shootout/hash, 2.5695, 2.5733, 2.5627,2.5695, 2.5644, 2.5579, 2.5627,2.5627
SingleSource/Benchmarks/Shootout/heapsort, 2.3255, 2.3304, 2.3211,2.3255, 2.3214, 2.3329, 2.3245,2.3245
SingleSource/Benchmarks/Shootout/lists, 3.6709, 3.6703, 3.6693,3.6703, 3.6671, 3.6634, 3.6685,3.6671
SingleSource/Benchmarks/Shootout/matrix, 0.9411, 0.9416, 0.9417,0.9416, 0.9412, 0.9413, 0.9415,0.9413
SingleSource/Benchmarks/Shootout/methcall, 2.9144, 2.9146, 2.9150,2.9146, 2.9147, 2.9146, 2.9150,2.9147
SingleSource/Benchmarks/Shootout/nestedloop, 0.0007, 0.0007, 0.0007,0.0007, 0.0007, 0.0007, 0.0007,0.0007
SingleSource/Benchmarks/Shootout/objinst, 0.0007, 0.0007, 0.0007,0.0007, 0.0007, 0.0007, 0.0007,0.0007
SingleSource/Benchmarks/Shootout/random, 1.5523, 1.5523, 1.5523,1.5523, 1.5523, 1.5523, 1.5523,1.5523
SingleSource/Benchmarks/Shootout/sieve, 3.0841, 3.0859, 3.0840,3.0841, 3.0889, 3.0866, 3.0822,3.0866
SingleSource/Benchmarks/Shootout/strcat, 0.0979, 0.0980, 0.0980,0.098, 0.0980, 0.0978, 0.0978,0.0978
SingleSource/Benchmarks/SmallPT/smallpt, 6.7181, 6.7162, 6.7172,6.7172, 6.7173, 6.7189, 6.7173,6.7173
SingleSource/Benchmarks/Stanford/Bubblesort, 0.0140, 0.0140, 0.0140,0.014, 0.0140, 0.0140, 0.0140,0.014
SingleSource/Benchmarks/Stanford/FloatMM, 0.1790, 0.1780, 0.1790,0.179, 0.1790, 0.1790, 0.1790,0.179
SingleSource/Benchmarks/Stanford/Oscar, 0.0029, 0.0029, 0.0029,0.0029, 0.0022, 0.0022, 0.0022,0.0022
SingleSource/Benchmarks/Stanford/Perm, 0.0130, 0.0130, 0.0130,0.013, 0.0130, 0.0130, 0.0130,0.013
SingleSource/Benchmarks/Stanford/Puzzle, 0.0706, 0.0706, 0.0707,0.0706, 0.0706, 0.0707, 0.0707,0.0707
SingleSource/Benchmarks/Stanford/Queens, 0.0063, 0.0063, 0.0066,0.0063, 0.0064, 0.0065, 0.0064,0.0064
SingleSource/Benchmarks/Stanford/Quicksort, 0.0269, 0.0269, 0.0269,0.0269, 0.0269, 0.0269, 0.0269,0.0269
SingleSource/Benchmarks/Stanford/RealMM, 0.0013, 0.0013, 0.0013,0.0013, 0.0013, 0.0013, 0.0013,0.0013
SingleSource/Benchmarks/Stanford/Towers, 0.0074, 0.0074, 0.0074,0.0074, 0.0074, 0.0074, 0.0074,0.0074
SingleSource/Benchmarks/Stanford/Treesort, 0.0484, 0.0485, 0.0485,0.0485, 0.0484, 0.0484, 0.0485,0.0484
SingleSource/Regression/C/2004-08-12-InlinerAndAllocas, 0.0012, 0.0012, 0.0012,0.0012, 0.0012, 0.0012, 0.0012,0.0012
SingleSource/Regression/C/uint64_to_float, 0.2193, 0.2194, 0.2193,0.2193, 0.2193, 0.2193, 0.2193,0.2193
Total elapsed time,-,-,-,543.6979000000002,-,-,-,544.9750999999999
Total failure,-,-,-,0,-,-,-,0
