Benchmarks,base-5.0,base-5.0,base-5.0,median,br3-psub,br3-psub,br3-psub,median,Slowdown(%)
SingleSource/Benchmarks/Misc-C++-EH/spirit, 2.3143, 2.3139, 2.3143,2.3143, 2.3862, 2.3869, 2.3862,2.3862,3.1067709458583614
MultiSource/Benchmarks/mediabench/jpeg/jpeg-6a/cjpeg, 0.0043, 0.0043, 0.0044,0.0043, 0.0045, 0.0044, 0.0044,0.0044,2.3255813953488413
MultiSource/Benchmarks/Bullet/bullet, 3.1019, 3.0965, 3.1059,3.1019, 3.1726, 3.1771, 3.1662,3.1726,2.2792482027144567
MultiSource/Applications/minisat/minisat, 4.3296, 4.3220, 4.3315,4.3296, 4.3899, 4.3898, 4.4338,4.3899,1.3927383592017728
MultiSource/Applications/sqlite3/sqlite3, 1.5748, 1.5716, 1.5732,1.5732, 1.5877, 1.5878, 1.5919,1.5878,0.928044749555057
MultiSource/Benchmarks/Ptrdist/bc/bc, 0.3261, 0.3262, 0.3262,0.3262, 0.3289, 0.3289, 0.3291,0.3289,0.8277130594727344
SingleSource/Benchmarks/Shootout-C++/lists1, 0.1210, 0.1199, 0.1192,0.1199, 0.1199, 0.1212, 0.1207,0.1207,0.6672226855713115
SingleSource/Benchmarks/Shootout-C++/hash2, 1.5332, 1.5323, 1.5327,1.5327, 1.5406, 1.5407, 1.5404,1.5406,0.5154302864226468
SingleSource/Benchmarks/Adobe-C++/functionobjects, 2.6862, 2.6859, 2.6874,2.6862, 2.6966, 2.6939, 2.6955,2.6955,0.3462139825776145
MultiSource/Benchmarks/MiBench/consumer-lame/consumer-lame, 0.1040, 0.1053, 0.1056,0.1053, 0.1056, 0.1056, 0.1055,0.1056,0.2849002849002691
MultiSource/Benchmarks/DOE-ProxyApps-C/Pathfinder/PathFinder, 1.8805, 1.8660, 1.8678,1.8678, 1.8691, 1.8902, 1.8720,1.872,0.2248634757468837
MultiSource/Benchmarks/MallocBench/espresso/espresso, 0.2673, 0.2670, 0.2673,0.2673, 0.2682, 0.2679, 0.2679,0.2679,0.22446689113357898
MultiSource/Benchmarks/mafft/pairlocalalign,21.9297,21.9288,21.9279,21.9288,21.9775,21.9784,21.9780,21.978,0.22436248221517907
SingleSource/Benchmarks/Shootout-C++/lists, 2.5800, 2.5637, 2.5627,2.5637, 2.5678, 2.5680, 2.5765,2.568,0.1677263330343015
MultiSource/Benchmarks/McCat/09-vor/vor, 0.0800, 0.0800, 0.0802,0.08, 0.0806, 0.0801, 0.0801,0.0801,0.12499999999999734
MultiSource/Benchmarks/DOE-ProxyApps-C++/PENNANT/PENNANT, 0.3621, 0.3635, 0.3638,0.3635, 0.3639, 0.3638, 0.3639,0.3639,0.11004126547455861
MultiSource/Benchmarks/sim/sim, 2.2878, 2.2875, 2.2903,2.2878, 2.2900, 2.2905, 2.2885,2.29,0.09616225194510886
MultiSource/Benchmarks/7zip/7zip-benchmark, 5.8485, 5.8515, 5.8518,5.8515, 5.8565, 5.8562, 5.8570,5.8565,0.08544817568145735
MultiSource/Benchmarks/SciMark2-C/scimark2,37.4286,37.4312,37.4291,37.4291,37.4516,37.5339,37.4526,37.4526,0.06278537287831565
MultiSource/Benchmarks/Olden/tsp/tsp, 1.0558, 1.0556, 1.0556,1.0556, 1.0559, 1.0562, 1.0558,1.0559,0.028419856006056676
MultiSource/Benchmarks/Trimaran/enc-3des/enc-3des, 1.1461, 1.1466, 1.1472,1.1466, 1.1469, 1.1469, 1.1471,1.1469,0.02616431187858481
MultiSource/Benchmarks/Ptrdist/anagram/anagram, 0.5361, 0.5360, 0.5360,0.536, 0.5361, 0.5361, 0.5360,0.5361,0.018656716417897456
MultiSource/Applications/JM/lencod/lencod, 2.8300, 2.8298, 2.8295,2.8298, 2.8318, 2.8259, 2.8302,2.8302,0.01413527457769792
MultiSource/Applications/hexxagon/hexxagon, 6.2986, 6.2990, 6.2994,6.299, 6.2997, 6.2999, 6.2992,6.2997,0.01111287505952685
MultiSource/Benchmarks/DOE-ProxyApps-C++/miniFE/miniFE, 2.4509, 2.4518, 2.4505,2.4509, 2.4491, 2.4511, 2.4570,2.4511,0.008160267656776021
SingleSource/Benchmarks/Misc-C++/Large/ray, 2.7919, 2.7917, 2.7917,2.7917, 2.7918, 2.7918, 2.7919,2.7918,0.0035820467815250723
SingleSource/Benchmarks/Shootout-C++/moments, 0.0480, 0.0480, 0.0481,0.048, 0.0481, 0.0480, 0.0480,0.048,0.0
MultiSource/Benchmarks/Ptrdist/yacr2/yacr2, 0.4745, 0.4738, 0.4741,0.4741, 0.4742, 0.4741, 0.4737,0.4741,0.0
MultiSource/Benchmarks/Prolangs-C/agrep/agrep, 0.0042, 0.0042, 0.0042,0.0042, 0.0042, 0.0042, 0.0042,0.0042,0.0
MultiSource/Benchmarks/Prolangs-C++/city/city, 0.0045, 0.0045, 0.0045,0.0045, 0.0045, 0.0045, 0.0045,0.0045,0.0
MultiSource/Benchmarks/MiBench/automotive-susan/automotive-susan, 0.0268, 0.0269, 0.0268,0.0268, 0.0268, 0.0268, 0.0268,0.0268,0.0
MultiSource/Benchmarks/McCat/05-eks/eks, 0.0031, 0.0031, 0.0031,0.0031, 0.0031, 0.0031, 0.0031,0.0031,0.0
MultiSource/Benchmarks/MallocBench/gs/gs, 0.0265, 0.0264, 0.0266,0.0265, 0.0264, 0.0265, 0.0266,0.0265,0.0
MultiSource/Applications/kimwitu++/kc, 0.0270, 0.0270, 0.0271,0.027, 0.0270, 0.0271, 0.0270,0.027,0.0
MultiSource/Applications/hbd/hbd, 0.0030, 0.0031, 0.0031,0.0031, 0.0031, 0.0031, 0.0031,0.0031,0.0
MultiSource/Applications/d/make_dparser, 0.0158, 0.0158, 0.0159,0.0158, 0.0159, 0.0158, 0.0158,0.0158,0.0
MultiSource/Applications/JM/ldecod/ldecod, 0.0392, 0.0391, 0.0390,0.0391, 0.0390, 0.0391, 0.0391,0.0391,0.0
MultiSource/Applications/ALAC/encode/alacconvert-encode, 0.0254, 0.0253, 0.0253,0.0253, 0.0253, 0.0254, 0.0253,0.0253,0.0
SingleSource/Benchmarks/Shootout-C++/hash, 0.2794, 0.2777, 0.2792,0.2792, 0.2791, 0.2787, 0.2800,0.2791,-0.03581661891116639
MultiSource/Benchmarks/DOE-ProxyApps-C++/CLAMR/CLAMR, 0.9966, 0.9966, 0.9965,0.9966, 0.9960, 0.9961, 0.9962,0.9961,-0.05017057997190877
MultiSource/Benchmarks/PAQ8p/paq8p,39.1254,39.0928,39.0975,39.0975,39.0409,39.0666,39.1002,39.0666,-0.07903318626509837
MultiSource/Benchmarks/ASCI_Purple/SMG2000/smg2000, 1.4910, 1.4923, 1.4917,1.4917, 1.4950, 1.4905, 1.4893,1.4905,-0.08044512971777662
MultiSource/Applications/lambda-0.1.3/lambda, 2.3865, 2.4055, 2.3961,2.3961, 2.3950, 2.3941, 2.3937,2.3941,-0.08346897041026091
MultiSource/Applications/spiff/spiff, 1.1506, 1.1492, 1.1491,1.1492, 1.1481, 1.1478, 1.1497,1.1481,-0.09571876087713926
MultiSource/Benchmarks/tramp3d-v4/tramp3d-v4, 0.2181, 0.2186, 0.2185,0.2185, 0.2182, 0.2182, 0.2181,0.2182,-0.13729977116704317
MultiSource/Benchmarks/MallocBench/cfrac/cfrac, 0.6776, 0.6777, 0.6778,0.6777, 0.6766, 0.6767, 0.6767,0.6767,-0.1475579164822216
MultiSource/Benchmarks/DOE-ProxyApps-C++/HPCCG/HPCCG, 0.8127, 0.8126, 0.8119,0.8126, 0.8112, 0.8118, 0.8114,0.8114,-0.14767413241446592
MultiSource/Benchmarks/Olden/voronoi/voronoi, 0.1956, 0.1954, 0.1955,0.1955, 0.1949, 0.1951, 0.1951,0.1951,-0.2046035805626678
MultiSource/Benchmarks/Ptrdist/ks/ks, 0.5843, 0.5833, 0.5868,0.5843, 0.5821, 0.5830, 0.5848,0.583,-0.22248844771523002
MultiSource/Benchmarks/McCat/08-main/main, 0.0381, 0.0381, 0.0381,0.0381, 0.0380, 0.0380, 0.0380,0.038,-0.2624671916010568
SingleSource/Benchmarks/Misc-C++/bigfib, 0.1729, 0.1728, 0.1727,0.1728, 0.1722, 0.1723, 0.1725,0.1723,-0.289351851851849
MultiSource/Applications/oggenc/oggenc, 0.0689, 0.0687, 0.0688,0.0688, 0.0686, 0.0685, 0.0686,0.0686,-0.29069767441861627
MultiSource/Applications/lua/lua,10.2127,10.1691,10.2142,10.2127,10.2370,10.1777,10.1795,10.1795,-0.3250854328434083
SingleSource/Benchmarks/Misc-C++/stepanov_container, 3.5775, 3.5691, 3.5697,3.5697, 3.5526, 3.5578, 3.5543,3.5543,-0.43140880186010033
MultiSource/Benchmarks/VersaBench/dbms/dbms, 0.8835, 0.8857, 0.8815,0.8835, 0.8781, 0.8812, 0.8794,0.8794,-0.46406338426712157
MultiSource/Applications/ClamAV/clamscan, 0.0910, 0.0919, 0.0920,0.0919, 0.0910, 0.0914, 0.0917,0.0914,-0.5440696409140355
MultiSource/Benchmarks/Olden/mst/mst, 0.0544, 0.0544, 0.0546,0.0544, 0.0540, 0.0543, 0.0541,0.0541,-0.5514705882352811
SingleSource/Benchmarks/Adobe-C++/stepanov_abstraction, 3.7961, 3.7947, 3.7948,3.7948, 3.7666, 3.7669, 3.7669,3.7669,-0.7352166122061687
MultiSource/Applications/ALAC/decode/alacconvert-decode, 0.0132, 0.0132, 0.0131,0.0132, 0.0131, 0.0131, 0.0131,0.0131,-0.7575757575757569
MultiSource/Benchmarks/MiBench/consumer-typeset/consumer-typeset, 0.0791, 0.0791, 0.0789,0.0791, 0.0781, 0.0787, 0.0783,0.0783,-1.0113780025284513
MultiSource/Applications/SIBsim4/SIBsim4, 1.8936, 1.8500, 1.9113,1.8936, 1.8941, 1.8737, 1.8681,1.8737,-1.0509083227714378
MultiSource/Benchmarks/Prolangs-C++/employ/employ, 0.0059, 0.0059, 0.0059,0.0059, 0.0058, 0.0058, 0.0059,0.0058,-1.6949152542372947
SingleSource/Benchmarks/Adobe-C++/stepanov_vector, 2.0521, 2.0526, 2.0528,2.0526, 2.0036, 2.0040, 2.0039,2.0039,-2.372600604111863
MultiSource/Benchmarks/Prolangs-C/bison/mybison, 0.0034, 0.0034, 0.0034,0.0034, 0.0033, 0.0033, 0.0033,0.0033,-2.941176470588236
MultiSource/Applications/siod/siod, 1.0244, 1.0245, 1.0262,1.0245, 0.9931, 0.9908, 0.9925,0.9925,-3.1234748657881783
SingleSource/Benchmarks/Stanford/Oscar, 0.0029, 0.0029, 0.0029,0.0029, 0.0022, 0.0022, 0.0022,0.0022,-24.13793103448275
Total elapsed time,-,-,-,543.6979000000002,-,-,-,544.9750999999999,0.23490986446694784
Total failure,-,-,-,0,-,-,-,0,
Geom. avg slowdown,,,,,,,,,-0.482680795158%
