Benchmarks,base-4.0,base-4.0,base-4.0,median,restrict,restrict,restrict,median,Slowdown(%)
MultiSource/Benchmarks/Ptrdist/anagram/anagram, 0.6885, 0.6822, 0.6831,0.6831, 0.7083, 0.7071, 0.7081,0.7081,3.6597862684819127
MultiSource/Benchmarks/TSVC/Packing-dbl/Packing-dbl, 2.2790, 2.2783, 2.2802,2.279, 2.3270, 2.3260, 2.3276,2.327,2.106186924089526
SingleSource/Benchmarks/Adobe-C++/stepanov_vector, 2.2678, 2.2690, 2.2694,2.269, 2.3001, 2.2997, 2.2992,2.2997,1.3530189510797763
SingleSource/Benchmarks/Shootout-C++/moments, 0.0504, 0.0505, 0.0505,0.0505, 0.0511, 0.0511, 0.0509,0.0511,1.1881188118811892
SingleSource/Benchmarks/Adobe-C++/stepanov_abstraction, 4.2295, 4.2306, 4.2301,4.2301, 4.2685, 4.2695, 4.2692,4.2692,0.9243280300702095
MultiSource/Applications/ALAC/decode/alacconvert-decode, 0.0141, 0.0142, 0.0143,0.0142, 0.0143, 0.0143, 0.0143,0.0143,0.7042253521126751
MultiSource/Benchmarks/mediabench/gsm/toast/toast, 0.0154, 0.0153, 0.0153,0.0153, 0.0155, 0.0154, 0.0154,0.0154,0.6535947712418277
MultiSource/Benchmarks/TSVC/IndirectAddressing-dbl/IndirectAddressing-dbl, 2.4739, 2.4695, 2.4879,2.4739, 2.4849, 2.4847, 2.4788,2.4847,0.4365576619911993
MultiSource/Benchmarks/Prolangs-C/gnugo/gnugo, 0.0240, 0.0240, 0.0240,0.024, 0.0240, 0.0242, 0.0241,0.0241,0.4166666666666652
SingleSource/Benchmarks/Misc/ffbench, 0.5794, 0.5791, 0.5818,0.5794, 0.5867, 0.5818, 0.5812,0.5818,0.4142216085605721
SingleSource/Benchmarks/Stanford/Treesort, 0.0546, 0.0546, 0.0547,0.0546, 0.0548, 0.0546, 0.0548,0.0548,0.366300366300365
MultiSource/Benchmarks/VersaBench/8b10b/8b10b, 3.7708, 3.7702, 3.7722,3.7708, 3.7860, 3.7618, 3.7841,3.7841,0.3527103002015419
MultiSource/Benchmarks/mediabench/g721/g721encode/encode, 0.0291, 0.0293, 0.0291,0.0291, 0.0292, 0.0292, 0.0290,0.0292,0.3436426116838476
MultiSource/Benchmarks/TSVC/CrossingThresholds-flt/CrossingThresholds-flt, 1.6283, 1.6218, 1.6165,1.6218, 1.6233, 1.6309, 1.6273,1.6273,0.33912936243680747
SingleSource/Benchmarks/Shootout/hash, 2.8071, 2.7851, 2.7959,2.7959, 2.8024, 2.8044, 2.8123,2.8044,0.3040165957294505
SingleSource/Benchmarks/Polybench/stencils/fdtd-apml/fdtd-apml, 0.7214, 0.7219, 0.7220,0.7219, 0.7211, 0.7240, 0.7252,0.724,0.2908990164842695
MultiSource/Benchmarks/Bullet/bullet, 3.2734, 3.2873, 3.2626,3.2734, 3.2829, 3.2828, 3.2657,3.2828,0.2871631942322983
SingleSource/Benchmarks/Polybench/stencils/fdtd-2d/fdtd-2d, 0.3949, 0.3941, 0.3947,0.3947, 0.3958, 0.3966, 0.3946,0.3958,0.27869267798328323
MultiSource/Benchmarks/Olden/bh/bh, 1.2610, 1.2616, 1.2630,1.2616, 1.2651, 1.2651, 1.2605,1.2651,0.2774254914394314
MultiSource/Benchmarks/Prolangs-C++/ocean/ocean, 0.0363, 0.0362, 0.0362,0.0362, 0.0363, 0.0362, 0.0364,0.0363,0.2762430939226457
MultiSource/Benchmarks/TSVC/ControlLoops-dbl/ControlLoops-dbl, 2.5379, 2.5324, 2.5291,2.5324, 2.5390, 2.5408, 2.5380,2.539,0.2606223345443137
MultiSource/Applications/JM/lencod/lencod, 3.2499, 3.2502, 3.2621,3.2502, 3.2585, 3.2563, 3.2642,3.2585,0.2553689003753634
MultiSource/Benchmarks/Olden/treeadd/treeadd, 0.1269, 0.1269, 0.1270,0.1269, 0.1275, 0.1270, 0.1272,0.1272,0.23640661938533203
MultiSource/Applications/siod/siod, 1.1031, 1.1045, 1.1043,1.1043, 1.1066, 1.1064, 1.1069,1.1066,0.20827673639409738
MultiSource/Benchmarks/Olden/health/health, 0.1452, 0.1451, 0.1451,0.1451, 0.1462, 0.1454, 0.1452,0.1454,0.2067539627842896
MultiSource/Benchmarks/Ptrdist/bc/bc, 0.3586, 0.3592, 0.3584,0.3586, 0.3608, 0.3593, 0.3592,0.3593,0.19520356943669714
MultiSource/Benchmarks/Olden/mst/mst, 0.0525, 0.0528, 0.0528,0.0528, 0.0529, 0.0527, 0.0529,0.0529,0.18939393939394478
MultiSource/Applications/spiff/spiff, 1.2780, 1.2781, 1.2796,1.2781, 1.2839, 1.2789, 1.2805,1.2805,0.18777873405837475
MultiSource/Benchmarks/McCat/12-IOtest/iotest, 0.2147, 0.2140, 0.2138,0.214, 0.2153, 0.2144, 0.2131,0.2144,0.18691588785046953
MultiSource/Benchmarks/Fhourstones-3.1/fhourstones3.1, 0.7948, 0.7983, 0.7951,0.7951, 0.7965, 0.7981, 0.7950,0.7965,0.1760784806942528
MultiSource/Benchmarks/TSVC/InductionVariable-flt/InductionVariable-flt, 2.5720, 2.5697, 2.5784,2.572, 2.5747, 2.5778, 2.5761,2.5761,0.15940902021771564
SingleSource/Benchmarks/Shootout-C++/hash, 0.3221, 0.3217, 0.3236,0.3221, 0.3224, 0.3231, 0.3226,0.3226,0.1552312946289991
MultiSource/Benchmarks/MiBench/automotive-basicmath/automotive-basicmath, 0.2226, 0.2226, 0.2227,0.2226, 0.2231, 0.2229, 0.2228,0.2229,0.13477088948787852
SingleSource/Benchmarks/Shootout-C++/lists, 2.9753, 2.9637, 2.9702,2.9702, 2.9662, 2.9742, 2.9802,2.9742,0.1346710659214878
MultiSource/Benchmarks/Olden/tsp/tsp, 1.0828, 1.0841, 1.0834,1.0834, 1.0854, 1.0844, 1.0848,1.0848,0.12922281705742833
MultiSource/Benchmarks/McCat/04-bisect/bisect, 0.0790, 0.0790, 0.0790,0.079, 0.0791, 0.0791, 0.0790,0.0791,0.12658227848101333
MultiSource/Benchmarks/7zip/7zip-benchmark, 6.4142, 6.4019, 6.4022,6.4022, 6.4100, 6.4059, 6.4101,6.41,0.12183311986504464
SingleSource/Benchmarks/Stanford/Puzzle, 0.0874, 0.0874, 0.0876,0.0874, 0.0875, 0.0873, 0.0877,0.0875,0.11441647597252302
SingleSource/Benchmarks/Polybench/linear-algebra/solvers/dynprog/dynprog, 0.2695, 0.2677, 0.2682,0.2682, 0.2683, 0.2685, 0.2693,0.2685,0.11185682326622093
SingleSource/Benchmarks/Polybench/linear-algebra/kernels/trmm/trmm, 2.2302, 2.2479, 2.2249,2.2302, 2.2310, 2.2325, 2.2337,2.2325,0.10312976414670327
SingleSource/Benchmarks/Shootout/heapsort, 2.0200, 2.0267, 2.0209,2.0209, 2.0405, 2.0227, 2.0169,2.0227,0.08906922658220573
SingleSource/Benchmarks/BenchmarkGame/puzzle, 0.1142, 0.1140, 0.1144,0.1142, 0.1145, 0.1142, 0.1143,0.1143,0.08756567425569628
MultiSource/Benchmarks/MiBench/consumer-lame/consumer-lame, 0.1181, 0.1183, 0.1182,0.1182, 0.1183, 0.1181, 0.1183,0.1183,0.08460236886633776
SingleSource/Benchmarks/Shootout-C++/heapsort, 2.0509, 2.0411, 2.0484,2.0484, 2.0527, 2.0411, 2.0501,2.0501,0.08299160320250909
MultiSource/Benchmarks/Olden/perimeter/perimeter, 0.1232, 0.1231, 0.1231,0.1231, 0.1232, 0.1235, 0.1231,0.1232,0.08123476848092004
MultiSource/Benchmarks/FreeBench/mason/mason, 0.1317, 0.1317, 0.1317,0.1317, 0.1318, 0.1318, 0.1318,0.1318,0.07593014426725553
MultiSource/Benchmarks/NPB-serial/is/is, 5.2063, 5.2122, 5.2106,5.2106, 5.2143, 5.2072, 5.2176,5.2143,0.07100909684103485
MultiSource/Benchmarks/TSVC/Equivalencing-flt/Equivalencing-flt, 0.9663, 0.9685, 0.9665,0.9665, 0.9674, 0.9667, 0.9671,0.9671,0.06207966890843242
SingleSource/Benchmarks/Polybench/linear-algebra/kernels/gemver/gemver, 0.3226, 0.3231, 0.3214,0.3226, 0.3258, 0.3228, 0.3227,0.3228,0.061996280223186595
MultiSource/Benchmarks/TSVC/NodeSplitting-flt/NodeSplitting-flt, 4.6480, 4.6521, 4.6473,4.648, 4.6507, 4.6503, 4.6508,4.6507,0.05808950086059195
MultiSource/Applications/obsequi/Obsequi, 1.0781, 1.0800, 1.0783,1.0783, 1.0789, 1.0789, 1.0782,1.0789,0.055643141982741895
SingleSource/Benchmarks/Shootout-C++/fibo, 1.4724, 1.4730, 1.4758,1.473, 1.4736, 1.4751, 1.4738,1.4738,0.05431093007466359
SingleSource/Benchmarks/Misc-C++/bigfib, 0.1921, 0.1922, 0.1922,0.1922, 0.1926, 0.1923, 0.1917,0.1923,0.05202913631632278
MultiSource/Applications/viterbi/viterbi, 1.2669, 1.2670, 1.2669,1.2669, 1.2676, 1.2675, 1.2668,1.2675,0.04735969689795283
MultiSource/Benchmarks/TSVC/LoopRerolling-dbl/LoopRerolling-dbl, 4.5897, 4.5947, 4.5874,4.5897, 4.5916, 4.5914, 4.6042,4.5916,0.04139704120094123
MultiSource/Benchmarks/mafft/pairlocalalign,26.2181,26.2139,26.2132,26.2139,26.2238,26.2169,26.2237,26.2237,0.037384746260582524
MultiSource/Benchmarks/TSVC/Searching-flt/Searching-flt, 2.4410, 2.4408, 2.4439,2.441, 2.4443, 2.4419, 2.4413,2.4419,0.03687013519049209
MultiSource/Benchmarks/TSVC/Equivalencing-dbl/Equivalencing-dbl, 1.3864, 1.3804, 1.3800,1.3804, 1.3804, 1.3870, 1.3809,1.3809,0.03622138510577244
MultiSource/Benchmarks/TSVC/StatementReordering-dbl/StatementReordering-dbl, 2.2339, 2.2366, 2.2457,2.2366, 2.2374, 2.2405, 2.2332,2.2374,0.03576857730482885
MultiSource/Benchmarks/Trimaran/netbench-crc/netbench-crc, 0.6213, 0.6211, 0.6211,0.6211, 0.6215, 0.6213, 0.6213,0.6213,0.03220093382707567
SingleSource/Benchmarks/Adobe-C++/loop_unroll, 1.8950, 1.8907, 1.8891,1.8907, 1.8911, 1.8918, 1.8913,1.8913,0.031734278309625275
SingleSource/Benchmarks/Shootout/lists, 4.0562, 4.0571, 4.0593,4.0571, 4.0580, 4.0591, 4.0579,4.058,0.022183332922520727
MultiSource/Benchmarks/TSVC/LinearDependence-flt/LinearDependence-flt, 4.6185, 4.6192, 4.6192,4.6192, 4.6202, 4.6212, 4.6179,4.6202,0.02164877034982471
MultiSource/Benchmarks/Ptrdist/yacr2/yacr2, 0.5095, 0.5095, 0.5095,0.5095, 0.5096, 0.5096, 0.5096,0.5096,0.01962708537783797
MultiSource/Benchmarks/Trimaran/netbench-url/netbench-url, 2.9790, 2.9793, 2.9787,2.979, 2.9903, 2.9794, 2.9791,2.9794,0.01342732460556384
SingleSource/Benchmarks/Misc/flops-2, 0.8627, 0.8627, 0.8627,0.8627, 0.8628, 0.8627, 0.8628,0.8628,0.011591515011000197
SingleSource/Benchmarks/Shootout/matrix, 1.0670, 1.0667, 1.0674,1.067, 1.0672, 1.0671, 1.0662,1.0671,0.009372071227731205
MultiSource/Benchmarks/TSVC/Symbolics-dbl/Symbolics-dbl, 2.4567, 2.4569, 2.4569,2.4569, 2.4573, 2.4571, 2.4571,2.4571,0.008140339452156198
MultiSource/Benchmarks/TSVC/LoopRerolling-flt/LoopRerolling-flt, 3.8275, 3.8198, 3.8202,3.8202, 3.8192, 3.8221, 3.8205,3.8205,0.007852991989953928
MultiSource/Benchmarks/Trimaran/enc-3des/enc-3des, 1.2817, 1.2819, 1.2818,1.2818, 1.2819, 1.2819, 1.2820,1.2819,0.0078015290996935605
SingleSource/Benchmarks/Misc/matmul_f64_4x4, 1.2953, 1.2952, 1.2952,1.2952, 1.2953, 1.2952, 1.2953,1.2953,0.00772081531810187
SingleSource/Benchmarks/CoyoteBench/almabench,12.6031,12.5850,12.5857,12.5857,12.5865,12.6028,12.5852,12.5865,0.006356420381870009
SingleSource/Benchmarks/Adobe-C++/simple_types_loop_invariant, 1.5953, 1.5953, 1.5953,1.5953, 1.5954, 1.5949, 1.5956,1.5954,0.0062684134645607514
MultiSource/Benchmarks/TSVC/ControlFlow-dbl/ControlFlow-dbl, 3.6795, 3.6991, 3.6814,3.6814, 3.6950, 3.6816, 3.6757,3.6816,0.005432715814635003
SingleSource/Benchmarks/Misc-C++/Large/ray, 2.8223, 2.8212, 2.8210,2.8212, 2.8214, 2.8213, 2.8213,2.8213,0.003544590954196458
MultiSource/Applications/hexxagon/hexxagon, 6.8370, 6.8370, 6.8369,6.837, 6.8372, 6.8372, 6.8370,6.8372,0.002925259616803899
MultiSource/Benchmarks/TSVC/Recurrences-flt/Recurrences-flt, 3.5009, 3.5010, 3.5009,3.5009, 3.5010, 3.5008, 3.5010,3.501,0.002856408352136519
MultiSource/Benchmarks/TSVC/Recurrences-dbl/Recurrences-dbl, 3.5011, 3.5011, 3.5012,3.5011, 3.5011, 3.5013, 3.5012,3.5012,0.0028562451800828725
SingleSource/Regression/C/uint64_to_float, 0.2608, 0.2608, 0.2608,0.2608, 0.2608, 0.2608, 0.2607,0.2608,0.0
SingleSource/Benchmarks/Stanford/RealMM, 0.0020, 0.0020, 0.0020,0.002, 0.0020, 0.0020, 0.0020,0.002,0.0
SingleSource/Benchmarks/Stanford/Quicksort, 0.0303, 0.0303, 0.0304,0.0303, 0.0303, 0.0303, 0.0303,0.0303,0.0
SingleSource/Benchmarks/Stanford/Perm, 0.0146, 0.0147, 0.0147,0.0147, 0.0147, 0.0146, 0.0147,0.0147,0.0
SingleSource/Benchmarks/Stanford/FloatMM, 0.5466, 0.5466, 0.5465,0.5466, 0.5468, 0.5466, 0.5466,0.5466,0.0
SingleSource/Benchmarks/Stanford/Bubblesort, 0.0161, 0.0161, 0.0160,0.0161, 0.0162, 0.0161, 0.0161,0.0161,0.0
SingleSource/Benchmarks/Shootout/strcat, 0.1051, 0.1052, 0.1052,0.1052, 0.1052, 0.1052, 0.1052,0.1052,0.0
SingleSource/Benchmarks/Shootout/random, 1.7449, 1.7449, 1.7449,1.7449, 1.7450, 1.7448, 1.7449,1.7449,0.0
SingleSource/Benchmarks/Shootout/objinst, 0.0009, 0.0009, 0.0009,0.0009, 0.0009, 0.0009, 0.0009,0.0009,0.0
SingleSource/Benchmarks/Shootout/nestedloop, 0.0009, 0.0009, 0.0009,0.0009, 0.0009, 0.0009, 0.0009,0.0009,0.0
SingleSource/Benchmarks/Shootout/methcall, 3.2761, 3.2762, 3.2758,3.2761, 3.2760, 3.2761, 3.2761,3.2761,0.0
SingleSource/Benchmarks/Shootout/fib2, 1.4737, 1.4737, 1.4729,1.4737, 1.4737, 1.4728, 1.4740,1.4737,0.0
SingleSource/Benchmarks/Shootout-C++/strcat, 0.0405, 0.0406, 0.0406,0.0406, 0.0406, 0.0406, 0.0406,0.0406,0.0
SingleSource/Benchmarks/Shootout-C++/random, 1.7450, 1.7450, 1.7450,1.745, 1.7450, 1.7448, 1.7450,1.745,0.0
SingleSource/Benchmarks/Shootout-C++/nestedloop, 0.0009, 0.0009, 0.0009,0.0009, 0.0009, 0.0009, 0.0009,0.0009,0.0
SingleSource/Benchmarks/Shootout-C++/ary, 0.0143, 0.0143, 0.0142,0.0143, 0.0143, 0.0143, 0.0143,0.0143,0.0
SingleSource/Benchmarks/Shootout-C++/ackermann, 0.6573, 0.6573, 0.6573,0.6573, 0.6573, 0.6573, 0.6574,0.6573,0.0
SingleSource/Benchmarks/Polybench/stencils/seidel-2d/seidel-2d, 0.6464, 0.6465, 0.6466,0.6465, 0.6462, 0.6466, 0.6465,0.6465,0.0
SingleSource/Benchmarks/Polybench/medley/reg_detect/reg_detect, 0.0145, 0.0145, 0.0144,0.0145, 0.0145, 0.0145, 0.0145,0.0145,0.0
SingleSource/Benchmarks/Polybench/linear-algebra/solvers/lu/lu, 0.0023, 0.0023, 0.0023,0.0023, 0.0023, 0.0023, 0.0023,0.0023,0.0
SingleSource/Benchmarks/Polybench/linear-algebra/kernels/mvt/mvt, 0.2475, 0.2477, 0.2472,0.2475, 0.2491, 0.2471, 0.2475,0.2475,0.0
SingleSource/Benchmarks/Misc/salsa20, 4.8173, 4.8286, 4.8175,4.8175, 4.8288, 4.8175, 4.8174,4.8175,0.0
SingleSource/Benchmarks/Misc/pi, 0.6943, 0.6942, 0.6943,0.6943, 0.6943, 0.6943, 0.6943,0.6943,0.0
SingleSource/Benchmarks/Misc/mandel-2, 1.2780, 1.2780, 1.2780,1.278, 1.2782, 1.2780, 1.2780,1.278,0.0
SingleSource/Benchmarks/Misc/mandel, 0.8023, 0.8023, 0.8022,0.8023, 0.8023, 0.8022, 0.8023,0.8023,0.0
SingleSource/Benchmarks/Misc/fp-convert, 3.0626, 3.0626, 3.0626,3.0626, 3.0627, 3.0626, 3.0626,3.0626,0.0
SingleSource/Benchmarks/Misc/flops-7, 1.5902, 1.5902, 1.5902,1.5902, 1.5902, 1.5902, 1.5902,1.5902,0.0
SingleSource/Benchmarks/Misc/flops-6, 3.4395, 3.4395, 3.4395,3.4395, 3.4396, 3.4395, 3.4395,3.4395,0.0
SingleSource/Benchmarks/Misc/flops-1, 3.6290, 3.6289, 3.6289,3.6289, 3.6289, 3.6289, 3.6288,3.6289,0.0
SingleSource/Benchmarks/Misc/fbench, 1.7531, 1.7531, 1.7531,1.7531, 1.7531, 1.7531, 1.7531,1.7531,0.0
SingleSource/Benchmarks/Misc/dt, 0.6919, 0.6919, 0.6919,0.6919, 0.6920, 0.6919, 0.6919,0.6919,0.0
SingleSource/Benchmarks/Misc-C++/Large/sphereflake, 5.5045, 5.5044, 5.5041,5.5044, 5.5045, 5.5044, 5.5042,5.5044,0.0
SingleSource/Benchmarks/McGill/queens, 1.5490, 1.5488, 1.5491,1.549, 1.5490, 1.5489, 1.5490,1.549,0.0
SingleSource/Benchmarks/Dhrystone/fldry, 0.3655, 0.3655, 0.3655,0.3655, 0.3655, 0.3655, 0.3655,0.3655,0.0
SingleSource/Benchmarks/Dhrystone/dry, 0.3351, 0.3351, 0.3351,0.3351, 0.3351, 0.3350, 0.3351,0.3351,0.0
SingleSource/Benchmarks/BenchmarkGame/spectral-norm, 0.9733, 0.9733, 0.9733,0.9733, 0.9732, 0.9733, 0.9733,0.9733,0.0
SingleSource/Benchmarks/BenchmarkGame/partialsums, 0.5687, 0.5687, 0.5686,0.5687, 0.5687, 0.5687, 0.5687,0.5687,0.0
SingleSource/Benchmarks/BenchmarkGame/n-body, 1.3713, 1.3713, 1.3713,1.3713, 1.3713, 1.3713, 1.3713,1.3713,0.0
SingleSource/Benchmarks/Adobe-C++/simple_types_constant_folding, 0.6684, 0.6684, 0.6683,0.6684, 0.6684, 0.6684, 0.6684,0.6684,0.0
MultiSource/Benchmarks/VersaBench/ecbdes/ecbdes, 1.6836, 1.6837, 1.6837,1.6837, 1.6837, 1.6836, 1.6837,1.6837,0.0
MultiSource/Benchmarks/VersaBench/beamformer/beamformer, 0.6731, 0.6733, 0.6732,0.6732, 0.6732, 0.6732, 0.6733,0.6732,0.0
MultiSource/Benchmarks/Trimaran/enc-pc1/enc-pc1, 0.3528, 0.3528, 0.3528,0.3528, 0.3527, 0.3528, 0.3529,0.3528,0.0
MultiSource/Benchmarks/TSVC/ControlFlow-flt/ControlFlow-flt, 3.4948, 3.5133, 3.4829,3.4948, 3.4955, 3.4948, 3.4869,3.4948,0.0
MultiSource/Benchmarks/Olden/voronoi/voronoi, 0.2056, 0.2057, 0.2057,0.2057, 0.2062, 0.2057, 0.2057,0.2057,0.0
MultiSource/Benchmarks/MiBench/network-dijkstra/network-dijkstra, 0.0238, 0.0238, 0.0238,0.0238, 0.0238, 0.0238, 0.0238,0.0238,0.0
MultiSource/Benchmarks/McCat/08-main/main, 0.0429, 0.0429, 0.0429,0.0429, 0.0429, 0.0428, 0.0429,0.0429,0.0
MultiSource/Benchmarks/FreeBench/pifft/pifft, 0.0640, 0.0640, 0.0639,0.064, 0.0640, 0.0639, 0.0641,0.064,0.0
MultiSource/Benchmarks/FreeBench/pcompress2/pcompress2, 0.1029, 0.1030, 0.1031,0.103, 0.1031, 0.1030, 0.1030,0.103,0.0
MultiSource/Benchmarks/FreeBench/neural/neural, 0.1644, 0.1645, 0.1644,0.1644, 0.1644, 0.1643, 0.1645,0.1644,0.0
MultiSource/Benchmarks/FreeBench/fourinarow/fourinarow, 0.1756, 0.1756, 0.1755,0.1756, 0.1754, 0.1757, 0.1756,0.1756,0.0
MultiSource/Benchmarks/FreeBench/distray/distray, 0.1332, 0.1332, 0.1333,0.1332, 0.1332, 0.1332, 0.1332,0.1332,0.0
MultiSource/Applications/sgefa/sgefa, 0.1152, 0.1153, 0.1154,0.1153, 0.1153, 0.1153, 0.1151,0.1153,0.0
MultiSource/Applications/kimwitu++/kc, 0.0279, 0.0281, 0.0282,0.0281, 0.0279, 0.0281, 0.0281,0.0281,0.0
MultiSource/Applications/aha/aha, 1.0728, 1.0736, 1.0734,1.0734, 1.0730, 1.0734, 1.0742,1.0734,0.0
MultiSource/Benchmarks/TSVC/Reductions-flt/Reductions-flt, 5.9693, 5.9695, 5.9695,5.9695, 5.9695, 5.9694, 5.9692,5.9694,-0.0016751821760530028
SingleSource/Benchmarks/Misc/perlin, 3.9905, 3.9908, 3.9907,3.9907, 3.9908, 3.9906, 3.9904,3.9906,-0.0025058260455512738
MultiSource/Benchmarks/TSVC/Reductions-dbl/Reductions-dbl, 3.4748, 3.4749, 3.4750,3.4749, 3.4750, 3.4748, 3.4748,3.4748,-0.002877780655552442
MultiSource/Benchmarks/TSVC/NodeSplitting-dbl/NodeSplitting-dbl, 5.0239, 5.0202, 5.0301,5.0239, 5.0203, 5.0297, 5.0237,5.0237,-0.0039809709588278785
MultiSource/Benchmarks/ASC_Sequoia/CrystalMk/CrystalMk, 6.7181, 6.7166, 6.7167,6.7167, 6.7164, 6.7175, 6.7164,6.7164,-0.004466479074549667
MultiSource/Benchmarks/Trimaran/enc-md5/enc-md5, 1.3937, 1.3939, 1.3939,1.3939, 1.3938, 1.3938, 1.3939,1.3938,-0.007174115790231639
SingleSource/Benchmarks/Misc-C++/stepanov_v1p2, 7.9034, 7.9034, 7.9032,7.9034, 7.9030, 7.9028, 7.9026,7.9028,-0.007591669408102408
MultiSource/Benchmarks/PAQ8p/paq8p,43.8918,43.9809,43.9070,43.907,43.9435,43.9035,43.8778,43.9035,-0.007971394082939565
SingleSource/Benchmarks/SmallPT/smallpt, 7.3918, 7.4048, 7.3922,7.3922, 7.3913, 7.3916, 7.3921,7.3916,-0.008116663510182587
SingleSource/Benchmarks/Shootout/sieve, 3.4739, 3.4712, 3.4704,3.4712, 3.4724, 3.4704, 3.4709,3.4709,-0.008642544365067284
SingleSource/Benchmarks/Misc/ReedSolomon, 3.1975, 3.1972, 3.1980,3.1975, 3.1972, 3.1971, 3.1979,3.1972,-0.009382329945262224
MultiSource/Benchmarks/Olden/power/power, 0.9764, 0.9765, 0.9766,0.9765, 0.9766, 0.9763, 0.9764,0.9764,-0.010240655401949628
MultiSource/Benchmarks/TSVC/StatementReordering-flt/StatementReordering-flt, 1.8259, 1.8244, 1.8231,1.8244, 1.8236, 1.8242, 1.8281,1.8242,-0.010962508221878942
MultiSource/Benchmarks/Olden/em3d/em3d, 1.7039, 1.7039, 1.7041,1.7039, 1.7043, 1.7036, 1.7037,1.7037,-0.011737778038611868
MultiSource/Benchmarks/VersaBench/bmm/bmm, 1.6828, 1.6827, 1.6828,1.6828, 1.6826, 1.6826, 1.6828,1.6826,-0.011884953648677588
MultiSource/Benchmarks/Trimaran/enc-rc4/enc-rc4, 0.7356, 0.7354, 0.7354,0.7354, 0.7353, 0.7353, 0.7352,0.7353,-0.013598041881979217
SingleSource/Benchmarks/Misc/richards_benchmark, 0.5322, 0.5317, 0.5315,0.5317, 0.5317, 0.5315, 0.5316,0.5316,-0.01880759826969891
MultiSource/Benchmarks/TSVC/LinearDependence-dbl/LinearDependence-dbl, 5.1477, 5.1480, 5.1477,5.1477, 5.1472, 5.1464, 5.1467,5.1467,-0.019426151485135712
SingleSource/Benchmarks/CoyoteBench/huffbench, 9.3807, 9.3797, 9.3805,9.3805, 9.3784, 9.3788, 9.3784,9.3784,-0.02238686637173748
SingleSource/Benchmarks/Shootout-C++/matrix, 1.3229, 1.3230, 1.3225,1.3229, 1.3227, 1.3225, 1.3226,1.3226,-0.022677451054498032
MultiSource/Benchmarks/TSVC/Searching-dbl/Searching-dbl, 2.2844, 2.2841, 2.2841,2.2841, 2.2844, 2.2835, 2.2835,2.2835,-0.026268552164965264
SingleSource/Benchmarks/Polybench/stencils/adi/adi, 2.8114, 2.8106, 2.8087,2.8106, 2.8097, 2.8097, 2.8087,2.8097,-0.032021632391665555
SingleSource/Benchmarks/Misc/oourafft, 6.0622, 6.0618, 6.0618,6.0618, 6.0597, 6.0597, 6.0626,6.0597,-0.034643175294457595
SingleSource/Benchmarks/Polybench/datamining/covariance/covariance, 1.6583, 1.6479, 1.6520,1.652, 1.6492, 1.6513, 1.6531,1.6513,-0.04237288135592321
MultiSource/Applications/lua/lua,11.5276,11.5160,11.5330,11.5276,11.5455,11.5223,11.4931,11.5223,-0.0459766126513772
SingleSource/Benchmarks/Polybench/linear-algebra/kernels/bicg/bicg, 0.2122, 0.2122, 0.2122,0.2122, 0.2123, 0.2121, 0.2121,0.2121,-0.04712535344014723
MultiSource/Benchmarks/nbench/nbench, 1.1958, 1.1954, 1.1953,1.1954, 1.1959, 1.1948, 1.1947,1.1948,-0.050192404216153896
SingleSource/Benchmarks/Misc-C++/mandel-text, 1.6059, 1.6045, 1.6057,1.6057, 1.6048, 1.6055, 1.6045,1.6048,-0.056050320732381476
SingleSource/Benchmarks/Polybench/linear-algebra/kernels/atax/atax, 0.1702, 0.1704, 0.1704,0.1704, 0.1704, 0.1702, 0.1703,0.1703,-0.05868544600938774
MultiSource/Benchmarks/MallocBench/espresso/espresso, 0.3064, 0.3069, 0.3065,0.3065, 0.3063, 0.3063, 0.3061,0.3063,-0.06525285481239207
SingleSource/Benchmarks/Linpack/linpack-pc, 1.2852, 1.2874, 1.2889,1.2874, 1.2857, 1.2865, 1.2900,1.2865,-0.06990834239553045
MultiSource/Benchmarks/Olden/bisort/bisort, 0.3676, 0.3677, 0.3663,0.3676, 0.3673, 0.3657, 0.3674,0.3673,-0.08161044613709256
MultiSource/Benchmarks/TSVC/IndirectAddressing-flt/IndirectAddressing-flt, 2.3025, 2.3061, 2.3031,2.3031, 2.3012, 2.2996, 2.3024,2.3012,-0.08249750336503103
MultiSource/Benchmarks/MiBench/telecomm-gsm/telecomm-gsm, 0.1179, 0.1178, 0.1179,0.1179, 0.1178, 0.1178, 0.1179,0.1178,-0.08481764206955678
MultiSource/Benchmarks/DOE-ProxyApps-C/XSBench/XSBench, 2.4463, 2.4448, 2.4418,2.4448, 2.4427, 2.4391, 2.4439,2.4427,-0.08589659685863671
MultiSource/Benchmarks/ASC_Sequoia/IRSmk/IRSmk, 3.0101, 3.0048, 2.9977,3.0048, 3.0019, 2.9934, 3.0112,3.0019,-0.09651224707134531
SingleSource/Benchmarks/McGill/misr, 0.1016, 0.1016, 0.1014,0.1016, 0.1015, 0.1015, 0.1015,0.1015,-0.09842519685038242
MultiSource/Benchmarks/TSVC/GlobalDataFlow-dbl/GlobalDataFlow-dbl, 2.8525, 2.8393, 2.8406,2.8406, 2.8378, 2.8376, 2.8381,2.8378,-0.09857072449481752
MultiSource/Benchmarks/sim/sim, 2.6122, 2.6105, 2.6136,2.6122, 2.6095, 2.6096, 2.6112,2.6096,-0.09953296072277018
MultiSource/Benchmarks/tramp3d-v4/tramp3d-v4, 0.2670, 0.2666, 0.2664,0.2666, 0.2662, 0.2663, 0.2666,0.2663,-0.11252813203301848
SingleSource/Benchmarks/Adobe-C++/functionobjects, 3.0273, 3.0270, 3.0276,3.0273, 3.0215, 3.0238, 3.0235,3.0235,-0.125524394675125
SingleSource/Benchmarks/Shootout-C++/methcall, 3.5509, 3.5506, 3.5508,3.5508, 3.5460, 3.5460, 3.5508,3.546,-0.13518080432579627
SingleSource/Benchmarks/Polybench/datamining/correlation/correlation, 1.6820, 1.6764, 1.6849,1.682, 1.6751, 1.6846, 1.6797,1.6797,-0.13674197384065945
SingleSource/Benchmarks/CoyoteBench/lpbench, 1.8240, 1.8164, 1.8222,1.8222, 1.8196, 1.8183, 1.8204,1.8196,-0.14268466688617254
MultiSource/Benchmarks/ASC_Sequoia/AMGmk/AMGmk, 5.0567, 5.0457, 5.0345,5.0457, 5.0385, 5.0274, 5.0476,5.0385,-0.14269576074678048
MultiSource/Benchmarks/TSVC/ControlLoops-flt/ControlLoops-flt, 2.3513, 2.3508, 2.3355,2.3508, 2.3469, 2.3498, 2.3473,2.3473,-0.14888548579206073
SingleSource/Benchmarks/Misc/flops,10.6825,10.6959,10.6804,10.6825,10.6649,10.6971,10.6653,10.6653,-0.16101099929790585
SingleSource/Benchmarks/Polybench/medley/floyd-warshall/floyd-warshall, 3.4414, 3.4366, 3.4407,3.4407, 3.4380, 3.4350, 3.4320,3.435,-0.16566396372831305
SingleSource/Benchmarks/BenchmarkGame/fannkuch, 2.2553, 2.2557, 2.2510,2.2553, 2.2509, 2.2515, 2.2522,2.2515,-0.16849199663016012
SingleSource/Benchmarks/Shootout-C++/hash2, 1.7847, 1.7882, 1.7849,1.7849, 1.7810, 1.7808, 1.7790,1.7808,-0.22970474536389007
MultiSource/Benchmarks/TSVC/Symbolics-flt/Symbolics-flt, 1.3968, 1.3976, 1.4002,1.3976, 1.3941, 1.3889, 1.3964,1.3941,-0.2504293073840924
MultiSource/Benchmarks/MiBench/telecomm-FFT/telecomm-fft, 0.0386, 0.0385, 0.0386,0.0386, 0.0386, 0.0385, 0.0385,0.0385,-0.2590673575129654
MultiSource/Benchmarks/TSVC/GlobalDataFlow-flt/GlobalDataFlow-flt, 1.5042, 1.4975, 1.4973,1.4975, 1.5030, 1.4936, 1.4864,1.4936,-0.26043405676127174
MultiSource/Benchmarks/SciMark2-C/scimark2,43.0311,42.9025,43.0682,43.0311,42.9134,42.9922,42.8798,42.9134,-0.2735231030580154
MultiSource/Applications/JM/ldecod/ldecod, 0.0367, 0.0362, 0.0365,0.0365, 0.0364, 0.0366, 0.0364,0.0364,-0.2739726027397138
SingleSource/Benchmarks/Misc-C++/oopack_v1p8, 0.1642, 0.1634, 0.1642,0.1642, 0.1637, 0.1639, 0.1636,0.1637,-0.3045066991473777
SingleSource/Benchmarks/Shootout-C++/EH/except, 0.1208, 0.1204, 0.1207,0.1207, 0.1203, 0.1203, 0.1209,0.1203,-0.3314001657000798
SingleSource/Benchmarks/Polybench/stencils/jacobi-2d-imper/jacobi-2d-imper, 0.1465, 0.1474, 0.1462,0.1465, 0.1459, 0.1459, 0.1462,0.1459,-0.4095563139931646
MultiSource/Benchmarks/TSVC/InductionVariable-dbl/InductionVariable-dbl, 3.0354, 3.0525, 3.0504,3.0504, 3.0371, 3.0519, 3.0364,3.0371,-0.43600839234197997
MultiSource/Benchmarks/TSVC/Packing-flt/Packing-flt, 2.1107, 2.0994, 2.1095,2.1095, 2.0848, 2.0994, 2.1057,2.0994,-0.4787864422849064
MultiSource/Benchmarks/Prolangs-C++/life/life, 0.7125, 0.7108, 0.7069,0.7108, 0.7086, 0.7069, 0.7058,0.7069,-0.5486775464265681
MultiSource/Benchmarks/ASCI_Purple/SMG2000/smg2000, 1.1724, 1.1811, 1.1822,1.1811, 1.1745, 1.1831, 1.1725,1.1745,-0.5588011176022256
MultiSource/Benchmarks/Prolangs-C++/primes/primes, 0.2135, 0.2138, 0.2127,0.2135, 0.2123, 0.2115, 0.2121,0.2121,-0.6557377049180246
SingleSource/Benchmarks/Misc/whetstone, 1.0275, 1.0275, 1.0275,1.0275, 1.0199, 1.0275, 1.0198,1.0199,-0.7396593673965945
SingleSource/Benchmarks/Misc-C++-EH/spirit, 2.6092, 2.6095, 2.6102,2.6095, 2.6016, 2.5901, 2.5901,2.5901,-0.7434374401226296
MultiSource/Benchmarks/MallocBench/cfrac/cfrac, 0.7701, 0.7700, 0.7708,0.7701, 0.7644, 0.7642, 0.7641,0.7642,-0.7661342682768524
MultiSource/Applications/sqlite3/sqlite3, 1.8093, 1.8128, 1.8043,1.8093, 1.7905, 1.7876, 1.7898,1.7898,-1.077764881445853
MultiSource/Benchmarks/MallocBench/gs/gs, 0.0234, 0.0234, 0.0233,0.0234, 0.0230, 0.0230, 0.0230,0.023,-1.7094017094017144
MultiSource/Applications/SIBsim4/SIBsim4, 2.1332, 2.1145, 2.1291,2.1291, 2.0798, 2.0808, 2.0978,2.0808,-2.26856418204876
MultiSource/Applications/lambda-0.1.3/lambda, 2.6535, 2.6456, 2.6431,2.6456, 2.5783, 2.5776, 2.5783,2.5783,-2.543846386452975
Total elapsed time,-,-,-,571.3138999999998,-,-,-,572.5162999999999,0.21046223450893464
Total failure,-,-,-,0,-,-,-,0,
