Benchmarks,base-5.0,base-5.0,base-5.0,median,br1-nogvnandfold,br1-nogvnandfold,br1-nogvnandfold,median,Slowdown(%)
SingleSource/Benchmarks/Shootout-C++/lists, 0.1537, 0.1620, 0.1549,0.1549, 0.1611, 0.1584, 0.1536,0.1584,2.2595222724338226
SingleSource/Benchmarks/Shootout-C++/hash2, 0.3186, 0.3121, 0.3127,0.3127, 0.3188, 0.3179, 0.3172,0.3179,1.662935721138492
SingleSource/Benchmarks/Misc/flops-7, 0.0255, 0.0252, 0.0253,0.0253, 0.0257, 0.0258, 0.0257,0.0257,1.5810276679842028
SingleSource/Benchmarks/Misc/flops-2, 0.0266, 0.0264, 0.0264,0.0264, 0.0268, 0.0268, 0.0268,0.0268,1.5151515151515138
MultiSource/Benchmarks/MiBench/automotive-susan/automotive-susan, 0.5720, 0.5698, 0.5786,0.572, 0.5804, 0.5781, 0.5813,0.5804,1.4685314685314754
SingleSource/Benchmarks/Misc-C++/stepanov_v1p2, 0.1588, 0.1587, 0.1587,0.1587, 0.1609, 0.1610, 0.1611,0.161,1.449275362318847
SingleSource/Benchmarks/Polybench/linear-algebra/kernels/symm/symm, 0.0709, 0.0708, 0.0708,0.0708, 0.0716, 0.0717, 0.0718,0.0717,1.2711864406779627
SingleSource/Benchmarks/Misc/flops-3, 0.0255, 0.0253, 0.0254,0.0254, 0.0257, 0.0257, 0.0257,0.0257,1.1811023622047223
SingleSource/Benchmarks/Misc/flops-1, 0.0257, 0.0255, 0.0256,0.0256, 0.0258, 0.0260, 0.0259,0.0259,1.171875
SingleSource/Benchmarks/Misc/flops-5, 0.0265, 0.0264, 0.0264,0.0264, 0.0267, 0.0267, 0.0268,0.0267,1.1363636363636465
SingleSource/Benchmarks/Misc/flops-8, 0.0266, 0.0265, 0.0264,0.0265, 0.0267, 0.0268, 0.0268,0.0268,1.132075471698113
SingleSource/Benchmarks/Polybench/linear-algebra/kernels/mvt/mvt, 0.0748, 0.0747, 0.0747,0.0747, 0.0760, 0.0755, 0.0755,0.0755,1.070950468540821
SingleSource/Benchmarks/BenchmarkGame/nsieve-bits, 0.0304, 0.0302, 0.0302,0.0302, 0.0304, 0.0305, 0.0305,0.0305,0.9933774834437026
SingleSource/Benchmarks/Polybench/linear-algebra/kernels/syrk/syrk, 0.0707, 0.0705, 0.0705,0.0705, 0.0710, 0.0712, 0.0713,0.0712,0.9929078014184523
SingleSource/Benchmarks/Polybench/linear-algebra/kernels/gesummv/gesummv, 0.0607, 0.0620, 0.0621,0.062, 0.0626, 0.0626, 0.0628,0.0626,0.967741935483879
SingleSource/Benchmarks/Polybench/stencils/seidel-2d/seidel-2d, 0.0647, 0.0646, 0.0646,0.0646, 0.0650, 0.0652, 0.0652,0.0652,0.9287925696594312
SingleSource/Benchmarks/Shootout-C++/ary2, 0.1442, 0.1443, 0.1444,0.1443, 0.1455, 0.1456, 0.1458,0.1456,0.9009009009008917
SingleSource/Benchmarks/Shootout/nestedloop, 0.0232, 0.0230, 0.0230,0.023, 0.0232, 0.0232, 0.0232,0.0232,0.8695652173912993
SingleSource/Benchmarks/Shootout-C++/ary, 0.1428, 0.1429, 0.1430,0.1429, 0.1441, 0.1441, 0.1442,0.1441,0.8397480755773401
SingleSource/Benchmarks/Polybench/linear-algebra/kernels/bicg/bicg, 0.0727, 0.0726, 0.0724,0.0726, 0.0730, 0.0732, 0.0732,0.0732,0.8264462809917328
SingleSource/Benchmarks/Polybench/linear-algebra/kernels/atax/atax, 0.0741, 0.0740, 0.0739,0.074, 0.0744, 0.0746, 0.0746,0.0746,0.8108108108108247
SingleSource/Benchmarks/Polybench/stencils/fdtd-2d/fdtd-2d, 0.1268, 0.1266, 0.1265,0.1266, 0.1272, 0.1276, 0.1276,0.1276,0.789889415481837
SingleSource/Benchmarks/Shootout-C++/random, 0.1156, 0.1155, 0.1159,0.1156, 0.1165, 0.1165, 0.1165,0.1165,0.7785467128027745
SingleSource/Benchmarks/Misc/flops-4, 0.0260, 0.0259, 0.0259,0.0259, 0.0261, 0.0262, 0.0261,0.0261,0.7722007722007707
MultiSource/Benchmarks/mediabench/adpcm/rawdaudio/rawdaudio, 0.0529, 0.0525, 0.0525,0.0525, 0.0528, 0.0529, 0.0529,0.0529,0.7619047619047636
SingleSource/Benchmarks/Misc/flops-6, 0.0265, 0.0264, 0.0265,0.0265, 0.0267, 0.0267, 0.0267,0.0267,0.7547169811320753
SingleSource/Benchmarks/Polybench/linear-algebra/solvers/lu/lu, 0.0827, 0.0825, 0.0826,0.0826, 0.0829, 0.0832, 0.0832,0.0832,0.726392251815966
SingleSource/Benchmarks/Polybench/linear-algebra/kernels/gemver/gemver, 0.0839, 0.0837, 0.0836,0.0837, 0.0841, 0.0843, 0.0843,0.0843,0.7168458781362075
SingleSource/Benchmarks/Polybench/linear-algebra/kernels/cholesky/cholesky, 0.0850, 0.0850, 0.0848,0.085, 0.0854, 0.0856, 0.0856,0.0856,0.7058823529411562
SingleSource/Benchmarks/Polybench/linear-algebra/kernels/syr2k/syr2k, 0.0724, 0.0722, 0.0722,0.0722, 0.0726, 0.0727, 0.0729,0.0727,0.6925207756232732
SingleSource/Benchmarks/Misc/dt, 0.0304, 0.0303, 0.0304,0.0304, 0.0306, 0.0306, 0.0305,0.0306,0.6578947368421018
MultiSource/Benchmarks/VersaBench/beamformer/beamformer, 0.2756, 0.2753, 0.2748,0.2753, 0.2766, 0.2771, 0.2772,0.2771,0.653832183073022
SingleSource/Benchmarks/Polybench/datamining/covariance/covariance, 0.0775, 0.0774, 0.0773,0.0774, 0.0777, 0.0779, 0.0779,0.0779,0.6459948320413522
SingleSource/Benchmarks/Polybench/stencils/jacobi-1d-imper/jacobi-1d-imper, 0.0776, 0.0775, 0.0774,0.0775, 0.0779, 0.0780, 0.0781,0.078,0.6451612903225712
SingleSource/Benchmarks/BenchmarkGame/fannkuch, 0.0481, 0.0480, 0.0479,0.048, 0.0483, 0.0484, 0.0483,0.0483,0.6250000000000089
SingleSource/Benchmarks/Polybench/linear-algebra/solvers/durbin/durbin, 0.0813, 0.0812, 0.0812,0.0812, 0.0815, 0.0817, 0.0817,0.0817,0.6157635467980205
MultiSource/Benchmarks/SciMark2-C/scimark2, 0.3471, 0.3455, 0.3455,0.3455, 0.3466, 0.3477, 0.3476,0.3476,0.6078147612156526
SingleSource/Benchmarks/Polybench/linear-algebra/kernels/trmm/trmm, 0.0671, 0.0670, 0.0670,0.067, 0.0672, 0.0674, 0.0674,0.0674,0.5970149253731405
SingleSource/Benchmarks/Polybench/linear-algebra/solvers/dynprog/dynprog, 0.0675, 0.0675, 0.0673,0.0675, 0.0679, 0.0679, 0.0680,0.0679,0.592592592592589
MultiSource/Benchmarks/Olden/power/power, 0.1189, 0.1186, 0.1185,0.1186, 0.1192, 0.1196, 0.1193,0.1193,0.590219224283306
SingleSource/Benchmarks/Misc/evalloop, 0.0341, 0.0339, 0.0339,0.0339, 0.0341, 0.0341, 0.0342,0.0341,0.5899705014749124
MultiSource/Benchmarks/McCat/04-bisect/bisect, 0.1200, 0.1196, 0.1197,0.1197, 0.1201, 0.1204, 0.1205,0.1204,0.5847953216374213
MultiSource/Benchmarks/MiBench/telecomm-adpcm/telecomm-adpcm, 0.0528, 0.0525, 0.0525,0.0525, 0.0528, 0.0528, 0.0527,0.0528,0.5714285714285783
MultiSource/Benchmarks/mediabench/adpcm/rawcaudio/rawcaudio, 0.0529, 0.0526, 0.0527,0.0527, 0.0529, 0.0531, 0.0530,0.053,0.5692599620493288
SingleSource/Benchmarks/Shootout/objinst, 0.0353, 0.0351, 0.0352,0.0352, 0.0353, 0.0354, 0.0354,0.0354,0.5681818181818121
SingleSource/Benchmarks/Polybench/datamining/correlation/correlation, 0.0708, 0.0706, 0.0709,0.0708, 0.0711, 0.0712, 0.0713,0.0712,0.5649717514124353
MultiSource/Benchmarks/Olden/treeadd/treeadd, 0.0539, 0.0534, 0.0533,0.0534, 0.0537, 0.0537, 0.0537,0.0537,0.561797752808979
SingleSource/Benchmarks/Shootout/heapsort, 0.0367, 0.0365, 0.0365,0.0365, 0.0366, 0.0367, 0.0367,0.0367,0.547945205479472
MultiSource/Benchmarks/Ptrdist/anagram/anagram, 0.0919, 0.0918, 0.0917,0.0918, 0.0922, 0.0923, 0.0923,0.0923,0.5446623093681824
MultiSource/Benchmarks/mediabench/gsm/toast/toast, 0.9637, 0.9602, 0.9597,0.9602, 0.9636, 0.9654, 0.9663,0.9654,0.5415538429493827
SingleSource/Regression/C/2004-08-12-InlinerAndAllocas, 0.0189, 0.0187, 0.0187,0.0187, 0.0188, 0.0188, 0.0189,0.0188,0.5347593582887722
MultiSource/Benchmarks/DOE-ProxyApps-C/RSBench/rsbench, 0.3634, 0.3621, 0.3624,0.3624, 0.3635, 0.3644, 0.3643,0.3643,0.5242825607064017
MultiSource/Benchmarks/ASC_Sequoia/IRSmk/IRSmk, 0.0963, 0.0959, 0.0958,0.0959, 0.0964, 0.0964, 0.0965,0.0964,0.5213764337852034
MultiSource/Benchmarks/MiBench/automotive-basicmath/automotive-basicmath, 0.1354, 0.1348, 0.1350,0.135, 0.1353, 0.1358, 0.1357,0.1357,0.518518518518496
SingleSource/Benchmarks/Shootout-C++/strcat, 0.1164, 0.1164, 0.1166,0.1164, 0.1170, 0.1170, 0.1170,0.117,0.5154639175257714
SingleSource/Benchmarks/Polybench/linear-algebra/kernels/trisolv/trisolv, 0.0589, 0.0588, 0.0588,0.0588, 0.0590, 0.0591, 0.0591,0.0591,0.5102040816326481
MultiSource/Benchmarks/Olden/bh/bh, 0.2371, 0.2367, 0.2365,0.2367, 0.2378, 0.2379, 0.2380,0.2379,0.5069708491761693
MultiSource/Benchmarks/BitBench/uuencode/uuencode, 0.0402, 0.0400, 0.0401,0.0401, 0.0403, 0.0402, 0.0403,0.0403,0.4987531172069959
SingleSource/Benchmarks/Misc/pi, 0.0203, 0.0202, 0.0202,0.0202, 0.0202, 0.0204, 0.0203,0.0203,0.4950495049504955
SingleSource/Benchmarks/Dhrystone/fldry, 0.0414, 0.0411, 0.0412,0.0412, 0.0413, 0.0414, 0.0414,0.0414,0.4854368932038833
SingleSource/Benchmarks/Misc/ffbench, 0.0623, 0.0622, 0.0621,0.0622, 0.0623, 0.0625, 0.0625,0.0625,0.4823151125401992
MultiSource/Benchmarks/FreeBench/pcompress2/pcompress2, 0.2291, 0.2285, 0.2281,0.2285, 0.2295, 0.2296, 0.2299,0.2296,0.48140043763675866
SingleSource/Benchmarks/Shootout-C++/sieve, 0.1666, 0.1666, 0.1667,0.1666, 0.1673, 0.1674, 0.1674,0.1674,0.48019207683072107
SingleSource/Benchmarks/Misc/perlin, 0.0424, 0.0421, 0.0422,0.0422, 0.0424, 0.0424, 0.0424,0.0424,0.4739336492890933
MultiSource/Benchmarks/DOE-ProxyApps-C/XSBench/XSBench, 0.3291, 0.3223, 0.3226,0.3226, 0.3236, 0.3241, 0.3246,0.3241,0.46497210167391057
MultiSource/Benchmarks/VersaBench/dbms/dbms, 0.9088, 0.9043, 0.9038,0.9043, 0.9075, 0.9089, 0.9085,0.9085,0.46444763905784114
MultiSource/Benchmarks/MiBench/automotive-bitcount/automotive-bitcount, 0.2421, 0.2412, 0.2410,0.2412, 0.2417, 0.2424, 0.2423,0.2423,0.4560530679933672
MultiSource/Benchmarks/llubenchmark/llu, 0.0443, 0.0440, 0.0440,0.044, 0.0442, 0.0442, 0.0442,0.0442,0.454545454545463
MultiSource/Benchmarks/McCat/08-main/main, 0.2209, 0.2202, 0.2202,0.2202, 0.2208, 0.2212, 0.2212,0.2212,0.4541326067211582
SingleSource/Benchmarks/Shootout/ackermann, 0.0225, 0.0223, 0.0223,0.0223, 0.0224, 0.0224, 0.0224,0.0224,0.4484304932735439
SingleSource/Benchmarks/Polybench/linear-algebra/kernels/doitgen/doitgen, 0.0899, 0.0899, 0.0897,0.0899, 0.0903, 0.0903, 0.0904,0.0903,0.4449388209121441
MultiSource/Benchmarks/MiBench/telecomm-gsm/telecomm-gsm, 0.9633, 0.9603, 0.9592,0.9603, 0.9629, 0.9645, 0.9653,0.9645,0.43736332396127064
SingleSource/Benchmarks/Misc-C++/mandel-text, 0.0231, 0.0230, 0.0230,0.023, 0.0229, 0.0231, 0.0231,0.0231,0.43478260869564966
MultiSource/Benchmarks/FreeBench/neural/neural, 0.1617, 0.1616, 0.1615,0.1616, 0.1620, 0.1623, 0.1625,0.1623,0.4331683168316891
MultiSource/Benchmarks/Prolangs-C++/employ/employ, 0.1850, 0.1847, 0.1852,0.185, 0.1858, 0.1859, 0.1858,0.1858,0.432432432432428
SingleSource/Benchmarks/Polybench/medley/floyd-warshall/floyd-warshall, 0.0699, 0.0698, 0.0698,0.0698, 0.0700, 0.0701, 0.0702,0.0701,0.42979942693408546
SingleSource/Benchmarks/Stanford/RealMM, 0.0468, 0.0466, 0.0465,0.0466, 0.0468, 0.0468, 0.0469,0.0468,0.42918454935620964
MultiSource/Benchmarks/MallocBench/cfrac/cfrac, 0.8205, 0.8162, 0.8154,0.8162, 0.8178, 0.8200, 0.8197,0.8197,0.42881646655230643
MultiSource/Benchmarks/DOE-ProxyApps-C/SimpleMOC/SimpleMOC, 0.7954, 0.7927, 0.7937,0.7937, 0.7959, 0.7972, 0.7971,0.7971,0.4283734408466744
MultiSource/Benchmarks/mafft/pairlocalalign, 7.9639, 7.9683, 7.9558,7.9639, 7.9890, 7.9980, 8.0016,7.998,0.4281821720513834
MultiSource/Benchmarks/VersaBench/8b10b/8b10b, 0.0708, 0.0706, 0.0706,0.0706, 0.0710, 0.0709, 0.0708,0.0709,0.4249291784702569
MultiSource/Benchmarks/Olden/em3d/em3d, 0.1696, 0.1650, 0.1646,0.165, 0.1655, 0.1659, 0.1657,0.1657,0.42424242424241587
MultiSource/Benchmarks/Trimaran/netbench-crc/netbench-crc, 0.0723, 0.0718, 0.0719,0.0719, 0.0721, 0.0722, 0.0722,0.0722,0.4172461752433909
SingleSource/Benchmarks/Shootout/sieve, 0.0243, 0.0241, 0.0241,0.0241, 0.0242, 0.0242, 0.0242,0.0242,0.4149377593360981
SingleSource/Benchmarks/Misc/revertBits, 0.0243, 0.0241, 0.0242,0.0242, 0.0243, 0.0244, 0.0243,0.0243,0.4132231404958553
SingleSource/Benchmarks/Shootout-C++/ary3, 0.1462, 0.1462, 0.1464,0.1462, 0.1467, 0.1468, 0.1468,0.1468,0.4103967168262779
SingleSource/Benchmarks/Misc/fbench, 0.0501, 0.0500, 0.0500,0.05, 0.0500, 0.0502, 0.0502,0.0502,0.40000000000000036
MultiSource/Benchmarks/BitBench/five11/five11, 0.0502, 0.0500, 0.0500,0.05, 0.0501, 0.0502, 0.0502,0.0502,0.40000000000000036
SingleSource/Benchmarks/BenchmarkGame/recursive, 0.0252, 0.0251, 0.0250,0.0251, 0.0252, 0.0251, 0.0252,0.0252,0.3984063745019917
MultiSource/Benchmarks/MiBench/network-patricia/network-patricia, 0.0757, 0.0755, 0.0754,0.0755, 0.0756, 0.0758, 0.0759,0.0758,0.3973509933774988
MultiSource/Benchmarks/DOE-ProxyApps-C++/PENNANT/PENNANT, 3.7277, 3.7287, 3.7274,3.7277, 3.7425, 3.7430, 3.7422,3.7425,0.3970276578050935
SingleSource/Benchmarks/Misc/salsa20, 0.0506, 0.0505, 0.0504,0.0505, 0.0505, 0.0507, 0.0507,0.0507,0.3960396039603964
SingleSource/Benchmarks/BenchmarkGame/spectral-norm, 0.0507, 0.0508, 0.0507,0.0507, 0.0509, 0.0509, 0.0510,0.0509,0.39447731755424265
SingleSource/Benchmarks/Stanford/Puzzle, 0.1019, 0.1017, 0.1016,0.1017, 0.1021, 0.1021, 0.1022,0.1021,0.3933136676499416
MultiSource/Benchmarks/Olden/health/health, 0.1286, 0.1282, 0.1282,0.1282, 0.1287, 0.1286, 0.1288,0.1287,0.3900156006240163
MultiSource/Applications/spiff/spiff, 0.6972, 0.6936, 0.6929,0.6936, 0.6954, 0.6963, 0.6965,0.6963,0.3892733564013984
MultiSource/Benchmarks/DOE-ProxyApps-C/Pathfinder/PathFinder, 0.7475, 0.7456, 0.7449,0.7456, 0.7471, 0.7485, 0.7488,0.7485,0.38894849785406915
SingleSource/Benchmarks/Polybench/stencils/jacobi-2d-imper/jacobi-2d-imper, 0.1038, 0.1038, 0.1036,0.1038, 0.1041, 0.1043, 0.1042,0.1042,0.3853564547206201
MultiSource/Benchmarks/DOE-ProxyApps-C++/HPCCG/HPCCG, 1.3001, 1.2994, 1.3008,1.3001, 1.3051, 1.3054, 1.3046,1.3051,0.38458580109221874
MultiSource/Benchmarks/MiBench/telecomm-FFT/telecomm-fft, 0.1302, 0.1298, 0.1301,0.1301, 0.1301, 0.1306, 0.1306,0.1306,0.3843197540353671
MultiSource/Benchmarks/mediabench/g721/g721encode/encode, 0.1848, 0.1841, 0.1837,0.1841, 0.1841, 0.1848, 0.1848,0.1848,0.3802281368821214
MultiSource/Benchmarks/Ptrdist/ks/ks, 0.1336, 0.1335, 0.1332,0.1335, 0.1336, 0.1340, 0.1340,0.134,0.3745318352059934
SingleSource/Benchmarks/Shootout-C++/nestedloop, 0.1074, 0.1074, 0.1076,0.1074, 0.1078, 0.1080, 0.1078,0.1078,0.3724394785847407
MultiSource/Benchmarks/mediabench/mpeg2/mpeg2dec/mpeg2decode, 1.2214, 1.2214, 1.2200,1.2214, 1.2248, 1.2259, 1.2271,1.2259,0.36842967086949674
MultiSource/Benchmarks/Prolangs-C/agrep/agrep, 1.2238, 1.2223, 1.2217,1.2223, 1.2245, 1.2274, 1.2268,1.2268,0.36815838992063643
MultiSource/Benchmarks/MallocBench/espresso/espresso, 4.1960, 4.1909, 4.1889,4.1909, 4.2014, 4.2062, 4.2084,4.2062,0.3650767138323463
MultiSource/Benchmarks/FreeBench/analyzer/analyzer, 0.2216, 0.2208, 0.2204,0.2208, 0.2213, 0.2216, 0.2216,0.2216,0.36231884057971175
SingleSource/Benchmarks/CoyoteBench/lpbench, 0.1386, 0.1385, 0.1384,0.1385, 0.1388, 0.1390, 0.1391,0.139,0.3610108303249149
MultiSource/Benchmarks/Prolangs-C++/life/life, 0.0556, 0.0554, 0.0554,0.0554, 0.0555, 0.0556, 0.0557,0.0556,0.3610108303249149
SingleSource/Benchmarks/Polybench/stencils/adi/adi, 0.0833, 0.0832, 0.0832,0.0832, 0.0833, 0.0835, 0.0835,0.0835,0.36057692307693845
SingleSource/Benchmarks/BenchmarkGame/partialsums, 0.0283, 0.0282, 0.0282,0.0282, 0.0283, 0.0283, 0.0284,0.0283,0.35460992907800915
SingleSource/Benchmarks/Shootout/random, 0.0284, 0.0283, 0.0283,0.0283, 0.0283, 0.0284, 0.0284,0.0284,0.35335689045936647
SingleSource/Benchmarks/Misc/fp-convert, 0.0285, 0.0284, 0.0284,0.0284, 0.0285, 0.0285, 0.0286,0.0285,0.35211267605632646
MultiSource/Benchmarks/ASCI_Purple/SMG2000/smg2000, 5.1773, 5.1753, 5.1708,5.1753, 5.1856, 5.1935, 5.1947,5.1935,0.35167043456418856
MultiSource/Benchmarks/McCat/03-testtrie/testtrie, 0.0858, 0.0853, 0.0855,0.0855, 0.0857, 0.0859, 0.0858,0.0858,0.35087719298245723
MultiSource/Benchmarks/Olden/mst/mst, 0.1151, 0.1146, 0.1145,0.1146, 0.1148, 0.1153, 0.1150,0.115,0.3490401396160747
SingleSource/Benchmarks/Misc-C++/Large/sphereflake, 0.2021, 0.2021, 0.2021,0.2021, 0.2028, 0.2030, 0.2027,0.2028,0.3463631865413097
SingleSource/Benchmarks/Polybench/medley/reg_detect/reg_detect, 0.3831, 0.3836, 0.3834,0.3834, 0.3847, 0.3849, 0.3846,0.3847,0.3390714658320304
SingleSource/Benchmarks/Misc/richards_benchmark, 0.0592, 0.0590, 0.0590,0.059, 0.0592, 0.0592, 0.0592,0.0592,0.3389830508474745
MultiSource/Benchmarks/ASC_Sequoia/CrystalMk/CrystalMk, 0.2059, 0.2068, 0.2068,0.2068, 0.2070, 0.2075, 0.2076,0.2075,0.3384912959381037
MultiSource/Benchmarks/McCat/12-IOtest/iotest, 0.0894, 0.0890, 0.0889,0.089, 0.0893, 0.0893, 0.0895,0.0893,0.3370786516853963
SingleSource/Benchmarks/Shootout/methcall, 0.0299, 0.0298, 0.0298,0.0298, 0.0298, 0.0299, 0.0299,0.0299,0.3355704697986628
MultiSource/Benchmarks/NPB-serial/is/is, 0.0600, 0.0598, 0.0598,0.0598, 0.0599, 0.0600, 0.0601,0.06,0.33444816053511683
MultiSource/Benchmarks/McCat/01-qbsort/qbsort, 0.0911, 0.0906, 0.0907,0.0907, 0.0907, 0.0911, 0.0910,0.091,0.330760749724357
MultiSource/Benchmarks/McCat/18-imp/imp, 0.3034, 0.3031, 0.3030,0.3031, 0.3037, 0.3041, 0.3042,0.3041,0.32992411745298433
MultiSource/Benchmarks/MiBench/consumer-lame/consumer-lame, 3.6207, 3.6172, 3.6142,3.6172, 3.6246, 3.6291, 3.6318,3.6291,0.3289837443326338
SingleSource/Benchmarks/Shootout-C++/heapsort, 0.1216, 0.1216, 0.1218,0.1216, 0.1220, 0.1220, 0.1220,0.122,0.3289473684210398
MultiSource/Benchmarks/TSVC/Symbolics-flt/Symbolics-flt, 1.5097, 1.5243, 1.5073,1.5097, 1.5146, 1.5143, 1.5162,1.5146,0.32456779492613386
SingleSource/Benchmarks/Misc/whetstone, 0.0624, 0.0622, 0.0623,0.0623, 0.0625, 0.0625, 0.0626,0.0625,0.32102728731941976
MultiSource/Benchmarks/mediabench/jpeg/jpeg-6a/cjpeg, 4.1327, 4.1267, 4.1235,4.1267, 4.1336, 4.1399, 4.1417,4.1399,0.31986817553979474
MultiSource/Benchmarks/ASC_Sequoia/AMGmk/AMGmk, 0.5409, 0.5406, 0.5401,0.5406, 0.5415, 0.5423, 0.5427,0.5423,0.3144654088050425
SingleSource/Benchmarks/Stanford/Bubblesort, 0.0320, 0.0319, 0.0318,0.0319, 0.0319, 0.0320, 0.0320,0.032,0.31347962382446415
MultiSource/Benchmarks/VersaBench/ecbdes/ecbdes, 0.1964, 0.1958, 0.1958,0.1958, 0.1963, 0.1964, 0.1964,0.1964,0.3064351378958108
MultiSource/Benchmarks/McCat/17-bintr/bintr, 0.0659, 0.0655, 0.0654,0.0655, 0.0657, 0.0657, 0.0657,0.0657,0.3053435114503733
MultiSource/Benchmarks/MiBench/telecomm-CRC32/telecomm-CRC32, 0.0332, 0.0330, 0.0331,0.0331, 0.0331, 0.0332, 0.0332,0.0332,0.30211480362538623
SingleSource/Benchmarks/McGill/chomp, 0.1712, 0.1711, 0.1708,0.1711, 0.1714, 0.1716, 0.1717,0.1716,0.29222676797193703
MultiSource/Benchmarks/Prolangs-C/gnugo/gnugo, 0.6896, 0.6863, 0.6859,0.6863, 0.6873, 0.6883, 0.6883,0.6883,0.2914177473408053
SingleSource/Benchmarks/Misc/ReedSolomon, 0.1725, 0.1725, 0.1722,0.1725, 0.1727, 0.1730, 0.1732,0.173,0.28985507246377384
SingleSource/Benchmarks/Linpack/linpack-pc, 0.2807, 0.2812, 0.2806,0.2807, 0.2811, 0.2815, 0.2815,0.2815,0.2850017812611183
MultiSource/Benchmarks/nbench/nbench, 1.0209, 1.0206, 1.0192,1.0206, 1.0226, 1.0235, 1.0236,1.0235,0.28414658044289
SingleSource/Benchmarks/Stanford/Treesort, 0.0361, 0.0360, 0.0360,0.036, 0.0359, 0.0361, 0.0361,0.0361,0.2777777777777768
MultiSource/Benchmarks/TSVC/CrossingThresholds-dbl/CrossingThresholds-dbl, 1.8138, 1.8154, 1.8146,1.8146, 1.8196, 1.8172, 1.8197,1.8196,0.2755428193541354
MultiSource/Applications/d/make_dparser, 2.4153, 2.4201, 2.4281,2.4201, 2.4267, 2.4680, 2.4090,2.4267,0.2727160034709186
MultiSource/Benchmarks/Olden/perimeter/perimeter, 0.0742, 0.0737, 0.0737,0.0737, 0.0738, 0.0740, 0.0739,0.0739,0.27137042062415073
MultiSource/Benchmarks/DOE-ProxyApps-C++/CLAMR/CLAMR,16.4317,16.4361,16.4200,16.4317,16.4480,16.4794,16.4756,16.4756,0.26716651350742193
MultiSource/Benchmarks/MallocBench/gs/gs, 3.4620, 3.4537, 3.4514,3.4537, 3.4589, 3.4629, 3.4628,3.4628,0.26348553724990786
SingleSource/Benchmarks/Shootout/matrix, 0.0763, 0.0763, 0.0762,0.0763, 0.0764, 0.0765, 0.0765,0.0765,0.262123197902997
MultiSource/Benchmarks/Trimaran/netbench-url/netbench-url, 0.1913, 0.1909, 0.1906,0.1909, 0.1912, 0.1916, 0.1914,0.1914,0.2619172341540077
MultiSource/Benchmarks/Ptrdist/ft/ft, 0.1946, 0.1938, 0.1939,0.1939, 0.1941, 0.1944, 0.1947,0.1944,0.2578648788035043
MultiSource/Applications/viterbi/viterbi, 0.1553, 0.1565, 0.1565,0.1565, 0.1565, 0.1571, 0.1569,0.1569,0.2555910543130979
MultiSource/Benchmarks/MiBench/network-dijkstra/network-dijkstra, 0.0394, 0.0392, 0.0392,0.0392, 0.0393, 0.0393, 0.0393,0.0393,0.25510204081633514
SingleSource/Benchmarks/CoyoteBench/huffbench, 0.0789, 0.0786, 0.0787,0.0787, 0.0787, 0.0789, 0.0789,0.0789,0.2541296060990961
MultiSource/Benchmarks/TSVC/Symbolics-dbl/Symbolics-dbl, 1.8118, 1.8150, 1.8131,1.8131, 1.8177, 1.8174, 1.8217,1.8177,0.2537091169819705
MultiSource/Benchmarks/MiBench/consumer-jpeg/consumer-jpeg, 4.0947, 4.0881, 4.0847,4.0881, 4.0925, 4.0984, 4.0998,4.0984,0.2519507839827684
MultiSource/Applications/SPASS/SPASS,11.1845,11.1909,11.1707,11.1845,11.2028,11.2126,11.2190,11.2126,0.251240556126775
MultiSource/Benchmarks/FreeBench/pifft/pifft, 0.8409, 0.8414, 0.8399,0.8409, 0.8426, 0.8430, 0.8439,0.843,0.24973242953978403
MultiSource/Applications/oggenc/oggenc, 4.3726, 4.3812, 4.3683,4.3726, 4.3817, 4.3832, 4.3858,4.3832,0.24241869825734064
SingleSource/Benchmarks/Misc/mandel, 0.0413, 0.0413, 0.0413,0.0413, 0.0413, 0.0415, 0.0414,0.0414,0.2421307506053072
SingleSource/Benchmarks/Shootout-C++/hash, 0.2477, 0.2480, 0.2479,0.2479, 0.2485, 0.2487, 0.2485,0.2485,0.24203307785397588
MultiSource/Benchmarks/TSVC/LinearDependence-flt/LinearDependence-flt, 1.5705, 1.5740, 1.5708,1.5708, 1.5728, 1.5746, 1.5749,1.5746,0.24191494779730593
MultiSource/Benchmarks/Prolangs-C++/city/city, 0.8311, 0.8317, 0.8326,0.8317, 0.8340, 0.8337, 0.8330,0.8337,0.2404713237946332
SingleSource/Benchmarks/McGill/queens, 0.0421, 0.0420, 0.0418,0.042, 0.0420, 0.0421, 0.0422,0.0421,0.23809523809523725
MultiSource/Benchmarks/Bullet/bullet,21.1085,21.1314,21.1198,21.1198,21.1727,21.1629,21.1699,21.1699,0.23721815547494973
MultiSource/Benchmarks/McCat/09-vor/vor, 0.2550, 0.2543, 0.2543,0.2543, 0.2548, 0.2550, 0.2549,0.2549,0.23594180102242124
MultiSource/Benchmarks/DOE-ProxyApps-C/miniAMR/miniAMR, 1.2359, 1.2344, 1.2336,1.2344, 1.2363, 1.2373, 1.2381,1.2373,0.2349319507453096
MultiSource/Benchmarks/sim/sim, 0.2590, 0.2592, 0.2588,0.259, 0.2594, 0.2596, 0.2597,0.2596,0.23166023166023564
MultiSource/Benchmarks/McCat/05-eks/eks, 0.4796, 0.4791, 0.4788,0.4791, 0.4793, 0.4802, 0.4806,0.4802,0.22959716134418606
MultiSource/Applications/hexxagon/hexxagon, 0.6097, 0.6098, 0.6098,0.6098, 0.6111, 0.6114, 0.6112,0.6112,0.22958346999015777
SingleSource/Benchmarks/Stanford/Towers, 0.0449, 0.0448, 0.0447,0.0448, 0.0449, 0.0450, 0.0449,0.0449,0.22321428571430157
MultiSource/Applications/sgefa/sgefa, 0.3593, 0.3590, 0.3583,0.359, 0.3594, 0.3598, 0.3600,0.3598,0.22284122562674646
MultiSource/Applications/JM/lencod/lencod,13.4706,13.4765,13.4591,13.4706,13.4955,13.5006,13.5191,13.5006,0.2227072290766685
MultiSource/Applications/lua/lua, 2.9724, 2.9691, 2.9676,2.9691, 2.9716, 2.9768, 2.9757,2.9757,0.22228958270182897
MultiSource/Applications/ALAC/encode/alacconvert-encode, 0.8711, 0.8697, 0.8689,0.8697, 0.8705, 0.8716, 0.8718,0.8716,0.21846613774865187
MultiSource/Applications/hbd/hbd, 1.1115, 1.1099, 1.1094,1.1099, 1.1110, 1.1132, 1.1123,1.1123,0.21623569690962796
MultiSource/Benchmarks/FreeBench/mason/mason, 0.0465, 0.0464, 0.0464,0.0464, 0.0464, 0.0465, 0.0466,0.0465,0.21551724137931494
SingleSource/Benchmarks/Polybench/linear-algebra/solvers/gramschmidt/gramschmidt, 0.0944, 0.0944, 0.0944,0.0944, 0.0943, 0.0947, 0.0946,0.0946,0.21186440677967155
MultiSource/Benchmarks/VersaBench/bmm/bmm, 0.0475, 0.0473, 0.0473,0.0473, 0.0474, 0.0474, 0.0475,0.0474,0.21141649048626032
MultiSource/Benchmarks/7zip/7zip-benchmark,31.1589,31.1577,31.1503,31.1577,31.2059,31.2226,31.2220,31.222,0.20636953305284145
MultiSource/Benchmarks/Prolangs-C/bison/mybison, 1.4872, 1.4810, 1.4795,1.481, 1.4821, 1.4840, 1.4843,1.484,0.2025658338960179
SingleSource/Benchmarks/Stanford/FloatMM, 0.0496, 0.0494, 0.0494,0.0494, 0.0495, 0.0495, 0.0495,0.0495,0.2024291497975783
MultiSource/Benchmarks/Prolangs-C++/simul/simul, 0.0493, 0.0494, 0.0495,0.0494, 0.0496, 0.0495, 0.0495,0.0495,0.2024291497975783
SingleSource/Benchmarks/McGill/misr, 0.0498, 0.0497, 0.0496,0.0497, 0.0497, 0.0498, 0.0499,0.0498,0.2012072434607548
MultiSource/Benchmarks/TSVC/LoopRestructuring-flt/LoopRestructuring-flt, 1.5279, 1.5284, 1.5258,1.5279, 1.5310, 1.5273, 1.5309,1.5309,0.19634792852933902
SingleSource/Benchmarks/BenchmarkGame/puzzle, 0.0518, 0.0518, 0.0517,0.0518, 0.0518, 0.0519, 0.0519,0.0519,0.19305019305020377
MultiSource/Benchmarks/MiBench/consumer-typeset/consumer-typeset, 8.9759, 8.9772, 8.9750,8.9759, 8.9881, 8.9931, 8.9959,8.9931,0.19162423823795294
MultiSource/Benchmarks/MiBench/security-sha/security-sha, 0.1088, 0.1086, 0.1085,0.1086, 0.1086, 0.1088, 0.1088,0.1088,0.18416206261508972
SingleSource/Benchmarks/Adobe-C++/simple_types_constant_folding, 2.2311, 2.2290, 2.2268,2.229, 2.2314, 2.2331, 2.2371,2.2331,0.18393898609241344
MultiSource/Applications/ALAC/decode/alacconvert-decode, 0.8724, 0.8700, 0.8692,0.87, 0.8706, 0.8716, 0.8722,0.8716,0.18390804597701038
SingleSource/Benchmarks/CoyoteBench/fftbench, 0.5572, 0.5496, 0.5565,0.5565, 0.5694, 0.5575, 0.5557,0.5575,0.17969451931716396
MultiSource/Benchmarks/TSVC/IndirectAddressing-flt/IndirectAddressing-flt, 1.5071, 1.5110, 1.5038,1.5071, 1.5080, 1.5124, 1.5098,1.5098,0.1791520138013425
MultiSource/Benchmarks/Olden/voronoi/voronoi, 0.2237, 0.2230, 0.2233,0.2233, 0.2234, 0.2237, 0.2238,0.2237,0.17913121361397
SingleSource/Benchmarks/Stanford/Oscar, 0.0581, 0.0580, 0.0579,0.058, 0.0581, 0.0582, 0.0581,0.0581,0.17241379310344307
MultiSource/Benchmarks/DOE-ProxyApps-C++/miniFE/miniFE, 2.3582, 2.3537, 2.3521,2.3537, 2.3554, 2.3583, 2.3577,2.3577,0.16994519267536923
MultiSource/Benchmarks/Trimaran/enc-pc1/enc-pc1, 0.0600, 0.0599, 0.0599,0.0599, 0.0600, 0.0599, 0.0600,0.06,0.16694490818029983
MultiSource/Benchmarks/Olden/bisort/bisort, 0.0603, 0.0600, 0.0600,0.06, 0.0600, 0.0602, 0.0601,0.0601,0.16666666666667052
SingleSource/Benchmarks/Polybench/stencils/fdtd-apml/fdtd-apml, 0.1210, 0.1210, 0.1209,0.121, 0.1211, 0.1212, 0.1213,0.1212,0.16528925619834212
MultiSource/Applications/kimwitu++/kc,10.0986,10.1197,10.1078,10.1078,10.1244,10.1394,10.1204,10.1244,0.16422960485962257
SingleSource/Benchmarks/CoyoteBench/almabench, 0.0617, 0.0616, 0.0616,0.0616, 0.0617, 0.0617, 0.0617,0.0617,0.16233766233766378
SingleSource/Benchmarks/Shootout/lists, 0.0624, 0.0623, 0.0622,0.0623, 0.0623, 0.0624, 0.0624,0.0624,0.16051364365969878
MultiSource/Applications/lambda-0.1.3/lambda, 0.5085, 0.5084, 0.5080,0.5084, 0.5087, 0.5092, 0.5093,0.5092,0.15735641227381247
SingleSource/Benchmarks/Shootout-C++/objinst, 0.1307, 0.1309, 0.1310,0.1309, 0.1311, 0.1312, 0.1311,0.1311,0.15278838808250317
SingleSource/Benchmarks/BenchmarkGame/n-body, 0.0658, 0.0656, 0.0657,0.0657, 0.0658, 0.0658, 0.0658,0.0658,0.15220700152207556
MultiSource/Benchmarks/Ptrdist/bc/bc, 0.9281, 0.9273, 0.9262,0.9273, 0.9280, 0.9287, 0.9298,0.9287,0.15097595168769296
MultiSource/Benchmarks/TSVC/InductionVariable-flt/InductionVariable-flt, 1.5271, 1.5295, 1.5261,1.5271, 1.5286, 1.5294, 1.5318,1.5294,0.15061227162596058
SingleSource/Benchmarks/Adobe-C++/functionobjects, 0.4186, 0.4189, 0.4181,0.4186, 0.4188, 0.4192, 0.4194,0.4192,0.14333492594362784
SingleSource/Benchmarks/Adobe-C++/loop_unroll, 3.9263, 3.9326, 3.9259,3.9263, 3.9309, 3.9318, 3.9348,3.9318,0.14008099228282056
MultiSource/Applications/ClamAV/clamscan,13.2908,13.2998,13.2841,13.2908,13.2875,13.3106,13.3084,13.3084,0.13242242754385458
MultiSource/Benchmarks/TSVC/Expansion-dbl/Expansion-dbl, 1.8595, 1.8610, 1.8591,1.8595, 1.8602, 1.8658, 1.8619,1.8619,0.1290669534821376
MultiSource/Benchmarks/TSVC/StatementReordering-flt/StatementReordering-flt, 1.4734, 1.4744, 1.4723,1.4734, 1.4739, 1.4753, 1.4761,1.4753,0.12895344102077377
MultiSource/Benchmarks/TSVC/Recurrences-flt/Recurrences-flt, 1.4757, 1.4779, 1.4742,1.4757, 1.4874, 1.4757, 1.4776,1.4776,0.12875245646133404
MultiSource/Benchmarks/Ptrdist/yacr2/yacr2, 0.5580, 0.5575, 0.5562,0.5575, 0.5575, 0.5582, 0.5582,0.5582,0.12556053811658696
MultiSource/Benchmarks/DOE-ProxyApps-C/miniGMG/miniGMG, 0.8901, 0.8904, 0.8892,0.8901, 0.8904, 0.8912, 0.8935,0.8912,0.1235816200426898
MultiSource/Applications/JM/ldecod/ldecod, 5.8120, 5.8161, 5.7956,5.812, 5.8322, 5.8171, 5.8187,5.8187,0.11527873365448915
SingleSource/Benchmarks/SmallPT/smallpt, 0.0920, 0.0921, 0.0920,0.092, 0.0921, 0.0921, 0.0921,0.0921,0.10869565217390686
SingleSource/Benchmarks/Adobe-C++/simple_types_loop_invariant, 1.8038, 1.8056, 1.8022,1.8038, 1.8049, 1.8055, 1.8059,1.8055,0.09424548176073522
MultiSource/Benchmarks/Fhourstones-3.1/fhourstones3.1, 0.1077, 0.1076, 0.1076,0.1076, 0.1077, 0.1077, 0.1078,0.1077,0.09293680297397522
MultiSource/Benchmarks/TSVC/Equivalencing-flt/Equivalencing-flt, 1.5195, 1.5218, 1.5190,1.5195, 1.5208, 1.5206, 1.5228,1.5208,0.08555445870350731
MultiSource/Benchmarks/tramp3d-v4/tramp3d-v4,18.3672,18.3775,18.3348,18.3672,18.3817,18.3749,18.4081,18.3817,0.07894507600503253
MultiSource/Benchmarks/Trimaran/enc-md5/enc-md5, 0.1364, 0.1363, 0.1361,0.1363, 0.1363, 0.1364, 0.1364,0.1364,0.07336757153337814
MultiSource/Benchmarks/TSVC/InductionVariable-dbl/InductionVariable-dbl, 1.8286, 1.8319, 1.8298,1.8298, 1.8307, 1.8311, 1.8327,1.8311,0.07104601595802063
SingleSource/Benchmarks/Misc/himenobmtxpa, 0.1581, 0.1581, 0.1577,0.1581, 0.1580, 0.1582, 0.1584,0.1582,0.06325110689437974
MultiSource/Benchmarks/TSVC/LinearDependence-dbl/LinearDependence-dbl, 1.8724, 1.8725, 1.8698,1.8724, 1.8695, 1.8736, 1.8731,1.8731,0.0373851741080955
MultiSource/Benchmarks/TSVC/CrossingThresholds-flt/CrossingThresholds-flt, 1.5124, 1.5168, 1.5133,1.5133, 1.5136, 1.5136, 1.5147,1.5136,0.019824225203191048
MultiSource/Benchmarks/TSVC/ControlFlow-dbl/ControlFlow-dbl, 1.9451, 1.9451, 1.9455,1.9451, 1.9451, 1.9454, 1.9488,1.9454,0.015423371549028175
SingleSource/Benchmarks/Misc-C++-EH/spirit, 3.3780, 3.3760, 3.3773,3.3773, 3.3821, 3.3748, 3.3776,3.3776,0.008882835401058387
SingleSource/Benchmarks/Stanford/Quicksort, 0.0352, 0.0351, 0.0350,0.0351, 0.0350, 0.0351, 0.0352,0.0351,0.0
SingleSource/Benchmarks/Stanford/Perm, 0.0296, 0.0295, 0.0295,0.0295, 0.0295, 0.0296, 0.0295,0.0295,0.0
SingleSource/Benchmarks/Shootout/strcat, 0.0260, 0.0258, 0.0259,0.0259, 0.0259, 0.0259, 0.0259,0.0259,0.0
SingleSource/Benchmarks/Shootout/hash, 0.0480, 0.0478, 0.0478,0.0478, 0.0478, 0.0478, 0.0478,0.0478,0.0
SingleSource/Benchmarks/Shootout/ary3, 0.0326, 0.0325, 0.0324,0.0325, 0.0325, 0.0326, 0.0325,0.0325,0.0
SingleSource/Benchmarks/Shootout-C++/fibo, 0.1068, 0.1067, 0.1069,0.1068, 0.1067, 0.1069, 0.1068,0.1068,0.0
SingleSource/Benchmarks/Shootout-C++/ackermann, 0.1086, 0.1086, 0.1086,0.1086, 0.1086, 0.1085, 0.1086,0.1086,0.0
SingleSource/Benchmarks/Misc/matmul_f64_4x4, 0.0270, 0.0267, 0.0268,0.0268, 0.0268, 0.0268, 0.0268,0.0268,0.0
SingleSource/Benchmarks/Misc/lowercase, 0.0242, 0.0241, 0.0240,0.0241, 0.0241, 0.0240, 0.0241,0.0241,0.0
SingleSource/Benchmarks/Misc/flops, 0.0712, 0.0711, 0.0710,0.0711, 0.0711, 0.0711, 0.0711,0.0711,0.0
MultiSource/Benchmarks/Trimaran/enc-rc4/enc-rc4, 0.0466, 0.0464, 0.0465,0.0465, 0.0465, 0.0466, 0.0465,0.0465,0.0
MultiSource/Benchmarks/TSVC/NodeSplitting-dbl/NodeSplitting-dbl, 1.8024, 1.8072, 1.8019,1.8024, 1.8024, 1.8016, 1.8042,1.8024,0.0
MultiSource/Benchmarks/Prolangs-C++/primes/primes, 0.0240, 0.0238, 0.0238,0.0238, 0.0239, 0.0238, 0.0238,0.0238,0.0
MultiSource/Benchmarks/Prolangs-C++/ocean/ocean, 0.1007, 0.1009, 0.1007,0.1007, 0.1007, 0.1007, 0.1008,0.1007,0.0
MultiSource/Benchmarks/FreeBench/distray/distray, 0.0862, 0.0861, 0.0860,0.0861, 0.0860, 0.0861, 0.0862,0.0861,0.0
MultiSource/Benchmarks/BitBench/uudecode/uudecode, 0.0409, 0.0408, 0.0407,0.0408, 0.0408, 0.0408, 0.0409,0.0408,0.0
MultiSource/Applications/minisat/minisat, 0.5674, 0.5696, 0.5710,0.5696, 0.5707, 0.5696, 0.5634,0.5696,0.0
MultiSource/Applications/aha/aha, 0.0914, 0.0911, 0.0909,0.0911, 0.0910, 0.0914, 0.0911,0.0911,0.0
MultiSource/Benchmarks/TSVC/LoopRestructuring-dbl/LoopRestructuring-dbl, 1.8296, 1.8319, 1.8288,1.8296, 1.8295, 1.8292, 1.8307,1.8295,-0.0054656755575033245
MultiSource/Benchmarks/TSVC/NodeSplitting-flt/NodeSplitting-flt, 1.5033, 1.5084, 1.5018,1.5033, 1.5016, 1.5025, 1.5031,1.5025,-0.05321625756669057
SingleSource/Benchmarks/Shootout-C++/lists1, 0.1789, 0.1791, 0.1791,0.1791, 0.1790, 0.1792, 0.1790,0.179,-0.05583472920157595
MultiSource/Benchmarks/TSVC/StatementReordering-dbl/StatementReordering-dbl, 1.7774, 1.7785, 1.7765,1.7774, 1.7764, 1.7757, 1.7780,1.7764,-0.0562619556655819
SingleSource/Benchmarks/Shootout-C++/moments, 0.3463, 0.3465, 0.3517,0.3465, 0.3463, 0.3468, 0.3461,0.3463,-0.057720057720056506
SingleSource/Benchmarks/Shootout-C++/matrix, 0.1698, 0.1698, 0.1698,0.1698, 0.1696, 0.1697, 0.1706,0.1697,-0.05889281507657218
MultiSource/Benchmarks/Fhourstones/fhourstones, 0.1512, 0.1507, 0.1505,0.1507, 0.1505, 0.1506, 0.1507,0.1506,-0.06635700066356387
MultiSource/Benchmarks/TSVC/ControlFlow-flt/ControlFlow-flt, 1.6428, 1.6492, 1.6423,1.6428, 1.6389, 1.6415, 1.6427,1.6415,-0.07913318724129814
SingleSource/Benchmarks/Shootout-C++/methcall, 0.1157, 0.1156, 0.1157,0.1157, 0.1156, 0.1155, 0.1156,0.1156,-0.08643042350907626
MultiSource/Benchmarks/MiBench/security-rijndael/security-rijndael, 0.3643, 0.3642, 0.3638,0.3642, 0.3638, 0.3637, 0.3644,0.3638,-0.10982976386600951
MultiSource/Applications/sqlite3/sqlite3,13.3446,13.3448,13.3269,13.3446,13.3158,13.3290,13.3300,13.329,-0.11690121847038881
MultiSource/Benchmarks/TSVC/Searching-flt/Searching-flt, 1.4664, 1.4697, 1.4662,1.4664, 1.4625, 1.4649, 1.4644,1.4644,-0.13638843426077019
MultiSource/Benchmarks/TSVC/IndirectAddressing-dbl/IndirectAddressing-dbl, 1.8094, 1.8097, 1.8084,1.8094, 1.8067, 1.8062, 1.8081,1.8067,-0.1492207361556308
MultiSource/Benchmarks/TSVC/Reductions-dbl/Reductions-dbl, 1.8745, 1.8679, 1.8667,1.8679, 1.8644, 1.8658, 1.8651,1.8651,-0.1499009582954125
MultiSource/Benchmarks/TSVC/LoopRerolling-dbl/LoopRerolling-dbl, 1.7929, 1.7943, 1.7988,1.7943, 1.7904, 1.7913, 1.7924,1.7913,-0.16719612104999504
MultiSource/Benchmarks/Trimaran/enc-3des/enc-3des, 0.2186, 0.2186, 0.2195,0.2186, 0.2179, 0.2182, 0.2184,0.2182,-0.18298261665140592
MultiSource/Benchmarks/TSVC/Recurrences-dbl/Recurrences-dbl, 1.7795, 1.7808, 1.7604,1.7795, 1.7760, 1.7753, 1.7778,1.776,-0.19668446192750988
MultiSource/Benchmarks/TSVC/Reductions-flt/Reductions-flt, 1.5639, 1.5682, 1.5624,1.5639, 1.5601, 1.5607, 1.5635,1.5607,-0.20461666346953677
MultiSource/Benchmarks/TSVC/Packing-dbl/Packing-dbl, 1.7810, 1.7815, 1.7575,1.781, 1.7778, 1.7763, 1.7773,1.7773,-0.20774845592362867
MultiSource/Benchmarks/TSVC/Expansion-flt/Expansion-flt, 1.5538, 1.5554, 1.5577,1.5554, 1.5505, 1.5521, 1.5540,1.5521,-0.21216407355020284
MultiSource/Benchmarks/TSVC/Equivalencing-dbl/Equivalencing-dbl, 1.8242, 1.8296, 1.8261,1.8261, 1.8206, 1.8218, 1.8234,1.8218,-0.23547450851540974
MultiSource/Benchmarks/TSVC/Searching-dbl/Searching-dbl, 1.7665, 1.7691, 1.7659,1.7665, 1.7623, 1.7620, 1.7679,1.7623,-0.23775827908293357
SingleSource/Benchmarks/Stanford/Queens, 0.0418, 0.0416, 0.0417,0.0417, 0.0416, 0.0416, 0.0417,0.0416,-0.23980815347722784
MultiSource/Benchmarks/BitBench/drop3/drop3, 0.0404, 0.0402, 0.0402,0.0402, 0.0401, 0.0401, 0.0400,0.0401,-0.24875621890547706
MultiSource/Applications/obsequi/Obsequi, 0.9014, 0.9097, 0.9098,0.9097, 0.9074, 0.9057, 0.9095,0.9074,-0.25283060349565734
MultiSource/Benchmarks/FreeBench/fourinarow/fourinarow, 0.3083, 0.3078, 0.3078,0.3078, 0.3069, 0.3072, 0.3070,0.307,-0.2599090318388675
MultiSource/Applications/siod/siod, 1.8344, 1.8269, 1.8418,1.8344, 1.8310, 1.8239, 1.8294,1.8294,-0.2725686873092048
MultiSource/Benchmarks/TSVC/LoopRerolling-flt/LoopRerolling-flt, 1.4901, 1.4919, 1.4889,1.4901, 1.4840, 1.4860, 1.4857,1.4857,-0.29528219582578563
MultiSource/Benchmarks/TSVC/GlobalDataFlow-flt/GlobalDataFlow-flt, 1.5524, 1.5537, 1.5547,1.5537, 1.5456, 1.5515, 1.5490,1.549,-0.3025037008431597
MultiSource/Applications/SIBsim4/SIBsim4, 1.0651, 1.0594, 1.0710,1.0651, 1.0604, 1.0616, 1.0644,1.0616,-0.3286076424748652
SingleSource/Benchmarks/Misc-C++/bigfib, 0.4264, 0.4339, 0.4304,0.4304, 0.4289, 0.4319, 0.4262,0.4289,-0.3485130111524182
MultiSource/Benchmarks/TSVC/GlobalDataFlow-dbl/GlobalDataFlow-dbl, 1.8520, 1.8531, 1.8507,1.852, 1.8447, 1.8448, 1.8486,1.8448,-0.38876889848812324
MultiSource/Benchmarks/TSVC/Packing-flt/Packing-flt, 1.4788, 1.4801, 1.4821,1.4801, 1.4735, 1.4743, 1.4786,1.4743,-0.39186541449902634
MultiSource/Benchmarks/TSVC/ControlLoops-dbl/ControlLoops-dbl, 1.8710, 1.8681, 1.8647,1.8681, 1.8586, 1.8594, 1.8617,1.8594,-0.46571382688294083
MultiSource/Benchmarks/Olden/tsp/tsp, 0.1210, 0.1202, 0.1199,0.1202, 0.1195, 0.1198, 0.1196,0.1196,-0.4991680532445919
MultiSource/Benchmarks/TSVC/ControlLoops-flt/ControlLoops-flt, 1.5641, 1.5688, 1.5615,1.5641, 1.5532, 1.5560, 1.5601,1.556,-0.5178697014257438
SingleSource/Benchmarks/Shootout-C++/EH/except, 0.1424, 0.1374, 0.1348,0.1374, 0.1371, 0.1363, 0.1366,0.1366,-0.5822416302765587
SingleSource/Benchmarks/Misc/oourafft, 0.2067, 0.2001, 0.2049,0.2049, 0.2031, 0.2063, 0.2037,0.2037,-0.5856515373352855
SingleSource/Benchmarks/Misc-C++/stepanov_container, 0.6745, 0.6656, 0.6727,0.6727, 0.6709, 0.6648, 0.6659,0.6659,-1.0108517912888249
MultiSource/Benchmarks/PAQ8p/paq8p, 1.7292, 1.7310, 1.7274,1.7292, 1.7034, 1.7055, 1.7073,1.7055,-1.3705759888966051
SingleSource/Benchmarks/Misc-C++/Large/ray, 0.2148, 0.2063, 0.2166,0.2148, 0.2203, 0.2062, 0.2116,0.2116,-1.4897579143389073
SingleSource/Benchmarks/Adobe-C++/stepanov_abstraction, 0.5582, 0.5585, 0.5578,0.5582, 0.5388, 0.5391, 0.5417,0.5391,-3.421712647796493
SingleSource/Benchmarks/Adobe-C++/stepanov_vector, 0.6861, 0.6789, 0.6803,0.6803, 0.5814, 0.5835, 0.5833,0.5833,-14.258415404968394
Total elapsed time,-,-,-,336.34570000000025,-,-,-,336.75219999999956,0.12085779601145319
Total failure,-,-,-,0,-,-,-,0,
Geom. avg slowdown,,,,,,,,,0.220266015464%
