Benchmarks,base-4.0,base-4.0,base-4.0,base-4.0,base-4.0,median,intptr-4.0,intptr-4.0,intptr-4.0,intptr-4.0,intptr-4.0,median,Slowdown(%)
SingleSource/Benchmarks/Misc-C++-EH/spirit, 2.6088, 2.6095, 2.6098, 2.6110, 2.6090,2.6095, 2.6638, 2.6630, 2.6655, 2.6632, 2.6625,2.6632,2.057865491473443
MultiSource/Benchmarks/TSVC/CrossingThresholds-dbl/CrossingThresholds-dbl, 2.1490, 2.1501, 2.1488, 2.1484, 2.1497,2.149, 2.1727, 2.1495, 2.1724, 2.1492, 2.1722,2.1722,1.079571893904152
MultiSource/Applications/d/make_dparser, 0.0159, 0.0159, 0.0160, 0.0160, 0.0159,0.0159, 0.0160, 0.0159, 0.0160, 0.0160, 0.0160,0.016,0.6289308176100628
MultiSource/Benchmarks/TSVC/IndirectAddressing-dbl/IndirectAddressing-dbl, 2.4759, 2.4732, 2.4754, 2.4761, 2.4745,2.4754, 2.4766, 2.4858, 2.4884, 2.4857, 2.4880,2.4858,0.4201341197382247
MultiSource/Benchmarks/ASCI_Purple/SMG2000/smg2000, 1.1757, 1.1743, 1.1718, 1.1727, 1.1733,1.1733, 1.1862, 1.1735, 1.1837, 1.1752, 1.1720,1.1752,0.16193641864825636
SingleSource/Benchmarks/CoyoteBench/lpbench, 1.8165, 1.8216, 1.8201, 1.8241, 1.8226,1.8216, 1.8200, 1.8243, 1.8266, 1.8269, 1.8203,1.8243,0.14822134387351138
MultiSource/Benchmarks/TSVC/LoopRerolling-flt/LoopRerolling-flt, 3.8197, 3.8239, 3.8194, 3.8212, 3.8174,3.8197, 3.8252, 3.8239, 3.8163, 3.8251, 3.8168,3.8239,0.10995627928895857
MultiSource/Benchmarks/TSVC/IndirectAddressing-flt/IndirectAddressing-flt, 2.3039, 2.3039, 2.3028, 2.3020, 2.3033,2.3033, 2.2992, 2.3055, 2.3067, 2.3060, 2.3026,2.3055,0.09551513046497373
MultiSource/Benchmarks/MiBench/consumer-lame/consumer-lame, 0.1184, 0.1185, 0.1183, 0.1181, 0.1181,0.1183, 0.1187, 0.1184, 0.1183, 0.1182, 0.1184,0.1184,0.08453085376163294
MultiSource/Benchmarks/TSVC/StatementReordering-flt/StatementReordering-flt, 1.8247, 1.8278, 1.8237, 1.8262, 1.8251,1.8251, 1.8232, 1.8209, 1.8267, 1.8295, 1.8264,1.8264,0.07122897375486659
MultiSource/Benchmarks/TSVC/ControlFlow-dbl/ControlFlow-dbl, 3.6770, 3.6971, 3.6759, 3.6774, 3.6738,3.677, 3.6930, 3.6771, 3.6794, 3.6750, 3.7074,3.6794,0.06527060103345139
MultiSource/Benchmarks/SciMark2-C/scimark2,43.0592,42.9915,42.9225,43.0811,43.0152,43.0152,42.8911,43.0537,42.9044,43.0935,43.0380,43.038,0.053004519332700006
MultiSource/Benchmarks/TSVC/Equivalencing-dbl/Equivalencing-dbl, 1.3863, 1.3853, 1.3794, 1.3782, 1.3804,1.3804, 1.3853, 1.3848, 1.3811, 1.3806, 1.3774,1.3811,0.050709939148063654
MultiSource/Benchmarks/TSVC/Expansion-dbl/Expansion-dbl, 1.9619, 1.9855, 1.9617, 1.9586, 1.9834,1.9619, 1.9628, 1.9858, 1.9876, 1.9611, 1.9591,1.9628,0.045873897752191084
MultiSource/Benchmarks/TSVC/Symbolics-dbl/Symbolics-dbl, 2.4432, 2.4412, 2.4572, 2.4416, 2.4415,2.4416, 2.4416, 2.4420, 2.4567, 2.4426, 2.4427,2.4426,0.040956749672349524
MultiSource/Benchmarks/TSVC/Searching-flt/Searching-flt, 2.4411, 2.4420, 2.4410, 2.4438, 2.4439,2.442, 2.4422, 2.4434, 2.4418, 2.4444, 2.4427,2.4427,0.028665028665009196
MultiSource/Benchmarks/TSVC/GlobalDataFlow-dbl/GlobalDataFlow-dbl, 2.8530, 2.8393, 2.8385, 2.8396, 2.8377,2.8393, 2.8397, 2.8546, 2.8377, 2.8387, 2.8528,2.8397,0.01408797943154294
MultiSource/Applications/siod/siod, 1.1046, 1.1046, 1.1047, 1.1049, 1.1049,1.1047, 1.1006, 1.1053, 1.1031, 1.1050, 1.1048,1.1048,0.009052231375039632
MultiSource/Benchmarks/TSVC/LoopRerolling-dbl/LoopRerolling-dbl, 4.5881, 4.5930, 4.5901, 4.5874, 4.5877,4.5881, 4.6043, 4.6074, 4.5875, 4.5859, 4.5884,4.5884,0.006538654344945272
MultiSource/Benchmarks/TSVC/Searching-dbl/Searching-dbl, 2.2841, 2.2844, 2.2835, 2.2841, 2.2843,2.2841, 2.2840, 2.2844, 2.2842, 2.2840, 2.2844,2.2842,0.00437809202749051
MultiSource/Benchmarks/TSVC/NodeSplitting-dbl/NodeSplitting-dbl, 5.0327, 5.0201, 5.0196, 5.0307, 5.0210,5.021, 5.0203, 5.0234, 5.0201, 5.0230, 5.0212,5.0212,0.003983270264895644
MultiSource/Benchmarks/TSVC/Reductions-dbl/Reductions-dbl, 3.4750, 3.4748, 3.4748, 3.4748, 3.4749,3.4748, 3.4749, 3.4750, 3.4749, 3.4749, 3.4748,3.4749,0.0028778634741488673
SingleSource/Benchmarks/CoyoteBench/huffbench, 9.3786, 9.3793, 9.3800, 9.3805, 9.3786,9.3793, 9.3781, 9.3801, 9.3793, 9.3789, 9.3800,9.3793,0.0
MultiSource/Benchmarks/mediabench/gsm/toast/toast, 0.0156, 0.0154, 0.0153, 0.0153, 0.0154,0.0154, 0.0153, 0.0153, 0.0154, 0.0154, 0.0154,0.0154,0.0
MultiSource/Benchmarks/TSVC/Recurrences-flt/Recurrences-flt, 3.5010, 3.5010, 3.5008, 3.5008, 3.5009,3.5009, 3.5009, 3.5010, 3.5010, 3.5008, 3.5009,3.5009,0.0
MultiSource/Benchmarks/TSVC/Recurrences-dbl/Recurrences-dbl, 3.5013, 3.5011, 3.5011, 3.5012, 3.5014,3.5012, 3.5012, 3.5012, 3.5012, 3.5010, 3.5012,3.5012,0.0
MultiSource/Benchmarks/TSVC/CrossingThresholds-flt/CrossingThresholds-flt, 1.6235, 1.6109, 1.6211, 1.6243, 1.6188,1.6211, 1.6279, 1.6159, 1.6259, 1.6143, 1.6211,1.6211,0.0
MultiSource/Benchmarks/MiBench/telecomm-gsm/telecomm-gsm, 0.1179, 0.1180, 0.1178, 0.1179, 0.1178,0.1179, 0.1179, 0.1179, 0.1179, 0.1178, 0.1179,0.1179,0.0
MultiSource/Benchmarks/MallocBench/gs/gs, 0.0234, 0.0231, 0.0233, 0.0234, 0.0234,0.0234, 0.0234, 0.0232, 0.0235, 0.0234, 0.0232,0.0234,0.0
MultiSource/Benchmarks/TSVC/Reductions-flt/Reductions-flt, 5.9695, 5.9693, 5.9694, 5.9695, 5.9695,5.9695, 5.9695, 5.9694, 5.9694, 5.9693, 5.9693,5.9694,-0.0016751821760530028
SingleSource/Benchmarks/CoyoteBench/almabench,12.6063,12.5852,12.5854,12.5982,12.5884,12.5884,12.5875,12.5873,12.5883,12.5868,12.5878,12.5875,-0.007149439166209692
MultiSource/Applications/spiff/spiff, 1.2763, 1.2774, 1.2774, 1.2775, 1.2791,1.2774, 1.2742, 1.2780, 1.2819, 1.2744, 1.2773,1.2773,-0.00782840144042396
MultiSource/Benchmarks/TSVC/Packing-dbl/Packing-dbl, 2.3278, 2.2802, 2.3265, 2.2796, 2.3283,2.3265, 2.2805, 2.3263, 2.3264, 2.2794, 2.3265,2.3263,-0.008596604341282177
MultiSource/Benchmarks/TSVC/LinearDependence-dbl/LinearDependence-dbl, 5.1549, 5.1475, 5.1468, 5.1457, 5.1572,5.1475, 5.1470, 5.1456, 5.1471, 5.1466, 5.1474,5.147,-0.009713453132587091
MultiSource/Benchmarks/TSVC/LinearDependence-flt/LinearDependence-flt, 4.6191, 4.6177, 4.6182, 4.6192, 4.6189,4.6189, 4.6196, 4.6183, 4.6190, 4.6179, 4.6183,4.6183,-0.012990105869370439
MultiSource/Benchmarks/TSVC/ControlFlow-flt/ControlFlow-flt, 3.5070, 3.5102, 3.5087, 3.5054, 3.5170,3.5087, 3.5189, 3.4832, 3.5036, 3.5104, 3.5079,3.5079,-0.02280046740958941
MultiSource/Benchmarks/MallocBench/espresso/espresso, 0.3064, 0.3063, 0.3069, 0.3065, 0.3064,0.3064, 0.3063, 0.3064, 0.3068, 0.3063, 0.3063,0.3063,-0.032637075718011666
MultiSource/Benchmarks/TSVC/NodeSplitting-flt/NodeSplitting-flt, 4.6487, 4.6528, 4.6463, 4.6510, 4.6502,4.6502, 4.6477, 4.6486, 4.6509, 4.6474, 4.6510,4.6486,-0.03440712227430476
MultiSource/Applications/JM/lencod/lencod, 3.2635, 3.2648, 3.2610, 3.2637, 3.2606,3.2635, 3.2628, 3.2616, 3.2620, 3.2622, 3.2631,3.2622,-0.03983453347633503
MultiSource/Benchmarks/TSVC/GlobalDataFlow-flt/GlobalDataFlow-flt, 1.4996, 1.4992, 1.4996, 1.4908, 1.4987,1.4992, 1.4984, 1.5009, 1.4990, 1.4958, 1.4915,1.4984,-0.05336179295625243
MultiSource/Benchmarks/TSVC/StatementReordering-dbl/StatementReordering-dbl, 2.2368, 2.2359, 2.2325, 2.2366, 2.2375,2.2366, 2.2349, 2.2384, 2.2328, 2.2328, 2.2372,2.2349,-0.07600822677278352
MultiSource/Benchmarks/TSVC/InductionVariable-dbl/InductionVariable-dbl, 3.0345, 3.0374, 3.0497, 3.0490, 3.0354,3.0374, 3.0339, 3.0337, 3.0346, 3.0526, 3.0349,3.0346,-0.09218410482648709
MultiSource/Benchmarks/Olden/voronoi/voronoi, 0.2063, 0.2061, 0.2056, 0.2055, 0.2053,0.2056, 0.2057, 0.2054, 0.2056, 0.2049, 0.2052,0.2054,-0.09727626459143934
MultiSource/Benchmarks/TSVC/Expansion-flt/Expansion-flt, 1.1609, 1.1661, 1.1579, 1.1640, 1.1602,1.1609, 1.1594, 1.1660, 1.1596, 1.1552, 1.1539,1.1594,-0.12921009561547292
MultiSource/Benchmarks/TSVC/LoopRestructuring-dbl/LoopRestructuring-dbl, 3.5859, 3.5861, 3.6424, 3.5720, 3.5810,3.5859, 3.5754, 3.5812, 3.6495, 3.6472, 3.5795,3.5812,-0.13106890878161748
MultiSource/Benchmarks/TSVC/Equivalencing-flt/Equivalencing-flt, 0.9694, 0.9687, 0.9696, 0.9667, 0.9682,0.9687, 0.9672, 0.9681, 0.9667, 0.9687, 0.9673,0.9673,-0.14452358831422707
MultiSource/Benchmarks/DOE-ProxyApps-C/XSBench/XSBench, 2.4466, 2.4507, 2.4414, 2.4452, 2.4503,2.4466, 2.4422, 2.4412, 2.4439, 2.4416, 2.4501,2.4422,-0.1798414125725456
SingleSource/Benchmarks/Misc/himenobmtxpa, 0.5097, 0.5042, 0.5042, 0.5108, 0.5088,0.5088, 0.5076, 0.5063, 0.5050, 0.5104, 0.5112,0.5076,-0.2358490566037652
MultiSource/Applications/lua/lua,11.5433,11.5649,11.5526,11.5485,11.5428,11.5485,11.5157,11.5566,11.5140,11.5392,11.5178,11.5178,-0.265835389877489
MultiSource/Benchmarks/TSVC/InductionVariable-flt/InductionVariable-flt, 2.5814, 2.5847, 2.5832, 2.5809, 2.5886,2.5832, 2.5744, 2.5648, 2.5702, 2.5744, 2.5768,2.5744,-0.34066274388356854
MultiSource/Benchmarks/TSVC/Symbolics-flt/Symbolics-flt, 1.3988, 1.4000, 1.4004, 1.4002, 1.4037,1.4002, 1.4025, 1.3924, 1.3949, 1.3925, 1.4030,1.3949,-0.37851735466361003
MultiSource/Benchmarks/TSVC/Packing-flt/Packing-flt, 2.1006, 2.1041, 2.1020, 2.1057, 2.1139,2.1041, 2.0851, 2.0924, 2.0987, 2.0806, 2.1007,2.0924,-0.5560572216149362
MultiSource/Applications/sqlite3/sqlite3, 1.8228, 1.8108, 1.8159, 1.8159, 1.8104,1.8159, 1.7944, 1.7902, 1.7977, 1.8005, 1.7857,1.7944,-1.183985902307405
MultiSource/Benchmarks/TSVC/LoopRestructuring-flt/LoopRestructuring-flt, 2.9864, 3.0018, 2.9205, 2.9447, 2.9212,2.9447, 2.9482, 2.8487, 2.9026, 2.8050, 2.9113,2.9026,-1.4296872346928335
Total elapsed time,-,-,-,-,-,572.6828000000003,-,-,-,-,-,572.6743999999995,-0.0014667805634749342
Total failure,-,-,-,-,-,0,-,-,-,-,-,0,
