Benchmarks,/mnt/freezedisk/llvm-intptr-base-release/bin/clang,/mnt/freezedisk/llvm-intptr-base-release/bin/clang,/mnt/freezedisk/llvm-intptr-base-release/bin/clang,/mnt/freezedisk/llvm-intptr-base-release/bin/clang,/mnt/freezedisk/llvm-intptr-base-release/bin/clang,median,/mnt/freezedisk/llvm-intptr-intptr-opt-release/bin/clang,/mnt/freezedisk/llvm-intptr-intptr-opt-release/bin/clang,/mnt/freezedisk/llvm-intptr-intptr-opt-release/bin/clang,/mnt/freezedisk/llvm-intptr-intptr-opt-release/bin/clang,/mnt/freezedisk/llvm-intptr-intptr-opt-release/bin/clang,median
MultiSource/Applications/ALAC/decode/alacconvert-decode, 1.0290, 1.0367, 1.0335, 1.0246, 1.0337,1.0335, 1.0351, 1.0264, 1.0244, 1.0293, 1.0319,1.0293
MultiSource/Applications/ALAC/encode/alacconvert-encode, 1.0225, 1.0199, 1.0289, 1.0249, 1.0222,1.0225, 1.0308, 1.0187, 1.0235, 1.0261, 1.0282,1.0261
MultiSource/Applications/ClamAV/clamscan,12.9675,12.9710,12.9639,13.0105,12.9943,12.971,13.0387,12.9137,13.0096,12.9701,12.9820,12.982
MultiSource/Applications/JM/ldecod/ldecod, 6.5155, 6.5501, 6.5232, 6.5152, 6.5537,6.5232, 6.5568, 6.5417, 6.5476, 6.5408, 6.5823,6.5476
MultiSource/Applications/JM/lencod/lencod,15.0088,15.0041,15.0141,15.0277,15.0259,15.0141,15.0458,15.0199,15.0190,15.0237,15.0133,15.0199
MultiSource/Applications/SIBsim4/SIBsim4, 1.2556, 1.2552, 1.2541, 1.2521, 1.2533,1.2541, 1.2525, 1.2512, 1.2523, 1.2522, 1.2755,1.2523
MultiSource/Applications/SPASS/SPASS,11.8674,11.8705,11.8721,11.8864,11.8910,11.8721,11.8860,11.8768,11.8952,11.8838,11.8755,11.8838
MultiSource/Applications/aha/aha, 0.0950, 0.0951, 0.0951, 0.0954, 0.0954,0.0951, 0.0957, 0.0950, 0.0952, 0.0949, 0.0950,0.095
MultiSource/Applications/d/make_dparser, 2.5215, 2.5131, 2.5119, 2.5184, 2.5126,2.5131, 2.5181, 2.5151, 2.5182, 2.5161, 2.5161,2.5161
MultiSource/Applications/hbd/hbd, 1.1482, 1.1498, 1.1486, 1.1497, 1.1511,1.1497, 1.1578, 1.1506, 1.1517, 1.1521, 1.1513,1.1517
MultiSource/Applications/hexxagon/hexxagon, 0.6972, 0.6976, 0.6967, 0.7000, 0.6977,0.6976, 0.6988, 0.6982, 0.6972, 0.6983, 0.6983,0.6983
MultiSource/Applications/kimwitu++/kc,10.3439,10.3430,10.3420,10.3359,10.3406,10.342,10.3566,10.3075,10.3323,10.3208,10.3028,10.3208
MultiSource/Applications/lambda-0.1.3/lambda, 0.5102, 0.5108, 0.5108, 0.5115, 0.5107,0.5108, 0.5124, 0.5107, 0.5112, 0.5109, 0.5111,0.5111
MultiSource/Applications/lua/lua, 3.0714, 3.0741, 3.0664, 3.0743, 3.0710,3.0714, 3.0871, 3.0760, 3.0752, 3.0792, 3.0726,3.076
MultiSource/Applications/minisat/minisat, 0.6028, 0.6120, 0.6091, 0.6027, 0.6023,0.6028, 0.6108, 0.6003, 0.6021, 0.6087, 0.6073,0.6073
MultiSource/Applications/obsequi/Obsequi, 1.0172, 1.0103, 0.9952, 1.0024, 1.0062,1.0062, 1.0175, 1.0136, 0.9956, 0.9990, 1.0041,1.0041
MultiSource/Applications/oggenc/oggenc, 4.8667, 4.8504, 4.8588, 4.8487, 4.8654,4.8588, 4.8326, 4.8684, 4.8452, 4.8438, 4.8465,4.8452
MultiSource/Applications/sgefa/sgefa, 0.3988, 0.3983, 0.4061, 0.3974, 0.4068,0.3988, 0.4009, 0.4037, 0.4049, 0.4053, 0.4015,0.4037
MultiSource/Applications/siod/siod, 1.8473, 1.8414, 1.8565, 1.8438, 1.8765,1.8473, 1.8516, 1.8484, 1.8966, 1.8424, 1.8542,1.8516
MultiSource/Applications/spiff/spiff, 0.7045, 0.7054, 0.7050, 0.7062, 0.7056,0.7054, 0.7112, 0.7090, 0.7075, 0.7078, 0.7082,0.7082
MultiSource/Applications/sqlite3/sqlite3,12.5753,12.5602,12.5829,12.6308,12.5924,12.5829,12.5703,12.6218,12.5706,12.6301,12.5696,12.5706
MultiSource/Applications/viterbi/viterbi, 0.1565, 0.1568, 0.1564, 0.1568, 0.1570,0.1568, 0.1579, 0.1570, 0.1574, 0.1571, 0.1576,0.1574
MultiSource/Benchmarks/7zip/7zip-benchmark,33.5310,33.5615,33.5498,33.5660,33.5593,33.5593,33.5932,33.4950,33.5079,33.4956,33.4991,33.4991
MultiSource/Benchmarks/ASCI_Purple/SMG2000/smg2000, 6.0540, 6.0493, 6.0468, 6.0509, 6.0515,6.0509, 6.0653, 6.0548, 6.0526, 6.0493, 6.0553,6.0548
MultiSource/Benchmarks/ASC_Sequoia/AMGmk/AMGmk, 0.5791, 0.5801, 0.5794, 0.5808, 0.5799,0.5799, 0.5815, 0.5795, 0.5802, 0.5801, 0.5796,0.5801
MultiSource/Benchmarks/ASC_Sequoia/CrystalMk/CrystalMk, 0.2308, 0.2307, 0.2307, 0.2316, 0.2309,0.2308, 0.2333, 0.2319, 0.2316, 0.2313, 0.2317,0.2317
MultiSource/Benchmarks/ASC_Sequoia/IRSmk/IRSmk, 0.0963, 0.0966, 0.0959, 0.0964, 0.0966,0.0964, 0.0972, 0.0968, 0.0968, 0.0968, 0.0968,0.0968
MultiSource/Benchmarks/BitBench/drop3/drop3, 0.0410, 0.0411, 0.0410, 0.0410, 0.0410,0.041, 0.0414, 0.0412, 0.0413, 0.0413, 0.0413,0.0413
MultiSource/Benchmarks/BitBench/five11/five11, 0.0532, 0.0534, 0.0534, 0.0534, 0.0534,0.0534, 0.0536, 0.0533, 0.0533, 0.0531, 0.0536,0.0533
MultiSource/Benchmarks/BitBench/uudecode/uudecode, 0.0427, 0.0426, 0.0429, 0.0427, 0.0429,0.0427, 0.0432, 0.0429, 0.0428, 0.0428, 0.0430,0.0429
MultiSource/Benchmarks/BitBench/uuencode/uuencode, 0.0420, 0.0418, 0.0417, 0.0418, 0.0418,0.0418, 0.0420, 0.0417, 0.0417, 0.0418, 0.0417,0.0417
MultiSource/Benchmarks/Bullet/bullet,22.4717,22.4709,22.4607,22.4823,22.4766,22.4717,22.5071,22.4334,22.4385,22.4375,22.4475,22.4385
MultiSource/Benchmarks/DOE-ProxyApps-C/XSBench/XSBench, 0.3385, 0.3399, 0.3396, 0.3394, 0.3390,0.3394, 0.3412, 0.3409, 0.3399, 0.3403, 0.3398,0.3403
MultiSource/Benchmarks/Fhourstones-3.1/fhourstones3.1, 0.1296, 0.1289, 0.1290, 0.1290, 0.1296,0.129, 0.1294, 0.1293, 0.1290, 0.1291, 0.1291,0.1291
MultiSource/Benchmarks/Fhourstones/fhourstones, 0.1594, 0.1592, 0.1592, 0.1592, 0.1591,0.1592, 0.1607, 0.1595, 0.1597, 0.1595, 0.1597,0.1597
MultiSource/Benchmarks/FreeBench/analyzer/analyzer, 0.2396, 0.2389, 0.2393, 0.2401, 0.2387,0.2393, 0.2415, 0.2401, 0.2400, 0.2398, 0.2402,0.2401
MultiSource/Benchmarks/FreeBench/distray/distray, 0.0934, 0.0931, 0.0932, 0.0932, 0.0931,0.0932, 0.0931, 0.0928, 0.0930, 0.0927, 0.0932,0.093
MultiSource/Benchmarks/FreeBench/fourinarow/fourinarow, 0.3753, 0.3740, 0.3741, 0.3748, 0.3738,0.3741, 0.3746, 0.3746, 0.3756, 0.3754, 0.3757,0.3754
MultiSource/Benchmarks/FreeBench/mason/mason, 0.0465, 0.0466, 0.0465, 0.0467, 0.0466,0.0466, 0.0466, 0.0466, 0.0465, 0.0467, 0.0466,0.0466
MultiSource/Benchmarks/FreeBench/neural/neural, 0.1791, 0.1794, 0.1790, 0.1794, 0.1795,0.1794, 0.1786, 0.1788, 0.1790, 0.1783, 0.1782,0.1786
MultiSource/Benchmarks/FreeBench/pcompress2/pcompress2, 0.2475, 0.2635, 0.2578, 0.2686, 0.2583,0.2583, 0.2417, 0.2592, 0.2555, 0.2629, 0.2583,0.2583
MultiSource/Benchmarks/FreeBench/pifft/pifft, 1.0877, 1.0822, 1.0907, 1.0857, 1.0875,1.0875, 1.0828, 1.0830, 1.0819, 1.0803, 1.0822,1.0822
MultiSource/Benchmarks/MallocBench/cfrac/cfrac, 0.8072, 0.8086, 0.8068, 0.8088, 0.8074,0.8074, 0.8182, 0.8108, 0.8123, 0.8114, 0.8122,0.8122
MultiSource/Benchmarks/MallocBench/espresso/espresso, 4.8297, 4.8453, 4.8462, 4.8537, 4.8507,4.8462, 4.8427, 4.8528, 4.8535, 4.8542, 4.8558,4.8535
MultiSource/Benchmarks/MallocBench/gs/gs, 3.5397, 3.5405, 3.5408, 3.5423, 3.5421,3.5408, 3.5800, 3.5416, 3.5426, 3.5431, 3.5443,3.5431
MultiSource/Benchmarks/McCat/01-qbsort/qbsort, 0.0900, 0.0901, 0.0899, 0.0904, 0.0904,0.0901, 0.0912, 0.0906, 0.0909, 0.0905, 0.0909,0.0909
MultiSource/Benchmarks/McCat/03-testtrie/testtrie, 0.0845, 0.0848, 0.0849, 0.0843, 0.0846,0.0846, 0.0859, 0.0852, 0.0854, 0.0851, 0.0854,0.0854
MultiSource/Benchmarks/McCat/04-bisect/bisect, 0.1247, 0.1249, 0.1246, 0.1245, 0.1246,0.1246, 0.1257, 0.1253, 0.1255, 0.1249, 0.1255,0.1255
MultiSource/Benchmarks/McCat/05-eks/eks, 0.5900, 0.5897, 0.5903, 0.5899, 0.5898,0.5899, 0.5925, 0.5908, 0.5903, 0.5902, 0.5898,0.5903
MultiSource/Benchmarks/McCat/08-main/main, 0.2323, 0.2207, 0.2207, 0.2216, 0.2203,0.2207, 0.2215, 0.2217, 0.2213, 0.2220, 0.2214,0.2215
MultiSource/Benchmarks/McCat/09-vor/vor, 0.2557, 0.2560, 0.2550, 0.2562, 0.2558,0.2558, 0.2582, 0.2568, 0.2574, 0.2576, 0.2576,0.2576
MultiSource/Benchmarks/McCat/12-IOtest/iotest, 0.0853, 0.0850, 0.0853, 0.0857, 0.0856,0.0853, 0.0867, 0.0858, 0.0858, 0.0854, 0.0857,0.0858
MultiSource/Benchmarks/McCat/17-bintr/bintr, 0.0647, 0.0649, 0.0646, 0.0652, 0.0651,0.0649, 0.0654, 0.0651, 0.0646, 0.0650, 0.0654,0.0651
MultiSource/Benchmarks/McCat/18-imp/imp, 0.3304, 0.3315, 0.3319, 0.3323, 0.3322,0.3319, 0.3330, 0.3321, 0.3323, 0.3313, 0.3317,0.3321
MultiSource/Benchmarks/MiBench/automotive-basicmath/automotive-basicmath, 0.1357, 0.1358, 0.1353, 0.1358, 0.1360,0.1358, 0.1367, 0.1358, 0.1362, 0.1361, 0.1364,0.1362
MultiSource/Benchmarks/MiBench/automotive-bitcount/automotive-bitcount, 0.2410, 0.2414, 0.2408, 0.2418, 0.2415,0.2414, 0.2441, 0.2422, 0.2426, 0.2418, 0.2427,0.2426
MultiSource/Benchmarks/MiBench/automotive-susan/automotive-susan, 0.8630, 0.8702, 0.8695, 0.8704, 0.8665,0.8695, 0.8679, 0.8681, 0.8564, 0.8643, 0.8649,0.8649
MultiSource/Benchmarks/MiBench/consumer-jpeg/consumer-jpeg, 4.2520, 4.2872, 4.2885, 4.2852, 4.2922,4.2872, 4.2703, 4.2865, 4.2826, 4.2950, 4.2862,4.2862
MultiSource/Benchmarks/MiBench/consumer-lame/consumer-lame, 4.2395, 4.2255, 4.2305, 4.2237, 4.2411,4.2305, 4.2522, 4.2293, 4.2325, 4.2341, 4.2232,4.2325
MultiSource/Benchmarks/MiBench/consumer-typeset/consumer-typeset, 9.6703, 9.6751, 9.6750, 9.6748, 9.6810,9.675, 9.6800, 9.6679, 9.6720, 9.6770, 9.6681,9.672
MultiSource/Benchmarks/MiBench/network-dijkstra/network-dijkstra, 0.0408, 0.0406, 0.0410, 0.0409, 0.0411,0.0409, 0.0410, 0.0411, 0.0412, 0.0410, 0.0411,0.0411
MultiSource/Benchmarks/MiBench/network-patricia/network-patricia, 0.0764, 0.0766, 0.0766, 0.0767, 0.0768,0.0766, 0.0770, 0.0768, 0.0769, 0.0770, 0.0768,0.0769
MultiSource/Benchmarks/MiBench/security-rijndael/security-rijndael, 0.4000, 0.4000, 0.3999, 0.3996, 0.3998,0.3999, 0.3992, 0.3982, 0.3976, 0.3977, 0.3983,0.3982
MultiSource/Benchmarks/MiBench/security-sha/security-sha, 0.1297, 0.1302, 0.1292, 0.1296, 0.1297,0.1297, 0.1312, 0.1309, 0.1311, 0.1309, 0.1310,0.131
MultiSource/Benchmarks/MiBench/telecomm-CRC32/telecomm-CRC32, 0.0328, 0.0330, 0.0328, 0.0329, 0.0329,0.0329, 0.0333, 0.0330, 0.0329, 0.0327, 0.0329,0.0329
MultiSource/Benchmarks/MiBench/telecomm-FFT/telecomm-fft, 0.1539, 0.1501, 0.1532, 0.1533, 0.1581,0.1533, 0.1494, 0.1552, 0.1540, 0.1594, 0.1572,0.1552
MultiSource/Benchmarks/MiBench/telecomm-adpcm/telecomm-adpcm, 0.0603, 0.0641, 0.0716, 0.0592, 0.0656,0.0641, 0.0666, 0.0621, 0.0672, 0.0683, 0.0691,0.0672
MultiSource/Benchmarks/MiBench/telecomm-gsm/telecomm-gsm, 1.0623, 1.0629, 1.0618, 1.0638, 1.0626,1.0626, 1.0703, 1.0654, 1.0656, 1.0658, 1.0663,1.0658
MultiSource/Benchmarks/NPB-serial/is/is, 0.0696, 0.0696, 0.0695, 0.0695, 0.0697,0.0696, 0.0698, 0.0696, 0.0696, 0.0695, 0.0695,0.0696
MultiSource/Benchmarks/Olden/bh/bh, 0.2500, 0.2505, 0.2495, 0.2498, 0.2500,0.25, 0.2507, 0.2511, 0.2509, 0.2508, 0.2505,0.2508
MultiSource/Benchmarks/Olden/bisort/bisort, 0.0592, 0.0591, 0.0590, 0.0593, 0.0592,0.0592, 0.0599, 0.0590, 0.0594, 0.0593, 0.0595,0.0594
MultiSource/Benchmarks/Olden/em3d/em3d, 0.1726, 0.1725, 0.1720, 0.1726, 0.1726,0.1726, 0.1737, 0.1731, 0.1729, 0.1730, 0.1730,0.173
MultiSource/Benchmarks/Olden/health/health, 0.1279, 0.1284, 0.1284, 0.1282, 0.1278,0.1282, 0.1286, 0.1282, 0.1289, 0.1284, 0.1287,0.1286
MultiSource/Benchmarks/Olden/mst/mst, 0.1243, 0.1242, 0.1239, 0.1242, 0.1244,0.1242, 0.1259, 0.1246, 0.1250, 0.1251, 0.1252,0.1251
MultiSource/Benchmarks/Olden/perimeter/perimeter, 0.0713, 0.0712, 0.0712, 0.0714, 0.0712,0.0712, 0.0722, 0.0715, 0.0718, 0.0716, 0.0715,0.0716
MultiSource/Benchmarks/Olden/power/power, 0.1208, 0.1206, 0.1204, 0.1204, 0.1206,0.1206, 0.1210, 0.1207, 0.1207, 0.1209, 0.1204,0.1207
MultiSource/Benchmarks/Olden/treeadd/treeadd, 0.0500, 0.0500, 0.0499, 0.0504, 0.0504,0.05, 0.0511, 0.0507, 0.0504, 0.0506, 0.0508,0.0507
MultiSource/Benchmarks/Olden/tsp/tsp, 0.1139, 0.1139, 0.1137, 0.1142, 0.1141,0.1139, 0.1151, 0.1147, 0.1143, 0.1143, 0.1146,0.1146
MultiSource/Benchmarks/Olden/voronoi/voronoi, 0.2252, 0.2250, 0.2245, 0.2244, 0.2248,0.2248, 0.2514, 0.2504, 0.2512, 0.2508, 0.2512,0.2512
MultiSource/Benchmarks/PAQ8p/paq8p, 2.0441, 2.0470, 2.0562, 2.0487, 2.0546,2.0487, 2.0480, 2.0576, 2.0498, 2.0491, 2.0668,2.0498
MultiSource/Benchmarks/Prolangs-C++/city/city, 0.8753, 0.8799, 0.8756, 0.8790, 0.8784,0.8784, 0.8953, 0.8736, 0.8748, 0.8752, 0.8749,0.8749
MultiSource/Benchmarks/Prolangs-C++/employ/employ, 0.1916, 0.1935, 0.1914, 0.1937, 0.1926,0.1926, 0.1935, 0.1921, 0.1911, 0.1916, 0.1917,0.1917
MultiSource/Benchmarks/Prolangs-C++/life/life, 0.0628, 0.0630, 0.0630, 0.0627, 0.0627,0.0628, 0.0631, 0.0632, 0.0632, 0.0629, 0.0632,0.0632
MultiSource/Benchmarks/Prolangs-C++/ocean/ocean, 0.1015, 0.1023, 0.1017, 0.1017, 0.1015,0.1017, 0.1022, 0.1020, 0.1031, 0.1030, 0.1019,0.1022
MultiSource/Benchmarks/Prolangs-C++/primes/primes, 0.0227, 0.0228, 0.0227, 0.0228, 0.0228,0.0228, 0.0231, 0.0228, 0.0229, 0.0230, 0.0230,0.023
MultiSource/Benchmarks/Prolangs-C++/simul/simul, 0.0491, 0.0493, 0.0493, 0.0490, 0.0490,0.0491, 0.0622, 0.0492, 0.0496, 0.0495, 0.0494,0.0495
MultiSource/Benchmarks/Prolangs-C/agrep/agrep, 1.3114, 1.3114, 1.3105, 1.3111, 1.3125,1.3114, 1.3139, 1.3116, 1.3145, 1.3114, 1.3136,1.3136
MultiSource/Benchmarks/Prolangs-C/bison/mybison, 1.5714, 1.5712, 1.5710, 1.5721, 1.5722,1.5714, 1.5744, 1.5719, 1.5702, 1.5699, 1.5713,1.5713
MultiSource/Benchmarks/Prolangs-C/gnugo/gnugo, 0.6952, 0.6956, 0.6957, 0.6957, 0.6956,0.6956, 0.7048, 0.6983, 0.6982, 0.6981, 0.6993,0.6983
MultiSource/Benchmarks/Ptrdist/anagram/anagram, 0.0952, 0.0955, 0.0952, 0.0950, 0.0951,0.0952, 0.0952, 0.0951, 0.0956, 0.0955, 0.0955,0.0955
MultiSource/Benchmarks/Ptrdist/bc/bc, 0.9929, 0.9932, 0.9940, 0.9935, 0.9947,0.9935, 0.9965, 0.9938, 0.9941, 0.9944, 0.9940,0.9941
MultiSource/Benchmarks/Ptrdist/ft/ft, 0.1927, 0.1928, 0.1925, 0.1930, 0.1924,0.1927, 0.1947, 0.1934, 0.1943, 0.1932, 0.1938,0.1938
MultiSource/Benchmarks/Ptrdist/ks/ks, 0.1356, 0.1354, 0.1350, 0.1356, 0.1353,0.1354, 0.1360, 0.1357, 0.1356, 0.1357, 0.1357,0.1357
MultiSource/Benchmarks/Ptrdist/yacr2/yacr2, 0.6120, 0.6100, 0.6120, 0.6122, 0.6109,0.612, 0.6120, 0.6105, 0.6120, 0.6098, 0.6104,0.6105
MultiSource/Benchmarks/SciMark2-C/scimark2, 0.3716, 0.3717, 0.3714, 0.3721, 0.3719,0.3717, 0.3757, 0.3731, 0.3729, 0.3734, 0.3738,0.3734
MultiSource/Benchmarks/TSVC/ControlFlow-dbl/ControlFlow-dbl, 2.6041, 2.6206, 2.6223, 2.6260, 2.6208,2.6208, 2.6124, 2.6079, 2.6183, 2.6079, 2.6131,2.6124
MultiSource/Benchmarks/TSVC/ControlFlow-flt/ControlFlow-flt, 2.3572, 2.3861, 2.3884, 2.3750, 2.3613,2.375, 2.3592, 2.3527, 2.3484, 2.3556, 2.3576,2.3556
MultiSource/Benchmarks/TSVC/ControlLoops-dbl/ControlLoops-dbl, 2.5065, 2.5126, 2.5076, 2.5098, 2.5089,2.5089, 2.5019, 2.5061, 2.4956, 2.4971, 2.4998,2.4998
MultiSource/Benchmarks/TSVC/ControlLoops-flt/ControlLoops-flt, 2.2457, 2.2532, 2.2533, 2.2533, 2.2553,2.2533, 2.2416, 2.2419, 2.2415, 2.2378, 2.2262,2.2415
MultiSource/Benchmarks/TSVC/CrossingThresholds-dbl/CrossingThresholds-dbl, 2.4525, 2.4510, 2.4548, 2.4504, 2.4519,2.4519, 2.4418, 2.4386, 2.4438, 2.4372, 2.4421,2.4418
MultiSource/Benchmarks/TSVC/CrossingThresholds-flt/CrossingThresholds-flt, 2.1830, 2.1830, 2.1832, 2.1818, 2.1719,2.183, 2.2149, 2.1806, 2.1774, 2.1786, 2.1983,2.1806
MultiSource/Benchmarks/TSVC/Equivalencing-dbl/Equivalencing-dbl, 2.4592, 2.4520, 2.4527, 2.4511, 2.4549,2.4527, 2.4548, 2.4417, 2.4395, 2.4390, 2.4433,2.4417
MultiSource/Benchmarks/TSVC/Equivalencing-flt/Equivalencing-flt, 2.1921, 2.1919, 2.1930, 2.1956, 2.2008,2.193, 2.1860, 2.1863, 2.1858, 2.1855, 2.1915,2.186
MultiSource/Benchmarks/TSVC/Expansion-dbl/Expansion-dbl, 2.5068, 2.5165, 2.5078, 2.5232, 2.5135,2.5135, 2.4969, 2.4978, 2.4960, 2.4927, 2.4999,2.4969
MultiSource/Benchmarks/TSVC/Expansion-flt/Expansion-flt, 2.2436, 2.2445, 2.2362, 2.2424, 2.2492,2.2436, 2.2368, 2.2366, 2.2363, 2.2410, 2.2437,2.2368
MultiSource/Benchmarks/TSVC/GlobalDataFlow-dbl/GlobalDataFlow-dbl, 2.4977, 2.5003, 2.4966, 2.5037, 2.5016,2.5003, 2.4883, 2.4848, 2.4887, 2.4922, 2.4953,2.4887
MultiSource/Benchmarks/TSVC/GlobalDataFlow-flt/GlobalDataFlow-flt, 2.2097, 2.2351, 2.2399, 2.2401, 2.2428,2.2399, 2.2189, 2.2288, 2.2388, 2.2258, 2.2310,2.2288
MultiSource/Benchmarks/TSVC/IndirectAddressing-dbl/IndirectAddressing-dbl, 2.4386, 2.4312, 2.4348, 2.4318, 2.4337,2.4337, 2.4237, 2.4207, 2.4287, 2.4259, 2.4257,2.4257
MultiSource/Benchmarks/TSVC/IndirectAddressing-flt/IndirectAddressing-flt, 2.1689, 2.1697, 2.1697, 2.1700, 2.1611,2.1697, 2.1705, 2.1583, 2.1585, 2.1649, 2.1630,2.163
MultiSource/Benchmarks/TSVC/InductionVariable-dbl/InductionVariable-dbl, 2.4738, 2.4650, 2.4815, 2.4658, 2.4768,2.4738, 2.4641, 2.4619, 2.4574, 2.4666, 2.4617,2.4619
MultiSource/Benchmarks/TSVC/InductionVariable-flt/InductionVariable-flt, 2.2160, 2.2208, 2.2114, 2.2149, 2.2128,2.2149, 2.2055, 2.2276, 2.1999, 2.2052, 2.2039,2.2052
MultiSource/Benchmarks/TSVC/LinearDependence-dbl/LinearDependence-dbl, 2.5399, 2.5399, 2.5429, 2.5412, 2.5533,2.5412, 2.5411, 2.5352, 2.5288, 2.5276, 2.5302,2.5302
MultiSource/Benchmarks/TSVC/LinearDependence-flt/LinearDependence-flt, 2.2839, 2.2775, 2.2781, 2.2830, 2.2695,2.2781, 2.2810, 2.2839, 2.2776, 2.2832, 2.2811,2.2811
MultiSource/Benchmarks/TSVC/LoopRerolling-dbl/LoopRerolling-dbl, 2.4067, 2.3996, 2.4018, 2.4100, 2.4027,2.4027, 2.4026, 2.3984, 2.3957, 2.3913, 2.3978,2.3978
MultiSource/Benchmarks/TSVC/LoopRerolling-flt/LoopRerolling-flt, 2.1470, 2.1432, 2.1427, 2.1448, 2.1182,2.1432, 2.1384, 2.1366, 2.1436, 2.1396, 2.1645,2.1396
MultiSource/Benchmarks/TSVC/LoopRestructuring-dbl/LoopRestructuring-dbl, 2.4647, 2.4717, 2.4685, 2.4667, 2.4622,2.4667, 2.4701, 2.4706, 2.4632, 2.4627, 2.4672,2.4672
MultiSource/Benchmarks/TSVC/LoopRestructuring-flt/LoopRestructuring-flt, 2.2109, 2.2122, 2.2137, 2.2201, 2.2131,2.2131, 2.2039, 2.1935, 2.2097, 2.2023, 2.2036,2.2036
MultiSource/Benchmarks/TSVC/NodeSplitting-dbl/NodeSplitting-dbl, 2.4268, 2.4276, 2.4323, 2.4244, 2.4290,2.4276, 2.4278, 2.4193, 2.4163, 2.4189, 2.4295,2.4193
MultiSource/Benchmarks/TSVC/NodeSplitting-flt/NodeSplitting-flt, 2.1966, 2.1703, 2.1722, 2.1642, 2.1704,2.1704, 2.1647, 2.1645, 2.1630, 2.1391, 2.1771,2.1645
MultiSource/Benchmarks/TSVC/Packing-dbl/Packing-dbl, 2.3816, 2.3840, 2.3839, 2.3833, 2.3903,2.3839, 2.3785, 2.3773, 2.3749, 2.3772, 2.3857,2.3773
MultiSource/Benchmarks/TSVC/Packing-flt/Packing-flt, 2.1295, 2.1309, 2.1331, 2.1262, 2.1302,2.1302, 2.1252, 2.1288, 2.1281, 2.1249, 2.1232,2.1252
MultiSource/Benchmarks/TSVC/Recurrences-dbl/Recurrences-dbl, 2.3859, 2.3852, 2.3894, 2.3870, 2.3890,2.387, 2.3858, 2.3762, 2.3825, 2.3774, 2.3768,2.3774
MultiSource/Benchmarks/TSVC/Recurrences-flt/Recurrences-flt, 2.1285, 2.1375, 2.1298, 2.1284, 2.1314,2.1298, 2.1256, 2.1149, 2.1237, 2.1228, 2.1253,2.1237
MultiSource/Benchmarks/TSVC/Reductions-dbl/Reductions-dbl, 2.5065, 2.5054, 2.4998, 2.5072, 2.5107,2.5065, 2.4978, 2.4951, 2.4953, 2.4929, 2.4988,2.4953
MultiSource/Benchmarks/TSVC/Reductions-flt/Reductions-flt, 2.2576, 2.2524, 2.2518, 2.2513, 2.2598,2.2524, 2.2488, 2.2522, 2.2438, 2.2425, 2.2477,2.2477
MultiSource/Benchmarks/TSVC/Searching-dbl/Searching-dbl, 2.3676, 2.3685, 2.3719, 2.3715, 2.3704,2.3704, 2.3665, 2.3623, 2.3596, 2.3721, 2.3664,2.3664
MultiSource/Benchmarks/TSVC/Searching-flt/Searching-flt, 2.1178, 2.1189, 2.1131, 2.1238, 2.1129,2.1178, 2.1093, 2.1036, 2.1105, 2.1199, 2.1168,2.1105
MultiSource/Benchmarks/TSVC/StatementReordering-dbl/StatementReordering-dbl, 2.3945, 2.3862, 2.3948, 2.3874, 2.3945,2.3945, 2.3828, 2.3818, 2.3811, 2.3900, 2.3826,2.3826
MultiSource/Benchmarks/TSVC/StatementReordering-flt/StatementReordering-flt, 2.1371, 2.1338, 2.1477, 2.1188, 2.1370,2.137, 2.1226, 2.1227, 2.1264, 2.0993, 2.1212,2.1226
MultiSource/Benchmarks/TSVC/Symbolics-dbl/Symbolics-dbl, 2.4404, 2.4508, 2.4452, 2.4419, 2.4412,2.4419, 2.4338, 2.4302, 2.4315, 2.4267, 2.4323,2.4315
MultiSource/Benchmarks/TSVC/Symbolics-flt/Symbolics-flt, 2.1908, 2.1899, 2.1868, 2.1835, 2.1877,2.1877, 2.1797, 2.1866, 2.1754, 2.1749, 2.1849,2.1797
MultiSource/Benchmarks/Trimaran/enc-3des/enc-3des, 0.2630, 0.2625, 0.2629, 0.2622, 0.2626,0.2626, 0.2643, 0.2639, 0.2650, 0.2641, 0.2650,0.2643
MultiSource/Benchmarks/Trimaran/enc-md5/enc-md5, 0.1671, 0.1672, 0.1670, 0.1673, 0.1667,0.1671, 0.1679, 0.1675, 0.1677, 0.1675, 0.1677,0.1677
MultiSource/Benchmarks/Trimaran/enc-pc1/enc-pc1, 0.0651, 0.0653, 0.0652, 0.0655, 0.0652,0.0652, 0.0656, 0.0655, 0.0656, 0.0653, 0.0656,0.0656
MultiSource/Benchmarks/Trimaran/enc-rc4/enc-rc4, 0.0498, 0.0497, 0.0499, 0.0496, 0.0500,0.0498, 0.0643, 0.0497, 0.0497, 0.0499, 0.0498,0.0498
MultiSource/Benchmarks/Trimaran/netbench-crc/netbench-crc, 0.0770, 0.0772, 0.0774, 0.0769, 0.0774,0.0772, 0.0781, 0.0776, 0.0777, 0.0779, 0.0774,0.0777
MultiSource/Benchmarks/Trimaran/netbench-url/netbench-url, 0.1999, 0.2005, 0.1999, 0.2012, 0.2003,0.2003, 0.2019, 0.2004, 0.2008, 0.2013, 0.2005,0.2008
MultiSource/Benchmarks/VersaBench/8b10b/8b10b, 0.0692, 0.0692, 0.0689, 0.0696, 0.0690,0.0692, 0.0705, 0.0698, 0.0693, 0.0697, 0.0699,0.0698
MultiSource/Benchmarks/VersaBench/beamformer/beamformer, 0.3772, 0.3768, 0.3769, 0.3765, 0.3777,0.3769, 0.3755, 0.3754, 0.3762, 0.3751, 0.3777,0.3755
MultiSource/Benchmarks/VersaBench/bmm/bmm, 0.0550, 0.0550, 0.0550, 0.0549, 0.0550,0.055, 0.0551, 0.0549, 0.0550, 0.0548, 0.0551,0.055
MultiSource/Benchmarks/VersaBench/dbms/dbms, 0.8701, 0.8715, 0.8718, 0.8734, 0.8729,0.8718, 0.9182, 0.8794, 0.8779, 0.8790, 0.8811,0.8794
MultiSource/Benchmarks/VersaBench/ecbdes/ecbdes, 0.2156, 0.2162, 0.2154, 0.2164, 0.2164,0.2162, 0.2183, 0.2175, 0.2170, 0.2174, 0.2177,0.2175
MultiSource/Benchmarks/llubenchmark/llu, 0.0490, 0.0490, 0.0490, 0.0491, 0.0489,0.049, 0.0491, 0.0492, 0.0490, 0.0492, 0.0491,0.0491
MultiSource/Benchmarks/mafft/pairlocalalign, 9.4229, 9.4343, 9.4337, 9.4244, 9.4391,9.4337, 9.3950, 9.4183, 9.4269, 9.4193, 9.4221,9.4193
MultiSource/Benchmarks/mediabench/adpcm/rawcaudio/rawcaudio, 0.0540, 0.0540, 0.0540, 0.0543, 0.0540,0.054, 0.0548, 0.0545, 0.0547, 0.0544, 0.0544,0.0545
MultiSource/Benchmarks/mediabench/adpcm/rawdaudio/rawdaudio, 0.0540, 0.0542, 0.0539, 0.0540, 0.0542,0.054, 0.0546, 0.0542, 0.0545, 0.0546, 0.0544,0.0545
MultiSource/Benchmarks/mediabench/g721/g721encode/encode, 0.2094, 0.1892, 0.1885, 0.1888, 0.1890,0.189, 0.2176, 0.1897, 0.1903, 0.1902, 0.1905,0.1903
MultiSource/Benchmarks/mediabench/gsm/toast/toast, 1.0602, 1.0620, 1.0610, 1.0619, 1.0619,1.0619, 1.0688, 1.0647, 1.0643, 1.0638, 1.0651,1.0647
MultiSource/Benchmarks/mediabench/jpeg/jpeg-6a/cjpeg, 4.2830, 4.2962, 4.2921, 4.2935, 4.2992,4.2935, 4.2975, 4.3061, 4.2958, 4.3054, 4.2993,4.2993
MultiSource/Benchmarks/mediabench/mpeg2/mpeg2dec/mpeg2decode, 1.3179, 1.3176, 1.3175, 1.3182, 1.3195,1.3179, 1.3217, 1.3201, 1.3194, 1.3187, 1.3217,1.3201
MultiSource/Benchmarks/nbench/nbench, 1.2013, 1.2072, 1.2074, 1.2069, 1.2066,1.2069, 1.2079, 1.2107, 1.2074, 1.2075, 1.2100,1.2079
MultiSource/Benchmarks/sim/sim, 0.2959, 0.2945, 0.2947, 0.2947, 0.2949,0.2947, 0.2943, 0.2940, 0.2939, 0.2939, 0.2941,0.294
MultiSource/Benchmarks/tramp3d-v4/tramp3d-v4,18.5799,18.5775,18.5928,18.5400,18.5857,18.5799,18.6031,18.6004,18.6151,18.5639,18.6033,18.6031
SingleSource/Benchmarks/Adobe-C++/functionobjects, 0.4617, 0.4600, 0.4593, 0.4593, 0.4606,0.46, 0.4591, 0.4589, 0.4586, 0.4588, 0.4591,0.4589
SingleSource/Benchmarks/Adobe-C++/loop_unroll, 4.8225, 4.8272, 4.8347, 4.8248, 4.8253,4.8253, 4.8156, 4.8141, 4.7819, 4.8180, 4.8167,4.8156
SingleSource/Benchmarks/Adobe-C++/simple_types_constant_folding, 2.2658, 2.2621, 2.2707, 2.2645, 2.2716,2.2658, 2.2441, 2.2608, 2.2596, 2.2642, 2.2590,2.2596
SingleSource/Benchmarks/Adobe-C++/simple_types_loop_invariant, 1.8333, 1.8309, 1.8323, 1.8312, 1.8355,1.8323, 1.8310, 1.8349, 1.8305, 1.8336, 1.8316,1.8316
SingleSource/Benchmarks/Adobe-C++/stepanov_abstraction, 0.6086, 0.6100, 0.6094, 0.6102, 0.6097,0.6097, 0.6088, 0.6085, 0.6077, 0.6079, 0.6086,0.6085
SingleSource/Benchmarks/Adobe-C++/stepanov_vector, 0.7588, 0.7588, 0.7575, 0.7571, 0.7581,0.7581, 0.7577, 0.7561, 0.7566, 0.7585, 0.7559,0.7566
SingleSource/Benchmarks/BenchmarkGame/Large/fasta, 0.0415, 0.0416, 0.0417, 0.0417, 0.0418,0.0417, 0.0421, 0.0417, 0.0417, 0.0415, 0.0417,0.0417
SingleSource/Benchmarks/BenchmarkGame/fannkuch, 0.0479, 0.0478, 0.0477, 0.0477, 0.0479,0.0478, 0.0482, 0.0480, 0.0479, 0.0480, 0.0481,0.048
SingleSource/Benchmarks/BenchmarkGame/n-body, 0.0755, 0.0755, 0.0754, 0.0760, 0.0756,0.0755, 0.0758, 0.0757, 0.0755, 0.0756, 0.0754,0.0756
SingleSource/Benchmarks/BenchmarkGame/nsieve-bits, 0.0310, 0.0312, 0.0311, 0.0311, 0.0312,0.0311, 0.0315, 0.0313, 0.0313, 0.0313, 0.0313,0.0313
SingleSource/Benchmarks/BenchmarkGame/partialsums, 0.0280, 0.0280, 0.0279, 0.0281, 0.0280,0.028, 0.0282, 0.0280, 0.0280, 0.0280, 0.0280,0.028
SingleSource/Benchmarks/BenchmarkGame/puzzle, 0.0550, 0.0550, 0.0551, 0.0549, 0.0551,0.055, 0.0554, 0.0553, 0.0551, 0.0551, 0.0553,0.0553
SingleSource/Benchmarks/BenchmarkGame/recursive, 0.0247, 0.0247, 0.0247, 0.0248, 0.0248,0.0247, 0.0250, 0.0246, 0.0247, 0.0247, 0.0248,0.0247
SingleSource/Benchmarks/BenchmarkGame/spectral-norm, 0.0559, 0.0561, 0.0562, 0.0560, 0.0558,0.056, 0.0562, 0.0559, 0.0559, 0.0559, 0.0561,0.0559
SingleSource/Benchmarks/CoyoteBench/almabench, 0.0623, 0.0621, 0.0622, 0.0620, 0.0617,0.0621, 0.0636, 0.0634, 0.0635, 0.0637, 0.0634,0.0635
SingleSource/Benchmarks/CoyoteBench/fftbench, 0.6082, 0.5636, 0.5887, 0.5828, 0.6354,0.5887, 0.5832, 0.6341, 0.6314, 0.6271, 0.6221,0.6271
SingleSource/Benchmarks/CoyoteBench/huffbench, 0.0878, 0.0878, 0.0876, 0.0876, 0.0875,0.0876, 0.0860, 0.0860, 0.0857, 0.0858, 0.0858,0.0858
SingleSource/Benchmarks/CoyoteBench/lpbench, 0.1941, 0.1941, 0.1941, 0.1944, 0.1940,0.1941, 0.1930, 0.1932, 0.1926, 0.1927, 0.1928,0.1928
SingleSource/Benchmarks/Dhrystone/dry, 0.0382, 0.0383, 0.0384, 0.0380, 0.0383,0.0383, 0.0385, 0.0385, 0.0384, 0.0383, 0.0384,0.0384
SingleSource/Benchmarks/Dhrystone/fldry, 0.0410, 0.0409, 0.0410, 0.0408, 0.0409,0.0409, 0.0412, 0.0409, 0.0410, 0.0408, 0.0408,0.0409
SingleSource/Benchmarks/Linpack/linpack-pc, 0.3955, 0.3958, 0.3956, 0.3948, 0.3958,0.3956, 0.3965, 0.3951, 0.3952, 0.3946, 0.3948,0.3951
SingleSource/Benchmarks/McGill/chomp, 0.1755, 0.1761, 0.1752, 0.1753, 0.1754,0.1754, 0.1751, 0.1751, 0.1753, 0.1747, 0.1749,0.1751
SingleSource/Benchmarks/McGill/misr, 0.0523, 0.0522, 0.0523, 0.0521, 0.0521,0.0522, 0.0524, 0.0524, 0.0522, 0.0524, 0.0522,0.0524
SingleSource/Benchmarks/McGill/queens, 0.0448, 0.0448, 0.0449, 0.0450, 0.0449,0.0449, 0.0452, 0.0448, 0.0450, 0.0450, 0.0451,0.045
SingleSource/Benchmarks/Misc-C++-EH/spirit, 3.1452, 3.1551, 3.1480, 3.1476, 3.1411,3.1476, 3.1490, 3.1622, 3.1521, 3.1727, 3.1731,3.1622
SingleSource/Benchmarks/Misc-C++/Large/ray, 0.2221, 0.2210, 0.2123, 0.2106, 0.2253,0.221, 0.2200, 0.2157, 0.2038, 0.2216, 0.2081,0.2157
SingleSource/Benchmarks/Misc-C++/Large/sphereflake, 0.2120, 0.2122, 0.2120, 0.2124, 0.2127,0.2122, 0.2120, 0.2118, 0.2124, 0.2126, 0.2125,0.2124
SingleSource/Benchmarks/Misc-C++/bigfib, 0.4289, 0.4275, 0.4277, 0.4271, 0.4262,0.4275, 0.4261, 0.4260, 0.4247, 0.4252, 0.4250,0.4252
SingleSource/Benchmarks/Misc-C++/mandel-text, 0.0224, 0.0225, 0.0225, 0.0225, 0.0226,0.0225, 0.0228, 0.0226, 0.0226, 0.0226, 0.0226,0.0226
SingleSource/Benchmarks/Misc-C++/oopack_v1p8, 0.1406, 0.1375, 0.1349, 0.1334, 0.1401,0.1375, 0.1402, 0.1383, 0.1362, 0.1379, 0.1232,0.1379
SingleSource/Benchmarks/Misc-C++/stepanov_container, 0.6571, 0.6613, 0.6585, 0.6570, 0.6558,0.6571, 0.6765, 0.6591, 0.6524, 0.6582, 0.6509,0.6582
SingleSource/Benchmarks/Misc-C++/stepanov_v1p2, 0.1713, 0.1702, 0.1714, 0.1706, 0.1702,0.1706, 0.1714, 0.1702, 0.1700, 0.1701, 0.1701,0.1701
SingleSource/Benchmarks/Misc/ReedSolomon, 0.2196, 0.2200, 0.2200, 0.2196, 0.2198,0.2198, 0.2196, 0.2196, 0.2195, 0.2193, 0.2196,0.2196
SingleSource/Benchmarks/Misc/dt, 0.0320, 0.0320, 0.0320, 0.0322, 0.0319,0.032, 0.0322, 0.0320, 0.0321, 0.0323, 0.0323,0.0322
SingleSource/Benchmarks/Misc/fbench, 0.0522, 0.0523, 0.0523, 0.0522, 0.0522,0.0522, 0.0524, 0.0522, 0.0521, 0.0524, 0.0522,0.0522
SingleSource/Benchmarks/Misc/ffbench, 0.0787, 0.0788, 0.0788, 0.0790, 0.0786,0.0788, 0.0790, 0.0786, 0.0787, 0.0785, 0.0787,0.0787
SingleSource/Benchmarks/Misc/flops, 0.0730, 0.0733, 0.0730, 0.0731, 0.0727,0.073, 0.0732, 0.0728, 0.0727, 0.0730, 0.0729,0.0729
SingleSource/Benchmarks/Misc/flops-1, 0.0252, 0.0254, 0.0254, 0.0254, 0.0255,0.0254, 0.0402, 0.0256, 0.0256, 0.0255, 0.0256,0.0256
SingleSource/Benchmarks/Misc/flops-2, 0.0270, 0.0271, 0.0270, 0.0273, 0.0271,0.0271, 0.0385, 0.0274, 0.0273, 0.0274, 0.0275,0.0274
SingleSource/Benchmarks/Misc/flops-3, 0.0252, 0.0253, 0.0253, 0.0251, 0.0253,0.0253, 0.0256, 0.0255, 0.0255, 0.0254, 0.0254,0.0255
SingleSource/Benchmarks/Misc/flops-4, 0.0257, 0.0257, 0.0256, 0.0258, 0.0254,0.0257, 0.0260, 0.0258, 0.0258, 0.0258, 0.0259,0.0258
SingleSource/Benchmarks/Misc/flops-5, 0.0263, 0.0265, 0.0265, 0.0265, 0.0264,0.0265, 0.0269, 0.0267, 0.0265, 0.0267, 0.0269,0.0267
SingleSource/Benchmarks/Misc/flops-6, 0.0265, 0.0264, 0.0265, 0.0265, 0.0266,0.0265, 0.0270, 0.0269, 0.0267, 0.0267, 0.0268,0.0268
SingleSource/Benchmarks/Misc/flops-7, 0.0250, 0.0251, 0.0250, 0.0251, 0.0251,0.0251, 0.0254, 0.0253, 0.0252, 0.0252, 0.0252,0.0252
SingleSource/Benchmarks/Misc/flops-8, 0.0262, 0.0261, 0.0260, 0.0260, 0.0262,0.0261, 0.0264, 0.0262, 0.0262, 0.0262, 0.0262,0.0262
SingleSource/Benchmarks/Misc/fp-convert, 0.0307, 0.0306, 0.0307, 0.0304, 0.0306,0.0306, 0.0310, 0.0307, 0.0307, 0.0308, 0.0308,0.0308
SingleSource/Benchmarks/Misc/himenobmtxpa, 0.2358, 0.2359, 0.2358, 0.2360, 0.2364,0.2359, 0.2364, 0.2352, 0.2360, 0.2349, 0.2361,0.236
SingleSource/Benchmarks/Misc/lowercase, 0.0244, 0.0245, 0.0244, 0.0246, 0.0245,0.0245, 0.0248, 0.0247, 0.0245, 0.0246, 0.0246,0.0246
SingleSource/Benchmarks/Misc/mandel, 0.0411, 0.0415, 0.0412, 0.0412, 0.0411,0.0412, 0.0413, 0.0412, 0.0411, 0.0411, 0.0411,0.0411
SingleSource/Benchmarks/Misc/mandel-2, 0.0296, 0.0532, 0.0466, 0.0518, 0.0512,0.0512, 0.0457, 0.0299, 0.0297, 0.0532, 0.0298,0.0299
SingleSource/Benchmarks/Misc/matmul_f64_4x4, 0.0288, 0.0287, 0.0287, 0.0287, 0.0287,0.0287, 0.0290, 0.0288, 0.0287, 0.0286, 0.0288,0.0288
SingleSource/Benchmarks/Misc/oourafft, 0.2363, 0.2368, 0.2516, 0.2530, 0.2368,0.2368, 0.2493, 0.2361, 0.2356, 0.2388, 0.2362,0.2362
SingleSource/Benchmarks/Misc/perlin, 0.0440, 0.0441, 0.0440, 0.0442, 0.0440,0.044, 0.0446, 0.0444, 0.0443, 0.0444, 0.0444,0.0444
SingleSource/Benchmarks/Misc/pi, 0.0196, 0.0196, 0.0195, 0.0197, 0.0196,0.0196, 0.0200, 0.0198, 0.0199, 0.0197, 0.0197,0.0198
SingleSource/Benchmarks/Misc/richards_benchmark, 0.0582, 0.0583, 0.0582, 0.0583, 0.0583,0.0583, 0.0588, 0.0586, 0.0587, 0.0586, 0.0586,0.0586
SingleSource/Benchmarks/Misc/salsa20, 0.0547, 0.0545, 0.0545, 0.0547, 0.0547,0.0547, 0.0557, 0.0556, 0.0555, 0.0556, 0.0556,0.0556
SingleSource/Benchmarks/Misc/whetstone, 0.0684, 0.0684, 0.0684, 0.0683, 0.0686,0.0684, 0.0686, 0.0684, 0.0684, 0.0682, 0.0684,0.0684
SingleSource/Benchmarks/Polybench/datamining/correlation/correlation, 0.0833, 0.0836, 0.0838, 0.0835, 0.0836,0.0836, 0.0837, 0.0836, 0.0835, 0.0833, 0.0834,0.0835
SingleSource/Benchmarks/Polybench/datamining/covariance/covariance, 0.0991, 0.0990, 0.0990, 0.0993, 0.0993,0.0991, 0.0996, 0.0995, 0.0989, 0.0990, 0.0992,0.0992
SingleSource/Benchmarks/Polybench/linear-algebra/kernels/atax/atax, 0.0878, 0.0880, 0.0879, 0.0880, 0.0878,0.0879, 0.0880, 0.0880, 0.0879, 0.0878, 0.0878,0.0879
SingleSource/Benchmarks/Polybench/linear-algebra/kernels/bicg/bicg, 0.0840, 0.0839, 0.0841, 0.0838, 0.0838,0.0839, 0.0841, 0.0842, 0.0841, 0.0838, 0.0840,0.0841
SingleSource/Benchmarks/Polybench/linear-algebra/kernels/cholesky/cholesky, 0.1146, 0.1144, 0.1146, 0.1145, 0.1145,0.1145, 0.1146, 0.1146, 0.1145, 0.1143, 0.1144,0.1145
SingleSource/Benchmarks/Polybench/linear-algebra/kernels/doitgen/doitgen, 0.1122, 0.1123, 0.1125, 0.1121, 0.1122,0.1122, 0.1168, 0.1122, 0.1122, 0.1121, 0.1122,0.1122
SingleSource/Benchmarks/Polybench/linear-algebra/kernels/gemver/gemver, 0.1068, 0.1076, 0.1071, 0.1070, 0.1069,0.107, 0.1068, 0.1065, 0.1066, 0.1065, 0.1068,0.1066
SingleSource/Benchmarks/Polybench/linear-algebra/kernels/gesummv/gesummv, 0.0701, 0.0701, 0.0706, 0.0702, 0.0701,0.0701, 0.0703, 0.0700, 0.0700, 0.0701, 0.0703,0.0701
SingleSource/Benchmarks/Polybench/linear-algebra/kernels/mvt/mvt, 0.0895, 0.0892, 0.0895, 0.0893, 0.0892,0.0893, 0.0895, 0.0896, 0.0892, 0.0893, 0.0896,0.0895
SingleSource/Benchmarks/Polybench/linear-algebra/kernels/symm/symm, 0.0852, 0.0849, 0.0849, 0.0851, 0.0848,0.0849, 0.0850, 0.0848, 0.0848, 0.0851, 0.0846,0.0848
SingleSource/Benchmarks/Polybench/linear-algebra/kernels/syr2k/syr2k, 0.0870, 0.0872, 0.0871, 0.0874, 0.0872,0.0872, 0.0874, 0.0877, 0.0871, 0.0871, 0.0872,0.0872
SingleSource/Benchmarks/Polybench/linear-algebra/kernels/syrk/syrk, 0.0864, 0.0865, 0.0861, 0.0863, 0.0863,0.0863, 0.0864, 0.0863, 0.0862, 0.0862, 0.0861,0.0862
SingleSource/Benchmarks/Polybench/linear-algebra/kernels/trisolv/trisolv, 0.0676, 0.0679, 0.0679, 0.0680, 0.0676,0.0679, 0.0723, 0.0677, 0.0676, 0.0676, 0.0677,0.0677
SingleSource/Benchmarks/Polybench/linear-algebra/kernels/trmm/trmm, 0.0829, 0.0828, 0.0831, 0.0828, 0.0829,0.0829, 0.0830, 0.0827, 0.0826, 0.0822, 0.0826,0.0826
SingleSource/Benchmarks/Polybench/linear-algebra/solvers/durbin/durbin, 0.1069, 0.1068, 0.1070, 0.1069, 0.1071,0.1069, 0.1071, 0.1069, 0.1068, 0.1069, 0.1069,0.1069
SingleSource/Benchmarks/Polybench/linear-algebra/solvers/dynprog/dynprog, 0.0857, 0.0858, 0.0857, 0.0858, 0.0861,0.0858, 0.0861, 0.0857, 0.0858, 0.0855, 0.0857,0.0857
SingleSource/Benchmarks/Polybench/linear-algebra/solvers/gramschmidt/gramschmidt, 0.1251, 0.1254, 0.1254, 0.1256, 0.1255,0.1254, 0.1251, 0.1250, 0.1254, 0.1260, 0.1251,0.1251
SingleSource/Benchmarks/Polybench/linear-algebra/solvers/lu/lu, 0.1039, 0.1045, 0.1044, 0.1042, 0.1042,0.1042, 0.1043, 0.1041, 0.1044, 0.1037, 0.1043,0.1043
SingleSource/Benchmarks/Polybench/medley/floyd-warshall/floyd-warshall, 0.0848, 0.0857, 0.0853, 0.0853, 0.0856,0.0853, 0.0854, 0.0851, 0.0852, 0.0854, 0.0854,0.0854
SingleSource/Benchmarks/Polybench/medley/reg_detect/reg_detect, 1.2671, 1.2704, 1.2833, 1.2696, 1.2745,1.2704, 1.2657, 1.2673, 1.2714, 1.2807, 1.2676,1.2676
SingleSource/Benchmarks/Polybench/stencils/adi/adi, 0.1035, 0.1037, 0.1036, 0.1035, 0.1035,0.1035, 0.1036, 0.1033, 0.1033, 0.1038, 0.1034,0.1034
SingleSource/Benchmarks/Polybench/stencils/fdtd-2d/fdtd-2d, 0.1623, 0.1623, 0.1623, 0.1623, 0.1627,0.1623, 0.1627, 0.1622, 0.1625, 0.1623, 0.1623,0.1623
SingleSource/Benchmarks/Polybench/stencils/fdtd-apml/fdtd-apml, 0.1499, 0.1494, 0.1496, 0.1493, 0.1496,0.1496, 0.1492, 0.1492, 0.1490, 0.1489, 0.1490,0.149
SingleSource/Benchmarks/Polybench/stencils/jacobi-1d-imper/jacobi-1d-imper, 0.0906, 0.0902, 0.0902, 0.0905, 0.0904,0.0904, 0.0906, 0.0904, 0.0901, 0.0902, 0.0904,0.0904
SingleSource/Benchmarks/Polybench/stencils/jacobi-2d-imper/jacobi-2d-imper, 0.1291, 0.1293, 0.1293, 0.1289, 0.1290,0.1291, 0.1299, 0.1286, 0.1286, 0.1290, 0.1289,0.1289
SingleSource/Benchmarks/Polybench/stencils/seidel-2d/seidel-2d, 0.0759, 0.0762, 0.0761, 0.0763, 0.0763,0.0762, 0.0762, 0.0761, 0.0760, 0.0758, 0.0760,0.076
SingleSource/Benchmarks/Shootout-C++/EH/except, 0.1263, 0.1266, 0.1257, 0.1268, 0.1264,0.1264, 0.1268, 0.1262, 0.1261, 0.1265, 0.1263,0.1263
SingleSource/Benchmarks/Shootout-C++/ackermann, 0.1141, 0.1154, 0.1150, 0.1149, 0.1150,0.115, 0.1147, 0.1142, 0.1139, 0.1158, 0.1143,0.1143
SingleSource/Benchmarks/Shootout-C++/ary, 0.1542, 0.1556, 0.1541, 0.1550, 0.1544,0.1544, 0.1546, 0.1543, 0.1541, 0.1546, 0.1552,0.1546
SingleSource/Benchmarks/Shootout-C++/ary2, 0.1620, 0.1610, 0.1617, 0.1610, 0.1616,0.1616, 0.1609, 0.1614, 0.1612, 0.1603, 0.1604,0.1609
SingleSource/Benchmarks/Shootout-C++/ary3, 0.1589, 0.1584, 0.1580, 0.1584, 0.1584,0.1584, 0.1583, 0.1576, 0.1577, 0.1578, 0.1578,0.1578
SingleSource/Benchmarks/Shootout-C++/fibo, 0.1127, 0.1129, 0.1126, 0.1134, 0.1138,0.1129, 0.1126, 0.1134, 0.1127, 0.1125, 0.1125,0.1126
SingleSource/Benchmarks/Shootout-C++/hash, 0.2633, 0.2628, 0.2623, 0.2618, 0.2617,0.2623, 0.2638, 0.2624, 0.2617, 0.2627, 0.2617,0.2624
SingleSource/Benchmarks/Shootout-C++/hash2, 0.3343, 0.3330, 0.3258, 0.3237, 0.3303,0.3303, 0.3229, 0.3240, 0.3006, 0.3285, 0.3261,0.324
SingleSource/Benchmarks/Shootout-C++/heapsort, 0.1313, 0.1311, 0.1314, 0.1309, 0.1314,0.1313, 0.1306, 0.1296, 0.1306, 0.1307, 0.1299,0.1306
SingleSource/Benchmarks/Shootout-C++/lists, 0.1573, 0.1585, 0.1585, 0.1579, 0.1577,0.1579, 0.1569, 0.1570, 0.1575, 0.1577, 0.1575,0.1575
SingleSource/Benchmarks/Shootout-C++/lists1, 0.1890, 0.1896, 0.1898, 0.1917, 0.1904,0.1898, 0.1893, 0.1894, 0.1888, 0.1900, 0.1896,0.1894
SingleSource/Benchmarks/Shootout-C++/matrix, 0.1942, 0.1950, 0.1940, 0.1949, 0.1956,0.1949, 0.1942, 0.1947, 0.1944, 0.1942, 0.1941,0.1942
SingleSource/Benchmarks/Shootout-C++/methcall, 0.1228, 0.1224, 0.1231, 0.1225, 0.1235,0.1228, 0.1221, 0.1220, 0.1218, 0.1219, 0.1220,0.122
SingleSource/Benchmarks/Shootout-C++/moments, 0.2384, 0.2374, 0.2370, 0.2375, 0.2374,0.2374, 0.2373, 0.2369, 0.2381, 0.2372, 0.2389,0.2373
SingleSource/Benchmarks/Shootout-C++/nestedloop, 0.1136, 0.1141, 0.1134, 0.1139, 0.1138,0.1138, 0.1133, 0.1141, 0.1131, 0.1131, 0.1130,0.1131
SingleSource/Benchmarks/Shootout-C++/objinst, 0.1386, 0.1386, 0.1381, 0.1392, 0.1392,0.1386, 0.1396, 0.1386, 0.1386, 0.1382, 0.1387,0.1386
SingleSource/Benchmarks/Shootout-C++/random, 0.1229, 0.1226, 0.1229, 0.1226, 0.1225,0.1226, 0.1223, 0.1219, 0.1218, 0.1224, 0.1228,0.1223
SingleSource/Benchmarks/Shootout-C++/sieve, 0.1787, 0.1799, 0.1790, 0.1796, 0.1796,0.1796, 0.1791, 0.1789, 0.1790, 0.1792, 0.1790,0.179
SingleSource/Benchmarks/Shootout-C++/strcat, 0.1231, 0.1233, 0.1227, 0.1231, 0.1227,0.1231, 0.1232, 0.1229, 0.1225, 0.1225, 0.1225,0.1225
SingleSource/Benchmarks/Shootout/ackermann, 0.0217, 0.0217, 0.0215, 0.0218, 0.0217,0.0217, 0.0220, 0.0218, 0.0218, 0.0218, 0.0218,0.0218
SingleSource/Benchmarks/Shootout/ary3, 0.0326, 0.0326, 0.0325, 0.0330, 0.0328,0.0326, 0.0331, 0.0329, 0.0330, 0.0329, 0.0330,0.033
SingleSource/Benchmarks/Shootout/fib2, 0.0183, 0.0183, 0.0182, 0.0183, 0.0183,0.0183, 0.0187, 0.0185, 0.0184, 0.0183, 0.0185,0.0185
SingleSource/Benchmarks/Shootout/hash, 0.0478, 0.0481, 0.0481, 0.0482, 0.0481,0.0481, 0.0486, 0.0483, 0.0481, 0.0485, 0.0483,0.0483
SingleSource/Benchmarks/Shootout/heapsort, 0.0385, 0.0386, 0.0385, 0.0384, 0.0385,0.0385, 0.0389, 0.0388, 0.0386, 0.0386, 0.0386,0.0386
SingleSource/Benchmarks/Shootout/lists, 0.0716, 0.0717, 0.0715, 0.0716, 0.0716,0.0716, 0.0718, 0.0717, 0.0715, 0.0716, 0.0717,0.0717
SingleSource/Benchmarks/Shootout/matrix, 0.0820, 0.0820, 0.0819, 0.0819, 0.0821,0.082, 0.0825, 0.0822, 0.0822, 0.0822, 0.0826,0.0822
SingleSource/Benchmarks/Shootout/methcall, 0.0293, 0.0294, 0.0292, 0.0294, 0.0293,0.0293, 0.0296, 0.0294, 0.0294, 0.0295, 0.0294,0.0294
SingleSource/Benchmarks/Shootout/nestedloop, 0.0224, 0.0225, 0.0224, 0.0225, 0.0224,0.0224, 0.0228, 0.0226, 0.0227, 0.0226, 0.0226,0.0226
SingleSource/Benchmarks/Shootout/objinst, 0.0344, 0.0343, 0.0342, 0.0344, 0.0342,0.0343, 0.0346, 0.0344, 0.0343, 0.0345, 0.0344,0.0344
SingleSource/Benchmarks/Shootout/random, 0.0280, 0.0282, 0.0282, 0.0282, 0.0283,0.0282, 0.0285, 0.0283, 0.0283, 0.0285, 0.0283,0.0283
SingleSource/Benchmarks/Shootout/sieve, 0.0242, 0.0241, 0.0242, 0.0242, 0.0242,0.0242, 0.0244, 0.0240, 0.0243, 0.0242, 0.0240,0.0242
SingleSource/Benchmarks/Shootout/strcat, 0.0252, 0.0253, 0.0252, 0.0253, 0.0252,0.0252, 0.0256, 0.0254, 0.0254, 0.0254, 0.0254,0.0254
SingleSource/Benchmarks/SmallPT/smallpt, 0.0994, 0.0993, 0.0996, 0.0995, 0.0994,0.0994, 0.0997, 0.0993, 0.0993, 0.0993, 0.0995,0.0993
SingleSource/Benchmarks/Stanford/Bubblesort, 0.0341, 0.0340, 0.0341, 0.0343, 0.0341,0.0341, 0.0344, 0.0342, 0.0342, 0.0342, 0.0342,0.0342
SingleSource/Benchmarks/Stanford/FloatMM, 0.0592, 0.0591, 0.0592, 0.0591, 0.0592,0.0592, 0.0592, 0.0590, 0.0590, 0.0591, 0.0591,0.0591
SingleSource/Benchmarks/Stanford/Oscar, 0.0654, 0.0655, 0.0654, 0.0655, 0.0658,0.0655, 0.0660, 0.0656, 0.0656, 0.0655, 0.0655,0.0656
SingleSource/Benchmarks/Stanford/Perm, 0.0300, 0.0300, 0.0298, 0.0300, 0.0299,0.03, 0.0302, 0.0301, 0.0301, 0.0300, 0.0301,0.0301
SingleSource/Benchmarks/Stanford/Puzzle, 0.1169, 0.1167, 0.1170, 0.1168, 0.1169,0.1169, 0.1172, 0.1167, 0.1165, 0.1169, 0.1169,0.1169
SingleSource/Benchmarks/Stanford/Queens, 0.0453, 0.0451, 0.0455, 0.0454, 0.0454,0.0454, 0.0458, 0.0454, 0.0455, 0.0454, 0.0455,0.0455
SingleSource/Benchmarks/Stanford/Quicksort, 0.0355, 0.0357, 0.0356, 0.0356, 0.0354,0.0356, 0.0359, 0.0357, 0.0357, 0.0357, 0.0357,0.0357
SingleSource/Benchmarks/Stanford/RealMM, 0.0556, 0.0556, 0.0559, 0.0556, 0.0557,0.0556, 0.0559, 0.0557, 0.0559, 0.0558, 0.0557,0.0558
SingleSource/Benchmarks/Stanford/Towers, 0.0446, 0.0448, 0.0446, 0.0446, 0.0447,0.0446, 0.0450, 0.0447, 0.0448, 0.0447, 0.0448,0.0448
SingleSource/Benchmarks/Stanford/Treesort, 0.0359, 0.0359, 0.0363, 0.0364, 0.0361,0.0361, 0.0366, 0.0362, 0.0364, 0.0363, 0.0361,0.0363
SingleSource/Regression/C/2004-08-12-InlinerAndAllocas, 0.0177, 0.0178, 0.0177, 0.0179, 0.0179,0.0178, 0.0186, 0.0179, 0.0180, 0.0179, 0.0180,0.018
SingleSource/Regression/C/uint64_to_float, 0.0907, 0.0760, 0.0863, 0.0940, 0.0851,0.0863, 0.0792, 0.0847, 0.0781, 0.0878, 0.0801,0.0801
Total elapsed time,-,-,-,-,-,349.74600000000004,-,-,-,-,-,349.46360000000044
Total failure,-,-,-,-,-,0,-,-,-,-,-,0
