Benchmarks,base,base,base,base,base,median,intptr-opt,intptr-opt,intptr-opt,intptr-opt,intptr-opt,median,Slowdown(%)
SingleSource/Benchmarks/Misc/lowercase, 0.0009, 0.0009, 0.0008, 0.0008, 0.0008,0.0008, 0.0009, 0.0009, 0.0009, 0.0009, 0.0009,0.0009,12.5
SingleSource/Benchmarks/Shootout-C++/objinst, 0.0009, 0.0009, 0.0010, 0.0009, 0.0010,0.0009, 0.0009, 0.0010, 0.0010, 0.0010, 0.0010,0.001,11.111111111111116
MultiSource/Benchmarks/MiBench/security-sha/security-sha, 0.0149, 0.0279, 0.0349, 0.0349, 0.0339,0.0339, 0.0150, 0.0359, 0.0370, 0.0364, 0.0366,0.0364,7.374631268436582
MultiSource/Applications/ALAC/encode/alacconvert-encode, 0.0287, 0.0282, 0.0266, 0.0266, 0.0285,0.0282, 0.0278, 0.0267, 0.0298, 0.0298, 0.0300,0.0298,5.673758865248235
MultiSource/Benchmarks/Prolangs-C/bison/mybison, 0.0020, 0.0092, 0.0021, 0.0021, 0.0022,0.0021, 0.0022, 0.0021, 0.0021, 0.0145, 0.0022,0.0022,4.761904761904767
MultiSource/Benchmarks/MiBench/telecomm-adpcm/telecomm-adpcm, 0.0743, 0.0698, 0.0725, 0.0742, 0.0721,0.0725, 0.0748, 0.0790, 0.0748, 0.0735, 0.0714,0.0748,3.172413793103468
MultiSource/Benchmarks/MiBench/telecomm-CRC32/telecomm-CRC32, 0.1941, 0.1938, 0.2008, 0.1938, 0.1939,0.1939, 0.1995, 0.1976, 0.1926, 0.2023, 0.1994,0.1994,2.8365136668385693
MultiSource/Applications/ClamAV/clamscan, 0.2925, 0.2401, 0.2405, 0.2443, 0.2289,0.2405, 0.2293, 0.2479, 0.2460, 0.2138, 0.2457,0.2457,2.1621621621621623
SingleSource/Benchmarks/Misc/flops-4, 2.3748, 2.3747, 2.3273, 2.2323, 2.2321,2.3273, 2.3271, 2.2323, 2.3747, 2.3747, 2.3747,2.3747,2.0366948824818376
MultiSource/Benchmarks/BitBench/uuencode/uuencode, 0.0111, 0.0110, 0.0111, 0.0110, 0.0110,0.011, 0.0112, 0.0112, 0.0111, 0.0110, 0.0112,0.0112,1.81818181818183
MultiSource/Benchmarks/Ptrdist/ft/ft, 0.6178, 0.6377, 0.6383, 0.6113, 0.6660,0.6377, 0.6628, 0.6501, 0.5993, 0.6477, 0.6165,0.6477,1.5681354869060637
MultiSource/Benchmarks/MiBench/security-rijndael/security-rijndael, 0.0281, 0.0219, 0.0218, 0.0219, 0.0220,0.0219, 0.0343, 0.0221, 0.0222, 0.0223, 0.0222,0.0222,1.3698630136986356
SingleSource/Benchmarks/Shootout/hash, 2.7552, 2.7520, 2.7493, 2.7722, 2.7605,2.7552, 2.7890, 2.7900, 2.7915, 2.7874, 2.7968,2.79,1.2630662020906014
MultiSource/Benchmarks/Trimaran/enc-rc4/enc-rc4, 0.7243, 0.7248, 0.7245, 0.7243, 0.7246,0.7245, 0.7333, 0.7328, 0.7332, 0.7334, 0.7333,0.7333,1.2146307798481581
SingleSource/Benchmarks/Misc-C++-EH/spirit, 2.6250, 2.6247, 2.6258, 2.6240, 2.6225,2.6247, 2.6516, 2.6546, 2.6532, 2.6524, 2.6545,2.6532,1.085838381529336
MultiSource/Applications/oggenc/oggenc, 0.0755, 0.0756, 0.0756, 0.0756, 0.0757,0.0756, 0.0893, 0.0763, 0.0764, 0.0763, 0.0763,0.0763,0.92592592592593
MultiSource/Benchmarks/llubenchmark/llu, 4.1192, 4.1686, 4.0966, 4.0885, 4.0572,4.0966, 4.0849, 4.1037, 4.1276, 4.1681, 4.1359,4.1276,0.7567250890982979
MultiSource/Benchmarks/Bullet/bullet, 3.2883, 3.2909, 3.2928, 3.2920, 3.2908,3.2909, 3.3038, 3.3153, 3.3216, 3.3193, 3.3031,3.3153,0.7414385122610723
MultiSource/Benchmarks/MiBench/automotive-susan/automotive-susan, 0.0290, 0.0284, 0.0284, 0.0290, 0.0284,0.0284, 0.0287, 0.0286, 0.0283, 0.0288, 0.0285,0.0286,0.7042253521126751
MultiSource/Benchmarks/mediabench/gsm/toast/toast, 0.0144, 0.0145, 0.0145, 0.0144, 0.0144,0.0144, 0.0146, 0.0145, 0.0145, 0.0145, 0.0145,0.0145,0.694444444444442
MultiSource/Applications/sqlite3/sqlite3, 1.8225, 1.8176, 1.8091, 1.8175, 1.8140,1.8175, 1.8260, 1.8284, 1.8211, 1.8124, 1.8289,1.826,0.467675378266863
MultiSource/Applications/minisat/minisat, 4.1914, 4.1926, 4.1635, 4.2026, 4.1996,4.1926, 4.0902, 4.0839, 4.2116, 4.2188, 4.2242,4.2116,0.4531794113437959
MultiSource/Benchmarks/Prolangs-C/gnugo/gnugo, 0.0234, 0.0234, 0.0234, 0.0234, 0.0232,0.0234, 0.0235, 0.0235, 0.0234, 0.0235, 0.0235,0.0235,0.42735042735042583
MultiSource/Benchmarks/McCat/12-IOtest/iotest, 0.2134, 0.2148, 0.2137, 0.2140, 0.2137,0.2137, 0.2146, 0.2152, 0.2136, 0.2148, 0.2143,0.2146,0.4211511464670137
MultiSource/Applications/spiff/spiff, 1.3019, 1.3005, 1.3024, 1.3004, 1.3031,1.3019, 1.3106, 1.3070, 1.3055, 1.3063, 1.3082,1.307,0.39173515630999134
MultiSource/Benchmarks/Olden/mst/mst, 0.0526, 0.0527, 0.0525, 0.0524, 0.0523,0.0525, 0.0530, 0.0527, 0.0525, 0.0529, 0.0522,0.0527,0.3809523809523707
MultiSource/Benchmarks/Prolangs-C++/primes/primes, 0.2121, 0.2129, 0.2127, 0.2125, 0.2133,0.2127, 0.2137, 0.2118, 0.2135, 0.2132, 0.2143,0.2135,0.3761165961448043
SingleSource/Benchmarks/Polybench/stencils/fdtd-apml/fdtd-apml, 0.7220, 0.7251, 0.7233, 0.7230, 0.7223,0.723, 0.7263, 0.7218, 0.7225, 0.7257, 0.7284,0.7257,0.3734439834024883
SingleSource/Benchmarks/Shootout-C++/hash, 0.3228, 0.3212, 0.3214, 0.3220, 0.3216,0.3216, 0.3228, 0.3227, 0.3239, 0.3230, 0.3222,0.3228,0.3731343283581934
MultiSource/Benchmarks/TSVC/ControlLoops-flt/ControlLoops-flt, 2.3394, 2.3372, 2.3456, 2.3435, 2.3424,2.3424, 2.3483, 2.3476, 2.3533, 2.3509, 2.3523,2.3509,0.3628756830601265
MultiSource/Applications/kimwitu++/kc, 0.0282, 0.0280, 0.0281, 0.0282, 0.0280,0.0281, 0.0285, 0.0282, 0.0281, 0.0284, 0.0282,0.0282,0.3558718861209842
MultiSource/Applications/aha/aha, 1.0668, 1.0676, 1.0662, 1.0658, 1.0675,1.0668, 1.0705, 1.0711, 1.0705, 1.0704, 1.0712,1.0705,0.3468316460442544
SingleSource/Benchmarks/Polybench/linear-algebra/kernels/doitgen/doitgen, 0.7915, 0.7904, 0.7907, 0.7919, 0.7905,0.7907, 0.7938, 0.7943, 0.7930, 0.7904, 0.7934,0.7934,0.34146958391299
SingleSource/Benchmarks/Shootout-C++/sieve, 1.3083, 1.3338, 1.2505, 1.3827, 1.3219,1.3219, 1.3827, 1.3300, 1.3262, 1.3088, 1.3107,1.3262,0.32528935622966326
SingleSource/Benchmarks/Polybench/stencils/fdtd-2d/fdtd-2d, 0.4036, 0.4055, 0.4046, 0.4025, 0.4043,0.4043, 0.4071, 0.4044, 0.4043, 0.4056, 0.4085,0.4056,0.3215434083601254
MultiSource/Benchmarks/TSVC/GlobalDataFlow-flt/GlobalDataFlow-flt, 1.4973, 1.4926, 1.4868, 1.4994, 1.4963,1.4963, 1.5009, 1.4999, 1.4990, 1.5012, 1.5024,1.5009,0.30742498162132925
MultiSource/Benchmarks/sim/sim, 2.5951, 2.5974, 2.5970, 2.5984, 2.5978,2.5974, 2.6080, 2.6007, 2.6038, 2.6046, 2.6092,2.6046,0.2772002772002846
MultiSource/Benchmarks/Prolangs-C++/ocean/ocean, 0.0362, 0.0362, 0.0362, 0.0363, 0.0362,0.0362, 0.0365, 0.0363, 0.0363, 0.0362, 0.0362,0.0363,0.2762430939226457
SingleSource/Benchmarks/Polybench/linear-algebra/kernels/symm/symm,17.6997,17.6434,17.1881,17.3628,17.4134,17.4134,17.2948,17.1041,17.4613,17.5675,17.6627,17.4613,0.2750755165562335
SingleSource/Benchmarks/Polybench/datamining/covariance/covariance, 1.6325, 1.6438, 1.6435, 1.6502, 1.6376,1.6435, 1.6480, 1.6449, 1.6500, 1.6508, 1.6471,1.648,0.27380590203833766
SingleSource/Benchmarks/Shootout-C++/lists, 2.9675, 2.9788, 2.9739, 2.9646, 2.9744,2.9739, 2.9865, 2.9689, 2.9820, 2.9694, 2.9834,2.982,0.27236961565622053
MultiSource/Benchmarks/MiBench/telecomm-FFT/telecomm-fft, 0.0385, 0.0385, 0.0386, 0.0386, 0.0385,0.0385, 0.0386, 0.0386, 0.0385, 0.0385, 0.0386,0.0386,0.25974025974027093
MultiSource/Applications/SPASS/SPASS, 6.6920, 6.6883, 6.6940, 6.6843, 6.7089,6.692, 6.7069, 6.7283, 6.8078, 6.7040, 6.6882,6.7069,0.2226539151225282
SingleSource/Benchmarks/Linpack/linpack-pc, 1.2592, 1.2578, 1.2619, 1.2609, 1.2581,1.2592, 1.2651, 1.2613, 1.2580, 1.2620, 1.2622,1.262,0.22236340533672294
SingleSource/Benchmarks/Adobe-C++/loop_unroll, 1.8180, 1.8181, 1.8155, 1.8197, 1.8201,1.8181, 1.8220, 1.8225, 1.8143, 1.8240, 1.8182,1.822,0.2145096529343915
MultiSource/Benchmarks/TSVC/ControlFlow-flt/ControlFlow-flt, 3.5870, 3.6031, 3.6080, 3.6162, 3.6100,3.608, 3.6186, 3.6154, 3.5965, 3.5935, 3.6213,3.6154,0.20509977827050108
MultiSource/Benchmarks/TSVC/Expansion-flt/Expansion-flt, 1.1585, 1.1584, 1.1635, 1.1623, 1.1583,1.1585, 1.1608, 1.1661, 1.1572, 1.1595, 1.1637,1.1608,0.19853258523954143
MultiSource/Benchmarks/Fhourstones-3.1/fhourstones3.1, 0.8126, 0.8109, 0.8109, 0.8112, 0.8110,0.811, 0.8113, 0.8139, 0.8110, 0.8141, 0.8125,0.8125,0.18495684340320562
MultiSource/Benchmarks/DOE-ProxyApps-C/XSBench/XSBench, 2.4357, 2.4354, 2.4320, 2.4328, 2.4266,2.4328, 2.4372, 2.4370, 2.4409, 2.4286, 2.4431,2.4372,0.18086155869778686
SingleSource/Benchmarks/BenchmarkGame/puzzle, 0.1136, 0.1138, 0.1138, 0.1136, 0.1136,0.1136, 0.1138, 0.1139, 0.1138, 0.1136, 0.1139,0.1138,0.17605633802815213
SingleSource/Benchmarks/Shootout-C++/EH/except, 0.1205, 0.1201, 0.1202, 0.1209, 0.1205,0.1205, 0.1203, 0.1207, 0.1208, 0.1207, 0.1204,0.1207,0.16597510373443924
MultiSource/Benchmarks/TSVC/LoopRerolling-dbl/LoopRerolling-dbl, 4.5836, 4.5758, 4.5905, 4.5873, 4.5824,4.5836, 4.5850, 4.5862, 4.5912, 4.6055, 4.6004,4.5912,0.16580853477616841
SingleSource/Benchmarks/Misc-C++/bigfib, 0.1916, 0.1916, 0.1920, 0.1918, 0.1923,0.1918, 0.1927, 0.1921, 0.1920, 0.1923, 0.1921,0.1921,0.15641293013555213
MultiSource/Benchmarks/TSVC/IndirectAddressing-dbl/IndirectAddressing-dbl, 2.4756, 2.4751, 2.4741, 2.4910, 2.4926,2.4756, 2.4744, 2.4759, 2.4893, 2.4794, 2.4872,2.4794,0.1534981418646053
MultiSource/Benchmarks/TSVC/Symbolics-flt/Symbolics-flt, 1.3916, 1.3929, 1.3915, 1.3986, 1.3963,1.3929, 1.4032, 1.3950, 1.3891, 1.3918, 1.3978,1.395,0.15076459185872082
MultiSource/Benchmarks/McCat/18-imp/imp, 0.0676, 0.0677, 0.0676, 0.0678, 0.0676,0.0676, 0.0678, 0.0678, 0.0675, 0.0676, 0.0677,0.0677,0.14792899408284654
MultiSource/Applications/siod/siod, 1.1099, 1.1090, 1.1074, 1.1088, 1.1099,1.109, 1.1095, 1.1108, 1.1105, 1.1098, 1.1109,1.1105,0.13525698827774324
MultiSource/Applications/obsequi/Obsequi, 1.0727, 1.0716, 1.0717, 1.0717, 1.0716,1.0717, 1.0720, 1.0738, 1.0739, 1.0731, 1.0729,1.0731,0.1306335728282093
SingleSource/Benchmarks/Misc-C++/oopack_v1p8, 0.1617, 0.1616, 0.1618, 0.1619, 0.1617,0.1617, 0.1617, 0.1617, 0.1619, 0.1619, 0.1619,0.1619,0.12368583797153221
SingleSource/Benchmarks/Shootout-C++/matrix, 1.6994, 1.6994, 1.6993, 1.6993, 1.6994,1.6994, 1.7014, 1.7015, 1.7015, 1.7015, 1.7015,1.7015,0.12357302577379325
MultiSource/Benchmarks/McCat/17-bintr/bintr, 0.0807, 0.0814, 0.0805, 0.0828, 0.0810,0.081, 0.0802, 0.0814, 0.0811, 0.0816, 0.0807,0.0811,0.12345679012346622
MultiSource/Benchmarks/PAQ8p/paq8p,43.8365,43.8326,43.9132,43.8226,43.8846,43.8365,43.8592,43.8952,43.8808,43.8967,43.8616,43.8808,0.10105733806302641
MultiSource/Benchmarks/7zip/7zip-benchmark, 6.3293, 6.3369, 6.3301, 6.3252, 6.3296,6.3296, 6.3302, 6.3356, 6.3299, 6.3360, 6.3377,6.3356,0.09479271991912341
SingleSource/Benchmarks/Shootout-C++/ary3, 0.5417, 0.5431, 0.5356, 0.5339, 0.5351,0.5356, 0.5361, 0.5360, 0.5349, 0.5451, 0.5391,0.5361,0.09335324869306216
MultiSource/Benchmarks/MiBench/telecomm-gsm/telecomm-gsm, 0.1110, 0.1112, 0.1110, 0.1110, 0.1112,0.111, 0.1110, 0.1111, 0.1112, 0.1110, 0.1112,0.1111,0.09009009009008917
SingleSource/Benchmarks/CoyoteBench/lpbench, 1.8218, 1.8253, 1.8334, 1.8247, 1.8262,1.8253, 1.8283, 1.8262, 1.8233, 1.8269, 1.8299,1.8269,0.08765682353586435
MultiSource/Benchmarks/TSVC/InductionVariable-flt/InductionVariable-flt, 2.5527, 2.5629, 2.5578, 2.5506, 2.5540,2.554, 2.5549, 2.5598, 2.5533, 2.5607, 2.5562,2.5562,0.08613938919344033
SingleSource/Benchmarks/SmallPT/smallpt, 7.5908, 7.5909, 7.5890, 7.5934, 7.5923,7.5909, 7.5971, 7.5933, 7.6020, 7.6624, 7.5931,7.5971,0.08167674452304041
SingleSource/Benchmarks/Polybench/linear-algebra/kernels/mvt/mvt, 0.2430, 0.2466, 0.2461, 0.2471, 0.2417,0.2461, 0.2463, 0.2482, 0.2463, 0.2463, 0.2463,0.2463,0.0812677773262882
MultiSource/Benchmarks/Trimaran/netbench-crc/netbench-crc, 0.6208, 0.6209, 0.6211, 0.6209, 0.6209,0.6209, 0.6219, 0.6227, 0.6214, 0.6214, 0.6212,0.6214,0.08052826542115366
SingleSource/Benchmarks/Shootout/lists, 4.1167, 4.1178, 4.1159, 4.1160, 4.1164,4.1164, 4.1202, 4.1173, 4.1196, 4.1196, 4.1185,4.1196,0.0777378291711317
MultiSource/Benchmarks/tramp3d-v4/tramp3d-v4, 0.2643, 0.2645, 0.2640, 0.2640, 0.2642,0.2642, 0.2648, 0.2644, 0.2644, 0.2642, 0.2644,0.2644,0.07570022710068347
SingleSource/Benchmarks/Shootout-C++/hash2, 1.7362, 1.7346, 1.7364, 1.7367, 1.7341,1.7362, 1.7371, 1.7372, 1.7377, 1.7373, 1.7378,1.7373,0.06335675613409197
MultiSource/Benchmarks/Olden/tsp/tsp, 1.1802, 1.1811, 1.1802, 1.1804, 1.1807,1.1804, 1.1818, 1.1803, 1.1811, 1.1810, 1.1811,1.1811,0.05930193154863872
MultiSource/Benchmarks/nbench/nbench, 1.1888, 1.1898, 1.1892, 1.1919, 1.1889,1.1892, 1.1902, 1.1890, 1.1884, 1.1899, 1.1901,1.1899,0.058863101244521765
SingleSource/Benchmarks/Polybench/linear-algebra/kernels/atax/atax, 0.1705, 0.1705, 0.1706, 0.1705, 0.1705,0.1705, 0.1706, 0.1707, 0.1705, 0.1705, 0.1706,0.1706,0.05865102639295294
MultiSource/Benchmarks/FreeBench/fourinarow/fourinarow, 0.1772, 0.1772, 0.1772, 0.1774, 0.1772,0.1772, 0.1773, 0.1773, 0.1774, 0.1772, 0.1773,0.1773,0.056433408577882815
MultiSource/Benchmarks/Ptrdist/bc/bc, 0.3574, 0.3573, 0.3577, 0.3573, 0.3575,0.3574, 0.3577, 0.3576, 0.3574, 0.3576, 0.3575,0.3576,0.05595970900951208
MultiSource/Benchmarks/TSVC/ControlFlow-dbl/ControlFlow-dbl, 3.7946, 3.7971, 3.8108, 3.8009, 3.8004,3.8004, 3.8054, 3.8024, 3.8068, 3.7985, 3.7938,3.8024,0.05262603936428967
MultiSource/Benchmarks/ASC_Sequoia/IRSmk/IRSmk, 3.0001, 3.0079, 3.0140, 3.0160, 3.0017,3.0079, 3.0062, 3.0193, 3.0091, 2.9926, 3.0107,3.0091,0.039894943315954556
SingleSource/Benchmarks/Polybench/datamining/correlation/correlation, 1.6614, 1.6591, 1.6557, 1.6551, 1.6478,1.6557, 1.6595, 1.6469, 1.6562, 1.6555, 1.6615,1.6562,0.030198707495321386
MultiSource/Benchmarks/TSVC/ControlLoops-dbl/ControlLoops-dbl, 2.5296, 2.5289, 2.5360, 2.5307, 2.5293,2.5296, 2.5290, 2.5309, 2.5303, 2.5313, 2.5302,2.5303,0.027672359266284197
SingleSource/Benchmarks/Shootout-C++/fibo, 1.4751, 1.4733, 1.4739, 1.4736, 1.4735,1.4736, 1.4759, 1.4758, 1.4737, 1.4718, 1.4740,1.474,0.02714440825188902
SingleSource/Benchmarks/Polybench/linear-algebra/solvers/durbin/durbin, 0.4076, 0.3979, 0.4074, 0.3977, 0.3979,0.3979, 0.3976, 0.3985, 0.3980, 0.4078, 0.3979,0.398,0.025131942699174736
SingleSource/Benchmarks/Misc-C++/mandel-text, 1.6115, 1.6125, 1.6124, 1.6117, 1.6126,1.6124, 1.6128, 1.6138, 1.6130, 1.6124, 1.6128,1.6128,0.024807740014876067
SingleSource/Benchmarks/Adobe-C++/stepanov_vector, 2.2587, 2.2592, 2.2590, 2.2589, 2.2588,2.2589, 2.2590, 2.2587, 2.2598, 2.2594, 2.2594,2.2594,0.022134667315931722
SingleSource/Benchmarks/Shootout/fib2, 1.4728, 1.4726, 1.4738, 1.4729, 1.4732,1.4729, 1.4741, 1.4736, 1.4727, 1.4732, 1.4732,1.4732,0.02036798153302044
SingleSource/Benchmarks/Polybench/medley/floyd-warshall/floyd-warshall, 3.4404, 3.4419, 3.4333, 3.4400, 3.4428,3.4404, 3.4411, 3.4444, 3.4411, 3.4403, 3.4470,3.4411,0.02034647134054879
SingleSource/Benchmarks/Shootout/sieve, 3.4659, 3.4676, 3.4666, 3.4663, 3.4689,3.4666, 3.4668, 3.4692, 3.4678, 3.4666, 3.4673,3.4673,0.02019269601336582
MultiSource/Benchmarks/Ptrdist/yacr2/yacr2, 0.5117, 0.5115, 0.5117, 0.5114, 0.5116,0.5116, 0.5117, 0.5116, 0.5117, 0.5118, 0.5119,0.5117,0.01954652071931573
MultiSource/Benchmarks/TSVC/Searching-flt/Searching-flt, 2.4477, 2.4469, 2.4482, 2.4480, 2.4469,2.4477, 2.4455, 2.4483, 2.4487, 2.4474, 2.4481,2.4481,0.016341871961422783
SingleSource/Benchmarks/Polybench/stencils/seidel-2d/seidel-2d, 0.6474, 0.6473, 0.6473, 0.6473, 0.6473,0.6473, 0.6474, 0.6473, 0.6474, 0.6473, 0.6474,0.6474,0.01544878727020027
MultiSource/Benchmarks/VersaBench/beamformer/beamformer, 0.7499, 0.7496, 0.7497, 0.7497, 0.7498,0.7497, 0.7499, 0.7498, 0.7498, 0.7498, 0.7497,0.7498,0.013338668800844111
MultiSource/Benchmarks/TSVC/Packing-dbl/Packing-dbl, 2.3274, 2.2783, 2.2791, 2.2800, 2.3263,2.28, 2.3268, 2.2803, 2.2790, 2.2791, 2.3260,2.2803,0.013157894736859355
MultiSource/Benchmarks/MallocBench/cfrac/cfrac, 0.7722, 0.7716, 0.7716, 0.7719, 0.7716,0.7716, 0.7717, 0.7717, 0.7716, 0.7717, 0.7720,0.7717,0.012960082944535323
SingleSource/Benchmarks/McGill/queens, 1.5487, 1.5485, 1.5494, 1.5488, 1.5489,1.5488, 1.5490, 1.5488, 1.5487, 1.5492, 1.5492,1.549,0.012913223140498253
MultiSource/Benchmarks/TSVC/LinearDependence-flt/LinearDependence-flt, 5.1319, 5.1267, 5.1268, 5.1266, 5.1261,5.1267, 5.1313, 5.1278, 5.1273, 5.1270, 5.1261,5.1273,0.011703434958176828
SingleSource/Benchmarks/Misc/flops-2, 0.8627, 0.8627, 0.8628, 0.8627, 0.8628,0.8627, 0.8628, 0.8627, 0.8628, 0.8627, 0.8628,0.8628,0.011591515011000197
MultiSource/Benchmarks/TSVC/StatementReordering-flt/StatementReordering-flt, 1.8242, 1.8281, 1.8245, 1.8229, 1.8222,1.8242, 1.8276, 1.8232, 1.8227, 1.8277, 1.8244,1.8244,0.01096371011950481
MultiSource/Applications/hexxagon/hexxagon, 6.5798, 6.5793, 6.5797, 6.5804, 6.5791,6.5797, 6.5804, 6.5797, 6.5861, 6.5801, 6.5804,6.5804,0.010638782923244605
MultiSource/Benchmarks/Trimaran/enc-3des/enc-3des, 1.2778, 1.2773, 1.2773, 1.2772, 1.2776,1.2773, 1.2773, 1.2774, 1.2774, 1.2776, 1.2772,1.2774,0.007829014327098704
SingleSource/Benchmarks/Shootout/methcall, 3.2759, 3.2759, 3.2762, 3.2759, 3.2761,3.2759, 3.2762, 3.2760, 3.2763, 3.2760, 3.2761,3.2761,0.006105192466199227
MultiSource/Benchmarks/VersaBench/bmm/bmm, 1.6967, 1.6959, 1.6961, 1.6966, 1.6951,1.6961, 1.6964, 1.6963, 1.6950, 1.6962, 1.6961,1.6962,0.0058958787807261714
MultiSource/Benchmarks/TSVC/LinearDependence-dbl/LinearDependence-dbl, 5.8571, 5.8489, 5.8580, 5.8483, 5.8489,5.8489, 5.8496, 5.8490, 5.8480, 5.8580, 5.8492,5.8492,0.005129169587436699
MultiSource/Benchmarks/TSVC/Symbolics-dbl/Symbolics-dbl, 2.4425, 2.4569, 2.4417, 2.4423, 2.4415,2.4423, 2.4424, 2.4413, 2.4426, 2.4571, 2.4416,2.4424,0.004094501085050162
SingleSource/Benchmarks/Shootout-C++/methcall, 3.5509, 3.5508, 3.5459, 3.5459, 3.5459,3.5459, 3.5508, 3.5459, 3.5509, 3.5459, 3.5460,3.546,0.0028201584929110624
SingleSource/Benchmarks/Misc/flops-1, 3.6289, 3.6289, 3.6289, 3.6289, 3.6288,3.6289, 3.6290, 3.6290, 3.6290, 3.6289, 3.6290,3.629,0.0027556559839103656
SingleSource/Benchmarks/Adobe-C++/stepanov_abstraction, 4.2373, 4.2367, 4.2368, 4.2375, 4.2375,4.2373, 4.2377, 4.2377, 4.2374, 4.2368, 4.2373,4.2374,0.002359993392020421
MultiSource/Benchmarks/ASC_Sequoia/CrystalMk/CrystalMk, 6.6766, 6.6763, 6.6756, 6.6764, 6.6768,6.6764, 6.6768, 6.6765, 6.6766, 6.6763, 6.6764,6.6765,0.0014978131927412264
SingleSource/Regression/C/uint64_to_float, 0.2603, 0.2602, 0.2603, 0.2602, 0.2603,0.2603, 0.2621, 0.2603, 0.2603, 0.2603, 0.2603,0.2603,0.0
SingleSource/Regression/C/2004-08-12-InlinerAndAllocas, 0.0015, 0.0015, 0.0015, 0.0014, 0.0015,0.0015, 0.0015, 0.0015, 0.0013, 0.0015, 0.0015,0.0015,0.0
SingleSource/Benchmarks/Stanford/Treesort, 0.0548, 0.0547, 0.0547, 0.0547, 0.0548,0.0547, 0.0547, 0.0548, 0.0547, 0.0547, 0.0547,0.0547,0.0
SingleSource/Benchmarks/Stanford/Towers, 0.0082, 0.0082, 0.0082, 0.0082, 0.0082,0.0082, 0.0082, 0.0082, 0.0082, 0.0082, 0.0082,0.0082,0.0
SingleSource/Benchmarks/Stanford/RealMM, 0.0016, 0.0016, 0.0015, 0.0016, 0.0016,0.0016, 0.0016, 0.0016, 0.0014, 0.0015, 0.0016,0.0016,0.0
SingleSource/Benchmarks/Stanford/Quicksort, 0.0303, 0.0303, 0.0303, 0.0304, 0.0304,0.0303, 0.0303, 0.0304, 0.0304, 0.0303, 0.0303,0.0303,0.0
SingleSource/Benchmarks/Stanford/Puzzle, 0.0773, 0.0773, 0.0773, 0.0773, 0.0773,0.0773, 0.0774, 0.0773, 0.0773, 0.0773, 0.0774,0.0773,0.0
SingleSource/Benchmarks/Stanford/Perm, 0.0147, 0.0147, 0.0147, 0.0147, 0.0147,0.0147, 0.0147, 0.0146, 0.0147, 0.0147, 0.0147,0.0147,0.0
SingleSource/Benchmarks/Stanford/Oscar, 0.0034, 0.0034, 0.0034, 0.0034, 0.0032,0.0034, 0.0034, 0.0034, 0.0034, 0.0034, 0.0034,0.0034,0.0
SingleSource/Benchmarks/Stanford/FloatMM, 0.2021, 0.2022, 0.2022, 0.2019, 0.2021,0.2021, 0.2021, 0.2021, 0.2020, 0.2022, 0.2021,0.2021,0.0
SingleSource/Benchmarks/Stanford/Bubblesort, 0.0161, 0.0160, 0.0161, 0.0161, 0.0161,0.0161, 0.0160, 0.0161, 0.0160, 0.0161, 0.0162,0.0161,0.0
SingleSource/Benchmarks/Shootout/random, 1.7449, 1.7449, 1.7449, 1.7449, 1.7449,1.7449, 1.7449, 1.7449, 1.7448, 1.7449, 1.7449,1.7449,0.0
SingleSource/Benchmarks/Shootout/objinst, 0.0009, 0.0009, 0.0009, 0.0009, 0.0009,0.0009, 0.0009, 0.0009, 0.0009, 0.0009, 0.0009,0.0009,0.0
SingleSource/Benchmarks/Shootout/nestedloop, 0.0009, 0.0009, 0.0009, 0.0009, 0.0009,0.0009, 0.0009, 0.0009, 0.0009, 0.0009, 0.0009,0.0009,0.0
SingleSource/Benchmarks/Shootout/ackermann, 0.0035, 0.0035, 0.0035, 0.0035, 0.0035,0.0035, 0.0035, 0.0035, 0.0035, 0.0035, 0.0035,0.0035,0.0
SingleSource/Benchmarks/Shootout-C++/strcat, 0.0406, 0.0404, 0.0406, 0.0406, 0.0405,0.0406, 0.0406, 0.0407, 0.0405, 0.0406, 0.0406,0.0406,0.0
SingleSource/Benchmarks/Shootout-C++/random, 1.7450, 1.7449, 1.7450, 1.7450, 1.7450,1.745, 1.7450, 1.7450, 1.7449, 1.7450, 1.7450,1.745,0.0
SingleSource/Benchmarks/Shootout-C++/nestedloop, 0.0009, 0.0010, 0.0010, 0.0009, 0.0009,0.0009, 0.0009, 0.0009, 0.0009, 0.0009, 0.0009,0.0009,0.0
SingleSource/Benchmarks/Shootout-C++/ary2, 0.0150, 0.0150, 0.0150, 0.0151, 0.0151,0.015, 0.0151, 0.0150, 0.0150, 0.0151, 0.0150,0.015,0.0
SingleSource/Benchmarks/Shootout-C++/ackermann, 0.6574, 0.6573, 0.6573, 0.6573, 0.6573,0.6573, 0.6573, 0.6573, 0.6574, 0.6573, 0.6574,0.6573,0.0
SingleSource/Benchmarks/Polybench/stencils/jacobi-1d-imper/jacobi-1d-imper, 0.0037, 0.0038, 0.0037, 0.0036, 0.0037,0.0037, 0.0036, 0.0037, 0.0037, 0.0037, 0.0037,0.0037,0.0
SingleSource/Benchmarks/Polybench/medley/reg_detect/reg_detect, 0.0175, 0.0176, 0.0175, 0.0175, 0.0175,0.0175, 0.0175, 0.0175, 0.0175, 0.0175, 0.0175,0.0175,0.0
SingleSource/Benchmarks/Polybench/linear-algebra/solvers/lu/lu, 0.0023, 0.0023, 0.0023, 0.0023, 0.0023,0.0023, 0.0023, 0.0023, 0.0023, 0.0023, 0.0023,0.0023,0.0
SingleSource/Benchmarks/Polybench/linear-algebra/solvers/dynprog/dynprog, 0.2810, 0.2803, 0.2811, 0.2804, 0.2810,0.281, 0.2806, 0.2815, 0.2804, 0.2810, 0.2813,0.281,0.0
SingleSource/Benchmarks/Polybench/linear-algebra/kernels/trisolv/trisolv, 0.1738, 0.1737, 0.1737, 0.1738, 0.1737,0.1737, 0.1736, 0.1737, 0.1737, 0.1737, 0.1737,0.1737,0.0
SingleSource/Benchmarks/Polybench/linear-algebra/kernels/gesummv/gesummv, 0.3065, 0.3065, 0.3067, 0.3066, 0.3064,0.3065, 0.3065, 0.3017, 0.3065, 0.3065, 0.3017,0.3065,0.0
SingleSource/Benchmarks/Polybench/linear-algebra/kernels/bicg/bicg, 0.2127, 0.2129, 0.2127, 0.2129, 0.2128,0.2128, 0.2128, 0.2127, 0.2128, 0.2128, 0.2129,0.2128,0.0
SingleSource/Benchmarks/Misc/pi, 0.6944, 0.6943, 0.6943, 0.6943, 0.6943,0.6943, 0.6943, 0.6944, 0.6943, 0.6943, 0.6943,0.6943,0.0
SingleSource/Benchmarks/Misc/perlin, 3.8540, 3.8545, 3.8539, 3.8537, 3.8533,3.8539, 3.8536, 3.8539, 3.8542, 3.8541, 3.8534,3.8539,0.0
SingleSource/Benchmarks/Misc/matmul_f64_4x4, 1.2953, 1.2953, 1.2953, 1.2951, 1.2951,1.2953, 1.2953, 1.2953, 1.2953, 1.2953, 1.2951,1.2953,0.0
SingleSource/Benchmarks/Misc/fp-convert, 3.0626, 3.0626, 3.0626, 3.0626, 3.0626,3.0626, 3.0627, 3.0626, 3.0626, 3.0626, 3.0626,3.0626,0.0
SingleSource/Benchmarks/Misc/flops-7, 1.5902, 1.5901, 1.5902, 1.5901, 1.5901,1.5901, 1.5901, 1.5901, 1.5902, 1.5901, 1.5902,1.5901,0.0
SingleSource/Benchmarks/Misc/flops-6, 3.1817, 3.1818, 3.1818, 3.1818, 3.1818,3.1818, 3.1818, 3.1816, 3.1817, 3.1819, 3.1818,3.1818,0.0
SingleSource/Benchmarks/Misc/flops-5, 4.3251, 4.2775, 4.2776, 4.3250, 4.3250,4.325, 4.2776, 4.3250, 4.3250, 4.3250, 4.3251,4.325,0.0
SingleSource/Benchmarks/Misc/flops-3, 5.5082, 5.5081, 5.5082, 5.5081, 5.5081,5.5081, 5.5082, 5.5082, 5.5081, 5.5081, 5.5080,5.5081,0.0
SingleSource/Benchmarks/Misc/fbench, 1.7523, 1.7523, 1.7523, 1.7523, 1.7523,1.7523, 1.7523, 1.7523, 1.7523, 1.7523, 1.7524,1.7523,0.0
SingleSource/Benchmarks/Misc/dt, 0.6919, 0.6919, 0.6919, 0.6919, 0.6919,0.6919, 0.6919, 0.6919, 0.6919, 0.6919, 0.6920,0.6919,0.0
SingleSource/Benchmarks/McGill/misr, 0.1012, 0.1012, 0.1012, 0.1012, 0.1012,0.1012, 0.1012, 0.1012, 0.1012, 0.1012, 0.1012,0.1012,0.0
SingleSource/Benchmarks/Dhrystone/fldry, 0.3655, 0.3655, 0.3655, 0.3658, 0.3655,0.3655, 0.3655, 0.3655, 0.3655, 0.3655, 0.3655,0.3655,0.0
SingleSource/Benchmarks/Dhrystone/dry, 0.3351, 0.3351, 0.3351, 0.3351, 0.3351,0.3351, 0.3351, 0.3351, 0.3351, 0.3351, 0.3351,0.3351,0.0
SingleSource/Benchmarks/BenchmarkGame/spectral-norm, 0.9733, 0.9733, 0.9733, 0.9734, 0.9733,0.9733, 0.9732, 0.9733, 0.9733, 0.9732, 0.9733,0.9733,0.0
SingleSource/Benchmarks/BenchmarkGame/partialsums, 0.5687, 0.5687, 0.5687, 0.5687, 0.5687,0.5687, 0.5692, 0.5687, 0.5687, 0.5687, 0.5688,0.5687,0.0
SingleSource/Benchmarks/BenchmarkGame/n-body, 1.3718, 1.3717, 1.3718, 1.3718, 1.3718,1.3718, 1.3717, 1.3718, 1.3718, 1.3718, 1.3718,1.3718,0.0
SingleSource/Benchmarks/Adobe-C++/simple_types_constant_folding, 0.6691, 0.6691, 0.6691, 0.6692, 0.6691,0.6691, 0.6691, 0.6690, 0.6692, 0.6691, 0.6692,0.6691,0.0
MultiSource/Benchmarks/mediabench/mpeg2/mpeg2dec/mpeg2decode, 0.0154, 0.0155, 0.0154, 0.0154, 0.0155,0.0154, 0.0156, 0.0153, 0.0153, 0.0155, 0.0154,0.0154,0.0
MultiSource/Benchmarks/mediabench/g721/g721encode/encode, 0.0291, 0.0291, 0.0290, 0.0290, 0.0291,0.0291, 0.0292, 0.0291, 0.0290, 0.0290, 0.0291,0.0291,0.0
MultiSource/Benchmarks/mediabench/adpcm/rawdaudio/rawdaudio, 0.0018, 0.0018, 0.0018, 0.0018, 0.0017,0.0018, 0.0018, 0.0018, 0.0018, 0.0018, 0.0016,0.0018,0.0
MultiSource/Benchmarks/mediabench/adpcm/rawcaudio/rawcaudio, 0.0029, 0.0028, 0.0029, 0.0028, 0.0030,0.0029, 0.0029, 0.0029, 0.0029, 0.0029, 0.0029,0.0029,0.0
MultiSource/Benchmarks/VersaBench/ecbdes/ecbdes, 1.6924, 1.6923, 1.6923, 1.6923, 1.6923,1.6923, 1.6924, 1.6923, 1.6923, 1.6923, 1.6924,1.6923,0.0
MultiSource/Benchmarks/Trimaran/netbench-url/netbench-url, 2.9791, 2.9795, 2.9789, 2.9790, 2.9789,2.979, 2.9789, 2.9790, 2.9790, 2.9794, 2.9793,2.979,0.0
MultiSource/Benchmarks/Trimaran/enc-pc1/enc-pc1, 0.3533, 0.3534, 0.3533, 0.3534, 0.3533,0.3533, 0.3534, 0.3534, 0.3532, 0.3532, 0.3533,0.3533,0.0
MultiSource/Benchmarks/Trimaran/enc-md5/enc-md5, 1.3929, 1.3929, 1.3929, 1.3929, 1.3929,1.3929, 1.3929, 1.3929, 1.3930, 1.3930, 1.3929,1.3929,0.0
MultiSource/Benchmarks/TSVC/Reductions-flt/Reductions-flt, 5.9694, 5.9694, 5.9694, 5.9695, 5.9694,5.9694, 5.9694, 5.9694, 5.9695, 5.9694, 5.9694,5.9694,0.0
MultiSource/Benchmarks/TSVC/Reductions-dbl/Reductions-dbl, 3.4766, 3.4766, 3.4765, 3.4765, 3.4765,3.4765, 3.4766, 3.4763, 3.4765, 3.4765, 3.4765,3.4765,0.0
MultiSource/Benchmarks/TSVC/Recurrences-dbl/Recurrences-dbl, 3.5012, 3.5012, 3.5012, 3.5012, 3.5011,3.5012, 3.5012, 3.5012, 3.5012, 3.5012, 3.5012,3.5012,0.0
MultiSource/Benchmarks/Prolangs-C++/simul/simul, 0.0040, 0.0040, 0.0040, 0.0040, 0.0039,0.004, 0.0040, 0.0040, 0.0040, 0.0040, 0.0040,0.004,0.0
MultiSource/Benchmarks/Prolangs-C++/city/city, 0.0051, 0.0051, 0.0051, 0.0051, 0.0051,0.0051, 0.0051, 0.0051, 0.0051, 0.0051, 0.0051,0.0051,0.0
MultiSource/Benchmarks/Olden/treeadd/treeadd, 0.1272, 0.1269, 0.1270, 0.1269, 0.1271,0.127, 0.1276, 0.1271, 0.1269, 0.1270, 0.1270,0.127,0.0
MultiSource/Benchmarks/Olden/power/power, 1.0749, 1.0749, 1.0749, 1.0750, 1.0750,1.0749, 1.0749, 1.0750, 1.0749, 1.0749, 1.0750,1.0749,0.0
MultiSource/Benchmarks/Olden/perimeter/perimeter, 0.1230, 0.1231, 0.1226, 0.1227, 0.1231,0.123, 0.1237, 0.1229, 0.1230, 0.1230, 0.1231,0.123,0.0
MultiSource/Benchmarks/Olden/em3d/em3d, 1.7042, 1.7038, 1.7042, 1.7044, 1.7043,1.7042, 1.7042, 1.7042, 1.7046, 1.7042, 1.7044,1.7042,0.0
MultiSource/Benchmarks/MiBench/network-patricia/network-patricia, 0.0708, 0.0709, 0.0708, 0.0708, 0.0708,0.0708, 0.0847, 0.0707, 0.0708, 0.0708, 0.0709,0.0708,0.0
MultiSource/Benchmarks/MiBench/network-dijkstra/network-dijkstra, 0.0249, 0.0250, 0.0249, 0.0249, 0.0250,0.0249, 0.0250, 0.0250, 0.0249, 0.0249, 0.0249,0.0249,0.0
MultiSource/Benchmarks/MiBench/consumer-lame/consumer-lame, 0.1238, 0.1186, 0.1184, 0.1183, 0.1186,0.1186, 0.1270, 0.1187, 0.1185, 0.1183, 0.1186,0.1186,0.0
MultiSource/Benchmarks/MiBench/automotive-basicmath/automotive-basicmath, 0.2225, 0.2226, 0.2225, 0.2227, 0.2227,0.2226, 0.2225, 0.2227, 0.2226, 0.2226, 0.2225,0.2226,0.0
MultiSource/Benchmarks/McCat/08-main/main, 0.0429, 0.0429, 0.0429, 0.0429, 0.0430,0.0429, 0.0429, 0.0429, 0.0429, 0.0429, 0.0429,0.0429,0.0
MultiSource/Benchmarks/McCat/05-eks/eks, 0.0036, 0.0036, 0.0036, 0.0036, 0.0036,0.0036, 0.0036, 0.0036, 0.0036, 0.0036, 0.0036,0.0036,0.0
MultiSource/Benchmarks/McCat/04-bisect/bisect, 0.0789, 0.0789, 0.0790, 0.0790, 0.0789,0.0789, 0.0790, 0.0790, 0.0789, 0.0789, 0.0789,0.0789,0.0
MultiSource/Benchmarks/FreeBench/pifft/pifft, 0.0644, 0.0644, 0.0645, 0.0645, 0.0643,0.0644, 0.0644, 0.0643, 0.0647, 0.0643, 0.0645,0.0644,0.0
MultiSource/Benchmarks/FreeBench/pcompress2/pcompress2, 0.1032, 0.1033, 0.1033, 0.1030, 0.1032,0.1032, 0.1032, 0.1030, 0.1031, 0.1032, 0.1032,0.1032,0.0
MultiSource/Benchmarks/FreeBench/distray/distray, 0.1382, 0.1381, 0.1382, 0.1381, 0.1381,0.1381, 0.1382, 0.1382, 0.1381, 0.1381, 0.1381,0.1381,0.0
MultiSource/Benchmarks/FreeBench/analyzer/analyzer, 0.0400, 0.0402, 0.0400, 0.0396, 0.0399,0.04, 0.0409, 0.0396, 0.0399, 0.0402, 0.0400,0.04,0.0
MultiSource/Benchmarks/BitBench/uudecode/uudecode, 0.0598, 0.0599, 0.0596, 0.0597, 0.0599,0.0598, 0.0598, 0.0598, 0.0598, 0.0598, 0.0598,0.0598,0.0
MultiSource/Applications/sgefa/sgefa, 0.1154, 0.1153, 0.1154, 0.1154, 0.1155,0.1154, 0.1154, 0.1153, 0.1153, 0.1155, 0.1154,0.1154,0.0
MultiSource/Applications/hbd/hbd, 0.0019, 0.0019, 0.0018, 0.0019, 0.0018,0.0019, 0.0019, 0.0017, 0.0018, 0.0019, 0.0019,0.0019,0.0
MultiSource/Applications/d/make_dparser, 0.0160, 0.0159, 0.0159, 0.0161, 0.0160,0.016, 0.0159, 0.0161, 0.0160, 0.0161, 0.0160,0.016,0.0
MultiSource/Applications/ALAC/decode/alacconvert-decode, 0.0131, 0.0131, 0.0132, 0.0132, 0.0132,0.0132, 0.0132, 0.0132, 0.0132, 0.0131, 0.0132,0.0132,0.0
SingleSource/Benchmarks/Misc-C++/stepanov_v1p2, 7.9035, 7.9033, 7.9034, 7.9034, 7.9033,7.9034, 7.9034, 7.9032, 7.9033, 7.9033, 7.9035,7.9033,-0.0012652782346966873
MultiSource/Benchmarks/TSVC/Recurrences-flt/Recurrences-flt, 3.5009, 3.5009, 3.5008, 3.5009, 3.5008,3.5009, 3.5009, 3.5008, 3.5009, 3.5008, 3.5008,3.5008,-0.0028564083521476213
MultiSource/Benchmarks/TSVC/NodeSplitting-flt/NodeSplitting-flt, 4.6414, 4.6443, 4.6402, 4.6426, 4.6439,4.6426, 4.6424, 4.6408, 4.6412, 4.6429, 4.6426,4.6424,-0.004307930900782075
MultiSource/Benchmarks/TSVC/Searching-dbl/Searching-dbl, 2.2883, 2.2883, 2.2888, 2.2886, 2.2886,2.2886, 2.2886, 2.2882, 2.2885, 2.2887, 2.2883,2.2885,-0.004369483527055795
SingleSource/Benchmarks/Adobe-C++/simple_types_loop_invariant, 1.6064, 1.6068, 1.6069, 1.6067, 1.6068,1.6068, 1.6065, 1.6075, 1.6069, 1.6067, 1.6061,1.6067,-0.00622354991286489
MultiSource/Benchmarks/TSVC/InductionVariable-dbl/InductionVariable-dbl, 3.0500, 3.0518, 3.0289, 3.0320, 3.0318,3.032, 3.0318, 3.0472, 3.0314, 3.0490, 3.0315,3.0318,-0.0065963060685958474
SingleSource/Benchmarks/Polybench/linear-algebra/kernels/syrk/syrk, 4.4131, 4.4128, 4.4139, 4.4135, 4.4136,4.4135, 4.4131, 4.4139, 4.4139, 4.4130, 4.4132,4.4132,-0.006797326384955227
SingleSource/Benchmarks/Polybench/linear-algebra/kernels/syr2k/syr2k, 8.7803, 8.7825, 8.7804, 8.7793, 8.7820,8.7804, 8.7819, 8.7820, 8.7796, 8.7787, 8.7798,8.7798,-0.006833401667349914
MultiSource/Benchmarks/mafft/pairlocalalign,24.8711,24.8260,24.8263,24.8274,24.8269,24.8269,24.8259,24.8245,24.8259,24.8252,24.8246,24.8252,-0.0068474114770622485
MultiSource/Benchmarks/TSVC/GlobalDataFlow-dbl/GlobalDataFlow-dbl, 2.8511, 2.8382, 2.8393, 2.8406, 2.8514,2.8406, 2.8388, 2.8404, 2.8524, 2.8383, 2.8535,2.8404,-0.007040766035348867
SingleSource/Benchmarks/Misc/mandel-2, 1.2781, 1.2781, 1.2780, 1.2781, 1.2780,1.2781, 1.2780, 1.2780, 1.2780, 1.2780, 1.2781,1.278,-0.007824113919097098
SingleSource/Benchmarks/Shootout/matrix, 1.0906, 1.0908, 1.0906, 1.0906, 1.0906,1.0906, 1.0905, 1.0905, 1.0906, 1.0904, 1.0904,1.0905,-0.009169264624975249
SingleSource/Benchmarks/Misc/whetstone, 1.0251, 1.0251, 1.0200, 1.0202, 1.0278,1.0251, 1.0200, 1.0278, 1.0202, 1.0250, 1.0277,1.025,-0.009755145839429602
SingleSource/Benchmarks/Adobe-C++/functionobjects, 2.9983, 2.9980, 2.9992, 2.9998, 2.9985,2.9985, 2.9995, 2.9986, 2.9975, 2.9982, 2.9965,2.9982,-0.010005002501245475
SingleSource/Benchmarks/BenchmarkGame/fannkuch, 1.8618, 1.8631, 1.8636, 1.8626, 1.8628,1.8628, 1.8635, 1.8626, 1.8625, 1.8622, 1.8631,1.8626,-0.01073652566029315
SingleSource/Benchmarks/Misc/mandel, 0.8338, 0.8337, 0.8338, 0.8337, 0.8338,0.8338, 0.8337, 0.8338, 0.8337, 0.8338, 0.8337,0.8337,-0.011993283761091433
SingleSource/Benchmarks/Misc/ReedSolomon, 3.1254, 3.1257, 3.1252, 3.1283, 3.1278,3.1257, 3.1271, 3.1249, 3.1259, 3.1253, 3.1251,3.1253,-0.012797133442110642
MultiSource/Benchmarks/Ptrdist/anagram/anagram, 0.6656, 0.6658, 0.6657, 0.6659, 0.6658,0.6658, 0.6660, 0.6656, 0.6656, 0.6657, 0.6657,0.6657,-0.015019525382997667
SingleSource/Benchmarks/Misc-C++/Large/sphereflake, 6.2819, 6.2818, 6.2819, 6.2820, 6.2815,6.2819, 6.2808, 6.2806, 6.2805, 6.2804, 6.2804,6.2805,-0.022286250975023236
SingleSource/Benchmarks/Shootout-C++/heapsort, 2.0369, 2.0464, 2.0376, 2.0351, 2.0374,2.0374, 2.0370, 2.0369, 2.0362, 2.0343, 2.0378,2.0369,-0.024541081770868
SingleSource/Benchmarks/Polybench/stencils/adi/adi, 2.7996, 2.7998, 2.7988, 2.7999, 2.7994,2.7996, 2.7982, 2.7997, 2.8001, 2.7989, 2.7988,2.7989,-0.02500357193884195
SingleSource/Benchmarks/CoyoteBench/almabench,12.6502,12.6508,12.6485,12.6491,12.6496,12.6496,12.6464,12.6460,12.6464,12.6464,12.6468,12.6464,-0.02529724260055266
MultiSource/Benchmarks/TSVC/CrossingThresholds-dbl/CrossingThresholds-dbl, 2.1480, 2.1724, 2.1495, 2.1495, 2.1498,2.1495, 2.1489, 2.1722, 2.1480, 2.1494, 2.1481,2.1489,-0.027913468248452755
SingleSource/Benchmarks/CoyoteBench/huffbench, 9.2888, 9.2868, 9.2872, 9.2917, 9.2912,9.2888, 9.2836, 9.2852, 9.2862, 9.2863, 9.2876,9.2862,-0.02799069847559954
MultiSource/Benchmarks/TSVC/IndirectAddressing-flt/IndirectAddressing-flt, 2.3029, 2.3036, 2.3016, 2.3036, 2.3052,2.3036, 2.3021, 2.3013, 2.3029, 2.3044, 2.3059,2.3029,-0.030387220003458282
SingleSource/Benchmarks/BenchmarkGame/Large/fasta, 0.6498, 0.6492, 0.6491, 0.6492, 0.6495,0.6492, 0.6489, 0.6490, 0.6493, 0.6494, 0.6489,0.649,-0.030807147258160583
MultiSource/Benchmarks/Ptrdist/ks/ks, 0.6200, 0.6169, 0.6182, 0.6173, 0.6203,0.6182, 0.6180, 0.6177, 0.6184, 0.6175, 0.6190,0.618,-0.03235198964736119
MultiSource/Benchmarks/MallocBench/espresso/espresso, 0.3079, 0.3075, 0.3077, 0.3077, 0.3075,0.3077, 0.3080, 0.3076, 0.3074, 0.3074, 0.3077,0.3076,-0.03249918752030734
MultiSource/Benchmarks/TSVC/Equivalencing-dbl/Equivalencing-dbl, 1.3816, 1.3804, 1.3804, 1.3809, 1.3856,1.3809, 1.3867, 1.3799, 1.3820, 1.3786, 1.3803,1.3803,-0.04344992396262404
MultiSource/Benchmarks/BitBench/five11/five11, 1.1186, 1.1156, 1.1171, 1.1188, 1.1163,1.1171, 1.1223, 1.1160, 1.1165, 1.1152, 1.1167,1.1165,-0.05371050040282599
MultiSource/Benchmarks/NPB-serial/is/is, 5.1791, 5.1800, 5.1824, 5.1863, 5.1827,5.1824, 5.1837, 5.1851, 5.1795, 5.1785, 5.1775,5.1795,-0.05595862920655392
SingleSource/Benchmarks/Misc/richards_benchmark, 0.5320, 0.5319, 0.5317, 0.5316, 0.5311,0.5317, 0.5318, 0.5314, 0.5312, 0.5313, 0.5314,0.5314,-0.05642279480909673
MultiSource/Applications/lambda-0.1.3/lambda, 2.5853, 2.5821, 2.5790, 2.5846, 2.5812,2.5821, 2.5806, 2.5784, 2.5797, 2.5809, 2.5813,2.5806,-0.058092250493790853
MultiSource/Benchmarks/FreeBench/neural/neural, 0.1648, 0.1648, 0.1647, 0.1649, 0.1647,0.1648, 0.1647, 0.1647, 0.1649, 0.1647, 0.1647,0.1647,-0.060679611650482634
SingleSource/Benchmarks/Misc/oourafft, 6.1772, 6.0850, 6.0807, 6.0807, 6.0852,6.085, 6.0807, 6.1586, 6.0810, 6.0808, 6.0810,6.081,-0.06573541495480395
MultiSource/Benchmarks/VersaBench/dbms/dbms, 0.8959, 0.9051, 0.9152, 0.9074, 0.8923,0.9051, 0.9080, 0.8966, 0.9045, 0.8983, 0.9076,0.9045,-0.06629101756712164
MultiSource/Benchmarks/Olden/health/health, 0.1455, 0.1457, 0.1456, 0.1455, 0.1456,0.1456, 0.1457, 0.1456, 0.1453, 0.1455, 0.1453,0.1455,-0.06868131868132954
MultiSource/Benchmarks/VersaBench/8b10b/8b10b, 3.6128, 3.5862, 3.5948, 3.5867, 3.5940,3.594, 3.5913, 3.5918, 3.5913, 3.5870, 3.6007,3.5913,-0.07512520868113715
SingleSource/Benchmarks/Misc-C++/stepanov_container, 2.9396, 2.8998, 3.0950, 3.0665, 3.0661,3.0661, 3.0925, 2.9889, 3.0636, 3.0902, 3.0630,3.0636,-0.08153680571409971
SingleSource/Benchmarks/Shootout/strcat, 0.1051, 0.1053, 0.1052, 0.1053, 0.1053,0.1053, 0.1053, 0.1052, 0.1050, 0.1052, 0.1051,0.1052,-0.09496676163343043
MultiSource/Applications/lua/lua,11.5878,11.5789,11.6215,11.6218,11.6136,11.6136,11.5786,11.6004,11.6014,11.6050,11.6105,11.6014,-0.10504925260039766
MultiSource/Benchmarks/BitBench/drop3/drop3, 0.1890, 0.1840, 0.1869, 0.1880, 0.1918,0.188, 0.1864, 0.1920, 0.1900, 0.1809, 0.1878,0.1878,-0.10638297872340718
MultiSource/Benchmarks/ASCI_Purple/SMG2000/smg2000, 1.1761, 1.1821, 1.1850, 1.1772, 1.1745,1.1772, 1.1773, 1.1840, 1.1752, 1.1759, 1.1741,1.1759,-0.1104315324498839
SingleSource/Benchmarks/BenchmarkGame/recursive, 0.7054, 0.7044, 0.7122, 0.7043, 0.7155,0.7054, 0.7074, 0.7045, 0.7044, 0.7046, 0.7119,0.7046,-0.11341083073433955
MultiSource/Benchmarks/McCat/09-vor/vor, 0.0840, 0.0842, 0.0841, 0.0843, 0.0840,0.0841, 0.0841, 0.0840, 0.0839, 0.0838, 0.0843,0.084,-0.11890606420925653
MultiSource/Benchmarks/TSVC/Expansion-dbl/Expansion-dbl, 1.9840, 1.9615, 1.9616, 1.9646, 1.9637,1.9637, 1.9651, 1.9613, 1.9608, 1.9821, 1.9610,1.9613,-0.1222182614452283
SingleSource/Benchmarks/Misc/flops,10.6546,10.6551,10.6751,10.6558,10.6425,10.6551,10.6142,10.6393,10.6430,10.6964,10.6415,10.6415,-0.12763840789855596
SingleSource/Benchmarks/Misc-C++/Large/ray, 3.1382, 3.1382, 3.1382, 3.1382, 3.1381,3.1382, 3.1341, 3.1340, 3.1341, 3.1342, 3.1340,3.1341,-0.13064814224713617
MultiSource/Benchmarks/TSVC/LoopRerolling-flt/LoopRerolling-flt, 3.8184, 3.8257, 3.8259, 3.8223, 3.8268,3.8257, 3.8170, 3.8209, 3.8206, 3.8207, 3.8260,3.8207,-0.13069503620252165
MultiSource/Benchmarks/Olden/bisort/bisort, 0.3707, 0.3708, 0.3693, 0.3697, 0.3691,0.3697, 0.3689, 0.3692, 0.3707, 0.3708, 0.3684,0.3692,-0.1352447930754619
MultiSource/Benchmarks/TSVC/Equivalencing-flt/Equivalencing-flt, 0.9700, 0.9674, 0.9656, 0.9696, 0.9677,0.9677, 0.9680, 0.9676, 0.9654, 0.9656, 0.9663,0.9663,-0.14467293582721696
MultiSource/Benchmarks/TSVC/NodeSplitting-dbl/NodeSplitting-dbl, 5.0266, 5.0244, 5.0275, 5.0261, 5.0245,5.0261, 5.0258, 5.0187, 5.0288, 5.0152, 5.0171,5.0187,-0.14723145182148345
MultiSource/Benchmarks/ASC_Sequoia/AMGmk/AMGmk, 5.0533, 5.0450, 5.0407, 5.0316, 5.0535,5.045, 5.0368, 5.0384, 5.0370, 5.0476, 5.0374,5.0374,-0.15064420218037222
SingleSource/Benchmarks/Polybench/linear-algebra/kernels/gemver/gemver, 0.3244, 0.3283, 0.3239, 0.3185, 0.3238,0.3239, 0.3235, 0.3235, 0.3234, 0.3234, 0.3188,0.3234,-0.15436863229392195
MultiSource/Benchmarks/SciMark2-C/scimark2,43.2835,43.2823,43.2817,43.0778,43.2831,43.2823,43.1346,43.0299,43.2522,43.2804,43.2122,43.2122,-0.1619599697797902
MultiSource/Applications/SIBsim4/SIBsim4, 2.1035, 2.0819, 2.0903, 2.1239, 2.1303,2.1035, 2.0963, 2.1379, 2.0998, 2.1153, 2.0858,2.0998,-0.1758973140004616
MultiSource/Benchmarks/TSVC/LoopRestructuring-dbl/LoopRestructuring-dbl, 3.5771, 3.6511, 3.5770, 3.6420, 3.5858,3.5858, 3.5894, 3.5734, 3.6394, 3.5793, 3.5750,3.5793,-0.18127056723743484
MultiSource/Benchmarks/TSVC/StatementReordering-dbl/StatementReordering-dbl, 2.2409, 2.2336, 2.2311, 2.2431, 2.2406,2.2406, 2.2382, 2.2342, 2.2406, 2.2362, 2.2333,2.2362,-0.1963759707221291
SingleSource/Benchmarks/Shootout-C++/moments, 0.0506, 0.0504, 0.0506, 0.0506, 0.0505,0.0506, 0.0504, 0.0505, 0.0506, 0.0506, 0.0505,0.0505,-0.19762845849801147
SingleSource/Benchmarks/McGill/chomp, 1.2778, 1.3048, 1.2792, 1.2801, 1.3084,1.2801, 1.2775, 1.2793, 1.2188, 1.2773, 1.3058,1.2775,-0.20310913209905523
SingleSource/Benchmarks/Misc/salsa20, 4.8286, 4.8286, 4.8284, 4.8173, 4.8171,4.8284, 4.8172, 4.8172, 4.8173, 4.8285, 4.8177,4.8173,-0.2298898185734366
MultiSource/Benchmarks/FreeBench/mason/mason, 0.1300, 0.1300, 0.1301, 0.1299, 0.1299,0.13, 0.1296, 0.1298, 0.1297, 0.1297, 0.1298,0.1297,-0.2307692307692233
MultiSource/Applications/JM/ldecod/ldecod, 0.0416, 0.0453, 0.0461, 0.0395, 0.0429,0.0429, 0.0458, 0.0428, 0.0403, 0.0388, 0.0475,0.0428,-0.2331002331002363
MultiSource/Benchmarks/Olden/voronoi/voronoi, 0.2113, 0.2105, 0.2104, 0.2109, 0.2106,0.2106, 0.2113, 0.2101, 0.2102, 0.2099, 0.2101,0.2101,-0.23741690408357607
MultiSource/Applications/viterbi/viterbi, 1.2841, 1.2858, 1.2836, 1.2876, 1.2838,1.2841, 1.2808, 1.2810, 1.2799, 1.2810, 1.2817,1.281,-0.2414142200763303
MultiSource/Benchmarks/McCat/01-qbsort/qbsort, 0.0395, 0.0395, 0.0395, 0.0395, 0.0395,0.0395, 0.0394, 0.0395, 0.0393, 0.0394, 0.0396,0.0394,-0.25316455696203777
MultiSource/Applications/JM/lencod/lencod, 3.1720, 3.1819, 3.1735, 3.1805, 3.1839,3.1805, 3.1719, 3.1714, 3.1716, 3.1651, 3.1819,3.1716,-0.27983021537493213
SingleSource/Benchmarks/CoyoteBench/fftbench, 0.6315, 0.6376, 0.6340, 0.6450, 0.6340,0.634, 0.6556, 0.6320, 0.6306, 0.6306, 0.6340,0.632,-0.3154574132492094
SingleSource/Benchmarks/Polybench/linear-algebra/kernels/cholesky/cholesky, 0.5676, 0.5697, 0.5731, 0.5719, 0.5652,0.5697, 0.5716, 0.5672, 0.5678, 0.5653, 0.5695,0.5678,-0.33350886431455784
SingleSource/Benchmarks/Polybench/stencils/jacobi-2d-imper/jacobi-2d-imper, 0.1433, 0.1441, 0.1460, 0.1448, 0.1437,0.1441, 0.1438, 0.1425, 0.1435, 0.1442, 0.1436,0.1436,-0.346981263011803
SingleSource/Benchmarks/Misc/ffbench, 0.5810, 0.5879, 0.5864, 0.5785, 0.5868,0.5864, 0.5795, 0.5861, 0.5868, 0.5838, 0.5797,0.5838,-0.4433833560709477
MultiSource/Benchmarks/TSVC/Packing-flt/Packing-flt, 2.0887, 2.1024, 2.0887, 2.1251, 2.1156,2.1024, 2.0806, 2.0924, 2.0775, 2.1048, 2.1030,2.0924,-0.4756468797564639
MultiSource/Benchmarks/Prolangs-C++/life/life, 0.7085, 0.7090, 0.7080, 0.7078, 0.7086,0.7085, 0.7049, 0.7057, 0.7058, 0.7043, 0.7047,0.7049,-0.5081157374735468
MultiSource/Benchmarks/TSVC/CrossingThresholds-flt/CrossingThresholds-flt, 1.6320, 1.6155, 1.6389, 1.6345, 1.6194,1.632, 1.6127, 1.6158, 1.6246, 1.6231, 1.6359,1.6231,-0.5453431372548945
SingleSource/Benchmarks/Polybench/linear-algebra/kernels/trmm/trmm, 2.2413, 2.3631, 2.3649, 2.3617, 2.3481,2.3617, 2.3523, 2.3487, 2.2500, 2.2334, 2.3652,2.3487,-0.5504509463521989
SingleSource/Benchmarks/Shootout/heapsort, 2.0329, 2.0195, 2.0209, 2.0374, 2.0366,2.0329, 2.0206, 2.0196, 2.0200, 2.0257, 2.0355,2.0206,-0.6050469772246658
SingleSource/Benchmarks/BenchmarkGame/nsieve-bits, 0.4886, 0.4906, 0.4899, 0.4988, 0.4872,0.4899, 0.4932, 0.4849, 0.4890, 0.4845, 0.4869,0.4869,-0.6123698714023296
MultiSource/Benchmarks/Olden/bh/bh, 1.2758, 1.2713, 1.2687, 1.2732, 1.2740,1.2732, 1.2649, 1.2650, 1.2660, 1.2697, 1.2646,1.265,-0.6440464970154158
SingleSource/Benchmarks/Shootout-C++/ary, 0.0142, 0.0143, 0.0142, 0.0143, 0.0143,0.0143, 0.0143, 0.0142, 0.0142, 0.0142, 0.0143,0.0142,-0.6993006993006978
SingleSource/Benchmarks/Misc/himenobmtxpa, 0.6001, 0.5983, 0.6012, 0.5932, 0.5940,0.5983, 0.5925, 0.5952, 0.6006, 0.5941, 0.5940,0.5941,-0.7019889687447933
SingleSource/Benchmarks/Shootout-C++/lists1, 0.1326, 0.1329, 0.1327, 0.1319, 0.1334,0.1327, 0.1307, 0.1336, 0.1314, 0.1328, 0.1317,0.1317,-0.7535795026375247
SingleSource/Benchmarks/Shootout/ary3, 0.5930, 0.5884, 0.5879, 0.5976, 0.5899,0.5899, 0.5862, 0.5850, 0.5821, 0.5906, 0.5815,0.585,-0.83064926258688
SingleSource/Benchmarks/Polybench/linear-algebra/solvers/gramschmidt/gramschmidt, 1.6302, 1.5925, 1.6110, 1.5591, 1.4886,1.5925, 1.6295, 1.5769, 1.5130, 1.5356, 1.6581,1.5769,-0.9795918367346945
MultiSource/Benchmarks/Fhourstones/fhourstones, 0.6289, 0.6205, 0.6124, 0.6181, 0.6078,0.6181, 0.6207, 0.6076, 0.6115, 0.6009, 0.6206,0.6115,-1.0677883837566626
SingleSource/Benchmarks/Misc/flops-8, 3.7515, 3.8465, 3.8465, 3.7515, 3.7991,3.7991, 3.7516, 3.7515, 3.8463, 3.7515, 3.7516,3.7516,-1.250296122765926
MultiSource/Benchmarks/MallocBench/gs/gs, 0.0237, 0.0234, 0.0238, 0.0237, 0.0237,0.0237, 0.0235, 0.0233, 0.0236, 0.0234, 0.0234,0.0234,-1.2658227848101222
SingleSource/Benchmarks/Stanford/Queens, 0.0077, 0.0076, 0.0078, 0.0078, 0.0078,0.0078, 0.0078, 0.0077, 0.0077, 0.0078, 0.0077,0.0077,-1.2820512820512775
MultiSource/Benchmarks/McCat/03-testtrie/testtrie, 0.0065, 0.0064, 0.0066, 0.0065, 0.0064,0.0065, 0.0064, 0.0064, 0.0064, 0.0062, 0.0064,0.0064,-1.538461538461533
MultiSource/Benchmarks/MiBench/consumer-typeset/consumer-typeset, 0.0945, 0.1264, 0.1086, 0.1037, 0.0991,0.1037, 0.0907, 0.1019, 0.1052, 0.1127, 0.0895,0.1019,-1.7357762777241992
MultiSource/Benchmarks/MiBench/automotive-bitcount/automotive-bitcount, 0.0563, 0.0601, 0.0537, 0.0529, 0.0553,0.0553, 0.0549, 0.0537, 0.0562, 0.0542, 0.0535,0.0542,-1.9891500904159254
MultiSource/Benchmarks/Prolangs-C++/employ/employ, 0.0050, 0.0051, 0.0050, 0.0051, 0.0050,0.005, 0.0050, 0.0049, 0.0049, 0.0049, 0.0051,0.0049,-2.0000000000000018
MultiSource/Benchmarks/mediabench/jpeg/jpeg-6a/cjpeg, 0.0033, 0.0032, 0.0033, 0.0033, 0.0032,0.0033, 0.0031, 0.0032, 0.0032, 0.0032, 0.0034,0.0032,-3.0303030303030276
MultiSource/Benchmarks/Prolangs-C/agrep/agrep, 0.0084, 0.0029, 0.0031, 0.0031, 0.0029,0.0031, 0.0046, 0.0030, 0.0029, 0.0030, 0.0031,0.003,-3.2258064516129004
MultiSource/Benchmarks/MiBench/consumer-jpeg/consumer-jpeg, 0.0030, 0.0031, 0.0030, 0.0031, 0.0031,0.0031, 0.0031, 0.0032, 0.0030, 0.0030, 0.0030,0.003,-3.2258064516129004
MultiSource/Benchmarks/TSVC/LoopRestructuring-flt/LoopRestructuring-flt, 3.0010, 3.0104, 2.7983, 2.9889, 2.8661,2.9889, 2.7549, 2.8228, 2.9061, 2.8277, 2.9036,2.8277,-5.393288500786242
Total elapsed time,-,-,-,-,-,573.8451000000006,-,-,-,-,-,573.8061000000004,-0.006796259129893123
Total failure,-,-,-,-,-,0,-,-,-,-,-,0,
