Benchmarks,base-5.0,base-5.0,base-5.0,median,insts-5.0,insts-5.0,insts-5.0,median,Slowdown(%)
SingleSource/Benchmarks/Shootout-C++/moments, 0.0442, 0.0441, 0.0444,0.0442, 0.0507, 0.0508, 0.0509,0.0508,14.93212669683257
MultiSource/Benchmarks/Olden/voronoi/voronoi, 0.2132, 0.2132, 0.2135,0.2132, 0.2183, 0.2185, 0.2182,0.2183,2.3921200750468996
MultiSource/Applications/lambda-0.1.3/lambda, 2.6501, 2.6480, 2.6479,2.648, 2.7066, 2.7066, 2.7058,2.7066,2.212990936555892
MultiSource/Benchmarks/TSVC/ControlFlow-flt/ControlFlow-flt, 3.5577, 3.5485, 3.5690,3.5577, 3.5772, 3.6044, 3.5945,3.5945,1.0343761418894148
SingleSource/Benchmarks/Shootout-C++/ary3, 0.5409, 0.5347, 0.5370,0.537, 0.5459, 0.5409, 0.5423,0.5423,0.9869646182495195
MultiSource/Benchmarks/McCat/12-IOtest/iotest, 0.2155, 0.2143, 0.2147,0.2147, 0.2169, 0.2163, 0.2143,0.2163,0.7452258965999103
MultiSource/Benchmarks/TSVC/Packing-flt/Packing-flt, 2.0907, 2.1123, 2.0957,2.0957, 2.0961, 2.1141, 2.1113,2.1113,0.7443813522928
MultiSource/Applications/sqlite3/sqlite3, 1.7669, 1.7763, 1.7753,1.7753, 1.7996, 1.7885, 1.7873,1.7885,0.7435363037233023
SingleSource/Benchmarks/Shootout-C++/ary2, 0.0150, 0.0151, 0.0150,0.015, 0.0151, 0.0150, 0.0151,0.0151,0.6666666666666821
SingleSource/Benchmarks/Misc/flops-6, 3.4196, 3.4196, 3.4197,3.4196, 3.4420, 3.4421, 3.4419,3.442,0.6550473739618701
MultiSource/Benchmarks/VersaBench/dbms/dbms, 0.8874, 0.8825, 0.8850,0.885, 0.8906, 0.8964, 0.8888,0.8906,0.6327683615819035
SingleSource/Benchmarks/Shootout-C++/hash2, 1.7163, 1.7150, 1.7158,1.7158, 1.7270, 1.7266, 1.7265,1.7266,0.6294439911411542
MultiSource/Applications/d/make_dparser, 0.0159, 0.0158, 0.0159,0.0159, 0.0160, 0.0159, 0.0160,0.016,0.6289308176100628
SingleSource/Benchmarks/Shootout/hash, 2.7750, 2.7797, 2.7731,2.775, 2.7909, 2.7692, 2.7981,2.7909,0.5729729729729849
MultiSource/Benchmarks/MallocBench/cfrac/cfrac, 0.7588, 0.7589, 0.7592,0.7589, 0.7632, 0.7632, 0.7636,0.7632,0.5666095664777826
MultiSource/Benchmarks/DOE-ProxyApps-C++/PENNANT/PENNANT, 0.3737, 0.3743, 0.3732,0.3737, 0.3763, 0.3754, 0.3758,0.3758,0.561948086700581
SingleSource/Benchmarks/Misc/himenobmtxpa, 0.5161, 0.5134, 0.5175,0.5161, 0.5184, 0.5189, 0.5192,0.5189,0.5425305173416106
MultiSource/Benchmarks/TSVC/CrossingThresholds-flt/CrossingThresholds-flt, 1.6164, 1.6193, 1.6260,1.6193, 1.6279, 1.6355, 1.6253,1.6279,0.5310936824553858
MultiSource/Benchmarks/FreeBench/analyzer/analyzer, 0.0401, 0.0402, 0.0401,0.0401, 0.0404, 0.0402, 0.0403,0.0403,0.4987531172069959
MultiSource/Benchmarks/TSVC/InductionVariable-dbl/InductionVariable-dbl, 3.0501, 3.0336, 3.0306,3.0336, 3.0319, 3.0482, 3.0481,3.0481,0.4779799578058963
SingleSource/Benchmarks/BenchmarkGame/Large/fasta, 0.6484, 0.6499, 0.6482,0.6484, 0.6453, 0.6515, 0.6510,0.651,0.40098704503392923
MultiSource/Applications/lua/lua,11.0759,11.0675,11.0837,11.0759,11.0993,11.1211,11.1175,11.1175,0.3755902454879445
MultiSource/Benchmarks/McCat/09-vor/vor, 0.0826, 0.0830, 0.0826,0.0826, 0.0828, 0.0832, 0.0829,0.0829,0.363196125907983
MultiSource/Benchmarks/TSVC/LinearDependence-flt/LinearDependence-flt, 4.9750, 4.9777, 4.9789,4.9777, 4.9905, 4.9897, 4.9927,4.9905,0.257146875062797
MultiSource/Benchmarks/mafft/pairlocalalign,24.6600,24.6636,24.6603,24.6603,24.7194,24.7193,24.7183,24.7193,0.23925094179715334
SingleSource/Benchmarks/Polybench/stencils/fdtd-apml/fdtd-apml, 0.7217, 0.7219, 0.7211,0.7217, 0.7235, 0.7233, 0.7231,0.7233,0.2216987668006265
MultiSource/Benchmarks/7zip/7zip-benchmark, 6.3358, 6.3265, 6.3301,6.3301, 6.3429, 6.3436, 6.3367,6.3429,0.20220849591634504
SingleSource/Benchmarks/Polybench/stencils/jacobi-2d-imper/jacobi-2d-imper, 0.1494, 0.1493, 0.1484,0.1493, 0.1500, 0.1496, 0.1493,0.1496,0.20093770931013388
SingleSource/Benchmarks/Adobe-C++/functionobjects, 3.0311, 3.0300, 3.0272,3.03, 3.0357, 3.0345, 3.0375,3.0357,0.18811881188118829
MultiSource/Benchmarks/TSVC/Symbolics-flt/Symbolics-flt, 1.3887, 1.3975, 1.3873,1.3887, 1.3913, 1.3895, 1.3936,1.3913,0.18722546266292106
SingleSource/Benchmarks/Stanford/Treesort, 0.0546, 0.0545, 0.0546,0.0546, 0.0549, 0.0547, 0.0546,0.0547,0.1831501831501825
MultiSource/Benchmarks/McCat/18-imp/imp, 0.0556, 0.0556, 0.0557,0.0556, 0.0556, 0.0557, 0.0557,0.0557,0.17985611510791255
MultiSource/Benchmarks/DOE-ProxyApps-C++/HPCCG/HPCCG, 0.8999, 0.8998, 0.8996,0.8998, 0.9007, 0.9014, 0.9018,0.9014,0.17781729273171898
MultiSource/Benchmarks/TSVC/ControlLoops-flt/ControlLoops-flt, 2.3447, 2.3472, 2.3512,2.3472, 2.3493, 2.3554, 2.3513,2.3513,0.17467620995228472
MultiSource/Benchmarks/MallocBench/espresso/espresso, 0.2980, 0.2983, 0.2983,0.2983, 0.2988, 0.2989, 0.2987,0.2988,0.16761649346295204
MultiSource/Benchmarks/Olden/perimeter/perimeter, 0.1221, 0.1219, 0.1222,0.1221, 0.1223, 0.1222, 0.1223,0.1223,0.16380016380017626
SingleSource/Benchmarks/Misc-C++/bigfib, 0.1905, 0.1907, 0.1908,0.1907, 0.1912, 0.1909, 0.1910,0.191,0.1573151546932383
MultiSource/Benchmarks/FreeBench/pifft/pifft, 0.0652, 0.0652, 0.0652,0.0652, 0.0653, 0.0653, 0.0654,0.0653,0.15337423312884457
MultiSource/Benchmarks/Ptrdist/bc/bc, 0.3639, 0.3640, 0.3638,0.3639, 0.3644, 0.3644, 0.3645,0.3644,0.13740038472107585
SingleSource/Benchmarks/Linpack/linpack-pc, 1.2416, 1.2427, 1.2424,1.2424, 1.2441, 1.2456, 1.2411,1.2441,0.1368319381841676
MultiSource/Benchmarks/TSVC/InductionVariable-flt/InductionVariable-flt, 2.5516, 2.5561, 2.5517,2.5517, 2.5550, 2.5651, 2.5528,2.555,0.12932554767410842
MultiSource/Benchmarks/TSVC/GlobalDataFlow-flt/GlobalDataFlow-flt, 1.4946, 1.4948, 1.4903,1.4946, 1.5018, 1.4891, 1.4965,1.4965,0.12712431419776848
MultiSource/Benchmarks/Olden/tsp/tsp, 1.1715, 1.1717, 1.1718,1.1717, 1.1726, 1.1731, 1.1733,1.1731,0.1194845096867958
SingleSource/Benchmarks/Adobe-C++/loop_unroll, 1.7748, 1.7752, 1.7745,1.7748, 1.7772, 1.7768, 1.7723,1.7768,0.11268875366239328
SingleSource/Benchmarks/SmallPT/smallpt, 7.5320, 7.5379, 7.5459,7.5379, 7.5477, 7.5372, 7.5456,7.5456,0.10215046631025793
SingleSource/Benchmarks/Shootout/fib2, 1.4779, 1.4779, 1.4791,1.4779, 1.4777, 1.4796, 1.4794,1.4794,0.10149536504500123
SingleSource/Benchmarks/McGill/misr, 0.1014, 0.1015, 0.1014,0.1014, 0.1015, 0.1015, 0.1014,0.1015,0.09861932938857176
MultiSource/Benchmarks/Trimaran/netbench-crc/netbench-crc, 0.6211, 0.6210, 0.6209,0.621, 0.6215, 0.6225, 0.6216,0.6216,0.09661835748793202
SingleSource/Benchmarks/Shootout/heapsort, 2.0342, 2.0306, 2.0294,2.0306, 2.0363, 2.0325, 2.0317,2.0325,0.09356840342755746
MultiSource/Applications/viterbi/viterbi, 1.2763, 1.2753, 1.2773,1.2763, 1.2754, 1.2774, 1.2783,1.2774,0.08618663323671782
MultiSource/Benchmarks/MiBench/consumer-lame/consumer-lame, 0.1175, 0.1173, 0.1174,0.1174, 0.1175, 0.1174, 0.1177,0.1175,0.08517887563883608
MultiSource/Benchmarks/TSVC/IndirectAddressing-flt/IndirectAddressing-flt, 2.2438, 2.2416, 2.2454,2.2438, 2.2423, 2.2477, 2.2457,2.2457,0.08467777876817184
SingleSource/Benchmarks/BenchmarkGame/puzzle, 0.1293, 0.1292, 0.1295,0.1293, 0.1294, 0.1297, 0.1294,0.1294,0.07733952049495674
SingleSource/Benchmarks/Polybench/linear-algebra/kernels/doitgen/doitgen, 0.7799, 0.7806, 0.7800,0.78, 0.7806, 0.7814, 0.7796,0.7806,0.07692307692306333
MultiSource/Benchmarks/sim/sim, 2.5895, 2.5883, 2.5874,2.5883, 2.5879, 2.5902, 2.5933,2.5902,0.07340725572770879
MultiSource/Benchmarks/Olden/health/health, 0.1439, 0.1438, 0.1442,0.1439, 0.1443, 0.1439, 0.1440,0.144,0.06949270326614965
MultiSource/Benchmarks/FreeBench/fourinarow/fourinarow, 0.1758, 0.1758, 0.1758,0.1758, 0.1759, 0.1757, 0.1759,0.1759,0.05688282138793799
SingleSource/Benchmarks/CoyoteBench/almabench,12.6253,12.6251,12.6253,12.6253,12.6322,12.6329,12.6323,12.6323,0.055444227067891205
MultiSource/Benchmarks/PAQ8p/paq8p,42.6685,42.6415,42.6604,42.6604,42.7120,42.6468,42.6807,42.6807,0.04758511406361965
SingleSource/Regression/C/uint64_to_float, 0.2467, 0.2466, 0.2465,0.2466, 0.2467, 0.2467, 0.2467,0.2467,0.040551500405516805
SingleSource/Benchmarks/Polybench/linear-algebra/kernels/mvt/mvt, 0.2472, 0.2469, 0.2471,0.2471, 0.2468, 0.2472, 0.2474,0.2472,0.040469445568591667
MultiSource/Benchmarks/TSVC/GlobalDataFlow-dbl/GlobalDataFlow-dbl, 2.8382, 2.8382, 2.8376,2.8382, 2.8393, 2.8385, 2.8514,2.8393,0.03875695863575501
MultiSource/Benchmarks/VersaBench/8b10b/8b10b, 3.5973, 3.6132, 3.6126,3.6126, 3.6172, 3.6096, 3.6140,3.614,0.03875325250510819
MultiSource/Benchmarks/Ptrdist/yacr2/yacr2, 0.5301, 0.5297, 0.5304,0.5301, 0.5303, 0.5298, 0.5305,0.5303,0.037728730428221446
MultiSource/Benchmarks/TSVC/IndirectAddressing-dbl/IndirectAddressing-dbl, 2.4584, 2.4611, 2.4796,2.4611, 2.4620, 2.4588, 2.4770,2.462,0.03656901385560296
MultiSource/Benchmarks/TSVC/Searching-flt/Searching-flt, 2.4342, 2.4323, 2.4336,2.4336, 2.4331, 2.4343, 2.4343,2.4343,0.028763971071654737
SingleSource/Benchmarks/Misc/evalloop, 0.3692, 0.3683, 0.3681,0.3683, 0.3684, 0.3687, 0.3680,0.3684,0.027151778441480978
MultiSource/Benchmarks/Fhourstones-3.1/fhourstones3.1, 0.7723, 0.7721, 0.7707,0.7721, 0.7723, 0.7707, 0.7738,0.7723,0.025903380391145703
SingleSource/Benchmarks/Polybench/stencils/adi/adi, 2.8043, 2.8044, 2.8057,2.8044, 2.8047, 2.8063, 2.8051,2.8051,0.024960775923554834
MultiSource/Benchmarks/TSVC/Equivalencing-dbl/Equivalencing-dbl, 1.3808, 1.3817, 1.3803,1.3808, 1.3813, 1.3811, 1.3807,1.3811,0.021726535341826114
SingleSource/Benchmarks/Misc/richards_benchmark, 0.4972, 0.4975, 0.4973,0.4973, 0.4974, 0.4974, 0.4972,0.4974,0.02010858636638524
MultiSource/Benchmarks/SciMark2-C/scimark2,42.0735,42.0859,42.0901,42.0859,42.0926,42.0943,42.1178,42.0943,0.01995917872730235
MultiSource/Benchmarks/Trimaran/enc-md5/enc-md5, 1.2245, 1.2244, 1.2244,1.2244, 1.2246, 1.2246, 1.2246,1.2246,0.016334531198958224
SingleSource/Benchmarks/Shootout-C++/ackermann, 0.6572, 0.6572, 0.6574,0.6572, 0.6573, 0.6574, 0.6573,0.6573,0.01521606816798915
SingleSource/Benchmarks/Polybench/stencils/seidel-2d/seidel-2d, 0.6595, 0.6595, 0.6595,0.6595, 0.6595, 0.6596, 0.6596,0.6596,0.015163002274443116
MultiSource/Benchmarks/VersaBench/bmm/bmm, 1.6460, 1.6459, 1.6459,1.6459, 1.6461, 1.6458, 1.6461,1.6461,0.012151406525306996
MultiSource/Benchmarks/DOE-ProxyApps-C++/miniFE/miniFE, 2.4702, 2.4702, 2.4655,2.4702, 2.4719, 2.4704, 2.4639,2.4704,0.008096510404009827
MultiSource/Benchmarks/VersaBench/ecbdes/ecbdes, 1.6934, 1.6933, 1.6933,1.6933, 1.6934, 1.6933, 1.6934,1.6934,0.00590562806355166
MultiSource/Benchmarks/TSVC/LoopRerolling-dbl/LoopRerolling-dbl, 4.5947, 4.6109, 4.6105,4.6105, 4.6107, 4.5942, 4.6109,4.6107,0.00433792430321045
MultiSource/Benchmarks/TSVC/Symbolics-dbl/Symbolics-dbl, 2.4408, 2.4405, 2.4404,2.4405, 2.4407, 2.4401, 2.4406,2.4406,0.00409752099979066
MultiSource/Applications/JM/lencod/lencod, 3.1638, 3.1545, 3.1533,3.1545, 3.1581, 3.1518, 3.1546,3.1546,0.003170074496749997
MultiSource/Benchmarks/TSVC/Reductions-dbl/Reductions-dbl, 3.4400, 3.4400, 3.4401,3.44, 3.4401, 3.4401, 3.4400,3.4401,0.00290697674418805
MultiSource/Benchmarks/TSVC/Recurrences-flt/Recurrences-flt, 3.5009, 3.5009, 3.5010,3.5009, 3.5010, 3.5009, 3.5010,3.501,0.002856408352136519
MultiSource/Benchmarks/TSVC/Recurrences-dbl/Recurrences-dbl, 3.5012, 3.5012, 3.5012,3.5012, 3.5013, 3.5012, 3.5013,3.5013,0.0028561636010504543
SingleSource/Regression/C/2004-08-12-InlinerAndAllocas, 0.0015, 0.0015, 0.0015,0.0015, 0.0015, 0.0015, 0.0015,0.0015,0.0
SingleSource/Benchmarks/Stanford/Towers, 0.0084, 0.0084, 0.0084,0.0084, 0.0084, 0.0084, 0.0084,0.0084,0.0
SingleSource/Benchmarks/Stanford/RealMM, 0.0016, 0.0016, 0.0016,0.0016, 0.0016, 0.0016, 0.0016,0.0016,0.0
SingleSource/Benchmarks/Stanford/Puzzle, 0.0796, 0.0795, 0.0795,0.0795, 0.0795, 0.0795, 0.0794,0.0795,0.0
SingleSource/Benchmarks/Stanford/Perm, 0.0147, 0.0147, 0.0147,0.0147, 0.0146, 0.0147, 0.0147,0.0147,0.0
SingleSource/Benchmarks/Stanford/FloatMM, 0.2012, 0.2013, 0.2004,0.2012, 0.2012, 0.2014, 0.2012,0.2012,0.0
SingleSource/Benchmarks/Stanford/Bubblesort, 0.0159, 0.0159, 0.0159,0.0159, 0.0159, 0.0159, 0.0159,0.0159,0.0
SingleSource/Benchmarks/Shootout/strcat, 0.1052, 0.1052, 0.1052,0.1052, 0.1053, 0.1052, 0.1052,0.1052,0.0
SingleSource/Benchmarks/Shootout/random, 1.7449, 1.7448, 1.7450,1.7449, 1.7449, 1.7450, 1.7449,1.7449,0.0
SingleSource/Benchmarks/Shootout/objinst, 0.0009, 0.0009, 0.0009,0.0009, 0.0009, 0.0009, 0.0009,0.0009,0.0
SingleSource/Benchmarks/Shootout/nestedloop, 0.0009, 0.0009, 0.0009,0.0009, 0.0009, 0.0009, 0.0009,0.0009,0.0
SingleSource/Benchmarks/Shootout/methcall, 3.2759, 3.2760, 3.2765,3.276, 3.2760, 3.2760, 3.2761,3.276,0.0
SingleSource/Benchmarks/Shootout/matrix, 1.0573, 1.0573, 1.0570,1.0573, 1.0574, 1.0572, 1.0573,1.0573,0.0
SingleSource/Benchmarks/Shootout/ackermann, 0.0035, 0.0035, 0.0035,0.0035, 0.0035, 0.0035, 0.0035,0.0035,0.0
SingleSource/Benchmarks/Shootout-C++/strcat, 0.0406, 0.0405, 0.0407,0.0406, 0.0406, 0.0407, 0.0406,0.0406,0.0
SingleSource/Benchmarks/Shootout-C++/random, 1.7450, 1.7449, 1.7450,1.745, 1.7450, 1.7451, 1.7449,1.745,0.0
SingleSource/Benchmarks/Shootout-C++/nestedloop, 0.0009, 0.0009, 0.0009,0.0009, 0.0009, 0.0009, 0.0009,0.0009,0.0
SingleSource/Benchmarks/Shootout-C++/methcall, 3.4498, 3.4549, 3.4498,3.4498, 3.4549, 3.4498, 3.4497,3.4498,0.0
SingleSource/Benchmarks/Shootout-C++/fibo, 1.4776, 1.4775, 1.4785,1.4776, 1.4776, 1.4780, 1.4760,1.4776,0.0
SingleSource/Benchmarks/Shootout-C++/ary, 0.0142, 0.0142, 0.0142,0.0142, 0.0141, 0.0142, 0.0142,0.0142,0.0
SingleSource/Benchmarks/Polybench/medley/reg_detect/reg_detect, 0.0157, 0.0156, 0.0157,0.0157, 0.0157, 0.0157, 0.0157,0.0157,0.0
SingleSource/Benchmarks/Polybench/linear-algebra/kernels/bicg/bicg, 0.2127, 0.2126, 0.2126,0.2126, 0.2126, 0.2126, 0.2127,0.2126,0.0
SingleSource/Benchmarks/Polybench/linear-algebra/kernels/atax/atax, 0.1704, 0.1703, 0.1705,0.1704, 0.1704, 0.1702, 0.1705,0.1704,0.0
SingleSource/Benchmarks/Polybench/datamining/correlation/correlation, 1.6679, 1.6551, 1.6605,1.6605, 1.6696, 1.6581, 1.6605,1.6605,0.0
SingleSource/Benchmarks/Misc/whetstone, 1.0214, 1.0214, 1.0290,1.0214, 1.0214, 1.0214, 1.0291,1.0214,0.0
SingleSource/Benchmarks/Misc/revertBits, 0.3296, 0.3296, 0.3296,0.3296, 0.3296, 0.3296, 0.3296,0.3296,0.0
SingleSource/Benchmarks/Misc/pi, 0.6943, 0.6942, 0.6943,0.6943, 0.6943, 0.6943, 0.6943,0.6943,0.0
SingleSource/Benchmarks/Misc/matmul_f64_4x4, 1.2953, 1.2953, 1.2953,1.2953, 1.2953, 1.2953, 1.2953,1.2953,0.0
SingleSource/Benchmarks/Misc/mandel-2, 1.2780, 1.2779, 1.2781,1.278, 1.2781, 1.2780, 1.2780,1.278,0.0
SingleSource/Benchmarks/Misc/mandel, 0.8338, 0.8336, 0.8338,0.8338, 0.8338, 0.8338, 0.8338,0.8338,0.0
SingleSource/Benchmarks/Misc/lowercase, 0.0009, 0.0009, 0.0009,0.0009, 0.0009, 0.0009, 0.0009,0.0009,0.0
SingleSource/Benchmarks/Misc/fp-convert, 2.6303, 2.6303, 2.6304,2.6303, 2.6303, 2.6304, 2.6303,2.6303,0.0
SingleSource/Benchmarks/Misc/flops-7, 1.5902, 1.5901, 1.5902,1.5902, 1.5901, 1.5902, 1.5902,1.5902,0.0
SingleSource/Benchmarks/Misc/flops-2, 0.8626, 0.8626, 0.8626,0.8626, 0.8626, 0.8627, 0.8626,0.8626,0.0
SingleSource/Benchmarks/Misc/fbench, 1.7138, 1.7137, 1.7137,1.7137, 1.7136, 1.7137, 1.7137,1.7137,0.0
SingleSource/Benchmarks/Misc/dt, 0.6670, 0.6670, 0.6669,0.667, 0.6670, 0.6670, 0.6670,0.667,0.0
SingleSource/Benchmarks/Misc-C++/oopack_v1p8, 0.1621, 0.1620, 0.1621,0.1621, 0.1621, 0.1621, 0.1621,0.1621,0.0
SingleSource/Benchmarks/Dhrystone/fldry, 0.3655, 0.3655, 0.3655,0.3655, 0.3655, 0.3655, 0.3655,0.3655,0.0
SingleSource/Benchmarks/BenchmarkGame/spectral-norm, 0.9769, 0.9769, 0.9769,0.9769, 0.9770, 0.9769, 0.9769,0.9769,0.0
SingleSource/Benchmarks/BenchmarkGame/partialsums, 0.5687, 0.5687, 0.5687,0.5687, 0.5688, 0.5687, 0.5687,0.5687,0.0
SingleSource/Benchmarks/BenchmarkGame/fannkuch, 2.0915, 2.0894, 2.0895,2.0895, 2.0902, 2.0894, 2.0895,2.0895,0.0
SingleSource/Benchmarks/Adobe-C++/simple_types_constant_folding, 0.6647, 0.6647, 0.6649,0.6647, 0.6649, 0.6647, 0.6647,0.6647,0.0
MultiSource/Benchmarks/mediabench/g721/g721encode/encode, 0.0299, 0.0299, 0.0299,0.0299, 0.0299, 0.0299, 0.0297,0.0299,0.0
MultiSource/Benchmarks/VersaBench/beamformer/beamformer, 0.7489, 0.7490, 0.7490,0.749, 0.7490, 0.7487, 0.7491,0.749,0.0
MultiSource/Benchmarks/Trimaran/enc-pc1/enc-pc1, 0.3442, 0.3442, 0.3442,0.3442, 0.3442, 0.3442, 0.3442,0.3442,0.0
MultiSource/Benchmarks/TSVC/Reductions-flt/Reductions-flt, 5.9353, 5.9351, 5.9351,5.9351, 5.9351, 5.9351, 5.9352,5.9351,0.0
MultiSource/Benchmarks/Ptrdist/anagram/anagram, 0.6003, 0.6003, 0.6001,0.6003, 0.6004, 0.6001, 0.6003,0.6003,0.0
MultiSource/Benchmarks/Prolangs-C++/ocean/ocean, 0.0360, 0.0361, 0.0361,0.0361, 0.0361, 0.0361, 0.0361,0.0361,0.0
MultiSource/Benchmarks/Prolangs-C++/city/city, 0.0052, 0.0052, 0.0052,0.0052, 0.0052, 0.0052, 0.0052,0.0052,0.0
MultiSource/Benchmarks/Olden/treeadd/treeadd, 0.1269, 0.1266, 0.1268,0.1268, 0.1268, 0.1268, 0.1269,0.1268,0.0
MultiSource/Benchmarks/Olden/bisort/bisort, 0.3620, 0.3618, 0.3612,0.3618, 0.3624, 0.3613, 0.3618,0.3618,0.0
MultiSource/Benchmarks/Olden/bh/bh, 1.3326, 1.3325, 1.3326,1.3326, 1.3360, 1.3324, 1.3326,1.3326,0.0
MultiSource/Benchmarks/MiBench/telecomm-FFT/telecomm-fft, 0.0382, 0.0383, 0.0384,0.0383, 0.0383, 0.0383, 0.0383,0.0383,0.0
MultiSource/Benchmarks/MiBench/security-rijndael/security-rijndael, 0.0222, 0.0222, 0.0223,0.0222, 0.0222, 0.0222, 0.0221,0.0222,0.0
MultiSource/Benchmarks/McCat/08-main/main, 0.0428, 0.0428, 0.0428,0.0428, 0.0428, 0.0428, 0.0428,0.0428,0.0
MultiSource/Benchmarks/MallocBench/gs/gs, 0.0273, 0.0275, 0.0276,0.0275, 0.0274, 0.0275, 0.0276,0.0275,0.0
MultiSource/Benchmarks/FreeBench/pcompress2/pcompress2, 0.1054, 0.1053, 0.1053,0.1053, 0.1053, 0.1054, 0.1053,0.1053,0.0
MultiSource/Benchmarks/FreeBench/neural/neural, 0.1154, 0.1154, 0.1154,0.1154, 0.1155, 0.1154, 0.1154,0.1154,0.0
MultiSource/Benchmarks/FreeBench/mason/mason, 0.1300, 0.1300, 0.1301,0.13, 0.1300, 0.1300, 0.1300,0.13,0.0
MultiSource/Benchmarks/FreeBench/distray/distray, 0.1347, 0.1346, 0.1347,0.1347, 0.1347, 0.1347, 0.1346,0.1347,0.0
MultiSource/Benchmarks/BitBench/uudecode/uudecode, 0.0596, 0.0597, 0.0596,0.0596, 0.0596, 0.0596, 0.0596,0.0596,0.0
MultiSource/Applications/sgefa/sgefa, 0.1527, 0.1526, 0.1527,0.1527, 0.1527, 0.1527, 0.1528,0.1527,0.0
MultiSource/Applications/hexxagon/hexxagon, 7.0597, 7.0597, 7.0598,7.0597, 7.0601, 7.0594, 7.0597,7.0597,0.0
MultiSource/Applications/ALAC/decode/alacconvert-decode, 0.0131, 0.0132, 0.0132,0.0132, 0.0132, 0.0132, 0.0131,0.0132,0.0
SingleSource/Benchmarks/Misc/flops,10.6673,10.6802,10.6611,10.6673,10.5897,10.6678,10.6672,10.6672,-0.0009374443392440313
SingleSource/Benchmarks/Polybench/medley/floyd-warshall/floyd-warshall, 5.9744, 5.9758, 5.9758,5.9758, 5.9757, 5.9742, 5.9791,5.9757,-0.0016734161116471746
SingleSource/Benchmarks/Misc-C++/Large/sphereflake, 5.6075, 5.6073, 5.6075,5.6075, 5.6077, 5.6072, 5.6074,5.6074,-0.001783325902804389
MultiSource/Benchmarks/ASC_Sequoia/CrystalMk/CrystalMk, 7.2737, 7.2735, 7.2736,7.2736, 7.2734, 7.2733, 7.2736,7.2734,-0.002749670039603469
SingleSource/Benchmarks/Misc/ReedSolomon, 3.1534, 3.1536, 3.1533,3.1534, 3.1533, 3.1535, 3.1533,3.1533,-0.00317118031331054
SingleSource/Benchmarks/Misc-C++/Large/ray, 3.1356, 3.1356, 3.1357,3.1356, 3.1355, 3.1355, 3.1354,3.1355,-0.0031891822936613856
MultiSource/Benchmarks/Trimaran/netbench-url/netbench-url, 2.9799, 2.9800, 2.9794,2.9799, 2.9873, 2.9792, 2.9798,2.9798,-0.003355817309314002
SingleSource/Benchmarks/Misc/oourafft, 6.0170, 6.0168, 6.0166,6.0168, 6.0166, 6.0165, 6.0165,6.0165,-0.004986039090548733
SingleSource/Benchmarks/Misc-C++/stepanov_v1p2, 7.9039, 7.9037, 7.9040,7.9039, 7.9035, 7.9034, 7.9034,7.9034,-0.006325990966482564
SingleSource/Benchmarks/BenchmarkGame/n-body, 1.3734, 1.3733, 1.3734,1.3734, 1.3733, 1.3733, 1.3733,1.3733,-0.007281199941744365
MultiSource/Benchmarks/Trimaran/enc-3des/enc-3des, 1.2901, 1.2903, 1.2900,1.2901, 1.2898, 1.2900, 1.2900,1.29,-0.0077513371056547875
MultiSource/Benchmarks/DOE-ProxyApps-C++/CLAMR/CLAMR, 1.1201, 1.1203, 1.1202,1.1202, 1.1201, 1.1200, 1.1203,1.1201,-0.008926977325474095
MultiSource/Benchmarks/Olden/power/power, 1.0534, 1.0535, 1.0536,1.0535, 1.0536, 1.0534, 1.0534,1.0534,-0.009492168960623104
SingleSource/Benchmarks/Misc/perlin, 3.8809, 3.8801, 3.8806,3.8806, 3.8802, 3.8801, 3.8810,3.8802,-0.010307684378707549
SingleSource/Benchmarks/Misc/flops-1, 3.5826, 3.5831, 3.5823,3.5826, 3.5825, 3.5822, 3.5820,3.5822,-0.011165075643382316
SingleSource/Benchmarks/Adobe-C++/simple_types_loop_invariant, 1.5944, 1.5949, 1.5935,1.5944, 1.5943, 1.5942, 1.5941,1.5942,-0.012543903662820544
MultiSource/Benchmarks/nbench/nbench, 1.2722, 1.2726, 1.2721,1.2722, 1.2718, 1.2726, 1.2720,1.272,-0.01572079861656972
SingleSource/Benchmarks/CoyoteBench/lpbench, 1.8242, 1.8274, 1.8216,1.8242, 1.8239, 1.8189, 1.8314,1.8239,-0.016445565179257216
MultiSource/Benchmarks/DOE-ProxyApps-C/miniGMG/miniGMG, 5.2047, 5.2033, 5.2040,5.204, 5.2042, 5.2031, 5.2029,5.2031,-0.017294388931587967
MultiSource/Benchmarks/TSVC/Searching-dbl/Searching-dbl, 2.2756, 2.2752, 2.2755,2.2755, 2.2759, 2.2751, 2.2750,2.2751,-0.017578554163921734
SingleSource/Benchmarks/McGill/queens, 1.7515, 1.7520, 1.7526,1.752, 1.7516, 1.7511, 1.7526,1.7516,-0.022831050228311334
SingleSource/Benchmarks/Shootout/sieve, 3.4689, 3.4673, 3.4675,3.4675, 3.4681, 3.4659, 3.4667,3.4667,-0.023071377072814148
MultiSource/Benchmarks/Olden/em3d/em3d, 1.7022, 1.7021, 1.7023,1.7022, 1.7021, 1.7018, 1.7015,1.7018,-0.023499001292437427
SingleSource/Benchmarks/Shootout/lists, 4.0829, 4.0839, 4.0833,4.0833, 4.0841, 4.0822, 4.0819,4.0822,-0.02693899542037803
SingleSource/Benchmarks/Dhrystone/dry, 0.3048, 0.3047, 0.3048,0.3048, 0.3047, 0.3048, 0.3047,0.3047,-0.032808398950123774
MultiSource/Benchmarks/NPB-serial/is/is, 5.0706, 5.0224, 5.0662,5.0662, 5.0258, 5.0644, 5.0702,5.0644,-0.035529588251559385
SingleSource/Benchmarks/Polybench/linear-algebra/solvers/dynprog/dynprog, 0.2807, 0.2811, 0.2811,0.2811, 0.2806, 0.2813, 0.2810,0.281,-0.03557452863749422
MultiSource/Applications/obsequi/Obsequi, 1.0936, 1.0950, 1.0954,1.095, 1.0946, 1.0945, 1.0947,1.0946,-0.03652968036529369
MultiSource/Benchmarks/DOE-ProxyApps-C/SimpleMOC/SimpleMOC, 3.7912, 3.7887, 3.7985,3.7912, 3.7898, 3.7889, 3.8020,3.7898,-0.036927621861149174
MultiSource/Benchmarks/MiBench/automotive-basicmath/automotive-basicmath, 0.2226, 0.2226, 0.2228,0.2226, 0.2228, 0.2224, 0.2225,0.2225,-0.04492362982928544
MultiSource/Benchmarks/Bullet/bullet, 3.2486, 3.2435, 3.2324,3.2435, 3.2461, 3.2384, 3.2417,3.2417,-0.05549560659782182
MultiSource/Benchmarks/DOE-ProxyApps-C/miniAMR/miniAMR, 0.7722, 0.7710, 0.7732,0.7722, 0.7714, 0.7721, 0.7717,0.7717,-0.06475006475005207
MultiSource/Applications/aha/aha, 1.0324, 1.0320, 1.0322,1.0322, 1.0316, 1.0314, 1.0301,1.0314,-0.0775043596202174
MultiSource/Benchmarks/TSVC/Equivalencing-flt/Equivalencing-flt, 0.9682, 0.9688, 0.9668,0.9682, 0.9674, 0.9675, 0.9668,0.9674,-0.08262755629001584
SingleSource/Benchmarks/Shootout-C++/EH/except, 0.1205, 0.1208, 0.1208,0.1208, 0.1205, 0.1207, 0.1209,0.1207,-0.08278145695364003
MultiSource/Benchmarks/tramp3d-v4/tramp3d-v4, 0.2394, 0.2393, 0.2393,0.2393, 0.2391, 0.2391, 0.2389,0.2391,-0.08357709987463213
SingleSource/Benchmarks/Misc-C++/mandel-text, 1.6129, 1.6114, 1.6103,1.6114, 1.6083, 1.6100, 1.6143,1.61,-0.08688097306689402
SingleSource/Benchmarks/Misc-C++-EH/spirit, 2.6180, 2.6198, 2.6218,2.6198, 2.6144, 2.6169, 2.6199,2.6169,-0.11069547293688364
MultiSource/Benchmarks/McCat/04-bisect/bisect, 0.0751, 0.0749, 0.0751,0.0751, 0.0750, 0.0750, 0.0751,0.075,-0.13315579227697327
MultiSource/Benchmarks/ASC_Sequoia/IRSmk/IRSmk, 2.9965, 3.0168, 2.9922,2.9965, 2.9924, 2.9917, 3.0007,2.9924,-0.13682629734691476
SingleSource/Benchmarks/Shootout-C++/lists1, 0.1339, 0.1318, 0.1329,0.1329, 0.1340, 0.1325, 0.1327,0.1327,-0.15048908954099494
MultiSource/Benchmarks/TSVC/NodeSplitting-dbl/NodeSplitting-dbl, 5.0262, 5.0189, 5.0262,5.0262, 5.0268, 5.0174, 5.0183,5.0183,-0.15717639568660902
MultiSource/Benchmarks/TSVC/StatementReordering-flt/StatementReordering-flt, 1.8264, 1.8284, 1.8300,1.8284, 1.8253, 1.8240, 1.8279,1.8253,-0.16954714504485713
MultiSource/Benchmarks/ASCI_Purple/SMG2000/smg2000, 1.1599, 1.1712, 1.1635,1.1635, 1.1615, 1.1623, 1.1614,1.1615,-0.1718951439621863
SingleSource/Benchmarks/Polybench/linear-algebra/kernels/cholesky/cholesky, 0.4582, 0.4625, 0.4589,0.4589, 0.4597, 0.4549, 0.4581,0.4581,-0.17432991937240683
SingleSource/Benchmarks/Shootout-C++/heapsort, 2.0252, 2.0292, 2.0220,2.0252, 2.0225, 2.0216, 2.0191,2.0216,-0.1777602212127194
MultiSource/Benchmarks/TSVC/LinearDependence-dbl/LinearDependence-dbl, 5.7071, 5.7112, 5.6956,5.7071, 5.6963, 5.6948, 5.7062,5.6963,-0.18923796674317206
MultiSource/Benchmarks/Prolangs-C++/life/life, 0.7163, 0.7165, 0.7164,0.7164, 0.7150, 0.7188, 0.7147,0.715,-0.19542155220547697
MultiSource/Benchmarks/Ptrdist/ks/ks, 0.6542, 0.6562, 0.6570,0.6562, 0.6572, 0.6549, 0.6528,0.6549,-0.198110332215784
SingleSource/Benchmarks/Misc-C++/stepanov_container, 3.1111, 3.0847, 3.0636,3.0847, 3.0695, 3.0785, 3.0872,3.0785,-0.2009919927383641
MultiSource/Benchmarks/TSVC/LoopRerolling-flt/LoopRerolling-flt, 3.8285, 3.8315, 3.8229,3.8285, 3.8199, 3.8180, 3.8235,3.8199,-0.2246310565495624
MultiSource/Benchmarks/Prolangs-C++/primes/primes, 0.2134, 0.2141, 0.2125,0.2134, 0.2118, 0.2135, 0.2129,0.2129,-0.23430178069353547
MultiSource/Benchmarks/TSVC/NodeSplitting-flt/NodeSplitting-flt, 4.6573, 4.6563, 4.6552,4.6563, 4.6420, 4.6453, 4.6470,4.6453,-0.2362390739428344
SingleSource/Benchmarks/Shootout-C++/lists, 2.9606, 2.9830, 2.9747,2.9747, 2.9839, 2.9675, 2.9647,2.9675,-0.24204121424009628
MultiSource/Benchmarks/DOE-ProxyApps-C/XSBench/XSBench, 2.4398, 2.4435, 2.4354,2.4398, 2.4371, 2.4329, 2.4315,2.4329,-0.2828100663988864
MultiSource/Benchmarks/TSVC/ControlLoops-dbl/ControlLoops-dbl, 2.5323, 2.5414, 2.5417,2.5414, 2.5335, 2.5433, 2.5342,2.5342,-0.2833084126859231
SingleSource/Benchmarks/Adobe-C++/stepanov_abstraction, 4.2654, 4.2653, 4.2659,4.2654, 4.2535, 4.2527, 4.2522,4.2527,-0.297744642940867
MultiSource/Benchmarks/TSVC/StatementReordering-dbl/StatementReordering-dbl, 2.2383, 2.2470, 2.2489,2.247, 2.2418, 2.2402, 2.2401,2.2402,-0.302625723186456
SingleSource/Benchmarks/Stanford/Quicksort, 0.0304, 0.0304, 0.0304,0.0304, 0.0303, 0.0303, 0.0303,0.0303,-0.3289473684210509
SingleSource/Benchmarks/CoyoteBench/huffbench, 9.0384, 9.0363, 9.0429,9.0384, 9.0095, 9.0058, 9.0084,9.0084,-0.33191715347848927
MultiSource/Applications/kimwitu++/kc, 0.0282, 0.0282, 0.0281,0.0282, 0.0281, 0.0280, 0.0283,0.0281,-0.35460992907800915
MultiSource/Benchmarks/Prolangs-C/gnugo/gnugo, 0.0253, 0.0253, 0.0253,0.0253, 0.0251, 0.0253, 0.0252,0.0252,-0.39525691699604515
MultiSource/Benchmarks/MiBench/network-dijkstra/network-dijkstra, 0.0248, 0.0247, 0.0248,0.0248, 0.0247, 0.0247, 0.0247,0.0247,-0.40322580645161255
MultiSource/Benchmarks/DOE-ProxyApps-C/RSBench/rsbench, 0.5741, 0.5777, 0.5789,0.5777, 0.5774, 0.5736, 0.5750,0.575,-0.46737060758179627
MultiSource/Benchmarks/TSVC/ControlFlow-dbl/ControlFlow-dbl, 3.7434, 3.7434, 3.7429,3.7434, 3.7257, 3.7235, 3.7266,3.7257,-0.4728321846449779
MultiSource/Benchmarks/ASC_Sequoia/AMGmk/AMGmk, 4.9978, 4.9972, 5.0046,4.9978, 4.9727, 4.9931, 4.9699,4.9727,-0.5022209772299835
MultiSource/Benchmarks/TSVC/Expansion-flt/Expansion-flt, 1.1751, 1.1778, 1.1772,1.1772, 1.1801, 1.1711, 1.1709,1.1711,-0.5181787291879014
SingleSource/Benchmarks/Polybench/datamining/covariance/covariance, 1.6562, 1.6638, 1.6497,1.6562, 1.6500, 1.6465, 1.6445,1.6465,-0.5856780582055188
MultiSource/Applications/spiff/spiff, 1.2831, 1.2850, 1.2827,1.2831, 1.2755, 1.2775, 1.2748,1.2755,-0.5923154859324931
SingleSource/Benchmarks/Shootout/ary3, 0.5958, 0.6001, 0.5915,0.5958, 0.5922, 0.5867, 0.5952,0.5922,-0.6042296072507614
SingleSource/Benchmarks/Polybench/stencils/fdtd-2d/fdtd-2d, 0.4118, 0.4138, 0.4082,0.4118, 0.4091, 0.4091, 0.4125,0.4091,-0.6556580864497286
MultiSource/Applications/ALAC/encode/alacconvert-encode, 0.0267, 0.0268, 0.0268,0.0268, 0.0266, 0.0266, 0.0268,0.0266,-0.7462686567164312
SingleSource/Benchmarks/CoyoteBench/fftbench, 0.6539, 0.6571, 0.6505,0.6539, 0.6490, 0.6460, 0.6502,0.649,-0.7493500535250108
MultiSource/Benchmarks/Olden/mst/mst, 0.0525, 0.0527, 0.0529,0.0527, 0.0524, 0.0521, 0.0522,0.0522,-0.9487666034155517
SingleSource/Benchmarks/Adobe-C++/stepanov_vector, 2.3075, 2.3071, 2.3074,2.3074, 2.2784, 2.2791, 2.2787,2.2787,-1.2438242177342351
MultiSource/Benchmarks/MiBench/consumer-typeset/consumer-typeset, 0.0832, 0.0829, 0.0836,0.0832, 0.0822, 0.0818, 0.0821,0.0821,-1.3221153846153744
MultiSource/Applications/siod/siod, 1.1335, 1.1331, 1.1325,1.1331, 1.0987, 1.0981, 1.0985,1.0985,-3.053569852616711
Total elapsed time,-,-,-,587.0923000000004,-,-,-,586.9259,-0.02834307314205642
Total failure,-,-,-,0,-,-,-,0,
Geom. avg slowdown,,,,,,,,,0.0731191793272%
