Benchmarks,/mnt/freezedisk/llvm-intptr-insts-5.0-release/bin/clang,/mnt/freezedisk/llvm-intptr-insts-5.0-release/bin/clang,/mnt/freezedisk/llvm-intptr-insts-5.0-release/bin/clang,median,/mnt/freezedisk/llvm-intptr-nocapture-5.0-release/bin/clang,/mnt/freezedisk/llvm-intptr-nocapture-5.0-release/bin/clang,/mnt/freezedisk/llvm-intptr-nocapture-5.0-release/bin/clang,median
MultiSource/Applications/ALAC/decode/alacconvert-decode, 0.9416, 0.9368, 0.9436,0.9416, 0.9337, 0.9422, 0.9404,0.9404
MultiSource/Applications/ALAC/encode/alacconvert-encode, 0.9256, 0.9238, 0.9242,0.9242, 0.9266, 0.9255, 0.9271,0.9266
MultiSource/Applications/ClamAV/clamscan,14.2807,14.2247,14.1935,14.2247,14.2441,14.3050,14.2867,14.2867
MultiSource/Applications/JM/ldecod/ldecod, 6.2485, 6.2376, 6.2371,6.2376, 6.2390, 6.2545, 6.2458,6.2458
MultiSource/Applications/JM/lencod/lencod,14.6767,14.6528,14.6454,14.6528,14.6390,14.6559,14.6468,14.6468
MultiSource/Applications/SIBsim4/SIBsim4, 1.1385, 1.1346, 1.1330,1.1346, 1.1372, 1.1549, 1.1370,1.1372
MultiSource/Applications/SPASS/SPASS,12.0339,11.9951,11.9936,11.9951,12.0214,12.0142,12.0165,12.0165
MultiSource/Applications/aha/aha, 0.1023, 0.1046, 0.0977,0.1023, 0.1005, 0.0998, 0.0969,0.0998
MultiSource/Applications/d/make_dparser, 2.5900, 2.5815, 2.5899,2.5899, 2.5826, 2.5879, 2.5795,2.5826
MultiSource/Applications/hbd/hbd, 1.1614, 1.1605, 1.1626,1.1614, 1.1693, 1.1638, 1.1663,1.1663
MultiSource/Applications/hexxagon/hexxagon, 0.6568, 0.6550, 0.6554,0.6554, 0.6587, 0.6581, 0.6586,0.6586
MultiSource/Applications/kimwitu++/kc,10.9751,10.9447,10.9667,10.9667,10.9949,10.9986,10.9831,10.9949
MultiSource/Applications/lambda-0.1.3/lambda, 0.5585, 0.5439, 0.5442,0.5442, 0.5646, 0.5880, 0.5764,0.5764
MultiSource/Applications/lua/lua, 3.2003, 3.1949, 3.2029,3.2003, 3.1929, 3.1929, 3.1868,3.1929
MultiSource/Applications/minisat/minisat, 0.6185, 0.6113, 0.6079,0.6113, 0.6142, 0.6103, 0.6135,0.6135
MultiSource/Applications/obsequi/Obsequi, 0.9492, 0.9483, 0.9479,0.9483, 0.9491, 0.9622, 0.9499,0.9499
MultiSource/Applications/oggenc/oggenc, 4.7932, 4.7947, 4.7879,4.7932, 4.8048, 4.8009, 4.8076,4.8048
MultiSource/Applications/sgefa/sgefa, 0.3837, 0.3835, 0.3826,0.3835, 0.3833, 0.3836, 0.3843,0.3836
MultiSource/Applications/siod/siod, 1.9286, 1.9302, 1.9272,1.9286, 1.9375, 1.9515, 1.9341,1.9375
MultiSource/Applications/spiff/spiff, 0.7322, 0.7359, 0.7366,0.7359, 0.7295, 0.7295, 0.7290,0.7295
MultiSource/Applications/sqlite3/sqlite3,14.6705,14.6707,14.6684,14.6705,14.7064,14.7261,14.7326,14.7261
MultiSource/Applications/viterbi/viterbi, 0.1627, 0.1625, 0.1623,0.1625, 0.1628, 0.1626, 0.1625,0.1626
MultiSource/Benchmarks/7zip/7zip-benchmark,33.5839,33.5083,33.5028,33.5083,33.5967,33.6022,33.5941,33.5967
MultiSource/Benchmarks/ASCI_Purple/SMG2000/smg2000, 5.5976, 5.5833, 5.5891,5.5891, 5.5848, 5.5852, 5.5943,5.5852
MultiSource/Benchmarks/ASC_Sequoia/AMGmk/AMGmk, 0.5780, 0.5839, 0.5820,0.582, 0.5862, 0.5807, 0.5840,0.584
MultiSource/Benchmarks/ASC_Sequoia/CrystalMk/CrystalMk, 0.2146, 0.2138, 0.2141,0.2141, 0.2139, 0.2138, 0.2137,0.2138
MultiSource/Benchmarks/ASC_Sequoia/IRSmk/IRSmk, 0.0992, 0.0989, 0.0987,0.0989, 0.0988, 0.0987, 0.0988,0.0988
MultiSource/Benchmarks/BitBench/drop3/drop3, 0.0419, 0.0418, 0.0418,0.0418, 0.0417, 0.0417, 0.0418,0.0417
MultiSource/Benchmarks/BitBench/five11/five11, 0.0527, 0.0525, 0.0526,0.0526, 0.0526, 0.0526, 0.0526,0.0526
MultiSource/Benchmarks/BitBench/uudecode/uudecode, 0.0426, 0.0424, 0.0425,0.0425, 0.0425, 0.0424, 0.0425,0.0425
MultiSource/Benchmarks/BitBench/uuencode/uuencode, 0.0418, 0.0418, 0.0417,0.0418, 0.0418, 0.0418, 0.0417,0.0418
MultiSource/Benchmarks/Bullet/bullet,22.8192,22.7436,22.7508,22.7508,22.8431,22.8082,22.8336,22.8336
MultiSource/Benchmarks/DOE-ProxyApps-C++/CLAMR/CLAMR,17.8529,17.7528,17.7772,17.7772,17.8438,17.8485,17.8406,17.8438
MultiSource/Benchmarks/DOE-ProxyApps-C++/HPCCG/HPCCG, 1.4116, 1.4054, 1.4061,1.4061, 1.4144, 1.4147, 1.4133,1.4144
MultiSource/Benchmarks/DOE-ProxyApps-C++/PENNANT/PENNANT, 4.0559, 4.0476, 4.0443,4.0476, 4.0627, 4.0578, 4.0595,4.0595
MultiSource/Benchmarks/DOE-ProxyApps-C++/miniFE/miniFE, 2.6789, 2.6628, 2.6652,2.6652, 2.6805, 2.6799, 2.6777,2.6799
MultiSource/Benchmarks/DOE-ProxyApps-C/Pathfinder/PathFinder, 0.7936, 0.7973, 0.7922,0.7936, 0.7980, 0.7951, 0.7981,0.798
MultiSource/Benchmarks/DOE-ProxyApps-C/RSBench/rsbench, 0.3999, 0.4018, 0.3977,0.3999, 0.3971, 0.3977, 0.4006,0.3977
MultiSource/Benchmarks/DOE-ProxyApps-C/SimpleMOC/SimpleMOC, 0.8516, 0.8500, 0.8492,0.85, 0.8481, 0.8481, 0.8493,0.8481
MultiSource/Benchmarks/DOE-ProxyApps-C/XSBench/XSBench, 0.3458, 0.3453, 0.3448,0.3453, 0.3439, 0.3439, 0.3435,0.3439
MultiSource/Benchmarks/DOE-ProxyApps-C/miniAMR/miniAMR, 1.3217, 1.3196, 1.3193,1.3196, 1.3201, 1.3207, 1.3212,1.3207
MultiSource/Benchmarks/DOE-ProxyApps-C/miniGMG/miniGMG, 0.9674, 0.9597, 0.9583,0.9597, 0.9595, 0.9603, 0.9600,0.96
MultiSource/Benchmarks/Fhourstones-3.1/fhourstones3.1, 0.1154, 0.1151, 0.1150,0.1151, 0.1153, 0.1151, 0.1152,0.1152
MultiSource/Benchmarks/Fhourstones/fhourstones, 0.1556, 0.1555, 0.1552,0.1555, 0.1558, 0.1559, 0.1558,0.1558
MultiSource/Benchmarks/FreeBench/analyzer/analyzer, 0.2328, 0.2326, 0.2325,0.2326, 0.2399, 0.2344, 0.2322,0.2344
MultiSource/Benchmarks/FreeBench/distray/distray, 0.0919, 0.0918, 0.0916,0.0918, 0.0917, 0.0917, 0.0915,0.0917
MultiSource/Benchmarks/FreeBench/fourinarow/fourinarow, 0.3332, 0.3332, 0.3332,0.3332, 0.3334, 0.3334, 0.3332,0.3334
MultiSource/Benchmarks/FreeBench/mason/mason, 0.0485, 0.0485, 0.0485,0.0485, 0.0483, 0.0485, 0.0484,0.0484
MultiSource/Benchmarks/FreeBench/neural/neural, 0.1748, 0.1746, 0.1741,0.1746, 0.1746, 0.1746, 0.1749,0.1746
MultiSource/Benchmarks/FreeBench/pcompress2/pcompress2, 0.2485, 0.2486, 0.2489,0.2486, 0.2478, 0.2435, 0.2424,0.2435
MultiSource/Benchmarks/FreeBench/pifft/pifft, 0.9160, 0.9140, 0.9142,0.9142, 0.9173, 0.9189, 0.9187,0.9187
MultiSource/Benchmarks/MallocBench/cfrac/cfrac, 0.8447, 0.8431, 0.8440,0.844, 0.8400, 0.8367, 0.8434,0.84
MultiSource/Benchmarks/MallocBench/espresso/espresso, 4.5249, 4.5221, 4.5173,4.5221, 4.5226, 4.5195, 4.5219,4.5219
MultiSource/Benchmarks/MallocBench/gs/gs, 3.6875, 3.6419, 3.6445,3.6445, 3.6424, 3.6429, 3.6428,3.6428
MultiSource/Benchmarks/McCat/01-qbsort/qbsort, 0.0985, 0.0995, 0.0950,0.0985, 0.0965, 0.1035, 0.0989,0.0989
MultiSource/Benchmarks/McCat/03-testtrie/testtrie, 0.0967, 0.0873, 0.0872,0.0873, 0.0870, 0.0871, 0.0868,0.087
MultiSource/Benchmarks/McCat/04-bisect/bisect, 0.1254, 0.1251, 0.1251,0.1251, 0.1250, 0.1249, 0.1250,0.125
MultiSource/Benchmarks/McCat/05-eks/eks, 0.5096, 0.5086, 0.5076,0.5086, 0.5085, 0.5085, 0.5081,0.5085
MultiSource/Benchmarks/McCat/08-main/main, 0.2362, 0.2356, 0.2355,0.2356, 0.2359, 0.2360, 0.2357,0.2359
MultiSource/Benchmarks/McCat/09-vor/vor, 0.2633, 0.2630, 0.2631,0.2631, 0.2629, 0.2629, 0.2625,0.2629
MultiSource/Benchmarks/McCat/12-IOtest/iotest, 0.0894, 0.0890, 0.0888,0.089, 0.0886, 0.0962, 0.0887,0.0887
MultiSource/Benchmarks/McCat/17-bintr/bintr, 0.0674, 0.0672, 0.0672,0.0672, 0.0671, 0.0671, 0.0670,0.0671
MultiSource/Benchmarks/McCat/18-imp/imp, 0.3348, 0.3227, 0.3221,0.3227, 0.3225, 0.3223, 0.3223,0.3223
MultiSource/Benchmarks/MiBench/automotive-basicmath/automotive-basicmath, 0.1400, 0.1393, 0.1392,0.1393, 0.1388, 0.1464, 0.1387,0.1388
MultiSource/Benchmarks/MiBench/automotive-bitcount/automotive-bitcount, 0.2460, 0.2456, 0.2452,0.2456, 0.2448, 0.2444, 0.2442,0.2444
MultiSource/Benchmarks/MiBench/automotive-susan/automotive-susan, 0.6312, 0.6352, 0.6339,0.6339, 0.6395, 0.6381, 0.6381,0.6381
MultiSource/Benchmarks/MiBench/consumer-jpeg/consumer-jpeg, 4.3456, 4.3376, 4.3364,4.3376, 4.3405, 4.3422, 4.3438,4.3422
MultiSource/Benchmarks/MiBench/consumer-lame/consumer-lame, 3.9082, 3.9046, 3.9006,3.9046, 3.8994, 3.8995, 3.9015,3.8995
MultiSource/Benchmarks/MiBench/consumer-typeset/consumer-typeset, 9.7079, 9.6734, 9.6688,9.6734, 9.6600, 9.6563, 9.6729,9.66
MultiSource/Benchmarks/MiBench/network-dijkstra/network-dijkstra, 0.0407, 0.0407, 0.0406,0.0407, 0.0408, 0.0407, 0.0407,0.0407
MultiSource/Benchmarks/MiBench/network-patricia/network-patricia, 0.0868, 0.0907, 0.0803,0.0868, 0.0818, 0.0812, 0.0879,0.0818
MultiSource/Benchmarks/MiBench/security-rijndael/security-rijndael, 0.3905, 0.3907, 0.3908,0.3907, 0.3890, 0.3891, 0.3892,0.3891
MultiSource/Benchmarks/MiBench/security-sha/security-sha, 0.1151, 0.1148, 0.1147,0.1148, 0.1144, 0.1144, 0.1144,0.1144
MultiSource/Benchmarks/MiBench/telecomm-CRC32/telecomm-CRC32, 0.0341, 0.0339, 0.0340,0.034, 0.0338, 0.0339, 0.0338,0.0338
MultiSource/Benchmarks/MiBench/telecomm-FFT/telecomm-fft, 0.1363, 0.1361, 0.1358,0.1361, 0.1359, 0.1362, 0.1361,0.1361
MultiSource/Benchmarks/MiBench/telecomm-adpcm/telecomm-adpcm, 0.0532, 0.0532, 0.0532,0.0532, 0.0530, 0.0530, 0.0530,0.053
MultiSource/Benchmarks/MiBench/telecomm-gsm/telecomm-gsm, 1.0203, 1.0130, 1.0133,1.0133, 1.0068, 1.0119, 1.0126,1.0119
MultiSource/Benchmarks/NPB-serial/is/is, 0.0635, 0.0632, 0.0633,0.0633, 0.0634, 0.0633, 0.0632,0.0633
MultiSource/Benchmarks/Olden/bh/bh, 0.2505, 0.2503, 0.2503,0.2503, 0.2502, 0.2501, 0.2501,0.2501
MultiSource/Benchmarks/Olden/bisort/bisort, 0.0612, 0.0612, 0.0611,0.0612, 0.0609, 0.0610, 0.0610,0.061
MultiSource/Benchmarks/Olden/em3d/em3d, 0.1698, 0.1695, 0.1696,0.1696, 0.1691, 0.1695, 0.1692,0.1692
MultiSource/Benchmarks/Olden/health/health, 0.1327, 0.1325, 0.1324,0.1325, 0.1321, 0.1321, 0.1320,0.1321
MultiSource/Benchmarks/Olden/mst/mst, 0.1206, 0.1204, 0.1202,0.1204, 0.1200, 0.1200, 0.1198,0.12
MultiSource/Benchmarks/Olden/perimeter/perimeter, 0.0745, 0.0741, 0.0742,0.0742, 0.0741, 0.0740, 0.0740,0.074
MultiSource/Benchmarks/Olden/power/power, 0.1238, 0.1238, 0.1236,0.1238, 0.1235, 0.1234, 0.1234,0.1234
MultiSource/Benchmarks/Olden/treeadd/treeadd, 0.0524, 0.0521, 0.0519,0.0521, 0.0520, 0.0519, 0.0519,0.0519
MultiSource/Benchmarks/Olden/tsp/tsp, 0.1225, 0.1223, 0.1218,0.1223, 0.1220, 0.1219, 0.1219,0.1219
MultiSource/Benchmarks/Olden/voronoi/voronoi, 0.2145, 0.2117, 0.2110,0.2117, 0.2095, 0.2098, 0.2095,0.2095
MultiSource/Benchmarks/PAQ8p/paq8p, 1.8761, 1.8736, 1.8913,1.8761, 1.8909, 1.8790, 1.8919,1.8909
MultiSource/Benchmarks/Prolangs-C++/city/city, 0.8938, 0.8900, 0.8912,0.8912, 0.8969, 0.8963, 0.8956,0.8963
MultiSource/Benchmarks/Prolangs-C++/employ/employ, 0.1979, 0.1974, 0.1980,0.1979, 0.1988, 0.1989, 0.1983,0.1988
MultiSource/Benchmarks/Prolangs-C++/life/life, 0.0581, 0.0581, 0.0580,0.0581, 0.0585, 0.0583, 0.0584,0.0584
MultiSource/Benchmarks/Prolangs-C++/ocean/ocean, 0.1066, 0.1065, 0.1065,0.1065, 0.1068, 0.1068, 0.1070,0.1068
MultiSource/Benchmarks/Prolangs-C++/primes/primes, 0.0240, 0.0238, 0.0239,0.0239, 0.0238, 0.0238, 0.0238,0.0238
MultiSource/Benchmarks/Prolangs-C++/simul/simul, 0.0517, 0.0517, 0.0515,0.0517, 0.0512, 0.0516, 0.0513,0.0513
MultiSource/Benchmarks/Prolangs-C/agrep/agrep, 1.3123, 1.3130, 1.3098,1.3123, 1.3126, 1.3190, 1.3157,1.3157
MultiSource/Benchmarks/Prolangs-C/bison/mybison, 1.5805, 1.5782, 1.5767,1.5782, 1.5811, 1.5808, 1.5801,1.5808
MultiSource/Benchmarks/Prolangs-C/gnugo/gnugo, 0.6980, 0.6955, 0.6951,0.6955, 0.6958, 0.6953, 0.6954,0.6954
MultiSource/Benchmarks/Ptrdist/anagram/anagram, 0.0981, 0.0980, 0.0980,0.098, 0.0979, 0.0980, 0.0979,0.0979
MultiSource/Benchmarks/Ptrdist/bc/bc, 0.9900, 0.9881, 0.9876,0.9881, 0.9878, 0.9882, 0.9888,0.9882
MultiSource/Benchmarks/Ptrdist/ft/ft, 0.2006, 0.2000, 0.1998,0.2, 0.1999, 0.2001, 0.1999,0.1999
MultiSource/Benchmarks/Ptrdist/ks/ks, 0.1418, 0.1416, 0.1415,0.1416, 0.1412, 0.1411, 0.1412,0.1412
MultiSource/Benchmarks/Ptrdist/yacr2/yacr2, 0.6128, 0.5920, 0.5919,0.592, 0.5918, 0.5917, 0.5916,0.5917
MultiSource/Benchmarks/SciMark2-C/scimark2, 0.3580, 0.3566, 0.3559,0.3566, 0.3575, 0.3571, 0.3571,0.3571
MultiSource/Benchmarks/TSVC/ControlFlow-dbl/ControlFlow-dbl, 2.1362, 2.1238, 2.1227,2.1238, 2.1194, 2.1422, 2.1393,2.1393
MultiSource/Benchmarks/TSVC/ControlFlow-flt/ControlFlow-flt, 1.7936, 1.7980, 1.7935,1.7936, 1.8027, 1.7975, 1.8086,1.8027
MultiSource/Benchmarks/TSVC/ControlLoops-dbl/ControlLoops-dbl, 2.0345, 2.0352, 2.0328,2.0345, 2.0432, 2.0386, 2.0407,2.0407
MultiSource/Benchmarks/TSVC/ControlLoops-flt/ControlLoops-flt, 1.7001, 1.7035, 1.6983,1.7001, 1.7118, 1.7083, 1.6872,1.7083
MultiSource/Benchmarks/TSVC/CrossingThresholds-dbl/CrossingThresholds-dbl, 1.9862, 1.9920, 1.9862,1.9862, 2.0048, 2.0005, 2.0030,2.003
MultiSource/Benchmarks/TSVC/CrossingThresholds-flt/CrossingThresholds-flt, 1.6336, 1.6626, 1.6576,1.6576, 1.6620, 1.6428, 1.6632,1.662
MultiSource/Benchmarks/TSVC/Equivalencing-dbl/Equivalencing-dbl, 1.9966, 1.9962, 1.9933,1.9962, 1.9976, 1.9972, 2.0002,1.9976
MultiSource/Benchmarks/TSVC/Equivalencing-flt/Equivalencing-flt, 1.6680, 1.6578, 1.6546,1.6578, 1.6683, 1.6645, 1.6671,1.6671
MultiSource/Benchmarks/TSVC/Expansion-dbl/Expansion-dbl, 2.0238, 2.0233, 2.0218,2.0233, 2.0464, 2.0421, 2.0415,2.0421
MultiSource/Benchmarks/TSVC/Expansion-flt/Expansion-flt, 1.6974, 1.7082, 1.6963,1.6974, 1.7076, 1.7083, 1.7095,1.7083
MultiSource/Benchmarks/TSVC/GlobalDataFlow-dbl/GlobalDataFlow-dbl, 2.0257, 2.0239, 2.0249,2.0249, 2.0285, 2.0159, 2.0264,2.0264
MultiSource/Benchmarks/TSVC/GlobalDataFlow-flt/GlobalDataFlow-flt, 1.6893, 1.6917, 1.6899,1.6899, 1.6828, 1.6982, 1.6950,1.695
MultiSource/Benchmarks/TSVC/IndirectAddressing-dbl/IndirectAddressing-dbl, 1.9778, 1.9744, 1.9744,1.9744, 1.9911, 1.9896, 1.9891,1.9896
MultiSource/Benchmarks/TSVC/IndirectAddressing-flt/IndirectAddressing-flt, 1.6449, 1.6472, 1.6447,1.6449, 1.6552, 1.6501, 1.6534,1.6534
MultiSource/Benchmarks/TSVC/InductionVariable-dbl/InductionVariable-dbl, 2.0021, 1.9987, 1.9995,1.9995, 2.0041, 2.0108, 2.0117,2.0108
MultiSource/Benchmarks/TSVC/InductionVariable-flt/InductionVariable-flt, 1.6862, 1.6748, 1.6688,1.6748, 1.6807, 1.6775, 1.6811,1.6807
MultiSource/Benchmarks/TSVC/LinearDependence-dbl/LinearDependence-dbl, 2.0429, 2.0447, 2.0414,2.0429, 2.0528, 2.0519, 2.0518,2.0519
MultiSource/Benchmarks/TSVC/LinearDependence-flt/LinearDependence-flt, 1.7221, 1.7281, 1.7193,1.7221, 1.7509, 1.7312, 1.7352,1.7352
MultiSource/Benchmarks/TSVC/LoopRerolling-dbl/LoopRerolling-dbl, 1.9510, 1.9520, 1.9522,1.952, 1.9600, 1.9589, 1.9614,1.96
MultiSource/Benchmarks/TSVC/LoopRerolling-flt/LoopRerolling-flt, 1.6229, 1.6210, 1.6106,1.621, 1.6271, 1.6245, 1.6250,1.625
MultiSource/Benchmarks/TSVC/LoopRestructuring-dbl/LoopRestructuring-dbl, 1.9961, 1.9975, 1.9960,1.9961, 2.0092, 2.0097, 2.0111,2.0097
MultiSource/Benchmarks/TSVC/LoopRestructuring-flt/LoopRestructuring-flt, 1.6705, 1.6710, 1.6702,1.6705, 1.6861, 1.6758, 1.6780,1.678
MultiSource/Benchmarks/TSVC/NodeSplitting-dbl/NodeSplitting-dbl, 1.9657, 1.9710, 1.9692,1.9692, 1.9753, 1.9768, 1.9753,1.9753
MultiSource/Benchmarks/TSVC/NodeSplitting-flt/NodeSplitting-flt, 1.6234, 1.6457, 1.6350,1.635, 1.6460, 1.6426, 1.6450,1.645
MultiSource/Benchmarks/TSVC/Packing-dbl/Packing-dbl, 1.9458, 1.9419, 1.9412,1.9419, 1.9640, 1.9585, 1.9575,1.9585
MultiSource/Benchmarks/TSVC/Packing-flt/Packing-flt, 1.6149, 1.6161, 1.6142,1.6149, 1.6183, 1.6149, 1.6194,1.6183
MultiSource/Benchmarks/TSVC/Recurrences-dbl/Recurrences-dbl, 1.9400, 1.9421, 1.9430,1.9421, 1.9524, 1.9545, 1.9516,1.9524
MultiSource/Benchmarks/TSVC/Recurrences-flt/Recurrences-flt, 1.6080, 1.6112, 1.6182,1.6112, 1.6210, 1.6190, 1.6164,1.619
MultiSource/Benchmarks/TSVC/Reductions-dbl/Reductions-dbl, 2.0441, 2.0351, 2.0416,2.0416, 2.0510, 2.0500, 2.0548,2.051
MultiSource/Benchmarks/TSVC/Reductions-flt/Reductions-flt, 1.7099, 1.7114, 1.7399,1.7114, 1.7218, 1.7233, 1.7210,1.7218
MultiSource/Benchmarks/TSVC/Searching-dbl/Searching-dbl, 1.9278, 1.9310, 1.9174,1.9278, 1.9444, 1.9434, 1.9425,1.9434
MultiSource/Benchmarks/TSVC/Searching-flt/Searching-flt, 1.6097, 1.6006, 1.5985,1.6006, 1.6113, 1.6125, 1.6136,1.6125
MultiSource/Benchmarks/TSVC/StatementReordering-dbl/StatementReordering-dbl, 1.9430, 1.9445, 1.9413,1.943, 1.9548, 1.9583, 1.9537,1.9548
MultiSource/Benchmarks/TSVC/StatementReordering-flt/StatementReordering-flt, 1.5907, 1.5961, 1.6075,1.5961, 1.6226, 1.6024, 1.6199,1.6199
MultiSource/Benchmarks/TSVC/Symbolics-dbl/Symbolics-dbl, 1.9835, 1.9845, 1.9819,1.9835, 1.9993, 1.9961, 1.9985,1.9985
MultiSource/Benchmarks/TSVC/Symbolics-flt/Symbolics-flt, 1.6568, 1.6533, 1.6544,1.6544, 1.6689, 1.6583, 1.6641,1.6641
MultiSource/Benchmarks/Trimaran/enc-3des/enc-3des, 0.2379, 0.2376, 0.2377,0.2377, 0.2368, 0.2369, 0.2372,0.2369
MultiSource/Benchmarks/Trimaran/enc-md5/enc-md5, 0.1479, 0.1476, 0.1478,0.1478, 0.1480, 0.1482, 0.1483,0.1482
MultiSource/Benchmarks/Trimaran/enc-pc1/enc-pc1, 0.0634, 0.0634, 0.0633,0.0634, 0.0631, 0.0632, 0.0632,0.0632
MultiSource/Benchmarks/Trimaran/enc-rc4/enc-rc4, 0.0486, 0.0486, 0.0486,0.0486, 0.0485, 0.0485, 0.0484,0.0485
MultiSource/Benchmarks/Trimaran/netbench-crc/netbench-crc, 0.0748, 0.0747, 0.0746,0.0747, 0.0745, 0.0746, 0.0745,0.0745
MultiSource/Benchmarks/Trimaran/netbench-url/netbench-url, 0.2041, 0.1997, 0.2051,0.2041, 0.1994, 0.1996, 0.1997,0.1996
MultiSource/Benchmarks/VersaBench/8b10b/8b10b, 0.0710, 0.0709, 0.0708,0.0709, 0.0706, 0.0705, 0.0707,0.0706
MultiSource/Benchmarks/VersaBench/beamformer/beamformer, 0.3020, 0.3042, 0.3042,0.3042, 0.3084, 0.3118, 0.3117,0.3117
MultiSource/Benchmarks/VersaBench/bmm/bmm, 0.0499, 0.0498, 0.0497,0.0498, 0.0497, 0.0496, 0.0497,0.0497
MultiSource/Benchmarks/VersaBench/dbms/dbms, 0.9625, 0.9406, 0.9301,0.9406, 0.9315, 0.9411, 0.9349,0.9349
MultiSource/Benchmarks/VersaBench/ecbdes/ecbdes, 0.2068, 0.2065, 0.2063,0.2065, 0.2054, 0.2057, 0.2057,0.2057
MultiSource/Benchmarks/llubenchmark/llu, 0.0461, 0.0459, 0.0458,0.0459, 0.0459, 0.0458, 0.0459,0.0459
MultiSource/Benchmarks/mafft/pairlocalalign, 8.6226, 8.6153, 8.6122,8.6153, 8.6313, 8.6293, 8.6340,8.6313
MultiSource/Benchmarks/mediabench/adpcm/rawcaudio/rawcaudio, 0.0535, 0.0535, 0.0533,0.0535, 0.0534, 0.0533, 0.0533,0.0533
MultiSource/Benchmarks/mediabench/adpcm/rawdaudio/rawdaudio, 0.0534, 0.0534, 0.0533,0.0534, 0.0532, 0.0531, 0.0533,0.0532
MultiSource/Benchmarks/mediabench/g721/g721encode/encode, 0.1887, 0.1878, 0.1878,0.1878, 0.1889, 0.1888, 0.1888,0.1888
MultiSource/Benchmarks/mediabench/gsm/toast/toast, 1.0069, 1.0050, 1.0039,1.005, 1.0034, 1.0032, 1.0033,1.0033
MultiSource/Benchmarks/mediabench/jpeg/jpeg-6a/cjpeg, 4.4021, 4.3904, 4.3840,4.3904, 4.3907, 4.3881, 4.3955,4.3907
MultiSource/Benchmarks/mediabench/mpeg2/mpeg2dec/mpeg2decode, 1.3103, 1.3042, 1.3130,1.3103, 1.3095, 1.3029, 1.3120,1.3095
MultiSource/Benchmarks/nbench/nbench, 1.1038, 1.1030, 1.1019,1.103, 1.1056, 1.1063, 1.1076,1.1063
MultiSource/Benchmarks/sim/sim, 0.2799, 0.2808, 0.2810,0.2808, 0.2809, 0.2802, 0.2809,0.2809
MultiSource/Benchmarks/tramp3d-v4/tramp3d-v4,19.8563,19.8593,19.8598,19.8593,19.8981,19.8919,19.9494,19.8981
SingleSource/Benchmarks/Adobe-C++/functionobjects, 0.4460, 0.4446, 0.4455,0.4455, 0.4472, 0.4471, 0.4466,0.4471
SingleSource/Benchmarks/Adobe-C++/loop_unroll, 4.3019, 4.3013, 4.3006,4.3013, 4.3127, 4.3116, 4.3142,4.3127
SingleSource/Benchmarks/Adobe-C++/simple_types_constant_folding, 2.4369, 2.4356, 2.4388,2.4369, 2.4455, 2.4458, 2.4421,2.4455
SingleSource/Benchmarks/Adobe-C++/simple_types_loop_invariant, 1.9814, 1.9750, 1.9714,1.975, 1.9746, 1.9716, 1.9647,1.9716
SingleSource/Benchmarks/Adobe-C++/stepanov_abstraction, 0.5392, 0.5387, 0.5388,0.5388, 0.5415, 0.5415, 0.5420,0.5415
SingleSource/Benchmarks/Adobe-C++/stepanov_vector, 0.8361, 0.8351, 0.8350,0.8351, 0.8408, 0.8407, 0.8402,0.8407
SingleSource/Benchmarks/BenchmarkGame/Large/fasta, 0.0420, 0.0399, 0.0456,0.042, 0.0471, 0.0397, 0.0397,0.0397
SingleSource/Benchmarks/BenchmarkGame/fannkuch, 0.0505, 0.0503, 0.0503,0.0503, 0.0503, 0.0503, 0.0502,0.0503
SingleSource/Benchmarks/BenchmarkGame/n-body, 0.0698, 0.0697, 0.0697,0.0697, 0.0696, 0.0695, 0.0696,0.0696
SingleSource/Benchmarks/BenchmarkGame/nsieve-bits, 0.0310, 0.0310, 0.0310,0.031, 0.0310, 0.0310, 0.0310,0.031
SingleSource/Benchmarks/BenchmarkGame/partialsums, 0.0395, 0.0288, 0.0399,0.0395, 0.0352, 0.0288, 0.0287,0.0288
SingleSource/Benchmarks/BenchmarkGame/puzzle, 0.0546, 0.0545, 0.0544,0.0545, 0.0545, 0.0545, 0.0545,0.0545
SingleSource/Benchmarks/BenchmarkGame/recursive, 0.0290, 0.0253, 0.0334,0.029, 0.0270, 0.0252, 0.0252,0.0252
SingleSource/Benchmarks/BenchmarkGame/spectral-norm, 0.0536, 0.0535, 0.0535,0.0535, 0.0534, 0.0536, 0.0534,0.0534
SingleSource/Benchmarks/CoyoteBench/almabench, 0.0673, 0.0673, 0.0674,0.0673, 0.0674, 0.0673, 0.0673,0.0673
SingleSource/Benchmarks/CoyoteBench/fftbench, 0.5521, 0.5535, 0.5541,0.5535, 0.5530, 0.5450, 0.5413,0.545
SingleSource/Benchmarks/CoyoteBench/huffbench, 0.0827, 0.0826, 0.0826,0.0826, 0.0826, 0.0826, 0.0826,0.0826
SingleSource/Benchmarks/CoyoteBench/lpbench, 0.1484, 0.1481, 0.1482,0.1482, 0.1483, 0.1484, 0.1484,0.1484
SingleSource/Benchmarks/Dhrystone/dry, 0.0400, 0.0399, 0.0399,0.0399, 0.0398, 0.0397, 0.0397,0.0397
SingleSource/Benchmarks/Dhrystone/fldry, 0.0431, 0.0429, 0.0431,0.0431, 0.0429, 0.0428, 0.0428,0.0428
SingleSource/Benchmarks/Linpack/linpack-pc, 0.3066, 0.3046, 0.3048,0.3048, 0.3059, 0.3049, 0.3052,0.3052
SingleSource/Benchmarks/McGill/chomp, 0.1843, 0.1841, 0.1842,0.1842, 0.1848, 0.1848, 0.1846,0.1848
SingleSource/Benchmarks/McGill/misr, 0.0523, 0.0523, 0.0523,0.0523, 0.0523, 0.0522, 0.0523,0.0523
SingleSource/Benchmarks/McGill/queens, 0.0437, 0.0436, 0.0437,0.0437, 0.0436, 0.0436, 0.0436,0.0436
SingleSource/Benchmarks/Misc-C++-EH/spirit, 3.5653, 3.5593, 3.5421,3.5593, 3.5931, 3.5991, 3.5895,3.5931
SingleSource/Benchmarks/Misc-C++/Large/ray, 0.2260, 0.2257, 0.2237,0.2257, 0.2266, 0.2312, 0.2322,0.2312
SingleSource/Benchmarks/Misc-C++/Large/sphereflake, 0.2204, 0.2194, 0.2187,0.2194, 0.2205, 0.2204, 0.2204,0.2204
SingleSource/Benchmarks/Misc-C++/bigfib, 0.4495, 0.4377, 0.4481,0.4481, 0.4625, 0.4400, 0.4402,0.4402
SingleSource/Benchmarks/Misc-C++/mandel-text, 0.0231, 0.0230, 0.0230,0.023, 0.0230, 0.0230, 0.0230,0.023
SingleSource/Benchmarks/Misc-C++/oopack_v1p8, 0.1270, 0.1231, 0.1201,0.1231, 0.1267, 0.1106, 0.1255,0.1255
SingleSource/Benchmarks/Misc-C++/stepanov_container, 0.6657, 0.6662, 0.6720,0.6662, 0.6488, 0.6742, 0.6693,0.6693
SingleSource/Benchmarks/Misc-C++/stepanov_v1p2, 0.1706, 0.1707, 0.1703,0.1706, 0.1706, 0.1711, 0.1704,0.1706
SingleSource/Benchmarks/Misc/ReedSolomon, 0.1868, 0.1866, 0.1862,0.1866, 0.1873, 0.1875, 0.1874,0.1874
SingleSource/Benchmarks/Misc/dt, 0.0315, 0.0314, 0.0313,0.0314, 0.0314, 0.0314, 0.0312,0.0314
SingleSource/Benchmarks/Misc/evalloop, 0.0351, 0.0350, 0.0349,0.035, 0.0350, 0.0350, 0.0350,0.035
SingleSource/Benchmarks/Misc/fbench, 0.0531, 0.0529, 0.0530,0.053, 0.0528, 0.0528, 0.0528,0.0528
SingleSource/Benchmarks/Misc/ffbench, 0.0660, 0.0659, 0.0659,0.0659, 0.0658, 0.0661, 0.0659,0.0659
SingleSource/Benchmarks/Misc/flops, 0.0762, 0.0760, 0.0759,0.076, 0.0756, 0.0757, 0.0756,0.0756
SingleSource/Benchmarks/Misc/flops-1, 0.0262, 0.0260, 0.0260,0.026, 0.0260, 0.0260, 0.0260,0.026
SingleSource/Benchmarks/Misc/flops-2, 0.0271, 0.0271, 0.0270,0.0271, 0.0269, 0.0269, 0.0269,0.0269
SingleSource/Benchmarks/Misc/flops-3, 0.0260, 0.0259, 0.0259,0.0259, 0.0259, 0.0257, 0.0258,0.0258
SingleSource/Benchmarks/Misc/flops-4, 0.0265, 0.0264, 0.0264,0.0264, 0.0263, 0.0264, 0.0262,0.0263
SingleSource/Benchmarks/Misc/flops-5, 0.0272, 0.0271, 0.0270,0.0271, 0.0270, 0.0269, 0.0268,0.0269
SingleSource/Benchmarks/Misc/flops-6, 0.0271, 0.0271, 0.0269,0.0271, 0.0269, 0.0269, 0.0268,0.0269
SingleSource/Benchmarks/Misc/flops-7, 0.0260, 0.0258, 0.0257,0.0258, 0.0256, 0.0257, 0.0257,0.0257
SingleSource/Benchmarks/Misc/flops-8, 0.0272, 0.0271, 0.0270,0.0271, 0.0269, 0.0269, 0.0269,0.0269
SingleSource/Benchmarks/Misc/fp-convert, 0.0291, 0.0291, 0.0290,0.0291, 0.0290, 0.0291, 0.0290,0.029
SingleSource/Benchmarks/Misc/himenobmtxpa, 0.1742, 0.1738, 0.1738,0.1738, 0.1744, 0.1748, 0.1746,0.1746
SingleSource/Benchmarks/Misc/lowercase, 0.0243, 0.0242, 0.0242,0.0242, 0.0241, 0.0241, 0.0241,0.0241
SingleSource/Benchmarks/Misc/mandel, 0.0493, 0.0430, 0.0515,0.0493, 0.0586, 0.0429, 0.0430,0.043
SingleSource/Benchmarks/Misc/mandel-2, 0.0535, 0.0378, 0.0520,0.052, 0.0476, 0.0418, 0.0476,0.0476
SingleSource/Benchmarks/Misc/matmul_f64_4x4, 0.0273, 0.0273, 0.0273,0.0273, 0.0272, 0.0272, 0.0271,0.0272
SingleSource/Benchmarks/Misc/oourafft, 0.2084, 0.2083, 0.2080,0.2083, 0.2264, 0.2095, 0.2248,0.2248
SingleSource/Benchmarks/Misc/perlin, 0.0440, 0.0439, 0.0439,0.0439, 0.0442, 0.0442, 0.0441,0.0442
SingleSource/Benchmarks/Misc/pi, 0.0200, 0.0200, 0.0199,0.02, 0.0200, 0.0199, 0.0200,0.02
SingleSource/Benchmarks/Misc/revertBits, 0.0245, 0.0244, 0.0243,0.0244, 0.0244, 0.0244, 0.0244,0.0244
SingleSource/Benchmarks/Misc/richards_benchmark, 0.0623, 0.0621, 0.0620,0.0621, 0.0619, 0.0620, 0.0620,0.062
SingleSource/Benchmarks/Misc/salsa20, 0.0533, 0.0531, 0.0530,0.0531, 0.0534, 0.0534, 0.0535,0.0534
SingleSource/Benchmarks/Misc/whetstone, 0.0662, 0.0660, 0.0658,0.066, 0.0658, 0.0660, 0.0660,0.066
SingleSource/Benchmarks/Polybench/datamining/correlation/correlation, 0.0752, 0.0748, 0.0747,0.0748, 0.0749, 0.0751, 0.0748,0.0749
SingleSource/Benchmarks/Polybench/datamining/covariance/covariance, 0.0826, 0.0826, 0.0824,0.0826, 0.0826, 0.0825, 0.0825,0.0825
SingleSource/Benchmarks/Polybench/linear-algebra/kernels/atax/atax, 0.0790, 0.0788, 0.0788,0.0788, 0.0788, 0.0791, 0.0788,0.0788
SingleSource/Benchmarks/Polybench/linear-algebra/kernels/bicg/bicg, 0.0776, 0.0772, 0.0772,0.0772, 0.0771, 0.0774, 0.0773,0.0773
SingleSource/Benchmarks/Polybench/linear-algebra/kernels/cholesky/cholesky, 0.0911, 0.0911, 0.0909,0.0911, 0.0907, 0.0907, 0.0907,0.0907
SingleSource/Benchmarks/Polybench/linear-algebra/kernels/doitgen/doitgen, 0.0960, 0.0960, 0.0959,0.096, 0.0961, 0.0962, 0.0963,0.0962
SingleSource/Benchmarks/Polybench/linear-algebra/kernels/gemver/gemver, 0.0897, 0.0895, 0.0895,0.0895, 0.0895, 0.0896, 0.0896,0.0896
SingleSource/Benchmarks/Polybench/linear-algebra/kernels/gesummv/gesummv, 0.0659, 0.0658, 0.0658,0.0658, 0.0655, 0.0657, 0.0655,0.0655
SingleSource/Benchmarks/Polybench/linear-algebra/kernels/mvt/mvt, 0.0797, 0.0797, 0.0797,0.0797, 0.0796, 0.0794, 0.0796,0.0796
SingleSource/Benchmarks/Polybench/linear-algebra/kernels/symm/symm, 0.0756, 0.0757, 0.0755,0.0756, 0.0756, 0.0757, 0.0755,0.0756
SingleSource/Benchmarks/Polybench/linear-algebra/kernels/syr2k/syr2k, 0.0771, 0.0771, 0.0769,0.0771, 0.0769, 0.0768, 0.0769,0.0769
SingleSource/Benchmarks/Polybench/linear-algebra/kernels/syrk/syrk, 0.0756, 0.0754, 0.0751,0.0754, 0.0751, 0.0754, 0.0752,0.0752
SingleSource/Benchmarks/Polybench/linear-algebra/kernels/trisolv/trisolv, 0.0622, 0.0622, 0.0622,0.0622, 0.0620, 0.0622, 0.0622,0.0622
SingleSource/Benchmarks/Polybench/linear-algebra/kernels/trmm/trmm, 0.0714, 0.0712, 0.0710,0.0712, 0.0712, 0.0712, 0.0711,0.0712
SingleSource/Benchmarks/Polybench/linear-algebra/solvers/durbin/durbin, 0.0870, 0.0871, 0.0867,0.087, 0.0867, 0.0866, 0.0865,0.0866
SingleSource/Benchmarks/Polybench/linear-algebra/solvers/dynprog/dynprog, 0.0720, 0.0718, 0.0718,0.0718, 0.0718, 0.0717, 0.0716,0.0717
SingleSource/Benchmarks/Polybench/linear-algebra/solvers/gramschmidt/gramschmidt, 0.1011, 0.1009, 0.1008,0.1009, 0.1011, 0.1008, 0.1008,0.1008
SingleSource/Benchmarks/Polybench/linear-algebra/solvers/lu/lu, 0.0885, 0.0884, 0.0881,0.0884, 0.0883, 0.0883, 0.0884,0.0883
SingleSource/Benchmarks/Polybench/medley/floyd-warshall/floyd-warshall, 0.0906, 0.0745, 0.0892,0.0892, 0.0867, 0.0742, 0.0743,0.0743
SingleSource/Benchmarks/Polybench/medley/reg_detect/reg_detect, 0.4185, 0.4186, 0.4183,0.4185, 0.4179, 0.4173, 0.4178,0.4178
SingleSource/Benchmarks/Polybench/stencils/adi/adi, 0.0890, 0.0888, 0.0888,0.0888, 0.0887, 0.0889, 0.0887,0.0887
SingleSource/Benchmarks/Polybench/stencils/fdtd-2d/fdtd-2d, 0.1367, 0.1366, 0.1366,0.1366, 0.1369, 0.1366, 0.1368,0.1368
SingleSource/Benchmarks/Polybench/stencils/fdtd-apml/fdtd-apml, 0.1305, 0.1304, 0.1305,0.1305, 0.1300, 0.1301, 0.1303,0.1301
SingleSource/Benchmarks/Polybench/stencils/jacobi-1d-imper/jacobi-1d-imper, 0.0826, 0.0826, 0.0824,0.0826, 0.0828, 0.0828, 0.0828,0.0828
SingleSource/Benchmarks/Polybench/stencils/jacobi-2d-imper/jacobi-2d-imper, 0.1117, 0.1114, 0.1113,0.1114, 0.1118, 0.1118, 0.1117,0.1118
SingleSource/Benchmarks/Polybench/stencils/seidel-2d/seidel-2d, 0.0690, 0.0688, 0.0688,0.0688, 0.0688, 0.0687, 0.0685,0.0687
SingleSource/Benchmarks/Shootout-C++/EH/except, 0.1595, 0.1292, 0.1294,0.1294, 0.1585, 0.1300, 0.1292,0.13
SingleSource/Benchmarks/Shootout-C++/ackermann, 0.1167, 0.1162, 0.1161,0.1162, 0.1174, 0.1173, 0.1170,0.1173
SingleSource/Benchmarks/Shootout-C++/ary, 0.1547, 0.1538, 0.1539,0.1539, 0.1555, 0.1550, 0.1549,0.155
SingleSource/Benchmarks/Shootout-C++/ary2, 0.1562, 0.1551, 0.1555,0.1555, 0.1574, 0.1575, 0.1568,0.1574
SingleSource/Benchmarks/Shootout-C++/ary3, 0.1586, 0.1581, 0.1581,0.1581, 0.1594, 0.1595, 0.1589,0.1594
SingleSource/Benchmarks/Shootout-C++/fibo, 0.1147, 0.1143, 0.1141,0.1143, 0.1152, 0.1156, 0.1152,0.1152
SingleSource/Benchmarks/Shootout-C++/hash, 0.2673, 0.2656, 0.2665,0.2665, 0.2675, 0.2677, 0.2675,0.2675
SingleSource/Benchmarks/Shootout-C++/hash2, 0.3050, 0.3325, 0.3309,0.3309, 0.3053, 0.3313, 0.3354,0.3313
SingleSource/Benchmarks/Shootout-C++/heapsort, 0.1313, 0.1309, 0.1309,0.1309, 0.1319, 0.1319, 0.1319,0.1319
SingleSource/Benchmarks/Shootout-C++/lists, 0.1620, 0.1605, 0.1603,0.1605, 0.1620, 0.1607, 0.1607,0.1607
SingleSource/Benchmarks/Shootout-C++/lists1, 0.2145, 0.2176, 0.2035,0.2145, 0.2332, 0.2160, 0.2075,0.216
SingleSource/Benchmarks/Shootout-C++/matrix, 0.1837, 0.1833, 0.1833,0.1833, 0.1837, 0.1837, 0.1836,0.1837
SingleSource/Benchmarks/Shootout-C++/methcall, 0.1248, 0.1244, 0.1244,0.1244, 0.1255, 0.1250, 0.1254,0.1254
SingleSource/Benchmarks/Shootout-C++/moments, 0.2384, 0.2371, 0.2370,0.2371, 0.2393, 0.2398, 0.2391,0.2393
SingleSource/Benchmarks/Shootout-C++/nestedloop, 0.1158, 0.1185, 0.1175,0.1175, 0.1177, 0.1256, 0.1185,0.1185
SingleSource/Benchmarks/Shootout-C++/objinst, 0.1408, 0.1566, 0.1521,0.1521, 0.1527, 0.1649, 0.1584,0.1584
SingleSource/Benchmarks/Shootout-C++/random, 0.1250, 0.1244, 0.1245,0.1245, 0.1249, 0.1255, 0.1249,0.1249
SingleSource/Benchmarks/Shootout-C++/sieve, 0.2091, 0.1834, 0.1836,0.1836, 0.2036, 0.1847, 0.1844,0.1847
SingleSource/Benchmarks/Shootout-C++/strcat, 0.1255, 0.1247, 0.1247,0.1247, 0.1264, 0.1264, 0.1259,0.1264
SingleSource/Benchmarks/Shootout/ackermann, 0.0294, 0.0223, 0.0224,0.0224, 0.0222, 0.0223, 0.0223,0.0223
SingleSource/Benchmarks/Shootout/ary3, 0.0335, 0.0334, 0.0333,0.0334, 0.0334, 0.0334, 0.0334,0.0334
SingleSource/Benchmarks/Shootout/fib2, 0.0187, 0.0186, 0.0186,0.0186, 0.0186, 0.0186, 0.0186,0.0186
SingleSource/Benchmarks/Shootout/hash, 0.0537, 0.0500, 0.0498,0.05, 0.0501, 0.0501, 0.0500,0.0501
SingleSource/Benchmarks/Shootout/heapsort, 0.0380, 0.0379, 0.0378,0.0379, 0.0379, 0.0379, 0.0379,0.0379
SingleSource/Benchmarks/Shootout/lists, 0.0657, 0.0657, 0.0656,0.0657, 0.0655, 0.0656, 0.0655,0.0655
SingleSource/Benchmarks/Shootout/matrix, 0.0809, 0.0809, 0.0809,0.0809, 0.0812, 0.0814, 0.0813,0.0813
SingleSource/Benchmarks/Shootout/methcall, 0.0306, 0.0305, 0.0305,0.0305, 0.0304, 0.0305, 0.0305,0.0305
SingleSource/Benchmarks/Shootout/nestedloop, 0.0232, 0.0231, 0.0231,0.0231, 0.0231, 0.0232, 0.0231,0.0231
SingleSource/Benchmarks/Shootout/objinst, 0.0364, 0.0365, 0.0363,0.0364, 0.0363, 0.0363, 0.0363,0.0363
SingleSource/Benchmarks/Shootout/random, 0.0434, 0.0291, 0.0290,0.0291, 0.0289, 0.0289, 0.0288,0.0289
SingleSource/Benchmarks/Shootout/sieve, 0.0244, 0.0243, 0.0243,0.0243, 0.0243, 0.0243, 0.0242,0.0243
SingleSource/Benchmarks/Shootout/strcat, 0.0263, 0.0262, 0.0261,0.0262, 0.0261, 0.0261, 0.0262,0.0261
SingleSource/Benchmarks/SmallPT/smallpt, 0.0985, 0.0981, 0.0983,0.0983, 0.0984, 0.0984, 0.0984,0.0984
SingleSource/Benchmarks/Stanford/Bubblesort, 0.0329, 0.0327, 0.0327,0.0327, 0.0328, 0.0327, 0.0327,0.0327
SingleSource/Benchmarks/Stanford/FloatMM, 0.0520, 0.0518, 0.0518,0.0518, 0.0519, 0.0518, 0.0519,0.0519
SingleSource/Benchmarks/Stanford/Oscar, 0.0661, 0.0660, 0.0660,0.066, 0.0662, 0.0663, 0.0663,0.0663
SingleSource/Benchmarks/Stanford/Perm, 0.0400, 0.0302, 0.0345,0.0345, 0.0378, 0.0300, 0.0301,0.0301
SingleSource/Benchmarks/Stanford/Puzzle, 0.1087, 0.1084, 0.1085,0.1085, 0.1095, 0.1093, 0.1096,0.1095
SingleSource/Benchmarks/Stanford/Queens, 0.0435, 0.0434, 0.0434,0.0434, 0.0434, 0.0434, 0.0435,0.0434
SingleSource/Benchmarks/Stanford/Quicksort, 0.0426, 0.0363, 0.0403,0.0403, 0.0453, 0.0362, 0.0362,0.0362
SingleSource/Benchmarks/Stanford/RealMM, 0.0490, 0.0490, 0.0489,0.049, 0.0491, 0.0491, 0.0490,0.0491
SingleSource/Benchmarks/Stanford/Towers, 0.0541, 0.0469, 0.0531,0.0531, 0.0489, 0.0469, 0.0468,0.0469
SingleSource/Benchmarks/Stanford/Treesort, 0.0372, 0.0373, 0.0372,0.0372, 0.0372, 0.0372, 0.0372,0.0372
SingleSource/Regression/C/2004-08-12-InlinerAndAllocas, 0.0185, 0.0184, 0.0184,0.0184, 0.0184, 0.0184, 0.0184,0.0184
SingleSource/Regression/C/uint64_to_float, 0.0696, 0.0788, 0.0651,0.0696, 0.0859, 0.0803, 0.0815,0.0815
Total elapsed time,-,-,-,362.9164999999999,-,-,-,363.86679999999984
Total failure,-,-,-,0,-,-,-,0
