Benchmarks,base-5.0,base-5.0,base-5.0,median,insts-5.0,insts-5.0,insts-5.0,median,Slowdown(%)
SingleSource/Benchmarks/Adobe-C++/stepanov_vector, 0.6667, 0.6682, 0.6693,0.6682, 0.7679, 0.7677, 0.7695,0.7679,14.920682430410048
SingleSource/Benchmarks/Stanford/Oscar, 0.0573, 0.0573, 0.0572,0.0573, 0.0617, 0.0617, 0.0616,0.0617,7.678883071553222
MultiSource/Benchmarks/DOE-ProxyApps-C++/miniFE/miniFE, 2.3448, 2.3480, 2.3475,2.3475, 2.4395, 2.4495, 2.4526,2.4495,4.345047923322687
MultiSource/Benchmarks/Olden/mst/mst, 0.1131, 0.1133, 0.1134,0.1133, 0.1167, 0.1164, 0.1163,0.1164,2.7360988526037078
SingleSource/Benchmarks/Misc/himenobmtxpa, 0.1546, 0.1548, 0.1546,0.1546, 0.1580, 0.1580, 0.1585,0.158,2.199223803363526
MultiSource/Benchmarks/DOE-ProxyApps-C/RSBench/rsbench, 0.3567, 0.3578, 0.3572,0.3572, 0.3636, 0.3634, 0.3635,0.3635,1.763717805151166
MultiSource/Benchmarks/DOE-ProxyApps-C++/HPCCG/HPCCG, 1.2879, 1.2903, 1.2885,1.2885, 1.3101, 1.3085, 1.3105,1.3101,1.6763678696158468
MultiSource/Benchmarks/McCat/08-main/main, 0.2184, 0.2180, 0.2183,0.2183, 0.2216, 0.2212, 0.2214,0.2214,1.4200641319285445
MultiSource/Applications/minisat/minisat, 0.5504, 0.5485, 0.5483,0.5485, 0.5561, 0.5552, 0.5563,0.5561,1.3855970829535158
MultiSource/Benchmarks/DOE-ProxyApps-C/XSBench/XSBench, 0.3176, 0.3185, 0.3176,0.3176, 0.3222, 0.3208, 0.3219,0.3219,1.3539042821158809
MultiSource/Benchmarks/FreeBench/analyzer/analyzer, 0.2169, 0.2170, 0.2169,0.2169, 0.2204, 0.2197, 0.2183,0.2197,1.290917473490083
MultiSource/Benchmarks/mediabench/adpcm/rawdaudio/rawdaudio, 0.0519, 0.0521, 0.0519,0.0519, 0.0523, 0.0520, 0.0523,0.0523,0.770712909441218
SingleSource/Benchmarks/Misc/flops-6, 0.0260, 0.0262, 0.0260,0.026, 0.0261, 0.0262, 0.0262,0.0262,0.7692307692307887
SingleSource/Benchmarks/Misc/flops-5, 0.0259, 0.0261, 0.0260,0.026, 0.0262, 0.0260, 0.0262,0.0262,0.7692307692307887
SingleSource/Benchmarks/Misc/flops-8, 0.0260, 0.0262, 0.0261,0.0261, 0.0263, 0.0263, 0.0263,0.0263,0.7662835249041988
SingleSource/Benchmarks/Misc/mandel, 0.0404, 0.0407, 0.0405,0.0405, 0.0408, 0.0407, 0.0408,0.0408,0.7407407407407529
SingleSource/Benchmarks/BenchmarkGame/partialsums, 0.0277, 0.0278, 0.0276,0.0277, 0.0279, 0.0277, 0.0279,0.0279,0.7220216606498298
SingleSource/Benchmarks/Misc/fp-convert, 0.0280, 0.0282, 0.0280,0.028, 0.0282, 0.0282, 0.0281,0.0282,0.7142857142857117
MultiSource/Benchmarks/Trimaran/enc-md5/enc-md5, 0.1339, 0.1336, 0.1337,0.1337, 0.1347, 0.1344, 0.1346,0.1346,0.6731488406880981
SingleSource/Benchmarks/Misc/dt, 0.0299, 0.0300, 0.0298,0.0299, 0.0301, 0.0300, 0.0301,0.0301,0.6688963210702337
MultiSource/Benchmarks/DOE-ProxyApps-C/SimpleMOC/SimpleMOC, 0.7787, 0.7798, 0.7790,0.779, 0.7842, 0.7833, 0.7842,0.7842,0.6675224646983224
SingleSource/Benchmarks/CoyoteBench/fftbench, 0.2927, 0.2910, 0.2922,0.2922, 0.2940, 0.2941, 0.2950,0.2941,0.650239561943855
SingleSource/Benchmarks/Polybench/stencils/seidel-2d/seidel-2d, 0.0634, 0.0635, 0.0636,0.0635, 0.0639, 0.0639, 0.0640,0.0639,0.6299212598425141
MultiSource/Benchmarks/VersaBench/ecbdes/ecbdes, 0.1923, 0.1929, 0.1925,0.1925, 0.1936, 0.1937, 0.1951,0.1937,0.6233766233766369
MultiSource/Applications/spiff/spiff, 0.6820, 0.6826, 0.6833,0.6826, 0.6868, 0.6868, 0.6860,0.6868,0.6152944623498469
SingleSource/Benchmarks/Misc/evalloop, 0.0335, 0.0335, 0.0335,0.0335, 0.0337, 0.0336, 0.0337,0.0337,0.5970149253731405
SingleSource/Benchmarks/BenchmarkGame/Large/fasta, 0.0374, 0.0376, 0.0374,0.0374, 0.0376, 0.0375, 0.0376,0.0376,0.5347593582887722
SingleSource/Benchmarks/Shootout/fib2, 0.0188, 0.0187, 0.0188,0.0188, 0.0189, 0.0189, 0.0188,0.0189,0.5319148936170137
MultiSource/Benchmarks/MiBench/network-dijkstra/network-dijkstra, 0.0387, 0.0387, 0.0387,0.0387, 0.0387, 0.0389, 0.0389,0.0389,0.5167958656330685
SingleSource/Benchmarks/Polybench/linear-algebra/kernels/gemver/gemver, 0.0819, 0.0820, 0.0819,0.0819, 0.0824, 0.0820, 0.0823,0.0823,0.48840048840048667
SingleSource/Benchmarks/Polybench/linear-algebra/kernels/cholesky/cholesky, 0.0831, 0.0834, 0.0831,0.0831, 0.0836, 0.0835, 0.0835,0.0835,0.48134777376656057
SingleSource/Benchmarks/Polybench/linear-algebra/kernels/trmm/trmm, 0.0657, 0.0658, 0.0656,0.0657, 0.0660, 0.0661, 0.0660,0.066,0.4566210045662267
MultiSource/Benchmarks/Olden/power/power, 0.1172, 0.1176, 0.1174,0.1174, 0.1180, 0.1179, 0.1177,0.1179,0.4258943781942026
SingleSource/Benchmarks/Misc/lowercase, 0.0237, 0.0238, 0.0237,0.0237, 0.0238, 0.0238, 0.0237,0.0238,0.42194092827005925
MultiSource/Benchmarks/Trimaran/enc-3des/enc-3des, 0.2140, 0.2141, 0.2143,0.2141, 0.2149, 0.2150, 0.2151,0.215,0.42036431574030697
SingleSource/Benchmarks/Misc/revertBits, 0.0239, 0.0240, 0.0239,0.0239, 0.0240, 0.0239, 0.0240,0.024,0.4184100418409997
SingleSource/Benchmarks/BenchmarkGame/recursive, 0.0247, 0.0249, 0.0247,0.0247, 0.0249, 0.0247, 0.0248,0.0248,0.4048582995951344
SingleSource/Benchmarks/Misc/flops-7, 0.0249, 0.0251, 0.0250,0.025, 0.0251, 0.0251, 0.0251,0.0251,0.40000000000000036
SingleSource/Benchmarks/Misc/flops-3, 0.0250, 0.0252, 0.0250,0.025, 0.0252, 0.0251, 0.0251,0.0251,0.40000000000000036
SingleSource/Benchmarks/Polybench/stencils/jacobi-1d-imper/jacobi-1d-imper, 0.0758, 0.0760, 0.0760,0.076, 0.0763, 0.0763, 0.0763,0.0763,0.39473684210526994
SingleSource/Benchmarks/Misc/flops-4, 0.0253, 0.0256, 0.0255,0.0255, 0.0257, 0.0256, 0.0256,0.0256,0.39215686274511885
MultiSource/Benchmarks/MiBench/telecomm-gsm/telecomm-gsm, 0.9453, 0.9442, 0.9447,0.9447, 0.9495, 0.9443, 0.9483,0.9483,0.38107335662116437
MultiSource/Benchmarks/SciMark2-C/scimark2, 0.3411, 0.3416, 0.3412,0.3412, 0.3434, 0.3419, 0.3425,0.3425,0.38100820633060195
SingleSource/Benchmarks/Polybench/linear-algebra/solvers/durbin/durbin, 0.0795, 0.0795, 0.0798,0.0795, 0.0799, 0.0797, 0.0798,0.0798,0.37735849056603765
SingleSource/Benchmarks/Misc/matmul_f64_4x4, 0.0265, 0.0265, 0.0263,0.0265, 0.0266, 0.0265, 0.0266,0.0266,0.37735849056603765
SingleSource/Benchmarks/Polybench/linear-algebra/solvers/lu/lu, 0.0809, 0.0809, 0.0808,0.0809, 0.0813, 0.0811, 0.0812,0.0812,0.3708281829418958
MultiSource/Benchmarks/mediabench/gsm/toast/toast, 0.9463, 0.9453, 0.9443,0.9453, 0.9486, 0.9453, 0.9488,0.9486,0.3490955252300809
MultiSource/Benchmarks/MiBench/consumer-lame/consumer-lame, 3.5566, 3.5585, 3.5614,3.5585, 3.5703, 3.5703, 3.5757,3.5703,0.3316003934241918
SingleSource/Benchmarks/Misc/whetstone, 0.0610, 0.0612, 0.0610,0.061, 0.0612, 0.0610, 0.0613,0.0612,0.3278688524590123
MultiSource/Benchmarks/ASCI_Purple/SMG2000/smg2000, 5.0853, 5.0865, 5.0923,5.0865, 5.1025, 5.1029, 5.1074,5.1029,0.32242209770962926
MultiSource/Benchmarks/FreeBench/pcompress2/pcompress2, 0.2243, 0.2242, 0.2240,0.2242, 0.2250, 0.2245, 0.2249,0.2249,0.3122212310437078
SingleSource/Benchmarks/BenchmarkGame/n-body, 0.0645, 0.0646, 0.0644,0.0645, 0.0648, 0.0645, 0.0647,0.0647,0.31007751937983663
MultiSource/Benchmarks/MiBench/telecomm-CRC32/telecomm-CRC32, 0.0325, 0.0327, 0.0326,0.0326, 0.0327, 0.0327, 0.0327,0.0327,0.30674846625766694
SingleSource/Benchmarks/Polybench/medley/floyd-warshall/floyd-warshall, 0.0685, 0.0684, 0.0685,0.0685, 0.0687, 0.0685, 0.0687,0.0687,0.29197080291969435
SingleSource/Benchmarks/Polybench/linear-algebra/kernels/syrk/syrk, 0.0694, 0.0693, 0.0692,0.0693, 0.0695, 0.0693, 0.0695,0.0695,0.28860028860029363
SingleSource/Benchmarks/Polybench/datamining/correlation/correlation, 0.0697, 0.0696, 0.0697,0.0697, 0.0700, 0.0698, 0.0699,0.0699,0.2869440459110528
SingleSource/Benchmarks/Polybench/linear-algebra/kernels/syr2k/syr2k, 0.0709, 0.0710, 0.0707,0.0709, 0.0712, 0.0710, 0.0711,0.0711,0.28208744710860323
MultiSource/Benchmarks/Trimaran/netbench-crc/netbench-crc, 0.0712, 0.0710, 0.0707,0.071, 0.0712, 0.0712, 0.0711,0.0712,0.28169014084507005
SingleSource/Benchmarks/Stanford/Treesort, 0.0358, 0.0357, 0.0356,0.0357, 0.0358, 0.0357, 0.0358,0.0358,0.2801120448179262
SingleSource/Benchmarks/Shootout/heapsort, 0.0360, 0.0362, 0.0361,0.0361, 0.0362, 0.0362, 0.0362,0.0362,0.27700831024930483
MultiSource/Benchmarks/TSVC/Symbolics-flt/Symbolics-flt, 1.5181, 1.5186, 1.5194,1.5186, 1.5228, 1.5202, 1.5226,1.5226,0.2634005004609419
MultiSource/Benchmarks/BitBench/uuencode/uuencode, 0.0395, 0.0396, 0.0394,0.0395, 0.0395, 0.0396, 0.0396,0.0396,0.25316455696202667
MultiSource/Benchmarks/ASC_Sequoia/CrystalMk/CrystalMk, 0.2023, 0.2029, 0.2023,0.2023, 0.2031, 0.2024, 0.2028,0.2028,0.24715768660406034
SingleSource/Benchmarks/Polybench/stencils/fdtd-2d/fdtd-2d, 0.1241, 0.1240, 0.1240,0.124, 0.1246, 0.1243, 0.1243,0.1243,0.24193548387096975
MultiSource/Applications/lua/lua, 2.9250, 2.9251, 2.9312,2.9251, 2.9350, 2.9311, 2.9321,2.9321,0.23930805784417863
MultiSource/Benchmarks/Olden/health/health, 0.1262, 0.1268, 0.1264,0.1264, 0.1270, 0.1267, 0.1267,0.1267,0.2373417721518889
MultiSource/Benchmarks/TSVC/NodeSplitting-dbl/NodeSplitting-dbl, 1.8154, 1.8168, 1.8139,1.8154, 1.8197, 1.8208, 1.8193,1.8197,0.2368623994712049
SingleSource/Benchmarks/Stanford/Towers, 0.0442, 0.0444, 0.0444,0.0444, 0.0446, 0.0445, 0.0445,0.0445,0.22522522522521182
MultiSource/Applications/aha/aha, 0.0896, 0.0898, 0.0900,0.0898, 0.0900, 0.0898, 0.0901,0.09,0.22271714922048602
SingleSource/Benchmarks/Stanford/RealMM, 0.0460, 0.0460, 0.0460,0.046, 0.0461, 0.0461, 0.0462,0.0461,0.21739130434783593
MultiSource/Benchmarks/DOE-ProxyApps-C++/PENNANT/PENNANT, 3.6937, 3.6961, 3.6969,3.6961, 3.7014, 3.7041, 3.7114,3.7041,0.21644436027163927
MultiSource/Benchmarks/Trimaran/netbench-url/netbench-url, 0.1886, 0.1885, 0.1883,0.1885, 0.1899, 0.1885, 0.1889,0.1889,0.21220159151194018
SingleSource/Benchmarks/BenchmarkGame/spectral-norm, 0.0498, 0.0499, 0.0496,0.0498, 0.0500, 0.0499, 0.0499,0.0499,0.20080321285140812
SingleSource/Benchmarks/BenchmarkGame/puzzle, 0.0511, 0.0511, 0.0511,0.0511, 0.0512, 0.0511, 0.0512,0.0512,0.1956947162426781
MultiSource/Benchmarks/FreeBench/neural/neural, 0.1580, 0.1583, 0.1582,0.1582, 0.1591, 0.1580, 0.1585,0.1585,0.18963337547408532
MultiSource/Applications/d/make_dparser, 2.3310, 2.3310, 2.3343,2.331, 2.3341, 2.3354, 2.3371,2.3354,0.1887601887601953
SingleSource/Benchmarks/Polybench/linear-algebra/kernels/trisolv/trisolv, 0.0578, 0.0578, 0.0578,0.0578, 0.0581, 0.0578, 0.0579,0.0579,0.17301038062285112
MultiSource/Applications/sqlite3/sqlite3,13.6118,13.5791,13.6090,13.609,13.6325,13.6380,13.6227,13.6325,0.17267984422073557
MultiSource/Benchmarks/McCat/04-bisect/bisect, 0.1178, 0.1177, 0.1176,0.1177, 0.1180, 0.1176, 0.1179,0.1179,0.1699235344095218
MultiSource/Benchmarks/NPB-serial/is/is, 0.0591, 0.0591, 0.0590,0.0591, 0.0592, 0.0592, 0.0592,0.0592,0.16920473773265332
MultiSource/Benchmarks/mediabench/g721/g721encode/encode, 0.1817, 0.1820, 0.1818,0.1818, 0.1826, 0.1814, 0.1821,0.1821,0.16501650165017256
SingleSource/Benchmarks/Misc/ffbench, 0.0609, 0.0611, 0.0608,0.0609, 0.0612, 0.0610, 0.0610,0.061,0.16420361247946325
SingleSource/Benchmarks/Adobe-C++/simple_types_constant_folding, 2.2695, 2.2672, 2.2650,2.2672, 2.2700, 2.2716, 2.2708,2.2708,0.1587861679604785
MultiSource/Benchmarks/TSVC/StatementReordering-flt/StatementReordering-flt, 1.4822, 1.4832, 1.4832,1.4832, 1.4867, 1.4855, 1.4853,1.4855,0.1550701186623593
MultiSource/Benchmarks/TSVC/LoopRestructuring-dbl/LoopRestructuring-dbl, 1.8436, 1.8511, 1.8454,1.8454, 1.8496, 1.8477, 1.8482,1.8482,0.1517286225208636
MultiSource/Benchmarks/TSVC/CrossingThresholds-flt/CrossingThresholds-flt, 1.5248, 1.5248, 1.5257,1.5248, 1.5309, 1.5242, 1.5271,1.5271,0.1508394543546565
MultiSource/Benchmarks/VersaBench/beamformer/beamformer, 0.2713, 0.2710, 0.2713,0.2713, 0.2717, 0.2714, 0.2722,0.2717,0.14743826022853845
MultiSource/Benchmarks/TSVC/ControlLoops-flt/ControlLoops-flt, 1.5688, 1.5673, 1.5741,1.5688, 1.5711, 1.5704, 1.5750,1.5711,0.14660887302395675
SingleSource/Benchmarks/Misc/flops, 0.0697, 0.0698, 0.0696,0.0697, 0.0700, 0.0698, 0.0698,0.0698,0.1434720229555264
SingleSource/Benchmarks/Polybench/linear-algebra/kernels/atax/atax, 0.0726, 0.0728, 0.0726,0.0726, 0.0727, 0.0728, 0.0727,0.0727,0.13774104683195176
MultiSource/Benchmarks/Olden/perimeter/perimeter, 0.0728, 0.0728, 0.0727,0.0728, 0.0729, 0.0725, 0.0729,0.0729,0.13736263736263687
MultiSource/Benchmarks/MallocBench/cfrac/cfrac, 0.8039, 0.8057, 0.8039,0.8039, 0.8067, 0.8050, 0.8033,0.805,0.13683293942032826
SingleSource/Benchmarks/Shootout/matrix, 0.0749, 0.0749, 0.0748,0.0749, 0.0750, 0.0750, 0.0750,0.075,0.1335113484646211
SingleSource/Benchmarks/Polybench/medley/reg_detect/reg_detect, 0.3891, 0.3890, 0.3896,0.3891, 0.3904, 0.3896, 0.3896,0.3896,0.128501670521719
MultiSource/Benchmarks/MallocBench/espresso/espresso, 4.1243, 4.1281, 4.1261,4.1261, 4.1314, 4.1268, 4.1338,4.1314,0.12845059499284606
SingleSource/Benchmarks/Polybench/stencils/adi/adi, 0.0815, 0.0815, 0.0815,0.0815, 0.0816, 0.0816, 0.0815,0.0816,0.12269938650306678
MultiSource/Benchmarks/McCat/01-qbsort/qbsort, 0.0896, 0.0894, 0.0895,0.0895, 0.0896, 0.0893, 0.0898,0.0896,0.11173184357542443
MultiSource/Benchmarks/TSVC/Packing-dbl/Packing-dbl, 1.7929, 1.7905, 1.7936,1.7929, 1.8078, 1.7904, 1.7949,1.7949,0.11155111829996844
MultiSource/Benchmarks/TSVC/Reductions-dbl/Reductions-dbl, 1.8838, 1.8825, 1.8847,1.8838, 1.8889, 1.8859, 1.8792,1.8859,0.11147680220831013
MultiSource/Benchmarks/TSVC/Symbolics-dbl/Symbolics-dbl, 1.8294, 1.8273, 1.8319,1.8294, 1.8330, 1.8306, 1.8312,1.8312,0.09839291571007713
MultiSource/Benchmarks/TSVC/CrossingThresholds-dbl/CrossingThresholds-dbl, 1.8300, 1.8304, 1.8327,1.8304, 1.8322, 1.8326, 1.8314,1.8322,0.09833916083916705
SingleSource/Benchmarks/Polybench/stencils/jacobi-2d-imper/jacobi-2d-imper, 0.1017, 0.1018, 0.1014,0.1017, 0.1022, 0.1018, 0.1018,0.1018,0.0983284169124854
MultiSource/Benchmarks/TSVC/LinearDependence-flt/LinearDependence-flt, 1.5816, 1.5866, 1.5828,1.5828, 1.5843, 1.5807, 1.5854,1.5843,0.09476876421532499
MultiSource/Benchmarks/TSVC/Packing-flt/Packing-flt, 1.4842, 1.4863, 1.4865,1.4863, 1.4878, 1.4854, 1.4877,1.4877,0.09419363520151158
SingleSource/Benchmarks/Shootout-C++/random, 0.1145, 0.1149, 0.1150,0.1149, 0.1150, 0.1150, 0.1152,0.115,0.08703220191470518
MultiSource/Benchmarks/Olden/bh/bh, 0.2353, 0.2351, 0.2358,0.2353, 0.2355, 0.2351, 0.2357,0.2355,0.08499787505311662
MultiSource/Benchmarks/TSVC/GlobalDataFlow-flt/GlobalDataFlow-flt, 1.5622, 1.5607, 1.5609,1.5609, 1.5622, 1.5605, 1.5642,1.5622,0.08328528413095171
MultiSource/Benchmarks/TSVC/Equivalencing-flt/Equivalencing-flt, 1.5268, 1.5267, 1.5280,1.5268, 1.5301, 1.5280, 1.5280,1.528,0.07859575582918055
SingleSource/Benchmarks/Shootout-C++/ary2, 0.1428, 0.1432, 0.1434,0.1432, 0.1428, 0.1433, 0.1434,0.1433,0.06983240223463749
MultiSource/Benchmarks/TSVC/Searching-flt/Searching-flt, 1.4728, 1.4720, 1.4742,1.4728, 1.4738, 1.4736, 1.4744,1.4738,0.06789788158607646
MultiSource/Applications/viterbi/viterbi, 0.1531, 0.1550, 0.1535,0.1535, 0.1536, 0.1529, 0.1538,0.1536,0.06514657980454253
MultiSource/Benchmarks/TSVC/Reductions-flt/Reductions-flt, 1.5777, 1.5743, 1.5767,1.5767, 1.5791, 1.5767, 1.5777,1.5777,0.0634236062662552
SingleSource/Benchmarks/McGill/chomp, 0.1684, 0.1685, 0.1685,0.1685, 0.1684, 0.1700, 0.1686,0.1686,0.05934718100890635
MultiSource/Benchmarks/TSVC/InductionVariable-flt/InductionVariable-flt, 1.5403, 1.5406, 1.5403,1.5403, 1.5437, 1.5345, 1.5411,1.5411,0.051937934168666544
MultiSource/Benchmarks/DOE-ProxyApps-C/miniGMG/miniGMG, 0.8737, 0.8736, 0.8730,0.8736, 0.8740, 0.8738, 0.8757,0.874,0.045787545787545625
MultiSource/Benchmarks/McCat/05-eks/eks, 0.4704, 0.4694, 0.4717,0.4704, 0.4706, 0.4695, 0.4706,0.4706,0.042517006802733626
MultiSource/Benchmarks/TSVC/LoopRestructuring-flt/LoopRestructuring-flt, 1.5424, 1.5389, 1.5404,1.5404, 1.5418, 1.5395, 1.5410,1.541,0.03895092183847648
MultiSource/Benchmarks/TSVC/StatementReordering-dbl/StatementReordering-dbl, 1.7918, 1.7906, 1.7941,1.7918, 1.7926, 1.7887, 1.7923,1.7923,0.027904900100450547
MultiSource/Applications/ALAC/decode/alacconvert-decode, 0.8543, 0.8553, 0.8557,0.8553, 0.8549, 0.8563, 0.8555,0.8555,0.023383608090732366
MultiSource/Benchmarks/MiBench/automotive-susan/automotive-susan, 0.5560, 0.5548, 0.5552,0.5552, 0.5556, 0.5553, 0.5551,0.5553,0.018011527377526093
MultiSource/Benchmarks/DOE-ProxyApps-C/Pathfinder/PathFinder, 0.7350, 0.7356, 0.7345,0.735, 0.7351, 0.7330, 0.7362,0.7351,0.013605442176878313
MultiSource/Applications/obsequi/Obsequi, 0.8759, 0.8766, 0.8771,0.8766, 0.8772, 0.8760, 0.8767,0.8767,0.011407711613053984
MultiSource/Benchmarks/VersaBench/dbms/dbms, 0.8971, 0.8921, 0.8904,0.8921, 0.8937, 0.8922, 0.8910,0.8922,0.011209505660803032
MultiSource/Benchmarks/Prolangs-C/agrep/agrep, 1.2018, 1.1998, 1.1998,1.1998, 1.2005, 1.1976, 1.1999,1.1999,0.008334722453740007
SingleSource/Benchmarks/Stanford/Quicksort, 0.0347, 0.0346, 0.0347,0.0347, 0.0347, 0.0347, 0.0348,0.0347,0.0
SingleSource/Benchmarks/Stanford/Perm, 0.0292, 0.0292, 0.0291,0.0292, 0.0292, 0.0291, 0.0292,0.0292,0.0
SingleSource/Benchmarks/Shootout/strcat, 0.0255, 0.0255, 0.0254,0.0255, 0.0255, 0.0253, 0.0255,0.0255,0.0
SingleSource/Benchmarks/Shootout/nestedloop, 0.0227, 0.0228, 0.0228,0.0228, 0.0228, 0.0227, 0.0228,0.0228,0.0
SingleSource/Benchmarks/Shootout/ary3, 0.0319, 0.0319, 0.0318,0.0319, 0.0319, 0.0319, 0.0319,0.0319,0.0
SingleSource/Benchmarks/Shootout/ackermann, 0.0221, 0.0221, 0.0221,0.0221, 0.0222, 0.0221, 0.0221,0.0221,0.0
SingleSource/Benchmarks/Shootout-C++/ary3, 0.1448, 0.1452, 0.1455,0.1452, 0.1452, 0.1445, 0.1453,0.1452,0.0
SingleSource/Benchmarks/Polybench/stencils/fdtd-apml/fdtd-apml, 0.1184, 0.1186, 0.1183,0.1184, 0.1184, 0.1183, 0.1185,0.1184,0.0
SingleSource/Benchmarks/Polybench/datamining/covariance/covariance, 0.0760, 0.0758, 0.0760,0.076, 0.0761, 0.0760, 0.0760,0.076,0.0
SingleSource/Benchmarks/Misc/richards_benchmark, 0.0584, 0.0585, 0.0584,0.0584, 0.0585, 0.0584, 0.0583,0.0584,0.0
SingleSource/Benchmarks/Misc/pi, 0.0200, 0.0200, 0.0198,0.02, 0.0200, 0.0200, 0.0199,0.02,0.0
SingleSource/Benchmarks/Misc/oourafft, 0.1891, 0.1894, 0.1894,0.1894, 0.1894, 0.1892, 0.1895,0.1894,0.0
SingleSource/Benchmarks/Misc/fbench, 0.0492, 0.0492, 0.0491,0.0492, 0.0492, 0.0491, 0.0492,0.0492,0.0
SingleSource/Benchmarks/McGill/queens, 0.0413, 0.0413, 0.0414,0.0413, 0.0413, 0.0413, 0.0413,0.0413,0.0
SingleSource/Benchmarks/BenchmarkGame/nsieve-bits, 0.0296, 0.0296, 0.0295,0.0296, 0.0297, 0.0296, 0.0296,0.0296,0.0
MultiSource/Benchmarks/VersaBench/8b10b/8b10b, 0.0697, 0.0696, 0.0696,0.0696, 0.0697, 0.0694, 0.0696,0.0696,0.0
MultiSource/Benchmarks/Trimaran/enc-pc1/enc-pc1, 0.0588, 0.0589, 0.0587,0.0588, 0.0588, 0.0585, 0.0588,0.0588,0.0
MultiSource/Benchmarks/Prolangs-C/gnugo/gnugo, 0.6767, 0.6738, 0.6732,0.6738, 0.6772, 0.6735, 0.6738,0.6738,0.0
MultiSource/Benchmarks/Prolangs-C++/simul/simul, 0.0486, 0.0487, 0.0484,0.0486, 0.0485, 0.0486, 0.0486,0.0486,0.0
MultiSource/Benchmarks/Prolangs-C++/primes/primes, 0.0235, 0.0236, 0.0235,0.0235, 0.0236, 0.0234, 0.0235,0.0235,0.0
MultiSource/Benchmarks/Olden/em3d/em3d, 0.1627, 0.1629, 0.1641,0.1629, 0.1629, 0.1625, 0.1629,0.1629,0.0
MultiSource/Benchmarks/Olden/bisort/bisort, 0.0595, 0.0596, 0.0594,0.0595, 0.0595, 0.0595, 0.0595,0.0595,0.0
MultiSource/Benchmarks/MiBench/telecomm-adpcm/telecomm-adpcm, 0.0519, 0.0519, 0.0518,0.0519, 0.0521, 0.0516, 0.0519,0.0519,0.0
MultiSource/Benchmarks/MiBench/network-patricia/network-patricia, 0.0742, 0.0743, 0.0743,0.0743, 0.0743, 0.0744, 0.0743,0.0743,0.0
MultiSource/Benchmarks/McCat/17-bintr/bintr, 0.0651, 0.0649, 0.0654,0.0651, 0.0653, 0.0648, 0.0651,0.0651,0.0
MultiSource/Benchmarks/Fhourstones-3.1/fhourstones3.1, 0.1061, 0.1061, 0.1064,0.1061, 0.1060, 0.1061, 0.1064,0.1061,0.0
MultiSource/Benchmarks/BitBench/uudecode/uudecode, 0.0401, 0.0402, 0.0401,0.0401, 0.0401, 0.0402, 0.0401,0.0401,0.0
MultiSource/Benchmarks/BitBench/five11/five11, 0.0493, 0.0492, 0.0494,0.0493, 0.0493, 0.0492, 0.0494,0.0493,0.0
MultiSource/Benchmarks/mediabench/mpeg2/mpeg2dec/mpeg2decode, 1.1995, 1.1996, 1.1991,1.1995, 1.1993, 1.1975, 1.2000,1.1993,-0.016673614005835447
MultiSource/Benchmarks/ASC_Sequoia/AMGmk/AMGmk, 0.5301, 0.5323, 0.5302,0.5302, 0.5316, 0.5294, 0.5301,0.5301,-0.018860807242548905
MultiSource/Benchmarks/TSVC/IndirectAddressing-flt/IndirectAddressing-flt, 1.5180, 1.5181, 1.5191,1.5181, 1.5177, 1.5186, 1.5170,1.5177,-0.026348725380409554
MultiSource/Benchmarks/MiBench/security-rijndael/security-rijndael, 0.3565, 0.3556, 0.3560,0.356, 0.3558, 0.3576, 0.3559,0.3559,-0.02808988764044784
MultiSource/Benchmarks/nbench/nbench, 1.0068, 1.0061, 1.0066,1.0066, 1.0057, 1.0063, 1.0085,1.0063,-0.029803298231667608
MultiSource/Benchmarks/TSVC/Recurrences-flt/Recurrences-flt, 1.4847, 1.4817, 1.4822,1.4822, 1.4819, 1.4817, 1.4811,1.4817,-0.03373363918499628
SingleSource/Benchmarks/Linpack/linpack-pc, 0.2763, 0.2756, 0.2759,0.2759, 0.2760, 0.2758, 0.2755,0.2758,-0.03624501631025456
MultiSource/Applications/ALAC/encode/alacconvert-encode, 0.8541, 0.8558, 0.8559,0.8558, 0.8549, 0.8554, 0.8568,0.8554,-0.04673989249823762
MultiSource/Benchmarks/FreeBench/pifft/pifft, 0.8332, 0.8324, 0.8339,0.8332, 0.8328, 0.8327, 0.8353,0.8328,-0.0480076812290009
SingleSource/Benchmarks/Adobe-C++/simple_types_loop_invariant, 1.8278, 1.8344, 1.8315,1.8315, 1.8311, 1.8306, 1.8272,1.8306,-0.049140049140039554
MultiSource/Benchmarks/TSVC/NodeSplitting-flt/NodeSplitting-flt, 1.5105, 1.5088, 1.5164,1.5105, 1.5097, 1.5073, 1.5103,1.5097,-0.05296259516716084
MultiSource/Benchmarks/DOE-ProxyApps-C/miniAMR/miniAMR, 1.2071, 1.2092, 1.2085,1.2085, 1.2079, 1.2072, 1.2078,1.2078,-0.05792304509721902
SingleSource/Benchmarks/Misc/ReedSolomon, 0.1689, 0.1692, 0.1698,0.1692, 0.1691, 0.1693, 0.1691,0.1691,-0.059101654846327456
MultiSource/Benchmarks/McCat/18-imp/imp, 0.2995, 0.2991, 0.2994,0.2994, 0.2992, 0.2989, 0.2993,0.2992,-0.06680026720106147
MultiSource/Benchmarks/MiBench/automotive-basicmath/automotive-basicmath, 0.1325, 0.1326, 0.1326,0.1326, 0.1325, 0.1333, 0.1325,0.1325,-0.07541478129712287
SingleSource/Benchmarks/Shootout-C++/strcat, 0.1157, 0.1163, 0.1157,0.1157, 0.1156, 0.1156, 0.1156,0.1156,-0.08643042350907626
MultiSource/Benchmarks/TSVC/Searching-dbl/Searching-dbl, 1.7806, 1.7782, 1.7802,1.7802, 1.7735, 1.7786, 1.7791,1.7786,-0.08987754184923702
MultiSource/Applications/JM/ldecod/ldecod, 5.6670, 5.6770, 5.6731,5.6731, 5.6568, 5.6730, 5.6680,5.668,-0.08989793939820911
SingleSource/Benchmarks/Misc-C++/oopack_v1p8, 0.1019, 0.1022, 0.1020,0.102, 0.1019, 0.1019, 0.1021,0.1019,-0.09803921568626306
MultiSource/Benchmarks/FreeBench/fourinarow/fourinarow, 0.3017, 0.3016, 0.3025,0.3017, 0.3014, 0.3021, 0.3012,0.3014,-0.09943652635068245
MultiSource/Benchmarks/TSVC/Equivalencing-dbl/Equivalencing-dbl, 1.8435, 1.8376, 1.8397,1.8397, 1.8378, 1.8383, 1.8373,1.8378,-0.10327770832200267
SingleSource/Benchmarks/Misc-C++/Large/ray, 0.1931, 0.1938, 0.1935,0.1935, 0.1935, 0.1927, 0.1933,0.1933,-0.10335917312661591
SingleSource/Benchmarks/Polybench/linear-algebra/solvers/gramschmidt/gramschmidt, 0.0921, 0.0923, 0.0922,0.0922, 0.0922, 0.0919, 0.0921,0.0921,-0.10845986984815426
MultiSource/Benchmarks/Prolangs-C++/city/city, 0.8270, 0.8288, 0.8261,0.827, 0.8277, 0.8245, 0.8261,0.8261,-0.10882708585248091
SingleSource/Benchmarks/SmallPT/smallpt, 0.0902, 0.0905, 0.0903,0.0903, 0.0902, 0.0901, 0.0905,0.0902,-0.11074197120709561
MultiSource/Applications/sgefa/sgefa, 0.3522, 0.3519, 0.3521,0.3521, 0.3517, 0.3514, 0.3525,0.3517,-0.11360408974723235
MultiSource/Applications/hexxagon/hexxagon, 0.6034, 0.6058, 0.6053,0.6053, 0.6041, 0.6046, 0.6054,0.6046,-0.1156451346439602
MultiSource/Benchmarks/TSVC/ControlFlow-flt/ControlFlow-flt, 1.6592, 1.6559, 1.6574,1.6574, 1.6554, 1.6635, 1.6538,1.6554,-0.12067093037286813
MultiSource/Benchmarks/PAQ8p/paq8p, 1.7184, 1.7215, 1.7212,1.7212, 1.7165, 1.7191, 1.7203,1.7191,-0.12200790146409402
SingleSource/Benchmarks/Misc-C++/stepanov_v1p2, 0.1564, 0.1567, 0.1573,0.1567, 0.1564, 0.1567, 0.1565,0.1565,-0.12763241863433805
MultiSource/Benchmarks/Fhourstones/fhourstones, 0.1487, 0.1490, 0.1491,0.149, 0.1491, 0.1487, 0.1488,0.1488,-0.13422818791947178
SingleSource/Benchmarks/Adobe-C++/loop_unroll, 3.9933, 3.9884, 3.9968,3.9933, 3.9879, 3.9936, 3.9846,3.9879,-0.13522650439486972
MultiSource/Benchmarks/7zip/7zip-benchmark,30.7740,30.7948,30.7911,30.7911,30.6753,30.7493,30.7875,30.7493,-0.13575351319049522
MultiSource/Benchmarks/TSVC/Recurrences-dbl/Recurrences-dbl, 1.7919, 1.7935, 1.7970,1.7935, 1.7909, 1.7908, 1.7909,1.7909,-0.14496793978255873
MultiSource/Benchmarks/Ptrdist/ks/ks, 0.1313, 0.1316, 0.1315,0.1315, 0.1313, 0.1312, 0.1313,0.1313,-0.1520912547528508
MultiSource/Benchmarks/MallocBench/gs/gs, 3.4163, 3.4164, 3.4211,3.4164, 3.4172, 3.4069, 3.4109,3.4109,-0.1609881746868047
MultiSource/Benchmarks/Prolangs-C/bison/mybison, 1.4589, 1.4574, 1.4601,1.4589, 1.4589, 1.4546, 1.4565,1.4565,-0.16450750565495387
MultiSource/Benchmarks/TSVC/ControlLoops-dbl/ControlLoops-dbl, 1.8703, 1.8777, 1.8822,1.8777, 1.8746, 1.8713, 1.8772,1.8746,-0.16509559567555732
MultiSource/Benchmarks/Bullet/bullet,20.9038,20.9442,20.9293,20.9293,20.8923,20.8722,20.9085,20.8923,-0.1767856545608404
MultiSource/Applications/JM/lencod/lencod,13.2939,13.2927,13.2988,13.2939,13.2665,13.2700,13.2775,13.27,-0.1797817043907468
MultiSource/Benchmarks/TSVC/IndirectAddressing-dbl/IndirectAddressing-dbl, 1.8264, 1.8278, 1.8281,1.8278, 1.8245, 1.8231, 1.8284,1.8245,-0.1805449173870266
SingleSource/Benchmarks/Shootout-C++/nestedloop, 0.1066, 0.1073, 0.1070,0.107, 0.1068, 0.1067, 0.1068,0.1068,-0.18691588785045843
MultiSource/Applications/SIBsim4/SIBsim4, 1.0344, 1.0326, 1.0350,1.0344, 1.0318, 1.0327, 1.0322,1.0322,-0.21268368136116989
MultiSource/Benchmarks/VersaBench/bmm/bmm, 0.0466, 0.0466, 0.0466,0.0466, 0.0467, 0.0464, 0.0465,0.0465,-0.21459227467811592
MultiSource/Benchmarks/Trimaran/enc-rc4/enc-rc4, 0.0459, 0.0459, 0.0457,0.0459, 0.0459, 0.0458, 0.0458,0.0458,-0.21786492374727962
MultiSource/Benchmarks/Ptrdist/yacr2/yacr2, 0.5482, 0.5474, 0.5475,0.5475, 0.5463, 0.5460, 0.5487,0.5463,-0.21917808219177326
MultiSource/Benchmarks/FreeBench/mason/mason, 0.0456, 0.0456, 0.0457,0.0456, 0.0456, 0.0454, 0.0455,0.0455,-0.21929824561404132
MultiSource/Benchmarks/mediabench/jpeg/jpeg-6a/cjpeg, 4.0574, 4.0587, 4.0603,4.0587, 4.0496, 4.0453, 4.0547,4.0496,-0.22420972232488623
MultiSource/Benchmarks/McCat/12-IOtest/iotest, 0.0880, 0.0880, 0.0880,0.088, 0.0882, 0.0877, 0.0878,0.0878,-0.2272727272727204
MultiSource/Benchmarks/llubenchmark/llu, 0.0431, 0.0431, 0.0430,0.0431, 0.0430, 0.0428, 0.0430,0.043,-0.23201856148492572
MultiSource/Benchmarks/TSVC/LoopRerolling-flt/LoopRerolling-flt, 1.4951, 1.4961, 1.4990,1.4961, 1.4988, 1.4926, 1.4923,1.4926,-0.23394158144509625
MultiSource/Benchmarks/FreeBench/distray/distray, 0.0844, 0.0847, 0.0846,0.0846, 0.0844, 0.0844, 0.0844,0.0844,-0.23640661938533203
MultiSource/Benchmarks/TSVC/LoopRerolling-dbl/LoopRerolling-dbl, 1.8055, 1.8091, 1.8050,1.8055, 1.8012, 1.8015, 1.8012,1.8012,-0.23816117418998806
SingleSource/Benchmarks/Stanford/Queens, 0.0412, 0.0411, 0.0412,0.0412, 0.0411, 0.0411, 0.0412,0.0411,-0.24271844660195274
MultiSource/Benchmarks/TSVC/GlobalDataFlow-dbl/GlobalDataFlow-dbl, 1.8653, 1.8677, 1.8692,1.8677, 1.8613, 1.8715, 1.8630,1.863,-0.2516464100230209
MultiSource/Benchmarks/TSVC/Expansion-flt/Expansion-flt, 1.5667, 1.5655, 1.5669,1.5667, 1.5593, 1.5624, 1.5660,1.5624,-0.27446224548414166
SingleSource/Benchmarks/Shootout/objinst, 0.0346, 0.0345, 0.0346,0.0346, 0.0347, 0.0345, 0.0344,0.0345,-0.28901734104045396
MultiSource/Applications/ClamAV/clamscan,12.9855,12.9886,12.9998,12.9886,12.9502,12.9504,12.9610,12.9504,-0.2941040604838019
SingleSource/Benchmarks/Shootout-C++/sieve, 0.1670, 0.1678, 0.1677,0.1677, 0.1674, 0.1671, 0.1672,0.1672,-0.29815146094216427
SingleSource/Benchmarks/Misc-C++/Large/sphereflake, 0.2010, 0.2005, 0.2005,0.2005, 0.1999, 0.1999, 0.2001,0.1999,-0.299251870324202
MultiSource/Benchmarks/sim/sim, 0.2555, 0.2552, 0.2554,0.2554, 0.2546, 0.2543, 0.2548,0.2546,-0.3132341425215457
MultiSource/Benchmarks/TSVC/LinearDependence-dbl/LinearDependence-dbl, 1.8904, 1.8938, 1.8931,1.8931, 1.8877, 1.8857, 1.8871,1.8871,-0.3169404680154253
MultiSource/Benchmarks/TSVC/Expansion-dbl/Expansion-dbl, 1.8796, 1.8862, 1.8772,1.8796, 1.8717, 1.8736, 1.8771,1.8736,-0.31921685464992855
MultiSource/Benchmarks/Prolangs-C++/employ/employ, 0.1847, 0.1849, 0.1843,0.1847, 0.1844, 0.1841, 0.1841,0.1841,-0.3248511099079532
SingleSource/Benchmarks/Shootout/lists, 0.0612, 0.0614, 0.0615,0.0614, 0.0612, 0.0612, 0.0611,0.0612,-0.32573289902281255
MultiSource/Benchmarks/Ptrdist/anagram/anagram, 0.0908, 0.0908, 0.0910,0.0908, 0.0905, 0.0906, 0.0904,0.0905,-0.33039647577093323
MultiSource/Benchmarks/DOE-ProxyApps-C++/CLAMR/CLAMR,16.4173,16.4206,16.4269,16.4206,16.3483,16.3640,16.3667,16.364,-0.34468898822210825
SingleSource/Benchmarks/Shootout-C++/ary, 0.1421, 0.1417, 0.1417,0.1417, 0.1416, 0.1409, 0.1412,0.1412,-0.3528581510232942
MultiSource/Benchmarks/mafft/pairlocalalign, 7.8541, 7.8476, 7.8645,7.8541, 7.8069, 7.8254, 7.8326,7.8254,-0.36541424224290076
MultiSource/Benchmarks/Prolangs-C++/life/life, 0.0547, 0.0547, 0.0548,0.0547, 0.0546, 0.0543, 0.0545,0.0545,-0.3656307129798919
MultiSource/Benchmarks/MiBench/consumer-jpeg/consumer-jpeg, 4.0191, 4.0212, 4.0226,4.0212, 4.0063, 4.0062, 4.0079,4.0063,-0.3705361583606903
SingleSource/Benchmarks/Stanford/Puzzle, 0.0999, 0.1000, 0.0998,0.0999, 0.0995, 0.0992, 0.0995,0.0995,-0.4004004004004025
SingleSource/Benchmarks/McGill/misr, 0.0491, 0.0491, 0.0490,0.0491, 0.0491, 0.0489, 0.0489,0.0489,-0.40733197556007683
MultiSource/Benchmarks/Ptrdist/ft/ft, 0.1913, 0.1914, 0.1916,0.1914, 0.1911, 0.1904, 0.1906,0.1906,-0.4179728317659337
MultiSource/Benchmarks/Olden/tsp/tsp, 0.1181, 0.1181, 0.1182,0.1181, 0.1176, 0.1177, 0.1174,0.1176,-0.42337002540220325
SingleSource/Benchmarks/Misc-C++/mandel-text, 0.0227, 0.0227, 0.0227,0.0227, 0.0227, 0.0226, 0.0226,0.0226,-0.440528634361248
MultiSource/Applications/lambda-0.1.3/lambda, 0.5038, 0.5043, 0.5039,0.5039, 0.5016, 0.5007, 0.5023,0.5016,-0.4564397697955913
MultiSource/Applications/oggenc/oggenc, 4.4049, 4.4055, 4.4059,4.4055, 4.3818, 4.3849, 4.3906,4.3849,-0.4675973215299001
SingleSource/Benchmarks/Shootout-C++/matrix, 0.1681, 0.1680, 0.1684,0.1681, 0.1673, 0.1672, 0.1673,0.1673,-0.4759071980963703
MultiSource/Benchmarks/Ptrdist/bc/bc, 0.9118, 0.9122, 0.9115,0.9118, 0.9074, 0.9073, 0.9067,0.9073,-0.4935292827374482
SingleSource/Benchmarks/Shootout-C++/EH/except, 0.1200, 0.1197, 0.1201,0.12, 0.1194, 0.1194, 0.1194,0.1194,-0.49999999999998934
MultiSource/Benchmarks/Prolangs-C++/ocean/ocean, 0.0999, 0.1001, 0.1000,0.1, 0.0995, 0.0994, 0.0995,0.0995,-0.5000000000000004
MultiSource/Benchmarks/BitBench/drop3/drop3, 0.0396, 0.0395, 0.0395,0.0395, 0.0394, 0.0393, 0.0393,0.0393,-0.5063291139240422
SingleSource/Benchmarks/Shootout-C++/objinst, 0.1292, 0.1301, 0.1299,0.1299, 0.1292, 0.1292, 0.1291,0.1292,-0.5388760585065322
SingleSource/Benchmarks/Misc-C++-EH/spirit, 3.2982, 3.3047, 3.3070,3.3047, 3.2867, 3.2772, 3.2882,3.2867,-0.5446787908130801
MultiSource/Applications/siod/siod, 1.7715, 1.7728, 1.7743,1.7728, 1.7623, 1.7607, 1.7641,1.7623,-0.5922833935018024
SingleSource/Benchmarks/Shootout-C++/lists, 0.1475, 0.1479, 0.1477,0.1477, 0.1464, 0.1470, 0.1468,0.1468,-0.6093432633716866
MultiSource/Applications/SPASS/SPASS,11.0302,11.0224,11.0354,11.0302,10.9629,10.9613,10.9623,10.9623,-0.6155826730249614
SingleSource/Benchmarks/Shootout-C++/fibo, 0.1064, 0.1067, 0.1062,0.1064, 0.1057, 0.1057, 0.1056,0.1057,-0.6578947368421018
MultiSource/Applications/kimwitu++/kc,10.0899,10.0829,10.0900,10.0899,10.0234,10.0264,10.0189,10.0234,-0.6590749165006571
SingleSource/Benchmarks/Shootout-C++/lists1, 0.1807, 0.1818, 0.1817,0.1817, 0.1805, 0.1804, 0.1808,0.1805,-0.6604292790313715
SingleSource/Benchmarks/CoyoteBench/lpbench, 0.1359, 0.1361, 0.1360,0.136, 0.1348, 0.1351, 0.1354,0.1351,-0.6617647058823617
SingleSource/Benchmarks/Misc-C++/bigfib, 0.4020, 0.4025, 0.4044,0.4025, 0.4007, 0.3995, 0.3998,0.3998,-0.6708074534161557
MultiSource/Applications/hbd/hbd, 1.0916, 1.0944, 1.0900,1.0916, 1.0874, 1.0822, 1.0842,1.0842,-0.6779039941370302
MultiSource/Benchmarks/tramp3d-v4/tramp3d-v4,18.6084,18.5813,18.6422,18.6084,18.4178,18.4876,18.4796,18.4796,-0.6921605296532629
SingleSource/Benchmarks/Shootout-C++/methcall, 0.1150, 0.1154, 0.1151,0.1151, 0.1143, 0.1142, 0.1143,0.1143,-0.6950477845351855
MultiSource/Benchmarks/MiBench/consumer-typeset/consumer-typeset, 8.9020, 8.9058, 8.9081,8.9058, 8.8313, 8.8447, 8.8430,8.843,-0.7051584360753593
SingleSource/Benchmarks/Shootout-C++/ackermann, 0.1077, 0.1079, 0.1082,0.1079, 0.1070, 0.1070, 0.1076,0.107,-0.8341056533827551
MultiSource/Benchmarks/McCat/09-vor/vor, 0.2518, 0.2510, 0.2516,0.2516, 0.2497, 0.2491, 0.2495,0.2495,-0.8346581875993575
SingleSource/Benchmarks/Shootout-C++/hash, 0.2453, 0.2461, 0.2452,0.2453, 0.2434, 0.2427, 0.2426,0.2427,-1.059926620464735
SingleSource/Benchmarks/Shootout-C++/hash2, 0.2774, 0.2782, 0.2779,0.2779, 0.2752, 0.2745, 0.2745,0.2745,-1.2234616768621698
SingleSource/Benchmarks/Adobe-C++/functionobjects, 0.4144, 0.4136, 0.4132,0.4136, 0.4042, 0.4071, 0.4045,0.4045,-2.200193423597674
SingleSource/Benchmarks/Shootout-C++/moments, 0.2239, 0.2246, 0.2241,0.2241, 0.2184, 0.2182, 0.2181,0.2182,-2.6327532351628657
SingleSource/Benchmarks/Misc-C++/stepanov_container, 0.6070, 0.6080, 0.6076,0.6076, 0.5900, 0.5895, 0.5897,0.5897,-2.9460171165240356
MultiSource/Benchmarks/Olden/voronoi/voronoi, 0.2203, 0.2207, 0.2205,0.2205, 0.1987, 0.1983, 0.1986,0.1986,-9.931972789115651
SingleSource/Benchmarks/Adobe-C++/stepanov_abstraction, 0.5532, 0.5511, 0.5536,0.5532, 0.4917, 0.4907, 0.4919,0.4917,-11.11713665943601
Total elapsed time,-,-,-,333.8447,-,-,-,333.4056999999999,-0.13149826850630264
Total failure,-,-,-,0,-,-,-,0,
Geom. avg slowdown,,,,,,,,,0.0379987323853%
