Benchmarks,/mnt/freezedisk/llvm-intptr-base-5.0-release/bin/clang,/mnt/freezedisk/llvm-intptr-base-5.0-release/bin/clang,/mnt/freezedisk/llvm-intptr-base-5.0-release/bin/clang,median,/mnt/freezedisk/llvm-intptr-insts-5.0-release/bin/clang,/mnt/freezedisk/llvm-intptr-insts-5.0-release/bin/clang,/mnt/freezedisk/llvm-intptr-insts-5.0-release/bin/clang,median
MultiSource/Applications/ALAC/decode/alacconvert-decode, 0.0130, 0.0130, 0.0130,0.013, 0.0130, 0.0130, 0.0131,0.013
MultiSource/Applications/ALAC/encode/alacconvert-encode, 0.0265, 0.0265, 0.0265,0.0265, 0.0265, 0.0265, 0.0265,0.0265
MultiSource/Applications/ClamAV/clamscan, 0.1527, 0.2020, 0.1822,0.1822, 0.1692, 0.1744, 0.1852,0.1744
MultiSource/Applications/JM/ldecod/ldecod, 0.0361, 0.0363, 0.0361,0.0361, 0.0360, 0.0360, 0.0361,0.036
MultiSource/Applications/JM/lencod/lencod, 3.1663, 3.1622, 3.1617,3.1622, 3.1610, 3.1658, 3.1638,3.1638
MultiSource/Applications/SIBsim4/SIBsim4, 2.1090, 2.1011, 2.0918,2.1011, 2.1507, 2.0609, 2.0926,2.0926
MultiSource/Applications/SPASS/SPASS, 6.2063, 6.6601, 6.3239,6.3239, 6.7513, 6.7533, 6.7799,6.7533
MultiSource/Applications/aha/aha, 1.0373, 1.0371, 1.0377,1.0373, 1.0375, 1.0375, 1.0367,1.0375
MultiSource/Applications/d/make_dparser, 0.0158, 0.0158, 0.0158,0.0158, 0.0157, 0.0157, 0.0157,0.0157
MultiSource/Applications/hbd/hbd, 0.0018, 0.0017, 0.0017,0.0017, 0.0018, 0.0016, 0.0018,0.0018
MultiSource/Applications/hexxagon/hexxagon, 7.0582, 7.0583, 7.0585,7.0583, 7.0580, 7.0580, 7.0580,7.058
MultiSource/Applications/kimwitu++/kc, 0.0282, 0.0281, 0.0281,0.0281, 0.0283, 0.0284, 0.0283,0.0283
MultiSource/Applications/lambda-0.1.3/lambda, 2.6398, 2.6485, 2.6596,2.6485, 2.6996, 2.7013, 2.7014,2.7013
MultiSource/Applications/lua/lua,11.1149,11.0874,11.1027,11.1027,11.2036,11.1936,11.1812,11.1936
MultiSource/Applications/minisat/minisat, 4.1172, 3.9614, 4.1554,4.1172, 4.1992, 4.1998, 4.1541,4.1992
MultiSource/Applications/obsequi/Obsequi, 1.0943, 1.0935, 1.0935,1.0935, 1.0931, 1.0925, 1.0925,1.0925
MultiSource/Applications/oggenc/oggenc, 0.0764, 0.0764, 0.0764,0.0764, 0.0848, 0.0765, 0.0765,0.0765
MultiSource/Applications/sgefa/sgefa, 0.1526, 0.1526, 0.1526,0.1526, 0.1526, 0.1526, 0.1526,0.1526
MultiSource/Applications/siod/siod, 1.1307, 1.1325, 1.1321,1.1321, 1.0924, 1.0934, 1.0905,1.0924
MultiSource/Applications/spiff/spiff, 1.2845, 1.2805, 1.2817,1.2817, 1.2729, 1.2747, 1.2705,1.2729
MultiSource/Applications/sqlite3/sqlite3, 1.7780, 1.7811, 1.7754,1.778, 1.7987, 1.7941, 1.7894,1.7941
MultiSource/Applications/viterbi/viterbi, 1.2781, 1.2776, 1.2783,1.2781, 1.2847, 1.2830, 1.2844,1.2844
MultiSource/Benchmarks/7zip/7zip-benchmark, 6.3323, 6.3313, 6.3309,6.3313, 6.3320, 6.3320, 6.3337,6.332
MultiSource/Benchmarks/ASCI_Purple/SMG2000/smg2000, 1.1664, 1.1696, 1.1669,1.1669, 1.1668, 1.1661, 1.1644,1.1661
MultiSource/Benchmarks/ASC_Sequoia/AMGmk/AMGmk, 4.9884, 5.0004, 4.9982,4.9982, 4.9745, 4.9705, 4.9780,4.9745
MultiSource/Benchmarks/ASC_Sequoia/CrystalMk/CrystalMk, 7.2733, 7.2732, 7.2731,7.2732, 7.2731, 7.2732, 7.2737,7.2732
MultiSource/Benchmarks/ASC_Sequoia/IRSmk/IRSmk, 2.9897, 2.9978, 3.0031,2.9978, 2.9985, 2.9944, 3.0062,2.9985
MultiSource/Benchmarks/BitBench/drop3/drop3, 0.1784, 0.1856, 0.1818,0.1818, 0.1859, 0.1809, 0.1883,0.1859
MultiSource/Benchmarks/BitBench/five11/five11, 1.1100, 1.1100, 1.1110,1.11, 1.1280, 1.1101, 1.1068,1.1101
MultiSource/Benchmarks/BitBench/uudecode/uudecode, 0.0595, 0.0596, 0.0596,0.0596, 0.0596, 0.0596, 0.0596,0.0596
MultiSource/Benchmarks/BitBench/uuencode/uuencode, 0.0104, 0.0105, 0.0104,0.0104, 0.0104, 0.0104, 0.0105,0.0104
MultiSource/Benchmarks/Bullet/bullet, 3.2502, 3.2491, 3.2454,3.2491, 3.3340, 3.3369, 3.3279,3.334
MultiSource/Benchmarks/DOE-ProxyApps-C++/CLAMR/CLAMR, 1.1202, 1.1202, 1.1201,1.1202, 1.1200, 1.1200, 1.1200,1.12
MultiSource/Benchmarks/DOE-ProxyApps-C++/HPCCG/HPCCG, 0.9021, 0.9005, 0.8995,0.9005, 0.9007, 0.9018, 0.9009,0.9009
MultiSource/Benchmarks/DOE-ProxyApps-C++/PENNANT/PENNANT, 0.3697, 0.3698, 0.3696,0.3697, 0.3713, 0.3712, 0.3710,0.3712
MultiSource/Benchmarks/DOE-ProxyApps-C++/miniFE/miniFE, 2.4659, 2.4619, 2.4673,2.4659, 2.4628, 2.4654, 2.4646,2.4646
MultiSource/Benchmarks/DOE-ProxyApps-C/Pathfinder/PathFinder, 2.0973, 2.1028, 2.0949,2.0973, 2.1007, 2.0951, 2.0995,2.0995
MultiSource/Benchmarks/DOE-ProxyApps-C/RSBench/rsbench, 0.5767, 0.5773, 0.5788,0.5773, 0.5748, 0.5707, 0.5773,0.5748
MultiSource/Benchmarks/DOE-ProxyApps-C/SimpleMOC/SimpleMOC, 3.7957, 3.7806, 3.7866,3.7866, 3.7891, 3.7852, 3.7964,3.7891
MultiSource/Benchmarks/DOE-ProxyApps-C/XSBench/XSBench, 2.4328, 2.4420, 2.4411,2.4411, 2.4354, 2.4396, 2.4349,2.4354
MultiSource/Benchmarks/DOE-ProxyApps-C/miniAMR/miniAMR, 0.7731, 0.7720, 0.7710,0.772, 0.7734, 0.7715, 0.7706,0.7715
MultiSource/Benchmarks/DOE-ProxyApps-C/miniGMG/miniGMG, 5.2020, 5.2021, 5.2014,5.202, 5.2018, 5.2024, 5.2024,5.2024
MultiSource/Benchmarks/Fhourstones-3.1/fhourstones3.1, 0.7712, 0.7713, 0.7714,0.7713, 0.7717, 0.7718, 0.7719,0.7718
MultiSource/Benchmarks/Fhourstones/fhourstones, 0.5836, 0.5675, 0.5610,0.5675, 0.5777, 0.5761, 0.5702,0.5761
MultiSource/Benchmarks/FreeBench/analyzer/analyzer, 0.0404, 0.0401, 0.0403,0.0403, 0.0402, 0.0397, 0.0401,0.0401
MultiSource/Benchmarks/FreeBench/distray/distray, 0.1346, 0.1346, 0.1345,0.1346, 0.1346, 0.1345, 0.1346,0.1346
MultiSource/Benchmarks/FreeBench/fourinarow/fourinarow, 0.1756, 0.1756, 0.1756,0.1756, 0.1756, 0.1756, 0.1756,0.1756
MultiSource/Benchmarks/FreeBench/mason/mason, 0.1305, 0.1305, 0.1304,0.1305, 0.1303, 0.1303, 0.1303,0.1303
MultiSource/Benchmarks/FreeBench/neural/neural, 0.1153, 0.1153, 0.1153,0.1153, 0.1152, 0.1153, 0.1153,0.1153
MultiSource/Benchmarks/FreeBench/pcompress2/pcompress2, 0.1052, 0.1052, 0.1052,0.1052, 0.1052, 0.1052, 0.1052,0.1052
MultiSource/Benchmarks/FreeBench/pifft/pifft, 0.0650, 0.0652, 0.0650,0.065, 0.0654, 0.0651, 0.0652,0.0652
MultiSource/Benchmarks/MallocBench/cfrac/cfrac, 0.7592, 0.7591, 0.7593,0.7592, 0.7634, 0.7635, 0.7634,0.7634
MultiSource/Benchmarks/MallocBench/espresso/espresso, 0.3012, 0.2986, 0.2983,0.2986, 0.3035, 0.2992, 0.2999,0.2999
MultiSource/Benchmarks/MallocBench/gs/gs, 0.0275, 0.0274, 0.0276,0.0275, 0.0273, 0.0271, 0.0274,0.0273
MultiSource/Benchmarks/McCat/01-qbsort/qbsort, 0.0391, 0.0391, 0.0391,0.0391, 0.0391, 0.0392, 0.0391,0.0391
MultiSource/Benchmarks/McCat/03-testtrie/testtrie, 0.0063, 0.0061, 0.0062,0.0062, 0.0063, 0.0061, 0.0062,0.0062
MultiSource/Benchmarks/McCat/04-bisect/bisect, 0.0748, 0.0749, 0.0749,0.0749, 0.0749, 0.0749, 0.0748,0.0749
MultiSource/Benchmarks/McCat/05-eks/eks, 0.0034, 0.0034, 0.0034,0.0034, 0.0034, 0.0034, 0.0034,0.0034
MultiSource/Benchmarks/McCat/08-main/main, 0.0426, 0.0427, 0.0427,0.0427, 0.0426, 0.0427, 0.0426,0.0426
MultiSource/Benchmarks/McCat/09-vor/vor, 0.0828, 0.0828, 0.0830,0.0828, 0.0832, 0.0835, 0.0830,0.0832
MultiSource/Benchmarks/McCat/12-IOtest/iotest, 0.2143, 0.2145, 0.2146,0.2145, 0.2160, 0.2150, 0.2169,0.216
MultiSource/Benchmarks/McCat/17-bintr/bintr, 0.0817, 0.0794, 0.0809,0.0809, 0.0809, 0.0808, 0.0812,0.0809
MultiSource/Benchmarks/McCat/18-imp/imp, 0.0554, 0.0555, 0.0555,0.0555, 0.0557, 0.0555, 0.0554,0.0555
MultiSource/Benchmarks/MiBench/automotive-basicmath/automotive-basicmath, 0.2227, 0.2224, 0.2226,0.2226, 0.2232, 0.2224, 0.2227,0.2227
MultiSource/Benchmarks/MiBench/automotive-bitcount/automotive-bitcount, 0.0546, 0.0546, 0.0586,0.0546, 0.0546, 0.0546, 0.0546,0.0546
MultiSource/Benchmarks/MiBench/automotive-susan/automotive-susan, 0.0284, 0.0290, 0.0285,0.0285, 0.0286, 0.0284, 0.0285,0.0285
MultiSource/Benchmarks/MiBench/consumer-jpeg/consumer-jpeg, 0.0030, 0.0030, 0.0030,0.003, 0.0030, 0.0030, 0.0030,0.003
MultiSource/Benchmarks/MiBench/consumer-lame/consumer-lame, 0.1168, 0.1169, 0.1172,0.1169, 0.1168, 0.1169, 0.1170,0.1169
MultiSource/Benchmarks/MiBench/consumer-typeset/consumer-typeset, 0.0843, 0.0839, 0.0840,0.084, 0.0828, 0.0826, 0.0831,0.0828
MultiSource/Benchmarks/MiBench/network-dijkstra/network-dijkstra, 0.0245, 0.0245, 0.0246,0.0245, 0.0245, 0.0245, 0.0245,0.0245
MultiSource/Benchmarks/MiBench/network-patricia/network-patricia, 0.0710, 0.0709, 0.0710,0.071, 0.0711, 0.0711, 0.0709,0.0711
MultiSource/Benchmarks/MiBench/security-rijndael/security-rijndael, 0.0219, 0.0219, 0.0219,0.0219, 0.0496, 0.0220, 0.0219,0.022
MultiSource/Benchmarks/MiBench/security-sha/security-sha, 0.0294, 0.0253, 0.0295,0.0294, 0.0374, 0.0332, 0.0274,0.0332
MultiSource/Benchmarks/MiBench/telecomm-CRC32/telecomm-CRC32, 0.2068, 0.2045, 0.2040,0.2045, 0.1996, 0.2004, 0.2097,0.2004
MultiSource/Benchmarks/MiBench/telecomm-FFT/telecomm-fft, 0.0382, 0.0381, 0.0381,0.0381, 0.0381, 0.0382, 0.0382,0.0382
MultiSource/Benchmarks/MiBench/telecomm-adpcm/telecomm-adpcm, 0.0803, 0.0745, 0.0819,0.0803, 0.0767, 0.0802, 0.0769,0.0769
MultiSource/Benchmarks/MiBench/telecomm-gsm/telecomm-gsm, 0.1048, 0.0999, 0.0999,0.0999, 0.1146, 0.1021, 0.1029,0.1029
MultiSource/Benchmarks/NPB-serial/is/is, 5.0305, 5.0635, 5.0634,5.0634, 5.0234, 5.0632, 5.1510,5.0632
MultiSource/Benchmarks/Olden/bh/bh, 1.2799, 1.2789, 1.2771,1.2789, 1.3340, 1.3340, 1.3317,1.334
MultiSource/Benchmarks/Olden/bisort/bisort, 0.3626, 0.3620, 0.3616,0.362, 0.3630, 0.3619, 0.3620,0.362
MultiSource/Benchmarks/Olden/em3d/em3d, 1.7024, 1.7018, 1.7019,1.7019, 1.7015, 1.7017, 1.7022,1.7017
MultiSource/Benchmarks/Olden/health/health, 0.1434, 0.1435, 0.1435,0.1435, 0.1435, 0.1435, 0.1433,0.1435
MultiSource/Benchmarks/Olden/mst/mst, 0.0522, 0.0520, 0.0522,0.0522, 0.0520, 0.0513, 0.0516,0.0516
MultiSource/Benchmarks/Olden/perimeter/perimeter, 0.1217, 0.1220, 0.1219,0.1219, 0.1220, 0.1221, 0.1217,0.122
MultiSource/Benchmarks/Olden/power/power, 1.0535, 1.0534, 1.0532,1.0534, 1.0532, 1.0532, 1.0534,1.0532
MultiSource/Benchmarks/Olden/treeadd/treeadd, 0.1264, 0.1266, 0.1264,0.1264, 0.1265, 0.1266, 0.1263,0.1265
MultiSource/Benchmarks/Olden/tsp/tsp, 1.1718, 1.1719, 1.1720,1.1719, 1.1724, 1.1721, 1.1723,1.1723
MultiSource/Benchmarks/Olden/voronoi/voronoi, 0.2137, 0.2136, 0.2133,0.2136, 0.2185, 0.2183, 0.2181,0.2183
MultiSource/Benchmarks/PAQ8p/paq8p,42.6637,42.6306,42.6766,42.6637,42.6932,42.6727,42.6643,42.6727
MultiSource/Benchmarks/Prolangs-C++/city/city, 0.0050, 0.0050, 0.0050,0.005, 0.0050, 0.0050, 0.0050,0.005
MultiSource/Benchmarks/Prolangs-C++/employ/employ, 0.0048, 0.0048, 0.0048,0.0048, 0.0048, 0.0048, 0.0048,0.0048
MultiSource/Benchmarks/Prolangs-C++/life/life, 0.7136, 0.7145, 0.7148,0.7145, 0.7152, 0.7188, 0.7137,0.7152
MultiSource/Benchmarks/Prolangs-C++/ocean/ocean, 0.0361, 0.0360, 0.0360,0.036, 0.0360, 0.0360, 0.0359,0.036
MultiSource/Benchmarks/Prolangs-C++/primes/primes, 0.2125, 0.2125, 0.2144,0.2125, 0.2145, 0.2145, 0.2143,0.2145
MultiSource/Benchmarks/Prolangs-C++/simul/simul, 0.0038, 0.0038, 0.0038,0.0038, 0.0038, 0.0038, 0.0038,0.0038
MultiSource/Benchmarks/Prolangs-C/agrep/agrep, 0.0030, 0.0028, 0.0028,0.0028, 0.0028, 0.0028, 0.0028,0.0028
MultiSource/Benchmarks/Prolangs-C/bison/mybison, 0.0021, 0.0021, 0.0019,0.0021, 0.0019, 0.0019, 0.0019,0.0019
MultiSource/Benchmarks/Prolangs-C/gnugo/gnugo, 0.0251, 0.0252, 0.0252,0.0252, 0.0253, 0.0252, 0.0252,0.0252
MultiSource/Benchmarks/Ptrdist/anagram/anagram, 0.6001, 0.6001, 0.6002,0.6001, 0.6003, 0.6005, 0.6001,0.6003
MultiSource/Benchmarks/Ptrdist/bc/bc, 0.3640, 0.3634, 0.3636,0.3636, 0.3650, 0.3648, 0.3648,0.3648
MultiSource/Benchmarks/Ptrdist/ft/ft, 0.6431, 0.6290, 0.6041,0.629, 0.6576, 0.6107, 0.6269,0.6269
MultiSource/Benchmarks/Ptrdist/ks/ks, 0.6496, 0.6531, 0.6505,0.6505, 0.6548, 0.6547, 0.6562,0.6548
MultiSource/Benchmarks/Ptrdist/yacr2/yacr2, 0.5304, 0.5300, 0.5299,0.53, 0.5303, 0.5300, 0.5296,0.53
MultiSource/Benchmarks/SciMark2-C/scimark2,42.0700,42.0691,42.0903,42.07,42.0944,42.0982,42.1130,42.0982
MultiSource/Benchmarks/TSVC/ControlFlow-dbl/ControlFlow-dbl, 3.7408, 3.7433, 3.7446,3.7433, 3.7454, 3.7394, 3.7411,3.7411
MultiSource/Benchmarks/TSVC/ControlFlow-flt/ControlFlow-flt, 3.5461, 3.5591, 3.5630,3.5591, 3.5601, 3.5692, 3.5746,3.5692
MultiSource/Benchmarks/TSVC/ControlLoops-dbl/ControlLoops-dbl, 2.5416, 2.5407, 2.5405,2.5407, 2.5428, 2.5412, 2.5412,2.5412
MultiSource/Benchmarks/TSVC/ControlLoops-flt/ControlLoops-flt, 2.3515, 2.3463, 2.3487,2.3487, 2.3520, 2.3465, 2.3456,2.3465
MultiSource/Benchmarks/TSVC/CrossingThresholds-dbl/CrossingThresholds-dbl, 2.1488, 2.1494, 2.1491,2.1491, 2.1490, 2.1492, 2.1493,2.1492
MultiSource/Benchmarks/TSVC/CrossingThresholds-flt/CrossingThresholds-flt, 1.6260, 1.6366, 1.6295,1.6295, 1.6256, 1.6370, 1.6245,1.6256
MultiSource/Benchmarks/TSVC/Equivalencing-dbl/Equivalencing-dbl, 1.3880, 1.3857, 1.3856,1.3857, 1.3876, 1.3837, 1.3858,1.3858
MultiSource/Benchmarks/TSVC/Equivalencing-flt/Equivalencing-flt, 0.9709, 0.9692, 0.9674,0.9692, 0.9695, 0.9693, 0.9674,0.9693
MultiSource/Benchmarks/TSVC/Expansion-dbl/Expansion-dbl, 1.9862, 1.9844, 1.9893,1.9862, 1.9879, 1.9851, 1.9841,1.9851
MultiSource/Benchmarks/TSVC/Expansion-flt/Expansion-flt, 1.1878, 1.1751, 1.1832,1.1832, 1.1818, 1.1804, 1.1843,1.1818
MultiSource/Benchmarks/TSVC/GlobalDataFlow-dbl/GlobalDataFlow-dbl, 2.8519, 2.8510, 2.8505,2.851, 2.8503, 2.8512, 2.8510,2.851
MultiSource/Benchmarks/TSVC/GlobalDataFlow-flt/GlobalDataFlow-flt, 1.5012, 1.5077, 1.5047,1.5047, 1.5052, 1.4868, 1.5030,1.503
MultiSource/Benchmarks/TSVC/IndirectAddressing-dbl/IndirectAddressing-dbl, 2.4798, 2.4752, 2.4756,2.4756, 2.4815, 2.4753, 2.4771,2.4771
MultiSource/Benchmarks/TSVC/IndirectAddressing-flt/IndirectAddressing-flt, 2.2425, 2.2463, 2.2442,2.2442, 2.2458, 2.2452, 2.2458,2.2458
MultiSource/Benchmarks/TSVC/InductionVariable-dbl/InductionVariable-dbl, 3.0478, 3.0493, 3.0492,3.0492, 3.0495, 3.0485, 3.0491,3.0491
MultiSource/Benchmarks/TSVC/InductionVariable-flt/InductionVariable-flt, 2.5598, 2.5539, 2.5578,2.5578, 2.5556, 2.5535, 2.5639,2.5556
MultiSource/Benchmarks/TSVC/LinearDependence-dbl/LinearDependence-dbl, 5.7071, 5.7067, 5.7073,5.7071, 5.7076, 5.7082, 5.7052,5.7076
MultiSource/Benchmarks/TSVC/LinearDependence-flt/LinearDependence-flt, 4.9821, 4.9762, 4.9843,4.9821, 4.9936, 4.9891, 4.9894,4.9894
MultiSource/Benchmarks/TSVC/LoopRerolling-dbl/LoopRerolling-dbl, 4.6104, 4.6104, 4.6112,4.6104, 4.6107, 4.6108, 4.6105,4.6107
MultiSource/Benchmarks/TSVC/LoopRerolling-flt/LoopRerolling-flt, 3.8328, 3.8259, 3.8352,3.8328, 3.8250, 3.8263, 3.8206,3.825
MultiSource/Benchmarks/TSVC/LoopRestructuring-dbl/LoopRestructuring-dbl, 3.6397, 3.6377, 3.6432,3.6397, 3.6438, 3.6390, 3.6477,3.6438
MultiSource/Benchmarks/TSVC/LoopRestructuring-flt/LoopRestructuring-flt, 2.8297, 2.8890, 2.9380,2.889, 3.0230, 2.9030, 2.8384,2.903
MultiSource/Benchmarks/TSVC/NodeSplitting-dbl/NodeSplitting-dbl, 5.0289, 5.0261, 5.0289,5.0289, 5.0282, 5.0260, 5.0277,5.0277
MultiSource/Benchmarks/TSVC/NodeSplitting-flt/NodeSplitting-flt, 4.6537, 4.6590, 4.6560,4.656, 4.6473, 4.6501, 4.6488,4.6488
MultiSource/Benchmarks/TSVC/Packing-dbl/Packing-dbl, 2.3235, 2.3243, 2.3244,2.3243, 2.3264, 2.3248, 2.3234,2.3248
MultiSource/Benchmarks/TSVC/Packing-flt/Packing-flt, 2.1436, 2.1274, 2.1036,2.1274, 2.1096, 2.0990, 2.0895,2.099
MultiSource/Benchmarks/TSVC/Recurrences-dbl/Recurrences-dbl, 3.5012, 3.5011, 3.5010,3.5011, 3.5011, 3.5011, 3.5013,3.5011
MultiSource/Benchmarks/TSVC/Recurrences-flt/Recurrences-flt, 3.5009, 3.5009, 3.5006,3.5009, 3.5006, 3.5007, 3.5012,3.5007
MultiSource/Benchmarks/TSVC/Reductions-dbl/Reductions-dbl, 3.4400, 3.4399, 3.4399,3.4399, 3.4399, 3.4399, 3.4401,3.4399
MultiSource/Benchmarks/TSVC/Reductions-flt/Reductions-flt, 5.9350, 5.9349, 5.9349,5.9349, 5.9349, 5.9349, 5.9353,5.9349
MultiSource/Benchmarks/TSVC/Searching-dbl/Searching-dbl, 2.2752, 2.2751, 2.2753,2.2752, 2.2753, 2.2759, 2.2745,2.2753
MultiSource/Benchmarks/TSVC/Searching-flt/Searching-flt, 2.4315, 2.4327, 2.4343,2.4327, 2.4325, 2.4321, 2.4340,2.4325
MultiSource/Benchmarks/TSVC/StatementReordering-dbl/StatementReordering-dbl, 2.2453, 2.2455, 2.2457,2.2455, 2.2449, 2.2448, 2.2449,2.2449
MultiSource/Benchmarks/TSVC/StatementReordering-flt/StatementReordering-flt, 1.8292, 1.8265, 1.8263,1.8265, 1.8315, 1.8299, 1.8263,1.8299
MultiSource/Benchmarks/TSVC/Symbolics-dbl/Symbolics-dbl, 2.4549, 2.4550, 2.4550,2.455, 2.4551, 2.4548, 2.4556,2.4551
MultiSource/Benchmarks/TSVC/Symbolics-flt/Symbolics-flt, 1.3884, 1.3954, 1.3875,1.3884, 1.3919, 1.3877, 1.3855,1.3877
MultiSource/Benchmarks/Trimaran/enc-3des/enc-3des, 1.2894, 1.2895, 1.2893,1.2894, 1.2897, 1.2898, 1.2897,1.2897
MultiSource/Benchmarks/Trimaran/enc-md5/enc-md5, 1.2243, 1.2242, 1.2243,1.2243, 1.2243, 1.2243, 1.2243,1.2243
MultiSource/Benchmarks/Trimaran/enc-pc1/enc-pc1, 0.3440, 0.3440, 0.3440,0.344, 0.3440, 0.3440, 0.3440,0.344
MultiSource/Benchmarks/Trimaran/enc-rc4/enc-rc4, 0.7276, 0.7280, 0.7273,0.7276, 0.7275, 0.7271, 0.8712,0.7275
MultiSource/Benchmarks/Trimaran/netbench-crc/netbench-crc, 0.6214, 0.6210, 0.6209,0.621, 0.6213, 0.6211, 0.6210,0.6211
MultiSource/Benchmarks/Trimaran/netbench-url/netbench-url, 2.9798, 2.9796, 2.9815,2.9798, 2.9799, 2.9794, 2.9798,2.9798
MultiSource/Benchmarks/VersaBench/8b10b/8b10b, 3.6024, 3.6152, 3.6037,3.6037, 3.6089, 3.6089, 3.6004,3.6089
MultiSource/Benchmarks/VersaBench/beamformer/beamformer, 0.7488, 0.7487, 0.7488,0.7488, 0.7488, 0.7488, 0.7489,0.7488
MultiSource/Benchmarks/VersaBench/bmm/bmm, 1.6459, 1.6459, 1.6460,1.6459, 1.6460, 1.6458, 1.6460,1.646
MultiSource/Benchmarks/VersaBench/dbms/dbms, 0.8882, 0.8969, 0.8906,0.8906, 0.8911, 0.8375, 0.8937,0.8911
MultiSource/Benchmarks/VersaBench/ecbdes/ecbdes, 1.6932, 1.6931, 1.6931,1.6931, 1.6931, 1.6932, 1.6932,1.6932
MultiSource/Benchmarks/llubenchmark/llu, 4.1436, 4.1147, 4.0668,4.1147, 4.1412, 4.1374, 3.9104,4.1374
MultiSource/Benchmarks/mafft/pairlocalalign,24.6627,24.6616,24.6617,24.6617,24.7193,24.7180,24.7221,24.7193
MultiSource/Benchmarks/mediabench/adpcm/rawcaudio/rawcaudio, 0.0088, 0.0054, 0.0113,0.0088, 0.0080, 0.0091, 0.0113,0.0091
MultiSource/Benchmarks/mediabench/adpcm/rawdaudio/rawdaudio, 0.0016, 0.0054, 0.0016,0.0016, 0.0016, 0.0016, 0.0016,0.0016
MultiSource/Benchmarks/mediabench/g721/g721encode/encode, 0.0296, 0.0296, 0.0296,0.0296, 0.0296, 0.0296, 0.0296,0.0296
MultiSource/Benchmarks/mediabench/gsm/toast/toast, 0.0133, 0.0132, 0.0133,0.0133, 0.0131, 0.0131, 0.0133,0.0131
MultiSource/Benchmarks/mediabench/jpeg/jpeg-6a/cjpeg, 0.0032, 0.0032, 0.0032,0.0032, 0.0034, 0.0034, 0.0034,0.0034
MultiSource/Benchmarks/mediabench/mpeg2/mpeg2dec/mpeg2decode, 0.0130, 0.0130, 0.0130,0.013, 0.0130, 0.0130, 0.0131,0.013
MultiSource/Benchmarks/nbench/nbench, 1.2713, 1.2717, 1.2722,1.2717, 1.2722, 1.2726, 1.2718,1.2722
MultiSource/Benchmarks/sim/sim, 2.6894, 2.6875, 2.6903,2.6894, 2.6305, 2.6310, 2.6323,2.631
MultiSource/Benchmarks/tramp3d-v4/tramp3d-v4, 0.2395, 0.2397, 0.2396,0.2396, 0.2396, 0.2394, 0.2396,0.2396
SingleSource/Benchmarks/Adobe-C++/functionobjects, 3.0294, 3.0298, 3.0288,3.0294, 3.0361, 3.0350, 3.0354,3.0354
SingleSource/Benchmarks/Adobe-C++/loop_unroll, 1.7723, 1.7734, 1.7752,1.7734, 1.7794, 1.7763, 1.7753,1.7763
SingleSource/Benchmarks/Adobe-C++/simple_types_constant_folding, 0.6645, 0.6645, 0.6645,0.6645, 0.6645, 0.6646, 0.6645,0.6645
SingleSource/Benchmarks/Adobe-C++/simple_types_loop_invariant, 1.5935, 1.5944, 1.5941,1.5941, 1.5941, 1.5947, 1.5940,1.5941
SingleSource/Benchmarks/Adobe-C++/stepanov_abstraction, 4.2661, 4.2649, 4.2663,4.2661, 4.2400, 4.2399, 4.2399,4.2399
SingleSource/Benchmarks/Adobe-C++/stepanov_vector, 2.3071, 2.3074, 2.3082,2.3074, 2.2601, 2.2603, 2.2605,2.2603
SingleSource/Benchmarks/BenchmarkGame/Large/fasta, 0.6449, 0.6504, 0.6458,0.6458, 0.6477, 0.6499, 0.6445,0.6477
SingleSource/Benchmarks/BenchmarkGame/fannkuch, 2.0901, 2.0888, 2.0896,2.0896, 2.0890, 2.0896, 2.0903,2.0896
SingleSource/Benchmarks/BenchmarkGame/n-body, 1.3733, 1.3732, 1.3732,1.3732, 1.3732, 1.3732, 1.3732,1.3732
SingleSource/Benchmarks/BenchmarkGame/nsieve-bits, 0.4920, 0.4805, 0.4846,0.4846, 0.4819, 0.4835, 0.4789,0.4819
SingleSource/Benchmarks/BenchmarkGame/partialsums, 0.5686, 0.5686, 0.5686,0.5686, 0.5685, 0.5686, 0.5685,0.5685
SingleSource/Benchmarks/BenchmarkGame/puzzle, 0.1291, 0.1292, 0.1290,0.1291, 0.1293, 0.1293, 0.1292,0.1293
SingleSource/Benchmarks/BenchmarkGame/recursive, 0.7052, 0.7041, 0.7069,0.7052, 0.7125, 0.7050, 0.7068,0.7068
SingleSource/Benchmarks/BenchmarkGame/spectral-norm, 0.9768, 0.9768, 0.9768,0.9768, 0.9768, 0.9768, 0.9768,0.9768
SingleSource/Benchmarks/CoyoteBench/almabench,12.6328,12.6257,12.6337,12.6328,12.6315,12.6503,12.6323,12.6323
SingleSource/Benchmarks/CoyoteBench/fftbench, 0.6358, 0.6382, 0.6352,0.6358, 0.6371, 0.6355, 0.6418,0.6371
SingleSource/Benchmarks/CoyoteBench/huffbench, 9.0378, 9.0431, 9.0476,9.0431, 9.0116, 9.0065, 9.0173,9.0116
SingleSource/Benchmarks/CoyoteBench/lpbench, 1.8173, 1.8191, 1.8137,1.8173, 1.8172, 1.8157, 1.8187,1.8172
SingleSource/Benchmarks/Dhrystone/dry, 0.3046, 0.3046, 0.3046,0.3046, 0.3046, 0.3046, 0.3046,0.3046
SingleSource/Benchmarks/Dhrystone/fldry, 0.3654, 0.3654, 0.3654,0.3654, 0.3654, 0.3654, 0.3654,0.3654
SingleSource/Benchmarks/Linpack/linpack-pc, 1.2417, 1.2405, 1.2404,1.2405, 1.2442, 1.2412, 1.2436,1.2436
SingleSource/Benchmarks/McGill/chomp, 1.3040, 1.2363, 1.2999,1.2999, 1.3024, 1.3032, 1.2084,1.3024
SingleSource/Benchmarks/McGill/misr, 0.1013, 0.1013, 0.1013,0.1013, 0.1013, 0.1013, 0.1013,0.1013
SingleSource/Benchmarks/McGill/queens, 1.7518, 1.7509, 1.7525,1.7518, 1.7508, 1.7510, 1.7510,1.751
SingleSource/Benchmarks/Misc-C++-EH/spirit, 2.6175, 2.6167, 2.6210,2.6175, 2.6494, 2.6508, 2.6496,2.6496
SingleSource/Benchmarks/Misc-C++/Large/ray, 3.1396, 3.1392, 3.1393,3.1393, 3.1398, 3.1399, 3.1399,3.1399
SingleSource/Benchmarks/Misc-C++/Large/sphereflake, 5.6077, 5.6075, 5.6075,5.6075, 5.6073, 5.6073, 5.6072,5.6073
SingleSource/Benchmarks/Misc-C++/bigfib, 0.1912, 0.1906, 0.1906,0.1906, 0.1911, 0.1909, 0.1907,0.1909
SingleSource/Benchmarks/Misc-C++/mandel-text, 1.6139, 1.6079, 1.6126,1.6126, 1.6102, 1.6113, 1.6085,1.6102
SingleSource/Benchmarks/Misc-C++/oopack_v1p8, 0.1619, 0.1619, 0.1619,0.1619, 0.1619, 0.1619, 0.1619,0.1619
SingleSource/Benchmarks/Misc-C++/stepanov_container, 3.1100, 3.1034, 3.0955,3.1034, 3.1050, 3.0803, 3.0933,3.0933
SingleSource/Benchmarks/Misc-C++/stepanov_v1p2, 7.9041, 7.9036, 7.9036,7.9036, 7.9037, 7.9038, 7.9037,7.9037
SingleSource/Benchmarks/Misc/ReedSolomon, 3.1536, 3.1536, 3.1537,3.1536, 3.1535, 3.1537, 3.1536,3.1536
SingleSource/Benchmarks/Misc/dt, 0.6669, 0.6668, 0.6668,0.6668, 0.6668, 0.6668, 0.6668,0.6668
SingleSource/Benchmarks/Misc/evalloop, 0.3683, 0.3680, 0.3690,0.3683, 0.3681, 0.3685, 0.3680,0.3681
SingleSource/Benchmarks/Misc/fbench, 1.7140, 1.7139, 1.7139,1.7139, 1.7135, 1.7136, 1.7135,1.7135
SingleSource/Benchmarks/Misc/ffbench, 0.5850, 0.5853, 0.5843,0.585, 0.5864, 0.5866, 0.5870,0.5866
SingleSource/Benchmarks/Misc/flops,10.6464,10.6776,10.6820,10.6776,10.6388,10.5887,10.5705,10.5887
SingleSource/Benchmarks/Misc/flops-1, 3.5821, 3.5820, 3.5821,3.5821, 3.4826, 3.5820, 3.4835,3.4835
SingleSource/Benchmarks/Misc/flops-2, 0.8625, 0.8625, 0.8625,0.8625, 0.8625, 0.8625, 0.8625,0.8625
SingleSource/Benchmarks/Misc/flops-3, 5.4133, 5.4130, 5.4130,5.413, 5.4130, 5.4131, 5.6979,5.4131
SingleSource/Benchmarks/Misc/flops-4, 2.2797, 2.2796, 2.3271,2.2797, 2.2796, 2.4221, 2.3271,2.3271
SingleSource/Benchmarks/Misc/flops-5, 4.2758, 4.2756, 4.2756,4.2756, 4.2756, 4.2756, 4.2746,4.2756
SingleSource/Benchmarks/Misc/flops-6, 3.3721, 3.4194, 3.4194,3.4194, 3.4194, 3.4195, 3.4194,3.4194
SingleSource/Benchmarks/Misc/flops-7, 1.5901, 1.5900, 1.5900,1.59, 1.5900, 1.5900, 1.5900,1.59
SingleSource/Benchmarks/Misc/flops-8, 2.8969, 2.8968, 2.8968,2.8968, 2.8968, 2.8969, 2.8968,2.8968
SingleSource/Benchmarks/Misc/fp-convert, 2.6303, 2.6302, 2.6302,2.6302, 2.6302, 2.6302, 2.6302,2.6302
SingleSource/Benchmarks/Misc/himenobmtxpa, 0.5156, 0.5241, 0.5168,0.5168, 0.5189, 0.5249, 0.5309,0.5249
SingleSource/Benchmarks/Misc/lowercase, 0.0007, 0.0007, 0.0007,0.0007, 0.0007, 0.0007, 0.0007,0.0007
SingleSource/Benchmarks/Misc/mandel, 0.8336, 0.8336, 0.8335,0.8336, 0.8336, 0.8336, 0.8336,0.8336
SingleSource/Benchmarks/Misc/mandel-2, 1.2780, 1.2779, 1.2779,1.2779, 1.2779, 1.2779, 1.2779,1.2779
SingleSource/Benchmarks/Misc/matmul_f64_4x4, 1.2952, 1.2951, 1.2951,1.2951, 1.2951, 1.2951, 1.2951,1.2951
SingleSource/Benchmarks/Misc/oourafft, 6.0226, 6.0210, 6.0170,6.021, 6.0170, 6.0172, 6.0173,6.0172
SingleSource/Benchmarks/Misc/perlin, 3.8809, 3.8799, 3.8807,3.8807, 3.8802, 3.8804, 3.8802,3.8802
SingleSource/Benchmarks/Misc/pi, 0.6942, 0.6941, 0.6942,0.6942, 0.6942, 0.6942, 0.6942,0.6942
SingleSource/Benchmarks/Misc/revertBits, 0.3294, 0.3294, 0.3297,0.3294, 0.3294, 0.3294, 0.3294,0.3294
SingleSource/Benchmarks/Misc/richards_benchmark, 0.4974, 0.4971, 0.4972,0.4972, 0.4976, 0.4973, 0.4970,0.4973
SingleSource/Benchmarks/Misc/salsa20, 4.1616, 4.6177, 4.6179,4.6177, 4.1614, 4.1614, 4.6179,4.1614
SingleSource/Benchmarks/Misc/whetstone, 1.0274, 1.0263, 1.0274,1.0274, 1.0274, 1.0274, 1.0249,1.0274
SingleSource/Benchmarks/Polybench/datamining/correlation/correlation, 1.6684, 1.6735, 1.6659,1.6684, 1.6657, 1.6629, 1.6544,1.6629
SingleSource/Benchmarks/Polybench/datamining/covariance/covariance, 1.6562, 1.6562, 1.6534,1.6562, 1.6567, 1.6476, 1.6507,1.6507
SingleSource/Benchmarks/Polybench/linear-algebra/kernels/atax/atax, 0.1703, 0.1703, 0.1704,0.1703, 0.1702, 0.1702, 0.1704,0.1702
SingleSource/Benchmarks/Polybench/linear-algebra/kernels/bicg/bicg, 0.2125, 0.2125, 0.2125,0.2125, 0.2125, 0.2124, 0.2124,0.2124
SingleSource/Benchmarks/Polybench/linear-algebra/kernels/cholesky/cholesky, 0.4549, 0.4554, 0.4568,0.4554, 0.4581, 0.4590, 0.4569,0.4581
SingleSource/Benchmarks/Polybench/linear-algebra/kernels/doitgen/doitgen, 0.7805, 0.7865, 0.7803,0.7805, 0.8190, 0.7806, 0.8410,0.819
SingleSource/Benchmarks/Polybench/linear-algebra/kernels/gemver/gemver, 0.3211, 0.3215, 0.3222,0.3215, 0.3220, 0.3172, 0.3217,0.3217
SingleSource/Benchmarks/Polybench/linear-algebra/kernels/gesummv/gesummv, 0.3015, 0.3064, 0.3064,0.3064, 0.3064, 0.3064, 0.3064,0.3064
SingleSource/Benchmarks/Polybench/linear-algebra/kernels/mvt/mvt, 0.2483, 0.2482, 0.2435,0.2482, 0.2437, 0.2483, 0.2433,0.2437
SingleSource/Benchmarks/Polybench/linear-algebra/kernels/symm/symm,16.5042,15.4320,16.5255,16.5042,16.7220,15.8858,16.4300,16.43
SingleSource/Benchmarks/Polybench/linear-algebra/kernels/syr2k/syr2k, 9.1846, 9.1862, 8.9501,9.1846, 9.1868, 9.1865, 9.1864,9.1865
SingleSource/Benchmarks/Polybench/linear-algebra/kernels/syrk/syrk, 4.3777, 4.6334, 4.6342,4.6334, 4.6343, 4.6338, 4.3769,4.6338
SingleSource/Benchmarks/Polybench/linear-algebra/kernels/trisolv/trisolv, 0.1735, 0.1736, 0.1639,0.1735, 0.1736, 0.1639, 0.1736,0.1736
SingleSource/Benchmarks/Polybench/linear-algebra/kernels/trmm/trmm, 2.3572, 2.3519, 2.3510,2.3519, 2.3630, 2.3581, 2.3599,2.3599
SingleSource/Benchmarks/Polybench/linear-algebra/solvers/durbin/durbin, 0.3969, 0.3975, 0.4070,0.3975, 0.3977, 0.4072, 0.3974,0.3977
SingleSource/Benchmarks/Polybench/linear-algebra/solvers/dynprog/dynprog, 0.2818, 0.2811, 0.2814,0.2814, 0.2815, 0.2818, 0.2814,0.2815
SingleSource/Benchmarks/Polybench/linear-algebra/solvers/gramschmidt/gramschmidt, 1.5790, 1.6593, 1.5358,1.579, 1.6425, 1.6564, 1.6403,1.6425
SingleSource/Benchmarks/Polybench/linear-algebra/solvers/lu/lu, 0.0021, 0.0021, 0.0021,0.0021, 0.0021, 0.0021, 0.0021,0.0021
SingleSource/Benchmarks/Polybench/medley/floyd-warshall/floyd-warshall, 5.9776, 5.9743, 5.9739,5.9743, 5.9742, 5.9743, 5.9737,5.9742
SingleSource/Benchmarks/Polybench/medley/reg_detect/reg_detect, 0.0155, 0.0155, 0.0155,0.0155, 0.0155, 0.0155, 0.0155,0.0155
SingleSource/Benchmarks/Polybench/stencils/adi/adi, 2.8039, 2.8038, 2.8040,2.8039, 2.8060, 2.8049, 2.8045,2.8049
SingleSource/Benchmarks/Polybench/stencils/fdtd-2d/fdtd-2d, 0.4109, 0.4094, 0.4069,0.4094, 0.4064, 0.4091, 0.4106,0.4091
SingleSource/Benchmarks/Polybench/stencils/fdtd-apml/fdtd-apml, 0.7208, 0.7213, 0.7260,0.7213, 0.7252, 0.7225, 0.7219,0.7225
SingleSource/Benchmarks/Polybench/stencils/jacobi-1d-imper/jacobi-1d-imper, 0.0036, 0.0036, 0.0036,0.0036, 0.0036, 0.0036, 0.0036,0.0036
SingleSource/Benchmarks/Polybench/stencils/jacobi-2d-imper/jacobi-2d-imper, 0.1494, 0.1495, 0.1495,0.1495, 0.1495, 0.1490, 0.1497,0.1495
SingleSource/Benchmarks/Polybench/stencils/seidel-2d/seidel-2d, 0.6593, 0.6593, 0.6593,0.6593, 0.6593, 0.6587, 0.6593,0.6593
SingleSource/Benchmarks/Shootout-C++/EH/except, 0.1201, 0.1204, 0.1204,0.1204, 0.1205, 0.1203, 0.1201,0.1203
SingleSource/Benchmarks/Shootout-C++/ackermann, 0.6572, 0.6571, 0.6572,0.6572, 0.6571, 0.6571, 0.6570,0.6571
SingleSource/Benchmarks/Shootout-C++/ary, 0.0141, 0.0141, 0.0141,0.0141, 0.0141, 0.0141, 0.0141,0.0141
SingleSource/Benchmarks/Shootout-C++/ary2, 0.0149, 0.0149, 0.0149,0.0149, 0.0149, 0.0148, 0.0149,0.0149
SingleSource/Benchmarks/Shootout-C++/ary3, 0.5360, 0.5383, 0.5367,0.5367, 0.5411, 0.5436, 0.5422,0.5422
SingleSource/Benchmarks/Shootout-C++/fibo, 1.4769, 1.4778, 1.4762,1.4769, 1.4768, 1.4758, 1.4773,1.4768
SingleSource/Benchmarks/Shootout-C++/hash, 0.3073, 0.3064, 0.3085,0.3073, 0.3088, 0.3079, 0.3083,0.3083
SingleSource/Benchmarks/Shootout-C++/hash2, 1.7154, 1.7131, 1.7155,1.7154, 1.7261, 1.7267, 1.7254,1.7261
SingleSource/Benchmarks/Shootout-C++/heapsort, 2.0270, 2.0258, 2.0281,2.027, 2.0266, 2.0279, 2.0229,2.0266
SingleSource/Benchmarks/Shootout-C++/lists, 2.9699, 2.9636, 2.9686,2.9686, 2.9741, 2.9636, 2.9635,2.9636
SingleSource/Benchmarks/Shootout-C++/lists1, 0.1312, 0.1336, 0.1322,0.1322, 0.1318, 0.1317, 0.1326,0.1318
SingleSource/Benchmarks/Shootout-C++/matrix, 1.1247, 1.1247, 1.1246,1.1247, 1.1248, 1.1247, 1.1247,1.1247
SingleSource/Benchmarks/Shootout-C++/methcall, 3.4498, 3.4547, 3.4496,3.4498, 3.4496, 3.4496, 3.4496,3.4496
SingleSource/Benchmarks/Shootout-C++/moments, 0.0441, 0.0441, 0.0441,0.0441, 0.0442, 0.0441, 0.0442,0.0442
SingleSource/Benchmarks/Shootout-C++/nestedloop, 0.0008, 0.0008, 0.0008,0.0008, 0.0008, 0.0008, 0.0008,0.0008
SingleSource/Benchmarks/Shootout-C++/objinst, 0.0008, 0.0008, 0.0008,0.0008, 0.0008, 0.0008, 0.0008,0.0008
SingleSource/Benchmarks/Shootout-C++/random, 1.7449, 1.7448, 1.7448,1.7448, 1.7448, 1.7448, 1.7448,1.7448
SingleSource/Benchmarks/Shootout-C++/sieve, 1.3834, 1.2731, 1.3817,1.3817, 1.3023, 1.3001, 1.2506,1.3001
SingleSource/Benchmarks/Shootout-C++/strcat, 0.0405, 0.0404, 0.0405,0.0405, 0.0405, 0.0405, 0.0404,0.0405
SingleSource/Benchmarks/Shootout/ackermann, 0.0033, 0.0033, 0.0033,0.0033, 0.0033, 0.0033, 0.0033,0.0033
SingleSource/Benchmarks/Shootout/ary3, 0.5999, 0.5969, 0.5970,0.597, 0.6006, 0.5890, 0.5999,0.5999
SingleSource/Benchmarks/Shootout/fib2, 1.4775, 1.4785, 1.4770,1.4775, 1.4786, 1.4774, 1.4789,1.4786
SingleSource/Benchmarks/Shootout/hash, 2.7600, 2.7509, 2.7540,2.754, 2.7708, 2.7704, 2.7592,2.7704
SingleSource/Benchmarks/Shootout/heapsort, 2.0368, 2.0389, 2.0372,2.0372, 2.0409, 2.0346, 2.0355,2.0355
SingleSource/Benchmarks/Shootout/lists, 4.0791, 4.0819, 4.0799,4.0799, 4.0792, 4.0811, 4.0791,4.0792
SingleSource/Benchmarks/Shootout/matrix, 1.0577, 1.0575, 1.0575,1.0575, 1.0572, 1.0576, 1.0574,1.0574
SingleSource/Benchmarks/Shootout/methcall, 3.2758, 3.2757, 3.2761,3.2758, 3.2761, 3.2759, 3.2761,3.2761
SingleSource/Benchmarks/Shootout/nestedloop, 0.0007, 0.0007, 0.0007,0.0007, 0.0007, 0.0007, 0.0007,0.0007
SingleSource/Benchmarks/Shootout/objinst, 0.0007, 0.0007, 0.0007,0.0007, 0.0007, 0.0007, 0.0007,0.0007
SingleSource/Benchmarks/Shootout/random, 1.7448, 1.7447, 1.7447,1.7447, 1.7447, 1.7448, 1.7447,1.7447
SingleSource/Benchmarks/Shootout/sieve, 3.4709, 3.4702, 3.4685,3.4702, 3.4695, 3.4718, 3.4707,3.4707
SingleSource/Benchmarks/Shootout/strcat, 0.1051, 0.1050, 0.1050,0.105, 0.1052, 0.1050, 0.1050,0.105
SingleSource/Benchmarks/SmallPT/smallpt, 7.5461, 7.5423, 7.5470,7.5461, 7.5538, 7.5597, 7.5595,7.5595
SingleSource/Benchmarks/Stanford/Bubblesort, 0.0158, 0.0157, 0.0157,0.0157, 0.0157, 0.0158, 0.0157,0.0157
SingleSource/Benchmarks/Stanford/FloatMM, 0.2012, 0.2011, 0.2011,0.2011, 0.2011, 0.2011, 0.2011,0.2011
SingleSource/Benchmarks/Stanford/Oscar, 0.0032, 0.0032, 0.0032,0.0032, 0.0024, 0.0024, 0.0024,0.0024
SingleSource/Benchmarks/Stanford/Perm, 0.0145, 0.0145, 0.0145,0.0145, 0.0145, 0.0146, 0.0146,0.0146
SingleSource/Benchmarks/Stanford/Puzzle, 0.0794, 0.0794, 0.0794,0.0794, 0.0794, 0.0794, 0.0793,0.0794
SingleSource/Benchmarks/Stanford/Queens, 0.0071, 0.0072, 0.0072,0.0072, 0.0073, 0.0070, 0.0072,0.0072
SingleSource/Benchmarks/Stanford/Quicksort, 0.0303, 0.0302, 0.0302,0.0302, 0.0302, 0.0302, 0.0302,0.0302
SingleSource/Benchmarks/Stanford/RealMM, 0.0014, 0.0014, 0.0014,0.0014, 0.0014, 0.0014, 0.0014,0.0014
SingleSource/Benchmarks/Stanford/Towers, 0.0083, 0.0083, 0.0083,0.0083, 0.0083, 0.0083, 0.0083,0.0083
SingleSource/Benchmarks/Stanford/Treesort, 0.0545, 0.0544, 0.0544,0.0544, 0.0545, 0.0546, 0.0544,0.0545
SingleSource/Regression/C/2004-08-12-InlinerAndAllocas, 0.0013, 0.0013, 0.0013,0.0013, 0.0013, 0.0013, 0.0013,0.0013
SingleSource/Regression/C/uint64_to_float, 0.2465, 0.2465, 0.2464,0.2465, 0.2464, 0.2465, 0.2465,0.2465
Total elapsed time,-,-,-,587.6976000000003,-,-,-,587.8308000000002
Total failure,-,-,-,0,-,-,-,0
