Benchmarks,/mnt/freezedisk/llvm-intptr-base-4.0-release/bin/clang,/mnt/freezedisk/llvm-intptr-base-4.0-release/bin/clang,/mnt/freezedisk/llvm-intptr-base-4.0-release/bin/clang,median,/mnt/freezedisk/llvm-intptr-nogvn-release/bin/clang,/mnt/freezedisk/llvm-intptr-nogvn-release/bin/clang,/mnt/freezedisk/llvm-intptr-nogvn-release/bin/clang,median
MultiSource/Applications/ClamAV/clamscan,12.5342,12.5388,12.5416,12.5388,12.5406,12.4940,12.5042,12.5042
MultiSource/Applications/JM/ldecod/ldecod, 6.0265, 6.0254, 6.0325,6.0265, 6.0425, 6.0240, 6.0332,6.0332
MultiSource/Applications/JM/lencod/lencod,13.3753,13.3746,13.3816,13.3753,13.3909,13.3509,13.3711,13.3711
MultiSource/Applications/SIBsim4/SIBsim4, 1.2806, 1.2722, 1.2782,1.2782, 1.2592, 1.2865, 1.2760,1.276
MultiSource/Applications/SPASS/SPASS,11.7565,11.7320,11.7498,11.7498,11.7792,11.7144,11.7273,11.7273
MultiSource/Applications/d/make_dparser, 2.5473, 2.5460, 2.5505,2.5473, 2.5348, 2.5330, 2.5299,2.533
MultiSource/Applications/hbd/hbd, 1.1969, 1.1963, 1.1950,1.1963, 1.2106, 1.1930, 1.1951,1.1951
MultiSource/Applications/hexxagon/hexxagon, 0.7031, 0.7027, 0.7042,0.7031, 0.7053, 0.7044, 0.7070,0.7053
MultiSource/Applications/kimwitu++/kc,10.3207,10.1982,10.2048,10.2048,10.1327,10.0985,10.0969,10.0985
MultiSource/Applications/lambda-0.1.3/lambda, 0.5095, 0.5092, 0.5098,0.5095, 0.5093, 0.5073, 0.5090,0.509
MultiSource/Applications/lua/lua, 3.1091, 3.1108, 3.1123,3.1108, 3.1000, 3.0946, 3.0968,3.0968
MultiSource/Applications/minisat/minisat, 0.6116, 0.6158, 0.6119,0.6119, 0.6134, 0.6223, 0.6050,0.6134
MultiSource/Applications/oggenc/oggenc, 4.7693, 4.7624, 4.7625,4.7625, 4.7634, 4.7423, 4.7633,4.7633
MultiSource/Applications/siod/siod, 1.8100, 1.8265, 1.8260,1.826, 1.8119, 1.7969, 1.8049,1.8049
MultiSource/Applications/spiff/spiff, 0.7566, 0.7558, 0.7427,0.7558, 0.7674, 0.7621, 0.7588,0.7621
MultiSource/Applications/sqlite3/sqlite3,12.6528,12.6683,12.6757,12.6683,12.5906,12.5296,12.5108,12.5296
MultiSource/Benchmarks/7zip/7zip-benchmark,33.2126,33.2076,33.1887,33.2076,33.2292,33.1298,33.1455,33.1455
MultiSource/Benchmarks/ASCI_Purple/SMG2000/smg2000, 6.2180, 6.2253, 6.2310,6.2253, 6.2877, 6.2170, 6.2276,6.2276
MultiSource/Benchmarks/ASC_Sequoia/AMGmk/AMGmk, 0.6155, 0.6048, 0.6110,0.611, 0.6146, 0.6176, 0.6116,0.6146
MultiSource/Benchmarks/Bullet/bullet,22.3030,22.2984,22.3220,22.303,22.3583,22.2716,22.3257,22.3257
MultiSource/Benchmarks/FreeBench/analyzer/analyzer, 0.2427, 0.2423, 0.2425,0.2425, 0.2441, 0.2431, 0.2433,0.2433
MultiSource/Benchmarks/MallocBench/cfrac/cfrac, 0.8671, 0.8713, 0.8710,0.871, 0.8738, 0.8707, 0.8641,0.8707
MultiSource/Benchmarks/MallocBench/espresso/espresso, 4.7740, 4.7691, 4.7666,4.7691, 4.7979, 4.7889, 4.8012,4.7979
MultiSource/Benchmarks/MallocBench/gs/gs, 3.6433, 3.6384, 3.6390,3.639, 3.6435, 3.6369, 3.6454,3.6435
MultiSource/Benchmarks/McCat/08-main/main, 0.2404, 0.2359, 0.2409,0.2404, 0.2395, 0.2496, 0.2433,0.2433
MultiSource/Benchmarks/McCat/09-vor/vor, 0.2697, 0.2692, 0.2689,0.2692, 0.2654, 0.2649, 0.2647,0.2649
MultiSource/Benchmarks/MiBench/automotive-susan/automotive-susan, 0.7818, 0.7725, 0.7785,0.7785, 0.7764, 0.7750, 0.7830,0.7764
MultiSource/Benchmarks/MiBench/consumer-jpeg/consumer-jpeg, 4.1603, 4.1528, 4.1528,4.1528, 4.1602, 4.1495, 4.1598,4.1598
MultiSource/Benchmarks/MiBench/consumer-lame/consumer-lame, 3.8819, 3.8824, 3.8752,3.8819, 3.8912, 3.8771, 3.8838,3.8838
MultiSource/Benchmarks/MiBench/consumer-typeset/consumer-typeset, 9.8371, 9.8252, 9.8362,9.8362, 9.6882, 9.6575, 9.6648,9.6648
MultiSource/Benchmarks/Olden/em3d/em3d, 0.1840, 0.1833, 0.1944,0.184, 0.1979, 0.1863, 0.1853,0.1863
MultiSource/Benchmarks/Olden/mst/mst, 0.1324, 0.1326, 0.1319,0.1324, 0.1421, 0.1311, 0.1316,0.1316
MultiSource/Benchmarks/Olden/tsp/tsp, 0.1225, 0.1219, 0.1223,0.1223, 0.1287, 0.1219, 0.1226,0.1226
MultiSource/Benchmarks/Olden/voronoi/voronoi, 0.2305, 0.2304, 0.2305,0.2305, 0.2312, 0.2307, 0.2311,0.2311
MultiSource/Benchmarks/PAQ8p/paq8p, 2.0636, 2.0603, 2.0668,2.0636, 2.0703, 2.0609, 2.0571,2.0609
MultiSource/Benchmarks/Prolangs-C++/employ/employ, 0.2162, 0.2147, 0.2198,0.2162, 0.2299, 0.2170, 0.2187,0.2187
MultiSource/Benchmarks/Prolangs-C/agrep/agrep, 1.3361, 1.3379, 1.3392,1.3379, 1.3450, 1.3370, 1.3392,1.3392
MultiSource/Benchmarks/Prolangs-C/bison/mybison, 1.6180, 1.6157, 1.6165,1.6165, 1.6185, 1.6160, 1.6190,1.6185
MultiSource/Benchmarks/Ptrdist/anagram/anagram, 0.0860, 0.0861, 0.0859,0.086, 0.0855, 0.0855, 0.0857,0.0855
MultiSource/Benchmarks/Ptrdist/bc/bc, 1.0217, 1.0225, 1.0228,1.0225, 1.0196, 1.0183, 1.0192,1.0192
MultiSource/Benchmarks/Ptrdist/ks/ks, 0.1396, 0.1393, 0.1439,0.1396, 0.1398, 0.1502, 0.1395,0.1398
MultiSource/Benchmarks/Ptrdist/yacr2/yacr2, 0.6227, 0.6232, 0.6230,0.623, 0.6227, 0.6208, 0.6219,0.6219
MultiSource/Benchmarks/VersaBench/dbms/dbms, 1.0318, 1.0335, 1.0140,1.0318, 1.0521, 1.0382, 1.0285,1.0382
MultiSource/Benchmarks/mafft/pairlocalalign, 9.4353, 9.4415, 9.4573,9.4415, 9.4446, 9.4127, 9.4325,9.4325
MultiSource/Benchmarks/mediabench/jpeg/jpeg-6a/cjpeg, 4.2027, 4.1916, 4.2027,4.2027, 4.2410, 4.1878, 4.2055,4.2055
MultiSource/Benchmarks/sim/sim, 0.2934, 0.2929, 0.2941,0.2934, 0.2925, 0.2928, 0.2927,0.2927
MultiSource/Benchmarks/tramp3d-v4/tramp3d-v4,18.0976,18.0864,18.1470,18.0976,17.9555,18.0111,18.0092,18.0092
SingleSource/Benchmarks/Adobe-C++/functionobjects, 0.4378, 0.4385, 0.4391,0.4385, 0.4242, 0.4248, 0.4255,0.4248
SingleSource/Benchmarks/Adobe-C++/stepanov_abstraction, 0.6018, 0.6010, 0.6013,0.6013, 0.5975, 0.5984, 0.5993,0.5984
SingleSource/Benchmarks/Adobe-C++/stepanov_vector, 0.7848, 0.7926, 0.7883,0.7883, 0.8670, 0.8760, 0.8829,0.876
SingleSource/Benchmarks/CoyoteBench/fftbench, 0.5809, 0.5798, 0.5792,0.5798, 0.6399, 0.5835, 0.5804,0.5835
SingleSource/Benchmarks/Misc-C++-EH/spirit, 3.1164, 3.1204, 3.1197,3.1197, 3.1106, 3.1110, 3.1178,3.111
SingleSource/Benchmarks/Misc-C++/Large/ray, 0.2162, 0.2036, 0.2174,0.2162, 0.2168, 0.2238, 0.2235,0.2235
SingleSource/Benchmarks/Misc-C++/bigfib, 0.4224, 0.4220, 0.4213,0.422, 0.4154, 0.4162, 0.4169,0.4162
SingleSource/Benchmarks/Misc-C++/stepanov_container, 0.6707, 0.6503, 0.6530,0.653, 0.6358, 0.6315, 0.6325,0.6325
SingleSource/Benchmarks/Misc/himenobmtxpa, 0.2358, 0.2368, 0.2362,0.2362, 0.2387, 0.2383, 0.2388,0.2387
SingleSource/Benchmarks/Shootout-C++/hash, 0.2585, 0.2576, 0.2578,0.2578, 0.2553, 0.2563, 0.2564,0.2563
SingleSource/Benchmarks/Shootout-C++/hash2, 0.3088, 0.3030, 0.4144,0.3088, 0.2954, 0.3085, 0.3022,0.3022
SingleSource/Benchmarks/Shootout-C++/lists, 0.1580, 0.1580, 0.1579,0.158, 0.1578, 0.1580, 0.1588,0.158
SingleSource/Benchmarks/Shootout-C++/lists1, 0.1896, 0.1904, 0.1903,0.1903, 0.1899, 0.1900, 0.1903,0.19
SingleSource/Benchmarks/Shootout-C++/moments, 0.2396, 0.2395, 0.2395,0.2395, 0.2323, 0.2316, 0.2326,0.2323
SingleSource/Benchmarks/Shootout/lists, 0.0733, 0.0733, 0.0736,0.0733, 0.0732, 0.0732, 0.0733,0.0732
SingleSource/Benchmarks/Stanford/Quicksort, 0.0375, 0.0375, 0.0375,0.0375, 0.0378, 0.0377, 0.0379,0.0378
Total elapsed time,-,-,-,341.21149999999983,-,-,-,340.75420000000025
Total failure,-,-,-,0,-,-,-,0
