Benchmarks,/mnt/freezedisk/llvm-intptr-base-4.0-release/bin/clang,/mnt/freezedisk/llvm-intptr-base-4.0-release/bin/clang,/mnt/freezedisk/llvm-intptr-base-4.0-release/bin/clang,median,/mnt/freezedisk/llvm-intptr-nogvn-release/bin/clang,/mnt/freezedisk/llvm-intptr-nogvn-release/bin/clang,/mnt/freezedisk/llvm-intptr-nogvn-release/bin/clang,median
MultiSource/Applications/ClamAV/clamscan, 0.2422, 0.2207, 0.2264,0.2264, 0.2033, 0.2330, 0.2310,0.231
MultiSource/Applications/JM/ldecod/ldecod, 0.0636, 0.0639, 0.0635,0.0636, 0.0628, 0.0634, 0.0636,0.0634
MultiSource/Applications/JM/lencod/lencod, 5.3156, 5.3134, 5.3164,5.3156, 5.3116, 5.3117, 5.3136,5.3117
MultiSource/Applications/SIBsim4/SIBsim4, 3.5828, 3.5643, 3.5598,3.5643, 3.6521, 3.6612, 3.6648,3.6612
MultiSource/Applications/SPASS/SPASS, 9.7772, 9.7809, 8.3677,9.7772, 9.7455, 9.7612, 8.2721,9.7455
MultiSource/Applications/d/make_dparser, 0.0268, 0.0268, 0.0268,0.0268, 0.0268, 0.0268, 0.0264,0.0268
MultiSource/Applications/hbd/hbd, 0.0047, 0.0049, 0.0047,0.0047, 0.0046, 0.0047, 0.0048,0.0047
MultiSource/Applications/hexxagon/hexxagon,10.9189,10.9139,10.9191,10.9189,10.9195,10.9192,10.9253,10.9195
MultiSource/Applications/kimwitu++/kc, 0.0446, 0.0446, 0.0446,0.0446, 0.0453, 0.0450, 0.0452,0.0452
MultiSource/Applications/lambda-0.1.3/lambda, 4.3047, 4.3004, 4.3010,4.301, 4.2480, 4.2471, 4.2490,4.248
MultiSource/Applications/lua/lua,22.1249,22.1665,22.1343,22.1343,22.2868,22.2672,22.2802,22.2802
MultiSource/Applications/minisat/minisat, 7.2116, 7.2256, 7.2293,7.2256, 7.2207, 7.2326, 7.2463,7.2326
MultiSource/Applications/oggenc/oggenc, 0.1251, 0.1249, 0.1251,0.1251, 0.1251, 0.1253, 0.1251,0.1251
MultiSource/Applications/siod/siod, 2.8149, 2.8149, 2.8151,2.8149, 2.7676, 2.7668, 2.7684,2.7676
MultiSource/Applications/spiff/spiff, 2.1285, 2.1276, 2.1292,2.1285, 2.1243, 2.1208, 2.1212,2.1212
MultiSource/Applications/sqlite3/sqlite3, 3.3476, 3.3426, 3.3381,3.3426, 3.4293, 3.4333, 3.4401,3.4333
MultiSource/Benchmarks/7zip/7zip-benchmark, 8.0969, 8.0958, 8.0957,8.0958, 8.0810, 8.0809, 8.0804,8.0809
MultiSource/Benchmarks/ASCI_Purple/SMG2000/smg2000, 2.3967, 2.3977, 2.3967,2.3967, 2.3970, 2.3997, 2.3961,2.397
MultiSource/Benchmarks/ASC_Sequoia/AMGmk/AMGmk, 7.8552, 7.8459, 7.8597,7.8552, 7.8698, 7.8505, 7.8463,7.8505
MultiSource/Benchmarks/Bullet/bullet, 4.9038, 4.9043, 4.9059,4.9043, 4.9019, 4.8968, 4.8992,4.8992
MultiSource/Benchmarks/FreeBench/analyzer/analyzer, 0.0691, 0.0699, 0.0699,0.0699, 0.0710, 0.0703, 0.0697,0.0703
MultiSource/Benchmarks/MallocBench/cfrac/cfrac, 1.1441, 1.1438, 1.1445,1.1441, 1.1470, 1.1464, 1.1477,1.147
MultiSource/Benchmarks/MallocBench/espresso/espresso, 0.4551, 0.4559, 0.4564,0.4559, 0.4569, 0.4566, 0.4571,0.4569
MultiSource/Benchmarks/MallocBench/gs/gs, 0.0404, 0.0402, 0.0401,0.0402, 0.0409, 0.0410, 0.0408,0.0409
MultiSource/Benchmarks/McCat/08-main/main, 0.0403, 0.0401, 0.0405,0.0403, 0.0406, 0.0409, 0.0409,0.0409
MultiSource/Benchmarks/McCat/09-vor/vor, 0.1173, 0.1178, 0.1173,0.1173, 0.1167, 0.1169, 0.1168,0.1168
MultiSource/Benchmarks/MiBench/automotive-susan/automotive-susan, 0.0428, 0.0431, 0.0432,0.0431, 0.0430, 0.0427, 0.0428,0.0428
MultiSource/Benchmarks/MiBench/consumer-jpeg/consumer-jpeg, 0.0070, 0.0070, 0.0070,0.007, 0.0069, 0.0069, 0.0070,0.0069
MultiSource/Benchmarks/MiBench/consumer-lame/consumer-lame, 0.2138, 0.2137, 0.2141,0.2138, 0.2145, 0.2147, 0.2144,0.2145
MultiSource/Benchmarks/MiBench/consumer-typeset/consumer-typeset, 0.1524, 0.1526, 0.1498,0.1524, 0.1540, 0.1520, 0.1511,0.152
MultiSource/Benchmarks/Olden/em3d/em3d, 2.7283, 2.7284, 2.7295,2.7284, 2.7286, 2.7292, 2.7295,2.7292
MultiSource/Benchmarks/Olden/mst/mst, 0.0805, 0.0808, 0.0807,0.0807, 0.0804, 0.0803, 0.0802,0.0803
MultiSource/Benchmarks/Olden/tsp/tsp, 1.1644, 1.1647, 1.1640,1.1644, 1.1650, 1.1645, 1.1654,1.165
MultiSource/Benchmarks/Olden/voronoi/voronoi, 0.2940, 0.2945, 0.2938,0.294, 0.2948, 0.2940, 0.2948,0.2948
MultiSource/Benchmarks/PAQ8p/paq8p,49.5640,49.5450,49.5704,49.564,49.6066,49.6052,49.6612,49.6066
MultiSource/Benchmarks/Prolangs-C++/employ/employ, 0.0095, 0.0094, 0.0094,0.0094, 0.0096, 0.0095, 0.0096,0.0096
MultiSource/Benchmarks/Prolangs-C/agrep/agrep, 0.0068, 0.0067, 0.0068,0.0068, 0.0050, 0.0068, 0.0067,0.0067
MultiSource/Benchmarks/Prolangs-C/bison/mybison, 0.0053, 0.0052, 0.0053,0.0053, 0.0052, 0.0051, 0.0053,0.0052
MultiSource/Benchmarks/Ptrdist/anagram/anagram, 0.9983, 0.9974, 0.9958,0.9974, 0.9957, 0.9964, 1.0381,0.9964
MultiSource/Benchmarks/Ptrdist/bc/bc, 0.5797, 0.5801, 0.5793,0.5797, 0.5799, 0.5799, 0.5802,0.5799
MultiSource/Benchmarks/Ptrdist/ks/ks, 1.9830, 1.9832, 1.9760,1.983, 1.9772, 1.9830, 1.9767,1.9772
MultiSource/Benchmarks/Ptrdist/yacr2/yacr2, 0.7066, 0.7063, 0.7064,0.7064, 0.7068, 0.7066, 0.7067,0.7067
MultiSource/Benchmarks/VersaBench/dbms/dbms, 1.2348, 1.2353, 1.2350,1.235, 1.2376, 1.2386, 1.2356,1.2376
MultiSource/Benchmarks/mafft/pairlocalalign,24.2140,24.2145,24.2134,24.214,24.2565,24.2503,24.2538,24.2538
MultiSource/Benchmarks/mediabench/jpeg/jpeg-6a/cjpeg, 0.0065, 0.0068, 0.0068,0.0068, 0.0051, 0.0068, 0.0066,0.0066
MultiSource/Benchmarks/sim/sim, 5.0068, 5.0041, 5.0050,5.005, 5.0058, 5.0066, 5.0084,5.0066
MultiSource/Benchmarks/tramp3d-v4/tramp3d-v4, 0.4041, 0.4044, 0.4043,0.4043, 0.4039, 0.4042, 0.4040,0.404
SingleSource/Benchmarks/Adobe-C++/functionobjects, 3.5358, 3.5383, 3.5310,3.5358, 3.5356, 3.5384, 3.5415,3.5384
SingleSource/Benchmarks/Adobe-C++/stepanov_abstraction, 4.3910, 4.3909, 4.3906,4.3909, 4.3744, 4.3746, 4.3767,4.3746
SingleSource/Benchmarks/Adobe-C++/stepanov_vector, 2.5980, 2.5972, 2.5956,2.5972, 2.5680, 2.5685, 2.5687,2.5685
SingleSource/Benchmarks/CoyoteBench/fftbench, 1.4257, 1.4582, 1.4273,1.4273, 1.4574, 1.4079, 1.4202,1.4202
SingleSource/Benchmarks/Misc-C++-EH/spirit, 4.3291, 4.3206, 4.3210,4.321, 4.3379, 4.3391, 4.3402,4.3391
SingleSource/Benchmarks/Misc-C++/Large/ray, 2.7243, 2.7227, 2.7236,2.7236, 2.7233, 2.7251, 2.7266,2.7251
SingleSource/Benchmarks/Misc-C++/bigfib, 0.3378, 0.3376, 0.3372,0.3376, 0.3375, 0.3376, 0.3368,0.3375
SingleSource/Benchmarks/Misc-C++/stepanov_container, 3.6581, 3.5754, 3.3541,3.5754, 3.6745, 3.4928, 3.6745,3.6745
SingleSource/Benchmarks/Misc/himenobmtxpa, 0.8854, 0.8850, 0.8858,0.8854, 0.8861, 0.8863, 0.8866,0.8863
SingleSource/Benchmarks/Shootout-C++/hash, 0.5396, 0.5408, 0.5402,0.5402, 0.5387, 0.5390, 0.5411,0.539
SingleSource/Benchmarks/Shootout-C++/hash2, 2.7707, 2.7706, 2.7703,2.7706, 2.7578, 2.7575, 2.7580,2.7578
SingleSource/Benchmarks/Shootout-C++/lists, 4.9664, 4.9614, 4.9686,4.9664, 4.9660, 4.9639, 4.9689,4.966
SingleSource/Benchmarks/Shootout-C++/lists1, 0.2196, 0.2195, 0.2195,0.2195, 0.2193, 0.2196, 0.2195,0.2195
SingleSource/Benchmarks/Shootout-C++/moments, 0.0749, 0.0752, 0.0751,0.0751, 0.0743, 0.0745, 0.0747,0.0745
SingleSource/Benchmarks/Shootout/lists, 6.1976, 6.1973, 6.1973,6.1973, 6.1971, 6.1977, 6.1976,6.1976
SingleSource/Benchmarks/Stanford/Quicksort, 0.0381, 0.0382, 0.0382,0.0382, 0.0369, 0.0369, 0.0371,0.0369
Total elapsed time,-,-,-,686.8651999999997,-,-,-,687.5184999999998
Total failure,-,-,-,0,-,-,-,0
