# 1 "/opt/devel/juneyoung.lee/inttoptr/llvm-test-suite-4.0/MultiSource/Benchmarks/Ptrdist/yacr2/vcg.c"
# 1 "<built-in>" 1
# 1 "<built-in>" 3
# 317 "<built-in>" 3
# 1 "<command line>" 1
# 1 "<built-in>" 2
# 1 "/opt/devel/juneyoung.lee/inttoptr/llvm-test-suite-4.0/MultiSource/Benchmarks/Ptrdist/yacr2/vcg.c" 2
# 18 "/opt/devel/juneyoung.lee/inttoptr/llvm-test-suite-4.0/MultiSource/Benchmarks/Ptrdist/yacr2/vcg.c"
# 1 "/usr/include/stdio.h" 1 3 4
# 28 "/usr/include/stdio.h" 3 4
# 1 "/usr/include/bits/libc-header-start.h" 1 3 4
# 33 "/usr/include/bits/libc-header-start.h" 3 4
# 1 "/usr/include/features.h" 1 3 4
# 388 "/usr/include/features.h" 3 4
# 1 "/usr/include/stdc-predef.h" 1 3 4
# 389 "/usr/include/features.h" 2 3 4
# 410 "/usr/include/features.h" 3 4
# 1 "/usr/include/sys/cdefs.h" 1 3 4
# 441 "/usr/include/sys/cdefs.h" 3 4
# 1 "/usr/include/bits/wordsize.h" 1 3 4
# 442 "/usr/include/sys/cdefs.h" 2 3 4
# 1 "/usr/include/bits/long-double.h" 1 3 4
# 443 "/usr/include/sys/cdefs.h" 2 3 4
# 411 "/usr/include/features.h" 2 3 4
# 434 "/usr/include/features.h" 3 4
# 1 "/usr/include/gnu/stubs.h" 1 3 4
# 10 "/usr/include/gnu/stubs.h" 3 4
# 1 "/usr/include/gnu/stubs-64.h" 1 3 4
# 11 "/usr/include/gnu/stubs.h" 2 3 4
# 435 "/usr/include/features.h" 2 3 4
# 34 "/usr/include/bits/libc-header-start.h" 2 3 4
# 29 "/usr/include/stdio.h" 2 3 4





# 1 "/home/juneyoung.lee/inttoptr/manjaro/llvm-intptr-base-4.0-debug/bin/../lib/clang/4.0.0/include/stddef.h" 1 3 4
# 62 "/home/juneyoung.lee/inttoptr/manjaro/llvm-intptr-base-4.0-debug/bin/../lib/clang/4.0.0/include/stddef.h" 3 4
typedef long unsigned int size_t;
# 35 "/usr/include/stdio.h" 2 3 4

# 1 "/usr/include/bits/types.h" 1 3 4
# 27 "/usr/include/bits/types.h" 3 4
# 1 "/usr/include/bits/wordsize.h" 1 3 4
# 28 "/usr/include/bits/types.h" 2 3 4


typedef unsigned char __u_char;
typedef unsigned short int __u_short;
typedef unsigned int __u_int;
typedef unsigned long int __u_long;


typedef signed char __int8_t;
typedef unsigned char __uint8_t;
typedef signed short int __int16_t;
typedef unsigned short int __uint16_t;
typedef signed int __int32_t;
typedef unsigned int __uint32_t;

typedef signed long int __int64_t;
typedef unsigned long int __uint64_t;







typedef long int __quad_t;
typedef unsigned long int __u_quad_t;







typedef long int __intmax_t;
typedef unsigned long int __uintmax_t;
# 130 "/usr/include/bits/types.h" 3 4
# 1 "/usr/include/bits/typesizes.h" 1 3 4
# 131 "/usr/include/bits/types.h" 2 3 4


typedef unsigned long int __dev_t;
typedef unsigned int __uid_t;
typedef unsigned int __gid_t;
typedef unsigned long int __ino_t;
typedef unsigned long int __ino64_t;
typedef unsigned int __mode_t;
typedef unsigned long int __nlink_t;
typedef long int __off_t;
typedef long int __off64_t;
typedef int __pid_t;
typedef struct { int __val[2]; } __fsid_t;
typedef long int __clock_t;
typedef unsigned long int __rlim_t;
typedef unsigned long int __rlim64_t;
typedef unsigned int __id_t;
typedef long int __time_t;
typedef unsigned int __useconds_t;
typedef long int __suseconds_t;

typedef int __daddr_t;
typedef int __key_t;


typedef int __clockid_t;


typedef void * __timer_t;


typedef long int __blksize_t;




typedef long int __blkcnt_t;
typedef long int __blkcnt64_t;


typedef unsigned long int __fsblkcnt_t;
typedef unsigned long int __fsblkcnt64_t;


typedef unsigned long int __fsfilcnt_t;
typedef unsigned long int __fsfilcnt64_t;


typedef long int __fsword_t;

typedef long int __ssize_t;


typedef long int __syscall_slong_t;

typedef unsigned long int __syscall_ulong_t;



typedef __off64_t __loff_t;
typedef __quad_t *__qaddr_t;
typedef char *__caddr_t;


typedef long int __intptr_t;


typedef unsigned int __socklen_t;
# 37 "/usr/include/stdio.h" 2 3 4








struct _IO_FILE;



typedef struct _IO_FILE FILE;
# 65 "/usr/include/stdio.h" 3 4
typedef struct _IO_FILE __FILE;
# 75 "/usr/include/stdio.h" 3 4
# 1 "/usr/include/libio.h" 1 3 4
# 31 "/usr/include/libio.h" 3 4
# 1 "/usr/include/_G_config.h" 1 3 4
# 15 "/usr/include/_G_config.h" 3 4
# 1 "/home/juneyoung.lee/inttoptr/manjaro/llvm-intptr-base-4.0-debug/bin/../lib/clang/4.0.0/include/stddef.h" 1 3 4
# 16 "/usr/include/_G_config.h" 2 3 4




# 1 "/usr/include/wchar.h" 1 3 4
# 83 "/usr/include/wchar.h" 3 4
typedef struct
{
  int __count;
  union
  {

    unsigned int __wch;



    char __wchb[4];
  } __value;
} __mbstate_t;
# 21 "/usr/include/_G_config.h" 2 3 4
typedef struct
{
  __off_t __pos;
  __mbstate_t __state;
} _G_fpos_t;
typedef struct
{
  __off64_t __pos;
  __mbstate_t __state;
} _G_fpos64_t;
# 32 "/usr/include/libio.h" 2 3 4
# 49 "/usr/include/libio.h" 3 4
# 1 "/home/juneyoung.lee/inttoptr/manjaro/llvm-intptr-base-4.0-debug/bin/../lib/clang/4.0.0/include/stdarg.h" 1 3 4
# 30 "/home/juneyoung.lee/inttoptr/manjaro/llvm-intptr-base-4.0-debug/bin/../lib/clang/4.0.0/include/stdarg.h" 3 4
typedef __builtin_va_list va_list;
# 50 "/home/juneyoung.lee/inttoptr/manjaro/llvm-intptr-base-4.0-debug/bin/../lib/clang/4.0.0/include/stdarg.h" 3 4
typedef __builtin_va_list __gnuc_va_list;
# 50 "/usr/include/libio.h" 2 3 4
# 144 "/usr/include/libio.h" 3 4
struct _IO_jump_t; struct _IO_FILE;





typedef void _IO_lock_t;





struct _IO_marker {
  struct _IO_marker *_next;
  struct _IO_FILE *_sbuf;



  int _pos;
# 173 "/usr/include/libio.h" 3 4
};


enum __codecvt_result
{
  __codecvt_ok,
  __codecvt_partial,
  __codecvt_error,
  __codecvt_noconv
};
# 241 "/usr/include/libio.h" 3 4
struct _IO_FILE {
  int _flags;




  char* _IO_read_ptr;
  char* _IO_read_end;
  char* _IO_read_base;
  char* _IO_write_base;
  char* _IO_write_ptr;
  char* _IO_write_end;
  char* _IO_buf_base;
  char* _IO_buf_end;

  char *_IO_save_base;
  char *_IO_backup_base;
  char *_IO_save_end;

  struct _IO_marker *_markers;

  struct _IO_FILE *_chain;

  int _fileno;



  int _flags2;

  __off_t _old_offset;



  unsigned short _cur_column;
  signed char _vtable_offset;
  char _shortbuf[1];



  _IO_lock_t *_lock;
# 289 "/usr/include/libio.h" 3 4
  __off64_t _offset;







  void *__pad1;
  void *__pad2;
  void *__pad3;
  void *__pad4;

  size_t __pad5;
  int _mode;

  char _unused2[15 * sizeof (int) - 4 * sizeof (void *) - sizeof (size_t)];

};


typedef struct _IO_FILE _IO_FILE;


struct _IO_FILE_plus;

extern struct _IO_FILE_plus _IO_2_1_stdin_;
extern struct _IO_FILE_plus _IO_2_1_stdout_;
extern struct _IO_FILE_plus _IO_2_1_stderr_;
# 333 "/usr/include/libio.h" 3 4
typedef __ssize_t __io_read_fn (void *__cookie, char *__buf, size_t __nbytes);







typedef __ssize_t __io_write_fn (void *__cookie, const char *__buf,
     size_t __n);







typedef int __io_seek_fn (void *__cookie, __off64_t *__pos, int __w);


typedef int __io_close_fn (void *__cookie);




typedef __io_read_fn cookie_read_function_t;
typedef __io_write_fn cookie_write_function_t;
typedef __io_seek_fn cookie_seek_function_t;
typedef __io_close_fn cookie_close_function_t;


typedef struct
{
  __io_read_fn *read;
  __io_write_fn *write;
  __io_seek_fn *seek;
  __io_close_fn *close;
} _IO_cookie_io_functions_t;
typedef _IO_cookie_io_functions_t cookie_io_functions_t;

struct _IO_cookie_file;


extern void _IO_cookie_init (struct _IO_cookie_file *__cfile, int __read_write,
        void *__cookie, _IO_cookie_io_functions_t __fns);







extern int __underflow (_IO_FILE *);
extern int __uflow (_IO_FILE *);
extern int __overflow (_IO_FILE *, int);
# 429 "/usr/include/libio.h" 3 4
extern int _IO_getc (_IO_FILE *__fp);
extern int _IO_putc (int __c, _IO_FILE *__fp);
extern int _IO_feof (_IO_FILE *__fp) __attribute__ ((__nothrow__ ));
extern int _IO_ferror (_IO_FILE *__fp) __attribute__ ((__nothrow__ ));

extern int _IO_peekc_locked (_IO_FILE *__fp);





extern void _IO_flockfile (_IO_FILE *) __attribute__ ((__nothrow__ ));
extern void _IO_funlockfile (_IO_FILE *) __attribute__ ((__nothrow__ ));
extern int _IO_ftrylockfile (_IO_FILE *) __attribute__ ((__nothrow__ ));
# 459 "/usr/include/libio.h" 3 4
extern int _IO_vfscanf (_IO_FILE * __restrict, const char * __restrict,
   __gnuc_va_list, int *__restrict);
extern int _IO_vfprintf (_IO_FILE *__restrict, const char *__restrict,
    __gnuc_va_list);
extern __ssize_t _IO_padn (_IO_FILE *, int, __ssize_t);
extern size_t _IO_sgetn (_IO_FILE *, void *, size_t);

extern __off64_t _IO_seekoff (_IO_FILE *, __off64_t, int, int);
extern __off64_t _IO_seekpos (_IO_FILE *, __off64_t, int);

extern void _IO_free_backup_area (_IO_FILE *) __attribute__ ((__nothrow__ ));
# 76 "/usr/include/stdio.h" 2 3 4




typedef __gnuc_va_list va_list;
# 91 "/usr/include/stdio.h" 3 4
typedef __off_t off_t;






typedef __off64_t off64_t;






typedef __ssize_t ssize_t;







typedef _G_fpos_t fpos_t;





typedef _G_fpos64_t fpos64_t;
# 167 "/usr/include/stdio.h" 3 4
# 1 "/usr/include/bits/stdio_lim.h" 1 3 4
# 168 "/usr/include/stdio.h" 2 3 4



extern struct _IO_FILE *stdin;
extern struct _IO_FILE *stdout;
extern struct _IO_FILE *stderr;







extern int remove (const char *__filename) __attribute__ ((__nothrow__ ));

extern int rename (const char *__old, const char *__new) __attribute__ ((__nothrow__ ));




extern int renameat (int __oldfd, const char *__old, int __newfd,
       const char *__new) __attribute__ ((__nothrow__ ));
# 198 "/usr/include/stdio.h" 3 4
extern FILE *tmpfile (void) ;
# 208 "/usr/include/stdio.h" 3 4
extern FILE *tmpfile64 (void) ;



extern char *tmpnam (char *__s) __attribute__ ((__nothrow__ )) ;





extern char *tmpnam_r (char *__s) __attribute__ ((__nothrow__ )) ;
# 230 "/usr/include/stdio.h" 3 4
extern char *tempnam (const char *__dir, const char *__pfx)
     __attribute__ ((__nothrow__ )) __attribute__ ((__malloc__)) ;
# 240 "/usr/include/stdio.h" 3 4
extern int fclose (FILE *__stream);




extern int fflush (FILE *__stream);
# 255 "/usr/include/stdio.h" 3 4
extern int fflush_unlocked (FILE *__stream);
# 265 "/usr/include/stdio.h" 3 4
extern int fcloseall (void);
# 275 "/usr/include/stdio.h" 3 4
extern FILE *fopen (const char *__restrict __filename,
      const char *__restrict __modes) ;




extern FILE *freopen (const char *__restrict __filename,
        const char *__restrict __modes,
        FILE *__restrict __stream) ;
# 300 "/usr/include/stdio.h" 3 4
extern FILE *fopen64 (const char *__restrict __filename,
        const char *__restrict __modes) ;
extern FILE *freopen64 (const char *__restrict __filename,
   const char *__restrict __modes,
   FILE *__restrict __stream) ;




extern FILE *fdopen (int __fd, const char *__modes) __attribute__ ((__nothrow__ )) ;





extern FILE *fopencookie (void *__restrict __magic_cookie,
     const char *__restrict __modes,
     _IO_cookie_io_functions_t __io_funcs) __attribute__ ((__nothrow__ )) ;




extern FILE *fmemopen (void *__s, size_t __len, const char *__modes)
  __attribute__ ((__nothrow__ )) ;




extern FILE *open_memstream (char **__bufloc, size_t *__sizeloc) __attribute__ ((__nothrow__ )) ;






extern void setbuf (FILE *__restrict __stream, char *__restrict __buf) __attribute__ ((__nothrow__ ));



extern int setvbuf (FILE *__restrict __stream, char *__restrict __buf,
      int __modes, size_t __n) __attribute__ ((__nothrow__ ));





extern void setbuffer (FILE *__restrict __stream, char *__restrict __buf,
         size_t __size) __attribute__ ((__nothrow__ ));


extern void setlinebuf (FILE *__stream) __attribute__ ((__nothrow__ ));
# 359 "/usr/include/stdio.h" 3 4
extern int fprintf (FILE *__restrict __stream,
      const char *__restrict __format, ...);




extern int printf (const char *__restrict __format, ...);

extern int sprintf (char *__restrict __s,
      const char *__restrict __format, ...) __attribute__ ((__nothrow__));





extern int vfprintf (FILE *__restrict __s, const char *__restrict __format,
       __gnuc_va_list __arg);




extern int vprintf (const char *__restrict __format, __gnuc_va_list __arg);

extern int vsprintf (char *__restrict __s, const char *__restrict __format,
       __gnuc_va_list __arg) __attribute__ ((__nothrow__));





extern int snprintf (char *__restrict __s, size_t __maxlen,
       const char *__restrict __format, ...)
     __attribute__ ((__nothrow__)) __attribute__ ((__format__ (__printf__, 3, 4)));

extern int vsnprintf (char *__restrict __s, size_t __maxlen,
        const char *__restrict __format, __gnuc_va_list __arg)
     __attribute__ ((__nothrow__)) __attribute__ ((__format__ (__printf__, 3, 0)));






extern int vasprintf (char **__restrict __ptr, const char *__restrict __f,
        __gnuc_va_list __arg)
     __attribute__ ((__nothrow__)) __attribute__ ((__format__ (__printf__, 2, 0))) ;
extern int __asprintf (char **__restrict __ptr,
         const char *__restrict __fmt, ...)
     __attribute__ ((__nothrow__)) __attribute__ ((__format__ (__printf__, 2, 3))) ;
extern int asprintf (char **__restrict __ptr,
       const char *__restrict __fmt, ...)
     __attribute__ ((__nothrow__)) __attribute__ ((__format__ (__printf__, 2, 3))) ;




extern int vdprintf (int __fd, const char *__restrict __fmt,
       __gnuc_va_list __arg)
     __attribute__ ((__format__ (__printf__, 2, 0)));
extern int dprintf (int __fd, const char *__restrict __fmt, ...)
     __attribute__ ((__format__ (__printf__, 2, 3)));
# 428 "/usr/include/stdio.h" 3 4
extern int fscanf (FILE *__restrict __stream,
     const char *__restrict __format, ...) ;




extern int scanf (const char *__restrict __format, ...) ;

extern int sscanf (const char *__restrict __s,
     const char *__restrict __format, ...) __attribute__ ((__nothrow__ ));
# 474 "/usr/include/stdio.h" 3 4
extern int vfscanf (FILE *__restrict __s, const char *__restrict __format,
      __gnuc_va_list __arg)
     __attribute__ ((__format__ (__scanf__, 2, 0))) ;





extern int vscanf (const char *__restrict __format, __gnuc_va_list __arg)
     __attribute__ ((__format__ (__scanf__, 1, 0))) ;


extern int vsscanf (const char *__restrict __s,
      const char *__restrict __format, __gnuc_va_list __arg)
     __attribute__ ((__nothrow__ )) __attribute__ ((__format__ (__scanf__, 2, 0)));
# 534 "/usr/include/stdio.h" 3 4
extern int fgetc (FILE *__stream);
extern int getc (FILE *__stream);





extern int getchar (void);
# 553 "/usr/include/stdio.h" 3 4
extern int getc_unlocked (FILE *__stream);
extern int getchar_unlocked (void);
# 564 "/usr/include/stdio.h" 3 4
extern int fgetc_unlocked (FILE *__stream);
# 576 "/usr/include/stdio.h" 3 4
extern int fputc (int __c, FILE *__stream);
extern int putc (int __c, FILE *__stream);





extern int putchar (int __c);
# 597 "/usr/include/stdio.h" 3 4
extern int fputc_unlocked (int __c, FILE *__stream);







extern int putc_unlocked (int __c, FILE *__stream);
extern int putchar_unlocked (int __c);






extern int getw (FILE *__stream);


extern int putw (int __w, FILE *__stream);
# 625 "/usr/include/stdio.h" 3 4
extern char *fgets (char *__restrict __s, int __n, FILE *__restrict __stream)
          ;
# 652 "/usr/include/stdio.h" 3 4
extern char *fgets_unlocked (char *__restrict __s, int __n,
        FILE *__restrict __stream) ;
# 668 "/usr/include/stdio.h" 3 4
extern __ssize_t __getdelim (char **__restrict __lineptr,
          size_t *__restrict __n, int __delimiter,
          FILE *__restrict __stream) ;
extern __ssize_t getdelim (char **__restrict __lineptr,
        size_t *__restrict __n, int __delimiter,
        FILE *__restrict __stream) ;







extern __ssize_t getline (char **__restrict __lineptr,
       size_t *__restrict __n,
       FILE *__restrict __stream) ;
# 692 "/usr/include/stdio.h" 3 4
extern int fputs (const char *__restrict __s, FILE *__restrict __stream);





extern int puts (const char *__s);






extern int ungetc (int __c, FILE *__stream);






extern size_t fread (void *__restrict __ptr, size_t __size,
       size_t __n, FILE *__restrict __stream) ;




extern size_t fwrite (const void *__restrict __ptr, size_t __size,
        size_t __n, FILE *__restrict __s);
# 729 "/usr/include/stdio.h" 3 4
extern int fputs_unlocked (const char *__restrict __s,
      FILE *__restrict __stream);
# 740 "/usr/include/stdio.h" 3 4
extern size_t fread_unlocked (void *__restrict __ptr, size_t __size,
         size_t __n, FILE *__restrict __stream) ;
extern size_t fwrite_unlocked (const void *__restrict __ptr, size_t __size,
          size_t __n, FILE *__restrict __stream);
# 752 "/usr/include/stdio.h" 3 4
extern int fseek (FILE *__stream, long int __off, int __whence);




extern long int ftell (FILE *__stream) ;




extern void rewind (FILE *__stream);
# 776 "/usr/include/stdio.h" 3 4
extern int fseeko (FILE *__stream, __off_t __off, int __whence);




extern __off_t ftello (FILE *__stream) ;
# 801 "/usr/include/stdio.h" 3 4
extern int fgetpos (FILE *__restrict __stream, fpos_t *__restrict __pos);




extern int fsetpos (FILE *__stream, const fpos_t *__pos);
# 821 "/usr/include/stdio.h" 3 4
extern int fseeko64 (FILE *__stream, __off64_t __off, int __whence);
extern __off64_t ftello64 (FILE *__stream) ;
extern int fgetpos64 (FILE *__restrict __stream, fpos64_t *__restrict __pos);
extern int fsetpos64 (FILE *__stream, const fpos64_t *__pos);




extern void clearerr (FILE *__stream) __attribute__ ((__nothrow__ ));

extern int feof (FILE *__stream) __attribute__ ((__nothrow__ )) ;

extern int ferror (FILE *__stream) __attribute__ ((__nothrow__ )) ;




extern void clearerr_unlocked (FILE *__stream) __attribute__ ((__nothrow__ ));
extern int feof_unlocked (FILE *__stream) __attribute__ ((__nothrow__ )) ;
extern int ferror_unlocked (FILE *__stream) __attribute__ ((__nothrow__ )) ;
# 849 "/usr/include/stdio.h" 3 4
extern void perror (const char *__s);







# 1 "/usr/include/bits/sys_errlist.h" 1 3 4
# 26 "/usr/include/bits/sys_errlist.h" 3 4
extern int sys_nerr;
extern const char *const sys_errlist[];


extern int _sys_nerr;
extern const char *const _sys_errlist[];
# 857 "/usr/include/stdio.h" 2 3 4




extern int fileno (FILE *__stream) __attribute__ ((__nothrow__ )) ;




extern int fileno_unlocked (FILE *__stream) __attribute__ ((__nothrow__ )) ;
# 875 "/usr/include/stdio.h" 3 4
extern FILE *popen (const char *__command, const char *__modes) ;





extern int pclose (FILE *__stream);





extern char *ctermid (char *__s) __attribute__ ((__nothrow__ ));





extern char *cuserid (char *__s);




struct obstack;


extern int obstack_printf (struct obstack *__restrict __obstack,
      const char *__restrict __format, ...)
     __attribute__ ((__nothrow__)) __attribute__ ((__format__ (__printf__, 2, 3)));
extern int obstack_vprintf (struct obstack *__restrict __obstack,
       const char *__restrict __format,
       __gnuc_va_list __args)
     __attribute__ ((__nothrow__)) __attribute__ ((__format__ (__printf__, 2, 0)));







extern void flockfile (FILE *__stream) __attribute__ ((__nothrow__ ));



extern int ftrylockfile (FILE *__stream) __attribute__ ((__nothrow__ )) ;


extern void funlockfile (FILE *__stream) __attribute__ ((__nothrow__ ));
# 936 "/usr/include/stdio.h" 3 4
# 1 "/usr/include/bits/stdio.h" 1 3 4
# 35 "/usr/include/bits/stdio.h" 3 4
extern __inline __attribute__ ((__gnu_inline__)) int
vprintf (const char *__restrict __fmt, __gnuc_va_list __arg)
{
  return vfprintf (stdout, __fmt, __arg);
}



extern __inline __attribute__ ((__gnu_inline__)) int
getchar (void)
{
  return _IO_getc (stdin);
}




extern __inline __attribute__ ((__gnu_inline__)) int
fgetc_unlocked (FILE *__fp)
{
  return (__builtin_expect (((__fp)->_IO_read_ptr >= (__fp)->_IO_read_end), 0) ? __uflow (__fp) : *(unsigned char *) (__fp)->_IO_read_ptr++);
}





extern __inline __attribute__ ((__gnu_inline__)) int
getc_unlocked (FILE *__fp)
{
  return (__builtin_expect (((__fp)->_IO_read_ptr >= (__fp)->_IO_read_end), 0) ? __uflow (__fp) : *(unsigned char *) (__fp)->_IO_read_ptr++);
}


extern __inline __attribute__ ((__gnu_inline__)) int
getchar_unlocked (void)
{
  return (__builtin_expect (((stdin)->_IO_read_ptr >= (stdin)->_IO_read_end), 0) ? __uflow (stdin) : *(unsigned char *) (stdin)->_IO_read_ptr++);
}




extern __inline __attribute__ ((__gnu_inline__)) int
putchar (int __c)
{
  return _IO_putc (__c, stdout);
}




extern __inline __attribute__ ((__gnu_inline__)) int
fputc_unlocked (int __c, FILE *__stream)
{
  return (__builtin_expect (((__stream)->_IO_write_ptr >= (__stream)->_IO_write_end), 0) ? __overflow (__stream, (unsigned char) (__c)) : (unsigned char) (*(__stream)->_IO_write_ptr++ = (__c)));
}





extern __inline __attribute__ ((__gnu_inline__)) int
putc_unlocked (int __c, FILE *__stream)
{
  return (__builtin_expect (((__stream)->_IO_write_ptr >= (__stream)->_IO_write_end), 0) ? __overflow (__stream, (unsigned char) (__c)) : (unsigned char) (*(__stream)->_IO_write_ptr++ = (__c)));
}


extern __inline __attribute__ ((__gnu_inline__)) int
putchar_unlocked (int __c)
{
  return (__builtin_expect (((stdout)->_IO_write_ptr >= (stdout)->_IO_write_end), 0) ? __overflow (stdout, (unsigned char) (__c)) : (unsigned char) (*(stdout)->_IO_write_ptr++ = (__c)));
}





extern __inline __attribute__ ((__gnu_inline__)) __ssize_t
getline (char **__lineptr, size_t *__n, FILE *__stream)
{
  return __getdelim (__lineptr, __n, '\n', __stream);
}





extern __inline __attribute__ ((__gnu_inline__)) int
__attribute__ ((__nothrow__ )) feof_unlocked (FILE *__stream)
{
  return (((__stream)->_flags & 0x10) != 0);
}


extern __inline __attribute__ ((__gnu_inline__)) int
__attribute__ ((__nothrow__ )) ferror_unlocked (FILE *__stream)
{
  return (((__stream)->_flags & 0x20) != 0);
}
# 937 "/usr/include/stdio.h" 2 3 4
# 19 "/opt/devel/juneyoung.lee/inttoptr/llvm-test-suite-4.0/MultiSource/Benchmarks/Ptrdist/yacr2/vcg.c" 2
# 1 "/usr/include/stdlib.h" 1 3 4
# 25 "/usr/include/stdlib.h" 3 4
# 1 "/usr/include/bits/libc-header-start.h" 1 3 4
# 26 "/usr/include/stdlib.h" 2 3 4







# 1 "/home/juneyoung.lee/inttoptr/manjaro/llvm-intptr-base-4.0-debug/bin/../lib/clang/4.0.0/include/stddef.h" 1 3 4
# 90 "/home/juneyoung.lee/inttoptr/manjaro/llvm-intptr-base-4.0-debug/bin/../lib/clang/4.0.0/include/stddef.h" 3 4
typedef int wchar_t;
# 34 "/usr/include/stdlib.h" 2 3 4








# 1 "/usr/include/bits/waitflags.h" 1 3 4
# 43 "/usr/include/stdlib.h" 2 3 4
# 1 "/usr/include/bits/waitstatus.h" 1 3 4
# 44 "/usr/include/stdlib.h" 2 3 4
# 59 "/usr/include/stdlib.h" 3 4
typedef struct
  {
    int quot;
    int rem;
  } div_t;



typedef struct
  {
    long int quot;
    long int rem;
  } ldiv_t;







__extension__ typedef struct
  {
    long long int quot;
    long long int rem;
  } lldiv_t;
# 101 "/usr/include/stdlib.h" 3 4
extern size_t __ctype_get_mb_cur_max (void) __attribute__ ((__nothrow__ )) ;




extern double atof (const char *__nptr)
     __attribute__ ((__nothrow__ )) __attribute__ ((__pure__)) __attribute__ ((__nonnull__ (1))) ;

extern int atoi (const char *__nptr)
     __attribute__ ((__nothrow__ )) __attribute__ ((__pure__)) __attribute__ ((__nonnull__ (1))) ;

extern long int atol (const char *__nptr)
     __attribute__ ((__nothrow__ )) __attribute__ ((__pure__)) __attribute__ ((__nonnull__ (1))) ;





__extension__ extern long long int atoll (const char *__nptr)
     __attribute__ ((__nothrow__ )) __attribute__ ((__pure__)) __attribute__ ((__nonnull__ (1))) ;





extern double strtod (const char *__restrict __nptr,
        char **__restrict __endptr)
     __attribute__ ((__nothrow__ )) __attribute__ ((__nonnull__ (1)));





extern float strtof (const char *__restrict __nptr,
       char **__restrict __endptr) __attribute__ ((__nothrow__ )) __attribute__ ((__nonnull__ (1)));

extern long double strtold (const char *__restrict __nptr,
       char **__restrict __endptr)
     __attribute__ ((__nothrow__ )) __attribute__ ((__nonnull__ (1)));





extern long int strtol (const char *__restrict __nptr,
   char **__restrict __endptr, int __base)
     __attribute__ ((__nothrow__ )) __attribute__ ((__nonnull__ (1)));

extern unsigned long int strtoul (const char *__restrict __nptr,
      char **__restrict __endptr, int __base)
     __attribute__ ((__nothrow__ )) __attribute__ ((__nonnull__ (1)));




__extension__
extern long long int strtoq (const char *__restrict __nptr,
        char **__restrict __endptr, int __base)
     __attribute__ ((__nothrow__ )) __attribute__ ((__nonnull__ (1)));

__extension__
extern unsigned long long int strtouq (const char *__restrict __nptr,
           char **__restrict __endptr, int __base)
     __attribute__ ((__nothrow__ )) __attribute__ ((__nonnull__ (1)));





__extension__
extern long long int strtoll (const char *__restrict __nptr,
         char **__restrict __endptr, int __base)
     __attribute__ ((__nothrow__ )) __attribute__ ((__nonnull__ (1)));

__extension__
extern unsigned long long int strtoull (const char *__restrict __nptr,
     char **__restrict __endptr, int __base)
     __attribute__ ((__nothrow__ )) __attribute__ ((__nonnull__ (1)));





extern int strfromd (char *__dest, size_t __size, const char *__format,
       double __f)
     __attribute__ ((__nothrow__ )) __attribute__ ((__nonnull__ (3)));

extern int strfromf (char *__dest, size_t __size, const char *__format,
       float __f)
     __attribute__ ((__nothrow__ )) __attribute__ ((__nonnull__ (3)));

extern int strfroml (char *__dest, size_t __size, const char *__format,
       long double __f)
     __attribute__ ((__nothrow__ )) __attribute__ ((__nonnull__ (3)));
# 212 "/usr/include/stdlib.h" 3 4
# 1 "/usr/include/xlocale.h" 1 3 4
# 27 "/usr/include/xlocale.h" 3 4
typedef struct __locale_struct
{

  struct __locale_data *__locales[13];


  const unsigned short int *__ctype_b;
  const int *__ctype_tolower;
  const int *__ctype_toupper;


  const char *__names[13];
} *__locale_t;


typedef __locale_t locale_t;
# 213 "/usr/include/stdlib.h" 2 3 4



extern long int strtol_l (const char *__restrict __nptr,
     char **__restrict __endptr, int __base,
     __locale_t __loc) __attribute__ ((__nothrow__ )) __attribute__ ((__nonnull__ (1, 4)));

extern unsigned long int strtoul_l (const char *__restrict __nptr,
        char **__restrict __endptr,
        int __base, __locale_t __loc)
     __attribute__ ((__nothrow__ )) __attribute__ ((__nonnull__ (1, 4)));

__extension__
extern long long int strtoll_l (const char *__restrict __nptr,
    char **__restrict __endptr, int __base,
    __locale_t __loc)
     __attribute__ ((__nothrow__ )) __attribute__ ((__nonnull__ (1, 4)));

__extension__
extern unsigned long long int strtoull_l (const char *__restrict __nptr,
       char **__restrict __endptr,
       int __base, __locale_t __loc)
     __attribute__ ((__nothrow__ )) __attribute__ ((__nonnull__ (1, 4)));

extern double strtod_l (const char *__restrict __nptr,
   char **__restrict __endptr, __locale_t __loc)
     __attribute__ ((__nothrow__ )) __attribute__ ((__nonnull__ (1, 3)));

extern float strtof_l (const char *__restrict __nptr,
         char **__restrict __endptr, __locale_t __loc)
     __attribute__ ((__nothrow__ )) __attribute__ ((__nonnull__ (1, 3)));

extern long double strtold_l (const char *__restrict __nptr,
         char **__restrict __endptr,
         __locale_t __loc)
     __attribute__ ((__nothrow__ )) __attribute__ ((__nonnull__ (1, 3)));





extern __inline __attribute__ ((__gnu_inline__)) int
__attribute__ ((__nothrow__ )) atoi (const char *__nptr)
{
  return (int) strtol (__nptr, (char **) ((void*)0), 10);
}
extern __inline __attribute__ ((__gnu_inline__)) long int
__attribute__ ((__nothrow__ )) atol (const char *__nptr)
{
  return strtol (__nptr, (char **) ((void*)0), 10);
}




__extension__ extern __inline __attribute__ ((__gnu_inline__)) long long int
__attribute__ ((__nothrow__ )) atoll (const char *__nptr)
{
  return strtoll (__nptr, (char **) ((void*)0), 10);
}
# 282 "/usr/include/stdlib.h" 3 4
extern char *l64a (long int __n) __attribute__ ((__nothrow__ )) ;


extern long int a64l (const char *__s)
     __attribute__ ((__nothrow__ )) __attribute__ ((__pure__)) __attribute__ ((__nonnull__ (1))) ;





# 1 "/usr/include/sys/types.h" 1 3 4
# 33 "/usr/include/sys/types.h" 3 4
typedef __u_char u_char;
typedef __u_short u_short;
typedef __u_int u_int;
typedef __u_long u_long;
typedef __quad_t quad_t;
typedef __u_quad_t u_quad_t;
typedef __fsid_t fsid_t;




typedef __loff_t loff_t;



typedef __ino_t ino_t;






typedef __ino64_t ino64_t;




typedef __dev_t dev_t;




typedef __gid_t gid_t;




typedef __mode_t mode_t;




typedef __nlink_t nlink_t;




typedef __uid_t uid_t;
# 98 "/usr/include/sys/types.h" 3 4
typedef __pid_t pid_t;





typedef __id_t id_t;
# 115 "/usr/include/sys/types.h" 3 4
typedef __daddr_t daddr_t;
typedef __caddr_t caddr_t;





typedef __key_t key_t;





# 1 "/usr/include/bits/types/clock_t.h" 1 3 4







typedef __clock_t clock_t;
# 128 "/usr/include/sys/types.h" 2 3 4

# 1 "/usr/include/bits/types/clockid_t.h" 1 3 4






typedef __clockid_t clockid_t;
# 130 "/usr/include/sys/types.h" 2 3 4
# 1 "/usr/include/bits/types/time_t.h" 1 3 4







typedef __time_t time_t;
# 131 "/usr/include/sys/types.h" 2 3 4
# 1 "/usr/include/bits/types/timer_t.h" 1 3 4






typedef __timer_t timer_t;
# 132 "/usr/include/sys/types.h" 2 3 4



typedef __useconds_t useconds_t;



typedef __suseconds_t suseconds_t;






# 1 "/home/juneyoung.lee/inttoptr/manjaro/llvm-intptr-base-4.0-debug/bin/../lib/clang/4.0.0/include/stddef.h" 1 3 4
# 146 "/usr/include/sys/types.h" 2 3 4



typedef unsigned long int ulong;
typedef unsigned short int ushort;
typedef unsigned int uint;
# 193 "/usr/include/sys/types.h" 3 4
typedef int int8_t __attribute__ ((__mode__ (__QI__)));
typedef int int16_t __attribute__ ((__mode__ (__HI__)));
typedef int int32_t __attribute__ ((__mode__ (__SI__)));
typedef int int64_t __attribute__ ((__mode__ (__DI__)));


typedef unsigned int u_int8_t __attribute__ ((__mode__ (__QI__)));
typedef unsigned int u_int16_t __attribute__ ((__mode__ (__HI__)));
typedef unsigned int u_int32_t __attribute__ ((__mode__ (__SI__)));
typedef unsigned int u_int64_t __attribute__ ((__mode__ (__DI__)));

typedef int register_t __attribute__ ((__mode__ (__word__)));
# 215 "/usr/include/sys/types.h" 3 4
# 1 "/usr/include/endian.h" 1 3 4
# 36 "/usr/include/endian.h" 3 4
# 1 "/usr/include/bits/endian.h" 1 3 4
# 37 "/usr/include/endian.h" 2 3 4
# 60 "/usr/include/endian.h" 3 4
# 1 "/usr/include/bits/byteswap.h" 1 3 4
# 28 "/usr/include/bits/byteswap.h" 3 4
# 1 "/usr/include/bits/wordsize.h" 1 3 4
# 29 "/usr/include/bits/byteswap.h" 2 3 4






# 1 "/usr/include/bits/byteswap-16.h" 1 3 4
# 36 "/usr/include/bits/byteswap.h" 2 3 4
# 61 "/usr/include/endian.h" 2 3 4
# 1 "/usr/include/bits/uintn-identity.h" 1 3 4
# 32 "/usr/include/bits/uintn-identity.h" 3 4
static __inline __uint16_t
__uint16_identity (__uint16_t __x)
{
  return __x;
}

static __inline __uint32_t
__uint32_identity (__uint32_t __x)
{
  return __x;
}

static __inline __uint64_t
__uint64_identity (__uint64_t __x)
{
  return __x;
}
# 62 "/usr/include/endian.h" 2 3 4
# 216 "/usr/include/sys/types.h" 2 3 4


# 1 "/usr/include/sys/select.h" 1 3 4
# 30 "/usr/include/sys/select.h" 3 4
# 1 "/usr/include/bits/select.h" 1 3 4
# 22 "/usr/include/bits/select.h" 3 4
# 1 "/usr/include/bits/wordsize.h" 1 3 4
# 23 "/usr/include/bits/select.h" 2 3 4
# 31 "/usr/include/sys/select.h" 2 3 4


# 1 "/usr/include/bits/sigset.h" 1 3 4
# 22 "/usr/include/bits/sigset.h" 3 4
typedef int __sig_atomic_t;




typedef struct
  {
    unsigned long int __val[(1024 / (8 * sizeof (unsigned long int)))];
  } __sigset_t;
# 34 "/usr/include/sys/select.h" 2 3 4



typedef __sigset_t sigset_t;





# 1 "/usr/include/bits/types/struct_timeval.h" 1 3 4







struct timeval
{
  __time_t tv_sec;
  __suseconds_t tv_usec;
};
# 43 "/usr/include/sys/select.h" 2 3 4

# 1 "/usr/include/bits/types/struct_timespec.h" 1 3 4







struct timespec
{
  __time_t tv_sec;
  __syscall_slong_t tv_nsec;
};
# 45 "/usr/include/sys/select.h" 2 3 4
# 54 "/usr/include/sys/select.h" 3 4
typedef long int __fd_mask;
# 64 "/usr/include/sys/select.h" 3 4
typedef struct
  {



    __fd_mask fds_bits[1024 / (8 * (int) sizeof (__fd_mask))];





  } fd_set;






typedef __fd_mask fd_mask;
# 106 "/usr/include/sys/select.h" 3 4
extern int select (int __nfds, fd_set *__restrict __readfds,
     fd_set *__restrict __writefds,
     fd_set *__restrict __exceptfds,
     struct timeval *__restrict __timeout);
# 118 "/usr/include/sys/select.h" 3 4
extern int pselect (int __nfds, fd_set *__restrict __readfds,
      fd_set *__restrict __writefds,
      fd_set *__restrict __exceptfds,
      const struct timespec *__restrict __timeout,
      const __sigset_t *__restrict __sigmask);
# 219 "/usr/include/sys/types.h" 2 3 4







# 1 "/usr/include/sys/sysmacros.h" 1 3 4
# 41 "/usr/include/sys/sysmacros.h" 3 4
# 1 "/usr/include/bits/sysmacros.h" 1 3 4
# 42 "/usr/include/sys/sysmacros.h" 2 3 4
# 73 "/usr/include/sys/sysmacros.h" 3 4
extern unsigned int gnu_dev_major (__dev_t __dev) __attribute__ ((__nothrow__ )) __attribute__ ((__const__));
extern unsigned int gnu_dev_minor (__dev_t __dev) __attribute__ ((__nothrow__ )) __attribute__ ((__const__));
extern __dev_t gnu_dev_makedev (unsigned int __major, unsigned int __minor) __attribute__ ((__nothrow__ )) __attribute__ ((__const__));



__extension__ extern __inline __attribute__ ((__gnu_inline__)) __attribute__ ((__const__)) unsigned int __attribute__ ((__nothrow__ )) gnu_dev_major (__dev_t __dev) { unsigned int __major; __major = ((__dev & (__dev_t) 0x00000000000fff00u) >> 8); __major |= ((__dev & (__dev_t) 0xfffff00000000000u) >> 32); return __major; }
__extension__ extern __inline __attribute__ ((__gnu_inline__)) __attribute__ ((__const__)) unsigned int __attribute__ ((__nothrow__ )) gnu_dev_minor (__dev_t __dev) { unsigned int __minor; __minor = ((__dev & (__dev_t) 0x00000000000000ffu) >> 0); __minor |= ((__dev & (__dev_t) 0x00000ffffff00000u) >> 12); return __minor; }
__extension__ extern __inline __attribute__ ((__gnu_inline__)) __attribute__ ((__const__)) __dev_t __attribute__ ((__nothrow__ )) gnu_dev_makedev (unsigned int __major, unsigned int __minor) { __dev_t __dev; __dev = (((__dev_t) (__major & 0x00000fffu)) << 8); __dev |= (((__dev_t) (__major & 0xfffff000u)) << 32); __dev |= (((__dev_t) (__minor & 0x000000ffu)) << 0); __dev |= (((__dev_t) (__minor & 0xffffff00u)) << 12); return __dev; }
# 227 "/usr/include/sys/types.h" 2 3 4






typedef __blksize_t blksize_t;






typedef __blkcnt_t blkcnt_t;



typedef __fsblkcnt_t fsblkcnt_t;



typedef __fsfilcnt_t fsfilcnt_t;
# 267 "/usr/include/sys/types.h" 3 4
typedef __blkcnt64_t blkcnt64_t;
typedef __fsblkcnt64_t fsblkcnt64_t;
typedef __fsfilcnt64_t fsfilcnt64_t;






# 1 "/usr/include/bits/pthreadtypes.h" 1 3 4
# 21 "/usr/include/bits/pthreadtypes.h" 3 4
# 1 "/usr/include/bits/wordsize.h" 1 3 4
# 22 "/usr/include/bits/pthreadtypes.h" 2 3 4
# 60 "/usr/include/bits/pthreadtypes.h" 3 4
typedef unsigned long int pthread_t;


union pthread_attr_t
{
  char __size[56];
  long int __align;
};

typedef union pthread_attr_t pthread_attr_t;





typedef struct __pthread_internal_list
{
  struct __pthread_internal_list *__prev;
  struct __pthread_internal_list *__next;
} __pthread_list_t;
# 90 "/usr/include/bits/pthreadtypes.h" 3 4
typedef union
{
  struct __pthread_mutex_s
  {
    int __lock;
    unsigned int __count;
    int __owner;

    unsigned int __nusers;



    int __kind;

    short __spins;
    short __elision;
    __pthread_list_t __list;
# 125 "/usr/include/bits/pthreadtypes.h" 3 4
  } __data;
  char __size[40];
  long int __align;
} pthread_mutex_t;

typedef union
{
  char __size[4];
  int __align;
} pthread_mutexattr_t;




typedef union
{
  struct
  {
    __extension__ union
    {
      __extension__ unsigned long long int __wseq;
      struct {
 unsigned int __low;
 unsigned int __high;
      } __wseq32;
    };
    __extension__ union
    {
      __extension__ unsigned long long int __g1_start;
      struct {
 unsigned int __low;
 unsigned int __high;
      } __g1_start32;
    };
    unsigned int __g_refs[2];
    unsigned int __g_size[2];
    unsigned int __g1_orig_size;
    unsigned int __wrefs;
    unsigned int __g_signals[2];
  } __data;
  char __size[48];
  __extension__ long long int __align;
} pthread_cond_t;

typedef union
{
  char __size[4];
  int __align;
} pthread_condattr_t;



typedef unsigned int pthread_key_t;



typedef int pthread_once_t;





typedef union
{

  struct
  {
    unsigned int __readers;
    unsigned int __writers;
    unsigned int __wrphase_futex;
    unsigned int __writers_futex;
    unsigned int __pad3;
    unsigned int __pad4;
    int __cur_writer;
    int __shared;
    signed char __rwelision;




    unsigned char __pad1[7];


    unsigned long int __pad2;


    unsigned int __flags;

  } __data;
# 233 "/usr/include/bits/pthreadtypes.h" 3 4
  char __size[56];
  long int __align;
} pthread_rwlock_t;

typedef union
{
  char __size[8];
  long int __align;
} pthread_rwlockattr_t;





typedef volatile int pthread_spinlock_t;




typedef union
{
  char __size[32];
  long int __align;
} pthread_barrier_t;

typedef union
{
  char __size[4];
  int __align;
} pthread_barrierattr_t;
# 276 "/usr/include/sys/types.h" 2 3 4
# 292 "/usr/include/stdlib.h" 2 3 4






extern long int random (void) __attribute__ ((__nothrow__ ));


extern void srandom (unsigned int __seed) __attribute__ ((__nothrow__ ));





extern char *initstate (unsigned int __seed, char *__statebuf,
   size_t __statelen) __attribute__ ((__nothrow__ )) __attribute__ ((__nonnull__ (2)));



extern char *setstate (char *__statebuf) __attribute__ ((__nothrow__ )) __attribute__ ((__nonnull__ (1)));







struct random_data
  {
    int32_t *fptr;
    int32_t *rptr;
    int32_t *state;
    int rand_type;
    int rand_deg;
    int rand_sep;
    int32_t *end_ptr;
  };

extern int random_r (struct random_data *__restrict __buf,
       int32_t *__restrict __result) __attribute__ ((__nothrow__ )) __attribute__ ((__nonnull__ (1, 2)));

extern int srandom_r (unsigned int __seed, struct random_data *__buf)
     __attribute__ ((__nothrow__ )) __attribute__ ((__nonnull__ (2)));

extern int initstate_r (unsigned int __seed, char *__restrict __statebuf,
   size_t __statelen,
   struct random_data *__restrict __buf)
     __attribute__ ((__nothrow__ )) __attribute__ ((__nonnull__ (2, 4)));

extern int setstate_r (char *__restrict __statebuf,
         struct random_data *__restrict __buf)
     __attribute__ ((__nothrow__ )) __attribute__ ((__nonnull__ (1, 2)));






extern int rand (void) __attribute__ ((__nothrow__ ));

extern void srand (unsigned int __seed) __attribute__ ((__nothrow__ ));




extern int rand_r (unsigned int *__seed) __attribute__ ((__nothrow__ ));







extern double drand48 (void) __attribute__ ((__nothrow__ ));
extern double erand48 (unsigned short int __xsubi[3]) __attribute__ ((__nothrow__ )) __attribute__ ((__nonnull__ (1)));


extern long int lrand48 (void) __attribute__ ((__nothrow__ ));
extern long int nrand48 (unsigned short int __xsubi[3])
     __attribute__ ((__nothrow__ )) __attribute__ ((__nonnull__ (1)));


extern long int mrand48 (void) __attribute__ ((__nothrow__ ));
extern long int jrand48 (unsigned short int __xsubi[3])
     __attribute__ ((__nothrow__ )) __attribute__ ((__nonnull__ (1)));


extern void srand48 (long int __seedval) __attribute__ ((__nothrow__ ));
extern unsigned short int *seed48 (unsigned short int __seed16v[3])
     __attribute__ ((__nothrow__ )) __attribute__ ((__nonnull__ (1)));
extern void lcong48 (unsigned short int __param[7]) __attribute__ ((__nothrow__ )) __attribute__ ((__nonnull__ (1)));





struct drand48_data
  {
    unsigned short int __x[3];
    unsigned short int __old_x[3];
    unsigned short int __c;
    unsigned short int __init;
    __extension__ unsigned long long int __a;

  };


extern int drand48_r (struct drand48_data *__restrict __buffer,
        double *__restrict __result) __attribute__ ((__nothrow__ )) __attribute__ ((__nonnull__ (1, 2)));
extern int erand48_r (unsigned short int __xsubi[3],
        struct drand48_data *__restrict __buffer,
        double *__restrict __result) __attribute__ ((__nothrow__ )) __attribute__ ((__nonnull__ (1, 2)));


extern int lrand48_r (struct drand48_data *__restrict __buffer,
        long int *__restrict __result)
     __attribute__ ((__nothrow__ )) __attribute__ ((__nonnull__ (1, 2)));
extern int nrand48_r (unsigned short int __xsubi[3],
        struct drand48_data *__restrict __buffer,
        long int *__restrict __result)
     __attribute__ ((__nothrow__ )) __attribute__ ((__nonnull__ (1, 2)));


extern int mrand48_r (struct drand48_data *__restrict __buffer,
        long int *__restrict __result)
     __attribute__ ((__nothrow__ )) __attribute__ ((__nonnull__ (1, 2)));
extern int jrand48_r (unsigned short int __xsubi[3],
        struct drand48_data *__restrict __buffer,
        long int *__restrict __result)
     __attribute__ ((__nothrow__ )) __attribute__ ((__nonnull__ (1, 2)));


extern int srand48_r (long int __seedval, struct drand48_data *__buffer)
     __attribute__ ((__nothrow__ )) __attribute__ ((__nonnull__ (2)));

extern int seed48_r (unsigned short int __seed16v[3],
       struct drand48_data *__buffer) __attribute__ ((__nothrow__ )) __attribute__ ((__nonnull__ (1, 2)));

extern int lcong48_r (unsigned short int __param[7],
        struct drand48_data *__buffer)
     __attribute__ ((__nothrow__ )) __attribute__ ((__nonnull__ (1, 2)));
# 443 "/usr/include/stdlib.h" 3 4
extern void *malloc (size_t __size) __attribute__ ((__nothrow__ )) __attribute__ ((__malloc__)) ;

extern void *calloc (size_t __nmemb, size_t __size)
     __attribute__ ((__nothrow__ )) __attribute__ ((__malloc__)) ;
# 457 "/usr/include/stdlib.h" 3 4
extern void *realloc (void *__ptr, size_t __size)
     __attribute__ ((__nothrow__ )) __attribute__ ((__warn_unused_result__));

extern void free (void *__ptr) __attribute__ ((__nothrow__ ));




extern void cfree (void *__ptr) __attribute__ ((__nothrow__ ));




# 1 "/usr/include/alloca.h" 1 3 4
# 24 "/usr/include/alloca.h" 3 4
# 1 "/home/juneyoung.lee/inttoptr/manjaro/llvm-intptr-base-4.0-debug/bin/../lib/clang/4.0.0/include/stddef.h" 1 3 4
# 25 "/usr/include/alloca.h" 2 3 4







extern void *alloca (size_t __size) __attribute__ ((__nothrow__ ));
# 470 "/usr/include/stdlib.h" 2 3 4





extern void *valloc (size_t __size) __attribute__ ((__nothrow__ )) __attribute__ ((__malloc__)) ;




extern int posix_memalign (void **__memptr, size_t __alignment, size_t __size)
     __attribute__ ((__nothrow__ )) __attribute__ ((__nonnull__ (1))) ;




extern void *aligned_alloc (size_t __alignment, size_t __size)
     __attribute__ ((__nothrow__ )) __attribute__ ((__malloc__)) ;




extern void abort (void) __attribute__ ((__nothrow__ )) __attribute__ ((__noreturn__));



extern int atexit (void (*__func) (void)) __attribute__ ((__nothrow__ )) __attribute__ ((__nonnull__ (1)));







extern int at_quick_exit (void (*__func) (void)) __attribute__ ((__nothrow__ )) __attribute__ ((__nonnull__ (1)));







extern int on_exit (void (*__func) (int __status, void *__arg), void *__arg)
     __attribute__ ((__nothrow__ )) __attribute__ ((__nonnull__ (1)));






extern void exit (int __status) __attribute__ ((__nothrow__ )) __attribute__ ((__noreturn__));





extern void quick_exit (int __status) __attribute__ ((__nothrow__ )) __attribute__ ((__noreturn__));







extern void _Exit (int __status) __attribute__ ((__nothrow__ )) __attribute__ ((__noreturn__));






extern char *getenv (const char *__name) __attribute__ ((__nothrow__ )) __attribute__ ((__nonnull__ (1))) ;





extern char *secure_getenv (const char *__name)
     __attribute__ ((__nothrow__ )) __attribute__ ((__nonnull__ (1))) ;






extern int putenv (char *__string) __attribute__ ((__nothrow__ )) __attribute__ ((__nonnull__ (1)));





extern int setenv (const char *__name, const char *__value, int __replace)
     __attribute__ ((__nothrow__ )) __attribute__ ((__nonnull__ (2)));


extern int unsetenv (const char *__name) __attribute__ ((__nothrow__ )) __attribute__ ((__nonnull__ (1)));






extern int clearenv (void) __attribute__ ((__nothrow__ ));
# 583 "/usr/include/stdlib.h" 3 4
extern char *mktemp (char *__template) __attribute__ ((__nothrow__ )) __attribute__ ((__nonnull__ (1)));
# 596 "/usr/include/stdlib.h" 3 4
extern int mkstemp (char *__template) __attribute__ ((__nonnull__ (1))) ;
# 606 "/usr/include/stdlib.h" 3 4
extern int mkstemp64 (char *__template) __attribute__ ((__nonnull__ (1))) ;
# 618 "/usr/include/stdlib.h" 3 4
extern int mkstemps (char *__template, int __suffixlen) __attribute__ ((__nonnull__ (1))) ;
# 628 "/usr/include/stdlib.h" 3 4
extern int mkstemps64 (char *__template, int __suffixlen)
     __attribute__ ((__nonnull__ (1))) ;
# 639 "/usr/include/stdlib.h" 3 4
extern char *mkdtemp (char *__template) __attribute__ ((__nothrow__ )) __attribute__ ((__nonnull__ (1))) ;
# 650 "/usr/include/stdlib.h" 3 4
extern int mkostemp (char *__template, int __flags) __attribute__ ((__nonnull__ (1))) ;
# 660 "/usr/include/stdlib.h" 3 4
extern int mkostemp64 (char *__template, int __flags) __attribute__ ((__nonnull__ (1))) ;
# 670 "/usr/include/stdlib.h" 3 4
extern int mkostemps (char *__template, int __suffixlen, int __flags)
     __attribute__ ((__nonnull__ (1))) ;
# 682 "/usr/include/stdlib.h" 3 4
extern int mkostemps64 (char *__template, int __suffixlen, int __flags)
     __attribute__ ((__nonnull__ (1))) ;
# 693 "/usr/include/stdlib.h" 3 4
extern int system (const char *__command) ;






extern char *canonicalize_file_name (const char *__name)
     __attribute__ ((__nothrow__ )) __attribute__ ((__nonnull__ (1))) ;
# 710 "/usr/include/stdlib.h" 3 4
extern char *realpath (const char *__restrict __name,
         char *__restrict __resolved) __attribute__ ((__nothrow__ )) ;






typedef int (*__compar_fn_t) (const void *, const void *);


typedef __compar_fn_t comparison_fn_t;



typedef int (*__compar_d_fn_t) (const void *, const void *, void *);





extern void *bsearch (const void *__key, const void *__base,
        size_t __nmemb, size_t __size, __compar_fn_t __compar)
     __attribute__ ((__nonnull__ (1, 2, 5))) ;



# 1 "/usr/include/bits/stdlib-bsearch.h" 1 3 4
# 19 "/usr/include/bits/stdlib-bsearch.h" 3 4
extern __inline __attribute__ ((__gnu_inline__)) void *
bsearch (const void *__key, const void *__base, size_t __nmemb, size_t __size,
  __compar_fn_t __compar)
{
  size_t __l, __u, __idx;
  const void *__p;
  int __comparison;

  __l = 0;
  __u = __nmemb;
  while (__l < __u)
    {
      __idx = (__l + __u) / 2;
      __p = (void *) (((const char *) __base) + (__idx * __size));
      __comparison = (*__compar) (__key, __p);
      if (__comparison < 0)
 __u = __idx;
      else if (__comparison > 0)
 __l = __idx + 1;
      else
 return (void *) __p;
    }

  return ((void*)0);
}
# 737 "/usr/include/stdlib.h" 2 3 4




extern void qsort (void *__base, size_t __nmemb, size_t __size,
     __compar_fn_t __compar) __attribute__ ((__nonnull__ (1, 4)));

extern void qsort_r (void *__base, size_t __nmemb, size_t __size,
       __compar_d_fn_t __compar, void *__arg)
  __attribute__ ((__nonnull__ (1, 4)));




extern int abs (int __x) __attribute__ ((__nothrow__ )) __attribute__ ((__const__)) ;
extern long int labs (long int __x) __attribute__ ((__nothrow__ )) __attribute__ ((__const__)) ;



__extension__ extern long long int llabs (long long int __x)
     __attribute__ ((__nothrow__ )) __attribute__ ((__const__)) ;







extern div_t div (int __numer, int __denom)
     __attribute__ ((__nothrow__ )) __attribute__ ((__const__)) ;
extern ldiv_t ldiv (long int __numer, long int __denom)
     __attribute__ ((__nothrow__ )) __attribute__ ((__const__)) ;




__extension__ extern lldiv_t lldiv (long long int __numer,
        long long int __denom)
     __attribute__ ((__nothrow__ )) __attribute__ ((__const__)) ;
# 788 "/usr/include/stdlib.h" 3 4
extern char *ecvt (double __value, int __ndigit, int *__restrict __decpt,
     int *__restrict __sign) __attribute__ ((__nothrow__ )) __attribute__ ((__nonnull__ (3, 4))) ;




extern char *fcvt (double __value, int __ndigit, int *__restrict __decpt,
     int *__restrict __sign) __attribute__ ((__nothrow__ )) __attribute__ ((__nonnull__ (3, 4))) ;




extern char *gcvt (double __value, int __ndigit, char *__buf)
     __attribute__ ((__nothrow__ )) __attribute__ ((__nonnull__ (3))) ;




extern char *qecvt (long double __value, int __ndigit,
      int *__restrict __decpt, int *__restrict __sign)
     __attribute__ ((__nothrow__ )) __attribute__ ((__nonnull__ (3, 4))) ;
extern char *qfcvt (long double __value, int __ndigit,
      int *__restrict __decpt, int *__restrict __sign)
     __attribute__ ((__nothrow__ )) __attribute__ ((__nonnull__ (3, 4))) ;
extern char *qgcvt (long double __value, int __ndigit, char *__buf)
     __attribute__ ((__nothrow__ )) __attribute__ ((__nonnull__ (3))) ;




extern int ecvt_r (double __value, int __ndigit, int *__restrict __decpt,
     int *__restrict __sign, char *__restrict __buf,
     size_t __len) __attribute__ ((__nothrow__ )) __attribute__ ((__nonnull__ (3, 4, 5)));
extern int fcvt_r (double __value, int __ndigit, int *__restrict __decpt,
     int *__restrict __sign, char *__restrict __buf,
     size_t __len) __attribute__ ((__nothrow__ )) __attribute__ ((__nonnull__ (3, 4, 5)));

extern int qecvt_r (long double __value, int __ndigit,
      int *__restrict __decpt, int *__restrict __sign,
      char *__restrict __buf, size_t __len)
     __attribute__ ((__nothrow__ )) __attribute__ ((__nonnull__ (3, 4, 5)));
extern int qfcvt_r (long double __value, int __ndigit,
      int *__restrict __decpt, int *__restrict __sign,
      char *__restrict __buf, size_t __len)
     __attribute__ ((__nothrow__ )) __attribute__ ((__nonnull__ (3, 4, 5)));






extern int mblen (const char *__s, size_t __n) __attribute__ ((__nothrow__ ));


extern int mbtowc (wchar_t *__restrict __pwc,
     const char *__restrict __s, size_t __n) __attribute__ ((__nothrow__ ));


extern int wctomb (char *__s, wchar_t __wchar) __attribute__ ((__nothrow__ ));



extern size_t mbstowcs (wchar_t *__restrict __pwcs,
   const char *__restrict __s, size_t __n) __attribute__ ((__nothrow__ ));

extern size_t wcstombs (char *__restrict __s,
   const wchar_t *__restrict __pwcs, size_t __n)
     __attribute__ ((__nothrow__ ));
# 864 "/usr/include/stdlib.h" 3 4
extern int rpmatch (const char *__response) __attribute__ ((__nothrow__ )) __attribute__ ((__nonnull__ (1))) ;
# 875 "/usr/include/stdlib.h" 3 4
extern int getsubopt (char **__restrict __optionp,
        char *const *__restrict __tokens,
        char **__restrict __valuep)
     __attribute__ ((__nothrow__ )) __attribute__ ((__nonnull__ (1, 2, 3))) ;





extern void setkey (const char *__key) __attribute__ ((__nothrow__ )) __attribute__ ((__nonnull__ (1)));







extern int posix_openpt (int __oflag) ;







extern int grantpt (int __fd) __attribute__ ((__nothrow__ ));



extern int unlockpt (int __fd) __attribute__ ((__nothrow__ ));




extern char *ptsname (int __fd) __attribute__ ((__nothrow__ )) ;






extern int ptsname_r (int __fd, char *__buf, size_t __buflen)
     __attribute__ ((__nothrow__ )) __attribute__ ((__nonnull__ (2)));


extern int getpt (void);






extern int getloadavg (double __loadavg[], int __nelem)
     __attribute__ ((__nothrow__ )) __attribute__ ((__nonnull__ (1)));
# 937 "/usr/include/stdlib.h" 3 4
# 1 "/usr/include/bits/stdlib-float.h" 1 3 4
# 25 "/usr/include/bits/stdlib-float.h" 3 4
extern __inline __attribute__ ((__gnu_inline__)) double
__attribute__ ((__nothrow__ )) atof (const char *__nptr)
{
  return strtod (__nptr, (char **) ((void*)0));
}
# 938 "/usr/include/stdlib.h" 2 3 4
# 20 "/opt/devel/juneyoung.lee/inttoptr/llvm-test-suite-4.0/MultiSource/Benchmarks/Ptrdist/yacr2/vcg.c" 2
# 1 "/usr/include/assert.h" 1 3 4
# 21 "/opt/devel/juneyoung.lee/inttoptr/llvm-test-suite-4.0/MultiSource/Benchmarks/Ptrdist/yacr2/vcg.c" 2
# 1 "/opt/devel/juneyoung.lee/inttoptr/llvm-test-suite-4.0/MultiSource/Benchmarks/Ptrdist/yacr2/types.h" 1
# 22 "/opt/devel/juneyoung.lee/inttoptr/llvm-test-suite-4.0/MultiSource/Benchmarks/Ptrdist/yacr2/vcg.c" 2
# 1 "/opt/devel/juneyoung.lee/inttoptr/llvm-test-suite-4.0/MultiSource/Benchmarks/Ptrdist/yacr2/vcg.h" 1
# 41 "/opt/devel/juneyoung.lee/inttoptr/llvm-test-suite-4.0/MultiSource/Benchmarks/Ptrdist/yacr2/vcg.h"
typedef struct _constraintVCGType {
    unsigned long top;
    unsigned long bot;
    unsigned long col;
    unsigned long removed;
} constraintVCGType;

typedef struct _nodeVCGType {
    constraintVCGType * netsAboveHook;
    unsigned long netsAbove;
    unsigned long netsAboveLabel;
    unsigned long netsAboveReached;
    constraintVCGType * netsBelowHook;
    unsigned long netsBelow;
    unsigned long netsBelowLabel;
    unsigned long netsBelowReached;
} nodeVCGType;
# 68 "/opt/devel/juneyoung.lee/inttoptr/llvm-test-suite-4.0/MultiSource/Benchmarks/Ptrdist/yacr2/vcg.h"
nodeVCGType * VCG;
constraintVCGType * storageRootVCG;
constraintVCGType * storageVCG;
unsigned long storageLimitVCG;
constraintVCGType * * removeVCG;
unsigned long removeTotalVCG;
unsigned long * SCC;
unsigned long totalSCC;
unsigned long * perSCC;
# 101 "/opt/devel/juneyoung.lee/inttoptr/llvm-test-suite-4.0/MultiSource/Benchmarks/Ptrdist/yacr2/vcg.h"
void
AllocVCG(void);

void
FreeVCG(void);

void
BuildVCG(void);

void
DFSClearVCG(nodeVCGType *);

void
DumpVCG(nodeVCGType *);

void
DFSAboveVCG(nodeVCGType *,
     unsigned long);

void
DFSBelowVCG(nodeVCGType *,
     unsigned long);

void
SCCofVCG(nodeVCGType *,
  unsigned long *,
  unsigned long *);

void
SCC_DFSAboveVCG(nodeVCGType *,
  unsigned long,
  unsigned long *);

void
SCC_DFSBelowVCG(nodeVCGType *,
  unsigned long,
  unsigned long);

void
DumpSCC(unsigned long *,
 unsigned long *);

void
AcyclicVCG(void);

void
RemoveConstraintVCG(nodeVCGType *,
      unsigned long *,
      unsigned long *,
      constraintVCGType * *);

unsigned long
ExistPathAboveVCG(nodeVCGType *,
    unsigned long,
    unsigned long);

void
LongestPathVCG(nodeVCGType *,
        unsigned long);

unsigned long
DFSAboveLongestPathVCG(nodeVCGType *,
         unsigned long);

unsigned long
DFSBelowLongestPathVCG(nodeVCGType *,
         unsigned long);

unsigned long
VCV(nodeVCGType *,
    unsigned long,
    unsigned long,
    unsigned long *);
# 23 "/opt/devel/juneyoung.lee/inttoptr/llvm-test-suite-4.0/MultiSource/Benchmarks/Ptrdist/yacr2/vcg.c" 2
# 1 "/opt/devel/juneyoung.lee/inttoptr/llvm-test-suite-4.0/MultiSource/Benchmarks/Ptrdist/yacr2/assign.h" 1
# 15 "/opt/devel/juneyoung.lee/inttoptr/llvm-test-suite-4.0/MultiSource/Benchmarks/Ptrdist/yacr2/assign.h"
# 1 "/opt/devel/juneyoung.lee/inttoptr/llvm-test-suite-4.0/MultiSource/Benchmarks/Ptrdist/yacr2/vcg.h" 1
# 16 "/opt/devel/juneyoung.lee/inttoptr/llvm-test-suite-4.0/MultiSource/Benchmarks/Ptrdist/yacr2/assign.h" 2
# 1 "/opt/devel/juneyoung.lee/inttoptr/llvm-test-suite-4.0/MultiSource/Benchmarks/Ptrdist/yacr2/hcg.h" 1
# 33 "/opt/devel/juneyoung.lee/inttoptr/llvm-test-suite-4.0/MultiSource/Benchmarks/Ptrdist/yacr2/hcg.h"
typedef struct _nodeHCGType {
    unsigned long * netsHook;
    unsigned long nets;
    unsigned long netsReached;
} nodeHCGType;
# 55 "/opt/devel/juneyoung.lee/inttoptr/llvm-test-suite-4.0/MultiSource/Benchmarks/Ptrdist/yacr2/hcg.h"
extern nodeHCGType * HCG;
extern unsigned long * storageRootHCG;
extern unsigned long * storageHCG;
extern unsigned long storageLimitHCG;
# 94 "/opt/devel/juneyoung.lee/inttoptr/llvm-test-suite-4.0/MultiSource/Benchmarks/Ptrdist/yacr2/hcg.h"
extern void
AllocHCG(void);

extern void
FreeHCG(void);

extern void
BuildHCG(void);

extern void
DFSClearHCG(nodeHCGType *);

extern void
DumpHCG(nodeHCGType *);

extern void
NoHCV(nodeHCGType *,
      unsigned long,
      unsigned long *,
      unsigned long *);
# 17 "/opt/devel/juneyoung.lee/inttoptr/llvm-test-suite-4.0/MultiSource/Benchmarks/Ptrdist/yacr2/assign.h" 2
# 63 "/opt/devel/juneyoung.lee/inttoptr/llvm-test-suite-4.0/MultiSource/Benchmarks/Ptrdist/yacr2/assign.h"
extern unsigned long * * costMatrix;
extern unsigned long * tracksNoHCV;
extern unsigned long * tracksNotPref;
extern unsigned long * tracksTopNotPref;
extern unsigned long * tracksBotNotPref;
extern unsigned long cardNotPref;
extern unsigned long cardTopNotPref;
extern unsigned long cardBotNotPref;
extern unsigned long * tracksAssign;
extern unsigned long * netsAssign;
extern unsigned long * netsAssignCopy;
# 130 "/opt/devel/juneyoung.lee/inttoptr/llvm-test-suite-4.0/MultiSource/Benchmarks/Ptrdist/yacr2/assign.h"
extern void
AllocAssign(void);

extern void
FreeAssign(void);

extern void
NetsAssign(void);

extern void
MaxNetsAssign(void);

extern void
RightNetsAssign(void);

extern void
LeftNetsAssign(void);

extern void
Assign(nodeVCGType *,
       unsigned long *,
       unsigned long);

extern void
Select(nodeVCGType *,
       nodeHCGType *,
       unsigned long *,
       unsigned long *,
       unsigned long *);

extern void
BuildCostMatrix(nodeVCGType *,
  nodeHCGType *,
  unsigned long *,
  unsigned long *);

extern void
IdealTrack(unsigned long,
    unsigned long,
    unsigned long,
    unsigned long *);
# 24 "/opt/devel/juneyoung.lee/inttoptr/llvm-test-suite-4.0/MultiSource/Benchmarks/Ptrdist/yacr2/vcg.c" 2
# 1 "/opt/devel/juneyoung.lee/inttoptr/llvm-test-suite-4.0/MultiSource/Benchmarks/Ptrdist/yacr2/channel.h" 1
# 60 "/opt/devel/juneyoung.lee/inttoptr/llvm-test-suite-4.0/MultiSource/Benchmarks/Ptrdist/yacr2/channel.h"
extern unsigned long * TOP;
extern unsigned long * BOT;
extern unsigned long * FIRST;
extern unsigned long * LAST;
extern unsigned long * DENSITY;
extern unsigned long * CROSSING;
extern unsigned long channelNets;
extern unsigned long channelColumns;
extern unsigned long channelTracks;
extern unsigned long channelTracksCopy;
extern unsigned long channelDensity;
extern unsigned long channelDensityColumn;
extern char * channelFile;
# 99 "/opt/devel/juneyoung.lee/inttoptr/llvm-test-suite-4.0/MultiSource/Benchmarks/Ptrdist/yacr2/channel.h"
extern void
BuildChannel(void);

extern void
DimensionChannel(void);

extern void
DescribeChannel(void);

extern void
DensityChannel(void);
# 25 "/opt/devel/juneyoung.lee/inttoptr/llvm-test-suite-4.0/MultiSource/Benchmarks/Ptrdist/yacr2/vcg.c" 2








void
AllocVCG(void)
{
    VCG = (nodeVCGType *)malloc((channelNets + 1) * sizeof(nodeVCGType));
    storageRootVCG = (constraintVCGType *)malloc((channelNets + 1) * (channelNets + 1) * sizeof(constraintVCGType));
    storageVCG = storageRootVCG;
    storageLimitVCG = (channelNets + 1) * (channelNets + 1);
    SCC = (unsigned long *)malloc((channelNets + 1) * sizeof(unsigned long));
    perSCC = (unsigned long *)malloc((channelNets + 1) * sizeof(unsigned long));
    removeVCG = (constraintVCGType * *)malloc((channelNets + 1) * (channelNets + 1) * sizeof(constraintVCGType *));
}

void
FreeVCG(void)
{
    free(VCG);
    free(storageRootVCG);
    storageLimitVCG = 0;
    free(SCC);
    free(perSCC);
    free(removeVCG);
}

void
BuildVCG(void)
{
    unsigned long col;
    unsigned long net;
    unsigned long constraint;
    unsigned long check;
    unsigned long add;




    AllocVCG();




    for (net = 1; net <= channelNets; net++) {



 constraint = 0;
 VCG[net].netsAboveHook = storageVCG;
 for (col = 1; col <= channelColumns; col++) {
     if ((TOP[col] == net) && (BOT[col] != net) && (BOT[col] != 0)) {



  add = 1;
  for (check = 0; check < constraint; check++) {
      if (VCG[net].netsAboveHook[check].bot == BOT[col]) {
   add = 0;
   break;
      }
  }




  if (add) {
      ((void) (0));
      VCG[net].netsAboveHook[constraint].top = TOP[col];
      VCG[net].netsAboveHook[constraint].bot = BOT[col];
      VCG[net].netsAboveHook[constraint].col = col;
      VCG[net].netsAboveHook[constraint].removed = 0;
      storageVCG++;
      storageLimitVCG--;
      constraint++;
  }
     }
 }
 VCG[net].netsAbove = constraint;




 constraint = 0;
 VCG[net].netsBelowHook = storageVCG;
 for (col = 1; col <= channelColumns; col++) {
     if ((BOT[col] == net) && (TOP[col] != net) && (TOP[col] != 0)) {



  add = 1;
  for (check = 0; check < constraint; check++) {
      if (VCG[net].netsBelowHook[check].top == TOP[col]) {
   add = 0;
   break;
      }
  }




  if (add) {
      ((void) (0));
      VCG[net].netsBelowHook[constraint].top = TOP[col];
      VCG[net].netsBelowHook[constraint].bot = BOT[col];
      VCG[net].netsBelowHook[constraint].col = col;
      VCG[net].netsBelowHook[constraint].removed = 0;
      storageVCG++;
      storageLimitVCG--;
      constraint++;
  }
     }
 }
 VCG[net].netsBelow = constraint;
    }
}

void
DFSClearVCG(nodeVCGType * VCG)
{
    unsigned long net;

    for (net = 1; net <= channelNets; net++) {
 VCG[net].netsAboveLabel = 0;
 VCG[net].netsAboveReached = 0;
 VCG[net].netsBelowLabel = 0;
 VCG[net].netsBelowReached = 0;
    }
}

void
DumpVCG(nodeVCGType * VCG)
{
    unsigned long net;
    unsigned long which;

    for (net = 1; net <= channelNets; net++) {
 printf("[%d]\n", net);
 printf("above: ");
 for (which = 0; which < VCG[net].netsAbove; which++) {
     if (! VCG[net].netsAboveHook[which].removed) {
  ((void) (0));
  printf("%d ", VCG[net].netsAboveHook[which].bot);
     }
 }

 printf("\n");
 printf("below: ");
 for (which = 0; which < VCG[net].netsBelow; which++) {
     if (! VCG[net].netsBelowHook[which].removed) {
  ((void) (0));
  printf("%d ", VCG[net].netsBelowHook[which].top);
     }
 }
 printf("\n\n");
    }
}

void
DFSAboveVCG(nodeVCGType * VCG,
     unsigned long net)
{
    unsigned long s;
    unsigned long above;

    VCG[net].netsAboveReached = 1;
    for (s = 0; s < VCG[net].netsAbove; s++) {
 if (! VCG[net].netsAboveHook[s].removed) {
     ((void) (0));
     above = VCG[net].netsAboveHook[s].bot;
     if (! VCG[above].netsAboveReached) {
  DFSAboveVCG(VCG, above);
     }
 }
    }
}

void
DFSBelowVCG(nodeVCGType * VCG,
     unsigned long net)
{
    unsigned long s;
    unsigned long below;

    VCG[net].netsBelowReached = 1;
    for (s = 0; s < VCG[net].netsBelow; s++) {
 if (! VCG[net].netsBelowHook[s].removed) {
     ((void) (0));
     below = VCG[net].netsBelowHook[s].top;
     if (! VCG[below].netsBelowReached) {
  DFSBelowVCG(VCG, below);
     }
 }
    }
}

void
SCCofVCG(nodeVCGType * VCG,
  unsigned long * SCC,
  unsigned long * perSCC)
{
    unsigned long net;
    unsigned long scc;
    unsigned long per;
    unsigned long label;
    unsigned long which;
    unsigned long choose;
    unsigned long large;
    unsigned long done;
    ;




    label = 0;
    for (net = 1; net <= channelNets; net++){
 if (! VCG[net].netsAboveReached) {
     SCC_DFSAboveVCG(VCG, net, &label);
 }
    }




    which = 0;
    do {
 done = 1;




 choose = 0;
 large = 0;
 for (net = 1; net <= channelNets; net++) {
     if (! VCG[net].netsBelowReached) {
  ((void) (0));
  if (VCG[net].netsAboveLabel > large) {
      choose = net;
      large = VCG[net].netsAboveLabel;
      done = 0;
  }
     }
 }




 if (! done) {
     which++;
     SCC_DFSBelowVCG(VCG, choose, which);
 }
    } while (! done);




    totalSCC = 0;
    for (net = 1; net <= channelNets; net++) {
 SCC[net] = VCG[net].netsBelowLabel;
 if (SCC[net] > totalSCC) {
     totalSCC = SCC[net];
 }
    }
    ((void) (0));
    for (scc = 1; scc <= totalSCC; scc++) {
 per = 0;
 for (net = 1; net <= channelNets; net++) {
     if (SCC[net] == scc) {
  per++;
     }
 }
 perSCC[scc] = per;
    }
    ;
}

void
SCC_DFSAboveVCG(nodeVCGType * VCG,
  unsigned long net,
  unsigned long * label)
{
    unsigned long s;
    unsigned long above;

    VCG[net].netsAboveReached = 1;
    for (s = 0; s < VCG[net].netsAbove; s++) {
 if (! VCG[net].netsAboveHook[s].removed) {
     ((void) (0));
     above = VCG[net].netsAboveHook[s].bot;
     if (! VCG[above].netsAboveReached) {
  SCC_DFSAboveVCG(VCG, above, label);
     }
 }
    }
    (*label)++;
    VCG[net].netsAboveLabel = *label;
}

void
SCC_DFSBelowVCG(nodeVCGType * VCG,
  unsigned long net,
  unsigned long label)
{
    unsigned long s;
    unsigned long below;

    VCG[net].netsBelowReached = 1;
    for (s = 0; s < VCG[net].netsBelow; s++) {
 if (! VCG[net].netsBelowHook[s].removed) {
     ((void) (0));
     below = VCG[net].netsBelowHook[s].top;
     if (! VCG[below].netsBelowReached) {
  SCC_DFSBelowVCG(VCG, below, label);
     }
 }
    }
    VCG[net].netsBelowLabel = label;
}

void
DumpSCC(unsigned long * SCC,
 unsigned long * perSCC)
{
    unsigned long net;
    unsigned long scc;

    for (scc = 1; scc <= totalSCC; scc++) {
 printf("[%d]\t", scc);
 for (net = 1; net <= channelNets; net++) {
     if (SCC[net] == scc) {
  printf("%d ", net);
     }
 }
 printf("<%d>", perSCC[scc]);
 printf("\n");
    }
    printf("\n");
}

void
AcyclicVCG(void)
{
    unsigned long done;
    unsigned long scc;
    unsigned long net;
    unsigned long top;
    unsigned long bot;
    unsigned long rep;
    unsigned long which;
    unsigned long total;
    unsigned long cycle;
    unsigned long acyclic;

    for (net = 1; net <= channelNets; net++) {
 for (which = 0; which < VCG[net].netsAbove; which++) {
     VCG[net].netsAboveHook[which].removed = 0;
 }
 for (which = 0; which < VCG[net].netsBelow; which++) {
     VCG[net].netsBelowHook[which].removed = 0;
 }
    }

    acyclic = 1;
    removeTotalVCG = 0;
    do {
 done = 1;




 DFSClearVCG(VCG);
 SCCofVCG(VCG, SCC, perSCC);
 for (scc = 1; scc <= totalSCC; scc++) {
     if (perSCC[scc] > 1) {
  acyclic = 0;
  done = 0;
  break;
     }
 }





 if (! done) {
     RemoveConstraintVCG(VCG, SCC, perSCC, removeVCG);
 }
    } while (! done);






    total = removeTotalVCG;
    for (rep = 0; rep < removeTotalVCG; rep++) {




 top = (*removeVCG[rep]).top;
 bot = (*removeVCG[rep]).bot;




 for (which = 0; which < VCG[top].netsAbove; which++) {
     if (VCG[top].netsAboveHook[which].bot == bot) {
  VCG[top].netsAboveHook[which].removed = 0;
  break;
     }
 }




 for (which = 0; which < VCG[bot].netsBelow; which++) {
     if (VCG[bot].netsBelowHook[which].top == top) {
  VCG[bot].netsBelowHook[which].removed = 0;
  break;
     }
 }




 cycle = 0;
 DFSClearVCG(VCG);
 SCCofVCG(VCG, SCC, perSCC);
 for (scc = 1; scc <= totalSCC; scc++) {
     if (perSCC[scc] > 1) {
  cycle = 1;
  break;
     }
 }
 if (cycle) {




     for (which = 0; which < VCG[top].netsAbove; which++) {
  if (VCG[top].netsAboveHook[which].bot == bot) {
      VCG[top].netsAboveHook[which].removed = 1;
      break;
  }
     }
     for (which = 0; which < VCG[bot].netsBelow; which++) {
  if (VCG[bot].netsBelowHook[which].top == top) {
      VCG[bot].netsBelowHook[which].removed = 1;
      break;
  }
     }
 }
 else {




     total--;
 }
    }

    if (acyclic) {
 printf("\n*** Input is acyclic! ***\n");
    }
    else {
 printf("\n*** Input is cyclic! ***\n");
 printf("*** VC's removed (%d) ***\n", total);
    }
}

void
RemoveConstraintVCG(nodeVCGType * VCG,
      unsigned long * SCC,
      unsigned long * perSCC,
      constraintVCGType * * removeVCG)
{
    unsigned long scc;
    unsigned long net;
    unsigned long which;
    unsigned long best;
    unsigned long weight;
    unsigned long top;
    unsigned long bot;
    unsigned long col;
    constraintVCGType * remove;

    for (scc = 1; scc <= totalSCC; scc++) {



 if (perSCC[scc] > 1) {



     remove = ((void*)0);
     best = 6 + 1;
     for (net = 1; net <= channelNets; net++) {



  if (SCC[net] == scc) {




      for (which = 0; which < VCG[net].netsAbove; which++) {
   bot = VCG[net].netsAboveHook[which].bot;
   if ((SCC[bot] == scc) && (! VCG[net].netsAboveHook[which].removed)) {
# 556 "/opt/devel/juneyoung.lee/inttoptr/llvm-test-suite-4.0/MultiSource/Benchmarks/Ptrdist/yacr2/vcg.c"
       col = VCG[net].netsAboveHook[which].col;
       weight = 0;
       if (col == 1) {
    weight += 3;
    if (TOP[col+1] && BOT[col+1]) {
        weight += 3;
    }
    else if (! (TOP[col+1] || BOT[col+1])) {
    }
    else {
        weight += 2;
    }
       }
       else if (col == channelColumns) {
    weight += 3;
    if (TOP[col-1] && BOT[col-1]) {
        weight += 3;
    }
    else if (! (TOP[col-1] || BOT[col-1])) {
    }
    else {
        weight += 2;
    }
       }
       else {
    if (TOP[col-1] && BOT[col-1]) {
        weight += 3;
    }
    else if (! (TOP[col-1] || BOT[col-1])) {
    }
    else {
        weight += 2;
    }
    if (TOP[col+1] && BOT[col+1]) {
        weight += 3;
    }
    else if (! (TOP[col+1] || BOT[col+1])) {
    }
    else {
        weight += 2;
    }
       }




       if (weight < best) {
    best = weight;
    remove = &VCG[net].netsAboveHook[which];
       }
   }
      }
  }
     }




     ((void) (0));
     fflush(stdout);
     ((void) (0));
     removeVCG[removeTotalVCG] = remove;
     removeTotalVCG++;
     top = (*remove).top;
     bot = (*remove).bot;




     (*remove).removed = 1;




     for (which = 0; which < VCG[bot].netsBelow; which++) {
  if (VCG[bot].netsBelowHook[which].top == top) {
      VCG[bot].netsBelowHook[which].removed = 1;
      break;
  }
     }
 }
    }
}

unsigned long
ExistPathAboveVCG(nodeVCGType * VCG,
    unsigned long above,
    unsigned long below)
{
    DFSClearVCG(VCG);
    DFSAboveVCG(VCG, above);
    return(VCG[below].netsAboveReached);
}

void
LongestPathVCG(nodeVCGType * VCG,
        unsigned long net)
{
    unsigned long track;
    unsigned long bot;
    unsigned long top;
    unsigned long not;






    DFSClearVCG(VCG);
    cardBotNotPref = DFSAboveLongestPathVCG(VCG, net) - 1;
    bot = cardBotNotPref;
    for (track = channelTracks; track >= 1; track--) {
 if (bot > 0) {
     tracksBotNotPref[track] = 1;
     bot--;
 }
 else {
     tracksBotNotPref[track] = 0;
 }
    }






    DFSClearVCG(VCG);
    cardTopNotPref = DFSBelowLongestPathVCG(VCG, net) - 1;
    top = cardTopNotPref;
    for (track = 1; track <= channelTracks; track++) {
 if (top > 0) {
     tracksTopNotPref[track] = 1;
     top--;
 }
 else {
     tracksTopNotPref[track] = 0;
 }
    }







    not = 0;
    for (track = 1; track <= channelTracks; track++) {
 if (tracksTopNotPref[track] || tracksBotNotPref[track]) {
     tracksNotPref[track] = 1;
     not++;
 }
 else {
     tracksNotPref[track] = 0;
 }
    }
    cardNotPref = not;
}

unsigned long
DFSAboveLongestPathVCG(nodeVCGType * VCG,
         unsigned long net)
{
    unsigned long s;
    unsigned long above;
    unsigned long path;
    unsigned long longest;

    longest = 0;
    VCG[net].netsAboveReached = 1;
    for (s = 0; s < VCG[net].netsAbove; s++) {
 if (! VCG[net].netsAboveHook[s].removed) {
     ((void) (0));
     above = VCG[net].netsAboveHook[s].bot;
     if (! VCG[above].netsAboveReached) {
  path = DFSAboveLongestPathVCG(VCG, above);
  if (path > longest) {
      longest = path;
  }
     }
 }
    }
    return(longest+1);
}

unsigned long
DFSBelowLongestPathVCG(nodeVCGType * VCG,
         unsigned long net)
{
    unsigned long s;
    unsigned long below;
    unsigned long path;
    unsigned long longest;

    longest = 0;
    VCG[net].netsBelowReached = 1;
    for (s = 0; s < VCG[net].netsBelow; s++) {
 if (! VCG[net].netsBelowHook[s].removed) {
     ((void) (0));
     below = VCG[net].netsBelowHook[s].top;
     if (! VCG[below].netsBelowReached) {
  path = DFSBelowLongestPathVCG(VCG, below);
  if (path > longest) {
      longest = path;
  }
     }
 }
    }
    return(longest+1);
}

unsigned long
VCV(nodeVCGType * VCG,
    unsigned long check,
    unsigned long track,
    unsigned long * assign)
{
    unsigned long net;
    unsigned long vcv;

    vcv = 0;
    for (net = 1; net <= channelNets; net++) {
 if (assign[net]) {
     if (assign[net] < track) {



  if (ExistPathAboveVCG(VCG, net, check)) {
      vcv++;
  }
     }
     else if (assign[net] > track) {



  if (ExistPathAboveVCG(VCG, check, net)) {
      vcv++;
  }
     }
     else {



  if (ExistPathAboveVCG(VCG, net, check) || ExistPathAboveVCG(VCG, check, net)) {
      vcv++;
  }
     }
 }
    }
    return(vcv);
}
