Benchmarks,/mnt/freezedisk/llvm-intptr-br2-correct-release/bin/clang,/mnt/freezedisk/llvm-intptr-br2-correct-release/bin/clang,/mnt/freezedisk/llvm-intptr-br2-correct-release/bin/clang,median
MultiSource/Applications/ALAC/decode/alacconvert-decode, 0.8719, 0.8735, 0.8738,0.8735
MultiSource/Applications/ALAC/encode/alacconvert-encode, 0.8737, 0.8735, 0.8738,0.8737
MultiSource/Applications/ClamAV/clamscan,13.3317,13.3068,13.3165,13.3165
MultiSource/Applications/JM/ldecod/ldecod, 5.8249, 5.8517, 5.8266,5.8266
MultiSource/Applications/JM/lencod/lencod,13.5239,13.5227,13.5277,13.5239
MultiSource/Applications/SIBsim4/SIBsim4, 1.0627, 1.0670, 1.0689,1.067
MultiSource/Applications/SPASS/SPASS,11.2245,11.2087,11.2160,11.216
MultiSource/Applications/aha/aha, 0.0915, 0.0917, 0.0915,0.0915
MultiSource/Applications/d/make_dparser, 2.3825, 2.4150, 2.4058,2.4058
MultiSource/Applications/hbd/hbd, 1.1111, 1.1106, 1.1111,1.1111
MultiSource/Applications/hexxagon/hexxagon, 0.6132, 0.6134, 0.6140,0.6134
MultiSource/Applications/kimwitu++/kc,10.0934,10.1134,10.1157,10.1134
MultiSource/Applications/lambda-0.1.3/lambda, 0.5097, 0.5100, 0.5102,0.51
MultiSource/Applications/lua/lua, 2.9954, 2.9945, 2.9963,2.9954
MultiSource/Applications/minisat/minisat, 0.5741, 0.5798, 0.5770,0.577
MultiSource/Applications/obsequi/Obsequi, 0.9163, 0.9145, 0.9124,0.9145
MultiSource/Applications/oggenc/oggenc, 4.3860, 4.3850, 4.3848,4.385
MultiSource/Applications/sgefa/sgefa, 0.3584, 0.3603, 0.3602,0.3602
MultiSource/Applications/siod/siod, 1.8300, 1.8259, 1.8342,1.83
MultiSource/Applications/spiff/spiff, 0.6981, 0.6965, 0.6971,0.6971
MultiSource/Applications/sqlite3/sqlite3,13.4095,13.3886,13.3790,13.3886
MultiSource/Applications/viterbi/viterbi, 0.1573, 0.1571, 0.1575,0.1573
MultiSource/Benchmarks/7zip/7zip-benchmark,31.2523,31.2591,31.2628,31.2591
MultiSource/Benchmarks/ASCI_Purple/SMG2000/smg2000, 5.2106, 5.2004, 5.2058,5.2058
MultiSource/Benchmarks/ASC_Sequoia/AMGmk/AMGmk, 0.5435, 0.5433, 0.5436,0.5435
MultiSource/Benchmarks/ASC_Sequoia/CrystalMk/CrystalMk, 0.2063, 0.2079, 0.2083,0.2079
MultiSource/Benchmarks/ASC_Sequoia/IRSmk/IRSmk, 0.0967, 0.0966, 0.0965,0.0966
MultiSource/Benchmarks/BitBench/drop3/drop3, 0.0404, 0.0404, 0.0404,0.0404
MultiSource/Benchmarks/BitBench/five11/five11, 0.0503, 0.0503, 0.0503,0.0503
MultiSource/Benchmarks/BitBench/uudecode/uudecode, 0.0409, 0.0410, 0.0410,0.041
MultiSource/Benchmarks/BitBench/uuencode/uuencode, 0.0403, 0.0403, 0.0404,0.0403
MultiSource/Benchmarks/Bullet/bullet,21.2387,21.2254,21.2379,21.2379
MultiSource/Benchmarks/DOE-ProxyApps-C++/CLAMR/CLAMR,16.4905,16.5073,16.5101,16.5073
MultiSource/Benchmarks/DOE-ProxyApps-C++/HPCCG/HPCCG, 1.3090, 1.3091, 1.3107,1.3091
MultiSource/Benchmarks/DOE-ProxyApps-C++/PENNANT/PENNANT, 3.7461, 3.7480, 3.7499,3.748
MultiSource/Benchmarks/DOE-ProxyApps-C++/miniFE/miniFE, 2.3626, 2.3613, 2.3615,2.3615
MultiSource/Benchmarks/DOE-ProxyApps-C/Pathfinder/PathFinder, 0.7482, 0.7477, 0.7481,0.7481
MultiSource/Benchmarks/DOE-ProxyApps-C/RSBench/rsbench, 0.3655, 0.3650, 0.3651,0.3651
MultiSource/Benchmarks/DOE-ProxyApps-C/SimpleMOC/SimpleMOC, 0.7978, 0.7977, 0.7979,0.7978
MultiSource/Benchmarks/DOE-ProxyApps-C/XSBench/XSBench, 0.3248, 0.3244, 0.3249,0.3248
MultiSource/Benchmarks/DOE-ProxyApps-C/miniAMR/miniAMR, 1.2404, 1.2400, 1.2405,1.2404
MultiSource/Benchmarks/DOE-ProxyApps-C/miniGMG/miniGMG, 0.8939, 0.8934, 0.8930,0.8934
MultiSource/Benchmarks/Fhourstones-3.1/fhourstones3.1, 0.1079, 0.1078, 0.1080,0.1079
MultiSource/Benchmarks/Fhourstones/fhourstones, 0.1512, 0.1512, 0.1511,0.1512
MultiSource/Benchmarks/FreeBench/analyzer/analyzer, 0.2219, 0.2217, 0.2219,0.2219
MultiSource/Benchmarks/FreeBench/distray/distray, 0.0864, 0.0864, 0.0864,0.0864
MultiSource/Benchmarks/FreeBench/fourinarow/fourinarow, 0.3089, 0.3088, 0.3091,0.3089
MultiSource/Benchmarks/FreeBench/mason/mason, 0.0465, 0.0465, 0.0465,0.0465
MultiSource/Benchmarks/FreeBench/neural/neural, 0.1626, 0.1624, 0.1626,0.1626
MultiSource/Benchmarks/FreeBench/pcompress2/pcompress2, 0.2296, 0.2295, 0.2297,0.2296
MultiSource/Benchmarks/FreeBench/pifft/pifft, 0.8445, 0.8442, 0.8445,0.8445
MultiSource/Benchmarks/MallocBench/cfrac/cfrac, 0.8202, 0.8199, 0.8206,0.8202
MultiSource/Benchmarks/MallocBench/espresso/espresso, 4.2097, 4.2066, 4.2090,4.209
MultiSource/Benchmarks/MallocBench/gs/gs, 3.4681, 3.4629, 3.4658,3.4658
MultiSource/Benchmarks/McCat/01-qbsort/qbsort, 0.0911, 0.0910, 0.0911,0.0911
MultiSource/Benchmarks/McCat/03-testtrie/testtrie, 0.0860, 0.0859, 0.0860,0.086
MultiSource/Benchmarks/McCat/04-bisect/bisect, 0.1207, 0.1204, 0.1207,0.1207
MultiSource/Benchmarks/McCat/05-eks/eks, 0.4809, 0.4806, 0.4810,0.4809
MultiSource/Benchmarks/McCat/08-main/main, 0.2243, 0.2245, 0.2245,0.2245
MultiSource/Benchmarks/McCat/09-vor/vor, 0.2531, 0.2530, 0.2533,0.2531
MultiSource/Benchmarks/McCat/12-IOtest/iotest, 0.0896, 0.0893, 0.0895,0.0895
MultiSource/Benchmarks/McCat/17-bintr/bintr, 0.0659, 0.0659, 0.0659,0.0659
MultiSource/Benchmarks/McCat/18-imp/imp, 0.3041, 0.3041, 0.3044,0.3041
MultiSource/Benchmarks/MiBench/automotive-basicmath/automotive-basicmath, 0.1358, 0.1356, 0.1358,0.1358
MultiSource/Benchmarks/MiBench/automotive-bitcount/automotive-bitcount, 0.2423, 0.2421, 0.2428,0.2423
MultiSource/Benchmarks/MiBench/automotive-susan/automotive-susan, 0.5811, 0.5777, 0.5840,0.5811
MultiSource/Benchmarks/MiBench/consumer-jpeg/consumer-jpeg, 4.0942, 4.0929, 4.0950,4.0942
MultiSource/Benchmarks/MiBench/consumer-lame/consumer-lame, 3.6401, 3.6371, 3.6389,3.6389
MultiSource/Benchmarks/MiBench/consumer-typeset/consumer-typeset, 8.9385, 8.9230, 8.9346,8.9346
MultiSource/Benchmarks/MiBench/network-dijkstra/network-dijkstra, 0.0393, 0.0392, 0.0392,0.0392
MultiSource/Benchmarks/MiBench/network-patricia/network-patricia, 0.0757, 0.0756, 0.0759,0.0757
MultiSource/Benchmarks/MiBench/security-rijndael/security-rijndael, 0.3664, 0.3666, 0.3665,0.3665
MultiSource/Benchmarks/MiBench/security-sha/security-sha, 0.1089, 0.1089, 0.1090,0.1089
MultiSource/Benchmarks/MiBench/telecomm-CRC32/telecomm-CRC32, 0.0331, 0.0331, 0.0332,0.0331
MultiSource/Benchmarks/MiBench/telecomm-FFT/telecomm-fft, 0.1309, 0.1306, 0.1308,0.1308
MultiSource/Benchmarks/MiBench/telecomm-adpcm/telecomm-adpcm, 0.0530, 0.0529, 0.0529,0.0529
MultiSource/Benchmarks/MiBench/telecomm-gsm/telecomm-gsm, 0.9639, 0.9640, 0.9645,0.964
MultiSource/Benchmarks/NPB-serial/is/is, 0.0600, 0.0601, 0.0601,0.0601
MultiSource/Benchmarks/Olden/bh/bh, 0.2375, 0.2376, 0.2379,0.2376
MultiSource/Benchmarks/Olden/bisort/bisort, 0.0603, 0.0601, 0.0603,0.0603
MultiSource/Benchmarks/Olden/em3d/em3d, 0.1618, 0.1654, 0.1655,0.1654
MultiSource/Benchmarks/Olden/health/health, 0.1291, 0.1289, 0.1291,0.1291
MultiSource/Benchmarks/Olden/mst/mst, 0.1187, 0.1188, 0.1189,0.1188
MultiSource/Benchmarks/Olden/perimeter/perimeter, 0.0739, 0.0742, 0.0741,0.0741
MultiSource/Benchmarks/Olden/power/power, 0.1192, 0.1195, 0.1195,0.1195
MultiSource/Benchmarks/Olden/treeadd/treeadd, 0.0539, 0.0538, 0.0540,0.0539
MultiSource/Benchmarks/Olden/tsp/tsp, 0.1200, 0.1199, 0.1199,0.1199
MultiSource/Benchmarks/Olden/voronoi/voronoi, 0.2245, 0.2243, 0.2244,0.2244
MultiSource/Benchmarks/PAQ8p/paq8p, 1.7397, 1.7363, 1.7355,1.7363
MultiSource/Benchmarks/Prolangs-C++/city/city, 0.8359, 0.8368, 0.8379,0.8368
MultiSource/Benchmarks/Prolangs-C++/employ/employ, 0.1861, 0.1861, 0.1862,0.1861
MultiSource/Benchmarks/Prolangs-C++/life/life, 0.0556, 0.0556, 0.0556,0.0556
MultiSource/Benchmarks/Prolangs-C++/ocean/ocean, 0.1008, 0.1008, 0.1008,0.1008
MultiSource/Benchmarks/Prolangs-C++/primes/primes, 0.0239, 0.0238, 0.0239,0.0239
MultiSource/Benchmarks/Prolangs-C++/simul/simul, 0.0494, 0.0496, 0.0495,0.0495
MultiSource/Benchmarks/Prolangs-C/agrep/agrep, 1.2294, 1.2287, 1.2290,1.229
MultiSource/Benchmarks/Prolangs-C/bison/mybison, 1.4911, 1.4862, 1.4867,1.4867
MultiSource/Benchmarks/Prolangs-C/gnugo/gnugo, 0.6895, 0.6891, 0.6900,0.6895
MultiSource/Benchmarks/Ptrdist/anagram/anagram, 0.0921, 0.0925, 0.0923,0.0923
MultiSource/Benchmarks/Ptrdist/bc/bc, 0.9274, 0.9267, 0.9277,0.9274
MultiSource/Benchmarks/Ptrdist/ft/ft, 0.1942, 0.1937, 0.1939,0.1939
MultiSource/Benchmarks/Ptrdist/ks/ks, 0.1340, 0.1341, 0.1340,0.134
MultiSource/Benchmarks/Ptrdist/yacr2/yacr2, 0.5592, 0.5586, 0.5592,0.5592
MultiSource/Benchmarks/SciMark2-C/scimark2, 0.3477, 0.3474, 0.3475,0.3475
MultiSource/Benchmarks/TSVC/ControlFlow-dbl/ControlFlow-dbl, 1.9593, 1.9582, 1.9582,1.9582
MultiSource/Benchmarks/TSVC/ControlFlow-flt/ControlFlow-flt, 1.6462, 1.6482, 1.6468,1.6468
MultiSource/Benchmarks/TSVC/ControlLoops-dbl/ControlLoops-dbl, 1.8719, 1.8713, 1.8829,1.8719
MultiSource/Benchmarks/TSVC/ControlLoops-flt/ControlLoops-flt, 1.5685, 1.5630, 1.5661,1.5661
MultiSource/Benchmarks/TSVC/CrossingThresholds-dbl/CrossingThresholds-dbl, 1.8324, 1.8318, 1.8336,1.8324
MultiSource/Benchmarks/TSVC/CrossingThresholds-flt/CrossingThresholds-flt, 1.5240, 1.5212, 1.5227,1.5227
MultiSource/Benchmarks/TSVC/Equivalencing-dbl/Equivalencing-dbl, 1.8354, 1.8356, 1.8373,1.8356
MultiSource/Benchmarks/TSVC/Equivalencing-flt/Equivalencing-flt, 1.5301, 1.5278, 1.5296,1.5296
MultiSource/Benchmarks/TSVC/Expansion-dbl/Expansion-dbl, 1.8679, 1.8691, 1.8680,1.868
MultiSource/Benchmarks/TSVC/Expansion-flt/Expansion-flt, 1.5658, 1.5645, 1.5661,1.5658
MultiSource/Benchmarks/TSVC/GlobalDataFlow-dbl/GlobalDataFlow-dbl, 1.8629, 1.8707, 1.8635,1.8635
MultiSource/Benchmarks/TSVC/GlobalDataFlow-flt/GlobalDataFlow-flt, 1.5474, 1.5517, 1.5523,1.5517
MultiSource/Benchmarks/TSVC/IndirectAddressing-dbl/IndirectAddressing-dbl, 1.8190, 1.8203, 1.8190,1.819
MultiSource/Benchmarks/TSVC/IndirectAddressing-flt/IndirectAddressing-flt, 1.5116, 1.5085, 1.5094,1.5094
MultiSource/Benchmarks/TSVC/InductionVariable-dbl/InductionVariable-dbl, 1.8432, 1.8424, 1.8442,1.8432
MultiSource/Benchmarks/TSVC/InductionVariable-flt/InductionVariable-flt, 1.5345, 1.5358, 1.5338,1.5345
MultiSource/Benchmarks/TSVC/LinearDependence-dbl/LinearDependence-dbl, 1.8915, 1.8934, 1.8934,1.8934
MultiSource/Benchmarks/TSVC/LinearDependence-flt/LinearDependence-flt, 1.5763, 1.5760, 1.5790,1.5763
MultiSource/Benchmarks/TSVC/LoopRerolling-dbl/LoopRerolling-dbl, 1.7970, 1.7967, 1.7987,1.797
MultiSource/Benchmarks/TSVC/LoopRerolling-flt/LoopRerolling-flt, 1.4944, 1.4875, 1.4866,1.4875
MultiSource/Benchmarks/TSVC/LoopRestructuring-dbl/LoopRestructuring-dbl, 1.8405, 1.8399, 1.8402,1.8402
MultiSource/Benchmarks/TSVC/LoopRestructuring-flt/LoopRestructuring-flt, 1.5378, 1.5378, 1.5411,1.5378
MultiSource/Benchmarks/TSVC/NodeSplitting-dbl/NodeSplitting-dbl, 1.8162, 1.8149, 1.8183,1.8162
MultiSource/Benchmarks/TSVC/NodeSplitting-flt/NodeSplitting-flt, 1.5106, 1.5057, 1.5103,1.5103
MultiSource/Benchmarks/TSVC/Packing-dbl/Packing-dbl, 1.7873, 1.7866, 1.7880,1.7873
MultiSource/Benchmarks/TSVC/Packing-flt/Packing-flt, 1.4798, 1.4877, 1.4807,1.4807
MultiSource/Benchmarks/TSVC/Recurrences-dbl/Recurrences-dbl, 1.7894, 1.7887, 1.7875,1.7887
MultiSource/Benchmarks/TSVC/Recurrences-flt/Recurrences-flt, 1.4849, 1.4825, 1.4832,1.4832
MultiSource/Benchmarks/TSVC/Reductions-dbl/Reductions-dbl, 1.8795, 1.8828, 1.8811,1.8811
MultiSource/Benchmarks/TSVC/Reductions-flt/Reductions-flt, 1.5705, 1.5714, 1.5743,1.5714
MultiSource/Benchmarks/TSVC/Searching-dbl/Searching-dbl, 1.7776, 1.7773, 1.7785,1.7776
MultiSource/Benchmarks/TSVC/Searching-flt/Searching-flt, 1.4733, 1.4715, 1.4726,1.4726
MultiSource/Benchmarks/TSVC/StatementReordering-dbl/StatementReordering-dbl, 1.7887, 1.7967, 1.7871,1.7887
MultiSource/Benchmarks/TSVC/StatementReordering-flt/StatementReordering-flt, 1.4839, 1.4824, 1.4826,1.4826
MultiSource/Benchmarks/TSVC/Symbolics-dbl/Symbolics-dbl, 1.8291, 1.8286, 1.8294,1.8291
MultiSource/Benchmarks/TSVC/Symbolics-flt/Symbolics-flt, 1.5162, 1.5192, 1.5230,1.5192
MultiSource/Benchmarks/Trimaran/enc-3des/enc-3des, 0.2198, 0.2199, 0.2200,0.2199
MultiSource/Benchmarks/Trimaran/enc-md5/enc-md5, 0.1373, 0.1375, 0.1375,0.1375
MultiSource/Benchmarks/Trimaran/enc-pc1/enc-pc1, 0.0601, 0.0600, 0.0600,0.06
MultiSource/Benchmarks/Trimaran/enc-rc4/enc-rc4, 0.0467, 0.0467, 0.0466,0.0467
MultiSource/Benchmarks/Trimaran/netbench-crc/netbench-crc, 0.0723, 0.0724, 0.0722,0.0723
MultiSource/Benchmarks/Trimaran/netbench-url/netbench-url, 0.1915, 0.1917, 0.1917,0.1917
MultiSource/Benchmarks/VersaBench/8b10b/8b10b, 0.0710, 0.0708, 0.0709,0.0709
MultiSource/Benchmarks/VersaBench/beamformer/beamformer, 0.2767, 0.2765, 0.2767,0.2767
MultiSource/Benchmarks/VersaBench/bmm/bmm, 0.0475, 0.0475, 0.0476,0.0475
MultiSource/Benchmarks/VersaBench/dbms/dbms, 0.9089, 0.9093, 0.9101,0.9093
MultiSource/Benchmarks/VersaBench/ecbdes/ecbdes, 0.1969, 0.1967, 0.1969,0.1969
MultiSource/Benchmarks/llubenchmark/llu, 0.0442, 0.0441, 0.0443,0.0442
MultiSource/Benchmarks/mafft/pairlocalalign, 7.9852, 7.9830, 7.9852,7.9852
MultiSource/Benchmarks/mediabench/adpcm/rawcaudio/rawcaudio, 0.0530, 0.0531, 0.0531,0.0531
MultiSource/Benchmarks/mediabench/adpcm/rawdaudio/rawdaudio, 0.0528, 0.0528, 0.0529,0.0528
MultiSource/Benchmarks/mediabench/g721/g721encode/encode, 0.1848, 0.1851, 0.1848,0.1848
MultiSource/Benchmarks/mediabench/gsm/toast/toast, 0.9646, 0.9640, 0.9649,0.9646
MultiSource/Benchmarks/mediabench/jpeg/jpeg-6a/cjpeg, 4.1319, 4.1314, 4.1344,4.1319
MultiSource/Benchmarks/mediabench/mpeg2/mpeg2dec/mpeg2decode, 1.2281, 1.2278, 1.2279,1.2279
MultiSource/Benchmarks/nbench/nbench, 1.0260, 1.0259, 1.0262,1.026
MultiSource/Benchmarks/sim/sim, 0.2594, 0.2594, 0.2595,0.2594
MultiSource/Benchmarks/tramp3d-v4/tramp3d-v4,18.4448,18.4527,18.4565,18.4527
SingleSource/Benchmarks/Adobe-C++/functionobjects, 0.4206, 0.4206, 0.4205,0.4206
SingleSource/Benchmarks/Adobe-C++/loop_unroll, 3.9350, 3.9410, 3.9329,3.935
SingleSource/Benchmarks/Adobe-C++/simple_types_constant_folding, 2.2405, 2.2418, 2.2407,2.2407
SingleSource/Benchmarks/Adobe-C++/simple_types_loop_invariant, 1.8126, 1.8139, 1.8113,1.8126
SingleSource/Benchmarks/Adobe-C++/stepanov_abstraction, 0.5018, 0.5019, 0.5019,0.5019
SingleSource/Benchmarks/Adobe-C++/stepanov_vector, 0.7844, 0.7863, 0.7868,0.7863
SingleSource/Benchmarks/BenchmarkGame/Large/fasta, 0.0510, 0.0548, 0.0524,0.0524
SingleSource/Benchmarks/BenchmarkGame/fannkuch, 0.0482, 0.0482, 0.0483,0.0482
SingleSource/Benchmarks/BenchmarkGame/n-body, 0.0660, 0.0659, 0.0660,0.066
SingleSource/Benchmarks/BenchmarkGame/nsieve-bits, 0.0303, 0.0304, 0.0305,0.0304
SingleSource/Benchmarks/BenchmarkGame/partialsums, 0.0284, 0.0284, 0.0284,0.0284
SingleSource/Benchmarks/BenchmarkGame/puzzle, 0.0519, 0.0519, 0.0520,0.0519
SingleSource/Benchmarks/BenchmarkGame/recursive, 0.0252, 0.0251, 0.0252,0.0252
SingleSource/Benchmarks/BenchmarkGame/spectral-norm, 0.0511, 0.0511, 0.0510,0.0511
SingleSource/Benchmarks/CoyoteBench/almabench, 0.0619, 0.0619, 0.0619,0.0619
SingleSource/Benchmarks/CoyoteBench/fftbench, 0.5634, 0.5515, 0.5545,0.5545
SingleSource/Benchmarks/CoyoteBench/huffbench, 0.0791, 0.0792, 0.0792,0.0792
SingleSource/Benchmarks/CoyoteBench/lpbench, 0.1390, 0.1391, 0.1390,0.139
SingleSource/Benchmarks/Dhrystone/dry, 0.0455, 0.0450, 0.0484,0.0455
SingleSource/Benchmarks/Dhrystone/fldry, 0.0414, 0.0414, 0.0414,0.0414
SingleSource/Benchmarks/Linpack/linpack-pc, 0.2820, 0.2821, 0.2820,0.282
SingleSource/Benchmarks/McGill/chomp, 0.1724, 0.1721, 0.1723,0.1723
SingleSource/Benchmarks/McGill/misr, 0.0499, 0.0499, 0.0500,0.0499
SingleSource/Benchmarks/McGill/queens, 0.0422, 0.0422, 0.0422,0.0422
SingleSource/Benchmarks/Misc-C++-EH/spirit, 3.3842, 3.3783, 3.3791,3.3791
SingleSource/Benchmarks/Misc-C++/Large/ray, 0.2036, 0.2108, 0.2194,0.2108
SingleSource/Benchmarks/Misc-C++/Large/sphereflake, 0.2035, 0.2036, 0.2036,0.2036
SingleSource/Benchmarks/Misc-C++/bigfib, 0.4313, 0.4328, 0.4339,0.4328
SingleSource/Benchmarks/Misc-C++/mandel-text, 0.0231, 0.0230, 0.0231,0.0231
SingleSource/Benchmarks/Misc-C++/oopack_v1p8, 0.1170, 0.1160, 0.1238,0.117
SingleSource/Benchmarks/Misc-C++/stepanov_container, 0.6637, 0.6629, 0.6706,0.6637
SingleSource/Benchmarks/Misc-C++/stepanov_v1p2, 0.1591, 0.1593, 0.1592,0.1592
SingleSource/Benchmarks/Misc/ReedSolomon, 0.1737, 0.1738, 0.1737,0.1737
SingleSource/Benchmarks/Misc/dt, 0.0306, 0.0306, 0.0306,0.0306
SingleSource/Benchmarks/Misc/evalloop, 0.0341, 0.0342, 0.0341,0.0341
SingleSource/Benchmarks/Misc/fbench, 0.0505, 0.0505, 0.0505,0.0505
SingleSource/Benchmarks/Misc/ffbench, 0.0626, 0.0625, 0.0625,0.0625
SingleSource/Benchmarks/Misc/flops, 0.0720, 0.0719, 0.0719,0.0719
SingleSource/Benchmarks/Misc/flops-1, 0.0258, 0.0258, 0.0257,0.0258
SingleSource/Benchmarks/Misc/flops-2, 0.0267, 0.0266, 0.0266,0.0266
SingleSource/Benchmarks/Misc/flops-3, 0.0256, 0.0256, 0.0256,0.0256
SingleSource/Benchmarks/Misc/flops-4, 0.0261, 0.0261, 0.0261,0.0261
SingleSource/Benchmarks/Misc/flops-5, 0.0267, 0.0265, 0.0266,0.0266
SingleSource/Benchmarks/Misc/flops-6, 0.0267, 0.0267, 0.0267,0.0267
SingleSource/Benchmarks/Misc/flops-7, 0.0255, 0.0255, 0.0255,0.0255
SingleSource/Benchmarks/Misc/flops-8, 0.0267, 0.0267, 0.0267,0.0267
SingleSource/Benchmarks/Misc/fp-convert, 0.0286, 0.0286, 0.0286,0.0286
SingleSource/Benchmarks/Misc/himenobmtxpa, 0.1588, 0.1587, 0.1588,0.1588
SingleSource/Benchmarks/Misc/lowercase, 0.0243, 0.0241, 0.0242,0.0242
SingleSource/Benchmarks/Misc/mandel, 0.0414, 0.0414, 0.0414,0.0414
SingleSource/Benchmarks/Misc/mandel-2, 0.0542, 0.0493, 0.0496,0.0496
SingleSource/Benchmarks/Misc/matmul_f64_4x4, 0.0269, 0.0269, 0.0269,0.0269
SingleSource/Benchmarks/Misc/oourafft, 0.2078, 0.2018, 0.2067,0.2067
SingleSource/Benchmarks/Misc/perlin, 0.0423, 0.0423, 0.0423,0.0423
SingleSource/Benchmarks/Misc/pi, 0.0203, 0.0203, 0.0203,0.0203
SingleSource/Benchmarks/Misc/revertBits, 0.0243, 0.0243, 0.0243,0.0243
SingleSource/Benchmarks/Misc/richards_benchmark, 0.0592, 0.0591, 0.0593,0.0592
SingleSource/Benchmarks/Misc/salsa20, 0.0505, 0.0506, 0.0505,0.0505
SingleSource/Benchmarks/Misc/whetstone, 0.0626, 0.0626, 0.0625,0.0626
SingleSource/Benchmarks/Polybench/datamining/correlation/correlation, 0.0709, 0.0708, 0.0709,0.0709
SingleSource/Benchmarks/Polybench/datamining/covariance/covariance, 0.0779, 0.0779, 0.0780,0.0779
SingleSource/Benchmarks/Polybench/linear-algebra/kernels/atax/atax, 0.0743, 0.0743, 0.0744,0.0743
SingleSource/Benchmarks/Polybench/linear-algebra/kernels/bicg/bicg, 0.0729, 0.0728, 0.0729,0.0729
SingleSource/Benchmarks/Polybench/linear-algebra/kernels/cholesky/cholesky, 0.0857, 0.0855, 0.0856,0.0856
SingleSource/Benchmarks/Polybench/linear-algebra/kernels/doitgen/doitgen, 0.0903, 0.0903, 0.0903,0.0903
SingleSource/Benchmarks/Polybench/linear-algebra/kernels/gemver/gemver, 0.0843, 0.0842, 0.0843,0.0843
SingleSource/Benchmarks/Polybench/linear-algebra/kernels/gesummv/gesummv, 0.0625, 0.0624, 0.0624,0.0624
SingleSource/Benchmarks/Polybench/linear-algebra/kernels/mvt/mvt, 0.0750, 0.0749, 0.0750,0.075
SingleSource/Benchmarks/Polybench/linear-algebra/kernels/symm/symm, 0.0714, 0.0712, 0.0713,0.0713
SingleSource/Benchmarks/Polybench/linear-algebra/kernels/syr2k/syr2k, 0.0725, 0.0726, 0.0726,0.0726
SingleSource/Benchmarks/Polybench/linear-algebra/kernels/syrk/syrk, 0.0711, 0.0711, 0.0711,0.0711
SingleSource/Benchmarks/Polybench/linear-algebra/kernels/trisolv/trisolv, 0.0591, 0.0591, 0.0592,0.0591
SingleSource/Benchmarks/Polybench/linear-algebra/kernels/trmm/trmm, 0.0674, 0.0672, 0.0673,0.0673
SingleSource/Benchmarks/Polybench/linear-algebra/solvers/durbin/durbin, 0.0817, 0.0816, 0.0816,0.0816
SingleSource/Benchmarks/Polybench/linear-algebra/solvers/dynprog/dynprog, 0.0680, 0.0680, 0.0679,0.068
SingleSource/Benchmarks/Polybench/linear-algebra/solvers/gramschmidt/gramschmidt, 0.0948, 0.0948, 0.0948,0.0948
SingleSource/Benchmarks/Polybench/linear-algebra/solvers/lu/lu, 0.0830, 0.0830, 0.0831,0.083
SingleSource/Benchmarks/Polybench/medley/floyd-warshall/floyd-warshall, 0.0702, 0.0703, 0.0702,0.0702
SingleSource/Benchmarks/Polybench/medley/reg_detect/reg_detect, 0.3848, 0.3845, 0.3849,0.3848
SingleSource/Benchmarks/Polybench/stencils/adi/adi, 0.0835, 0.0834, 0.0834,0.0834
SingleSource/Benchmarks/Polybench/stencils/fdtd-2d/fdtd-2d, 0.1274, 0.1273, 0.1274,0.1274
SingleSource/Benchmarks/Polybench/stencils/fdtd-apml/fdtd-apml, 0.1215, 0.1214, 0.1216,0.1215
SingleSource/Benchmarks/Polybench/stencils/jacobi-1d-imper/jacobi-1d-imper, 0.0779, 0.0778, 0.0779,0.0779
SingleSource/Benchmarks/Polybench/stencils/jacobi-2d-imper/jacobi-2d-imper, 0.1044, 0.1042, 0.1043,0.1043
SingleSource/Benchmarks/Polybench/stencils/seidel-2d/seidel-2d, 0.0651, 0.0650, 0.0651,0.0651
SingleSource/Benchmarks/Shootout-C++/EH/except, 0.1419, 0.1415, 0.1394,0.1415
SingleSource/Benchmarks/Shootout-C++/ackermann, 0.1092, 0.1092, 0.1093,0.1092
SingleSource/Benchmarks/Shootout-C++/ary, 0.1436, 0.1435, 0.1436,0.1436
SingleSource/Benchmarks/Shootout-C++/ary2, 0.1449, 0.1449, 0.1450,0.1449
SingleSource/Benchmarks/Shootout-C++/ary3, 0.1468, 0.1468, 0.1470,0.1468
SingleSource/Benchmarks/Shootout-C++/fibo, 0.1075, 0.1073, 0.1075,0.1075
SingleSource/Benchmarks/Shootout-C++/hash, 0.2487, 0.2488, 0.2488,0.2488
SingleSource/Benchmarks/Shootout-C++/hash2, 0.3178, 0.3216, 0.3174,0.3178
SingleSource/Benchmarks/Shootout-C++/heapsort, 0.1224, 0.1226, 0.1226,0.1226
SingleSource/Benchmarks/Shootout-C++/lists, 0.1589, 0.1615, 0.1576,0.1589
SingleSource/Benchmarks/Shootout-C++/lists1, 0.1792, 0.1792, 0.1793,0.1792
SingleSource/Benchmarks/Shootout-C++/matrix, 0.1707, 0.1707, 0.1708,0.1707
SingleSource/Benchmarks/Shootout-C++/methcall, 0.1158, 0.1158, 0.1159,0.1158
SingleSource/Benchmarks/Shootout-C++/moments, 0.3681, 0.3466, 0.3940,0.3681
SingleSource/Benchmarks/Shootout-C++/nestedloop, 0.1083, 0.1083, 0.1084,0.1083
SingleSource/Benchmarks/Shootout-C++/objinst, 0.1314, 0.1312, 0.1315,0.1314
SingleSource/Benchmarks/Shootout-C++/random, 0.1164, 0.1166, 0.1167,0.1166
SingleSource/Benchmarks/Shootout-C++/sieve, 0.1676, 0.1677, 0.1680,0.1677
SingleSource/Benchmarks/Shootout-C++/strcat, 0.1170, 0.1170, 0.1171,0.117
SingleSource/Benchmarks/Shootout/ackermann, 0.0224, 0.0224, 0.0224,0.0224
SingleSource/Benchmarks/Shootout/ary3, 0.0326, 0.0326, 0.0326,0.0326
SingleSource/Benchmarks/Shootout/fib2, 0.0190, 0.0190, 0.0191,0.019
SingleSource/Benchmarks/Shootout/hash, 0.0479, 0.0479, 0.0479,0.0479
SingleSource/Benchmarks/Shootout/heapsort, 0.0369, 0.0368, 0.0369,0.0369
SingleSource/Benchmarks/Shootout/lists, 0.0623, 0.0622, 0.0623,0.0623
SingleSource/Benchmarks/Shootout/matrix, 0.0763, 0.0762, 0.0763,0.0763
SingleSource/Benchmarks/Shootout/methcall, 0.0299, 0.0299, 0.0299,0.0299
SingleSource/Benchmarks/Shootout/nestedloop, 0.0231, 0.0231, 0.0232,0.0231
SingleSource/Benchmarks/Shootout/objinst, 0.0353, 0.0354, 0.0353,0.0353
SingleSource/Benchmarks/Shootout/random, 0.0284, 0.0285, 0.0284,0.0284
SingleSource/Benchmarks/Shootout/sieve, 0.0242, 0.0242, 0.0242,0.0242
SingleSource/Benchmarks/Shootout/strcat, 0.0260, 0.0260, 0.0260,0.026
SingleSource/Benchmarks/SmallPT/smallpt, 0.0923, 0.0923, 0.0923,0.0923
SingleSource/Benchmarks/Stanford/Bubblesort, 0.0320, 0.0320, 0.0320,0.032
SingleSource/Benchmarks/Stanford/FloatMM, 0.0496, 0.0496, 0.0497,0.0496
SingleSource/Benchmarks/Stanford/Oscar, 0.0627, 0.0627, 0.0627,0.0627
SingleSource/Benchmarks/Stanford/Perm, 0.0296, 0.0296, 0.0296,0.0296
SingleSource/Benchmarks/Stanford/Puzzle, 0.1022, 0.1022, 0.1022,0.1022
SingleSource/Benchmarks/Stanford/Queens, 0.0418, 0.0419, 0.0419,0.0419
SingleSource/Benchmarks/Stanford/Quicksort, 0.0351, 0.0352, 0.0351,0.0351
SingleSource/Benchmarks/Stanford/RealMM, 0.0468, 0.0469, 0.0469,0.0469
SingleSource/Benchmarks/Stanford/Towers, 0.0451, 0.0450, 0.0451,0.0451
SingleSource/Benchmarks/Stanford/Treesort, 0.0361, 0.0361, 0.0362,0.0361
SingleSource/Regression/C/2004-08-12-InlinerAndAllocas, 0.0188, 0.0188, 0.0189,0.0188
SingleSource/Regression/C/uint64_to_float, 0.0601, 0.0603, 0.0600,0.0601
Total elapsed time,-,-,-,337.6632999999999
Total failure,-,-,-,0
