Benchmarks,/mnt/freezedisk/llvm-intptr-base-5.0-release/bin/clang,/mnt/freezedisk/llvm-intptr-base-5.0-release/bin/clang,/mnt/freezedisk/llvm-intptr-base-5.0-release/bin/clang,median,/mnt/freezedisk/llvm-intptr-br2-correct-release/bin/clang,/mnt/freezedisk/llvm-intptr-br2-correct-release/bin/clang,/mnt/freezedisk/llvm-intptr-br2-correct-release/bin/clang,median
MultiSource/Applications/ALAC/decode/alacconvert-decode, 0.8565, 0.8569, 0.8547,0.8565, 0.8603, 0.8605, 0.8638,0.8605
MultiSource/Applications/ALAC/encode/alacconvert-encode, 0.8578, 0.8570, 0.8548,0.857, 0.8612, 0.8613, 0.8633,0.8613
MultiSource/Applications/ClamAV/clamscan,12.9937,12.9935,12.9860,12.9935,13.0163,13.0221,13.0427,13.0221
MultiSource/Applications/JM/ldecod/ldecod, 5.6739, 5.6717, 5.6771,5.6739, 5.6895, 5.6935, 5.6964,5.6935
MultiSource/Applications/JM/lencod/lencod,13.2944,13.2996,13.2901,13.2944,13.3573,13.3476,13.3625,13.3573
MultiSource/Applications/SIBsim4/SIBsim4, 1.0351, 1.0347, 1.0345,1.0347, 1.0379, 1.0389, 1.0401,1.0389
MultiSource/Applications/SPASS/SPASS,11.0359,11.0351,11.0168,11.0351,11.0648,11.0701,11.0703,11.0701
MultiSource/Applications/d/make_dparser, 2.3351, 2.3364, 2.3303,2.3351, 2.3288, 2.3286, 2.3319,2.3288
MultiSource/Applications/hbd/hbd, 1.0940, 1.0911, 1.0930,1.093, 1.0958, 1.0946, 1.0982,1.0958
MultiSource/Applications/hexxagon/hexxagon, 0.6053, 0.6064, 0.6050,0.6053, 0.6101, 0.6107, 0.6108,0.6107
MultiSource/Applications/kimwitu++/kc,10.0896,10.0878,10.0639,10.0878,10.1171,10.1029,10.0953,10.1029
MultiSource/Applications/lambda-0.1.3/lambda, 0.5040, 0.5034, 0.5027,0.5034, 0.5060, 0.5058, 0.5069,0.506
MultiSource/Applications/lua/lua, 2.9301, 2.9317, 2.9254,2.9301, 2.9581, 2.9601, 2.9628,2.9601
MultiSource/Applications/minisat/minisat, 0.5482, 0.5491, 0.5490,0.549, 0.5598, 0.5585, 0.5603,0.5598
MultiSource/Applications/oggenc/oggenc, 4.4045, 4.3990, 4.4047,4.4045, 4.4086, 4.4112, 4.4224,4.4112
MultiSource/Applications/siod/siod, 1.7768, 1.7754, 1.7732,1.7754, 1.7712, 1.7703, 1.7730,1.7712
MultiSource/Applications/spiff/spiff, 0.6833, 0.6827, 0.6827,0.6827, 0.6866, 0.6873, 0.6874,0.6873
MultiSource/Applications/sqlite3/sqlite3,13.5996,13.6016,13.6037,13.6016,13.6224,13.6641,13.6093,13.6224
MultiSource/Benchmarks/7zip/7zip-benchmark,30.6786,30.8041,30.7512,30.7512,30.6865,30.9130,30.9333,30.913
MultiSource/Benchmarks/ASCI_Purple/SMG2000/smg2000, 5.0904, 5.0888, 5.0857,5.0888, 5.1131, 5.1197, 5.1215,5.1197
MultiSource/Benchmarks/Bullet/bullet,20.8266,20.9475,20.9128,20.9128,20.9397,21.0419,21.0733,21.0419
MultiSource/Benchmarks/DOE-ProxyApps-C++/CLAMR/CLAMR,16.4431,16.4327,16.3991,16.4327,16.5028,16.5031,16.5085,16.5031
MultiSource/Benchmarks/DOE-ProxyApps-C++/HPCCG/HPCCG, 1.2597, 1.2899, 1.2882,1.2882, 1.2999, 1.2989, 1.3025,1.2999
MultiSource/Benchmarks/DOE-ProxyApps-C++/PENNANT/PENNANT, 3.6716, 3.6979, 3.6948,3.6948, 3.7184, 3.7207, 3.7237,3.7207
MultiSource/Benchmarks/DOE-ProxyApps-C++/miniFE/miniFE, 2.3407, 2.3497, 2.3478,2.3478, 2.3600, 2.3671, 2.3604,2.3604
MultiSource/Benchmarks/DOE-ProxyApps-C/Pathfinder/PathFinder, 0.7373, 0.7370, 0.7346,0.737, 0.7399, 0.7386, 0.7398,0.7398
MultiSource/Benchmarks/MallocBench/cfrac/cfrac, 0.8073, 0.8052, 0.8041,0.8052, 0.8086, 0.8119, 0.8117,0.8117
MultiSource/Benchmarks/MallocBench/espresso/espresso, 4.1322, 4.1286, 4.1246,4.1286, 4.1454, 4.1489, 4.1506,4.1489
MultiSource/Benchmarks/MallocBench/gs/gs, 3.4251, 3.4206, 3.4159,3.4206, 3.4340, 3.4356, 3.4346,3.4346
MultiSource/Benchmarks/McCat/05-eks/eks, 0.4707, 0.4700, 0.4700,0.47, 0.4724, 0.4734, 0.4731,0.4731
MultiSource/Benchmarks/McCat/08-main/main, 0.2184, 0.2181, 0.2178,0.2181, 0.2222, 0.2226, 0.2222,0.2222
MultiSource/Benchmarks/McCat/09-vor/vor, 0.2522, 0.2513, 0.2509,0.2513, 0.2506, 0.2514, 0.2511,0.2511
MultiSource/Benchmarks/MiBench/consumer-jpeg/consumer-jpeg, 3.9733, 4.0217, 4.0214,4.0214, 4.0298, 4.0301, 4.0329,4.0301
MultiSource/Benchmarks/MiBench/consumer-lame/consumer-lame, 3.5118, 3.5629, 3.5578,3.5578, 3.5819, 3.5821, 3.5853,3.5821
MultiSource/Benchmarks/MiBench/consumer-typeset/consumer-typeset, 8.9003, 8.9041, 8.9033,8.9033, 8.8471, 8.8589, 8.8679,8.8589
MultiSource/Benchmarks/Olden/mst/mst, 0.1139, 0.1134, 0.1135,0.1135, 0.1178, 0.1179, 0.1180,0.1179
MultiSource/Benchmarks/Olden/tsp/tsp, 0.1187, 0.1184, 0.1186,0.1186, 0.1169, 0.1186, 0.1183,0.1183
MultiSource/Benchmarks/Olden/voronoi/voronoi, 0.2208, 0.2209, 0.2205,0.2208, 0.2220, 0.2223, 0.2225,0.2223
MultiSource/Benchmarks/PAQ8p/paq8p, 1.7219, 1.7184, 1.7198,1.7198, 1.7267, 1.7295, 1.7282,1.7282
MultiSource/Benchmarks/Prolangs-C++/city/city, 0.8286, 0.8297, 0.8275,0.8286, 0.8359, 0.8345, 0.8381,0.8359
MultiSource/Benchmarks/Prolangs-C++/employ/employ, 0.1844, 0.1849, 0.1845,0.1845, 0.1860, 0.1861, 0.1861,0.1861
MultiSource/Benchmarks/Prolangs-C/agrep/agrep, 1.2031, 1.2014, 1.1988,1.2014, 1.2072, 1.2081, 1.2087,1.2081
MultiSource/Benchmarks/Prolangs-C/bison/mybison, 1.4598, 1.4604, 1.4588,1.4598, 1.4673, 1.4657, 1.4691,1.4673
MultiSource/Benchmarks/Ptrdist/bc/bc, 0.9120, 0.9130, 0.9117,0.912, 0.9126, 0.9134, 0.9141,0.9134
MultiSource/Benchmarks/Ptrdist/ks/ks, 0.1317, 0.1318, 0.1314,0.1317, 0.1323, 0.1326, 0.1322,0.1323
MultiSource/Benchmarks/Ptrdist/yacr2/yacr2, 0.5497, 0.5505, 0.5474,0.5497, 0.5509, 0.5507, 0.5512,0.5509
MultiSource/Benchmarks/SciMark2-C/scimark2, 0.3429, 0.3418, 0.3417,0.3418, 0.3425, 0.3441, 0.3436,0.3436
MultiSource/Benchmarks/Trimaran/enc-3des/enc-3des, 0.2123, 0.2140, 0.2141,0.214, 0.2140, 0.2160, 0.2167,0.216
MultiSource/Benchmarks/VersaBench/dbms/dbms, 0.8969, 0.8946, 0.8938,0.8946, 0.8984, 0.8995, 0.8985,0.8985
MultiSource/Benchmarks/mafft/pairlocalalign, 7.8611, 7.8619, 7.8539,7.8611, 7.8835, 7.8826, 7.8940,7.8835
MultiSource/Benchmarks/mediabench/jpeg/jpeg-6a/cjpeg, 4.0641, 4.0598, 4.0558,4.0598, 4.0701, 4.0690, 4.0714,4.0701
MultiSource/Benchmarks/sim/sim, 0.2552, 0.2555, 0.2549,0.2552, 0.2558, 0.2567, 0.2560,0.256
MultiSource/Benchmarks/tramp3d-v4/tramp3d-v4,18.5736,18.6171,18.5789,18.5789,18.6491,18.7217,18.7062,18.7062
SingleSource/Benchmarks/Adobe-C++/functionobjects, 0.4130, 0.4143, 0.4124,0.413, 0.4166, 0.4153, 0.4163,0.4163
SingleSource/Benchmarks/Adobe-C++/stepanov_abstraction, 0.5537, 0.5544, 0.5529,0.5537, 0.4968, 0.4976, 0.4975,0.4975
SingleSource/Benchmarks/Adobe-C++/stepanov_vector, 0.6684, 0.6697, 0.6663,0.6684, 0.7768, 0.7763, 0.7762,0.7763
SingleSource/Benchmarks/Misc-C++-EH/spirit, 3.3071, 3.3114, 3.3021,3.3071, 3.3116, 3.3056, 3.3137,3.3116
SingleSource/Benchmarks/Misc-C++/Large/ray, 0.1932, 0.1938, 0.1930,0.1932, 0.1952, 0.1954, 0.1956,0.1954
SingleSource/Benchmarks/Misc-C++/bigfib, 0.4043, 0.4041, 0.4034,0.4041, 0.4055, 0.4070, 0.4069,0.4069
SingleSource/Benchmarks/Misc-C++/stepanov_container, 0.6068, 0.6070, 0.6081,0.607, 0.6043, 0.6049, 0.6068,0.6049
SingleSource/Benchmarks/Shootout-C++/hash, 0.2452, 0.2464, 0.2458,0.2458, 0.2464, 0.2464, 0.2467,0.2464
SingleSource/Benchmarks/Shootout-C++/hash2, 0.2777, 0.2782, 0.2783,0.2782, 0.2790, 0.2789, 0.2789,0.2789
SingleSource/Benchmarks/Shootout-C++/lists, 0.1471, 0.1474, 0.1470,0.1471, 0.1484, 0.1484, 0.1485,0.1484
SingleSource/Benchmarks/Shootout-C++/lists1, 0.1824, 0.1825, 0.1820,0.1824, 0.1823, 0.1822, 0.1822,0.1822
SingleSource/Benchmarks/Shootout-C++/moments, 0.2237, 0.2239, 0.2244,0.2239, 0.2251, 0.2260, 0.2261,0.226
SingleSource/Benchmarks/Shootout-C++/sieve, 0.1684, 0.1682, 0.1675,0.1682, 0.1693, 0.1689, 0.1694,0.1693
SingleSource/Benchmarks/Stanford/Oscar, 0.0576, 0.0575, 0.0574,0.0575, 0.0619, 0.0622, 0.0620,0.062
Total elapsed time,-,-,-,333.8871000000001,-,-,-,335.42929999999967
Total failure,-,-,-,0,-,-,-,0
