Benchmarks,base-5.0,base-5.0,base-5.0,median,br2-correct,br2-correct,br2-correct,median,Slowdown(%)
SingleSource/Benchmarks/Misc-C++-EH/spirit, 2.6178, 2.6198, 2.6170,2.6178, 2.6829, 2.6833, 2.6826,2.6829,2.4868209947284114
MultiSource/Benchmarks/Bullet/bullet, 3.2562, 3.2524, 3.2525,3.2525, 3.3298, 3.3281, 3.3294,3.3294,2.364335126825523
MultiSource/Benchmarks/sim/sim, 2.6350, 2.6314, 2.6329,2.6329, 2.6876, 2.6957, 2.6927,2.6927,2.271259827566574
SingleSource/Benchmarks/Polybench/linear-algebra/solvers/durbin/durbin, 0.3981, 0.4073, 0.3975,0.3981, 0.3977, 0.4070, 0.4069,0.4069,2.2104998744034043
SingleSource/Benchmarks/CoyoteBench/fftbench, 0.6397, 0.6371, 0.6304,0.6371, 0.6506, 0.6533, 0.6434,0.6506,2.1189766127766463
MultiSource/Benchmarks/BitBench/drop3/drop3, 0.1820, 0.1796, 0.1857,0.182, 0.1873, 0.1827, 0.1855,0.1855,1.9230769230769162
MultiSource/Benchmarks/Fhourstones/fhourstones, 0.5631, 0.5559, 0.5684,0.5631, 0.5719, 0.5723, 0.5631,0.5719,1.562777481797184
SingleSource/Benchmarks/Polybench/linear-algebra/kernels/symm/symm,16.3860,16.0303,16.2173,16.2173,16.3850,16.4659,16.5343,16.4659,1.5329308824526766
MultiSource/Benchmarks/BitBench/five11/five11, 1.1084, 1.1063, 1.1046,1.1063, 1.1221, 1.1272, 1.1109,1.1221,1.4281840368796983
MultiSource/Applications/lambda-0.1.3/lambda, 2.6388, 2.6422, 2.6392,2.6392, 2.6747, 2.6753, 2.6753,2.6753,1.3678387390118063
SingleSource/Benchmarks/Polybench/linear-algebra/kernels/doitgen/doitgen, 0.7804, 0.7805, 0.7804,0.7804, 0.7947, 0.7909, 0.7804,0.7909,1.3454638646847927
MultiSource/Applications/minisat/minisat, 4.1450, 4.1343, 4.1801,4.145, 4.1917, 4.1945, 4.1996,4.1945,1.1942098914354604
SingleSource/Benchmarks/Misc/whetstone, 1.0198, 1.0198, 1.0274,1.0198, 1.0274, 1.0274, 1.0198,1.0274,0.7452441655226627
SingleSource/Benchmarks/Misc/flops-6, 3.4194, 3.3937, 3.3943,3.3943, 3.3943, 3.4418, 3.4194,3.4194,0.7394750022095886
SingleSource/Benchmarks/Shootout-C++/hash2, 1.7124, 1.7149, 1.7146,1.7146, 1.7268, 1.7270, 1.7269,1.7269,0.7173684824449023
SingleSource/Benchmarks/BenchmarkGame/Large/fasta, 0.6445, 0.6444, 0.6476,0.6445, 0.6488, 0.6450, 0.6494,0.6488,0.6671838634600524
MultiSource/Benchmarks/MallocBench/cfrac/cfrac, 0.7594, 0.7595, 0.7593,0.7594, 0.7625, 0.7624, 0.7627,0.7625,0.4082170134316554
MultiSource/Applications/kimwitu++/kc, 0.0283, 0.0281, 0.0281,0.0281, 0.0282, 0.0282, 0.0281,0.0282,0.3558718861209842
SingleSource/Benchmarks/Misc-C++/stepanov_container, 3.0954, 3.0930, 3.0710,3.093, 3.1121, 3.1040, 3.0881,3.104,0.3556417717426541
MultiSource/Benchmarks/Ptrdist/bc/bc, 0.3637, 0.3637, 0.3635,0.3637, 0.3649, 0.3649, 0.3652,0.3649,0.3299422601044766
MultiSource/Applications/JM/ldecod/ldecod, 0.0362, 0.0361, 0.0361,0.0361, 0.0362, 0.0362, 0.0361,0.0362,0.27700831024930483
MultiSource/Applications/sqlite3/sqlite3, 1.7737, 1.7794, 1.7758,1.7758, 1.7847, 1.7763, 1.7805,1.7805,0.2646694447572928
MultiSource/Benchmarks/McCat/01-qbsort/qbsort, 0.0390, 0.0391, 0.0390,0.039, 0.0391, 0.0391, 0.0391,0.0391,0.2564102564102555
MultiSource/Benchmarks/McCat/09-vor/vor, 0.0830, 0.0829, 0.0829,0.0829, 0.0830, 0.0831, 0.0832,0.0831,0.24125452352230514
MultiSource/Benchmarks/mafft/pairlocalalign,24.6616,24.6622,24.6612,24.6616,24.7189,24.7192,24.7190,24.719,0.23275051091575794
MultiSource/Benchmarks/FreeBench/mason/mason, 0.1302, 0.1303, 0.1302,0.1302, 0.1305, 0.1303, 0.1305,0.1305,0.23041474654377225
MultiSource/Applications/lua/lua,11.1040,11.0971,11.1198,11.104,11.1289,11.1285,11.1338,11.1289,0.22424351585015323
MultiSource/Benchmarks/DOE-ProxyApps-C++/PENNANT/PENNANT, 0.3696, 0.3698, 0.3696,0.3696, 0.3706, 0.3704, 0.3703,0.3704,0.21645021645022577
MultiSource/Benchmarks/Prolangs-C++/life/life, 0.7154, 0.7151, 0.7143,0.7151, 0.7165, 0.7173, 0.7161,0.7165,0.19577681443154749
MultiSource/Benchmarks/7zip/7zip-benchmark, 6.3272, 6.3279, 6.3276,6.3276, 6.3396, 6.3405, 6.3399,6.3399,0.194386497250143
MultiSource/Benchmarks/FreeBench/pifft/pifft, 0.0652, 0.0651, 0.0651,0.0651, 0.0652, 0.0652, 0.0652,0.0652,0.1536098310291667
SingleSource/Benchmarks/Shootout/heapsort, 2.0363, 2.0382, 2.0355,2.0363, 2.0357, 2.0394, 2.0398,2.0394,0.15223690026027192
SingleSource/Benchmarks/Polybench/datamining/correlation/correlation, 1.6684, 1.6639, 1.6571,1.6639, 1.6666, 1.6659, 1.6663,1.6663,0.14423943746619816
SingleSource/Benchmarks/Adobe-C++/loop_unroll, 1.7722, 1.7725, 1.7764,1.7725, 1.7750, 1.7747, 1.7814,1.775,0.14104372355430161
MultiSource/Benchmarks/Olden/bisort/bisort, 0.3621, 0.3619, 0.3612,0.3619, 0.3625, 0.3624, 0.3614,0.3624,0.13815971262780558
MultiSource/Benchmarks/TSVC/GlobalDataFlow-flt/GlobalDataFlow-flt, 1.5013, 1.5067, 1.4991,1.5013, 1.5033, 1.5037, 1.4945,1.5033,0.13321787783919792
SingleSource/Benchmarks/Polybench/linear-algebra/kernels/atax/atax, 0.1702, 0.1701, 0.1701,0.1701, 0.1701, 0.1703, 0.1703,0.1703,0.11757789535566943
MultiSource/Benchmarks/ASC_Sequoia/IRSmk/IRSmk, 2.9999, 3.0064, 3.0015,3.0015, 3.0194, 3.0047, 2.9931,3.0047,0.10661335998667365
SingleSource/Benchmarks/Shootout-C++/lists, 2.9598, 2.9762, 2.9712,2.9712, 2.9783, 2.9713, 2.9742,2.9742,0.10096930533118886
MultiSource/Benchmarks/MiBench/automotive-basicmath/automotive-basicmath, 0.2225, 0.2224, 0.2227,0.2225, 0.2227, 0.2227, 0.2225,0.2227,0.08988764044943753
SingleSource/Benchmarks/Polybench/linear-algebra/kernels/mvt/mvt, 0.2481, 0.2433, 0.2480,0.248, 0.2482, 0.2484, 0.2482,0.2482,0.08064516129031585
SingleSource/Benchmarks/BenchmarkGame/puzzle, 0.1294, 0.1299, 0.1291,0.1294, 0.1298, 0.1291, 0.1295,0.1295,0.07727975270479526
MultiSource/Benchmarks/TSVC/LoopRestructuring-dbl/LoopRestructuring-dbl, 3.6437, 3.6325, 3.6384,3.6384, 3.6405, 3.6458, 3.6412,3.6412,0.07695690413369594
MultiSource/Benchmarks/Ptrdist/yacr2/yacr2, 0.5295, 0.5299, 0.5302,0.5299, 0.5306, 0.5303, 0.5302,0.5303,0.07548594074353598
SingleSource/Benchmarks/Polybench/stencils/fdtd-2d/fdtd-2d, 0.4065, 0.4094, 0.4074,0.4074, 0.4134, 0.4059, 0.4077,0.4077,0.07363770250368162
MultiSource/Benchmarks/TSVC/IndirectAddressing-dbl/IndirectAddressing-dbl, 2.4727, 2.4695, 2.4748,2.4727, 2.4724, 2.4745, 2.4763,2.4745,0.07279492053220427
SingleSource/Benchmarks/Adobe-C++/functionobjects, 3.0287, 3.0290, 3.0279,3.0287, 3.0297, 3.0309, 3.0317,3.0309,0.07263842572720058
MultiSource/Benchmarks/Olden/health/health, 0.1441, 0.1434, 0.1433,0.1434, 0.1435, 0.1435, 0.1434,0.1435,0.06973500697349255
MultiSource/Benchmarks/MallocBench/espresso/espresso, 0.2985, 0.2987, 0.2983,0.2985, 0.2987, 0.2987, 0.2985,0.2987,0.06700167504187782
SingleSource/Benchmarks/Polybench/stencils/jacobi-2d-imper/jacobi-2d-imper, 0.1494, 0.1493, 0.1493,0.1493, 0.1494, 0.1492, 0.1497,0.1494,0.0669792364367261
MultiSource/Benchmarks/TSVC/StatementReordering-dbl/StatementReordering-dbl, 2.2437, 2.2468, 2.2466,2.2466, 2.2481, 2.2490, 2.2462,2.2481,0.06676755986825267
MultiSource/Benchmarks/TSVC/InductionVariable-flt/InductionVariable-flt, 2.5561, 2.5585, 2.5601,2.5585, 2.5559, 2.5617, 2.5602,2.5602,0.0664451827242507
SingleSource/Benchmarks/CoyoteBench/lpbench, 1.8177, 1.8166, 1.8204,1.8177, 1.8195, 1.8189, 1.8175,1.8189,0.06601749463606144
MultiSource/Benchmarks/SciMark2-C/scimark2,42.0698,42.0743,42.7040,42.0743,42.0965,42.1003,42.1260,42.1003,0.06179544282376437
MultiSource/Benchmarks/DOE-ProxyApps-C/SimpleMOC/SimpleMOC, 3.7814, 3.7861, 3.7913,3.7861, 3.7842, 3.7945, 3.7882,3.7882,0.05546604685560119
MultiSource/Benchmarks/TSVC/NodeSplitting-flt/NodeSplitting-flt, 4.6612, 4.6589, 4.6569,4.6589, 4.6600, 4.6613, 4.6616,4.6613,0.05151430595204953
SingleSource/Benchmarks/Misc/ffbench, 0.5845, 0.5859, 0.5876,0.5859, 0.5862, 0.5903, 0.5827,0.5862,0.051203277009737036
SingleSource/Benchmarks/Shootout/lists, 4.0779, 4.0809, 4.0807,4.0807, 4.0830, 4.0825, 4.0793,4.0825,0.044110079153081294
MultiSource/Benchmarks/TSVC/CrossingThresholds-flt/CrossingThresholds-flt, 1.6332, 1.6344, 1.6309,1.6332, 1.6226, 1.6339, 1.6368,1.6339,0.04286064168503856
SingleSource/Benchmarks/CoyoteBench/huffbench, 9.0382, 9.0557, 9.0376,9.0382, 9.0416, 9.0439, 9.0412,9.0416,0.03761810980063007
MultiSource/Benchmarks/TSVC/Searching-flt/Searching-flt, 2.4337, 2.4338, 2.4339,2.4338, 2.4347, 2.4347, 2.4316,2.4347,0.03697920946665878
MultiSource/Benchmarks/DOE-ProxyApps-C++/CLAMR/CLAMR, 1.1202, 1.1203, 1.1201,1.1202, 1.1205, 1.1206, 1.1206,1.1206,0.03570790930189638
SingleSource/Benchmarks/Shootout/sieve, 3.4681, 3.4674, 3.4664,3.4674, 3.4677, 3.4686, 3.4686,3.4686,0.03460806367883151
MultiSource/Benchmarks/Ptrdist/anagram/anagram, 0.6003, 0.6001, 0.6001,0.6001, 0.6003, 0.6003, 0.6002,0.6003,0.0333277787035513
MultiSource/Benchmarks/DOE-ProxyApps-C/Pathfinder/PathFinder, 2.0963, 2.0949, 2.0932,2.0949, 2.0955, 2.1042, 2.0934,2.0955,0.028640985249883677
SingleSource/Benchmarks/McGill/queens, 1.7520, 1.7507, 1.7518,1.7518, 1.7525, 1.7510, 1.7523,1.7523,0.028542071012660486
SingleSource/Benchmarks/Misc/evalloop, 0.3686, 0.3681, 0.3683,0.3683, 0.3679, 0.3684, 0.3684,0.3684,0.027151778441480978
MultiSource/Benchmarks/TSVC/Expansion-flt/Expansion-flt, 1.1786, 1.1868, 1.1822,1.1822, 1.1786, 1.1825, 1.1852,1.1825,0.025376416849964833
SingleSource/Benchmarks/Misc/fbench, 1.7135, 1.7136, 1.7135,1.7135, 1.7139, 1.7139, 1.7139,1.7139,0.023344032681649196
MultiSource/Benchmarks/TSVC/Equivalencing-dbl/Equivalencing-dbl, 1.3868, 1.3862, 1.3866,1.3866, 1.3877, 1.3869, 1.3859,1.3869,0.02163565556037028
SingleSource/Benchmarks/Misc/richards_benchmark, 0.4975, 0.4970, 0.4974,0.4974, 0.4975, 0.4971, 0.4981,0.4975,0.020104543626864313
MultiSource/Applications/obsequi/Obsequi, 1.0934, 1.0930, 1.0932,1.0932, 1.0934, 1.0934, 1.0935,1.0934,0.018294914013905483
SingleSource/Benchmarks/BenchmarkGame/partialsums, 0.5685, 0.5686, 0.5684,0.5685, 0.5686, 0.5686, 0.5686,0.5686,0.017590149516277798
MultiSource/Benchmarks/Olden/tsp/tsp, 1.1722, 1.1719, 1.1716,1.1719, 1.1721, 1.1721, 1.1720,1.1721,0.01706630258553332
MultiSource/Benchmarks/TSVC/ControlLoops-flt/ControlLoops-flt, 2.3453, 2.3551, 2.3504,2.3504, 2.3508, 2.3543, 2.3473,2.3508,0.017018379850242127
SingleSource/Benchmarks/Shootout-C++/ackermann, 0.6571, 0.6571, 0.6571,0.6571, 0.6571, 0.6572, 0.6572,0.6572,0.015218383807646951
MultiSource/Benchmarks/TSVC/NodeSplitting-dbl/NodeSplitting-dbl, 5.0264, 5.0264, 5.0262,5.0264, 5.0259, 5.0284, 5.0271,5.0271,0.013926468247649204
MultiSource/Benchmarks/TSVC/StatementReordering-flt/StatementReordering-flt, 1.8254, 1.8291, 1.8275,1.8275, 1.8277, 1.8297, 1.8224,1.8277,0.010943912448713178
MultiSource/Applications/aha/aha, 1.0373, 1.0361, 1.0376,1.0373, 1.0385, 1.0374, 1.0370,1.0374,0.009640412609668303
SingleSource/Benchmarks/Shootout/matrix, 1.0572, 1.0574, 1.0572,1.0572, 1.0573, 1.0572, 1.0573,1.0573,0.009458948164953185
MultiSource/Benchmarks/Trimaran/enc-3des/enc-3des, 1.2897, 1.2900, 1.2896,1.2897, 1.2893, 1.2898, 1.2898,1.2898,0.0077537411801165135
SingleSource/Benchmarks/Adobe-C++/simple_types_loop_invariant, 1.5941, 1.5941, 1.5943,1.5941, 1.5942, 1.5939, 1.5949,1.5942,0.006273132174894336
SingleSource/Benchmarks/Shootout/methcall, 3.2758, 3.2757, 3.2758,3.2758, 3.2760, 3.2762, 3.2758,3.276,0.006105378838761055
MultiSource/Benchmarks/TSVC/LoopRerolling-dbl/LoopRerolling-dbl, 4.6105, 4.6103, 4.6105,4.6105, 4.6107, 4.6104, 4.6109,4.6107,0.00433792430321045
MultiSource/Benchmarks/TSVC/Symbolics-dbl/Symbolics-dbl, 2.4552, 2.4550, 2.4545,2.455, 2.4551, 2.4552, 2.4546,2.4551,0.0040733197555820055
SingleSource/Benchmarks/CoyoteBench/almabench,12.6253,12.6245,12.6250,12.625,12.6255,12.6244,12.6256,12.6255,0.003960396039603964
MultiSource/Benchmarks/DOE-ProxyApps-C/miniGMG/miniGMG, 5.2024, 5.2023, 5.2017,5.2023, 5.2024, 5.2017, 5.2027,5.2024,0.0019222267074070487
SingleSource/Benchmarks/Misc-C++/Large/sphereflake, 5.6073, 5.6075, 5.6074,5.6074, 5.6076, 5.6075, 5.6075,5.6075,0.0017833577058867789
MultiSource/Applications/hexxagon/hexxagon, 7.0584, 7.0589, 7.0583,7.0584, 7.0585, 7.0579, 7.0585,7.0585,0.0014167516717789042
SingleSource/Regression/C/uint64_to_float, 0.2465, 0.2465, 0.2464,0.2465, 0.2465, 0.2465, 0.2465,0.2465,0.0
SingleSource/Regression/C/2004-08-12-InlinerAndAllocas, 0.0013, 0.0013, 0.0013,0.0013, 0.0013, 0.0013, 0.0013,0.0013,0.0
SingleSource/Benchmarks/Stanford/Towers, 0.0083, 0.0083, 0.0083,0.0083, 0.0083, 0.0083, 0.0083,0.0083,0.0
SingleSource/Benchmarks/Stanford/RealMM, 0.0014, 0.0014, 0.0014,0.0014, 0.0014, 0.0014, 0.0014,0.0014,0.0
SingleSource/Benchmarks/Stanford/Quicksort, 0.0302, 0.0302, 0.0302,0.0302, 0.0302, 0.0302, 0.0302,0.0302,0.0
SingleSource/Benchmarks/Stanford/Queens, 0.0071, 0.0069, 0.0072,0.0071, 0.0071, 0.0072, 0.0070,0.0071,0.0
SingleSource/Benchmarks/Stanford/Perm, 0.0145, 0.0145, 0.0145,0.0145, 0.0145, 0.0145, 0.0146,0.0145,0.0
SingleSource/Benchmarks/Stanford/Bubblesort, 0.0157, 0.0157, 0.0157,0.0157, 0.0158, 0.0157, 0.0157,0.0157,0.0
SingleSource/Benchmarks/Shootout/random, 1.7447, 1.7448, 1.7447,1.7447, 1.7447, 1.7447, 1.7448,1.7447,0.0
SingleSource/Benchmarks/Shootout/objinst, 0.0007, 0.0007, 0.0007,0.0007, 0.0007, 0.0007, 0.0007,0.0007,0.0
SingleSource/Benchmarks/Shootout/nestedloop, 0.0007, 0.0007, 0.0007,0.0007, 0.0007, 0.0007, 0.0007,0.0007,0.0
SingleSource/Benchmarks/Shootout/ackermann, 0.0033, 0.0033, 0.0033,0.0033, 0.0033, 0.0033, 0.0033,0.0033,0.0
SingleSource/Benchmarks/Shootout-C++/strcat, 0.0405, 0.0405, 0.0405,0.0405, 0.0404, 0.0405, 0.0405,0.0405,0.0
SingleSource/Benchmarks/Shootout-C++/random, 1.7448, 1.7448, 1.7448,1.7448, 1.7448, 1.7448, 1.7448,1.7448,0.0
SingleSource/Benchmarks/Shootout-C++/objinst, 0.0008, 0.0008, 0.0008,0.0008, 0.0008, 0.0008, 0.0008,0.0008,0.0
SingleSource/Benchmarks/Shootout-C++/nestedloop, 0.0008, 0.0008, 0.0008,0.0008, 0.0008, 0.0008, 0.0008,0.0008,0.0
SingleSource/Benchmarks/Shootout-C++/moments, 0.0440, 0.0441, 0.0441,0.0441, 0.0441, 0.0441, 0.0442,0.0441,0.0
SingleSource/Benchmarks/Shootout-C++/methcall, 3.4547, 3.4548, 3.4496,3.4547, 3.4548, 3.4547, 3.4496,3.4547,0.0
SingleSource/Benchmarks/Shootout-C++/fibo, 1.4776, 1.4772, 1.4774,1.4774, 1.4777, 1.4766, 1.4774,1.4774,0.0
SingleSource/Benchmarks/Shootout-C++/ary2, 0.0149, 0.0149, 0.0149,0.0149, 0.0149, 0.0149, 0.0149,0.0149,0.0
SingleSource/Benchmarks/Shootout-C++/ary, 0.0141, 0.0141, 0.0141,0.0141, 0.0141, 0.0141, 0.0141,0.0141,0.0
SingleSource/Benchmarks/Polybench/stencils/seidel-2d/seidel-2d, 0.6593, 0.6593, 0.6593,0.6593, 0.6593, 0.6593, 0.6593,0.6593,0.0
SingleSource/Benchmarks/Polybench/stencils/jacobi-1d-imper/jacobi-1d-imper, 0.0036, 0.0036, 0.0035,0.0036, 0.0036, 0.0036, 0.0036,0.0036,0.0
SingleSource/Benchmarks/Polybench/medley/reg_detect/reg_detect, 0.0155, 0.0155, 0.0155,0.0155, 0.0155, 0.0155, 0.0155,0.0155,0.0
SingleSource/Benchmarks/Polybench/medley/floyd-warshall/floyd-warshall, 5.9750, 5.9753, 5.9753,5.9753, 5.9753, 5.9754, 5.9738,5.9753,0.0
SingleSource/Benchmarks/Polybench/linear-algebra/solvers/lu/lu, 0.0021, 0.0021, 0.0021,0.0021, 0.0021, 0.0021, 0.0021,0.0021,0.0
SingleSource/Benchmarks/Polybench/linear-algebra/kernels/gesummv/gesummv, 0.3064, 0.3064, 0.3016,0.3064, 0.3015, 0.3064, 0.3064,0.3064,0.0
SingleSource/Benchmarks/Polybench/linear-algebra/kernels/gemver/gemver, 0.3173, 0.3221, 0.3213,0.3213, 0.3214, 0.3170, 0.3213,0.3213,0.0
SingleSource/Benchmarks/Polybench/linear-algebra/kernels/bicg/bicg, 0.2125, 0.2125, 0.2125,0.2125, 0.2125, 0.2126, 0.2125,0.2125,0.0
SingleSource/Benchmarks/Misc/revertBits, 0.3294, 0.3294, 0.3294,0.3294, 0.3294, 0.3294, 0.3294,0.3294,0.0
SingleSource/Benchmarks/Misc/matmul_f64_4x4, 1.2951, 1.2951, 1.2951,1.2951, 1.2951, 1.2951, 1.2951,1.2951,0.0
SingleSource/Benchmarks/Misc/mandel-2, 1.2779, 1.2779, 1.2779,1.2779, 1.2779, 1.2779, 1.2779,1.2779,0.0
SingleSource/Benchmarks/Misc/mandel, 0.8336, 0.8336, 0.8336,0.8336, 0.8337, 0.8336, 0.8336,0.8336,0.0
SingleSource/Benchmarks/Misc/lowercase, 0.0007, 0.0007, 0.0007,0.0007, 0.0007, 0.0007, 0.0007,0.0007,0.0
SingleSource/Benchmarks/Misc/fp-convert, 2.6302, 2.6302, 2.6302,2.6302, 2.6302, 2.6302, 2.6302,2.6302,0.0
SingleSource/Benchmarks/Misc/flops-8, 2.8968, 2.8969, 2.8968,2.8968, 2.8968, 2.8968, 2.8968,2.8968,0.0
SingleSource/Benchmarks/Misc/flops-7, 1.5900, 1.5900, 1.5900,1.59, 1.5900, 1.5900, 1.5900,1.59,0.0
SingleSource/Benchmarks/Misc/flops-5, 4.2756, 4.3232, 4.2756,4.2756, 4.2756, 4.3230, 4.2756,4.2756,0.0
SingleSource/Benchmarks/Misc/flops-4, 2.3271, 2.3271, 2.3271,2.3271, 2.3271, 2.3271, 2.3271,2.3271,0.0
SingleSource/Benchmarks/Misc/flops-2, 0.8625, 0.8625, 0.8625,0.8625, 0.8625, 0.8625, 0.8625,0.8625,0.0
SingleSource/Benchmarks/Misc/dt, 0.6668, 0.6668, 0.6668,0.6668, 0.6668, 0.6668, 0.6668,0.6668,0.0
SingleSource/Benchmarks/Misc-C++/oopack_v1p8, 0.1619, 0.1619, 0.1619,0.1619, 0.1619, 0.1619, 0.1619,0.1619,0.0
SingleSource/Benchmarks/McGill/misr, 0.1013, 0.1013, 0.1013,0.1013, 0.1013, 0.1013, 0.1013,0.1013,0.0
SingleSource/Benchmarks/Dhrystone/fldry, 0.3654, 0.3654, 0.3654,0.3654, 0.3654, 0.3654, 0.3654,0.3654,0.0
SingleSource/Benchmarks/Dhrystone/dry, 0.3046, 0.3046, 0.3046,0.3046, 0.3046, 0.3046, 0.3046,0.3046,0.0
SingleSource/Benchmarks/BenchmarkGame/spectral-norm, 0.9768, 0.9768, 0.9768,0.9768, 0.9768, 0.9768, 0.9768,0.9768,0.0
SingleSource/Benchmarks/BenchmarkGame/recursive, 0.7042, 0.7132, 0.7042,0.7042, 0.7042, 0.7043, 0.7042,0.7042,0.0
SingleSource/Benchmarks/BenchmarkGame/n-body, 1.3732, 1.3732, 1.3732,1.3732, 1.3732, 1.3732, 1.3732,1.3732,0.0
SingleSource/Benchmarks/Adobe-C++/simple_types_constant_folding, 0.6645, 0.6645, 0.6645,0.6645, 0.6648, 0.6645, 0.6645,0.6645,0.0
MultiSource/Benchmarks/mediabench/mpeg2/mpeg2dec/mpeg2decode, 0.0131, 0.0130, 0.0130,0.013, 0.0130, 0.0130, 0.0130,0.013,0.0
MultiSource/Benchmarks/mediabench/gsm/toast/toast, 0.0133, 0.0131, 0.0133,0.0133, 0.0133, 0.0131, 0.0133,0.0133,0.0
MultiSource/Benchmarks/mediabench/g721/g721encode/encode, 0.0296, 0.0296, 0.0296,0.0296, 0.0296, 0.0296, 0.0296,0.0296,0.0
MultiSource/Benchmarks/VersaBench/ecbdes/ecbdes, 1.6932, 1.6931, 1.6932,1.6932, 1.6931, 1.6932, 1.6932,1.6932,0.0
MultiSource/Benchmarks/Trimaran/enc-pc1/enc-pc1, 0.3440, 0.3440, 0.3440,0.344, 0.3440, 0.3441, 0.3440,0.344,0.0
MultiSource/Benchmarks/Trimaran/enc-md5/enc-md5, 1.2243, 1.2244, 1.2242,1.2243, 1.2243, 1.2243, 1.2244,1.2243,0.0
MultiSource/Benchmarks/TSVC/Reductions-flt/Reductions-flt, 5.9349, 5.9350, 5.9349,5.9349, 5.9348, 5.9349, 5.9349,5.9349,0.0
MultiSource/Benchmarks/TSVC/Recurrences-dbl/Recurrences-dbl, 3.5011, 3.5011, 3.5012,3.5011, 3.5010, 3.5012, 3.5011,3.5011,0.0
MultiSource/Benchmarks/Prolangs-C/gnugo/gnugo, 0.0252, 0.0252, 0.0252,0.0252, 0.0252, 0.0251, 0.0252,0.0252,0.0
MultiSource/Benchmarks/Prolangs-C++/simul/simul, 0.0038, 0.0038, 0.0038,0.0038, 0.0038, 0.0038, 0.0038,0.0038,0.0
MultiSource/Benchmarks/Prolangs-C++/employ/employ, 0.0048, 0.0048, 0.0048,0.0048, 0.0048, 0.0048, 0.0048,0.0048,0.0
MultiSource/Benchmarks/Prolangs-C++/city/city, 0.0050, 0.0050, 0.0050,0.005, 0.0050, 0.0050, 0.0050,0.005,0.0
MultiSource/Benchmarks/MiBench/telecomm-FFT/telecomm-fft, 0.0381, 0.0381, 0.0382,0.0381, 0.0381, 0.0382, 0.0381,0.0381,0.0
MultiSource/Benchmarks/MiBench/network-dijkstra/network-dijkstra, 0.0246, 0.0245, 0.0245,0.0245, 0.0246, 0.0245, 0.0245,0.0245,0.0
MultiSource/Benchmarks/MiBench/consumer-jpeg/consumer-jpeg, 0.0030, 0.0030, 0.0029,0.003, 0.0030, 0.0029, 0.0030,0.003,0.0
MultiSource/Benchmarks/McCat/08-main/main, 0.0427, 0.0427, 0.0427,0.0427, 0.0427, 0.0426, 0.0427,0.0427,0.0
MultiSource/Benchmarks/McCat/05-eks/eks, 0.0034, 0.0034, 0.0034,0.0034, 0.0034, 0.0034, 0.0034,0.0034,0.0
MultiSource/Benchmarks/McCat/04-bisect/bisect, 0.0748, 0.0749, 0.0749,0.0749, 0.0749, 0.0749, 0.0749,0.0749,0.0
MultiSource/Benchmarks/McCat/03-testtrie/testtrie, 0.0063, 0.0063, 0.0063,0.0063, 0.0063, 0.0063, 0.0063,0.0063,0.0
MultiSource/Benchmarks/FreeBench/pcompress2/pcompress2, 0.1052, 0.1052, 0.1052,0.1052, 0.1052, 0.1052, 0.1052,0.1052,0.0
MultiSource/Benchmarks/FreeBench/neural/neural, 0.1153, 0.1153, 0.1152,0.1153, 0.1153, 0.1153, 0.1153,0.1153,0.0
MultiSource/Benchmarks/FreeBench/fourinarow/fourinarow, 0.1756, 0.1756, 0.1756,0.1756, 0.1756, 0.1756, 0.1756,0.1756,0.0
MultiSource/Benchmarks/FreeBench/distray/distray, 0.1345, 0.1346, 0.1345,0.1345, 0.1345, 0.1345, 0.1346,0.1345,0.0
MultiSource/Benchmarks/BitBench/uuencode/uuencode, 0.0105, 0.0104, 0.0105,0.0105, 0.0105, 0.0104, 0.0105,0.0105,0.0
MultiSource/Benchmarks/BitBench/uudecode/uudecode, 0.0595, 0.0596, 0.0596,0.0596, 0.0596, 0.0596, 0.0596,0.0596,0.0
MultiSource/Benchmarks/ASC_Sequoia/CrystalMk/CrystalMk, 7.2733, 7.2732, 7.2732,7.2732, 7.2730, 7.2732, 7.2732,7.2732,0.0
MultiSource/Applications/sgefa/sgefa, 0.1526, 0.1526, 0.1526,0.1526, 0.1526, 0.1527, 0.1526,0.1526,0.0
MultiSource/Applications/d/make_dparser, 0.0159, 0.0158, 0.0157,0.0158, 0.0158, 0.0158, 0.0159,0.0158,0.0
MultiSource/Applications/ALAC/encode/alacconvert-encode, 0.0265, 0.0265, 0.0265,0.0265, 0.0265, 0.0265, 0.0265,0.0265,0.0
MultiSource/Applications/ALAC/decode/alacconvert-decode, 0.0130, 0.0130, 0.0129,0.013, 0.0131, 0.0130, 0.0129,0.013,0.0
SingleSource/Benchmarks/Misc-C++/stepanov_v1p2, 7.9036, 7.9038, 7.9037,7.9037, 7.9037, 7.9036, 7.9036,7.9036,-0.0012652302086357814
SingleSource/Benchmarks/Misc/salsa20, 4.6180, 4.6180, 4.6179,4.618, 4.6179, 4.6181, 4.6177,4.6179,-0.002165439584245199
SingleSource/Benchmarks/Misc/perlin, 3.8800, 3.8801, 3.8805,3.8801, 3.8804, 3.8800, 3.8800,3.88,-0.0025772531635825935
MultiSource/Benchmarks/TSVC/Recurrences-flt/Recurrences-flt, 3.5007, 3.5009, 3.5008,3.5008, 3.5008, 3.5006, 3.5007,3.5007,-0.0028564899451466452
MultiSource/Benchmarks/TSVC/Reductions-dbl/Reductions-dbl, 3.4400, 3.4400, 3.4400,3.44, 3.4398, 3.4399, 3.4400,3.4399,-0.002906976744176948
MultiSource/Benchmarks/VersaBench/bmm/bmm, 1.6460, 1.6460, 1.6460,1.646, 1.6459, 1.6460, 1.6459,1.6459,-0.006075334143373912
SingleSource/Benchmarks/Misc/flops-1, 3.5822, 3.4825, 3.5829,3.5822, 3.5819, 3.4821, 3.5821,3.5819,-0.008374741778782724
MultiSource/Benchmarks/ASCI_Purple/SMG2000/smg2000, 1.1669, 1.1682, 1.1671,1.1671, 1.1684, 1.1670, 1.1660,1.167,-0.008568246080031816
SingleSource/Benchmarks/Shootout-C++/matrix, 1.1248, 1.1516, 1.1245,1.1248, 1.1510, 1.1246, 1.1247,1.1247,-0.00889046941678906
MultiSource/Benchmarks/Olden/power/power, 1.0532, 1.0533, 1.0534,1.0533, 1.0532, 1.0532, 1.0534,1.0532,-0.009493971328200512
SingleSource/Benchmarks/Misc/ReedSolomon, 3.1537, 3.1548, 3.1535,3.1537, 3.1534, 3.1534, 3.1536,3.1534,-0.009512635951425263
SingleSource/Benchmarks/Misc/oourafft, 6.0369, 6.0172, 6.0177,6.0177, 6.0171, 6.0170, 6.0180,6.0171,-0.009970586769025847
MultiSource/Benchmarks/DOE-ProxyApps-C++/HPCCG/HPCCG, 0.8995, 0.8998, 0.9001,0.8998, 0.8997, 0.8995, 0.8997,0.8997,-0.01111358079572966
SingleSource/Benchmarks/Misc-C++/Large/ray, 3.1397, 3.1398, 3.1397,3.1397, 3.1394, 3.1393, 3.1393,3.1393,-0.012740070707395468
MultiSource/Benchmarks/VersaBench/beamformer/beamformer, 0.7487, 0.7488, 0.7488,0.7488, 0.7486, 0.7487, 0.7487,0.7487,-0.013354700854695256
MultiSource/Benchmarks/Trimaran/netbench-url/netbench-url, 2.9800, 2.9799, 2.9794,2.9799, 2.9794, 2.9808, 2.9795,2.9795,-0.013423269237233804
SingleSource/Benchmarks/Misc/pi, 0.6942, 0.6942, 0.6942,0.6942, 0.6941, 0.6941, 0.6941,0.6941,-0.014405070584844193
MultiSource/Benchmarks/TSVC/GlobalDataFlow-dbl/GlobalDataFlow-dbl, 2.8505, 2.8513, 2.8519,2.8513, 2.8508, 2.8525, 2.8505,2.8508,-0.017535860835415917
MultiSource/Benchmarks/TSVC/Searching-dbl/Searching-dbl, 2.2756, 2.2752, 2.2756,2.2756, 2.2744, 2.2752, 2.2753,2.2752,-0.017577781683952853
MultiSource/Benchmarks/TSVC/LinearDependence-dbl/LinearDependence-dbl, 5.7111, 5.7076, 5.7087,5.7087, 5.7075, 5.7055, 5.7075,5.7075,-0.021020547585282046
SingleSource/Benchmarks/Polybench/stencils/adi/adi, 2.8046, 2.8047, 2.8053,2.8047, 2.8061, 2.8041, 2.8041,2.8041,-0.021392662316821465
MultiSource/Benchmarks/TSVC/InductionVariable-dbl/InductionVariable-dbl, 3.0487, 3.0487, 3.0470,3.0487, 3.0476, 3.0483, 3.0480,3.048,-0.02296060616000517
MultiSource/Benchmarks/TSVC/CrossingThresholds-dbl/CrossingThresholds-dbl, 2.1497, 2.1489, 2.1499,2.1497, 2.1494, 2.1492, 2.1492,2.1492,-0.023259059403646365
MultiSource/Benchmarks/Olden/em3d/em3d, 1.7021, 1.7021, 1.7017,1.7021, 1.7023, 1.7015, 1.7017,1.7017,-0.02350038188120296
MultiSource/Benchmarks/nbench/nbench, 1.2718, 1.2721, 1.2722,1.2721, 1.2734, 1.2718, 1.2715,1.2718,-0.02358305164688046
MultiSource/Benchmarks/TSVC/ControlLoops-dbl/ControlLoops-dbl, 2.5418, 2.5402, 2.5396,2.5402, 2.5425, 2.5396, 2.5394,2.5396,-0.023620187386819147
SingleSource/Benchmarks/Shootout-C++/heapsort, 2.0306, 2.0286, 2.0259,2.0286, 2.0279, 2.0281, 2.0283,2.0281,-0.02464754017550419
MultiSource/Benchmarks/TSVC/Expansion-dbl/Expansion-dbl, 1.9839, 1.9871, 1.9853,1.9853, 1.9833, 1.9867, 1.9848,1.9848,-0.025185110562642166
SingleSource/Benchmarks/Shootout/fib2, 1.4783, 1.4774, 1.4778,1.4778, 1.4778, 1.4773, 1.4774,1.4774,-0.027067262146429627
SingleSource/Benchmarks/BenchmarkGame/fannkuch, 2.0903, 2.0885, 2.0903,2.0903, 2.0905, 2.0896, 2.0889,2.0896,-0.03348801607425678
MultiSource/Benchmarks/TSVC/IndirectAddressing-flt/IndirectAddressing-flt, 2.2433, 2.2469, 2.2456,2.2456, 2.2424, 2.2449, 2.2448,2.2448,-0.03562522265764256
MultiSource/Benchmarks/TSVC/Packing-dbl/Packing-dbl, 2.3259, 2.3262, 2.3247,2.3259, 2.3251, 2.3248, 2.3250,2.325,-0.0386946988262471
SingleSource/Benchmarks/Stanford/FloatMM, 0.2012, 0.2008, 0.2012,0.2012, 0.2011, 0.2012, 0.2011,0.2011,-0.04970178926441138
SingleSource/Benchmarks/Shootout-C++/ary3, 0.5357, 0.5474, 0.5336,0.5357, 0.5267, 0.5425, 0.5354,0.5354,-0.05600149337314786
MultiSource/Benchmarks/DOE-ProxyApps-C++/miniFE/miniFE, 2.4643, 2.4659, 2.4644,2.4644, 2.4624, 2.4641, 2.4628,2.4628,-0.06492452523940706
MultiSource/Benchmarks/PAQ8p/paq8p,42.6449,42.6802,42.6344,42.6449,42.5977,42.6161,42.6158,42.6158,-0.06823793701005165
MultiSource/Benchmarks/TSVC/ControlFlow-dbl/ControlFlow-dbl, 3.7451, 3.7407, 3.7441,3.7441, 3.7414, 3.7423, 3.7396,3.7414,-0.07211345850804962
MultiSource/Benchmarks/TSVC/LinearDependence-flt/LinearDependence-flt, 4.9837, 4.9799, 4.9836,4.9836, 4.9799, 4.9768, 4.9868,4.9799,-0.07424351874147916
MultiSource/Applications/spiff/spiff, 1.2876, 1.2828, 1.2825,1.2828, 1.2806, 1.2818, 1.2819,1.2818,-0.0779544745868277
MultiSource/Benchmarks/Trimaran/netbench-crc/netbench-crc, 0.6215, 0.6212, 0.6213,0.6213, 0.6208, 0.6208, 0.6211,0.6208,-0.08047642040881486
MultiSource/Benchmarks/Olden/perimeter/perimeter, 0.1225, 0.1221, 0.1219,0.1221, 0.1220, 0.1219, 0.1221,0.122,-0.08190008190008813
MultiSource/Benchmarks/McCat/12-IOtest/iotest, 0.2152, 0.2146, 0.2149,0.2149, 0.2151, 0.2142, 0.2147,0.2147,-0.09306654257794644
SingleSource/Benchmarks/Shootout-C++/hash, 0.3064, 0.3067, 0.3069,0.3067, 0.3062, 0.3064, 0.3067,0.3064,-0.09781545484185417
MultiSource/Benchmarks/Fhourstones-3.1/fhourstones3.1, 0.7720, 0.7934, 0.7717,0.772, 0.7712, 0.7712, 0.7711,0.7712,-0.10362694300518616
MultiSource/Benchmarks/DOE-ProxyApps-C/XSBench/XSBench, 2.4380, 2.4397, 2.4400,2.4397, 2.4371, 2.4355, 2.4379,2.4371,-0.10657047997705282
MultiSource/Benchmarks/TSVC/LoopRerolling-flt/LoopRerolling-flt, 3.8305, 3.8383, 3.8333,3.8333, 3.8284, 3.8290, 3.8325,3.829,-0.11217488847728996
SingleSource/Benchmarks/Stanford/Puzzle, 0.0794, 0.0793, 0.0794,0.0794, 0.0794, 0.0793, 0.0793,0.0793,-0.12594458438287548
SingleSource/Benchmarks/Misc/himenobmtxpa, 0.5201, 0.5130, 0.5184,0.5184, 0.5165, 0.5205, 0.5177,0.5177,-0.1350308641975162
SingleSource/Benchmarks/McGill/chomp, 1.3015, 1.3057, 1.3060,1.3057, 1.3041, 1.3006, 1.3039,1.3039,-0.1378570881519492
SingleSource/Benchmarks/Polybench/linear-algebra/solvers/dynprog/dynprog, 0.2813, 0.2817, 0.2817,0.2817, 0.2809, 0.2813, 0.2825,0.2813,-0.141995030173947
MultiSource/Benchmarks/ASC_Sequoia/AMGmk/AMGmk, 4.9852, 4.9961, 4.9939,4.9939, 4.9825, 4.9868, 4.9996,4.9868,-0.14217345161097183
SingleSource/Benchmarks/Misc-C++/mandel-text, 1.6140, 1.6153, 1.6155,1.6153, 1.6130, 1.6124, 1.6161,1.613,-0.14238841082151454
SingleSource/Benchmarks/BenchmarkGame/nsieve-bits, 0.4874, 0.4861, 0.4854,0.4861, 0.4854, 0.4884, 0.4846,0.4854,-0.14400329150380253
MultiSource/Benchmarks/Olden/treeadd/treeadd, 0.1269, 0.1266, 0.1265,0.1266, 0.1266, 0.1262, 0.1264,0.1264,-0.15797788309634964
SingleSource/Benchmarks/Polybench/stencils/fdtd-apml/fdtd-apml, 0.7242, 0.7234, 0.7279,0.7242, 0.7230, 0.7218, 0.7244,0.723,-0.1657000828500399
MultiSource/Benchmarks/tramp3d-v4/tramp3d-v4, 0.2399, 0.2397, 0.2397,0.2397, 0.2393, 0.2394, 0.2393,0.2393,-0.16687526074258274
MultiSource/Benchmarks/DOE-ProxyApps-C/miniAMR/miniAMR, 0.7742, 0.7716, 0.7731,0.7731, 0.7718, 0.7722, 0.7716,0.7718,-0.1681541844521961
MultiSource/Benchmarks/TSVC/Symbolics-flt/Symbolics-flt, 1.3892, 1.3930, 1.3930,1.393, 1.3909, 1.3906, 1.3860,1.3906,-0.17229002153624773
MultiSource/Benchmarks/VersaBench/8b10b/8b10b, 3.6032, 3.6000, 3.6065,3.6032, 3.5968, 3.5938, 3.6073,3.5968,-0.1776198934280715
SingleSource/Benchmarks/Polybench/linear-algebra/kernels/trmm/trmm, 2.3473, 2.3592, 2.2457,2.3473, 2.2350, 2.3605, 2.3431,2.3431,-0.17892898223490494
MultiSource/Benchmarks/McCat/18-imp/imp, 0.0557, 0.0556, 0.0555,0.0556, 0.0556, 0.0555, 0.0555,0.0555,-0.17985611510790145
MultiSource/Applications/JM/lencod/lencod, 3.1624, 3.1625, 3.1645,3.1625, 3.1620, 3.1546, 3.1568,3.1568,-0.18023715415019792
MultiSource/Benchmarks/TSVC/Equivalencing-flt/Equivalencing-flt, 0.9689, 0.9701, 0.9676,0.9689, 0.9671, 0.9658, 0.9681,0.9671,-0.1857776860357152
SingleSource/Benchmarks/Shootout/strcat, 0.1052, 0.1052, 0.1052,0.1052, 0.1050, 0.1051, 0.1050,0.105,-0.19011406844107182
MultiSource/Benchmarks/VersaBench/dbms/dbms, 0.8998, 0.8847, 0.8911,0.8911, 0.8853, 0.8987, 0.8894,0.8894,-0.19077544607788433
MultiSource/Applications/SPASS/SPASS, 6.7067, 6.7381, 6.7227,6.7227, 6.7105, 6.7093, 6.6922,6.7093,-0.199324676097401
SingleSource/Benchmarks/Polybench/datamining/covariance/covariance, 1.6525, 1.6548, 1.6603,1.6548, 1.6515, 1.6531, 1.6492,1.6515,-0.1994198694706406
SingleSource/Benchmarks/Linpack/linpack-pc, 1.2457, 1.2423, 1.2396,1.2423, 1.2413, 1.2394, 1.2396,1.2396,-0.21733880705142594
MultiSource/Benchmarks/Olden/voronoi/voronoi, 0.2141, 0.2136, 0.2135,0.2136, 0.2131, 0.2130, 0.2132,0.2131,-0.23408239700374311
MultiSource/Benchmarks/Prolangs-C++/primes/primes, 0.2128, 0.2141, 0.2131,0.2131, 0.2126, 0.2139, 0.2124,0.2126,-0.2346316283434957
MultiSource/Benchmarks/Prolangs-C++/ocean/ocean, 0.0360, 0.0360, 0.0360,0.036, 0.0359, 0.0359, 0.0359,0.0359,-0.2777777777777657
MultiSource/Benchmarks/MiBench/network-patricia/network-patricia, 0.0711, 0.0711, 0.0710,0.0711, 0.0709, 0.0710, 0.0709,0.0709,-0.2812939521800173
SingleSource/Benchmarks/SmallPT/smallpt, 7.5601, 7.5490, 7.5573,7.5573, 7.5458, 7.5339, 7.5331,7.5339,-0.3096343932356693
SingleSource/Benchmarks/Misc-C++/bigfib, 0.1916, 0.1910, 0.1908,0.191, 0.1902, 0.1905, 0.1904,0.1904,-0.3141361256544406
SingleSource/Benchmarks/Misc/flops,10.6653,10.6445,10.6495,10.6495,10.6102,10.6158,10.6858,10.6158,-0.31644678153903705
MultiSource/Benchmarks/Ptrdist/ks/ks, 0.6569, 0.6518, 0.6551,0.6551, 0.6526, 0.6567, 0.6528,0.6528,-0.3510914364219131
MultiSource/Applications/viterbi/viterbi, 1.2831, 1.2833, 1.2831,1.2831, 1.2785, 1.2782, 1.2791,1.2785,-0.3585067414854648
SingleSource/Benchmarks/Stanford/Treesort, 0.0547, 0.0545, 0.0547,0.0547, 0.0545, 0.0545, 0.0544,0.0545,-0.3656307129798919
SingleSource/Benchmarks/Shootout/ary3, 0.5964, 0.6041, 0.5959,0.5964, 0.5960, 0.5942, 0.5942,0.5942,-0.36887994634474675
MultiSource/Benchmarks/MiBench/security-rijndael/security-rijndael, 0.0219, 0.0219, 0.0218,0.0219, 0.0218, 0.0219, 0.0218,0.0218,-0.45662100456620447
MultiSource/Benchmarks/TSVC/ControlFlow-flt/ControlFlow-flt, 3.5409, 3.5467, 3.5569,3.5467, 3.5294, 3.5246, 3.5509,3.5294,-0.4877773705134425
SingleSource/Benchmarks/Shootout-C++/EH/except, 0.1206, 0.1205, 0.1207,0.1206, 0.1200, 0.1200, 0.1205,0.12,-0.497512437810943
SingleSource/Benchmarks/Shootout/hash, 2.7671, 2.7628, 2.7603,2.7628, 2.7455, 2.7490, 2.7507,2.749,-0.4994932676994246
MultiSource/Benchmarks/Olden/mst/mst, 0.0527, 0.0521, 0.0521,0.0521, 0.0518, 0.0518, 0.0518,0.0518,-0.5758157389635365
MultiSource/Benchmarks/llubenchmark/llu, 4.1491, 4.1318, 4.1484,4.1484, 4.1346, 4.1032, 4.1210,4.121,-0.660495612766343
SingleSource/Benchmarks/Polybench/linear-algebra/kernels/cholesky/cholesky, 0.4579, 0.4607, 0.4600,0.46, 0.4551, 0.4602, 0.4566,0.4566,-0.7391304347826089
SingleSource/Benchmarks/Adobe-C++/stepanov_abstraction, 4.2660, 4.2652, 4.2656,4.2656, 4.2323, 4.2337, 4.2333,4.2333,-0.7572205551387934
MultiSource/Benchmarks/McCat/17-bintr/bintr, 0.0816, 0.0817, 0.0814,0.0816, 0.0802, 0.0817, 0.0808,0.0808,-0.9803921568627527
MultiSource/Benchmarks/FreeBench/analyzer/analyzer, 0.0407, 0.0393, 0.0406,0.0406, 0.0392, 0.0405, 0.0402,0.0402,-0.9852216748768461
MultiSource/Benchmarks/MiBench/automotive-susan/automotive-susan, 0.0290, 0.0288, 0.0284,0.0288, 0.0285, 0.0284, 0.0285,0.0285,-1.041666666666663
MultiSource/Applications/SIBsim4/SIBsim4, 2.0702, 2.0841, 2.1044,2.0841, 2.0557, 2.0741, 2.0503,2.0557,-1.3626985269420855
MultiSource/Benchmarks/TSVC/Packing-flt/Packing-flt, 2.1106, 2.0957, 2.1444,2.1106, 2.1112, 2.0818, 2.0717,2.0818,-1.3645408888467658
MultiSource/Benchmarks/MiBench/consumer-typeset/consumer-typeset, 0.0843, 0.0837, 0.0839,0.0839, 0.0825, 0.0825, 0.0824,0.0825,-1.6686531585220488
SingleSource/Benchmarks/Misc/flops-3, 5.4130, 5.5081, 5.5080,5.508, 5.4130, 5.4130, 5.4131,5.413,-1.724763979665933
MultiSource/Benchmarks/MiBench/telecomm-CRC32/telecomm-CRC32, 0.2029, 0.2072, 0.2080,0.2072, 0.2095, 0.2036, 0.2019,0.2036,-1.737451737451734
MultiSource/Benchmarks/MallocBench/gs/gs, 0.0276, 0.0277, 0.0275,0.0276, 0.0271, 0.0270, 0.0271,0.0271,-1.8115942028985477
SingleSource/Benchmarks/Shootout-C++/lists1, 0.1350, 0.1339, 0.1308,0.1339, 0.1330, 0.1310, 0.1306,0.131,-2.165795369678858
MultiSource/Benchmarks/NPB-serial/is/is, 5.0226, 5.1444, 5.1508,5.1444, 5.0632, 5.0227, 5.0223,5.0227,-2.3656791851333403
SingleSource/Benchmarks/Adobe-C++/stepanov_vector, 2.3077, 2.3076, 2.3073,2.3076, 2.2520, 2.2523, 2.2530,2.2523,-2.3964291905009483
SingleSource/Benchmarks/Polybench/linear-algebra/kernels/syr2k/syr2k, 9.1869, 9.1868, 9.1862,9.1868, 9.1870, 8.9531, 8.9463,8.9531,-2.5438672878477897
MultiSource/Applications/siod/siod, 1.1297, 1.1279, 1.1283,1.1283, 1.0846, 1.0822, 1.0846,1.0846,-3.873083399805022
MultiSource/Benchmarks/Olden/bh/bh, 1.3362, 1.3347, 1.3339,1.3347, 1.2772, 1.2768, 1.2773,1.2772,-4.308084213680985
MultiSource/Benchmarks/mediabench/adpcm/rawdaudio/rawdaudio, 0.0017, 0.0017, 0.0017,0.0017, 0.0016, 0.0016, 0.0016,0.0016,-5.88235294117646
SingleSource/Benchmarks/Stanford/Oscar, 0.0032, 0.0032, 0.0032,0.0032, 0.0024, 0.0024, 0.0024,0.0024,-25.00000000000001
Total elapsed time,-,-,-,587.7488000000001,-,-,-,587.8944999999999,0.02478950190962781
Total failure,-,-,-,0,-,-,-,0,
Geom. avg slowdown,,,,,,,,,-0.175345847632%
