Benchmarks,base,base,base,base,base,median,intptr-opt,intptr-opt,intptr-opt,intptr-opt,intptr-opt,median,Slowdown(%)
MultiSource/Benchmarks/PAQ8p/paq8p, 2.0421, 2.0515, 2.0520, 2.0499, 2.0506,2.0506, 2.0551, 2.0648, 2.0653, 2.0609, 2.0591,2.0609,0.5022920120940189
MultiSource/Benchmarks/nbench/nbench, 1.2087, 1.2073, 1.2069, 1.2065, 1.2070,1.207, 1.2133, 1.2109, 1.2117, 1.2139, 1.2128,1.2128,0.48053024026513125
MultiSource/Benchmarks/Trimaran/enc-pc1/enc-pc1, 0.0658, 0.0653, 0.0651, 0.0654, 0.0653,0.0653, 0.0658, 0.0656, 0.0655, 0.0656, 0.0654,0.0656,0.45941807044411753
MultiSource/Benchmarks/TSVC/Expansion-flt/Expansion-flt, 2.2556, 2.2428, 2.2433, 2.2441, 2.2492,2.2441, 2.2523, 2.2589, 2.2541, 2.2544, 2.2506,2.2541,0.4456129405998155
MultiSource/Benchmarks/TSVC/GlobalDataFlow-flt/GlobalDataFlow-flt, 2.2359, 2.2382, 2.2345, 2.2332, 2.2247,2.2345, 2.2530, 2.2449, 2.2441, 2.2406, 2.2375,2.2441,0.42962631461176404
SingleSource/Benchmarks/Adobe-C++/functionobjects, 0.4614, 0.4593, 0.4591, 0.4603, 0.4591,0.4593, 0.4613, 0.4612, 0.4600, 0.4599, 0.4618,0.4612,0.4136729806226924
MultiSource/Benchmarks/TSVC/Packing-dbl/Packing-dbl, 2.3908, 2.3868, 2.3958, 2.3842, 2.3859,2.3868, 2.3985, 2.3962, 2.3974, 2.3964, 2.3955,2.3964,0.40221216691804784
MultiSource/Benchmarks/TSVC/LoopRestructuring-dbl/LoopRestructuring-dbl, 2.4590, 2.4665, 2.4828, 2.4743, 2.4692,2.4692, 2.4808, 2.4813, 2.4791, 2.4788, 2.4743,2.4791,0.40093957557103543
SingleSource/Benchmarks/Shootout-C++/hash, 0.2619, 0.2623, 0.2615, 0.2614, 0.2613,0.2615, 0.2613, 0.2629, 0.2616, 0.2625, 0.2626,0.2625,0.3824091778202643
SingleSource/Benchmarks/Polybench/linear-algebra/kernels/bicg/bicg, 0.0845, 0.0843, 0.0840, 0.0840, 0.0839,0.084, 0.0843, 0.0845, 0.0843, 0.0841, 0.0840,0.0843,0.3571428571428559
MultiSource/Benchmarks/TSVC/CrossingThresholds-dbl/CrossingThresholds-dbl, 2.4525, 2.4488, 2.4467, 2.4505, 2.4487,2.4488, 2.4565, 2.4533, 2.4557, 2.4602, 2.4615,2.4565,0.31443972557989586
SingleSource/Benchmarks/Polybench/stencils/jacobi-2d-imper/jacobi-2d-imper, 0.1294, 0.1290, 0.1295, 0.1290, 0.1290,0.129, 0.1295, 0.1295, 0.1294, 0.1290, 0.1292,0.1294,0.31007751937983663
SingleSource/Benchmarks/Polybench/stencils/fdtd-2d/fdtd-2d, 0.1628, 0.1621, 0.1624, 0.1626, 0.1625,0.1625, 0.1632, 0.1629, 0.1630, 0.1630, 0.1629,0.163,0.3076923076922977
SingleSource/Benchmarks/Linpack/linpack-pc, 0.3956, 0.3953, 0.3951, 0.3963, 0.3969,0.3956, 0.3980, 0.3966, 0.3969, 0.3968, 0.3966,0.3968,0.30333670374114163
MultiSource/Benchmarks/TSVC/Recurrences-flt/Recurrences-flt, 2.1327, 2.1349, 2.1280, 2.1309, 2.1305,2.1309, 2.1371, 2.1311, 2.1439, 2.1342, 2.1404,2.1371,0.2909568726829237
SingleSource/Benchmarks/McGill/chomp, 0.1762, 0.1756, 0.1753, 0.1756, 0.1761,0.1756, 0.1761, 0.1756, 0.1764, 0.1763, 0.1755,0.1761,0.28473804100228595
MultiSource/Benchmarks/TSVC/Searching-flt/Searching-flt, 2.1139, 2.1111, 2.1142, 2.1095, 2.1109,2.1111, 2.1173, 2.1163, 2.1262, 2.1169, 2.1170,2.117,0.2794751551324026
MultiSource/Benchmarks/tramp3d-v4/tramp3d-v4,18.5855,18.5438,18.5657,18.5352,18.5854,18.5657,18.6596,18.6167,18.6276,18.6123,18.6078,18.6167,0.2747001190367193
SingleSource/Benchmarks/Adobe-C++/simple_types_loop_invariant, 1.8327, 1.8458, 1.8379, 1.8316, 1.8339,1.8339, 1.8396, 1.8324, 1.8425, 1.8389, 1.8377,1.8389,0.2726430012541581
MultiSource/Applications/oggenc/oggenc, 4.8489, 4.8497, 4.8512, 4.8542, 4.8554,4.8512, 4.8709, 4.8671, 4.8638, 4.8534, 4.8597,4.8638,0.25972955145119325
MultiSource/Benchmarks/TSVC/Searching-dbl/Searching-dbl, 2.3744, 2.3692, 2.3742, 2.3687, 2.3792,2.3742, 2.3833, 2.3770, 2.3843, 2.3803, 2.3796,2.3803,0.25692864965041196
MultiSource/Benchmarks/TSVC/Packing-flt/Packing-flt, 2.1231, 2.1309, 2.1309, 2.1271, 2.1341,2.1309, 2.1420, 2.1339, 2.1380, 2.1362, 2.1346,2.1362,0.24872119761603084
MultiSource/Benchmarks/TSVC/LinearDependence-flt/LinearDependence-flt, 2.2818, 2.2871, 2.2806, 2.2773, 2.2841,2.2818, 2.2962, 2.2874, 2.2872, 2.2903, 2.2874,2.2874,0.2454202822333107
MultiSource/Benchmarks/TSVC/InductionVariable-dbl/InductionVariable-dbl, 2.4680, 2.4683, 2.4788, 2.4750, 2.4675,2.4683, 2.4777, 2.4743, 2.4752, 2.4736, 2.4719,2.4743,0.24308228335290227
SingleSource/Benchmarks/Adobe-C++/loop_unroll, 4.8276, 4.8296, 4.8185, 4.8291, 4.8237,4.8276, 4.8390, 4.8352, 4.8408, 4.8400, 4.8339,4.839,0.23614218245091578
SingleSource/Benchmarks/Polybench/linear-algebra/kernels/syrk/syrk, 0.0867, 0.0862, 0.0862, 0.0864, 0.0863,0.0863, 0.0863, 0.0865, 0.0866, 0.0865, 0.0864,0.0865,0.2317497103128563
SingleSource/Benchmarks/Misc/ReedSolomon, 0.2206, 0.2198, 0.2197, 0.2198, 0.2198,0.2198, 0.2207, 0.2204, 0.2202, 0.2203, 0.2201,0.2203,0.22747952684258888
MultiSource/Benchmarks/TSVC/CrossingThresholds-flt/CrossingThresholds-flt, 2.2093, 2.1875, 2.1847, 2.1875, 2.1865,2.1875, 2.2015, 2.1917, 2.1935, 2.1924, 2.1921,2.1924,0.22400000000000198
SingleSource/Benchmarks/Polybench/linear-algebra/kernels/mvt/mvt, 0.0898, 0.0892, 0.0892, 0.0898, 0.0894,0.0894, 0.0895, 0.0896, 0.0897, 0.0901, 0.0892,0.0896,0.22371364653244186
MultiSource/Benchmarks/TSVC/Reductions-flt/Reductions-flt, 2.2544, 2.2507, 2.2506, 2.2492, 2.2508,2.2507, 2.2564, 2.2557, 2.2659, 2.2527, 2.2506,2.2557,0.22215310792197407
SingleSource/Benchmarks/Stanford/Queens, 0.0458, 0.0454, 0.0454, 0.0455, 0.0453,0.0454, 0.0456, 0.0455, 0.0457, 0.0454, 0.0454,0.0455,0.22026431718060735
MultiSource/Benchmarks/MiBench/automotive-susan/automotive-susan, 0.8737, 0.8724, 0.8751, 0.8732, 0.8717,0.8732, 0.8734, 0.8776, 0.8701, 0.8763, 0.8751,0.8751,0.21759047182776659
SingleSource/Benchmarks/Shootout-C++/objinst, 0.1383, 0.1378, 0.1381, 0.1385, 0.1380,0.1381, 0.1378, 0.1384, 0.1379, 0.1385, 0.1386,0.1384,0.21723388848660097
SingleSource/Benchmarks/Shootout-C++/moments, 0.2380, 0.2372, 0.2381, 0.2372, 0.2373,0.2373, 0.2367, 0.2380, 0.2379, 0.2378, 0.2370,0.2378,0.21070375052676393
MultiSource/Benchmarks/TSVC/Recurrences-dbl/Recurrences-dbl, 2.3905, 2.3974, 2.3879, 2.3881, 2.3877,2.3881, 2.3974, 2.3911, 2.3946, 2.3907, 2.3931,2.3931,0.20937146685648944
MultiSource/Benchmarks/mafft/pairlocalalign, 9.4266, 9.4267, 9.4244, 9.4268, 9.4362,9.4267, 9.4523, 9.4462, 9.4534, 9.4394, 9.4410,9.4462,0.20685924024312907
SingleSource/Benchmarks/Shootout-C++/matrix, 0.1946, 0.1940, 0.1942, 0.1947, 0.1942,0.1942, 0.1948, 0.1946, 0.1948, 0.1943, 0.1943,0.1946,0.2059732234809486
MultiSource/Benchmarks/Prolangs-C++/ocean/ocean, 0.1026, 0.1019, 0.1017, 0.1024, 0.1016,0.1019, 0.1022, 0.1021, 0.1020, 0.1021, 0.1020,0.1021,0.19627085377820208
SingleSource/Benchmarks/Polybench/linear-algebra/solvers/lu/lu, 0.1043, 0.1042, 0.1042, 0.1041, 0.1042,0.1042, 0.1046, 0.1044, 0.1045, 0.1044, 0.1042,0.1044,0.19193857965451588
SingleSource/Benchmarks/Polybench/linear-algebra/solvers/durbin/durbin, 0.1074, 0.1073, 0.1070, 0.1069, 0.1069,0.107, 0.1070, 0.1076, 0.1072, 0.1070, 0.1072,0.1072,0.18691588785046953
MultiSource/Benchmarks/TSVC/LoopRerolling-dbl/LoopRerolling-dbl, 2.4072, 2.4019, 2.4138, 2.4015, 2.4033,2.4033, 2.4297, 2.4032, 2.4077, 2.4082, 2.4004,2.4077,0.1830815961386456
SingleSource/Benchmarks/Misc/salsa20, 0.0552, 0.0549, 0.0548, 0.0549, 0.0549,0.0549, 0.0549, 0.0550, 0.0552, 0.0551, 0.0548,0.055,0.18214936247724633
MultiSource/Benchmarks/TSVC/NodeSplitting-dbl/NodeSplitting-dbl, 2.4284, 2.4270, 2.4229, 2.4279, 2.4032,2.427, 2.4314, 2.4315, 2.4124, 2.4316, 2.4159,2.4314,0.18129377832714066
SingleSource/Benchmarks/BenchmarkGame/puzzle, 0.0556, 0.0551, 0.0552, 0.0552, 0.0552,0.0552, 0.0553, 0.0553, 0.0552, 0.0553, 0.0552,0.0553,0.18115942028986698
MultiSource/Applications/JM/lencod/lencod,15.0448,15.0158,15.0103,15.0034,15.0105,15.0105,15.0420,15.0241,15.0393,15.0373,15.0142,15.0373,0.17854168748543398
SingleSource/Benchmarks/BenchmarkGame/spectral-norm, 0.0565, 0.0562, 0.0561, 0.0561, 0.0560,0.0561, 0.0560, 0.0562, 0.0562, 0.0562, 0.0561,0.0562,0.17825311942960553
MultiSource/Applications/siod/siod, 1.8541, 1.8584, 1.8445, 1.8592, 1.8525,1.8541, 1.8523, 1.8574, 1.8632, 1.8569, 1.8606,1.8574,0.1779839275119821
MultiSource/Benchmarks/TSVC/ControlFlow-flt/ControlFlow-flt, 2.3617, 2.3571, 2.3627, 2.3691, 2.3567,2.3617, 2.3700, 2.3651, 2.3727, 2.3653, 2.3658,2.3658,0.1736037600033935
SingleSource/Benchmarks/Misc/richards_benchmark, 0.0588, 0.0583, 0.0585, 0.0583, 0.0584,0.0584, 0.0589, 0.0587, 0.0583, 0.0585, 0.0585,0.0585,0.1712328767123239
SingleSource/Benchmarks/Misc/himenobmtxpa, 0.2365, 0.2363, 0.2359, 0.2363, 0.2360,0.2363, 0.2369, 0.2367, 0.2369, 0.2365, 0.2365,0.2367,0.1692763436309752
SingleSource/Benchmarks/Polybench/medley/reg_detect/reg_detect, 1.2697, 1.2742, 1.2719, 1.2732, 1.2687,1.2719, 1.2637, 1.2735, 1.2740, 1.2764, 1.2743,1.274,0.1651073197578512
MultiSource/Benchmarks/TSVC/StatementReordering-dbl/StatementReordering-dbl, 2.3937, 2.3892, 2.3861, 2.3882, 2.3883,2.3883, 2.3949, 2.3921, 2.3951, 2.3914, 2.3724,2.3921,0.15910898965791898
SingleSource/Benchmarks/Shootout-C++/EH/except, 0.1268, 0.1259, 0.1260, 0.1259, 0.1259,0.1259, 0.1258, 0.1261, 0.1269, 0.1258, 0.1267,0.1261,0.1588562351072076
MultiSource/Benchmarks/TSVC/InductionVariable-flt/InductionVariable-flt, 2.2086, 2.2115, 2.2234, 2.2102, 2.2126,2.2115, 2.2150, 2.2222, 2.2265, 2.2148, 2.2132,2.215,0.15826362197601807
SingleSource/Benchmarks/Adobe-C++/simple_types_constant_folding, 2.2659, 2.2623, 2.2683, 2.2638, 2.2697,2.2659, 2.2738, 2.2728, 2.2576, 2.2677, 2.2694,2.2694,0.15446400988570197
SingleSource/Benchmarks/CoyoteBench/lpbench, 0.1950, 0.1942, 0.1944, 0.1943, 0.1943,0.1943, 0.1946, 0.1945, 0.1950, 0.1946, 0.1949,0.1946,0.15440041173442332
SingleSource/Benchmarks/Stanford/Oscar, 0.0660, 0.0657, 0.0655, 0.0656, 0.0657,0.0657, 0.0660, 0.0655, 0.0660, 0.0656, 0.0658,0.0658,0.15220700152207556
MultiSource/Benchmarks/TSVC/GlobalDataFlow-dbl/GlobalDataFlow-dbl, 2.4985, 2.4961, 2.5020, 2.4918, 2.4944,2.4961, 2.5003, 2.4966, 2.4996, 2.5080, 2.4949,2.4996,0.14021874123633093
SingleSource/Benchmarks/Shootout/lists, 0.0722, 0.0718, 0.0717, 0.0717, 0.0717,0.0717, 0.0718, 0.0718, 0.0719, 0.0717, 0.0719,0.0718,0.1394700139470073
MultiSource/Benchmarks/FreeBench/fourinarow/fourinarow, 0.3751, 0.3763, 0.3737, 0.3742, 0.3743,0.3743, 0.3749, 0.3746, 0.3749, 0.3748, 0.3747,0.3748,0.13358268768368653
MultiSource/Benchmarks/TSVC/IndirectAddressing-flt/IndirectAddressing-flt, 2.1716, 2.1869, 2.1702, 2.1679, 2.1761,2.1716, 2.1745, 2.1800, 2.1777, 2.1740, 2.1708,2.1745,0.13354208878246787
MultiSource/Benchmarks/TSVC/Reductions-dbl/Reductions-dbl, 2.5154, 2.5069, 2.4990, 2.5043, 2.5117,2.5069, 2.5139, 2.4900, 2.5175, 2.5018, 2.5102,2.5102,0.13163668275559814
SingleSource/Benchmarks/Misc/oourafft, 0.2372, 0.2372, 0.2364, 0.2370, 0.2369,0.237, 0.2378, 0.2376, 0.2373, 0.2371, 0.2367,0.2373,0.12658227848101333
MultiSource/Benchmarks/MallocBench/espresso/espresso, 4.8502, 4.8410, 4.8401, 4.8425, 4.8433,4.8425, 4.8558, 4.8486, 4.8546, 4.8415, 4.8399,4.8486,0.125967991739806
SingleSource/Benchmarks/Shootout/matrix, 0.0825, 0.0822, 0.0820, 0.0822, 0.0820,0.0822, 0.0823, 0.0824, 0.0823, 0.0823, 0.0822,0.0823,0.12165450121655041
SingleSource/Benchmarks/Polybench/linear-algebra/kernels/trmm/trmm, 0.0831, 0.0829, 0.0829, 0.0831, 0.0828,0.0829, 0.0830, 0.0832, 0.0830, 0.0832, 0.0829,0.083,0.12062726176116367
MultiSource/Applications/ALAC/decode/alacconvert-decode, 1.0306, 1.0210, 1.0219, 1.0202, 1.0216,1.0216, 1.0230, 1.0228, 1.0235, 1.0224, 1.0228,1.0228,0.11746280344555604
MultiSource/Benchmarks/FreeBench/neural/neural, 0.1797, 0.1792, 0.1788, 0.1790, 0.1791,0.1791, 0.1794, 0.1793, 0.1791, 0.1795, 0.1791,0.1793,0.11166945840310749
MultiSource/Benchmarks/Ptrdist/anagram/anagram, 0.0957, 0.0952, 0.0954, 0.0953, 0.0958,0.0954, 0.0954, 0.0956, 0.0955, 0.0957, 0.0954,0.0955,0.10482180293500676
MultiSource/Benchmarks/FreeBench/pifft/pifft, 1.0864, 1.0869, 1.0860, 1.0882, 1.0858,1.0864, 1.0908, 1.0864, 1.0867, 1.0883, 1.0875,1.0875,0.10125184094256223
MultiSource/Applications/lambda-0.1.3/lambda, 0.5129, 0.5121, 0.5113, 0.5116, 0.5115,0.5116, 0.5111, 0.5125, 0.5121, 0.5118, 0.5123,0.5121,0.09773260359655644
MultiSource/Benchmarks/Prolangs-C/agrep/agrep, 1.3169, 1.3138, 1.3105, 1.3113, 1.3117,1.3117, 1.3158, 1.3129, 1.3141, 1.3121, 1.3126,1.3129,0.09148433330790073
SingleSource/Benchmarks/Polybench/linear-algebra/kernels/cholesky/cholesky, 0.1149, 0.1148, 0.1142, 0.1148, 0.1146,0.1148, 0.1149, 0.1148, 0.1153, 0.1149, 0.1145,0.1149,0.08710801393727596
MultiSource/Benchmarks/ASC_Sequoia/CrystalMk/CrystalMk, 0.2328, 0.2309, 0.2311, 0.2313, 0.2310,0.2311, 0.2316, 0.2316, 0.2313, 0.2312, 0.2311,0.2313,0.08654262224145892
MultiSource/Benchmarks/SciMark2-C/scimark2, 0.3748, 0.3719, 0.3727, 0.3721, 0.3720,0.3721, 0.3725, 0.3724, 0.3728, 0.3719, 0.3705,0.3724,0.08062348830959465
MultiSource/Benchmarks/VersaBench/beamformer/beamformer, 0.3788, 0.3768, 0.3767, 0.3774, 0.3777,0.3774, 0.3777, 0.3775, 0.3779, 0.3774, 0.3778,0.3777,0.07949125596182771
MultiSource/Applications/sqlite3/sqlite3,12.6162,12.6242,12.5745,12.5979,12.5872,12.5979,12.6399,12.6079,12.6352,12.5940,12.5995,12.6079,0.07937830908326671
SingleSource/Benchmarks/Adobe-C++/stepanov_vector, 0.7588, 0.7630, 0.7591, 0.7577, 0.7597,0.7591, 0.7604, 0.7594, 0.7597, 0.7594, 0.7599,0.7597,0.0790409695692329
MultiSource/Benchmarks/mediabench/mpeg2/mpeg2dec/mpeg2decode, 1.3253, 1.3200, 1.3175, 1.3206, 1.3204,1.3204, 1.3227, 1.3209, 1.3214, 1.3215, 1.3202,1.3214,0.07573462587093793
MultiSource/Benchmarks/mediabench/jpeg/jpeg-6a/cjpeg, 4.3022, 4.2983, 4.3001, 4.3014, 4.2942,4.3001, 4.3030, 4.3062, 4.2904, 4.2904, 4.3044,4.303,0.06744029208622937
MultiSource/Benchmarks/MiBench/consumer-typeset/consumer-typeset, 9.6841, 9.6485, 9.6512, 9.6473, 9.6609,9.6512, 9.6761, 9.6644, 9.6577, 9.6530, 9.6542,9.6577,0.0673491379310498
MultiSource/Benchmarks/TSVC/ControlLoops-dbl/ControlLoops-dbl, 2.5101, 2.5084, 2.5067, 2.5065, 2.5076,2.5076, 2.4951, 2.5079, 2.5113, 2.5091, 2.5128,2.5091,0.05981815281543845
SingleSource/Benchmarks/Shootout-C++/sieve, 0.1789, 0.1783, 0.1793, 0.1795, 0.1788,0.1789, 0.1790, 0.1785, 0.1791, 0.1788, 0.1792,0.179,0.05589714924538747
MultiSource/Benchmarks/MiBench/consumer-jpeg/consumer-jpeg, 4.2761, 4.2839, 4.2872, 4.2809, 4.2828,4.2828, 4.2850, 4.2839, 4.2884, 4.2813, 4.2874,4.285,0.051368263752693544
MultiSource/Benchmarks/Ptrdist/bc/bc, 0.9959, 0.9948, 0.9921, 0.9940, 0.9935,0.994, 0.9936, 0.9950, 0.9945, 0.9946, 0.9934,0.9945,0.050301810865205354
MultiSource/Benchmarks/Trimaran/netbench-url/netbench-url, 0.2019, 0.2004, 0.2008, 0.2003, 0.2002,0.2004, 0.2005, 0.2000, 0.2006, 0.2003, 0.2006,0.2005,0.04990019960080527
MultiSource/Applications/lua/lua, 3.0841, 3.0717, 3.0687, 3.0724, 3.0697,3.0717, 3.0694, 3.0753, 3.0680, 3.0731, 3.0728,3.0728,0.03581078881400579
SingleSource/Benchmarks/Adobe-C++/stepanov_abstraction, 0.6100, 0.6106, 0.6092, 0.6109, 0.6102,0.6102, 0.6107, 0.6104, 0.6109, 0.6096, 0.6102,0.6104,0.032776138970835866
MultiSource/Applications/minisat/minisat, 0.6078, 0.6066, 0.6060, 0.6062, 0.6054,0.6062, 0.6074, 0.6092, 0.6059, 0.6052, 0.6063,0.6063,0.016496205872651437
MultiSource/Applications/kimwitu++/kc,10.3416,10.3290,10.3169,10.3177,10.3271,10.3271,10.3258,10.3281,10.3191,10.3360,10.3283,10.3281,0.00968326054748836
SingleSource/Benchmarks/Stanford/Towers, 0.0449, 0.0446, 0.0447, 0.0449, 0.0446,0.0447, 0.0447, 0.0449, 0.0448, 0.0446, 0.0445,0.0447,0.0
SingleSource/Benchmarks/Stanford/Puzzle, 0.1173, 0.1168, 0.1170, 0.1172, 0.1169,0.117, 0.1170, 0.1170, 0.1169, 0.1169, 0.1172,0.117,0.0
SingleSource/Benchmarks/Stanford/FloatMM, 0.0597, 0.0593, 0.0591, 0.0592, 0.0593,0.0593, 0.0593, 0.0593, 0.0594, 0.0594, 0.0590,0.0593,0.0
SingleSource/Benchmarks/Shootout/ary3, 0.0333, 0.0330, 0.0329, 0.0329, 0.0330,0.033, 0.0329, 0.0330, 0.0331, 0.0327, 0.0330,0.033,0.0
SingleSource/Benchmarks/Polybench/stencils/seidel-2d/seidel-2d, 0.0764, 0.0760, 0.0760, 0.0763, 0.0761,0.0761, 0.0764, 0.0762, 0.0761, 0.0758, 0.0760,0.0761,0.0
SingleSource/Benchmarks/Polybench/linear-algebra/solvers/gramschmidt/gramschmidt, 0.1258, 0.1257, 0.1253, 0.1254, 0.1254,0.1254, 0.1254, 0.1254, 0.1254, 0.1253, 0.1252,0.1254,0.0
SingleSource/Benchmarks/Polybench/linear-algebra/kernels/syr2k/syr2k, 0.0879, 0.0873, 0.0873, 0.0873, 0.0873,0.0873, 0.0873, 0.0874, 0.0873, 0.0874, 0.0872,0.0873,0.0
SingleSource/Benchmarks/Polybench/datamining/covariance/covariance, 0.0996, 0.0991, 0.0996, 0.0993, 0.0994,0.0994, 0.0994, 0.0994, 0.0994, 0.0992, 0.0992,0.0994,0.0
SingleSource/Benchmarks/McGill/queens, 0.0454, 0.0450, 0.0448, 0.0451, 0.0450,0.045, 0.0450, 0.0450, 0.0449, 0.0451, 0.0450,0.045,0.0
SingleSource/Benchmarks/BenchmarkGame/fannkuch, 0.0482, 0.0479, 0.0479, 0.0479, 0.0479,0.0479, 0.0478, 0.0480, 0.0478, 0.0480, 0.0479,0.0479,0.0
MultiSource/Benchmarks/Prolangs-C++/life/life, 0.0632, 0.0630, 0.0629, 0.0630, 0.0628,0.063, 0.0631, 0.0629, 0.0632, 0.0628, 0.0630,0.063,0.0
MultiSource/Benchmarks/MiBench/security-sha/security-sha, 0.1306, 0.1300, 0.1299, 0.1301, 0.1300,0.13, 0.1300, 0.1300, 0.1299, 0.1302, 0.1298,0.13,0.0
MultiSource/Benchmarks/MiBench/network-dijkstra/network-dijkstra, 0.0413, 0.0412, 0.0409, 0.0410, 0.0409,0.041, 0.0410, 0.0409, 0.0410, 0.0410, 0.0410,0.041,0.0
MultiSource/Benchmarks/Fhourstones/fhourstones, 0.1608, 0.1595, 0.1596, 0.1598, 0.1596,0.1596, 0.1596, 0.1596, 0.1594, 0.1595, 0.1596,0.1596,0.0
MultiSource/Benchmarks/BitBench/uudecode/uudecode, 0.0430, 0.0429, 0.0428, 0.0430, 0.0428,0.0429, 0.0429, 0.0429, 0.0426, 0.0427, 0.0429,0.0429,0.0
MultiSource/Benchmarks/TSVC/ControlLoops-flt/ControlLoops-flt, 2.2515, 2.2509, 2.2463, 2.2527, 2.2483,2.2509, 2.2521, 2.2547, 2.2508, 2.2481, 2.2473,2.2508,-0.004442667377502207
MultiSource/Benchmarks/MiBench/telecomm-gsm/telecomm-gsm, 1.0722, 1.0636, 1.0626, 1.0636, 1.0625,1.0636, 1.0641, 1.0638, 1.0630, 1.0625, 1.0635,1.0635,-0.009402030838678854
MultiSource/Benchmarks/ASCI_Purple/SMG2000/smg2000, 6.0676, 6.0470, 6.0440, 6.0523, 6.0484,6.0484, 6.0472, 6.0546, 6.0466, 6.0477, 6.0440,6.0472,-0.019839957674749886
MultiSource/Benchmarks/TSVC/StatementReordering-flt/StatementReordering-flt, 2.1361, 2.1338, 2.1348, 2.1386, 2.1343,2.1348, 2.1341, 2.1289, 2.1351, 2.1436, 2.1324,2.1341,-0.03278995690461084
MultiSource/Benchmarks/TSVC/ControlFlow-dbl/ControlFlow-dbl, 2.6201, 2.6431, 2.6212, 2.6248, 2.6302,2.6248, 2.6272, 2.6196, 2.6238, 2.6221, 2.6235,2.6235,-0.04952758305395433
MultiSource/Benchmarks/Prolangs-C/bison/mybison, 1.5809, 1.5725, 1.5724, 1.5721, 1.5722,1.5724, 1.5732, 1.5706, 1.5717, 1.5716, 1.5715,1.5716,-0.050877639277535636
MultiSource/Benchmarks/ASC_Sequoia/AMGmk/AMGmk, 0.5829, 0.5813, 0.5799, 0.5805, 0.5805,0.5805, 0.5799, 0.5810, 0.5805, 0.5794, 0.5802,0.5802,-0.051679586563302404
MultiSource/Benchmarks/7zip/7zip-benchmark,33.6134,33.4799,33.4739,33.4985,33.5126,33.4985,33.4798,33.5523,33.4957,33.4716,33.4793,33.4798,-0.055823395077403415
MultiSource/Benchmarks/Trimaran/enc-md5/enc-md5, 0.1677, 0.1671, 0.1677, 0.1671, 0.1672,0.1672, 0.1668, 0.1674, 0.1671, 0.1672, 0.1669,0.1671,-0.059808612440181985
MultiSource/Applications/viterbi/viterbi, 0.1580, 0.1568, 0.1567, 0.1570, 0.1568,0.1568, 0.1574, 0.1573, 0.1567, 0.1565, 0.1566,0.1567,-0.06377551020407823
SingleSource/Benchmarks/Polybench/stencils/fdtd-apml/fdtd-apml, 0.1498, 0.1495, 0.1493, 0.1496, 0.1494,0.1495, 0.1493, 0.1498, 0.1494, 0.1493, 0.1494,0.1494,-0.06688963210701449
MultiSource/Applications/hbd/hbd, 1.1581, 1.1501, 1.1490, 1.1513, 1.1497,1.1501, 1.1493, 1.1514, 1.1493, 1.1472, 1.1492,1.1493,-0.06955916876792978
SingleSource/Benchmarks/Misc-C++/bigfib, 0.4275, 0.4287, 0.4257, 0.4270, 0.4261,0.427, 0.4252, 0.4270, 0.4257, 0.4267, 0.4280,0.4267,-0.070257611241209
MultiSource/Benchmarks/Trimaran/enc-3des/enc-3des, 0.2633, 0.2626, 0.2626, 0.2627, 0.2626,0.2626, 0.2624, 0.2622, 0.2631, 0.2622, 0.2625,0.2624,-0.07616146230007281
MultiSource/Benchmarks/Bullet/bullet,22.5168,22.4510,22.4422,22.4584,22.4541,22.4541,22.4335,22.4531,22.4368,22.4165,22.4374,22.4368,-0.07704606285711124
MultiSource/Benchmarks/Fhourstones-3.1/fhourstones3.1, 0.1295, 0.1294, 0.1292, 0.1291, 0.1295,0.1294, 0.1292, 0.1293, 0.1292, 0.1293, 0.1294,0.1293,-0.07727975270478415
MultiSource/Applications/SPASS/SPASS,11.8968,11.8363,11.8514,11.8600,11.8591,11.8591,11.8503,11.8495,11.8404,11.8413,11.8583,11.8495,-0.0809504937136829
MultiSource/Benchmarks/Olden/voronoi/voronoi, 0.2266, 0.2249, 0.2252, 0.2254, 0.2250,0.2252, 0.2249, 0.2251, 0.2253, 0.2246, 0.2250,0.225,-0.0888099467140302
SingleSource/Benchmarks/Polybench/linear-algebra/kernels/doitgen/doitgen, 0.1128, 0.1127, 0.1120, 0.1121, 0.1124,0.1124, 0.1123, 0.1123, 0.1129, 0.1122, 0.1130,0.1123,-0.0889679715302516
MultiSource/Benchmarks/McCat/18-imp/imp, 0.3327, 0.3311, 0.3314, 0.3318, 0.3318,0.3318, 0.3322, 0.3332, 0.3313, 0.3312, 0.3315,0.3315,-0.09041591320071429
MultiSource/Benchmarks/VersaBench/ecbdes/ecbdes, 0.2181, 0.2158, 0.2162, 0.2166, 0.2160,0.2162, 0.2164, 0.2160, 0.2158, 0.2155, 0.2169,0.216,-0.09250693802035359
MultiSource/Benchmarks/Ptrdist/yacr2/yacr2, 0.6135, 0.6112, 0.6105, 0.6105, 0.6115,0.6112, 0.6124, 0.6106, 0.6108, 0.6104, 0.6104,0.6106,-0.09816753926700228
MultiSource/Benchmarks/MiBench/consumer-lame/consumer-lame, 4.2474, 4.2372, 4.2226, 4.2470, 4.2349,4.2372, 4.2356, 4.2334, 4.2330, 4.2256, 4.2239,4.233,-0.09912206173888771
MultiSource/Applications/sgefa/sgefa, 0.3999, 0.3994, 0.3986, 0.3979, 0.3992,0.3992, 0.3986, 0.3991, 0.3993, 0.3985, 0.3988,0.3988,-0.10020040080160886
SingleSource/Benchmarks/SmallPT/smallpt, 0.0997, 0.0996, 0.1000, 0.0994, 0.0996,0.0996, 0.0995, 0.0996, 0.0999, 0.0994, 0.0994,0.0995,-0.10040160642569296
MultiSource/Benchmarks/McCat/05-eks/eks, 0.5927, 0.5901, 0.5891, 0.5908, 0.5912,0.5908, 0.5902, 0.5904, 0.5904, 0.5899, 0.5896,0.5902,-0.10155721056195333
SingleSource/Benchmarks/Polybench/stencils/jacobi-1d-imper/jacobi-1d-imper, 0.0910, 0.0905, 0.0902, 0.0904, 0.0905,0.0905, 0.0907, 0.0904, 0.0904, 0.0902, 0.0903,0.0904,-0.11049723756906271
SingleSource/Benchmarks/Polybench/medley/floyd-warshall/floyd-warshall, 0.0858, 0.0851, 0.0852, 0.0855, 0.0857,0.0855, 0.0857, 0.0854, 0.0854, 0.0859, 0.0852,0.0854,-0.11695906432749315
MultiSource/Benchmarks/McCat/09-vor/vor, 0.2577, 0.2557, 0.2558, 0.2563, 0.2560,0.256, 0.2556, 0.2562, 0.2557, 0.2551, 0.2560,0.2557,-0.11718750000000444
MultiSource/Benchmarks/MiBench/network-patricia/network-patricia, 0.0775, 0.0768, 0.0767, 0.0768, 0.0768,0.0768, 0.0766, 0.0767, 0.0771, 0.0767, 0.0766,0.0767,-0.13020833333331483
MultiSource/Benchmarks/mediabench/gsm/toast/toast, 1.0689, 1.0623, 1.0604, 1.0628, 1.0615,1.0623, 1.0613, 1.0619, 1.0593, 1.0597, 1.0609,1.0609,-0.13178951332015743
MultiSource/Applications/JM/ldecod/ldecod, 6.5814, 6.5489, 6.5657, 6.5633, 6.5398,6.5633, 6.5837, 6.5539, 6.5511, 6.5661, 6.5540,6.554,-0.14169701217374708
MultiSource/Benchmarks/DOE-ProxyApps-C/XSBench/XSBench, 0.3414, 0.3391, 0.3388, 0.3398, 0.3392,0.3392, 0.3390, 0.3395, 0.3384, 0.3384, 0.3387,0.3387,-0.14740566037735325
SingleSource/Benchmarks/Polybench/linear-algebra/kernels/trisolv/trisolv, 0.0679, 0.0677, 0.0675, 0.0678, 0.0678,0.0678, 0.0676, 0.0679, 0.0676, 0.0677, 0.0678,0.0677,-0.1474926253687392
MultiSource/Benchmarks/Ptrdist/ks/ks, 0.1363, 0.1356, 0.1351, 0.1355, 0.1352,0.1355, 0.1354, 0.1354, 0.1353, 0.1352, 0.1352,0.1353,-0.14760147601476925
MultiSource/Applications/ClamAV/clamscan,13.0346,12.9631,12.9280,12.9609,12.9497,12.9609,12.9376,12.9415,12.9492,12.9480,12.9369,12.9415,-0.14968096351334337
MultiSource/Benchmarks/MallocBench/gs/gs, 3.5626, 3.5402, 3.5391, 3.5403, 3.5401,3.5402, 3.5323, 3.5366, 3.5305, 3.5347, 3.5379,3.5347,-0.1553584543246167
MultiSource/Benchmarks/McCat/04-bisect/bisect, 0.1257, 0.1253, 0.1248, 0.1253, 0.1255,0.1253, 0.1252, 0.1251, 0.1245, 0.1252, 0.1247,0.1251,-0.15961691939345712
SingleSource/Benchmarks/Shootout-C++/fibo, 0.1131, 0.1130, 0.1128, 0.1129, 0.1126,0.1129, 0.1121, 0.1129, 0.1124, 0.1127, 0.1130,0.1127,-0.1771479185119662
SingleSource/Benchmarks/Misc-C++-EH/spirit, 3.1577, 3.1515, 3.1398, 3.1518, 3.1468,3.1515, 3.1476, 3.1459, 3.1296, 3.1389, 3.1550,3.1459,-0.17769316198634755
SingleSource/Benchmarks/Stanford/RealMM, 0.0560, 0.0558, 0.0558, 0.0558, 0.0558,0.0558, 0.0557, 0.0558, 0.0559, 0.0556, 0.0556,0.0557,-0.17921146953405742
SingleSource/Benchmarks/Shootout-C++/ary2, 0.1617, 0.1606, 0.1614, 0.1608, 0.1612,0.1612, 0.1600, 0.1617, 0.1610, 0.1609, 0.1608,0.1609,-0.18610421836229296
SingleSource/Benchmarks/Misc-C++/Large/sphereflake, 0.2127, 0.2126, 0.2129, 0.2123, 0.2122,0.2126, 0.2122, 0.2128, 0.2118, 0.2121, 0.2123,0.2122,-0.18814675446848783
SingleSource/Benchmarks/McGill/misr, 0.0526, 0.0523, 0.0521, 0.0523, 0.0522,0.0523, 0.0523, 0.0522, 0.0521, 0.0522, 0.0521,0.0522,-0.19120458891012104
SingleSource/Benchmarks/Polybench/stencils/adi/adi, 0.1040, 0.1035, 0.1039, 0.1036, 0.1037,0.1037, 0.1035, 0.1039, 0.1035, 0.1035, 0.1035,0.1035,-0.192864030858253
MultiSource/Benchmarks/llubenchmark/llu, 0.0494, 0.0495, 0.0492, 0.0491, 0.0491,0.0492, 0.0491, 0.0492, 0.0491, 0.0493, 0.0491,0.0491,-0.20325203252032908
SingleSource/Benchmarks/Shootout/hash, 0.0484, 0.0481, 0.0482, 0.0485, 0.0480,0.0482, 0.0481, 0.0482, 0.0479, 0.0479, 0.0481,0.0481,-0.20746887966806016
MultiSource/Benchmarks/Prolangs-C++/employ/employ, 0.1921, 0.1920, 0.1917, 0.1925, 0.1918,0.192, 0.1912, 0.1916, 0.1913, 0.1925, 0.1921,0.1916,-0.2083333333333437
SingleSource/Benchmarks/Shootout-C++/lists1, 0.1895, 0.1891, 0.1893, 0.1903, 0.1899,0.1895, 0.1880, 0.1888, 0.1891, 0.1891, 0.1892,0.1891,-0.21108179419525586
MultiSource/Benchmarks/TSVC/NodeSplitting-flt/NodeSplitting-flt, 2.1834, 2.1743, 2.1720, 2.1702, 2.1737,2.1737, 2.1776, 2.1677, 2.1704, 2.1691, 2.1681,2.1691,-0.21162073883241872
MultiSource/Benchmarks/TSVC/LinearDependence-dbl/LinearDependence-dbl, 2.5444, 2.5460, 2.5439, 2.5553, 2.5439,2.5444, 2.5416, 2.5333, 2.5407, 2.5390, 2.5287,2.539,-0.21223078132368567
MultiSource/Benchmarks/MiBench/security-rijndael/security-rijndael, 0.4006, 0.4006, 0.3996, 0.4002, 0.4005,0.4005, 0.3996, 0.3995, 0.3994, 0.3999, 0.3997,0.3996,-0.22471910112359383
SingleSource/Benchmarks/CoyoteBench/huffbench, 0.0879, 0.0878, 0.0874, 0.0875, 0.0877,0.0877, 0.0876, 0.0875, 0.0876, 0.0874, 0.0874,0.0875,-0.22805017103763037
SingleSource/Benchmarks/Shootout-C++/heapsort, 0.1315, 0.1307, 0.1310, 0.1310, 0.1306,0.131, 0.1297, 0.1307, 0.1307, 0.1299, 0.1311,0.1307,-0.22900763358778553
SingleSource/Benchmarks/Polybench/linear-algebra/solvers/dynprog/dynprog, 0.0861, 0.0862, 0.0864, 0.0860, 0.0859,0.0861, 0.0858, 0.0860, 0.0860, 0.0859, 0.0859,0.0859,-0.23228803716607294
SingleSource/Benchmarks/Misc-C++/stepanov_v1p2, 0.1713, 0.1708, 0.1704, 0.1715, 0.1709,0.1709, 0.1707, 0.1707, 0.1702, 0.1704, 0.1705,0.1705,-0.2340550029256816
SingleSource/Benchmarks/BenchmarkGame/Large/fasta, 0.0420, 0.0419, 0.0418, 0.0420, 0.0418,0.0419, 0.0416, 0.0419, 0.0418, 0.0414, 0.0418,0.0418,-0.23866348448687846
MultiSource/Benchmarks/BitBench/uuencode/uuencode, 0.0423, 0.0419, 0.0418, 0.0419, 0.0419,0.0419, 0.0419, 0.0418, 0.0417, 0.0418, 0.0417,0.0418,-0.23866348448687846
MultiSource/Benchmarks/BitBench/drop3/drop3, 0.0416, 0.0412, 0.0410, 0.0412, 0.0413,0.0412, 0.0410, 0.0412, 0.0411, 0.0409, 0.0411,0.0411,-0.24271844660195274
MultiSource/Benchmarks/FreeBench/analyzer/analyzer, 0.2410, 0.2406, 0.2398, 0.2395, 0.2399,0.2399, 0.2389, 0.2394, 0.2395, 0.2392, 0.2393,0.2393,-0.2501042100875317
MultiSource/Benchmarks/MiBench/telecomm-FFT/telecomm-fft, 0.1571, 0.1558, 0.1554, 0.1560, 0.1554,0.1558, 0.1554, 0.1549, 0.1551, 0.1561, 0.1562,0.1554,-0.25673940949935137
SingleSource/Benchmarks/Shootout/heapsort, 0.0389, 0.0387, 0.0387, 0.0388, 0.0387,0.0387, 0.0386, 0.0387, 0.0386, 0.0386, 0.0386,0.0386,-0.2583979328165231
SingleSource/Benchmarks/Shootout-C++/ary, 0.1548, 0.1540, 0.1544, 0.1547, 0.1543,0.1544, 0.1537, 0.1543, 0.1540, 0.1539, 0.1547,0.154,-0.2590673575129654
MultiSource/Benchmarks/sim/sim, 0.2957, 0.2948, 0.2945, 0.2956, 0.2962,0.2956, 0.2956, 0.2947, 0.2947, 0.2948, 0.2952,0.2948,-0.27063599458726495
MultiSource/Benchmarks/Olden/bh/bh, 0.2518, 0.2509, 0.2500, 0.2504, 0.2502,0.2504, 0.2496, 0.2508, 0.2501, 0.2497, 0.2495,0.2497,-0.27955271565495154
SingleSource/Benchmarks/Polybench/linear-algebra/kernels/gemver/gemver, 0.1072, 0.1070, 0.1068, 0.1068, 0.1072,0.107, 0.1067, 0.1071, 0.1070, 0.1067, 0.1067,0.1067,-0.2803738317756932
MultiSource/Benchmarks/NPB-serial/is/is, 0.0703, 0.0699, 0.0697, 0.0698, 0.0699,0.0699, 0.0699, 0.0697, 0.0698, 0.0696, 0.0696,0.0697,-0.28612303290416197
MultiSource/Benchmarks/Olden/em3d/em3d, 0.1741, 0.1726, 0.1726, 0.1726, 0.1725,0.1726, 0.1721, 0.1721, 0.1720, 0.1723, 0.1723,0.1721,-0.28968713789108147
SingleSource/Benchmarks/Misc/whetstone, 0.0686, 0.0684, 0.0684, 0.0686, 0.0687,0.0686, 0.0683, 0.0685, 0.0684, 0.0685, 0.0683,0.0684,-0.2915451895043608
MultiSource/Applications/hexxagon/hexxagon, 0.6985, 0.6980, 0.6961, 0.6991, 0.6963,0.698, 0.6948, 0.6961, 0.6959, 0.6966, 0.6957,0.6959,-0.30085959885386426
MultiSource/Benchmarks/McCat/17-bintr/bintr, 0.0655, 0.0649, 0.0650, 0.0651, 0.0651,0.0651, 0.0648, 0.0649, 0.0651, 0.0650, 0.0647,0.0649,-0.3072196620583778
MultiSource/Benchmarks/Ptrdist/ft/ft, 0.1947, 0.1932, 0.1936, 0.1933, 0.1929,0.1933, 0.1927, 0.1933, 0.1928, 0.1924, 0.1923,0.1927,-0.3103983445421621
MultiSource/Benchmarks/McCat/08-main/main, 0.2226, 0.2217, 0.2216, 0.2215, 0.2206,0.2216, 0.2209, 0.2218, 0.2208, 0.2211, 0.2207,0.2209,-0.3158844765342894
SingleSource/Benchmarks/Shootout-C++/lists, 0.1577, 0.1572, 0.1575, 0.1577, 0.1576,0.1576, 0.1565, 0.1571, 0.1573, 0.1573, 0.1570,0.1571,-0.31725888324872775
MultiSource/Benchmarks/Olden/mst/mst, 0.1256, 0.1242, 0.1241, 0.1244, 0.1244,0.1244, 0.1241, 0.1240, 0.1241, 0.1237, 0.1240,0.124,-0.3215434083601254
MultiSource/Benchmarks/Olden/power/power, 0.1214, 0.1207, 0.1208, 0.1206, 0.1209,0.1208, 0.1204, 0.1204, 0.1204, 0.1203, 0.1206,0.1204,-0.33112582781458233
MultiSource/Applications/spiff/spiff, 0.7116, 0.7071, 0.7050, 0.7056, 0.7069,0.7069, 0.7045, 0.7060, 0.7044, 0.7043, 0.7066,0.7045,-0.3395105389729758
SingleSource/Benchmarks/Polybench/linear-algebra/kernels/atax/atax, 0.0884, 0.0879, 0.0885, 0.0881, 0.0881,0.0881, 0.0880, 0.0881, 0.0878, 0.0878, 0.0877,0.0878,-0.34052213393870323
SingleSource/Benchmarks/Shootout-C++/ackermann, 0.1147, 0.1142, 0.1144, 0.1143, 0.1143,0.1143, 0.1137, 0.1148, 0.1139, 0.1139, 0.1145,0.1139,-0.34995625546806464
SingleSource/Benchmarks/Polybench/linear-algebra/kernels/symm/symm, 0.0852, 0.0851, 0.0847, 0.0851, 0.0851,0.0851, 0.0850, 0.0849, 0.0848, 0.0846, 0.0846,0.0848,-0.3525264394829586
MultiSource/Benchmarks/BitBench/five11/five11, 0.0539, 0.0537, 0.0535, 0.0535, 0.0538,0.0537, 0.0533, 0.0536, 0.0535, 0.0536, 0.0534,0.0535,-0.3724394785847296
SingleSource/Benchmarks/Misc/flops-5, 0.0268, 0.0267, 0.0266, 0.0267, 0.0267,0.0267, 0.0266, 0.0267, 0.0266, 0.0265, 0.0266,0.0266,-0.3745318352060045
MultiSource/Benchmarks/Trimaran/netbench-crc/netbench-crc, 0.0779, 0.0774, 0.0769, 0.0771, 0.0772,0.0772, 0.0769, 0.0770, 0.0770, 0.0767, 0.0769,0.0769,-0.38860103626944253
SingleSource/Benchmarks/BenchmarkGame/n-body, 0.0761, 0.0759, 0.0757, 0.0758, 0.0758,0.0758, 0.0757, 0.0756, 0.0755, 0.0755, 0.0755,0.0755,-0.3957783641161061
SingleSource/Benchmarks/Shootout-C++/random, 0.1230, 0.1224, 0.1228, 0.1225, 0.1223,0.1225, 0.1215, 0.1222, 0.1218, 0.1220, 0.1222,0.122,-0.40816326530612734
SingleSource/Benchmarks/Misc/flops, 0.0736, 0.0731, 0.0730, 0.0732, 0.0735,0.0732, 0.0728, 0.0730, 0.0729, 0.0729, 0.0731,0.0729,-0.4098360655737654
SingleSource/Benchmarks/Polybench/linear-algebra/kernels/gesummv/gesummv, 0.0706, 0.0701, 0.0701, 0.0708, 0.0704,0.0704, 0.0701, 0.0703, 0.0700, 0.0700, 0.0702,0.0701,-0.42613636363637575
MultiSource/Benchmarks/FreeBench/mason/mason, 0.0469, 0.0467, 0.0466, 0.0467, 0.0466,0.0467, 0.0465, 0.0466, 0.0465, 0.0465, 0.0467,0.0465,-0.4282655246252598
SingleSource/Benchmarks/Shootout-C++/ary3, 0.1590, 0.1579, 0.1585, 0.1582, 0.1586,0.1585, 0.1578, 0.1582, 0.1578, 0.1578, 0.1578,0.1578,-0.44164037854890204
MultiSource/Benchmarks/Prolangs-C++/city/city, 0.8790, 0.8767, 0.8770, 0.8777, 0.8790,0.8777, 0.8716, 0.8768, 0.8738, 0.8719, 0.8761,0.8738,-0.44434316964794274
SingleSource/Benchmarks/Misc/perlin, 0.0447, 0.0443, 0.0442, 0.0443, 0.0442,0.0443, 0.0440, 0.0442, 0.0442, 0.0441, 0.0441,0.0441,-0.4514672686230181
SingleSource/Benchmarks/Shootout/ackermann, 0.0220, 0.0217, 0.0218, 0.0218, 0.0217,0.0218, 0.0216, 0.0217, 0.0216, 0.0217, 0.0217,0.0217,-0.4587155963302725
MultiSource/Benchmarks/Olden/health/health, 0.1291, 0.1283, 0.1275, 0.1281, 0.1280,0.1281, 0.1276, 0.1275, 0.1275, 0.1272, 0.1280,0.1275,-0.4683840749414414
SingleSource/Benchmarks/CoyoteBench/almabench, 0.0622, 0.0623, 0.0621, 0.0622, 0.0623,0.0622, 0.0619, 0.0623, 0.0617, 0.0618, 0.0619,0.0619,-0.4823151125401992
SingleSource/Benchmarks/Shootout-C++/strcat, 0.1227, 0.1224, 0.1225, 0.1228, 0.1225,0.1225, 0.1217, 0.1225, 0.1219, 0.1219, 0.1218,0.1219,-0.4897959183673528
SingleSource/Benchmarks/Shootout-C++/methcall, 0.1226, 0.1225, 0.1225, 0.1224, 0.1223,0.1225, 0.1216, 0.1228, 0.1219, 0.1219, 0.1220,0.1219,-0.4897959183673528
MultiSource/Applications/aha/aha, 0.0961, 0.0954, 0.0954, 0.0955, 0.0958,0.0955, 0.0952, 0.0951, 0.0949, 0.0950, 0.0949,0.095,-0.5235602094240788
MultiSource/Benchmarks/FreeBench/distray/distray, 0.0938, 0.0932, 0.0932, 0.0938, 0.0933,0.0933, 0.0928, 0.0930, 0.0931, 0.0927, 0.0928,0.0928,-0.5359056806002127
SingleSource/Benchmarks/Shootout-C++/nestedloop, 0.1145, 0.1138, 0.1138, 0.1137, 0.1145,0.1138, 0.1127, 0.1138, 0.1131, 0.1130, 0.1132,0.1131,-0.6151142355008687
SingleSource/Benchmarks/BenchmarkGame/nsieve-bits, 0.0314, 0.0312, 0.0311, 0.0314, 0.0313,0.0313, 0.0311, 0.0312, 0.0311, 0.0311, 0.0312,0.0311,-0.6389776357827559
SingleSource/Benchmarks/Misc/matmul_f64_4x4, 0.0291, 0.0289, 0.0288, 0.0287, 0.0289,0.0289, 0.0288, 0.0288, 0.0287, 0.0287, 0.0287,0.0287,-0.692041522491349
SingleSource/Benchmarks/Dhrystone/fldry, 0.0413, 0.0413, 0.0410, 0.0411, 0.0412,0.0412, 0.0409, 0.0410, 0.0408, 0.0410, 0.0408,0.0409,-0.7281553398058249
MultiSource/Benchmarks/MiBench/automotive-basicmath/automotive-basicmath, 0.1374, 0.1355, 0.1361, 0.1362, 0.1362,0.1362, 0.1352, 0.1354, 0.1352, 0.1348, 0.1352,0.1352,-0.7342143906020615
SingleSource/Benchmarks/Stanford/Treesort, 0.0366, 0.0365, 0.0362, 0.0364, 0.0363,0.0364, 0.0360, 0.0362, 0.0363, 0.0361, 0.0360,0.0361,-0.8241758241758323
SingleSource/Benchmarks/Misc-C++/mandel-text, 0.0229, 0.0225, 0.0226, 0.0227, 0.0227,0.0227, 0.0225, 0.0227, 0.0225, 0.0226, 0.0225,0.0225,-0.8810572687224738
SingleSource/Benchmarks/Shootout/random, 0.0286, 0.0284, 0.0283, 0.0284, 0.0284,0.0284, 0.0281, 0.0283, 0.0282, 0.0281, 0.0281,0.0281,-1.0563380281690238
Total elapsed time,-,-,-,-,-,349.60180000000037,-,-,-,-,-,349.80939999999975,0.05938184528779811
Total failure,-,-,-,-,-,0,-,-,-,-,-,0,
