Benchmarks,base,base,base,base,base,median,intptr,intptr,intptr,intptr,intptr,median,Slowdown(%)
SingleSource/Benchmarks/CoyoteBench/almabench, 0.0622, 0.0623, 0.0621, 0.0622, 0.0623,0.0622, 0.0633, 0.0639, 0.0637, 0.0639, 0.0634,0.0637,2.411575562700974
MultiSource/Benchmarks/TSVC/Expansion-flt/Expansion-flt, 2.2556, 2.2428, 2.2433, 2.2441, 2.2492,2.2441, 2.2603, 2.2626, 2.2638, 2.2623, 2.2651,2.2626,0.8243839401096187
MultiSource/Benchmarks/Trimaran/enc-3des/enc-3des, 0.2633, 0.2626, 0.2626, 0.2627, 0.2626,0.2626, 0.2640, 0.2654, 0.2638, 0.2650, 0.2647,0.2647,0.7996953541507867
MultiSource/Benchmarks/TSVC/CrossingThresholds-flt/CrossingThresholds-flt, 2.2093, 2.1875, 2.1847, 2.1875, 2.1865,2.1875, 2.2000, 2.2065, 2.2143, 2.2015, 2.2040,2.204,0.7542857142857295
MultiSource/Benchmarks/TSVC/GlobalDataFlow-flt/GlobalDataFlow-flt, 2.2359, 2.2382, 2.2345, 2.2332, 2.2247,2.2345, 2.2488, 2.2570, 2.2428, 2.2495, 2.2607,2.2495,0.6712911165808855
MultiSource/Benchmarks/TSVC/Searching-flt/Searching-flt, 2.1139, 2.1111, 2.1142, 2.1095, 2.1109,2.1111, 2.1234, 2.1338, 2.1240, 2.1303, 2.1243,2.1243,0.6252664487707671
MultiSource/Benchmarks/TSVC/Packing-dbl/Packing-dbl, 2.3908, 2.3868, 2.3958, 2.3842, 2.3859,2.3868, 2.4004, 2.4035, 2.4012, 2.3971, 2.4008,2.4008,0.586559410088805
MultiSource/Benchmarks/TSVC/LinearDependence-flt/LinearDependence-flt, 2.2818, 2.2871, 2.2806, 2.2773, 2.2841,2.2818, 2.2881, 2.2955, 2.2967, 2.2896, 2.2940,2.294,0.5346656148654594
MultiSource/Benchmarks/TSVC/StatementReordering-dbl/StatementReordering-dbl, 2.3937, 2.3892, 2.3861, 2.3882, 2.3883,2.3883, 2.3986, 2.4045, 2.4009, 2.4011, 2.3998,2.4009,0.5275719130762413
MultiSource/Benchmarks/TSVC/GlobalDataFlow-dbl/GlobalDataFlow-dbl, 2.4985, 2.4961, 2.5020, 2.4918, 2.4944,2.4961, 2.5082, 2.5109, 2.5115, 2.5044, 2.5057,2.5082,0.48475621970272
MultiSource/Benchmarks/Trimaran/enc-md5/enc-md5, 0.1677, 0.1671, 0.1677, 0.1671, 0.1672,0.1672, 0.1681, 0.1684, 0.1678, 0.1680, 0.1679,0.168,0.4784688995215447
MultiSource/Benchmarks/TSVC/ControlLoops-flt/ControlLoops-flt, 2.2515, 2.2509, 2.2463, 2.2527, 2.2483,2.2509, 2.2594, 2.2614, 2.2559, 2.2655, 2.2696,2.2614,0.4664800746368103
MultiSource/Benchmarks/TSVC/IndirectAddressing-flt/IndirectAddressing-flt, 2.1716, 2.1869, 2.1702, 2.1679, 2.1761,2.1716, 2.1780, 2.1820, 2.1777, 2.1815, 2.1921,2.1815,0.4558850617056631
MultiSource/Benchmarks/TSVC/Reductions-dbl/Reductions-dbl, 2.5154, 2.5069, 2.4990, 2.5043, 2.5117,2.5069, 2.5196, 2.5190, 2.5180, 2.5126, 2.5173,2.518,0.44277793290516954
SingleSource/Benchmarks/Stanford/Queens, 0.0458, 0.0454, 0.0454, 0.0455, 0.0453,0.0454, 0.0457, 0.0456, 0.0456, 0.0454, 0.0454,0.0456,0.4405286343612369
MultiSource/Benchmarks/TSVC/Recurrences-dbl/Recurrences-dbl, 2.3905, 2.3974, 2.3879, 2.3881, 2.3877,2.3881, 2.4012, 2.4022, 2.3957, 2.3984, 2.3968,2.3984,0.43130522172438734
MultiSource/Benchmarks/TSVC/CrossingThresholds-dbl/CrossingThresholds-dbl, 2.4525, 2.4488, 2.4467, 2.4505, 2.4487,2.4488, 2.4666, 2.4592, 2.4571, 2.4596, 2.4564,2.4592,0.424697811172825
MultiSource/Benchmarks/TSVC/InductionVariable-dbl/InductionVariable-dbl, 2.4680, 2.4683, 2.4788, 2.4750, 2.4675,2.4683, 2.4775, 2.4800, 2.4800, 2.4785, 2.4780,2.4785,0.41323988169994497
MultiSource/Benchmarks/TSVC/LoopRestructuring-dbl/LoopRestructuring-dbl, 2.4590, 2.4665, 2.4828, 2.4743, 2.4692,2.4692, 2.4676, 2.4849, 2.4791, 2.4790, 2.4772,2.479,0.39688968086830645
MultiSource/Benchmarks/TSVC/Equivalencing-dbl/Equivalencing-dbl, 2.4471, 2.4556, 2.4549, 2.4512, 2.4552,2.4549, 2.4445, 2.4700, 2.4612, 2.4639, 2.4685,2.4639,0.3666137113528256
MultiSource/Benchmarks/TSVC/Expansion-dbl/Expansion-dbl, 2.5080, 2.5070, 2.5084, 2.5058, 2.5069,2.507, 2.5160, 2.5167, 2.5138, 2.5166, 2.5158,2.516,0.35899481451933113
MultiSource/Benchmarks/TSVC/Recurrences-flt/Recurrences-flt, 2.1327, 2.1349, 2.1280, 2.1309, 2.1305,2.1309, 2.1385, 2.1417, 2.1385, 2.1457, 2.1364,2.1385,0.3566568116758262
MultiSource/Benchmarks/TSVC/Reductions-flt/Reductions-flt, 2.2544, 2.2507, 2.2506, 2.2492, 2.2508,2.2507, 2.2579, 2.2626, 2.2649, 2.2585, 2.2569,2.2585,0.34655884835828044
MultiSource/Benchmarks/TSVC/ControlLoops-dbl/ControlLoops-dbl, 2.5101, 2.5084, 2.5067, 2.5065, 2.5076,2.5076, 2.5156, 2.5191, 2.5160, 2.5170, 2.5159,2.516,0.3349816557664642
MultiSource/Benchmarks/TSVC/InductionVariable-flt/InductionVariable-flt, 2.2086, 2.2115, 2.2234, 2.2102, 2.2126,2.2115, 2.2091, 2.2280, 2.2189, 2.2298, 2.2168,2.2189,0.3346145150350477
MultiSource/Benchmarks/TSVC/Searching-dbl/Searching-dbl, 2.3744, 2.3692, 2.3742, 2.3687, 2.3792,2.3742, 2.3787, 2.3830, 2.3713, 2.3820, 2.3927,2.382,0.32853171594642294
MultiSource/Benchmarks/VersaBench/ecbdes/ecbdes, 0.2181, 0.2158, 0.2162, 0.2166, 0.2160,0.2162, 0.2169, 0.2171, 0.2175, 0.2169, 0.2168,0.2169,0.3237742830712431
MultiSource/Benchmarks/TSVC/StatementReordering-flt/StatementReordering-flt, 2.1361, 2.1338, 2.1348, 2.1386, 2.1343,2.1348, 2.1412, 2.1415, 2.1421, 2.1486, 2.1388,2.1415,0.3138467303728909
MultiSource/Benchmarks/TSVC/ControlFlow-flt/ControlFlow-flt, 2.3617, 2.3571, 2.3627, 2.3691, 2.3567,2.3617, 2.3689, 2.3723, 2.3716, 2.3690, 2.3668,2.369,0.30909937756702366
MultiSource/Benchmarks/TSVC/ControlFlow-dbl/ControlFlow-dbl, 2.6201, 2.6431, 2.6212, 2.6248, 2.6302,2.6248, 2.6296, 2.6439, 2.6292, 2.6329, 2.6340,2.6329,0.3085949405668975
MultiSource/Benchmarks/PAQ8p/paq8p, 2.0421, 2.0515, 2.0520, 2.0499, 2.0506,2.0506, 2.0405, 2.0565, 2.0594, 2.0515, 2.0608,2.0565,0.28772066712181577
MultiSource/Benchmarks/TSVC/LoopRerolling-dbl/LoopRerolling-dbl, 2.4072, 2.4019, 2.4138, 2.4015, 2.4033,2.4033, 2.4082, 2.4144, 2.4143, 2.4099, 2.4090,2.4099,0.2746223942079462
MultiSource/Benchmarks/TSVC/LinearDependence-dbl/LinearDependence-dbl, 2.5444, 2.5460, 2.5439, 2.5553, 2.5439,2.5444, 2.5473, 2.5501, 2.5524, 2.5502, 2.5469,2.5501,0.22402138028612129
SingleSource/Benchmarks/Stanford/Towers, 0.0449, 0.0446, 0.0447, 0.0449, 0.0446,0.0447, 0.0449, 0.0448, 0.0448, 0.0446, 0.0446,0.0448,0.22371364653244186
SingleSource/Benchmarks/McGill/queens, 0.0454, 0.0450, 0.0448, 0.0451, 0.0450,0.045, 0.0452, 0.0449, 0.0452, 0.0451, 0.0451,0.0451,0.22222222222223476
SingleSource/Benchmarks/Shootout-C++/objinst, 0.1383, 0.1378, 0.1381, 0.1385, 0.1380,0.1381, 0.1384, 0.1384, 0.1386, 0.1375, 0.1376,0.1384,0.21723388848660097
MultiSource/Benchmarks/TSVC/NodeSplitting-flt/NodeSplitting-flt, 2.1834, 2.1743, 2.1720, 2.1702, 2.1737,2.1737, 2.1784, 2.1785, 2.1756, 2.1842, 2.1664,2.1784,0.21622118967656867
SingleSource/Benchmarks/Shootout-C++/matrix, 0.1946, 0.1940, 0.1942, 0.1947, 0.1942,0.1942, 0.1946, 0.1951, 0.1950, 0.1940, 0.1945,0.1946,0.2059732234809486
SingleSource/Benchmarks/Shootout-C++/ary, 0.1548, 0.1540, 0.1544, 0.1547, 0.1543,0.1544, 0.1549, 0.1547, 0.1556, 0.1540, 0.1546,0.1547,0.19430051813471572
SingleSource/Benchmarks/Shootout-C++/ackermann, 0.1147, 0.1142, 0.1144, 0.1143, 0.1143,0.1143, 0.1148, 0.1143, 0.1142, 0.1146, 0.1145,0.1145,0.17497812773403787
SingleSource/Benchmarks/Misc/richards_benchmark, 0.0588, 0.0583, 0.0585, 0.0583, 0.0584,0.0584, 0.0584, 0.0585, 0.0585, 0.0585, 0.0585,0.0585,0.1712328767123239
MultiSource/Benchmarks/Prolangs-C++/life/life, 0.0632, 0.0630, 0.0629, 0.0630, 0.0628,0.063, 0.0631, 0.0630, 0.0631, 0.0632, 0.0631,0.0631,0.15873015873015817
MultiSource/Benchmarks/Trimaran/enc-pc1/enc-pc1, 0.0658, 0.0653, 0.0651, 0.0654, 0.0653,0.0653, 0.0654, 0.0655, 0.0656, 0.0654, 0.0653,0.0654,0.15313935681471325
MultiSource/Applications/oggenc/oggenc, 4.8489, 4.8497, 4.8512, 4.8542, 4.8554,4.8512, 4.8604, 4.8575, 4.8631, 4.8586, 4.8565,4.8586,0.15253957783640804
MultiSource/Benchmarks/TSVC/IndirectAddressing-dbl/IndirectAddressing-dbl, 2.4330, 2.4332, 2.4320, 2.4348, 2.4301,2.433, 2.4348, 2.4392, 2.4223, 2.4396, 2.4364,2.4364,0.13974517057131486
MultiSource/Benchmarks/ASC_Sequoia/CrystalMk/CrystalMk, 0.2328, 0.2309, 0.2311, 0.2313, 0.2310,0.2311, 0.2307, 0.2316, 0.2314, 0.2314, 0.2313,0.2314,0.12981393336217728
MultiSource/Applications/JM/lencod/lencod,15.0448,15.0158,15.0103,15.0034,15.0105,15.0105,15.0242,15.0367,15.0321,15.0281,15.0121,15.0281,0.11725125745312148
SingleSource/Benchmarks/Polybench/linear-algebra/kernels/syrk/syrk, 0.0867, 0.0862, 0.0862, 0.0864, 0.0863,0.0863, 0.0864, 0.0862, 0.0864, 0.0862, 0.0869,0.0864,0.11587485515642815
SingleSource/Benchmarks/SmallPT/smallpt, 0.0997, 0.0996, 0.1000, 0.0994, 0.0996,0.0996, 0.1001, 0.0996, 0.0997, 0.0996, 0.0997,0.0997,0.10040160642570406
SingleSource/Benchmarks/Adobe-C++/simple_types_loop_invariant, 1.8327, 1.8458, 1.8379, 1.8316, 1.8339,1.8339, 1.8338, 1.8468, 1.8373, 1.8354, 1.8349,1.8354,0.08179290037624298
MultiSource/Benchmarks/Olden/mst/mst, 0.1256, 0.1242, 0.1241, 0.1244, 0.1244,0.1244, 0.1242, 0.1245, 0.1242, 0.1246, 0.1245,0.1245,0.0803858520900258
MultiSource/Applications/obsequi/Obsequi, 1.0250, 1.0271, 1.0182, 1.0322, 1.0284,1.0271, 1.0228, 1.0263, 1.0278, 1.0328, 1.0277,1.0277,0.05841690195698135
SingleSource/Benchmarks/Polybench/medley/reg_detect/reg_detect, 1.2697, 1.2742, 1.2719, 1.2732, 1.2687,1.2719, 1.2745, 1.2721, 1.2709, 1.2726, 1.2734,1.2726,0.055035773252609665
MultiSource/Benchmarks/mafft/pairlocalalign, 9.4266, 9.4267, 9.4244, 9.4268, 9.4362,9.4267, 9.4286, 9.4328, 9.4299, 9.4321, 9.4315,9.4315,0.050919197598298105
MultiSource/Benchmarks/tramp3d-v4/tramp3d-v4,18.5855,18.5438,18.5657,18.5352,18.5854,18.5657,18.5732,18.5828,18.5645,18.5773,18.5751,18.5751,0.05063100233224649
MultiSource/Benchmarks/McCat/18-imp/imp, 0.3327, 0.3311, 0.3314, 0.3318, 0.3318,0.3318, 0.3319, 0.3327, 0.3319, 0.3318, 0.3320,0.3319,0.030138637733578832
MultiSource/Benchmarks/DOE-ProxyApps-C/XSBench/XSBench, 0.3414, 0.3391, 0.3388, 0.3398, 0.3392,0.3392, 0.3388, 0.3391, 0.3395, 0.3393, 0.3394,0.3393,0.02948113207545955
SingleSource/Benchmarks/Stanford/RealMM, 0.0560, 0.0558, 0.0558, 0.0558, 0.0558,0.0558, 0.0558, 0.0558, 0.0558, 0.0558, 0.0557,0.0558,0.0
SingleSource/Benchmarks/Stanford/FloatMM, 0.0597, 0.0593, 0.0591, 0.0592, 0.0593,0.0593, 0.0593, 0.0593, 0.0595, 0.0593, 0.0591,0.0593,0.0
SingleSource/Benchmarks/Shootout/hash, 0.0484, 0.0481, 0.0482, 0.0485, 0.0480,0.0482, 0.0483, 0.0482, 0.0480, 0.0480, 0.0482,0.0482,0.0
SingleSource/Benchmarks/Shootout-C++/moments, 0.2380, 0.2372, 0.2381, 0.2372, 0.2373,0.2373, 0.2373, 0.2378, 0.2374, 0.2369, 0.2367,0.2373,0.0
SingleSource/Benchmarks/Shootout-C++/EH/except, 0.1268, 0.1259, 0.1260, 0.1259, 0.1259,0.1259, 0.1262, 0.1258, 0.1264, 0.1255, 0.1259,0.1259,0.0
SingleSource/Benchmarks/Polybench/linear-algebra/kernels/syr2k/syr2k, 0.0879, 0.0873, 0.0873, 0.0873, 0.0873,0.0873, 0.0875, 0.0870, 0.0873, 0.0873, 0.0873,0.0873,0.0
SingleSource/Benchmarks/Misc/oourafft, 0.2372, 0.2372, 0.2364, 0.2370, 0.2369,0.237, 0.2370, 0.2371, 0.2370, 0.2368, 0.2366,0.237,0.0
SingleSource/Benchmarks/McGill/chomp, 0.1762, 0.1756, 0.1753, 0.1756, 0.1761,0.1756, 0.1762, 0.1758, 0.1752, 0.1753, 0.1756,0.1756,0.0
SingleSource/Benchmarks/BenchmarkGame/puzzle, 0.0556, 0.0551, 0.0552, 0.0552, 0.0552,0.0552, 0.0552, 0.0551, 0.0551, 0.0553, 0.0552,0.0552,0.0
SingleSource/Benchmarks/BenchmarkGame/nsieve-bits, 0.0314, 0.0312, 0.0311, 0.0314, 0.0313,0.0313, 0.0312, 0.0313, 0.0315, 0.0313, 0.0311,0.0313,0.0
SingleSource/Benchmarks/Adobe-C++/functionobjects, 0.4614, 0.4593, 0.4591, 0.4603, 0.4591,0.4593, 0.4608, 0.4593, 0.4596, 0.4588, 0.4589,0.4593,0.0
MultiSource/Benchmarks/Ptrdist/anagram/anagram, 0.0957, 0.0952, 0.0954, 0.0953, 0.0958,0.0954, 0.0954, 0.0951, 0.0954, 0.0956, 0.0952,0.0954,0.0
MultiSource/Benchmarks/MiBench/network-patricia/network-patricia, 0.0775, 0.0768, 0.0767, 0.0768, 0.0768,0.0768, 0.0768, 0.0765, 0.0772, 0.0767, 0.0769,0.0768,0.0
MultiSource/Benchmarks/MiBench/telecomm-gsm/telecomm-gsm, 1.0722, 1.0636, 1.0626, 1.0636, 1.0625,1.0636, 1.0647, 1.0635, 1.0636, 1.0626, 1.0623,1.0635,-0.009402030838678854
SingleSource/Benchmarks/Adobe-C++/loop_unroll, 4.8276, 4.8296, 4.8185, 4.8291, 4.8237,4.8276, 4.8220, 4.8296, 4.8269, 4.8232, 4.8288,4.8269,-0.014499958571545513
MultiSource/Benchmarks/nbench/nbench, 1.2087, 1.2073, 1.2069, 1.2065, 1.2070,1.207, 1.2051, 1.2113, 1.2068, 1.2101, 1.2062,1.2068,-0.01657000828499955
MultiSource/Benchmarks/MallocBench/espresso/espresso, 4.8502, 4.8410, 4.8401, 4.8425, 4.8433,4.8425, 4.8426, 4.8414, 4.8433, 4.8394, 4.8408,4.8414,-0.022715539494067016
MultiSource/Benchmarks/MiBench/consumer-typeset/consumer-typeset, 9.6841, 9.6485, 9.6512, 9.6473, 9.6609,9.6512, 9.6495, 9.6477, 9.6528, 9.6488, 9.6425,9.6488,-0.024867374005299592
MultiSource/Benchmarks/MiBench/consumer-jpeg/consumer-jpeg, 4.2761, 4.2839, 4.2872, 4.2809, 4.2828,4.2828, 4.2802, 4.2821, 4.2813, 4.2808, 4.2851,4.2813,-0.03502381619501227
MultiSource/Benchmarks/mediabench/gsm/toast/toast, 1.0689, 1.0623, 1.0604, 1.0628, 1.0615,1.0623, 1.0623, 1.0629, 1.0619, 1.0608, 1.0618,1.0619,-0.03765414666290212
MultiSource/Benchmarks/Prolangs-C/agrep/agrep, 1.3169, 1.3138, 1.3105, 1.3113, 1.3117,1.3117, 1.3111, 1.3111, 1.3100, 1.3123, 1.3109,1.3111,-0.04574216665397257
MultiSource/Applications/SIBsim4/SIBsim4, 1.2591, 1.2639, 1.2547, 1.2528, 1.2539,1.2547, 1.2541, 1.2541, 1.2525, 1.2530, 1.2552,1.2541,-0.04782019606279775
MultiSource/Applications/kimwitu++/kc,10.3416,10.3290,10.3169,10.3177,10.3271,10.3271,10.3221,10.3035,10.3246,10.3082,10.3248,10.3221,-0.0484163027374529
MultiSource/Applications/hbd/hbd, 1.1581, 1.1501, 1.1490, 1.1513, 1.1497,1.1501, 1.1500, 1.1479, 1.1495, 1.1502, 1.1478,1.1495,-0.05216937657593901
MultiSource/Applications/ALAC/decode/alacconvert-decode, 1.0306, 1.0210, 1.0219, 1.0202, 1.0216,1.0216, 1.0199, 1.0209, 1.0220, 1.0198, 1.0216,1.0209,-0.06851996867659471
SingleSource/Benchmarks/Shootout-C++/hash, 0.2619, 0.2623, 0.2615, 0.2614, 0.2613,0.2615, 0.2611, 0.2614, 0.2613, 0.2608, 0.2628,0.2613,-0.0764818355640684
SingleSource/Benchmarks/Polybench/stencils/jacobi-2d-imper/jacobi-2d-imper, 0.1294, 0.1290, 0.1295, 0.1290, 0.1290,0.129, 0.1289, 0.1290, 0.1289, 0.1290, 0.1288,0.1289,-0.07751937984497026
SingleSource/Benchmarks/Adobe-C++/stepanov_abstraction, 0.6100, 0.6106, 0.6092, 0.6109, 0.6102,0.6102, 0.6086, 0.6097, 0.6104, 0.6103, 0.6095,0.6097,-0.08194034742706746
SingleSource/Benchmarks/Misc/ReedSolomon, 0.2206, 0.2198, 0.2197, 0.2198, 0.2198,0.2198, 0.2196, 0.2201, 0.2196, 0.2198, 0.2196,0.2196,-0.09099181073703999
SingleSource/Benchmarks/Polybench/linear-algebra/solvers/durbin/durbin, 0.1074, 0.1073, 0.1070, 0.1069, 0.1069,0.107, 0.1068, 0.1069, 0.1070, 0.1071, 0.1067,0.1069,-0.09345794392523477
MultiSource/Benchmarks/ASCI_Purple/SMG2000/smg2000, 6.0676, 6.0470, 6.0440, 6.0523, 6.0484,6.0484, 6.0390, 6.0442, 6.0431, 6.0427, 6.0369,6.0427,-0.09423979895509804
MultiSource/Benchmarks/Prolangs-C/bison/mybison, 1.5809, 1.5725, 1.5724, 1.5721, 1.5722,1.5724, 1.5705, 1.5719, 1.5714, 1.5709, 1.5691,1.5709,-0.09539557364538487
SingleSource/Benchmarks/Polybench/linear-algebra/solvers/lu/lu, 0.1043, 0.1042, 0.1042, 0.1041, 0.1042,0.1042, 0.1039, 0.1043, 0.1041, 0.1041, 0.1039,0.1041,-0.09596928982725794
SingleSource/Benchmarks/Linpack/linpack-pc, 0.3956, 0.3953, 0.3951, 0.3963, 0.3969,0.3956, 0.3952, 0.3959, 0.3952, 0.3953, 0.3949,0.3952,-0.10111223458039165
MultiSource/Benchmarks/FreeBench/pifft/pifft, 1.0864, 1.0869, 1.0860, 1.0882, 1.0858,1.0864, 1.0842, 1.0854, 1.0855, 1.0848, 1.0852,1.0852,-0.11045655375553354
MultiSource/Benchmarks/mediabench/jpeg/jpeg-6a/cjpeg, 4.3022, 4.2983, 4.3001, 4.3014, 4.2942,4.3001, 4.2978, 4.2911, 4.2905, 4.2953, 4.3005,4.2953,-0.1116253110392651
MultiSource/Benchmarks/FreeBench/neural/neural, 0.1797, 0.1792, 0.1788, 0.1790, 0.1791,0.1791, 0.1789, 0.1789, 0.1792, 0.1789, 0.1794,0.1789,-0.1116694584031297
SingleSource/Benchmarks/Polybench/linear-algebra/kernels/mvt/mvt, 0.0898, 0.0892, 0.0892, 0.0898, 0.0894,0.0894, 0.0892, 0.0894, 0.0893, 0.0894, 0.0890,0.0893,-0.11185682326620983
MultiSource/Benchmarks/McCat/09-vor/vor, 0.2577, 0.2557, 0.2558, 0.2563, 0.2560,0.256, 0.2560, 0.2555, 0.2561, 0.2556, 0.2557,0.2557,-0.11718750000000444
SingleSource/Benchmarks/Adobe-C++/stepanov_vector, 0.7588, 0.7630, 0.7591, 0.7577, 0.7597,0.7591, 0.7583, 0.7583, 0.7582, 0.7569, 0.7581,0.7582,-0.11856145435383825
MultiSource/Benchmarks/MiBench/consumer-lame/consumer-lame, 4.2474, 4.2372, 4.2226, 4.2470, 4.2349,4.2372, 4.2318, 4.2352, 4.2299, 4.2344, 4.2269,4.2318,-0.12744265080713024
MultiSource/Applications/viterbi/viterbi, 0.1580, 0.1568, 0.1567, 0.1570, 0.1568,0.1568, 0.1567, 0.1566, 0.1564, 0.1564, 0.1566,0.1566,-0.12755102040816757
MultiSource/Benchmarks/Trimaran/netbench-crc/netbench-crc, 0.0779, 0.0774, 0.0769, 0.0771, 0.0772,0.0772, 0.0772, 0.0775, 0.0771, 0.0769, 0.0770,0.0771,-0.12953367875647714
MultiSource/Applications/minisat/minisat, 0.6078, 0.6066, 0.6060, 0.6062, 0.6054,0.6062, 0.6044, 0.6064, 0.6054, 0.6061, 0.6053,0.6054,-0.1319696469811782
MultiSource/Benchmarks/SciMark2-C/scimark2, 0.3748, 0.3719, 0.3727, 0.3721, 0.3720,0.3721, 0.3713, 0.3716, 0.3718, 0.3724, 0.3715,0.3716,-0.13437248051598738
MultiSource/Benchmarks/Ptrdist/bc/bc, 0.9959, 0.9948, 0.9921, 0.9940, 0.9935,0.994, 0.9925, 0.9933, 0.9933, 0.9918, 0.9926,0.9926,-0.14084507042253502
MultiSource/Benchmarks/Ptrdist/yacr2/yacr2, 0.6135, 0.6112, 0.6105, 0.6105, 0.6115,0.6112, 0.6098, 0.6110, 0.6108, 0.6103, 0.6103,0.6103,-0.14725130890052007
MultiSource/Benchmarks/Trimaran/netbench-url/netbench-url, 0.2019, 0.2004, 0.2008, 0.2003, 0.2002,0.2004, 0.2001, 0.2000, 0.2010, 0.2003, 0.2000,0.2001,-0.14970059880239361
MultiSource/Applications/lambda-0.1.3/lambda, 0.5129, 0.5121, 0.5113, 0.5116, 0.5115,0.5116, 0.5125, 0.5121, 0.5108, 0.5107, 0.5097,0.5108,-0.15637216575450363
MultiSource/Benchmarks/VersaBench/beamformer/beamformer, 0.3788, 0.3768, 0.3767, 0.3774, 0.3777,0.3774, 0.3768, 0.3775, 0.3768, 0.3770, 0.3768,0.3768,-0.15898251192368873
MultiSource/Benchmarks/McCat/04-bisect/bisect, 0.1257, 0.1253, 0.1248, 0.1253, 0.1255,0.1253, 0.1251, 0.1253, 0.1248, 0.1251, 0.1248,0.1251,-0.15961691939345712
MultiSource/Benchmarks/FreeBench/analyzer/analyzer, 0.2410, 0.2406, 0.2398, 0.2395, 0.2399,0.2399, 0.2395, 0.2396, 0.2393, 0.2393, 0.2395,0.2395,-0.16673614005836557
MultiSource/Benchmarks/7zip/7zip-benchmark,33.6134,33.4799,33.4739,33.4985,33.5126,33.4985,33.4597,33.4380,33.4933,33.4418,33.4340,33.4418,-0.16926131020791324
SingleSource/Benchmarks/Misc/himenobmtxpa, 0.2365, 0.2363, 0.2359, 0.2363, 0.2360,0.2363, 0.2359, 0.2360, 0.2358, 0.2360, 0.2359,0.2359,-0.16927634363098631
SingleSource/Benchmarks/Stanford/Puzzle, 0.1173, 0.1168, 0.1170, 0.1172, 0.1169,0.117, 0.1167, 0.1172, 0.1168, 0.1169, 0.1167,0.1168,-0.17094017094017033
SingleSource/Benchmarks/BenchmarkGame/spectral-norm, 0.0565, 0.0562, 0.0561, 0.0561, 0.0560,0.0561, 0.0560, 0.0559, 0.0559, 0.0561, 0.0560,0.056,-0.17825311942958333
MultiSource/Benchmarks/Fhourstones/fhourstones, 0.1608, 0.1595, 0.1596, 0.1598, 0.1596,0.1596, 0.1593, 0.1593, 0.1590, 0.1595, 0.1590,0.1593,-0.1879699248120259
SingleSource/Benchmarks/Shootout-C++/ary3, 0.1590, 0.1579, 0.1585, 0.1582, 0.1586,0.1585, 0.1578, 0.1582, 0.1582, 0.1578, 0.1582,0.1582,-0.18927444794952786
SingleSource/Benchmarks/Adobe-C++/simple_types_constant_folding, 2.2659, 2.2623, 2.2683, 2.2638, 2.2697,2.2659, 2.2616, 2.2446, 2.2670, 2.2615, 2.2666,2.2616,-0.189770069288131
SingleSource/Benchmarks/McGill/misr, 0.0526, 0.0523, 0.0521, 0.0523, 0.0522,0.0523, 0.0524, 0.0522, 0.0524, 0.0521, 0.0522,0.0522,-0.19120458891012104
MultiSource/Benchmarks/Prolangs-C++/ocean/ocean, 0.1026, 0.1019, 0.1017, 0.1024, 0.1016,0.1019, 0.1017, 0.1017, 0.1026, 0.1017, 0.1020,0.1017,-0.19627085377822429
MultiSource/Applications/JM/ldecod/ldecod, 6.5814, 6.5489, 6.5657, 6.5633, 6.5398,6.5633, 6.5500, 6.5598, 6.5504, 6.5483, 6.5604,6.5504,-0.19654746849907534
MultiSource/Applications/sgefa/sgefa, 0.3999, 0.3994, 0.3986, 0.3979, 0.3992,0.3992, 0.3985, 0.3987, 0.3981, 0.3984, 0.3984,0.3984,-0.2004008016032066
SingleSource/Benchmarks/Polybench/stencils/fdtd-apml/fdtd-apml, 0.1498, 0.1495, 0.1493, 0.1496, 0.1494,0.1495, 0.1490, 0.1492, 0.1491, 0.1492, 0.1492,0.1492,-0.20066889632106566
MultiSource/Benchmarks/llubenchmark/llu, 0.0494, 0.0495, 0.0492, 0.0491, 0.0491,0.0492, 0.0491, 0.0491, 0.0491, 0.0491, 0.0490,0.0491,-0.20325203252032908
MultiSource/Benchmarks/mediabench/mpeg2/mpeg2dec/mpeg2decode, 1.3253, 1.3200, 1.3175, 1.3206, 1.3204,1.3204, 1.3169, 1.3199, 1.3186, 1.3177, 1.3172,1.3177,-0.20448348985155906
SingleSource/Benchmarks/BenchmarkGame/fannkuch, 0.0482, 0.0479, 0.0479, 0.0479, 0.0479,0.0479, 0.0478, 0.0478, 0.0478, 0.0478, 0.0478,0.0478,-0.20876826722336927
MultiSource/Applications/spiff/spiff, 0.7116, 0.7071, 0.7050, 0.7056, 0.7069,0.7069, 0.7065, 0.7050, 0.7058, 0.7045, 0.7054,0.7054,-0.21219408685810848
MultiSource/Benchmarks/FreeBench/fourinarow/fourinarow, 0.3751, 0.3763, 0.3737, 0.3742, 0.3743,0.3743, 0.3738, 0.3735, 0.3752, 0.3733, 0.3733,0.3735,-0.21373230029388957
MultiSource/Benchmarks/FreeBench/distray/distray, 0.0938, 0.0932, 0.0932, 0.0938, 0.0933,0.0933, 0.0928, 0.0931, 0.0928, 0.0931, 0.0931,0.0931,-0.2143622722400762
MultiSource/Benchmarks/Bullet/bullet,22.5168,22.4510,22.4422,22.4584,22.4541,22.4541,22.4164,22.4005,22.4303,22.4059,22.4046,22.4059,-0.21466012888515795
SingleSource/Benchmarks/Polybench/stencils/jacobi-1d-imper/jacobi-1d-imper, 0.0910, 0.0905, 0.0902, 0.0904, 0.0905,0.0905, 0.0903, 0.0905, 0.0903, 0.0901, 0.0901,0.0903,-0.22099447513811432
SingleSource/Benchmarks/Shootout-C++/sieve, 0.1789, 0.1783, 0.1793, 0.1795, 0.1788,0.1789, 0.1787, 0.1785, 0.1794, 0.1781, 0.1775,0.1785,-0.22358859698156097
MultiSource/Applications/sqlite3/sqlite3,12.6162,12.6242,12.5745,12.5979,12.5872,12.5979,12.6116,12.5088,12.6165,12.5664,12.5696,12.5696,-0.22464061470562902
SingleSource/Benchmarks/Polybench/linear-algebra/kernels/atax/atax, 0.0884, 0.0879, 0.0885, 0.0881, 0.0881,0.0881, 0.0874, 0.0879, 0.0880, 0.0879, 0.0876,0.0879,-0.2270147559591318
MultiSource/Benchmarks/BitBench/uudecode/uudecode, 0.0430, 0.0429, 0.0428, 0.0430, 0.0428,0.0429, 0.0429, 0.0428, 0.0428, 0.0428, 0.0428,0.0428,-0.2331002331002363
SingleSource/Benchmarks/Polybench/medley/floyd-warshall/floyd-warshall, 0.0858, 0.0851, 0.0852, 0.0855, 0.0857,0.0855, 0.0851, 0.0855, 0.0853, 0.0856, 0.0852,0.0853,-0.2339181286549752
SingleSource/Benchmarks/Polybench/linear-algebra/kernels/bicg/bicg, 0.0845, 0.0843, 0.0840, 0.0840, 0.0839,0.084, 0.0839, 0.0838, 0.0843, 0.0837, 0.0837,0.0838,-0.23809523809524835
SingleSource/Benchmarks/BenchmarkGame/Large/fasta, 0.0420, 0.0419, 0.0418, 0.0420, 0.0418,0.0419, 0.0419, 0.0418, 0.0417, 0.0418, 0.0420,0.0418,-0.23866348448687846
MultiSource/Benchmarks/BitBench/uuencode/uuencode, 0.0423, 0.0419, 0.0418, 0.0419, 0.0419,0.0419, 0.0418, 0.0418, 0.0418, 0.0417, 0.0418,0.0418,-0.23866348448687846
MultiSource/Applications/SPASS/SPASS,11.8968,11.8363,11.8514,11.8600,11.8591,11.8591,11.8286,11.8336,11.8506,11.8304,11.8297,11.8304,-0.24200824683154876
MultiSource/Benchmarks/BitBench/drop3/drop3, 0.0416, 0.0412, 0.0410, 0.0412, 0.0413,0.0412, 0.0412, 0.0412, 0.0411, 0.0410, 0.0410,0.0411,-0.24271844660195274
SingleSource/Benchmarks/Shootout/matrix, 0.0825, 0.0822, 0.0820, 0.0822, 0.0820,0.0822, 0.0821, 0.0822, 0.0820, 0.0820, 0.0818,0.082,-0.24330900243307862
MultiSource/Benchmarks/MiBench/network-dijkstra/network-dijkstra, 0.0413, 0.0412, 0.0409, 0.0410, 0.0409,0.041, 0.0408, 0.0407, 0.0409, 0.0409, 0.0410,0.0409,-0.24390243902440156
MultiSource/Applications/ClamAV/clamscan,13.0346,12.9631,12.9280,12.9609,12.9497,12.9609,12.9290,12.9514,12.9263,12.9275,12.9510,12.929,-0.2461248833028562
SingleSource/Benchmarks/Polybench/stencils/fdtd-2d/fdtd-2d, 0.1628, 0.1621, 0.1624, 0.1626, 0.1625,0.1625, 0.1624, 0.1624, 0.1620, 0.1621, 0.1621,0.1621,-0.2461538461538515
MultiSource/Benchmarks/McCat/05-eks/eks, 0.5927, 0.5901, 0.5891, 0.5908, 0.5912,0.5908, 0.5894, 0.5892, 0.5900, 0.5893, 0.5890,0.5893,-0.2538930264048611
SingleSource/Benchmarks/Polybench/linear-algebra/kernels/cholesky/cholesky, 0.1149, 0.1148, 0.1142, 0.1148, 0.1146,0.1148, 0.1145, 0.1149, 0.1145, 0.1144, 0.1145,0.1145,-0.261324041811839
SingleSource/Benchmarks/Polybench/stencils/seidel-2d/seidel-2d, 0.0764, 0.0760, 0.0760, 0.0763, 0.0761,0.0761, 0.0759, 0.0761, 0.0762, 0.0759, 0.0758,0.0759,-0.26281208935611255
SingleSource/Benchmarks/BenchmarkGame/n-body, 0.0761, 0.0759, 0.0757, 0.0758, 0.0758,0.0758, 0.0756, 0.0755, 0.0758, 0.0754, 0.0756,0.0756,-0.26385224274406704
MultiSource/Benchmarks/MallocBench/gs/gs, 3.5626, 3.5402, 3.5391, 3.5403, 3.5401,3.5402, 3.5327, 3.5308, 3.5304, 3.5342, 3.5303,3.5308,-0.2655217219366124
SingleSource/Benchmarks/Polybench/linear-algebra/kernels/doitgen/doitgen, 0.1128, 0.1127, 0.1120, 0.1121, 0.1124,0.1124, 0.1120, 0.1121, 0.1123, 0.1119, 0.1121,0.1121,-0.2669039145907437
MultiSource/Benchmarks/ASC_Sequoia/AMGmk/AMGmk, 0.5829, 0.5813, 0.5799, 0.5805, 0.5805,0.5805, 0.5793, 0.5783, 0.5789, 0.5792, 0.5783,0.5789,-0.27562446167097576
SingleSource/Benchmarks/Shootout/lists, 0.0722, 0.0718, 0.0717, 0.0717, 0.0717,0.0717, 0.0715, 0.0715, 0.0715, 0.0716, 0.0716,0.0715,-0.2789400278940146
SingleSource/Benchmarks/Polybench/linear-algebra/kernels/gemver/gemver, 0.1072, 0.1070, 0.1068, 0.1068, 0.1072,0.107, 0.1067, 0.1068, 0.1067, 0.1066, 0.1068,0.1067,-0.2803738317756932
MultiSource/Benchmarks/NPB-serial/is/is, 0.0703, 0.0699, 0.0697, 0.0698, 0.0699,0.0699, 0.0697, 0.0698, 0.0696, 0.0697, 0.0699,0.0697,-0.28612303290416197
SingleSource/Benchmarks/Polybench/stencils/adi/adi, 0.1040, 0.1035, 0.1039, 0.1036, 0.1037,0.1037, 0.1034, 0.1037, 0.1034, 0.1034, 0.1035,0.1034,-0.2892960462873573
SingleSource/Benchmarks/Polybench/linear-algebra/kernels/trisolv/trisolv, 0.0679, 0.0677, 0.0675, 0.0678, 0.0678,0.0678, 0.0675, 0.0677, 0.0676, 0.0676, 0.0675,0.0676,-0.2949852507374673
MultiSource/Benchmarks/Ptrdist/ks/ks, 0.1363, 0.1356, 0.1351, 0.1355, 0.1352,0.1355, 0.1351, 0.1350, 0.1352, 0.1355, 0.1351,0.1351,-0.2952029520295274
SingleSource/Benchmarks/Polybench/datamining/covariance/covariance, 0.0996, 0.0991, 0.0996, 0.0993, 0.0994,0.0994, 0.0991, 0.0990, 0.0990, 0.0991, 0.0991,0.0991,-0.3018108651911544
SingleSource/Benchmarks/Shootout/ary3, 0.0333, 0.0330, 0.0329, 0.0329, 0.0330,0.033, 0.0329, 0.0330, 0.0329, 0.0329, 0.0329,0.0329,-0.3030303030303161
SingleSource/Benchmarks/Stanford/Oscar, 0.0660, 0.0657, 0.0655, 0.0656, 0.0657,0.0657, 0.0655, 0.0659, 0.0655, 0.0655, 0.0658,0.0655,-0.3044140030441289
MultiSource/Benchmarks/sim/sim, 0.2957, 0.2948, 0.2945, 0.2956, 0.2962,0.2956, 0.2947, 0.2943, 0.2947, 0.2944, 0.2959,0.2947,-0.30446549391067723
MultiSource/Benchmarks/MiBench/security-sha/security-sha, 0.1306, 0.1300, 0.1299, 0.1301, 0.1300,0.13, 0.1295, 0.1297, 0.1296, 0.1302, 0.1296,0.1296,-0.3076923076923199
MultiSource/Benchmarks/Ptrdist/ft/ft, 0.1947, 0.1932, 0.1936, 0.1933, 0.1929,0.1933, 0.1926, 0.1929, 0.1927, 0.1933, 0.1922,0.1927,-0.3103983445421621
SingleSource/Benchmarks/Polybench/linear-algebra/solvers/gramschmidt/gramschmidt, 0.1258, 0.1257, 0.1253, 0.1254, 0.1254,0.1254, 0.1249, 0.1253, 0.1250, 0.1253, 0.1249,0.125,-0.31897926634769647
MultiSource/Benchmarks/MiBench/security-rijndael/security-rijndael, 0.4006, 0.4006, 0.3996, 0.4002, 0.4005,0.4005, 0.4016, 0.3989, 0.3992, 0.3993, 0.3989,0.3992,-0.3245942571785343
SingleSource/Benchmarks/Shootout-C++/strcat, 0.1227, 0.1224, 0.1225, 0.1228, 0.1225,0.1225, 0.1221, 0.1217, 0.1226, 0.1218, 0.1224,0.1221,-0.32653061224489077
SingleSource/Benchmarks/Misc-C++-EH/spirit, 3.1577, 3.1515, 3.1398, 3.1518, 3.1468,3.1515, 3.1406, 3.1239, 3.1401, 3.1677, 3.1452,3.1406,-0.3458670474377201
SingleSource/Benchmarks/Misc/matmul_f64_4x4, 0.0291, 0.0289, 0.0288, 0.0287, 0.0289,0.0289, 0.0288, 0.0287, 0.0288, 0.0288, 0.0288,0.0288,-0.34602076124566894
MultiSource/Benchmarks/Olden/em3d/em3d, 0.1741, 0.1726, 0.1726, 0.1726, 0.1725,0.1726, 0.1717, 0.1721, 0.1721, 0.1720, 0.1720,0.172,-0.34762456546930665
SingleSource/Benchmarks/Misc-C++/stepanov_v1p2, 0.1713, 0.1708, 0.1704, 0.1715, 0.1709,0.1709, 0.1704, 0.1699, 0.1705, 0.1701, 0.1703,0.1703,-0.3510825043885224
SingleSource/Benchmarks/Shootout-C++/fibo, 0.1131, 0.1130, 0.1128, 0.1129, 0.1126,0.1129, 0.1128, 0.1125, 0.1132, 0.1124, 0.1125,0.1125,-0.3542958370239102
SingleSource/Benchmarks/Polybench/linear-algebra/kernels/trmm/trmm, 0.0831, 0.0829, 0.0829, 0.0831, 0.0828,0.0829, 0.0826, 0.0827, 0.0826, 0.0823, 0.0827,0.0826,-0.3618817852834688
MultiSource/Benchmarks/Prolangs-C++/employ/employ, 0.1921, 0.1920, 0.1917, 0.1925, 0.1918,0.192, 0.1924, 0.1917, 0.1913, 0.1910, 0.1910,0.1913,-0.3645833333333348
MultiSource/Benchmarks/MiBench/automotive-susan/automotive-susan, 0.8737, 0.8724, 0.8751, 0.8732, 0.8717,0.8732, 0.8647, 0.8745, 0.8700, 0.8712, 0.8690,0.87,-0.3664681630783262
MultiSource/Benchmarks/Olden/health/health, 0.1291, 0.1283, 0.1275, 0.1281, 0.1280,0.1281, 0.1277, 0.1275, 0.1277, 0.1276, 0.1273,0.1276,-0.3903200624512104
SingleSource/Benchmarks/Misc-C++/bigfib, 0.4275, 0.4287, 0.4257, 0.4270, 0.4261,0.427, 0.4253, 0.4252, 0.4254, 0.4240, 0.4236,0.4252,-0.4215456674472984
MultiSource/Benchmarks/FreeBench/mason/mason, 0.0469, 0.0467, 0.0466, 0.0467, 0.0466,0.0467, 0.0465, 0.0464, 0.0465, 0.0466, 0.0465,0.0465,-0.4282655246252598
SingleSource/Benchmarks/Misc/whetstone, 0.0686, 0.0684, 0.0684, 0.0686, 0.0687,0.0686, 0.0682, 0.0683, 0.0684, 0.0682, 0.0683,0.0683,-0.4373177842565523
MultiSource/Benchmarks/Olden/bh/bh, 0.2518, 0.2509, 0.2500, 0.2504, 0.2502,0.2504, 0.2493, 0.2492, 0.2495, 0.2499, 0.2491,0.2493,-0.43929712460064607
SingleSource/Benchmarks/Shootout-C++/nestedloop, 0.1145, 0.1138, 0.1138, 0.1137, 0.1145,0.1138, 0.1135, 0.1129, 0.1143, 0.1133, 0.1133,0.1133,-0.4393673110720586
SingleSource/Benchmarks/Misc-C++/mandel-text, 0.0229, 0.0225, 0.0226, 0.0227, 0.0227,0.0227, 0.0226, 0.0225, 0.0225, 0.0226, 0.0226,0.0226,-0.440528634361248
MultiSource/Applications/lua/lua, 3.0841, 3.0717, 3.0687, 3.0724, 3.0697,3.0717, 3.0553, 3.0559, 3.0579, 3.0592, 3.0579,3.0579,-0.44926262330304834
SingleSource/Benchmarks/Shootout/ackermann, 0.0220, 0.0217, 0.0218, 0.0218, 0.0217,0.0218, 0.0216, 0.0217, 0.0217, 0.0217, 0.0216,0.0217,-0.4587155963302725
MultiSource/Benchmarks/McCat/17-bintr/bintr, 0.0655, 0.0649, 0.0650, 0.0651, 0.0651,0.0651, 0.0650, 0.0648, 0.0650, 0.0647, 0.0647,0.0648,-0.4608294930875667
MultiSource/Benchmarks/Fhourstones-3.1/fhourstones3.1, 0.1295, 0.1294, 0.1292, 0.1291, 0.1295,0.1294, 0.1287, 0.1295, 0.1288, 0.1288, 0.1287,0.1288,-0.46367851622873824
SingleSource/Benchmarks/Polybench/linear-algebra/kernels/symm/symm, 0.0852, 0.0851, 0.0847, 0.0851, 0.0851,0.0851, 0.0848, 0.0847, 0.0850, 0.0845, 0.0846,0.0847,-0.4700352526439411
SingleSource/Benchmarks/Shootout-C++/lists1, 0.1895, 0.1891, 0.1893, 0.1903, 0.1899,0.1895, 0.1894, 0.1886, 0.1887, 0.1882, 0.1884,0.1886,-0.4749340369393229
SingleSource/Benchmarks/Shootout-C++/random, 0.1230, 0.1224, 0.1228, 0.1225, 0.1223,0.1225, 0.1219, 0.1216, 0.1227, 0.1223, 0.1215,0.1219,-0.4897959183673528
SingleSource/Benchmarks/Shootout-C++/methcall, 0.1226, 0.1225, 0.1225, 0.1224, 0.1223,0.1225, 0.1219, 0.1221, 0.1221, 0.1216, 0.1217,0.1219,-0.4897959183673528
MultiSource/Benchmarks/Olden/power/power, 0.1214, 0.1207, 0.1208, 0.1206, 0.1209,0.1208, 0.1202, 0.1202, 0.1202, 0.1201, 0.1203,0.1202,-0.4966887417218624
SingleSource/Benchmarks/Shootout-C++/lists, 0.1577, 0.1572, 0.1575, 0.1577, 0.1576,0.1576, 0.1572, 0.1567, 0.1570, 0.1568, 0.1567,0.1568,-0.5076142131979711
SingleSource/Benchmarks/Shootout/heapsort, 0.0389, 0.0387, 0.0387, 0.0388, 0.0387,0.0387, 0.0386, 0.0385, 0.0385, 0.0384, 0.0384,0.0385,-0.5167958656330685
MultiSource/Applications/siod/siod, 1.8541, 1.8584, 1.8445, 1.8592, 1.8525,1.8541, 1.8383, 1.8454, 1.8448, 1.8433, 1.8444,1.8444,-0.5231648778383113
MultiSource/Applications/hexxagon/hexxagon, 0.6985, 0.6980, 0.6961, 0.6991, 0.6963,0.698, 0.6956, 0.6932, 0.6954, 0.6934, 0.6943,0.6943,-0.5300859598853735
SingleSource/Benchmarks/Misc/flops, 0.0736, 0.0731, 0.0730, 0.0732, 0.0735,0.0732, 0.0728, 0.0729, 0.0728, 0.0728, 0.0726,0.0728,-0.5464480874316946
SingleSource/Benchmarks/Stanford/Treesort, 0.0366, 0.0365, 0.0362, 0.0364, 0.0363,0.0364, 0.0364, 0.0362, 0.0362, 0.0361, 0.0362,0.0362,-0.5494505494505475
MultiSource/Benchmarks/BitBench/five11/five11, 0.0539, 0.0537, 0.0535, 0.0535, 0.0538,0.0537, 0.0536, 0.0534, 0.0535, 0.0534, 0.0533,0.0534,-0.5586592178770888
SingleSource/Benchmarks/Misc-C++/Large/sphereflake, 0.2127, 0.2126, 0.2129, 0.2123, 0.2122,0.2126, 0.2114, 0.2111, 0.2120, 0.2111, 0.2115,0.2114,-0.5644402634054635
SingleSource/Benchmarks/Polybench/linear-algebra/solvers/dynprog/dynprog, 0.0861, 0.0862, 0.0864, 0.0860, 0.0859,0.0861, 0.0856, 0.0856, 0.0857, 0.0857, 0.0855,0.0856,-0.5807200929152101
MultiSource/Benchmarks/Prolangs-C++/city/city, 0.8790, 0.8767, 0.8770, 0.8777, 0.8790,0.8777, 0.8726, 0.8711, 0.8759, 0.8710, 0.8757,0.8726,-0.5810641449242371
MultiSource/Benchmarks/McCat/08-main/main, 0.2226, 0.2217, 0.2216, 0.2215, 0.2206,0.2216, 0.2203, 0.2203, 0.2209, 0.2207, 0.2203,0.2203,-0.5866425992779756
SingleSource/Benchmarks/CoyoteBench/lpbench, 0.1950, 0.1942, 0.1944, 0.1943, 0.1943,0.1943, 0.1934, 0.1932, 0.1931, 0.1930, 0.1930,0.1931,-0.6176016469377266
SingleSource/Benchmarks/Shootout-C++/ary2, 0.1617, 0.1606, 0.1614, 0.1608, 0.1612,0.1612, 0.1607, 0.1604, 0.1602, 0.1600, 0.1599,0.1602,-0.6203473945409432
SingleSource/Benchmarks/Misc/perlin, 0.0447, 0.0443, 0.0442, 0.0443, 0.0442,0.0443, 0.0440, 0.0440, 0.0440, 0.0441, 0.0440,0.044,-0.6772009029345383
SingleSource/Benchmarks/Polybench/linear-algebra/kernels/gesummv/gesummv, 0.0706, 0.0701, 0.0701, 0.0708, 0.0704,0.0704, 0.0699, 0.0703, 0.0699, 0.0698, 0.0698,0.0699,-0.7102272727272707
SingleSource/Benchmarks/Dhrystone/fldry, 0.0413, 0.0413, 0.0410, 0.0411, 0.0412,0.0412, 0.0409, 0.0408, 0.0411, 0.0407, 0.0409,0.0409,-0.7281553398058249
SingleSource/Benchmarks/Misc/salsa20, 0.0552, 0.0549, 0.0548, 0.0549, 0.0549,0.0549, 0.0544, 0.0545, 0.0545, 0.0545, 0.0543,0.0545,-0.7285974499089187
MultiSource/Applications/aha/aha, 0.0961, 0.0954, 0.0954, 0.0955, 0.0958,0.0955, 0.0948, 0.0948, 0.0946, 0.0948, 0.0951,0.0948,-0.732984293193728
SingleSource/Benchmarks/Shootout-C++/heapsort, 0.1315, 0.1307, 0.1310, 0.1310, 0.1306,0.131, 0.1301, 0.1297, 0.1309, 0.1300, 0.1300,0.13,-0.7633587786259555
MultiSource/Benchmarks/MiBench/telecomm-FFT/telecomm-fft, 0.1571, 0.1558, 0.1554, 0.1560, 0.1554,0.1558, 0.1543, 0.1552, 0.1543, 0.1551, 0.1545,0.1545,-0.8344030808729141
MultiSource/Benchmarks/MiBench/automotive-basicmath/automotive-basicmath, 0.1374, 0.1355, 0.1361, 0.1362, 0.1362,0.1362, 0.1350, 0.1348, 0.1354, 0.1346, 0.1347,0.1348,-1.027900146842864
SingleSource/Benchmarks/Shootout/random, 0.0286, 0.0284, 0.0283, 0.0284, 0.0284,0.0284, 0.0281, 0.0281, 0.0282, 0.0281, 0.0280,0.0281,-1.0563380281690238
SingleSource/Benchmarks/Misc/flops-1, 0.0257, 0.0255, 0.0255, 0.0256, 0.0256,0.0256, 0.0253, 0.0252, 0.0254, 0.0253, 0.0253,0.0253,-1.171875000000011
MultiSource/Benchmarks/Olden/voronoi/voronoi, 0.2266, 0.2249, 0.2252, 0.2254, 0.2250,0.2252, 0.2219, 0.2217, 0.2220, 0.2216, 0.2218,0.2218,-1.5097690941385467
SingleSource/Benchmarks/CoyoteBench/huffbench, 0.0879, 0.0878, 0.0874, 0.0875, 0.0877,0.0877, 0.0855, 0.0858, 0.0861, 0.0858, 0.0856,0.0858,-2.166476624857472
Total elapsed time,-,-,-,-,-,349.60180000000037,-,-,-,-,-,349.6083000000002,0.0018592581616738713
Total failure,-,-,-,-,-,0,-,-,-,-,-,0,
