Benchmarks,base,base,base,base,base,median,intptr,intptr,intptr,intptr,intptr,median,Slowdown(%)
MultiSource/Benchmarks/Olden/bh/bh, 1.2709, 1.2700, 1.2726, 1.2709, 1.2703,1.2709, 1.3322, 1.3337, 1.3328, 1.3329, 1.3361,1.3329,4.878432606814065
MultiSource/Benchmarks/Olden/voronoi/voronoi, 0.2119, 0.2109, 0.2106, 0.2107, 0.2106,0.2107, 0.2166, 0.2166, 0.2166, 0.2166, 0.2169,0.2166,2.800189843379197
MultiSource/Applications/oggenc/oggenc, 0.0755, 0.0756, 0.0757, 0.0755, 0.0756,0.0756, 0.0763, 0.0763, 0.0762, 0.0762, 0.0763,0.0763,0.92592592592593
MultiSource/Benchmarks/Olden/mst/mst, 0.0528, 0.0525, 0.0521, 0.0525, 0.0526,0.0525, 0.0526, 0.0529, 0.0529, 0.0530, 0.0526,0.0529,0.7619047619047636
MultiSource/Applications/d/make_dparser, 0.0159, 0.0159, 0.0159, 0.0159, 0.0160,0.0159, 0.0159, 0.0159, 0.0160, 0.0160, 0.0160,0.016,0.6289308176100628
MultiSource/Benchmarks/TSVC/Symbolics-dbl/Symbolics-dbl, 2.4568, 2.4425, 2.4566, 2.4412, 2.4411,2.4425, 2.4569, 2.4566, 2.4421, 2.4568, 2.4572,2.4568,0.5854657113613104
SingleSource/Benchmarks/Polybench/linear-algebra/kernels/cholesky/cholesky, 0.5711, 0.5687, 0.5674, 0.5649, 0.5741,0.5687, 0.5670, 0.5717, 0.5718, 0.5700, 0.5720,0.5717,0.5275189027606819
MultiSource/Benchmarks/Prolangs-C++/primes/primes, 0.2129, 0.2127, 0.2125, 0.2125, 0.2125,0.2125, 0.2140, 0.2122, 0.2139, 0.2136, 0.2121,0.2136,0.5176470588235338
MultiSource/Benchmarks/Prolangs-C/gnugo/gnugo, 0.0233, 0.0233, 0.0233, 0.0233, 0.0234,0.0233, 0.0234, 0.0233, 0.0234, 0.0234, 0.0234,0.0234,0.42918454935620964
MultiSource/Benchmarks/MiBench/network-dijkstra/network-dijkstra, 0.0249, 0.0249, 0.0249, 0.0250, 0.0250,0.0249, 0.0250, 0.0250, 0.0250, 0.0250, 0.0250,0.025,0.40160642570281624
MultiSource/Benchmarks/TSVC/ControlLoops-flt/ControlLoops-flt, 2.3453, 2.3463, 2.3442, 2.3504, 2.3442,2.3453, 2.3504, 2.3514, 2.3522, 2.3589, 2.3540,2.3522,0.29420543214087047
SingleSource/Benchmarks/CoyoteBench/lpbench, 1.8218, 1.8242, 1.8227, 1.8216, 1.8260,1.8227, 1.8253, 1.8293, 1.8273, 1.8279, 1.8310,1.8279,0.2852910517364471
MultiSource/Benchmarks/MiBench/telecomm-FFT/telecomm-fft, 0.0386, 0.0385, 0.0385, 0.0385, 0.0385,0.0385, 0.0387, 0.0386, 0.0386, 0.0386, 0.0387,0.0386,0.25974025974027093
MultiSource/Benchmarks/Trimaran/enc-rc4/enc-rc4, 0.7222, 0.7223, 0.7219, 0.7221, 0.7221,0.7221, 0.7233, 0.7239, 0.7244, 0.7238, 0.7240,0.7239,0.2492729538845051
SingleSource/Benchmarks/Shootout-C++/lists, 2.9603, 2.9683, 2.9544, 2.9673, 2.9587,2.9603, 2.9671, 2.9682, 2.9637, 2.9707, 2.9633,2.9671,0.2297064486707301
MultiSource/Benchmarks/MiBench/automotive-basicmath/automotive-basicmath, 0.2232, 0.2234, 0.2231, 0.2234, 0.2231,0.2232, 0.2236, 0.2236, 0.2237, 0.2238, 0.2238,0.2237,0.22401433691756623
MultiSource/Benchmarks/TSVC/GlobalDataFlow-flt/GlobalDataFlow-flt, 1.5004, 1.4987, 1.5053, 1.5004, 1.5105,1.5004, 1.4972, 1.5087, 1.4887, 1.5036, 1.5038,1.5036,0.21327645961077835
SingleSource/Benchmarks/Polybench/datamining/correlation/correlation, 1.6410, 1.6486, 1.6476, 1.6610, 1.6612,1.6486, 1.6506, 1.6502, 1.6612, 1.6551, 1.6517,1.6517,0.18803833555742777
SingleSource/Benchmarks/BenchmarkGame/puzzle, 0.1136, 0.1139, 0.1136, 0.1136, 0.1138,0.1136, 0.1138, 0.1138, 0.1136, 0.1135, 0.1138,0.1138,0.17605633802815213
MultiSource/Benchmarks/MiBench/consumer-lame/consumer-lame, 0.1181, 0.1180, 0.1179, 0.1179, 0.1178,0.1179, 0.1182, 0.1179, 0.1181, 0.1181, 0.1179,0.1181,0.16963528413909135
MultiSource/Applications/viterbi/viterbi, 1.2817, 1.2831, 1.2836, 1.2838, 1.2834,1.2834, 1.2846, 1.2844, 1.2857, 1.2854, 1.2883,1.2854,0.15583606046438714
MultiSource/Benchmarks/TSVC/LinearDependence-dbl/LinearDependence-dbl, 5.8489, 5.8576, 5.8480, 5.8486, 5.8491,5.8489, 5.8566, 5.8597, 5.8587, 5.8575, 5.8579,5.8579,0.15387508762330082
SingleSource/Benchmarks/Polybench/stencils/fdtd-apml/fdtd-apml, 0.7256, 0.7312, 0.7239, 0.7254, 0.7291,0.7256, 0.7299, 0.7293, 0.7234, 0.7267, 0.7256,0.7267,0.1515986769569988
MultiSource/Applications/lambda-0.1.3/lambda, 2.5730, 2.5741, 2.5724, 2.5728, 2.5741,2.573, 2.5734, 2.5772, 2.5764, 2.5719, 2.5771,2.5764,0.13214146910220936
MultiSource/Benchmarks/Bullet/bullet, 3.2902, 3.3008, 3.3028, 3.2890, 3.3023,3.3008, 3.2918, 3.2933, 3.3183, 3.3172, 3.3050,3.305,0.12724188075619036
MultiSource/Benchmarks/ASC_Sequoia/AMGmk/AMGmk, 5.0488, 5.0258, 5.0294, 5.0390, 5.0407,5.039, 5.0302, 5.0431, 5.0537, 5.0380, 5.0559,5.0431,0.08136535026790348
MultiSource/Benchmarks/TSVC/Symbolics-flt/Symbolics-flt, 1.3960, 1.3908, 1.3917, 1.3978, 1.3929,1.3929, 1.3940, 1.3897, 1.3909, 1.3947, 1.3969,1.394,0.07897192906884953
MultiSource/Benchmarks/Olden/treeadd/treeadd, 0.1277, 0.1271, 0.1271, 0.1271, 0.1270,0.1271, 0.1272, 0.1272, 0.1274, 0.1270, 0.1269,0.1272,0.07867820613691734
MultiSource/Benchmarks/ASCI_Purple/SMG2000/smg2000, 1.1816, 1.1747, 1.1810, 1.1750, 1.1735,1.175, 1.1759, 1.1770, 1.1818, 1.1739, 1.1752,1.1759,0.07659574468084074
SingleSource/Benchmarks/Polybench/linear-algebra/solvers/dynprog/dynprog, 0.2803, 0.2804, 0.2807, 0.2799, 0.2808,0.2804, 0.2805, 0.2806, 0.2817, 0.2805, 0.2806,0.2806,0.07132667617690824
MultiSource/Benchmarks/sim/sim, 2.5875, 2.5894, 2.5961, 2.5873, 2.5892,2.5892, 2.5931, 2.5910, 2.5920, 2.5893, 2.5897,2.591,0.06951954271590122
MultiSource/Benchmarks/Olden/health/health, 0.1453, 0.1459, 0.1451, 0.1451, 0.1453,0.1453, 0.1454, 0.1451, 0.1455, 0.1452, 0.1454,0.1454,0.06882312456983897
SingleSource/Benchmarks/Polybench/medley/floyd-warshall/floyd-warshall, 3.4403, 3.4374, 3.4388, 3.4499, 3.4376,3.4388, 3.4390, 3.4411, 3.4379, 3.4443, 3.4460,3.4411,0.06688379667325606
SingleSource/Benchmarks/Misc-C++/oopack_v1p8, 0.1620, 0.1617, 0.1614, 0.1619, 0.1618,0.1618, 0.1617, 0.1620, 0.1619, 0.1619, 0.1618,0.1619,0.06180469715697523
MultiSource/Benchmarks/TSVC/Searching-flt/Searching-flt, 2.4485, 2.4464, 2.4488, 2.4465, 2.4469,2.4469, 2.4487, 2.4486, 2.4470, 2.4484, 2.4473,2.4484,0.0613020556622601
SingleSource/Benchmarks/Shootout-C++/fibo, 1.4756, 1.4724, 1.4746, 1.4739, 1.4751,1.4746, 1.4761, 1.4755, 1.4767, 1.4741, 1.4741,1.4755,0.0610335006103524
MultiSource/Applications/JM/lencod/lencod, 3.1782, 3.1778, 3.1774, 3.1776, 3.1757,3.1776, 3.1795, 3.1807, 3.1793, 3.1771, 3.1801,3.1795,0.059793554884191025
SingleSource/Benchmarks/Stanford/FloatMM, 0.2021, 0.2022, 0.2021, 0.2021, 0.2021,0.2021, 0.2021, 0.2022, 0.2022, 0.2035, 0.2021,0.2022,0.04948045522017441
MultiSource/Benchmarks/TSVC/NodeSplitting-flt/NodeSplitting-flt, 4.6420, 4.6409, 4.6427, 4.6403, 4.6417,4.6417, 4.6418, 4.6439, 4.6451, 4.6413, 4.6453,4.6439,0.04739642803284205
SingleSource/Benchmarks/Shootout/hash, 2.8031, 2.8058, 2.8029, 2.8058, 2.8172,2.8058, 2.8018, 2.8139, 2.8071, 2.8059, 2.8207,2.8071,0.04633259676385393
MultiSource/Benchmarks/ASC_Sequoia/CrystalMk/CrystalMk, 6.6763, 6.6758, 6.6766, 6.6770, 6.6763,6.6763, 6.6790, 6.6791, 6.6796, 6.6800, 6.6779,6.6791,0.041939397570511794
MultiSource/Benchmarks/TSVC/LinearDependence-flt/LinearDependence-flt, 5.1272, 5.1253, 5.1267, 5.1293, 5.1264,5.1267, 5.1261, 5.1250, 5.1299, 5.1286, 5.1290,5.1286,0.037060877367500744
MultiSource/Benchmarks/PAQ8p/paq8p,43.9121,43.8987,43.8527,43.8691,43.8608,43.8691,43.9084,43.8800,43.8258,43.8848,43.9392,43.8848,0.03578828833961101
MultiSource/Benchmarks/mafft/pairlocalalign,24.8328,24.8323,24.8326,24.8320,24.8328,24.8326,24.8413,24.8412,24.8411,24.8403,24.8411,24.8411,0.03422919871460817
MultiSource/Benchmarks/DOE-ProxyApps-C/XSBench/XSBench, 2.4340, 2.4248, 2.4305, 2.4312, 2.4245,2.4305, 2.4290, 2.4313, 2.4347, 2.4271, 2.4400,2.4313,0.03291503805800122
MultiSource/Benchmarks/Prolangs-C++/life/life, 0.7021, 0.7043, 0.7059, 0.7066, 0.7060,0.7059, 0.7056, 0.7083, 0.7061, 0.7067, 0.7057,0.7061,0.028332625017712942
SingleSource/Benchmarks/Adobe-C++/functionobjects, 2.9985, 2.9982, 3.0022, 2.9966, 2.9993,2.9985, 2.9991, 3.0019, 2.9998, 2.9991, 2.9988,2.9991,0.02001000500249095
SingleSource/Benchmarks/Shootout/sieve, 3.4676, 3.4682, 3.4674, 3.4684, 3.4686,3.4682, 3.4673, 3.4688, 3.4673, 3.4705, 3.4693,3.4688,0.017300040366752256
MultiSource/Benchmarks/TSVC/StatementReordering-flt/StatementReordering-flt, 1.8207, 1.8296, 1.8264, 1.8257, 1.8240,1.8257, 1.8260, 1.8248, 1.8286, 1.8290, 1.8236,1.826,0.016432053458936835
SingleSource/Benchmarks/BenchmarkGame/fannkuch, 1.8634, 1.8639, 1.8632, 1.8612, 1.8648,1.8634, 1.8643, 1.8642, 1.8616, 1.8633, 1.8637,1.8637,0.016099602876451513
SingleSource/Benchmarks/Adobe-C++/simple_types_constant_folding, 0.6691, 0.6690, 0.6690, 0.6691, 0.6691,0.6691, 0.6692, 0.6691, 0.6691, 0.6693, 0.6692,0.6692,0.01494544911073703
SingleSource/Benchmarks/Adobe-C++/stepanov_vector, 2.2584, 2.2595, 2.2585, 2.2587, 2.2585,2.2585, 2.2584, 2.2588, 2.2593, 2.2588, 2.2591,2.2588,0.013283152534859788
MultiSource/Benchmarks/TSVC/Searching-dbl/Searching-dbl, 2.2905, 2.2878, 2.2881, 2.2897, 2.2897,2.2897, 2.2901, 2.2901, 2.2900, 2.2900, 2.2900,2.29,0.013102153120514437
SingleSource/Benchmarks/Misc/mandel, 0.8337, 0.8338, 0.8337, 0.8337, 0.8337,0.8337, 0.8338, 0.8337, 0.8338, 0.8337, 0.8338,0.8338,0.011994722322183904
MultiSource/Benchmarks/Olden/em3d/em3d, 1.7043, 1.7043, 1.7046, 1.7043, 1.7049,1.7043, 1.7045, 1.7045, 1.7053, 1.7048, 1.7044,1.7045,0.011735023176662196
SingleSource/Benchmarks/Misc/oourafft, 6.0814, 6.0814, 6.0828, 6.0831, 6.0813,6.0814, 6.0819, 6.0819, 6.0820, 6.0821, 6.0822,6.082,0.009866149241943845
SingleSource/Benchmarks/Misc/whetstone, 1.0289, 1.0289, 1.0290, 1.0263, 1.0289,1.0289, 1.0290, 1.0289, 1.0290, 1.0290, 1.0213,1.029,0.009719117504136676
SingleSource/Benchmarks/Misc/matmul_f64_4x4, 1.2952, 1.2953, 1.2952, 1.2952, 1.2952,1.2952, 1.2953, 1.2952, 1.2953, 1.2953, 1.2953,1.2953,0.00772081531810187
SingleSource/Benchmarks/Polybench/stencils/adi/adi, 2.7999, 2.7981, 2.7985, 2.7982, 2.8007,2.7985, 2.7975, 2.7996, 2.7995, 2.7985, 2.7987,2.7987,0.007146685724501722
SingleSource/Benchmarks/Shootout-C++/random, 1.7449, 1.7449, 1.7449, 1.7450, 1.7449,1.7449, 1.7450, 1.7449, 1.7450, 1.7449, 1.7450,1.745,0.005730987449159564
SingleSource/Benchmarks/Misc-C++/Large/sphereflake, 6.2805, 6.2802, 6.2803, 6.2800, 6.2802,6.2802, 6.2806, 6.2805, 6.2804, 6.2805, 6.2806,6.2805,0.00477691793254742
SingleSource/Benchmarks/Adobe-C++/stepanov_abstraction, 4.2385, 4.2378, 4.2373, 4.2371, 4.2366,4.2373, 4.2375, 4.2378, 4.2382, 4.2367, 4.2373,4.2375,0.004719986784018637
SingleSource/Benchmarks/Misc/salsa20, 4.8174, 4.8173, 4.8286, 4.8172, 4.8173,4.8173, 4.8175, 4.8285, 4.8174, 4.8285, 4.8175,4.8175,0.004151703236243698
SingleSource/Benchmarks/Misc-C++/Large/ray, 3.1387, 3.1396, 3.1387, 3.1387, 3.1394,3.1387, 3.1388, 3.1387, 3.1389, 3.1387, 3.1388,3.1388,0.0031860324338106594
SingleSource/Benchmarks/Shootout/methcall, 3.2758, 3.2758, 3.2765, 3.2761, 3.2763,3.2761, 3.2758, 3.2762, 3.2759, 3.2765, 3.2763,3.2762,0.0030524098775908115
MultiSource/Benchmarks/TSVC/Reductions-dbl/Reductions-dbl, 3.4764, 3.4764, 3.4764, 3.4765, 3.4764,3.4764, 3.4765, 3.4766, 3.4765, 3.4764, 3.4764,3.4765,0.002876538948348717
SingleSource/Benchmarks/Shootout-C++/methcall, 3.5475, 3.5459, 3.5508, 3.5459, 3.5459,3.5459, 3.5460, 3.5509, 3.5459, 3.5508, 3.5459,3.546,0.0028201584929110624
SingleSource/Benchmarks/Misc/perlin, 3.8541, 3.8535, 3.8535, 3.8540, 3.8537,3.8537, 3.8539, 3.8538, 3.8537, 3.8531, 3.8544,3.8538,0.002594908788955408
SingleSource/Benchmarks/Misc-C++/stepanov_v1p2, 7.9034, 7.9033, 7.9032, 7.9031, 7.9032,7.9032, 7.9034, 7.9034, 7.9033, 7.9034, 7.9034,7.9034,0.0025306205081454536
SingleSource/Regression/C/uint64_to_float, 0.2602, 0.2603, 0.2601, 0.2602, 0.2602,0.2602, 0.2602, 0.2602, 0.2602, 0.2602, 0.2602,0.2602,0.0
SingleSource/Benchmarks/Stanford/Treesort, 0.0548, 0.0547, 0.0547, 0.0546, 0.0547,0.0547, 0.0547, 0.0547, 0.0547, 0.0546, 0.0546,0.0547,0.0
SingleSource/Benchmarks/Stanford/Quicksort, 0.0303, 0.0303, 0.0304, 0.0303, 0.0303,0.0303, 0.0303, 0.0305, 0.0304, 0.0303, 0.0303,0.0303,0.0
SingleSource/Benchmarks/Stanford/Puzzle, 0.0773, 0.0773, 0.0773, 0.0773, 0.0773,0.0773, 0.0773, 0.0773, 0.0772, 0.0773, 0.0773,0.0773,0.0
SingleSource/Benchmarks/Stanford/Bubblesort, 0.0160, 0.0161, 0.0162, 0.0161, 0.0160,0.0161, 0.0161, 0.0161, 0.0160, 0.0160, 0.0162,0.0161,0.0
SingleSource/Benchmarks/Shootout/random, 1.7449, 1.7449, 1.7449, 1.7449, 1.7450,1.7449, 1.7449, 1.7449, 1.7449, 1.7449, 1.7449,1.7449,0.0
SingleSource/Benchmarks/Shootout-C++/strcat, 0.0405, 0.0406, 0.0406, 0.0406, 0.0406,0.0406, 0.0404, 0.0406, 0.0406, 0.0406, 0.0406,0.0406,0.0
SingleSource/Benchmarks/Shootout-C++/objinst, 0.0009, 0.0009, 0.0009, 0.0009, 0.0009,0.0009, 0.0009, 0.0009, 0.0009, 0.0009, 0.0009,0.0009,0.0
SingleSource/Benchmarks/Shootout-C++/nestedloop, 0.0009, 0.0009, 0.0009, 0.0009, 0.0009,0.0009, 0.0009, 0.0009, 0.0009, 0.0009, 0.0009,0.0009,0.0
SingleSource/Benchmarks/Shootout-C++/heapsort, 2.0487, 2.0413, 2.0350, 2.0374, 2.0401,2.0401, 2.0401, 2.0388, 2.0321, 2.0439, 2.0467,2.0401,0.0
SingleSource/Benchmarks/Shootout-C++/hash2, 1.7370, 1.7367, 1.7366, 1.7365, 1.7364,1.7366, 1.7342, 1.7366, 1.7372, 1.7346, 1.7372,1.7366,0.0
SingleSource/Benchmarks/Shootout-C++/hash, 0.3219, 0.3221, 0.3238, 0.3219, 0.3214,0.3219, 0.3219, 0.3218, 0.3219, 0.3215, 0.3219,0.3219,0.0
SingleSource/Benchmarks/Shootout-C++/ary2, 0.0150, 0.0150, 0.0150, 0.0150, 0.0149,0.015, 0.0149, 0.0150, 0.0151, 0.0151, 0.0150,0.015,0.0
SingleSource/Benchmarks/Shootout-C++/ary, 0.0143, 0.0143, 0.0142, 0.0143, 0.0143,0.0143, 0.0142, 0.0142, 0.0143, 0.0143, 0.0143,0.0143,0.0
SingleSource/Benchmarks/Shootout-C++/ackermann, 0.6573, 0.6573, 0.6573, 0.6573, 0.6573,0.6573, 0.6573, 0.6574, 0.6573, 0.6573, 0.6573,0.6573,0.0
SingleSource/Benchmarks/Polybench/stencils/seidel-2d/seidel-2d, 0.6474, 0.6473, 0.6473, 0.6473, 0.6473,0.6473, 0.6473, 0.6473, 0.6473, 0.6473, 0.6472,0.6473,0.0
SingleSource/Benchmarks/Polybench/stencils/jacobi-1d-imper/jacobi-1d-imper, 0.0037, 0.0037, 0.0037, 0.0037, 0.0037,0.0037, 0.0037, 0.0037, 0.0037, 0.0037, 0.0037,0.0037,0.0
SingleSource/Benchmarks/Polybench/medley/reg_detect/reg_detect, 0.0175, 0.0175, 0.0175, 0.0175, 0.0175,0.0175, 0.0175, 0.0175, 0.0175, 0.0175, 0.0175,0.0175,0.0
SingleSource/Benchmarks/Polybench/linear-algebra/solvers/lu/lu, 0.0023, 0.0023, 0.0023, 0.0023, 0.0023,0.0023, 0.0023, 0.0023, 0.0023, 0.0023, 0.0023,0.0023,0.0
SingleSource/Benchmarks/Polybench/linear-algebra/kernels/bicg/bicg, 0.2128, 0.2126, 0.2128, 0.2128, 0.2128,0.2128, 0.2128, 0.2128, 0.2128, 0.2127, 0.2128,0.2128,0.0
SingleSource/Benchmarks/Polybench/linear-algebra/kernels/atax/atax, 0.1706, 0.1704, 0.1704, 0.1707, 0.1706,0.1706, 0.1704, 0.1706, 0.1705, 0.1706, 0.1707,0.1706,0.0
SingleSource/Benchmarks/Misc/pi, 0.6943, 0.6943, 0.6943, 0.6943, 0.6943,0.6943, 0.6943, 0.6943, 0.6942, 0.6943, 0.6943,0.6943,0.0
SingleSource/Benchmarks/Misc/mandel-2, 1.2781, 1.2780, 1.2780, 1.2781, 1.2780,1.278, 1.2780, 1.2780, 1.2781, 1.2781, 1.2780,1.278,0.0
SingleSource/Benchmarks/Misc/fp-convert, 3.0626, 3.0627, 3.0626, 3.0625, 3.0626,3.0626, 3.0626, 3.0626, 3.0626, 3.0626, 3.0626,3.0626,0.0
SingleSource/Benchmarks/Misc/flops-7, 1.5901, 1.5901, 1.5901, 1.5901, 1.5901,1.5901, 1.5901, 1.5901, 1.5901, 1.5901, 1.5901,1.5901,0.0
SingleSource/Benchmarks/Misc/flops-6, 3.1818, 3.1818, 3.1818, 3.1817, 3.1818,3.1818, 3.1818, 3.1818, 3.1818, 3.1818, 3.1818,3.1818,0.0
SingleSource/Benchmarks/Misc/flops-2, 0.8626, 0.8627, 0.8627, 0.8628, 0.8627,0.8627, 0.8627, 0.8627, 0.8627, 0.8627, 0.8627,0.8627,0.0
SingleSource/Benchmarks/Misc/flops-1, 3.6289, 3.6289, 3.6289, 3.6289, 3.6289,3.6289, 3.6289, 3.6289, 3.6289, 3.6289, 3.6289,3.6289,0.0
SingleSource/Benchmarks/Misc/fbench, 1.7523, 1.7523, 1.7523, 1.7522, 1.7522,1.7523, 1.7523, 1.7523, 1.7523, 1.7523, 1.7523,1.7523,0.0
SingleSource/Benchmarks/Misc/dt, 0.6919, 0.6919, 0.6919, 0.6919, 0.6919,0.6919, 0.6919, 0.6919, 0.6918, 0.6919, 0.6919,0.6919,0.0
SingleSource/Benchmarks/McGill/queens, 1.5488, 1.5490, 1.5487, 1.5490, 1.5487,1.5488, 1.5488, 1.5488, 1.5491, 1.5487, 1.5494,1.5488,0.0
SingleSource/Benchmarks/McGill/misr, 0.1012, 0.1012, 0.1012, 0.1012, 0.1012,0.1012, 0.1012, 0.1012, 0.1012, 0.1011, 0.1012,0.1012,0.0
SingleSource/Benchmarks/Linpack/linpack-pc, 1.2647, 1.2613, 1.2582, 1.2594, 1.2577,1.2594, 1.2615, 1.2592, 1.2632, 1.2594, 1.2580,1.2594,0.0
SingleSource/Benchmarks/Dhrystone/fldry, 0.3655, 0.3655, 0.3655, 0.3655, 0.3655,0.3655, 0.3655, 0.3656, 0.3655, 0.3654, 0.3655,0.3655,0.0
SingleSource/Benchmarks/Dhrystone/dry, 0.3351, 0.3351, 0.3351, 0.3351, 0.3351,0.3351, 0.3351, 0.3351, 0.3352, 0.3351, 0.3350,0.3351,0.0
SingleSource/Benchmarks/BenchmarkGame/spectral-norm, 0.9733, 0.9733, 0.9733, 0.9733, 0.9733,0.9733, 0.9733, 0.9733, 0.9733, 0.9733, 0.9733,0.9733,0.0
SingleSource/Benchmarks/BenchmarkGame/partialsums, 0.5687, 0.5686, 0.5687, 0.5687, 0.5688,0.5687, 0.5687, 0.5687, 0.5688, 0.5687, 0.5687,0.5687,0.0
SingleSource/Benchmarks/BenchmarkGame/n-body, 1.3718, 1.3718, 1.3718, 1.3718, 1.3718,1.3718, 1.3718, 1.3718, 1.3718, 1.3719, 1.3718,1.3718,0.0
SingleSource/Benchmarks/BenchmarkGame/Large/fasta, 0.6492, 0.6493, 0.6483, 0.6494, 0.6494,0.6493, 0.6495, 0.6500, 0.6490, 0.6493, 0.6452,0.6493,0.0
MultiSource/Benchmarks/mediabench/g721/g721encode/encode, 0.0290, 0.0290, 0.0290, 0.0291, 0.0291,0.029, 0.0291, 0.0291, 0.0290, 0.0290, 0.0289,0.029,0.0
MultiSource/Benchmarks/VersaBench/ecbdes/ecbdes, 1.6923, 1.6923, 1.6923, 1.6923, 1.6924,1.6923, 1.6922, 1.6923, 1.6923, 1.6924, 1.6922,1.6923,0.0
MultiSource/Benchmarks/Trimaran/netbench-url/netbench-url, 2.9789, 2.9790, 2.9788, 2.9790, 2.9790,2.979, 2.9788, 2.9795, 2.9792, 2.9790, 2.9789,2.979,0.0
MultiSource/Benchmarks/Trimaran/netbench-crc/netbench-crc, 0.6219, 0.6211, 0.6211, 0.6210, 0.6210,0.6211, 0.6211, 0.6210, 0.6211, 0.6212, 0.6211,0.6211,0.0
MultiSource/Benchmarks/Trimaran/enc-pc1/enc-pc1, 0.3533, 0.3533, 0.3534, 0.3533, 0.3533,0.3533, 0.3534, 0.3533, 0.3533, 0.3533, 0.3532,0.3533,0.0
MultiSource/Benchmarks/Trimaran/enc-md5/enc-md5, 1.3929, 1.3928, 1.3929, 1.3928, 1.3929,1.3929, 1.3929, 1.3929, 1.3929, 1.3928, 1.3928,1.3929,0.0
MultiSource/Benchmarks/Trimaran/enc-3des/enc-3des, 1.2773, 1.2775, 1.2773, 1.2772, 1.2772,1.2773, 1.2776, 1.2774, 1.2772, 1.2773, 1.2773,1.2773,0.0
MultiSource/Benchmarks/TSVC/Reductions-flt/Reductions-flt, 5.9694, 5.9694, 5.9695, 5.9693, 5.9693,5.9694, 5.9694, 5.9693, 5.9694, 5.9694, 5.9695,5.9694,0.0
MultiSource/Benchmarks/TSVC/Recurrences-flt/Recurrences-flt, 3.5009, 3.5010, 3.5009, 3.5009, 3.5008,3.5009, 3.5009, 3.5009, 3.5008, 3.5010, 3.5008,3.5009,0.0
MultiSource/Benchmarks/TSVC/Recurrences-dbl/Recurrences-dbl, 3.5012, 3.5012, 3.5012, 3.5011, 3.5012,3.5012, 3.5012, 3.5013, 3.5012, 3.5012, 3.5012,3.5012,0.0
MultiSource/Benchmarks/Ptrdist/bc/bc, 0.3600, 0.3598, 0.3599, 0.3598, 0.3601,0.3599, 0.3598, 0.3598, 0.3599, 0.3601, 0.3599,0.3599,0.0
MultiSource/Benchmarks/Ptrdist/anagram/anagram, 0.6663, 0.6663, 0.6662, 0.6664, 0.6662,0.6663, 0.6661, 0.6663, 0.6662, 0.6664, 0.6663,0.6663,0.0
MultiSource/Benchmarks/Olden/tsp/tsp, 1.1804, 1.1802, 1.1803, 1.1802, 1.1811,1.1803, 1.1801, 1.1805, 1.1804, 1.1803, 1.1799,1.1803,0.0
MultiSource/Benchmarks/Olden/power/power, 1.0749, 1.0749, 1.0751, 1.0749, 1.0749,1.0749, 1.0749, 1.0749, 1.0749, 1.0749, 1.0751,1.0749,0.0
MultiSource/Benchmarks/Olden/perimeter/perimeter, 0.1234, 0.1228, 0.1233, 0.1228, 0.1229,0.1229, 0.1229, 0.1229, 0.1227, 0.1230, 0.1228,0.1229,0.0
MultiSource/Benchmarks/MiBench/network-patricia/network-patricia, 0.0709, 0.0708, 0.0709, 0.0709, 0.0709,0.0709, 0.0709, 0.0709, 0.0709, 0.0708, 0.0707,0.0709,0.0
MultiSource/Benchmarks/McCat/18-imp/imp, 0.0676, 0.0677, 0.0676, 0.0676, 0.0677,0.0676, 0.0677, 0.0677, 0.0676, 0.0675, 0.0676,0.0676,0.0
MultiSource/Benchmarks/McCat/17-bintr/bintr, 0.0814, 0.0809, 0.0806, 0.0813, 0.0810,0.081, 0.0810, 0.0805, 0.0810, 0.0814, 0.0803,0.081,0.0
MultiSource/Benchmarks/McCat/09-vor/vor, 0.0840, 0.0837, 0.0838, 0.0838, 0.0840,0.0838, 0.0840, 0.0838, 0.0839, 0.0838, 0.0838,0.0838,0.0
MultiSource/Benchmarks/McCat/08-main/main, 0.0429, 0.0429, 0.0429, 0.0429, 0.0429,0.0429, 0.0429, 0.0429, 0.0429, 0.0429, 0.0429,0.0429,0.0
MultiSource/Benchmarks/McCat/05-eks/eks, 0.0036, 0.0036, 0.0036, 0.0036, 0.0036,0.0036, 0.0036, 0.0036, 0.0036, 0.0036, 0.0036,0.0036,0.0
MultiSource/Benchmarks/McCat/04-bisect/bisect, 0.0789, 0.0789, 0.0789, 0.0789, 0.0789,0.0789, 0.0790, 0.0789, 0.0788, 0.0789, 0.0789,0.0789,0.0
MultiSource/Benchmarks/MallocBench/espresso/espresso, 0.3076, 0.3079, 0.3078, 0.3077, 0.3081,0.3078, 0.3078, 0.3077, 0.3079, 0.3080, 0.3077,0.3078,0.0
MultiSource/Benchmarks/FreeBench/pifft/pifft, 0.0644, 0.0643, 0.0645, 0.0643, 0.0643,0.0643, 0.0642, 0.0643, 0.0643, 0.0643, 0.0644,0.0643,0.0
MultiSource/Benchmarks/FreeBench/pcompress2/pcompress2, 0.1032, 0.1031, 0.1033, 0.1032, 0.1032,0.1032, 0.1032, 0.1031, 0.1032, 0.1032, 0.1031,0.1032,0.0
MultiSource/Benchmarks/FreeBench/neural/neural, 0.1649, 0.1648, 0.1647, 0.1648, 0.1648,0.1648, 0.1647, 0.1648, 0.1648, 0.1648, 0.1647,0.1648,0.0
MultiSource/Benchmarks/FreeBench/distray/distray, 0.1381, 0.1382, 0.1381, 0.1381, 0.1381,0.1381, 0.1381, 0.1381, 0.1381, 0.1381, 0.1381,0.1381,0.0
MultiSource/Benchmarks/BitBench/uuencode/uuencode, 0.0110, 0.0111, 0.0110, 0.0110, 0.0110,0.011, 0.0111, 0.0110, 0.0109, 0.0110, 0.0110,0.011,0.0
MultiSource/Benchmarks/BitBench/uudecode/uudecode, 0.0599, 0.0598, 0.0597, 0.0598, 0.0598,0.0598, 0.0599, 0.0597, 0.0598, 0.0598, 0.0598,0.0598,0.0
MultiSource/Applications/sgefa/sgefa, 0.1155, 0.1154, 0.1153, 0.1155, 0.1155,0.1155, 0.1155, 0.1155, 0.1155, 0.1155, 0.1154,0.1155,0.0
MultiSource/Applications/ALAC/decode/alacconvert-decode, 0.0131, 0.0131, 0.0132, 0.0131, 0.0131,0.0131, 0.0131, 0.0130, 0.0130, 0.0132, 0.0132,0.0131,0.0
MultiSource/Benchmarks/7zip/7zip-benchmark, 6.3241, 6.3217, 6.3272, 6.3317, 6.3213,6.3241, 6.3237, 6.3273, 6.3239, 6.3252, 6.3216,6.3239,-0.0031625053367179135
MultiSource/Benchmarks/TSVC/GlobalDataFlow-dbl/GlobalDataFlow-dbl, 2.8496, 2.8509, 2.8527, 2.8491, 2.8517,2.8509, 2.8378, 2.8520, 2.8508, 2.8523, 2.8373,2.8508,-0.0035076642463827135
MultiSource/Benchmarks/VersaBench/bmm/bmm, 1.6963, 1.6959, 1.6964, 1.6964, 1.6965,1.6964, 1.6963, 1.6964, 1.6963, 1.6963, 1.6960,1.6963,-0.005894836123554459
SingleSource/Benchmarks/Polybench/linear-algebra/kernels/syrk/syrk, 4.4133, 4.4142, 4.4121, 4.4137, 4.4130,4.4133, 4.4130, 4.4138, 4.4137, 4.4124, 4.4129,4.413,-0.0067976344232056896
MultiSource/Benchmarks/NPB-serial/is/is, 5.1839, 5.1773, 5.1825, 5.1770, 5.1792,5.1792, 5.1788, 5.1781, 5.1770, 5.1793, 5.1794,5.1788,-0.007723200494280658
MultiSource/Applications/siod/siod, 1.1071, 1.1069, 1.1068, 1.1061, 1.1072,1.1069, 1.1064, 1.1063, 1.1068, 1.1068, 1.1069,1.1068,-0.00903423976872375
MultiSource/Applications/aha/aha, 1.0657, 1.0647, 1.0660, 1.0658, 1.0651,1.0657, 1.0645, 1.0659, 1.0655, 1.0656, 1.0666,1.0656,-0.009383503800319826
SingleSource/Benchmarks/CoyoteBench/huffbench, 9.2881, 9.2854, 9.2878, 9.2873, 9.2902,9.2878, 9.2855, 9.2893, 9.2868, 9.2866, 9.2888,9.2868,-0.010766812377538404
MultiSource/Benchmarks/TSVC/LoopRerolling-dbl/LoopRerolling-dbl, 4.6023, 4.5933, 4.6045, 4.5856, 4.5999,4.5999, 4.6098, 4.5860, 4.5884, 4.6004, 4.5994,4.5994,-0.01086980151742134
SingleSource/Benchmarks/Shootout/lists, 4.1181, 4.1186, 4.1197, 4.1211, 4.1208,4.1197, 4.1194, 4.1182, 4.1189, 4.1191, 4.1194,4.1191,-0.014564167293718011
SingleSource/Benchmarks/CoyoteBench/almabench,12.6487,12.6483,12.6483,12.6477,12.6485,12.6483,12.6462,12.6522,12.6459,12.6532,12.6454,12.6462,-0.01660302174996131
SingleSource/Benchmarks/Shootout/matrix, 1.0909, 1.0907, 1.0907, 1.0906, 1.0906,1.0907, 1.0905, 1.0905, 1.0905, 1.0906, 1.0906,1.0905,-0.018336847895850106
MultiSource/Benchmarks/Ptrdist/yacr2/yacr2, 0.5118, 0.5118, 0.5116, 0.5118, 0.5114,0.5118, 0.5117, 0.5117, 0.5118, 0.5116, 0.5118,0.5117,-0.019538882375924604
MultiSource/Applications/hexxagon/hexxagon, 6.5838, 6.5829, 6.5844, 6.5839, 6.5839,6.5839, 6.5826, 6.5823, 6.5831, 6.5826, 6.5815,6.5826,-0.019745135861715113
SingleSource/Benchmarks/Polybench/linear-algebra/kernels/syr2k/syr2k, 8.7821, 8.7813, 8.7809, 8.7825, 8.7778,8.7813, 8.7802, 8.7794, 8.7804, 8.7778, 8.7783,8.7794,-0.021636887476783606
MultiSource/Benchmarks/Fhourstones-3.1/fhourstones3.1, 0.8109, 0.8109, 0.8113, 0.8106, 0.8108,0.8109, 0.8108, 0.8107, 0.8108, 0.8106, 0.8106,0.8107,-0.02466395363176499
SingleSource/Benchmarks/Adobe-C++/simple_types_loop_invariant, 1.6068, 1.6077, 1.6059, 1.6072, 1.6065,1.6068, 1.6064, 1.6064, 1.6064, 1.6067, 1.6060,1.6064,-0.024894199651481763
MultiSource/Benchmarks/MallocBench/cfrac/cfrac, 0.7717, 0.7713, 0.7719, 0.7714, 0.7720,0.7717, 0.7715, 0.7712, 0.7714, 0.7717, 0.7719,0.7715,-0.02591680704938648
MultiSource/Benchmarks/VersaBench/beamformer/beamformer, 0.7498, 0.7498, 0.7498, 0.7496, 0.7497,0.7498, 0.7495, 0.7496, 0.7497, 0.7496, 0.7494,0.7496,-0.026673779674579734
MultiSource/Applications/obsequi/Obsequi, 1.0708, 1.0709, 1.0709, 1.0708, 1.0710,1.0709, 1.0707, 1.0705, 1.0700, 1.0706, 1.0708,1.0706,-0.028013820151273627
SingleSource/Benchmarks/Shootout-C++/matrix, 1.6721, 1.6723, 1.6722, 1.6722, 1.6722,1.6722, 1.6717, 1.6717, 1.6716, 1.6717, 1.6717,1.6717,-0.029900729577803098
MultiSource/Benchmarks/SciMark2-C/scimark2,43.2911,43.1821,43.2956,43.2202,43.2983,43.2911,43.2106,43.1382,43.2761,43.3388,43.2924,43.2761,-0.03464915421415027
MultiSource/Benchmarks/tramp3d-v4/tramp3d-v4, 0.2640, 0.2641, 0.2636, 0.2641, 0.2638,0.264, 0.2640, 0.2637, 0.2637, 0.2640, 0.2639,0.2639,-0.037878787878786735
SingleSource/Benchmarks/Polybench/linear-algebra/kernels/doitgen/doitgen, 0.7915, 0.7911, 0.7912, 0.7910, 0.7904,0.7911, 0.7905, 0.7924, 0.7904, 0.7908, 0.7949,0.7908,-0.037921880925306795
SingleSource/Benchmarks/Shootout/fib2, 1.4733, 1.4724, 1.4734, 1.4724, 1.4740,1.4733, 1.4731, 1.4727, 1.4729, 1.4723, 1.4720,1.4727,-0.04072490327836631
MultiSource/Benchmarks/TSVC/Equivalencing-flt/Equivalencing-flt, 0.9680, 0.9689, 0.9698, 0.9660, 0.9662,0.968, 0.9651, 0.9707, 0.9669, 0.9677, 0.9676,0.9676,-0.04132231404958553
MultiSource/Benchmarks/nbench/nbench, 1.1897, 1.1885, 1.1912, 1.1902, 1.1899,1.1899, 1.1893, 1.1887, 1.1906, 1.1893, 1.1910,1.1893,-0.050424405412219375
SingleSource/Benchmarks/Misc-C++/bigfib, 0.1929, 0.1925, 0.1920, 0.1922, 0.1924,0.1924, 0.1921, 0.1932, 0.1925, 0.1923, 0.1923,0.1923,-0.05197505197505059
MultiSource/Benchmarks/FreeBench/fourinarow/fourinarow, 0.1773, 0.1772, 0.1773, 0.1773, 0.1773,0.1773, 0.1772, 0.1772, 0.1772, 0.1772, 0.1773,0.1772,-0.056401579244225175
SingleSource/Benchmarks/Misc/flops,10.6609,10.6368,10.6588,10.6607,10.6437,10.6588,10.6567,10.6357,10.6527,10.6422,10.6764,10.6527,-0.05722970690884566
MultiSource/Applications/spiff/spiff, 1.3047, 1.3019, 1.3005, 1.3001, 1.3022,1.3019, 1.3041, 1.3057, 1.3008, 1.3011, 1.3008,1.3011,-0.061448651970208434
SingleSource/Benchmarks/SmallPT/smallpt, 7.5950, 7.5942, 7.5980, 7.5948, 7.5943,7.5948, 7.5882, 7.5900, 7.5889, 7.5893, 7.5899,7.5893,-0.07241797019014173
SingleSource/Benchmarks/Adobe-C++/loop_unroll, 1.8223, 1.8184, 1.8241, 1.8202, 1.8222,1.8222, 1.8182, 1.8264, 1.8221, 1.8135, 1.8208,1.8208,-0.07683020524641426
MultiSource/Benchmarks/FreeBench/mason/mason, 0.1296, 0.1296, 0.1296, 0.1295, 0.1294,0.1296, 0.1296, 0.1296, 0.1295, 0.1295, 0.1295,0.1295,-0.07716049382715529
MultiSource/Benchmarks/Ptrdist/ks/ks, 0.6188, 0.6182, 0.6186, 0.6197, 0.6198,0.6188, 0.6183, 0.6169, 0.6181, 0.6185, 0.6193,0.6183,-0.0808015513897975
SingleSource/Benchmarks/Shootout/strcat, 0.1053, 0.1053, 0.1053, 0.1052, 0.1052,0.1053, 0.1052, 0.1051, 0.1052, 0.1052, 0.1051,0.1052,-0.09496676163343043
MultiSource/Applications/minisat/minisat, 4.2041, 4.1967, 4.1992, 4.1813, 4.1995,4.1992, 4.1858, 4.2238, 4.1806, 4.1962, 4.1952,4.1952,-0.09525623928368088
MultiSource/Benchmarks/TSVC/IndirectAddressing-dbl/IndirectAddressing-dbl, 2.4967, 2.4786, 2.4808, 2.4714, 2.4849,2.4808, 2.4929, 2.4784, 2.4747, 2.4765, 2.4930,2.4784,-0.0967429861334912
MultiSource/Benchmarks/TSVC/InductionVariable-flt/InductionVariable-flt, 2.5533, 2.5584, 2.5610, 2.5588, 2.5537,2.5584, 2.5576, 2.5629, 2.5539, 2.5475, 2.5558,2.5558,-0.10162601626014789
SingleSource/Benchmarks/Misc-C++-EH/spirit, 2.6207, 2.6221, 2.6221, 2.6226, 2.6221,2.6221, 2.6182, 2.6192, 2.6201, 2.6193, 2.6184,2.6192,-0.11059837534800332
MultiSource/Benchmarks/TSVC/IndirectAddressing-flt/IndirectAddressing-flt, 2.3016, 2.3030, 2.3068, 2.3068, 2.3051,2.3051, 2.3051, 2.3024, 2.3021, 2.3009, 2.3038,2.3024,-0.11713157780572914
SingleSource/Benchmarks/Shootout/heapsort, 2.0292, 2.0206, 2.0346, 2.0274, 2.0274,2.0274, 2.0222, 2.0250, 2.0350, 2.0257, 2.0226,2.025,-0.11837821840782192
MultiSource/Benchmarks/TSVC/NodeSplitting-dbl/NodeSplitting-dbl, 5.0282, 5.0254, 5.0279, 5.0184, 5.0176,5.0254, 5.0282, 5.0151, 5.0186, 5.0166, 5.0281,5.0186,-0.135312611931393
MultiSource/Benchmarks/TSVC/LoopRerolling-flt/LoopRerolling-flt, 3.8281, 3.8292, 3.8290, 3.8286, 3.8230,3.8286, 3.8209, 3.8279, 3.8243, 3.8229, 3.8208,3.8229,-0.14887948597397394
MultiSource/Benchmarks/TSVC/ControlFlow-dbl/ControlFlow-dbl, 3.8287, 3.8126, 3.8157, 3.8089, 3.8165,3.8157, 3.8198, 3.8131, 3.8068, 3.8100, 3.8064,3.81,-0.1493828131142405
SingleSource/Benchmarks/Shootout-C++/EH/except, 0.1205, 0.1206, 0.1206, 0.1204, 0.1208,0.1206, 0.1201, 0.1204, 0.1205, 0.1203, 0.1210,0.1204,-0.16583747927031434
SingleSource/Benchmarks/Misc-C++/mandel-text, 1.6139, 1.6134, 1.6129, 1.6141, 1.6135,1.6135, 1.6088, 1.6118, 1.6119, 1.6105, 1.6104,1.6105,-0.1859312054539708
MultiSource/Benchmarks/McCat/12-IOtest/iotest, 0.2158, 0.2136, 0.2148, 0.2150, 0.2151,0.215, 0.2148, 0.2148, 0.2146, 0.2137, 0.2140,0.2146,-0.18604651162790198
SingleSource/Benchmarks/Shootout-C++/moments, 0.0506, 0.0506, 0.0505, 0.0505, 0.0506,0.0506, 0.0506, 0.0507, 0.0504, 0.0504, 0.0505,0.0505,-0.19762845849801147
MultiSource/Benchmarks/TSVC/StatementReordering-dbl/StatementReordering-dbl, 2.2426, 2.2468, 2.2447, 2.2391, 2.2446,2.2446, 2.2450, 2.2419, 2.2321, 2.2401, 2.2351,2.2401,-0.2004811547714591
MultiSource/Benchmarks/BitBench/five11/five11, 1.1199, 1.1277, 1.1212, 1.1192, 1.1174,1.1199, 1.1200, 1.1223, 1.1172, 1.1176, 1.1171,1.1176,-0.2053754799535623
MultiSource/Benchmarks/TSVC/ControlFlow-flt/ControlFlow-flt, 3.6133, 3.6043, 3.6411, 3.6066, 3.6120,3.612, 3.6035, 3.6131, 3.6170, 3.5996, 3.5975,3.6035,-0.2353266888150629
MultiSource/Benchmarks/TSVC/Equivalencing-dbl/Equivalencing-dbl, 1.3840, 1.3862, 1.3809, 1.3808, 1.3874,1.384, 1.3807, 1.3805, 1.3790, 1.3863, 1.3803,1.3805,-0.25289017341039166
MultiSource/Benchmarks/McCat/01-qbsort/qbsort, 0.0395, 0.0395, 0.0396, 0.0395, 0.0395,0.0395, 0.0394, 0.0394, 0.0395, 0.0394, 0.0394,0.0394,-0.25316455696203777
MultiSource/Benchmarks/Prolangs-C++/ocean/ocean, 0.0364, 0.0363, 0.0363, 0.0363, 0.0362,0.0363, 0.0363, 0.0363, 0.0362, 0.0361, 0.0362,0.0362,-0.2754820936639035
MultiSource/Benchmarks/Olden/bisort/bisort, 0.3714, 0.3714, 0.3706, 0.3695, 0.3711,0.3711, 0.3694, 0.3703, 0.3699, 0.3693, 0.3697,0.3697,-0.37725680409593787
MultiSource/Benchmarks/TSVC/ControlLoops-dbl/ControlLoops-dbl, 2.5390, 2.5404, 2.5292, 2.5395, 2.5276,2.539, 2.5286, 2.5303, 2.5288, 2.5276, 2.5291,2.5288,-0.401732965734547
MultiSource/Benchmarks/TSVC/InductionVariable-dbl/InductionVariable-dbl, 3.0498, 3.0494, 3.0304, 3.0469, 3.0339,3.0469, 3.0326, 3.0482, 3.0515, 3.0309, 3.0317,3.0326,-0.4693294824247629
MultiSource/Applications/sqlite3/sqlite3, 1.8191, 1.8231, 1.8198, 1.8232, 1.8238,1.8231, 1.8100, 1.8113, 1.8131, 1.8117, 1.8077,1.8113,-0.6472491909385147
MultiSource/Applications/lua/lua,11.6239,11.6659,11.6422,11.6264,11.6559,11.6422,11.5384,11.5282,11.5341,11.5613,11.5672,11.5384,-0.8915840648674789
SingleSource/Benchmarks/Misc/ReedSolomon, 3.2824, 3.2849, 3.2823, 3.2827, 3.2824,3.2824, 3.2470, 3.2453, 3.2468, 3.2483, 3.2475,3.247,-1.0784791615890854
MultiSource/Benchmarks/Fhourstones/fhourstones, 0.6083, 0.6111, 0.6109, 0.6065, 0.6106,0.6106, 0.6067, 0.6035, 0.6020, 0.6018, 0.6020,0.602,-1.4084507042253613
SingleSource/Benchmarks/Misc/richards_benchmark, 0.5667, 0.5656, 0.5662, 0.5659, 0.5676,0.5662, 0.5322, 0.5321, 0.5317, 0.5325, 0.5321,0.5321,-6.0226068527022285
Total elapsed time,-,-,-,-,-,573.7917000000004,-,-,-,-,-,573.7800000000005,-0.0020390674873693726
Total failure,-,-,-,-,-,0,-,-,-,-,-,0,
