Benchmarks,/mnt/freezedisk/llvm-intptr-base-4.0-release/bin/clang,/mnt/freezedisk/llvm-intptr-base-4.0-release/bin/clang,/mnt/freezedisk/llvm-intptr-base-4.0-release/bin/clang,/mnt/freezedisk/llvm-intptr-base-4.0-release/bin/clang,/mnt/freezedisk/llvm-intptr-base-4.0-release/bin/clang,median,/mnt/freezedisk/llvm-intptr-psub-release/bin/clang,/mnt/freezedisk/llvm-intptr-psub-release/bin/clang,/mnt/freezedisk/llvm-intptr-psub-release/bin/clang,/mnt/freezedisk/llvm-intptr-psub-release/bin/clang,/mnt/freezedisk/llvm-intptr-psub-release/bin/clang,median
MultiSource/Applications/ALAC/decode/alacconvert-decode, 1.0090, 1.0090, 1.0078, 1.0084, 1.0081,1.0084, 1.0060, 1.0041, 1.0078, 1.0048, 1.0045,1.0048
MultiSource/Applications/ALAC/encode/alacconvert-encode, 1.0094, 1.0152, 1.0064, 1.0181, 1.0072,1.0094, 1.0068, 1.0056, 1.0072, 1.0066, 1.0031,1.0066
MultiSource/Applications/ClamAV/clamscan,12.5468,12.5522,12.5541,12.5441,12.5415,12.5468,12.5087,12.5209,12.5001,12.5105,12.5033,12.5087
MultiSource/Applications/JM/ldecod/ldecod, 6.0362, 6.0393, 6.0247, 6.0327, 6.0278,6.0327, 6.0910, 6.0373, 6.0210, 6.0249, 6.0261,6.0261
MultiSource/Applications/JM/lencod/lencod,13.3998,13.4075,13.3834,13.3883,13.3883,13.3883,13.3773,13.3728,13.3846,13.3759,13.3593,13.3759
MultiSource/Applications/SIBsim4/SIBsim4, 1.2622, 1.2858, 1.2805, 1.2677, 1.2777,1.2777, 1.2786, 1.2867, 1.2739, 1.2802, 1.2839,1.2802
MultiSource/Applications/SPASS/SPASS,11.7595,11.7535,11.7873,11.7542,11.7513,11.7542,11.7715,11.7547,11.7832,11.7525,11.7663,11.7663
MultiSource/Applications/aha/aha, 0.1074, 0.1101, 0.1052, 0.1059, 0.1062,0.1062, 0.1094, 0.1031, 0.1062, 0.1046, 0.1028,0.1046
MultiSource/Applications/d/make_dparser, 2.5464, 2.5426, 2.5494, 2.5480, 2.5448,2.5464, 2.5513, 2.5469, 2.5553, 2.5497, 2.5467,2.5497
MultiSource/Applications/hbd/hbd, 1.2153, 1.1989, 1.1947, 1.2181, 1.1960,1.1989, 1.1996, 1.1949, 1.2005, 1.1956, 1.1951,1.1956
MultiSource/Applications/hexxagon/hexxagon, 0.7033, 0.7065, 0.7025, 0.7043, 0.7048,0.7043, 0.7045, 0.7015, 0.7050, 0.7028, 0.7034,0.7034
MultiSource/Applications/kimwitu++/kc,10.2252,10.2142,10.2191,10.2243,10.1986,10.2191,10.2067,10.1666,10.1704,10.1752,10.1558,10.1704
MultiSource/Applications/lambda-0.1.3/lambda, 0.5103, 0.5098, 0.5088, 0.5101, 0.5092,0.5098, 0.5094, 0.5083, 0.5101, 0.5082, 0.5090,0.509
MultiSource/Applications/lua/lua, 3.1126, 3.1098, 3.1133, 3.1067, 3.1038,3.1098, 3.1075, 3.1028, 3.1016, 3.1027, 3.1010,3.1027
MultiSource/Applications/minisat/minisat, 0.6091, 0.6250, 0.6157, 0.6249, 0.6192,0.6192, 0.6166, 0.6156, 0.6135, 0.6113, 0.6085,0.6135
MultiSource/Applications/obsequi/Obsequi, 1.0126, 1.0158, 1.0270, 1.0205, 1.0129,1.0158, 1.0306, 1.0181, 1.0101, 1.0198, 1.0181,1.0181
MultiSource/Applications/oggenc/oggenc, 4.7586, 4.7603, 4.7809, 4.7709, 4.7699,4.7699, 4.7607, 4.7431, 4.7468, 4.7599, 4.7430,4.7468
MultiSource/Applications/sgefa/sgefa, 0.4273, 0.4273, 0.4276, 0.4268, 0.4274,0.4273, 0.4267, 0.4268, 0.4281, 0.4262, 0.4256,0.4267
MultiSource/Applications/siod/siod, 1.8175, 1.8174, 1.8162, 1.8201, 1.8125,1.8174, 1.8273, 1.8243, 1.8245, 1.8208, 1.8073,1.8243
MultiSource/Applications/spiff/spiff, 0.7446, 0.7527, 0.7575, 0.7446, 0.7465,0.7465, 0.7410, 0.7454, 0.7595, 0.7499, 0.7571,0.7499
MultiSource/Applications/sqlite3/sqlite3,12.7433,12.7144,12.6757,12.7137,12.7292,12.7144,12.6815,12.6649,12.6751,12.6792,12.7101,12.6792
MultiSource/Applications/viterbi/viterbi, 0.1790, 0.1650, 0.1644, 0.1826, 0.1647,0.165, 0.1649, 0.1644, 0.1653, 0.1643, 0.1641,0.1644
MultiSource/Benchmarks/7zip/7zip-benchmark,33.2506,33.2537,33.2141,33.2627,33.2074,33.2506,33.2016,33.1427,33.2133,33.1520,33.1726,33.1726
MultiSource/Benchmarks/ASCI_Purple/SMG2000/smg2000, 6.2346, 6.2495, 6.2200, 6.2281, 6.2182,6.2281, 6.2198, 6.2192, 6.2169, 6.2117, 6.2171,6.2171
MultiSource/Benchmarks/ASC_Sequoia/AMGmk/AMGmk, 0.6168, 0.6193, 0.6049, 0.6182, 0.6161,0.6168, 0.6086, 0.6169, 0.6089, 0.6203, 0.6137,0.6137
MultiSource/Benchmarks/ASC_Sequoia/CrystalMk/CrystalMk, 0.2386, 0.2386, 0.2375, 0.2380, 0.2375,0.238, 0.2370, 0.2373, 0.2381, 0.2369, 0.2368,0.237
MultiSource/Benchmarks/ASC_Sequoia/IRSmk/IRSmk, 0.1137, 0.1088, 0.1124, 0.1097, 0.1104,0.1104, 0.1049, 0.1068, 0.1061, 0.1140, 0.1115,0.1068
MultiSource/Benchmarks/BitBench/drop3/drop3, 0.0426, 0.0425, 0.0424, 0.0423, 0.0423,0.0424, 0.0423, 0.0425, 0.0426, 0.0424, 0.0421,0.0424
MultiSource/Benchmarks/BitBench/five11/five11, 0.0559, 0.0561, 0.0559, 0.0556, 0.0556,0.0559, 0.0557, 0.0555, 0.0557, 0.0559, 0.0555,0.0557
MultiSource/Benchmarks/BitBench/uudecode/uudecode, 0.0451, 0.0451, 0.0448, 0.0450, 0.0451,0.0451, 0.0448, 0.0449, 0.0449, 0.0447, 0.0446,0.0448
MultiSource/Benchmarks/BitBench/uuencode/uuencode, 0.0441, 0.0439, 0.0439, 0.0439, 0.0440,0.0439, 0.0439, 0.0436, 0.0438, 0.0435, 0.0436,0.0436
MultiSource/Benchmarks/Bullet/bullet,22.3162,22.3290,22.2881,22.3422,22.3071,22.3162,22.3010,22.2845,22.3409,22.2710,22.2998,22.2998
MultiSource/Benchmarks/DOE-ProxyApps-C/XSBench/XSBench, 0.3315, 0.3316, 0.3302, 0.3302, 0.3305,0.3305, 0.3322, 0.3306, 0.3322, 0.3306, 0.3311,0.3311
MultiSource/Benchmarks/Fhourstones-3.1/fhourstones3.1, 0.1392, 0.1428, 0.1380, 0.1395, 0.1368,0.1392, 0.1360, 0.1333, 0.1303, 0.1336, 0.1412,0.1336
MultiSource/Benchmarks/Fhourstones/fhourstones, 0.1653, 0.1647, 0.1644, 0.1643, 0.1640,0.1644, 0.1644, 0.1639, 0.1645, 0.1645, 0.1639,0.1644
MultiSource/Benchmarks/FreeBench/analyzer/analyzer, 0.2431, 0.2427, 0.2420, 0.2421, 0.2424,0.2424, 0.2432, 0.2426, 0.2433, 0.2422, 0.2425,0.2426
MultiSource/Benchmarks/FreeBench/distray/distray, 0.0945, 0.0948, 0.0944, 0.0945, 0.0945,0.0945, 0.0948, 0.0946, 0.0949, 0.0948, 0.0949,0.0948
MultiSource/Benchmarks/FreeBench/fourinarow/fourinarow, 0.2848, 0.2846, 0.2840, 0.2856, 0.2850,0.2848, 0.2845, 0.2841, 0.2838, 0.2839, 0.2834,0.2839
MultiSource/Benchmarks/FreeBench/mason/mason, 0.0482, 0.0482, 0.0479, 0.0482, 0.0479,0.0482, 0.0483, 0.0482, 0.0480, 0.0481, 0.0479,0.0481
MultiSource/Benchmarks/FreeBench/neural/neural, 0.1768, 0.1774, 0.1763, 0.1764, 0.1763,0.1764, 0.1768, 0.1766, 0.1774, 0.1764, 0.1773,0.1768
MultiSource/Benchmarks/FreeBench/pcompress2/pcompress2, 0.2449, 0.2442, 0.2442, 0.2445, 0.2439,0.2442, 0.2437, 0.2435, 0.2443, 0.2434, 0.2433,0.2435
MultiSource/Benchmarks/FreeBench/pifft/pifft, 1.0555, 1.0567, 1.0534, 1.0548, 1.0531,1.0548, 1.0513, 1.0509, 1.0530, 1.0531, 1.0507,1.0513
MultiSource/Benchmarks/MallocBench/cfrac/cfrac, 0.8682, 0.8663, 0.8702, 0.8690, 0.8701,0.869, 0.8626, 0.8593, 0.8720, 0.8653, 0.8594,0.8626
MultiSource/Benchmarks/MallocBench/espresso/espresso, 4.7964, 4.7845, 4.7667, 4.7765, 4.7872,4.7845, 4.7766, 4.7731, 4.7845, 4.7700, 4.7756,4.7756
MultiSource/Benchmarks/MallocBench/gs/gs, 3.6531, 3.6470, 3.6403, 3.6405, 3.6405,3.6405, 3.6385, 3.6314, 3.6445, 3.6345, 3.6334,3.6345
MultiSource/Benchmarks/McCat/01-qbsort/qbsort, 0.1040, 0.1008, 0.1048, 0.1023, 0.1016,0.1023, 0.1061, 0.1060, 0.0986, 0.1012, 0.0991,0.1012
MultiSource/Benchmarks/McCat/03-testtrie/testtrie, 0.0912, 0.0908, 0.0906, 0.0905, 0.0905,0.0906, 0.0910, 0.0906, 0.0913, 0.0901, 0.0903,0.0906
MultiSource/Benchmarks/McCat/04-bisect/bisect, 0.1311, 0.1311, 0.1306, 0.1309, 0.1309,0.1309, 0.1301, 0.1306, 0.1307, 0.1306, 0.1300,0.1306
MultiSource/Benchmarks/McCat/05-eks/eks, 0.5622, 0.5624, 0.5590, 0.5611, 0.5601,0.5611, 0.5586, 0.5554, 0.5608, 0.5628, 0.5666,0.5608
MultiSource/Benchmarks/McCat/08-main/main, 0.2616, 0.2446, 0.2411, 0.2392, 0.2413,0.2413, 0.2409, 0.2400, 0.2392, 0.2413, 0.2390,0.24
MultiSource/Benchmarks/McCat/09-vor/vor, 0.2701, 0.2697, 0.2690, 0.2694, 0.2688,0.2694, 0.2691, 0.2682, 0.2693, 0.2689, 0.2682,0.2689
MultiSource/Benchmarks/McCat/12-IOtest/iotest, 0.1083, 0.1105, 0.1035, 0.1031, 0.1082,0.1082, 0.1100, 0.1111, 0.1127, 0.1029, 0.1101,0.1101
MultiSource/Benchmarks/McCat/17-bintr/bintr, 0.0693, 0.0692, 0.0689, 0.0689, 0.0691,0.0691, 0.0693, 0.0686, 0.0691, 0.0689, 0.0689,0.0689
MultiSource/Benchmarks/McCat/18-imp/imp, 0.3279, 0.3336, 0.3304, 0.3337, 0.3328,0.3328, 0.3325, 0.3309, 0.3334, 0.3316, 0.3313,0.3316
MultiSource/Benchmarks/MiBench/automotive-basicmath/automotive-basicmath, 0.1367, 0.1367, 0.1357, 0.1360, 0.1354,0.136, 0.1362, 0.1358, 0.1370, 0.1357, 0.1360,0.136
MultiSource/Benchmarks/MiBench/automotive-bitcount/automotive-bitcount, 0.2517, 0.2541, 0.2498, 0.2502, 0.2534,0.2517, 0.2573, 0.2545, 0.2595, 0.2525, 0.2565,0.2565
MultiSource/Benchmarks/MiBench/automotive-susan/automotive-susan, 0.7715, 0.7777, 0.7802, 0.7866, 0.7923,0.7802, 0.7823, 0.7803, 0.7744, 0.7860, 0.7829,0.7823
MultiSource/Benchmarks/MiBench/consumer-jpeg/consumer-jpeg, 4.1628, 4.1582, 4.1511, 4.1536, 4.1568,4.1568, 4.1522, 4.1489, 4.1576, 4.1479, 4.1445,4.1489
MultiSource/Benchmarks/MiBench/consumer-lame/consumer-lame, 3.8770, 3.8778, 3.8758, 3.8861, 3.8775,3.8775, 3.8762, 3.8740, 3.8773, 3.8735, 3.8745,3.8745
MultiSource/Benchmarks/MiBench/consumer-typeset/consumer-typeset, 9.8679, 9.8408, 9.8308, 9.8339, 9.8412,9.8408, 9.8664, 9.8480, 9.8334, 9.8440, 9.8411,9.844
MultiSource/Benchmarks/MiBench/network-dijkstra/network-dijkstra, 0.0432, 0.0433, 0.0432, 0.0431, 0.0434,0.0432, 0.0432, 0.0432, 0.0432, 0.0431, 0.0431,0.0432
MultiSource/Benchmarks/MiBench/network-patricia/network-patricia, 0.0775, 0.0774, 0.0773, 0.0773, 0.0770,0.0773, 0.0773, 0.0770, 0.0775, 0.0771, 0.0770,0.0771
MultiSource/Benchmarks/MiBench/security-rijndael/security-rijndael, 0.4046, 0.4122, 0.4038, 0.4121, 0.4045,0.4046, 0.4028, 0.4094, 0.4084, 0.4034, 0.4053,0.4053
MultiSource/Benchmarks/MiBench/security-sha/security-sha, 0.0958, 0.0923, 0.0955, 0.0967, 0.0981,0.0958, 0.1000, 0.0939, 0.0922, 0.1040, 0.0937,0.0939
MultiSource/Benchmarks/MiBench/telecomm-CRC32/telecomm-CRC32, 0.0348, 0.0346, 0.0348, 0.0351, 0.0346,0.0348, 0.0347, 0.0345, 0.0349, 0.0344, 0.0343,0.0345
MultiSource/Benchmarks/MiBench/telecomm-FFT/telecomm-fft, 0.1444, 0.1441, 0.1436, 0.1444, 0.1432,0.1441, 0.1440, 0.1434, 0.1444, 0.1437, 0.1437,0.1437
MultiSource/Benchmarks/MiBench/telecomm-adpcm/telecomm-adpcm, 0.0610, 0.0614, 0.0654, 0.0620, 0.0612,0.0614, 0.0602, 0.0659, 0.0632, 0.0628, 0.0688,0.0632
MultiSource/Benchmarks/MiBench/telecomm-gsm/telecomm-gsm, 1.1911, 1.1755, 1.1724, 1.1735, 1.1730,1.1735, 1.1707, 1.1699, 1.1724, 1.1701, 1.1680,1.1701
MultiSource/Benchmarks/NPB-serial/is/is, 0.0790, 0.0721, 0.0721, 0.0716, 0.0719,0.0721, 0.0720, 0.0715, 0.0716, 0.0718, 0.0719,0.0718
MultiSource/Benchmarks/Olden/bh/bh, 0.2564, 0.2566, 0.2562, 0.2563, 0.2559,0.2563, 0.2556, 0.2549, 0.2561, 0.2556, 0.2550,0.2556
MultiSource/Benchmarks/Olden/bisort/bisort, 0.0635, 0.0633, 0.0631, 0.0633, 0.0632,0.0633, 0.0630, 0.0628, 0.0633, 0.0629, 0.0627,0.0629
MultiSource/Benchmarks/Olden/em3d/em3d, 0.1942, 0.1936, 0.1887, 0.1856, 0.1934,0.1934, 0.1869, 0.1910, 0.1955, 0.1875, 0.1915,0.191
MultiSource/Benchmarks/Olden/health/health, 0.1340, 0.1333, 0.1327, 0.1332, 0.1330,0.1332, 0.1333, 0.1327, 0.1337, 0.1325, 0.1332,0.1332
MultiSource/Benchmarks/Olden/mst/mst, 0.1325, 0.1324, 0.1325, 0.1323, 0.1321,0.1324, 0.1321, 0.1322, 0.1326, 0.1317, 0.1319,0.1321
MultiSource/Benchmarks/Olden/perimeter/perimeter, 0.0779, 0.0776, 0.0772, 0.0774, 0.0772,0.0774, 0.0771, 0.0769, 0.0776, 0.0769, 0.0772,0.0771
MultiSource/Benchmarks/Olden/power/power, 0.1353, 0.1424, 0.1341, 0.1309, 0.1381,0.1353, 0.1405, 0.1363, 0.1309, 0.1371, 0.1385,0.1371
MultiSource/Benchmarks/Olden/treeadd/treeadd, 0.0572, 0.0565, 0.0567, 0.0566, 0.0565,0.0566, 0.0568, 0.0565, 0.0567, 0.0565, 0.0563,0.0565
MultiSource/Benchmarks/Olden/tsp/tsp, 0.1226, 0.1224, 0.1220, 0.1222, 0.1224,0.1224, 0.1226, 0.1222, 0.1225, 0.1221, 0.1219,0.1222
MultiSource/Benchmarks/Olden/voronoi/voronoi, 0.2449, 0.2309, 0.2306, 0.2312, 0.2301,0.2309, 0.2476, 0.2474, 0.2480, 0.2473, 0.2475,0.2475
MultiSource/Benchmarks/PAQ8p/paq8p, 2.0732, 2.0738, 2.0611, 2.0621, 2.0691,2.0691, 2.0719, 2.0703, 2.0655, 2.0623, 2.0621,2.0655
MultiSource/Benchmarks/Prolangs-C++/city/city, 0.9585, 0.9345, 0.9131, 0.9406, 0.9254,0.9345, 0.9447, 0.9283, 0.9371, 0.9432, 0.9326,0.9371
MultiSource/Benchmarks/Prolangs-C++/employ/employ, 0.2307, 0.2175, 0.2196, 0.2150, 0.2204,0.2196, 0.2105, 0.2141, 0.2139, 0.2170, 0.2148,0.2141
MultiSource/Benchmarks/Prolangs-C++/life/life, 0.0657, 0.0652, 0.0653, 0.0655, 0.0654,0.0654, 0.0653, 0.0652, 0.0652, 0.0653, 0.0652,0.0652
MultiSource/Benchmarks/Prolangs-C++/ocean/ocean, 0.1305, 0.1174, 0.1092, 0.1098, 0.1203,0.1174, 0.1188, 0.1187, 0.1126, 0.1164, 0.1121,0.1164
MultiSource/Benchmarks/Prolangs-C++/primes/primes, 0.0249, 0.0249, 0.0247, 0.0247, 0.0247,0.0247, 0.0248, 0.0247, 0.0249, 0.0247, 0.0247,0.0247
MultiSource/Benchmarks/Prolangs-C++/simul/simul, 0.0544, 0.0508, 0.0504, 0.0503, 0.0506,0.0506, 0.0506, 0.0507, 0.0505, 0.0506, 0.0503,0.0506
MultiSource/Benchmarks/Prolangs-C/agrep/agrep, 1.3403, 1.3401, 1.3375, 1.3400, 1.3407,1.3401, 1.3370, 1.3334, 1.3390, 1.3376, 1.3349,1.337
MultiSource/Benchmarks/Prolangs-C/bison/mybison, 1.6339, 1.6198, 1.6173, 1.6180, 1.6164,1.618, 1.6172, 1.6156, 1.6189, 1.6148, 1.6143,1.6156
MultiSource/Benchmarks/Prolangs-C/gnugo/gnugo, 0.7096, 0.6930, 0.6867, 0.6971, 0.7024,0.6971, 0.6996, 0.6965, 0.6893, 0.6866, 0.6813,0.6893
MultiSource/Benchmarks/Ptrdist/anagram/anagram, 0.0858, 0.0862, 0.0861, 0.0860, 0.0860,0.086, 0.0860, 0.0855, 0.0858, 0.0855, 0.0856,0.0856
MultiSource/Benchmarks/Ptrdist/bc/bc, 1.0235, 1.0234, 1.0240, 1.0225, 1.0233,1.0234, 1.0209, 1.0204, 1.0206, 1.0194, 1.0195,1.0204
MultiSource/Benchmarks/Ptrdist/ft/ft, 0.2097, 0.2103, 0.2058, 0.2088, 0.2126,0.2097, 0.2073, 0.2116, 0.2123, 0.2052, 0.2086,0.2086
MultiSource/Benchmarks/Ptrdist/ks/ks, 0.1398, 0.1396, 0.1392, 0.1394, 0.1395,0.1395, 0.1393, 0.1390, 0.1390, 0.1388, 0.1391,0.139
MultiSource/Benchmarks/Ptrdist/yacr2/yacr2, 0.6241, 0.6229, 0.6237, 0.6236, 0.6224,0.6236, 0.6216, 0.6197, 0.6217, 0.6209, 0.6201,0.6209
MultiSource/Benchmarks/SciMark2-C/scimark2, 0.3833, 0.3816, 0.3808, 0.3807, 0.3805,0.3808, 0.3808, 0.3799, 0.3808, 0.3797, 0.3795,0.3799
MultiSource/Benchmarks/TSVC/ControlFlow-dbl/ControlFlow-dbl, 2.2466, 2.2457, 2.2428, 2.2415, 2.2398,2.2428, 2.2391, 2.2385, 2.2381, 2.2427, 2.2439,2.2391
MultiSource/Benchmarks/TSVC/ControlFlow-flt/ControlFlow-flt, 2.4880, 2.4913, 2.4641, 2.4977, 2.4864,2.488, 2.4979, 2.4904, 2.4898, 2.5021, 2.5092,2.4979
MultiSource/Benchmarks/TSVC/ControlLoops-dbl/ControlLoops-dbl, 2.1388, 2.1335, 2.1391, 2.1452, 2.1428,2.1391, 2.1410, 2.1327, 2.1334, 2.1365, 2.1354,2.1354
MultiSource/Benchmarks/TSVC/ControlLoops-flt/ControlLoops-flt, 2.3760, 2.3817, 2.3584, 2.3790, 2.3776,2.3776, 2.3960, 2.3827, 2.3946, 2.3939, 2.3821,2.3939
MultiSource/Benchmarks/TSVC/CrossingThresholds-dbl/CrossingThresholds-dbl, 2.0829, 2.0888, 2.0931, 2.0850, 2.0818,2.085, 2.0810, 2.0794, 2.0792, 2.0935, 2.0864,2.081
MultiSource/Benchmarks/TSVC/CrossingThresholds-flt/CrossingThresholds-flt, 2.3233, 2.3272, 2.3229, 2.3371, 2.3235,2.3235, 2.3249, 2.3435, 2.3273, 2.3291, 2.3326,2.3291
MultiSource/Benchmarks/TSVC/Equivalencing-dbl/Equivalencing-dbl, 2.0806, 2.0697, 2.0802, 2.0898, 2.0804,2.0804, 2.0825, 2.0882, 2.0829, 2.0850, 2.0832,2.0832
MultiSource/Benchmarks/TSVC/Equivalencing-flt/Equivalencing-flt, 2.3320, 2.3408, 2.3333, 2.3491, 2.3393,2.3393, 2.3340, 2.3335, 2.3334, 2.3336, 2.3332,2.3335
MultiSource/Benchmarks/TSVC/Expansion-dbl/Expansion-dbl, 2.1401, 2.1420, 2.1312, 2.1337, 2.1378,2.1378, 2.1343, 2.1339, 2.1303, 2.1330, 2.1356,2.1339
MultiSource/Benchmarks/TSVC/Expansion-flt/Expansion-flt, 2.3833, 2.3873, 2.3846, 2.3893, 2.3893,2.3873, 2.3848, 2.3859, 2.3836, 2.3934, 2.3935,2.3859
MultiSource/Benchmarks/TSVC/GlobalDataFlow-dbl/GlobalDataFlow-dbl, 2.1239, 2.1316, 2.1239, 2.1281, 2.1272,2.1272, 2.1237, 2.1250, 2.1248, 2.1302, 2.1251,2.125
MultiSource/Benchmarks/TSVC/GlobalDataFlow-flt/GlobalDataFlow-flt, 2.3757, 2.3897, 2.3717, 2.3850, 2.3769,2.3769, 2.3909, 2.3854, 2.3838, 2.3793, 2.3797,2.3838
MultiSource/Benchmarks/TSVC/IndirectAddressing-dbl/IndirectAddressing-dbl, 2.0639, 2.0690, 2.0667, 2.0712, 2.0625,2.0667, 2.0667, 2.0688, 2.0683, 2.0679, 2.0696,2.0683
MultiSource/Benchmarks/TSVC/IndirectAddressing-flt/IndirectAddressing-flt, 2.3049, 2.3148, 2.3135, 2.3102, 2.3038,2.3102, 2.3214, 2.3163, 2.3205, 2.3154, 2.3130,2.3163
MultiSource/Benchmarks/TSVC/InductionVariable-dbl/InductionVariable-dbl, 2.1062, 2.0972, 2.0941, 2.1017, 2.0960,2.0972, 2.1103, 2.0975, 2.1059, 2.1068, 2.1068,2.1068
MultiSource/Benchmarks/TSVC/InductionVariable-flt/InductionVariable-flt, 2.3468, 2.3501, 2.3411, 2.3604, 2.3492,2.3492, 2.3480, 2.3492, 2.3459, 2.3456, 2.3530,2.348
MultiSource/Benchmarks/TSVC/LinearDependence-dbl/LinearDependence-dbl, 2.1751, 2.1687, 2.1722, 2.1737, 2.1722,2.1722, 2.1888, 2.1703, 2.1712, 2.1789, 2.1760,2.176
MultiSource/Benchmarks/TSVC/LinearDependence-flt/LinearDependence-flt, 2.4367, 2.4378, 2.4390, 2.4431, 2.4307,2.4378, 2.4329, 2.4312, 2.4301, 2.4421, 2.4337,2.4329
MultiSource/Benchmarks/TSVC/LoopRerolling-dbl/LoopRerolling-dbl, 2.0350, 2.0359, 2.0318, 2.0333, 2.0304,2.0333, 2.0318, 2.0316, 2.0280, 2.0377, 2.0314,2.0316
MultiSource/Benchmarks/TSVC/LoopRerolling-flt/LoopRerolling-flt, 2.2831, 2.2786, 2.2783, 2.2803, 2.2855,2.2803, 2.2897, 2.2831, 2.2877, 2.2893, 2.2855,2.2877
MultiSource/Benchmarks/TSVC/LoopRestructuring-dbl/LoopRestructuring-dbl, 2.1045, 2.1033, 2.0973, 2.1011, 2.0994,2.1011, 2.1002, 2.1054, 2.1030, 2.1031, 2.1039,2.1031
MultiSource/Benchmarks/TSVC/LoopRestructuring-flt/LoopRestructuring-flt, 2.3512, 2.3546, 2.3494, 2.3584, 2.3508,2.3512, 2.3492, 2.3489, 2.3536, 2.3465, 2.3480,2.3489
MultiSource/Benchmarks/TSVC/NodeSplitting-dbl/NodeSplitting-dbl, 2.0594, 2.0698, 2.0646, 2.0609, 2.0580,2.0609, 2.0648, 2.0550, 2.0561, 2.0570, 2.0662,2.057
MultiSource/Benchmarks/TSVC/NodeSplitting-flt/NodeSplitting-flt, 2.3102, 2.3111, 2.3122, 2.3198, 2.3153,2.3122, 2.3101, 2.3070, 2.3095, 2.3165, 2.3113,2.3101
MultiSource/Benchmarks/TSVC/Packing-dbl/Packing-dbl, 2.0303, 2.0362, 2.0317, 2.0300, 2.0247,2.0303, 2.0126, 2.0220, 1.9924, 2.0327, 2.0233,2.022
MultiSource/Benchmarks/TSVC/Packing-flt/Packing-flt, 2.2644, 2.2920, 2.2653, 2.2691, 2.2654,2.2654, 2.2731, 2.2457, 2.2684, 2.2780, 2.2707,2.2707
MultiSource/Benchmarks/TSVC/Recurrences-dbl/Recurrences-dbl, 2.0232, 2.0291, 2.0253, 2.0243, 2.0243,2.0243, 2.0193, 2.0204, 2.0145, 2.0181, 2.0157,2.0181
MultiSource/Benchmarks/TSVC/Recurrences-flt/Recurrences-flt, 2.2623, 2.2637, 2.2584, 2.2625, 2.2599,2.2623, 2.2718, 2.2721, 2.2706, 2.2744, 2.2719,2.2719
MultiSource/Benchmarks/TSVC/Reductions-dbl/Reductions-dbl, 2.1389, 2.1473, 2.1356, 2.1397, 2.1370,2.1389, 2.1433, 2.1310, 2.1323, 2.1397, 2.1373,2.1373
MultiSource/Benchmarks/TSVC/Reductions-flt/Reductions-flt, 2.3842, 2.3965, 2.3880, 2.3991, 2.3867,2.388, 2.3926, 2.3838, 2.3840, 2.3955, 2.3924,2.3924
MultiSource/Benchmarks/TSVC/Searching-dbl/Searching-dbl, 1.9994, 2.0079, 2.0130, 2.0008, 2.0116,2.0079, 2.0124, 1.9981, 1.9960, 2.0112, 1.9980,1.9981
MultiSource/Benchmarks/TSVC/Searching-flt/Searching-flt, 2.2489, 2.2604, 2.2501, 2.2511, 2.2486,2.2501, 2.2636, 2.2573, 2.2538, 2.2550, 2.2601,2.2573
MultiSource/Benchmarks/TSVC/StatementReordering-dbl/StatementReordering-dbl, 2.0159, 2.0135, 2.0200, 2.0179, 2.0190,2.0179, 2.0260, 2.0212, 2.0202, 2.0407, 2.0275,2.026
MultiSource/Benchmarks/TSVC/StatementReordering-flt/StatementReordering-flt, 2.2721, 2.2735, 2.2555, 2.2723, 2.2853,2.2723, 2.2677, 2.2720, 2.2687, 2.2661, 2.2673,2.2677
MultiSource/Benchmarks/TSVC/Symbolics-dbl/Symbolics-dbl, 2.0780, 2.0894, 2.0778, 2.0852, 2.0834,2.0834, 2.0723, 2.0814, 2.0791, 2.0771, 2.0766,2.0771
MultiSource/Benchmarks/TSVC/Symbolics-flt/Symbolics-flt, 2.3730, 2.3341, 2.3261, 2.3348, 2.3276,2.3341, 2.3307, 2.3263, 2.3271, 2.3312, 2.3343,2.3307
MultiSource/Benchmarks/Trimaran/enc-3des/enc-3des, 0.2673, 0.2636, 0.2660, 0.2591, 0.2620,0.2636, 0.2637, 0.2585, 0.2545, 0.2631, 0.2590,0.259
MultiSource/Benchmarks/Trimaran/enc-md5/enc-md5, 0.1632, 0.1630, 0.1631, 0.1630, 0.1628,0.163, 0.1621, 0.1620, 0.1618, 0.1622, 0.1616,0.162
MultiSource/Benchmarks/Trimaran/enc-pc1/enc-pc1, 0.0733, 0.0772, 0.0756, 0.0821, 0.0815,0.0772, 0.0747, 0.0811, 0.0765, 0.0786, 0.0783,0.0783
MultiSource/Benchmarks/Trimaran/enc-rc4/enc-rc4, 0.0518, 0.0521, 0.0516, 0.0519, 0.0516,0.0518, 0.0518, 0.0516, 0.0517, 0.0518, 0.0515,0.0517
MultiSource/Benchmarks/Trimaran/netbench-crc/netbench-crc, 0.1115, 0.0932, 0.0854, 0.0929, 0.0892,0.0929, 0.0849, 0.0836, 0.0934, 0.0891, 0.0876,0.0876
MultiSource/Benchmarks/Trimaran/netbench-url/netbench-url, 0.2084, 0.2080, 0.2081, 0.2079, 0.2076,0.208, 0.2079, 0.2075, 0.2082, 0.2073, 0.2077,0.2077
MultiSource/Benchmarks/VersaBench/8b10b/8b10b, 0.0843, 0.0795, 0.0869, 0.0777, 0.0852,0.0843, 0.0852, 0.0813, 0.0818, 0.0890, 0.0865,0.0852
MultiSource/Benchmarks/VersaBench/beamformer/beamformer, 0.2107, 0.2116, 0.2041, 0.2088, 0.2112,0.2107, 0.2035, 0.2046, 0.2098, 0.2088, 0.2077,0.2077
MultiSource/Benchmarks/VersaBench/bmm/bmm, 0.0571, 0.0571, 0.0571, 0.0570, 0.0572,0.0571, 0.0567, 0.0567, 0.0568, 0.0676, 0.0569,0.0568
MultiSource/Benchmarks/VersaBench/dbms/dbms, 1.0407, 1.0143, 1.0235, 1.0245, 1.0263,1.0245, 1.0375, 1.0340, 1.0404, 1.0055, 1.0236,1.034
MultiSource/Benchmarks/VersaBench/ecbdes/ecbdes, 0.2242, 0.2172, 0.2165, 0.2174, 0.2169,0.2172, 0.2174, 0.2172, 0.2169, 0.2374, 0.2224,0.2174
MultiSource/Benchmarks/llubenchmark/llu, 0.0512, 0.0512, 0.0511, 0.0510, 0.0511,0.0511, 0.0510, 0.0508, 0.0513, 0.0510, 0.0507,0.051
MultiSource/Benchmarks/mafft/pairlocalalign, 9.4351, 9.4619, 9.4511, 9.4395, 9.4531,9.4511, 9.4216, 9.4134, 9.4153, 9.4225, 9.4110,9.4153
MultiSource/Benchmarks/mediabench/adpcm/rawcaudio/rawcaudio, 0.0690, 0.0669, 0.0617, 0.0635, 0.0598,0.0635, 0.0674, 0.0689, 0.0606, 0.0589, 0.0628,0.0628
MultiSource/Benchmarks/mediabench/adpcm/rawdaudio/rawdaudio, 0.0630, 0.0671, 0.0643, 0.0606, 0.0689,0.0643, 0.0654, 0.0647, 0.0594, 0.0672, 0.0639,0.0647
MultiSource/Benchmarks/mediabench/g721/g721encode/encode, 0.2074, 0.2135, 0.2079, 0.2099, 0.2043,0.2079, 0.2132, 0.2054, 0.2128, 0.2049, 0.2056,0.2056
MultiSource/Benchmarks/mediabench/gsm/toast/toast, 1.2371, 1.2204, 1.2237, 1.2113, 1.2157,1.2204, 1.2208, 1.2176, 1.2086, 1.2141, 1.2107,1.2141
MultiSource/Benchmarks/mediabench/jpeg/jpeg-6a/cjpeg, 4.2302, 4.1967, 4.2002, 4.1939, 4.1909,4.1967, 4.1872, 4.1970, 4.2015, 4.1894, 4.1954,4.1954
MultiSource/Benchmarks/mediabench/mpeg2/mpeg2dec/mpeg2decode, 1.3312, 1.3033, 1.3042, 1.3032, 1.3109,1.3042, 1.3011, 1.3087, 1.3104, 1.3111, 1.3101,1.3101
MultiSource/Benchmarks/nbench/nbench, 1.1773, 1.1740, 1.1696, 1.1688, 1.1832,1.174, 1.1804, 1.1711, 1.1681, 1.1811, 1.1792,1.1792
MultiSource/Benchmarks/sim/sim, 0.2933, 0.2933, 0.2931, 0.2935, 0.2937,0.2933, 0.2941, 0.2927, 0.2927, 0.2926, 0.2928,0.2927
MultiSource/Benchmarks/tramp3d-v4/tramp3d-v4,18.0562,18.1514,18.0841,18.0867,18.1129,18.0867,18.0374,18.0556,18.0168,18.0346,18.0270,18.0346
SingleSource/Benchmarks/Adobe-C++/functionobjects, 0.4390, 0.4384, 0.4385, 0.4392, 0.4394,0.439, 0.4248, 0.4240, 0.4266, 0.4243, 0.4242,0.4243
SingleSource/Benchmarks/Adobe-C++/loop_unroll, 4.6989, 4.7171, 4.7046, 4.7007, 4.7129,4.7046, 4.6872, 4.6870, 4.6991, 4.6916, 4.6859,4.6872
SingleSource/Benchmarks/Adobe-C++/simple_types_constant_folding, 2.3568, 2.3634, 2.3658, 2.3690, 2.3633,2.3634, 2.3525, 2.3566, 2.3646, 2.3542, 2.3534,2.3542
SingleSource/Benchmarks/Adobe-C++/simple_types_loop_invariant, 1.8073, 1.8060, 1.8084, 1.8081, 1.8100,1.8081, 1.8054, 1.8015, 1.8035, 1.8036, 1.8052,1.8036
SingleSource/Benchmarks/Adobe-C++/stepanov_abstraction, 0.6013, 0.6021, 0.6022, 0.6044, 0.6018,0.6021, 0.5985, 0.5989, 0.5980, 0.6010, 0.5996,0.5989
SingleSource/Benchmarks/Adobe-C++/stepanov_vector, 0.7924, 0.7840, 0.7876, 0.7867, 0.7897,0.7876, 0.7787, 0.7824, 0.7727, 0.7864, 0.7796,0.7796
SingleSource/Benchmarks/BenchmarkGame/Large/fasta, 0.0438, 0.0439, 0.0436, 0.0438, 0.0438,0.0438, 0.0439, 0.0437, 0.0442, 0.0436, 0.0439,0.0439
SingleSource/Benchmarks/BenchmarkGame/fannkuch, 0.0515, 0.0516, 0.0514, 0.0516, 0.0513,0.0515, 0.0515, 0.0513, 0.0516, 0.0516, 0.0513,0.0515
SingleSource/Benchmarks/BenchmarkGame/n-body, 0.0663, 0.0666, 0.0662, 0.0665, 0.0664,0.0664, 0.0663, 0.0663, 0.0665, 0.0663, 0.0664,0.0663
SingleSource/Benchmarks/BenchmarkGame/nsieve-bits, 0.0332, 0.0332, 0.0333, 0.0332, 0.0332,0.0332, 0.0332, 0.0332, 0.0333, 0.0332, 0.0330,0.0332
SingleSource/Benchmarks/BenchmarkGame/partialsums, 0.0301, 0.0300, 0.0301, 0.0299, 0.0299,0.03, 0.0300, 0.0299, 0.0301, 0.0301, 0.0298,0.03
SingleSource/Benchmarks/BenchmarkGame/puzzle, 0.0572, 0.0570, 0.0570, 0.0570, 0.0569,0.057, 0.0572, 0.0569, 0.0572, 0.0570, 0.0572,0.0572
SingleSource/Benchmarks/BenchmarkGame/recursive, 0.0268, 0.0270, 0.0267, 0.0267, 0.0269,0.0268, 0.0269, 0.0267, 0.0269, 0.0267, 0.0267,0.0267
SingleSource/Benchmarks/BenchmarkGame/spectral-norm, 0.0585, 0.0581, 0.0580, 0.0579, 0.0580,0.058, 0.0579, 0.0578, 0.0581, 0.0580, 0.0579,0.0579
SingleSource/Benchmarks/CoyoteBench/almabench, 0.0576, 0.0577, 0.0574, 0.0574, 0.0576,0.0576, 0.0589, 0.0588, 0.0589, 0.0592, 0.0589,0.0589
SingleSource/Benchmarks/CoyoteBench/fftbench, 0.5772, 0.5841, 0.5818, 0.5785, 0.6418,0.5818, 0.5852, 0.5828, 0.5781, 0.6070, 0.5812,0.5828
SingleSource/Benchmarks/CoyoteBench/huffbench, 0.0889, 0.0892, 0.0887, 0.0889, 0.0889,0.0889, 0.0873, 0.0874, 0.0875, 0.0875, 0.0873,0.0874
SingleSource/Benchmarks/CoyoteBench/lpbench, 0.1895, 0.1895, 0.1895, 0.1895, 0.1892,0.1895, 0.1883, 0.1876, 0.1875, 0.1873, 0.1876,0.1876
SingleSource/Benchmarks/Dhrystone/dry, 0.0400, 0.0403, 0.0401, 0.0403, 0.0404,0.0403, 0.0399, 0.0400, 0.0404, 0.0402, 0.0403,0.0402
SingleSource/Benchmarks/Dhrystone/fldry, 0.0426, 0.0426, 0.0425, 0.0428, 0.0424,0.0426, 0.0426, 0.0427, 0.0425, 0.0424, 0.0424,0.0425
SingleSource/Benchmarks/Linpack/linpack-pc, 0.3777, 0.3822, 0.3760, 0.3842, 0.3808,0.3808, 0.3862, 0.3822, 0.3767, 0.3749, 0.3848,0.3822
SingleSource/Benchmarks/McGill/chomp, 0.1915, 0.1918, 0.1910, 0.1909, 0.1911,0.1911, 0.1901, 0.1905, 0.2043, 0.1904, 0.1900,0.1904
SingleSource/Benchmarks/McGill/misr, 0.0540, 0.0541, 0.0541, 0.0540, 0.0541,0.0541, 0.0538, 0.0536, 0.0542, 0.0540, 0.0538,0.0538
SingleSource/Benchmarks/McGill/queens, 0.0442, 0.0439, 0.0439, 0.0439, 0.0439,0.0439, 0.0440, 0.0439, 0.0612, 0.0439, 0.0438,0.0439
SingleSource/Benchmarks/Misc-C++-EH/spirit, 3.1192, 3.1243, 3.1108, 3.1174, 3.1276,3.1192, 3.1240, 3.1558, 3.1289, 3.1300, 3.1332,3.13
SingleSource/Benchmarks/Misc-C++/Large/ray, 0.2036, 0.2189, 0.2161, 0.2212, 0.2241,0.2189, 0.2183, 0.2156, 0.2176, 0.2153, 0.2036,0.2156
SingleSource/Benchmarks/Misc-C++/Large/sphereflake, 0.2127, 0.2128, 0.2122, 0.2129, 0.2118,0.2127, 0.2124, 0.2124, 0.2128, 0.2126, 0.2133,0.2126
SingleSource/Benchmarks/Misc-C++/bigfib, 0.4421, 0.4220, 0.4213, 0.4229, 0.4229,0.4229, 0.4172, 0.4159, 0.4515, 0.4158, 0.4163,0.4163
SingleSource/Benchmarks/Misc-C++/mandel-text, 0.0249, 0.0248, 0.0247, 0.0248, 0.0248,0.0248, 0.0249, 0.0247, 0.0249, 0.0246, 0.0248,0.0248
SingleSource/Benchmarks/Misc-C++/oopack_v1p8, 0.1383, 0.1372, 0.1388, 0.1330, 0.1329,0.1372, 0.1306, 0.1304, 0.1388, 0.1342, 0.1335,0.1335
SingleSource/Benchmarks/Misc-C++/stepanov_container, 0.6495, 0.6691, 0.6509, 0.6529, 0.6517,0.6517, 0.6519, 0.6368, 0.6631, 0.6402, 0.6358,0.6402
SingleSource/Benchmarks/Misc-C++/stepanov_v1p2, 0.1706, 0.1708, 0.1703, 0.1708, 0.1705,0.1706, 0.1705, 0.1699, 0.1709, 0.1700, 0.1702,0.1702
SingleSource/Benchmarks/Misc/ReedSolomon, 0.2009, 0.2008, 0.2010, 0.2009, 0.2005,0.2009, 0.2002, 0.2003, 0.2330, 0.2006, 0.2001,0.2003
SingleSource/Benchmarks/Misc/dt, 0.0342, 0.0342, 0.0339, 0.0341, 0.0341,0.0341, 0.0343, 0.0340, 0.0362, 0.0340, 0.0341,0.0341
SingleSource/Benchmarks/Misc/fbench, 0.0543, 0.0542, 0.0540, 0.0540, 0.0542,0.0542, 0.0544, 0.0542, 0.0729, 0.0540, 0.0543,0.0543
SingleSource/Benchmarks/Misc/ffbench, 0.0719, 0.0723, 0.0717, 0.0719, 0.0717,0.0719, 0.0719, 0.0715, 0.0924, 0.0717, 0.0716,0.0717
SingleSource/Benchmarks/Misc/flops, 0.0761, 0.0761, 0.0758, 0.0760, 0.0757,0.076, 0.0760, 0.0760, 0.0788, 0.0760, 0.0759,0.076
SingleSource/Benchmarks/Misc/flops-1, 0.0278, 0.0277, 0.0276, 0.0276, 0.0275,0.0276, 0.0277, 0.0274, 0.0645, 0.0274, 0.0274,0.0274
SingleSource/Benchmarks/Misc/flops-2, 0.0295, 0.0294, 0.0292, 0.0294, 0.0293,0.0294, 0.0291, 0.0292, 0.0542, 0.0291, 0.0291,0.0291
SingleSource/Benchmarks/Misc/flops-3, 0.0277, 0.0275, 0.0274, 0.0276, 0.0274,0.0275, 0.0275, 0.0274, 0.0508, 0.0274, 0.0273,0.0274
SingleSource/Benchmarks/Misc/flops-4, 0.0280, 0.0278, 0.0277, 0.0278, 0.0277,0.0278, 0.0278, 0.0277, 0.0278, 0.0276, 0.0278,0.0278
SingleSource/Benchmarks/Misc/flops-5, 0.0286, 0.0286, 0.0285, 0.0287, 0.0287,0.0286, 0.0285, 0.0285, 0.0547, 0.0285, 0.0285,0.0285
SingleSource/Benchmarks/Misc/flops-6, 0.0288, 0.0287, 0.0286, 0.0288, 0.0286,0.0287, 0.0287, 0.0285, 0.0289, 0.0285, 0.0285,0.0285
SingleSource/Benchmarks/Misc/flops-7, 0.0274, 0.0274, 0.0273, 0.0272, 0.0271,0.0273, 0.0273, 0.0272, 0.0673, 0.0272, 0.0270,0.0272
SingleSource/Benchmarks/Misc/flops-8, 0.0369, 0.0333, 0.0449, 0.0331, 0.0293,0.0333, 0.0308, 0.0398, 0.0480, 0.0440, 0.0307,0.0398
SingleSource/Benchmarks/Misc/fp-convert, 0.0330, 0.0328, 0.0327, 0.0327, 0.0328,0.0328, 0.0328, 0.0325, 0.0494, 0.0326, 0.0326,0.0326
SingleSource/Benchmarks/Misc/himenobmtxpa, 0.2365, 0.2369, 0.2363, 0.2365, 0.2364,0.2365, 0.2358, 0.2351, 0.2568, 0.2361, 0.2359,0.2359
SingleSource/Benchmarks/Misc/lowercase, 0.0259, 0.0258, 0.0256, 0.0258, 0.0257,0.0258, 0.0259, 0.0257, 0.0259, 0.0256, 0.0257,0.0257
SingleSource/Benchmarks/Misc/mandel, 0.0581, 0.0368, 0.0371, 0.0367, 0.0368,0.0368, 0.0368, 0.0368, 0.0649, 0.0368, 0.0368,0.0368
SingleSource/Benchmarks/Misc/mandel-2, 0.0319, 0.0318, 0.0317, 0.0318, 0.0503,0.0318, 0.0522, 0.0491, 0.0747, 0.0491, 0.0317,0.0491
SingleSource/Benchmarks/Misc/matmul_f64_4x4, 0.0310, 0.0309, 0.0306, 0.0307, 0.0306,0.0307, 0.0307, 0.0308, 0.0376, 0.0306, 0.0306,0.0307
SingleSource/Benchmarks/Misc/oourafft, 0.2371, 0.2370, 0.2369, 0.2378, 0.2376,0.2371, 0.2367, 0.2356, 0.2505, 0.2483, 0.2359,0.2367
SingleSource/Benchmarks/Misc/perlin, 0.0463, 0.0462, 0.0607, 0.0462, 0.0630,0.0463, 0.0463, 0.0460, 0.0822, 0.0600, 0.0460,0.0463
SingleSource/Benchmarks/Misc/pi, 0.0220, 0.0220, 0.0218, 0.0218, 0.0219,0.0219, 0.0218, 0.0216, 0.0462, 0.0217, 0.0219,0.0218
SingleSource/Benchmarks/Misc/richards_benchmark, 0.0600, 0.0600, 0.0599, 0.0602, 0.0601,0.06, 0.0600, 0.0602, 0.0847, 0.0600, 0.0603,0.0602
SingleSource/Benchmarks/Misc/salsa20, 0.0492, 0.0492, 0.0490, 0.0490, 0.0489,0.049, 0.0488, 0.0488, 0.0727, 0.0487, 0.0488,0.0488
SingleSource/Benchmarks/Misc/whetstone, 0.0682, 0.0682, 0.0681, 0.0681, 0.0680,0.0681, 0.0684, 0.0680, 0.0882, 0.0680, 0.0679,0.068
SingleSource/Benchmarks/Polybench/datamining/correlation/correlation, 0.0850, 0.0855, 0.0847, 0.0850, 0.0849,0.085, 0.0852, 0.0851, 0.0851, 0.0850, 0.0850,0.0851
SingleSource/Benchmarks/Polybench/datamining/covariance/covariance, 0.1009, 0.1011, 0.1007, 0.1010, 0.1008,0.1009, 0.1009, 0.1004, 0.1008, 0.1008, 0.1012,0.1008
SingleSource/Benchmarks/Polybench/linear-algebra/kernels/atax/atax, 0.0899, 0.0899, 0.0901, 0.0896, 0.0898,0.0899, 0.0896, 0.0896, 0.0898, 0.0895, 0.0898,0.0896
SingleSource/Benchmarks/Polybench/linear-algebra/kernels/bicg/bicg, 0.0859, 0.0860, 0.0857, 0.0863, 0.0856,0.0859, 0.0858, 0.0853, 0.0856, 0.0859, 0.0857,0.0857
SingleSource/Benchmarks/Polybench/linear-algebra/kernels/cholesky/cholesky, 0.1107, 0.1104, 0.1106, 0.1106, 0.1105,0.1106, 0.1102, 0.1102, 0.1100, 0.1099, 0.1102,0.1102
SingleSource/Benchmarks/Polybench/linear-algebra/kernels/doitgen/doitgen, 0.1063, 0.1067, 0.1066, 0.1070, 0.1062,0.1066, 0.1066, 0.1063, 0.1067, 0.1066, 0.1063,0.1066
SingleSource/Benchmarks/Polybench/linear-algebra/kernels/gemver/gemver, 0.1081, 0.1081, 0.1081, 0.1080, 0.1078,0.1081, 0.1082, 0.1081, 0.1082, 0.1080, 0.1081,0.1081
SingleSource/Benchmarks/Polybench/linear-algebra/kernels/gesummv/gesummv, 0.0714, 0.0714, 0.0712, 0.0713, 0.0711,0.0713, 0.0713, 0.0711, 0.0713, 0.0714, 0.0711,0.0713
SingleSource/Benchmarks/Polybench/linear-algebra/kernels/mvt/mvt, 0.0911, 0.0913, 0.0907, 0.0908, 0.0909,0.0909, 0.0908, 0.0907, 0.0910, 0.0907, 0.0911,0.0908
SingleSource/Benchmarks/Polybench/linear-algebra/kernels/symm/symm, 0.0869, 0.0872, 0.0868, 0.0868, 0.0868,0.0868, 0.0869, 0.0867, 0.0869, 0.0867, 0.0866,0.0867
SingleSource/Benchmarks/Polybench/linear-algebra/kernels/syr2k/syr2k, 0.0894, 0.0895, 0.0892, 0.0893, 0.0891,0.0893, 0.0892, 0.0889, 0.0895, 0.0893, 0.0893,0.0893
SingleSource/Benchmarks/Polybench/linear-algebra/kernels/syrk/syrk, 0.0888, 0.0887, 0.0885, 0.0890, 0.0884,0.0887, 0.0883, 0.0884, 0.0884, 0.0882, 0.0886,0.0884
SingleSource/Benchmarks/Polybench/linear-algebra/kernels/trisolv/trisolv, 0.0698, 0.0700, 0.0698, 0.0698, 0.0696,0.0698, 0.0699, 0.0698, 0.0701, 0.0697, 0.0697,0.0698
SingleSource/Benchmarks/Polybench/linear-algebra/kernels/trmm/trmm, 0.0847, 0.0847, 0.0845, 0.0852, 0.0845,0.0847, 0.0850, 0.0849, 0.0847, 0.0847, 0.0847,0.0847
SingleSource/Benchmarks/Polybench/linear-algebra/solvers/durbin/durbin, 0.1084, 0.1084, 0.1080, 0.1083, 0.1084,0.1084, 0.1080, 0.1078, 0.1082, 0.1080, 0.1081,0.108
SingleSource/Benchmarks/Polybench/linear-algebra/solvers/dynprog/dynprog, 0.0856, 0.0855, 0.0855, 0.0855, 0.0853,0.0855, 0.0854, 0.0854, 0.0854, 0.0853, 0.0850,0.0854
SingleSource/Benchmarks/Polybench/linear-algebra/solvers/gramschmidt/gramschmidt, 0.1288, 0.1287, 0.1283, 0.1283, 0.1283,0.1283, 0.1283, 0.1287, 0.1286, 0.1282, 0.1284,0.1284
SingleSource/Benchmarks/Polybench/linear-algebra/solvers/lu/lu, 0.1052, 0.1050, 0.1046, 0.1048, 0.1051,0.105, 0.1053, 0.1048, 0.1050, 0.1049, 0.1047,0.1049
SingleSource/Benchmarks/Polybench/medley/floyd-warshall/floyd-warshall, 0.0862, 0.0863, 0.0862, 0.0861, 0.0861,0.0862, 0.0863, 0.0863, 0.0862, 0.0863, 0.0860,0.0863
SingleSource/Benchmarks/Polybench/medley/reg_detect/reg_detect, 0.4048, 0.4055, 0.4040, 0.4047, 0.4053,0.4048, 0.4053, 0.4048, 0.4051, 0.4047, 0.4047,0.4048
SingleSource/Benchmarks/Polybench/stencils/adi/adi, 0.1050, 0.1051, 0.1047, 0.1051, 0.1049,0.105, 0.1050, 0.1048, 0.1049, 0.1050, 0.1045,0.1049
SingleSource/Benchmarks/Polybench/stencils/fdtd-2d/fdtd-2d, 0.1705, 0.1702, 0.1697, 0.1702, 0.1702,0.1702, 0.1696, 0.1698, 0.1701, 0.1695, 0.1701,0.1698
SingleSource/Benchmarks/Polybench/stencils/fdtd-apml/fdtd-apml, 0.1504, 0.1501, 0.1499, 0.1505, 0.1504,0.1504, 0.1499, 0.1494, 0.1499, 0.1495, 0.1497,0.1497
SingleSource/Benchmarks/Polybench/stencils/jacobi-1d-imper/jacobi-1d-imper, 0.0920, 0.0917, 0.0920, 0.0920, 0.0917,0.092, 0.0917, 0.0915, 0.0920, 0.0924, 0.0918,0.0918
SingleSource/Benchmarks/Polybench/stencils/jacobi-2d-imper/jacobi-2d-imper, 0.1274, 0.1275, 0.1271, 0.1271, 0.1273,0.1273, 0.1276, 0.1270, 0.1274, 0.1273, 0.1270,0.1273
SingleSource/Benchmarks/Polybench/stencils/seidel-2d/seidel-2d, 0.0775, 0.0774, 0.0773, 0.0772, 0.0776,0.0774, 0.0775, 0.0770, 0.0777, 0.0771, 0.0774,0.0774
SingleSource/Benchmarks/Shootout-C++/EH/except, 0.1276, 0.1282, 0.1268, 0.1278, 0.1268,0.1276, 0.1280, 0.1273, 0.1693, 0.1282, 0.1275,0.128
SingleSource/Benchmarks/Shootout-C++/ackermann, 0.1160, 0.1168, 0.1162, 0.1168, 0.1159,0.1162, 0.1161, 0.1157, 0.1165, 0.1155, 0.1167,0.1161
SingleSource/Benchmarks/Shootout-C++/ary, 0.1551, 0.1552, 0.1550, 0.1550, 0.1545,0.155, 0.1559, 0.1548, 0.1558, 0.1549, 0.1552,0.1552
SingleSource/Benchmarks/Shootout-C++/ary2, 0.1620, 0.1629, 0.1618, 0.1621, 0.1622,0.1621, 0.1625, 0.1615, 0.1629, 0.1619, 0.1625,0.1625
SingleSource/Benchmarks/Shootout-C++/ary3, 0.1587, 0.1601, 0.1591, 0.1590, 0.1586,0.159, 0.1594, 0.1593, 0.1599, 0.1588, 0.1595,0.1594
SingleSource/Benchmarks/Shootout-C++/fibo, 0.1145, 0.1145, 0.1148, 0.1144, 0.1140,0.1145, 0.1144, 0.1140, 0.1146, 0.1146, 0.1150,0.1146
SingleSource/Benchmarks/Shootout-C++/hash, 0.2590, 0.2598, 0.2577, 0.2576, 0.2580,0.258, 0.2550, 0.2556, 0.2565, 0.2558, 0.2571,0.2558
SingleSource/Benchmarks/Shootout-C++/hash2, 0.3036, 0.3161, 0.3164, 0.3150, 0.3133,0.315, 0.3135, 0.3097, 0.3491, 0.2952, 0.3027,0.3097
SingleSource/Benchmarks/Shootout-C++/heapsort, 0.1317, 0.1323, 0.1315, 0.1322, 0.1326,0.1322, 0.1328, 0.1320, 0.1332, 0.1326, 0.1321,0.1326
SingleSource/Benchmarks/Shootout-C++/lists, 0.1575, 0.1586, 0.1585, 0.1578, 0.1575,0.1578, 0.1586, 0.1577, 0.2163, 0.1587, 0.1588,0.1587
SingleSource/Benchmarks/Shootout-C++/lists1, 0.1904, 0.1903, 0.1903, 0.1900, 0.1918,0.1903, 0.1907, 0.1897, 0.3679, 0.1907, 0.1902,0.1907
SingleSource/Benchmarks/Shootout-C++/matrix, 0.1716, 0.1729, 0.1719, 0.1725, 0.1723,0.1723, 0.1718, 0.1712, 0.1726, 0.1715, 0.1716,0.1716
SingleSource/Benchmarks/Shootout-C++/methcall, 0.1228, 0.1244, 0.1229, 0.1240, 0.1227,0.1229, 0.1234, 0.1227, 0.1279, 0.1228, 0.1235,0.1234
SingleSource/Benchmarks/Shootout-C++/moments, 0.2385, 0.2403, 0.2381, 0.2407, 0.2387,0.2387, 0.2338, 0.2315, 0.2341, 0.2315, 0.2338,0.2338
SingleSource/Benchmarks/Shootout-C++/nestedloop, 0.1152, 0.1157, 0.1144, 0.1156, 0.1151,0.1152, 0.1152, 0.1156, 0.1159, 0.1150, 0.1152,0.1152
SingleSource/Benchmarks/Shootout-C++/objinst, 0.1278, 0.1281, 0.1275, 0.1280, 0.1278,0.1278, 0.1281, 0.1272, 0.1307, 0.1277, 0.1287,0.1281
SingleSource/Benchmarks/Shootout-C++/random, 0.1242, 0.1242, 0.1245, 0.1244, 0.1243,0.1243, 0.1249, 0.1239, 0.1286, 0.1239, 0.1249,0.1249
SingleSource/Benchmarks/Shootout-C++/sieve, 0.1790, 0.1798, 0.1792, 0.1799, 0.1806,0.1798, 0.1788, 0.1781, 0.4671, 0.1790, 0.1785,0.1788
SingleSource/Benchmarks/Shootout-C++/strcat, 0.1236, 0.1246, 0.1239, 0.1233, 0.1235,0.1236, 0.1235, 0.1233, 0.1241, 0.1234, 0.1241,0.1235
SingleSource/Benchmarks/Shootout/ackermann, 0.0238, 0.0238, 0.0237, 0.0237, 0.0237,0.0237, 0.0236, 0.0237, 0.0244, 0.0237, 0.0238,0.0237
SingleSource/Benchmarks/Shootout/ary3, 0.0354, 0.0352, 0.0352, 0.0352, 0.0354,0.0352, 0.0352, 0.0351, 0.0350, 0.0351, 0.0353,0.0351
SingleSource/Benchmarks/Shootout/fib2, 0.0206, 0.0206, 0.0206, 0.0205, 0.0205,0.0206, 0.0205, 0.0204, 0.0205, 0.0205, 0.0204,0.0205
SingleSource/Benchmarks/Shootout/hash, 0.0782, 0.0500, 0.0499, 0.0499, 0.0502,0.05, 0.0498, 0.0499, 0.0497, 0.0500, 0.0501,0.0499
SingleSource/Benchmarks/Shootout/heapsort, 0.0406, 0.0408, 0.0405, 0.0407, 0.0403,0.0406, 0.0407, 0.0405, 0.0407, 0.0406, 0.0404,0.0406
SingleSource/Benchmarks/Shootout/lists, 0.0734, 0.0735, 0.0738, 0.0738, 0.0735,0.0735, 0.0731, 0.0733, 0.0733, 0.0732, 0.0734,0.0733
SingleSource/Benchmarks/Shootout/matrix, 0.0761, 0.0760, 0.0759, 0.0761, 0.0758,0.076, 0.0759, 0.0760, 0.0766, 0.0762, 0.0758,0.076
SingleSource/Benchmarks/Shootout/methcall, 0.0315, 0.0315, 0.0313, 0.0314, 0.0313,0.0314, 0.0314, 0.0313, 0.0315, 0.0312, 0.0313,0.0313
SingleSource/Benchmarks/Shootout/nestedloop, 0.0249, 0.0249, 0.0247, 0.0247, 0.0247,0.0247, 0.0247, 0.0246, 0.0247, 0.0247, 0.0246,0.0247
SingleSource/Benchmarks/Shootout/objinst, 0.0364, 0.0363, 0.0364, 0.0364, 0.0363,0.0364, 0.0365, 0.0362, 0.0362, 0.0363, 0.0362,0.0362
SingleSource/Benchmarks/Shootout/random, 0.0302, 0.0303, 0.0302, 0.0303, 0.0301,0.0302, 0.0302, 0.0301, 0.0300, 0.0301, 0.0302,0.0301
SingleSource/Benchmarks/Shootout/sieve, 0.0262, 0.0261, 0.0261, 0.0262, 0.0260,0.0261, 0.0261, 0.0260, 0.0260, 0.0261, 0.0260,0.026
SingleSource/Benchmarks/Shootout/strcat, 0.0275, 0.0274, 0.0273, 0.0274, 0.0273,0.0274, 0.0273, 0.0272, 0.0278, 0.0271, 0.0272,0.0272
SingleSource/Benchmarks/SmallPT/smallpt, 0.0956, 0.0960, 0.0955, 0.0957, 0.0954,0.0956, 0.0955, 0.0956, 0.0956, 0.0955, 0.0956,0.0956
SingleSource/Benchmarks/Stanford/Bubblesort, 0.0363, 0.0362, 0.0361, 0.0362, 0.0360,0.0362, 0.0359, 0.0359, 0.0360, 0.0361, 0.0359,0.0359
SingleSource/Benchmarks/Stanford/FloatMM, 0.0447, 0.0446, 0.0444, 0.0446, 0.0444,0.0446, 0.0443, 0.0445, 0.0453, 0.0444, 0.0444,0.0444
SingleSource/Benchmarks/Stanford/Oscar, 0.0666, 0.0665, 0.0666, 0.0666, 0.0666,0.0666, 0.0667, 0.0665, 0.0665, 0.0665, 0.0664,0.0665
SingleSource/Benchmarks/Stanford/Perm, 0.0311, 0.0311, 0.0310, 0.0310, 0.0309,0.031, 0.0309, 0.0307, 0.0319, 0.0308, 0.0308,0.0308
SingleSource/Benchmarks/Stanford/Puzzle, 0.1197, 0.1198, 0.1195, 0.1196, 0.1194,0.1196, 0.1194, 0.1188, 0.1191, 0.1191, 0.1190,0.1191
SingleSource/Benchmarks/Stanford/Queens, 0.0471, 0.0473, 0.0469, 0.0469, 0.0471,0.0471, 0.0470, 0.0470, 0.0470, 0.0471, 0.0471,0.047
SingleSource/Benchmarks/Stanford/Quicksort, 0.0379, 0.0377, 0.0376, 0.0378, 0.0374,0.0377, 0.0376, 0.0375, 0.0380, 0.0377, 0.0374,0.0376
SingleSource/Benchmarks/Stanford/RealMM, 0.0442, 0.0441, 0.0440, 0.0439, 0.0440,0.044, 0.0440, 0.0436, 0.0437, 0.0439, 0.0437,0.0437
SingleSource/Benchmarks/Stanford/Towers, 0.0415, 0.0415, 0.0415, 0.0414, 0.0413,0.0415, 0.0414, 0.0413, 0.0413, 0.0414, 0.0414,0.0414
SingleSource/Benchmarks/Stanford/Treesort, 0.0382, 0.0381, 0.0380, 0.0381, 0.0379,0.0381, 0.0378, 0.0381, 0.0380, 0.0379, 0.0379,0.0379
SingleSource/Regression/C/2004-08-12-InlinerAndAllocas, 0.0203, 0.0202, 0.0200, 0.0202, 0.0202,0.0202, 0.0200, 0.0200, 0.0201, 0.0200, 0.0200,0.02
SingleSource/Regression/C/uint64_to_float, 0.0836, 0.0776, 0.0763, 0.0749, 0.0846,0.0776, 0.0789, 0.0819, 0.0857, 0.0910, 0.0852,0.0852
Total elapsed time,-,-,-,-,-,341.5212,-,-,-,-,-,341.06680000000034
Total failure,-,-,-,-,-,0,-,-,-,-,-,0
