Benchmarks,base,base,base,base,base,median,intptr-opt,intptr-opt,intptr-opt,intptr-opt,intptr-opt,median,Slowdown(%)
MultiSource/Benchmarks/Olden/bh/bh, 1.2717, 1.2709, 1.2703, 1.2689, 1.2695,1.2703, 1.3059, 1.3105, 1.3107, 1.3098, 1.3111,1.3105,3.1646067857986404
MultiSource/Benchmarks/McCat/08-main/main, 0.0429, 0.0428, 0.0429, 0.0429, 0.0429,0.0429, 0.0436, 0.0436, 0.0435, 0.0436, 0.0435,0.0436,1.631701631701632
SingleSource/Benchmarks/Misc/himenobmtxpa, 0.5878, 0.5879, 0.5931, 0.5891, 0.5944,0.5891, 0.5955, 0.5965, 0.5928, 0.5941, 0.5932,0.5941,0.848752334068914
MultiSource/Benchmarks/TSVC/CrossingThresholds-flt/CrossingThresholds-flt, 1.6127, 1.6259, 1.6274, 1.6159, 1.6290,1.6259, 1.6258, 1.6226, 1.6375, 1.6397, 1.6451,1.6375,0.7134510117473347
SingleSource/Benchmarks/Shootout-C++/ary, 0.0143, 0.0142, 0.0142, 0.0143, 0.0142,0.0142, 0.0143, 0.0143, 0.0143, 0.0143, 0.0142,0.0143,0.7042253521126751
MultiSource/Benchmarks/Olden/mst/mst, 0.0521, 0.0520, 0.0521, 0.0520, 0.0523,0.0521, 0.0525, 0.0524, 0.0522, 0.0522, 0.0525,0.0524,0.5758157389635254
MultiSource/Benchmarks/TSVC/Expansion-flt/Expansion-flt, 1.1555, 1.1594, 1.1606, 1.1679, 1.1665,1.1606, 1.1558, 1.1660, 1.1680, 1.1618, 1.1720,1.166,0.46527658107873293
MultiSource/Benchmarks/MallocBench/gs/gs, 0.0232, 0.0232, 0.0232, 0.0233, 0.0233,0.0232, 0.0233, 0.0231, 0.0233, 0.0231, 0.0233,0.0233,0.4310344827586299
MultiSource/Benchmarks/TSVC/IndirectAddressing-dbl/IndirectAddressing-dbl, 2.4845, 2.4713, 2.4785, 2.4766, 2.4916,2.4785, 2.4921, 2.4736, 2.4889, 2.4931, 2.4738,2.4889,0.41960863425458683
MultiSource/Benchmarks/TSVC/GlobalDataFlow-dbl/GlobalDataFlow-dbl, 2.8402, 2.8511, 2.8405, 2.8515, 2.8373,2.8405, 2.8520, 2.8524, 2.8390, 2.8533, 2.8382,2.852,0.4048582995951344
MultiSource/Benchmarks/Ptrdist/ks/ks, 0.6178, 0.6163, 0.6177, 0.6168, 0.6169,0.6169, 0.6196, 0.6211, 0.6178, 0.6181, 0.6193,0.6193,0.3890419841141135
MultiSource/Benchmarks/Bullet/bullet, 3.3022, 3.3007, 3.2885, 3.2922, 3.2861,3.2922, 3.3139, 3.2896, 3.3043, 3.3061, 3.2918,3.3043,0.36753538667153585
MultiSource/Benchmarks/TSVC/ControlFlow-dbl/ControlFlow-dbl, 3.7955, 3.7925, 3.8049, 3.8140, 3.8239,3.8049, 3.8124, 3.8269, 3.7984, 3.8187, 3.8200,3.8187,0.3626902152487732
MultiSource/Benchmarks/MiBench/automotive-basicmath/automotive-basicmath, 0.2233, 0.2230, 0.2233, 0.2232, 0.2231,0.2232, 0.2243, 0.2255, 0.2239, 0.2239, 0.2240,0.224,0.35842293906809264
SingleSource/Benchmarks/Shootout/hash, 2.7877, 2.8100, 2.7859, 2.7929, 2.7921,2.7921, 2.7999, 2.8030, 2.8074, 2.7938, 2.8016,2.8016,0.34024569320583176
SingleSource/Benchmarks/Polybench/stencils/fdtd-2d/fdtd-2d, 0.4009, 0.4047, 0.4051, 0.4015, 0.4052,0.4047, 0.4073, 0.4060, 0.4029, 0.4064, 0.4038,0.406,0.32122559920930716
MultiSource/Benchmarks/TSVC/ControlFlow-flt/ControlFlow-flt, 3.6103, 3.6118, 3.6365, 3.6117, 3.6114,3.6117, 3.6294, 3.5906, 3.6230, 3.6249, 3.6080,3.623,0.3128720547110886
MultiSource/Benchmarks/Trimaran/enc-rc4/enc-rc4, 0.7224, 0.7226, 0.7225, 0.7225, 0.7227,0.7225, 0.7237, 0.7242, 0.7237, 0.7234, 0.7238,0.7237,0.16608996539793086
MultiSource/Benchmarks/ASC_Sequoia/IRSmk/IRSmk, 3.0012, 3.0092, 2.9901, 2.9814, 2.9947,2.9947, 2.9996, 2.9914, 3.0053, 3.0096, 2.9884,2.9996,0.16362239957257163
MultiSource/Benchmarks/Olden/treeadd/treeadd, 0.1269, 0.1267, 0.1270, 0.1266, 0.1267,0.1267, 0.1269, 0.1268, 0.1267, 0.1270, 0.1269,0.1269,0.15785319652723562
MultiSource/Benchmarks/tramp3d-v4/tramp3d-v4, 0.2639, 0.2643, 0.2636, 0.2638, 0.2638,0.2638, 0.2638, 0.2647, 0.2642, 0.2640, 0.2642,0.2642,0.15163002274449777
MultiSource/Benchmarks/Olden/voronoi/voronoi, 0.2112, 0.2107, 0.2108, 0.2107, 0.2102,0.2107, 0.2110, 0.2106, 0.2106, 0.2110, 0.2110,0.211,0.1423825344091023
MultiSource/Benchmarks/MiBench/network-patricia/network-patricia, 0.0708, 0.0710, 0.0708, 0.0708, 0.0708,0.0708, 0.0709, 0.0709, 0.0709, 0.0707, 0.0709,0.0709,0.14124293785311437
MultiSource/Benchmarks/Olden/health/health, 0.1451, 0.1453, 0.1450, 0.1450, 0.1450,0.145, 0.1454, 0.1452, 0.1452, 0.1452, 0.1454,0.1452,0.13793103448276334
MultiSource/Applications/sqlite3/sqlite3, 1.8160, 1.8162, 1.8133, 1.8149, 1.8240,1.816, 1.8184, 1.8206, 1.8216, 1.8168, 1.8158,1.8184,0.1321585903083733
MultiSource/Benchmarks/TSVC/LinearDependence-dbl/LinearDependence-dbl, 5.8488, 5.8493, 5.8496, 5.8484, 5.8492,5.8492, 5.8484, 5.8581, 5.8571, 5.8487, 5.8566,5.8566,0.1265130274225701
SingleSource/Benchmarks/CoyoteBench/lpbench, 1.8309, 1.8229, 1.8269, 1.8259, 1.8211,1.8259, 1.8334, 1.8285, 1.8225, 1.8282, 1.8247,1.8282,0.1259652773974551
SingleSource/Benchmarks/Misc-C++/oopack_v1p8, 0.1617, 0.1619, 0.1616, 0.1620, 0.1613,0.1617, 0.1619, 0.1619, 0.1617, 0.1616, 0.1620,0.1619,0.12368583797153221
MultiSource/Benchmarks/McCat/09-vor/vor, 0.0839, 0.0838, 0.0838, 0.0839, 0.0838,0.0838, 0.0837, 0.0839, 0.0837, 0.0839, 0.0839,0.0839,0.11933174224343368
SingleSource/Benchmarks/Polybench/stencils/fdtd-apml/fdtd-apml, 0.7253, 0.7246, 0.7252, 0.7249, 0.7242,0.7249, 0.7240, 0.7257, 0.7267, 0.7223, 0.7258,0.7257,0.11036004966202828
MultiSource/Benchmarks/Olden/bisort/bisort, 0.3688, 0.3682, 0.3687, 0.3699, 0.3699,0.3688, 0.3696, 0.3700, 0.3691, 0.3692, 0.3685,0.3692,0.10845986984815426
MultiSource/Benchmarks/sim/sim, 2.5911, 2.5877, 2.5879, 2.5896, 2.5933,2.5896, 2.5896, 2.5924, 2.5883, 2.5930, 2.5929,2.5924,0.10812480691999582
MultiSource/Applications/JM/lencod/lencod, 3.1758, 3.1749, 3.1773, 3.1762, 3.1760,3.176, 3.1802, 3.1789, 3.1752, 3.1813, 3.1674,3.1789,0.09130982367757667
SingleSource/Benchmarks/Misc-C++/Large/ray, 3.1387, 3.1399, 3.1387, 3.1619, 3.1389,3.1389, 3.1414, 3.1567, 3.1416, 3.1414, 3.1415,3.1415,0.08283156519799384
MultiSource/Benchmarks/TSVC/InductionVariable-flt/InductionVariable-flt, 2.5545, 2.5550, 2.5530, 2.5560, 2.5535,2.5545, 2.5565, 2.5512, 2.5489, 2.5603, 2.5614,2.5565,0.07829320806420625
MultiSource/Benchmarks/NPB-serial/is/is, 5.1831, 5.1793, 5.1782, 5.1785, 5.1783,5.1785, 5.1864, 5.1850, 5.1785, 5.1787, 5.1825,5.1825,0.07724244472337993
SingleSource/Benchmarks/Shootout/matrix, 1.0906, 1.0906, 1.0907, 1.0904, 1.0905,1.0906, 1.0913, 1.0913, 1.0914, 1.0919, 1.0915,1.0914,0.07335411699980199
MultiSource/Benchmarks/TSVC/ControlLoops-flt/ControlLoops-flt, 2.3428, 2.3408, 2.3423, 2.3496, 2.3507,2.3428, 2.3494, 2.3443, 2.3438, 2.3440, 2.3495,2.3443,0.0640259518524866
SingleSource/Benchmarks/Shootout-C++/lists, 2.9595, 2.9573, 2.9714, 2.9558, 2.9645,2.9595, 2.9563, 2.9690, 2.9613, 2.9605, 2.9734,2.9613,0.06082108464269265
MultiSource/Benchmarks/FreeBench/neural/neural, 0.1648, 0.1648, 0.1647, 0.1647, 0.1647,0.1647, 0.1648, 0.1648, 0.1648, 0.1648, 0.1648,0.1648,0.06071645415905991
MultiSource/Benchmarks/Olden/tsp/tsp, 1.1804, 1.1797, 1.1801, 1.1803, 1.1801,1.1801, 1.1813, 1.1808, 1.1805, 1.1807, 1.1808,1.1808,0.059317007033321545
SingleSource/Benchmarks/Shootout-C++/heapsort, 2.0450, 2.0425, 2.0401, 2.0333, 2.0395,2.0401, 2.0528, 2.0413, 2.0492, 2.0371, 2.0338,2.0413,0.05882064604678661
MultiSource/Benchmarks/BitBench/five11/five11, 1.1211, 1.1179, 1.1193, 1.1141, 1.1168,1.1179, 1.1185, 1.1179, 1.1179, 1.1216, 1.1198,1.1185,0.0536720636908683
MultiSource/Benchmarks/TSVC/LoopRerolling-flt/LoopRerolling-flt, 3.8245, 3.8275, 3.8277, 3.8219, 3.8184,3.8245, 3.8184, 3.8262, 3.8248, 3.8328, 3.8308,3.8262,0.04445025493529098
MultiSource/Benchmarks/Ptrdist/yacr2/yacr2, 0.5117, 0.5116, 0.5117, 0.5116, 0.5115,0.5116, 0.5118, 0.5118, 0.5119, 0.5117, 0.5118,0.5118,0.039093041438609255
MultiSource/Applications/aha/aha, 1.0654, 1.0654, 1.0658, 1.0646, 1.0661,1.0654, 1.0648, 1.0663, 1.0662, 1.0658, 1.0653,1.0658,0.037544584193738295
SingleSource/Benchmarks/Shootout-C++/hash2, 1.7343, 1.7365, 1.7367, 1.7371, 1.7375,1.7367, 1.7372, 1.7375, 1.7373, 1.7373, 1.7371,1.7373,0.03454828122302356
MultiSource/Benchmarks/Trimaran/netbench-crc/netbench-crc, 0.6206, 0.6206, 0.6205, 0.6204, 0.6205,0.6205, 0.6207, 0.6205, 0.6207, 0.6207, 0.6207,0.6207,0.03223207091054281
MultiSource/Benchmarks/TSVC/LinearDependence-flt/LinearDependence-flt, 5.1288, 5.1262, 5.1268, 5.1290, 5.1252,5.1268, 5.1338, 5.1254, 5.1283, 5.1381, 5.1269,5.1283,0.029258016696576128
MultiSource/Benchmarks/TSVC/Symbolics-flt/Symbolics-flt, 1.3884, 1.3906, 1.3955, 1.3955, 1.3910,1.391, 1.3942, 1.3913, 1.3848, 1.3913, 1.3943,1.3913,0.021567217828888374
SingleSource/Benchmarks/CoyoteBench/huffbench, 9.2872, 9.2831, 9.2848, 9.2849, 9.2873,9.2849, 9.2860, 9.2891, 9.2869, 9.2889, 9.2865,9.2869,0.02154035046149083
MultiSource/Benchmarks/TSVC/Searching-dbl/Searching-dbl, 2.2892, 2.2901, 2.2897, 2.2898, 2.2900,2.2898, 2.2901, 2.2902, 2.2904, 2.2906, 2.2893,2.2902,0.01746877456545448
MultiSource/Benchmarks/nbench/nbench, 1.1907, 1.1905, 1.1887, 1.1892, 1.1905,1.1905, 1.1898, 1.1937, 1.1897, 1.1907, 1.1923,1.1907,0.016799664006739157
SingleSource/Benchmarks/Adobe-C++/stepanov_abstraction, 4.2367, 4.2367, 4.2363, 4.2373, 4.2373,4.2367, 4.2383, 4.2374, 4.2370, 4.2377, 4.2373,4.2374,0.016522293294318757
SingleSource/Benchmarks/Polybench/stencils/adi/adi, 2.7986, 2.7982, 2.7981, 2.7987, 2.7982,2.7982, 2.7984, 2.7985, 2.8005, 2.7986, 2.7993,2.7986,0.0142949038667739
MultiSource/Benchmarks/PAQ8p/paq8p,43.8664,43.8929,43.8669,43.8835,43.8504,43.8669,43.9290,43.9097,43.8731,43.8557,43.8394,43.8731,0.014133663422755127
MultiSource/Benchmarks/ASC_Sequoia/AMGmk/AMGmk, 5.0521, 5.0253, 5.0404, 5.0240, 5.0443,5.0404, 5.0460, 5.0350, 5.0329, 5.0411, 5.0412,5.0411,0.01388778668360846
SingleSource/Benchmarks/Shootout/fib2, 1.4739, 1.4736, 1.4721, 1.4726, 1.4728,1.4728, 1.4724, 1.4736, 1.4728, 1.4749, 1.4730,1.473,0.013579576317224173
MultiSource/Benchmarks/7zip/7zip-benchmark, 6.3211, 6.3247, 6.3420, 6.3231, 6.3327,6.3247, 6.3255, 6.3210, 6.3328, 6.3250, 6.3271,6.3255,0.012648821287974954
SingleSource/Benchmarks/Misc-C++/mandel-text, 1.6145, 1.6166, 1.6131, 1.6122, 1.6112,1.6131, 1.6172, 1.6133, 1.6132, 1.6135, 1.6128,1.6133,0.012398487384546186
SingleSource/Benchmarks/Misc/oourafft, 6.0813, 6.0816, 6.0814, 6.0817, 6.0815,6.0815, 6.0820, 6.0822, 6.0820, 6.0823, 6.0860,6.0822,0.01151031817807624
MultiSource/Applications/obsequi/Obsequi, 1.0710, 1.0708, 1.0709, 1.0699, 1.0711,1.0709, 1.0710, 1.0710, 1.0708, 1.0709, 1.0712,1.071,0.009337940050424542
MultiSource/Benchmarks/TSVC/Symbolics-dbl/Symbolics-dbl, 2.4411, 2.4568, 2.4574, 2.4567, 2.4421,2.4567, 2.4569, 2.4573, 2.4424, 2.4574, 2.4425,2.4569,0.008141002157358024
SingleSource/Benchmarks/Misc/matmul_f64_4x4, 1.2952, 1.2952, 1.2952, 1.2953, 1.2952,1.2952, 1.2952, 1.2953, 1.2953, 1.2952, 1.2953,1.2953,0.00772081531810187
MultiSource/Benchmarks/ASC_Sequoia/CrystalMk/CrystalMk, 6.6755, 6.6765, 6.6763, 6.6773, 6.6760,6.6763, 6.6771, 6.6770, 6.6768, 6.6763, 6.6768,6.6768,0.0074891781375763244
SingleSource/Benchmarks/CoyoteBench/almabench,12.6485,12.6487,12.6486,12.6494,12.6487,12.6487,12.6493,12.6482,12.6498,12.6484,12.6568,12.6493,0.004743570485499227
SingleSource/Benchmarks/Misc-C++/Large/sphereflake, 6.2800, 6.2802, 6.2803, 6.2803, 6.2803,6.2803, 6.2806, 6.2806, 6.2804, 6.2805, 6.2805,6.2805,0.003184561247060458
SingleSource/Benchmarks/Shootout/sieve, 3.4675, 3.4707, 3.4684, 3.4684, 3.4694,3.4684, 3.4685, 3.4669, 3.4675, 3.4702, 3.4693,3.4685,0.0028831737977297323
SingleSource/Benchmarks/Misc/perlin, 3.8536, 3.8541, 3.8538, 3.8537, 3.8530,3.8537, 3.8538, 3.8537, 3.8538, 3.8539, 3.8537,3.8538,0.002594908788955408
SingleSource/Benchmarks/Shootout/lists, 4.1203, 4.1194, 4.1192, 4.1183, 4.1204,4.1194, 4.1195, 4.1185, 4.1211, 4.1179, 4.1204,4.1195,0.002427537990978834
SingleSource/Benchmarks/Polybench/linear-algebra/kernels/syr2k/syr2k, 8.7791, 8.7798, 8.7809, 8.7807, 8.7809,8.7807, 8.7815, 8.7819, 8.7809, 8.7798, 8.7793,8.7809,0.0022777227328241167
SingleSource/Benchmarks/Polybench/linear-algebra/kernels/syrk/syrk, 4.4130, 4.4122, 4.4135, 4.4136, 4.4123,4.413, 4.4142, 4.4131, 4.4131, 4.4124, 4.4131,4.4131,0.0022660321776557524
MultiSource/Applications/lua/lua,11.6592,11.6314,11.6261,11.6264,11.6562,11.6314,11.6313,11.6316,11.6291,11.6612,11.6516,11.6316,0.0017194834671885317
SingleSource/Benchmarks/Misc-C++/stepanov_v1p2, 7.9033, 7.9034, 7.9035, 7.9033, 7.9033,7.9033, 7.9033, 7.9034, 7.9033, 7.9034, 7.9034,7.9034,0.0012652942441793158
SingleSource/Regression/C/uint64_to_float, 0.2603, 0.2602, 0.2602, 0.2603, 0.2603,0.2603, 0.2602, 0.2603, 0.2602, 0.2603, 0.2603,0.2603,0.0
SingleSource/Benchmarks/Stanford/Treesort, 0.0547, 0.0547, 0.0546, 0.0547, 0.0547,0.0547, 0.0548, 0.0546, 0.0546, 0.0548, 0.0547,0.0547,0.0
SingleSource/Benchmarks/Stanford/Quicksort, 0.0303, 0.0303, 0.0304, 0.0303, 0.0303,0.0303, 0.0303, 0.0303, 0.0304, 0.0303, 0.0303,0.0303,0.0
SingleSource/Benchmarks/Stanford/Puzzle, 0.0773, 0.0773, 0.0772, 0.0773, 0.0772,0.0773, 0.0774, 0.0773, 0.0773, 0.0772, 0.0773,0.0773,0.0
SingleSource/Benchmarks/Stanford/FloatMM, 0.2021, 0.2021, 0.2022, 0.2021, 0.2021,0.2021, 0.2021, 0.2021, 0.2021, 0.2021, 0.2021,0.2021,0.0
SingleSource/Benchmarks/Stanford/Bubblesort, 0.0161, 0.0161, 0.0161, 0.0161, 0.0160,0.0161, 0.0160, 0.0161, 0.0161, 0.0161, 0.0161,0.0161,0.0
SingleSource/Benchmarks/Shootout/random, 1.7449, 1.7449, 1.7449, 1.7449, 1.7449,1.7449, 1.7449, 1.7449, 1.7449, 1.7449, 1.7449,1.7449,0.0
SingleSource/Benchmarks/Shootout/methcall, 3.2761, 3.2762, 3.2763, 3.2761, 3.2760,3.2761, 3.2758, 3.2760, 3.2765, 3.2761, 3.2764,3.2761,0.0
SingleSource/Benchmarks/Shootout-C++/random, 1.7449, 1.7449, 1.7450, 1.7450, 1.7450,1.745, 1.7449, 1.7450, 1.7449, 1.7450, 1.7453,1.745,0.0
SingleSource/Benchmarks/Shootout-C++/objinst, 0.0009, 0.0009, 0.0009, 0.0009, 0.0009,0.0009, 0.0009, 0.0009, 0.0009, 0.0009, 0.0009,0.0009,0.0
SingleSource/Benchmarks/Shootout-C++/moments, 0.0505, 0.0506, 0.0505, 0.0505, 0.0507,0.0505, 0.0505, 0.0506, 0.0506, 0.0505, 0.0504,0.0505,0.0
SingleSource/Benchmarks/Shootout-C++/ackermann, 0.6573, 0.6573, 0.6573, 0.6574, 0.6573,0.6573, 0.6573, 0.6574, 0.6573, 0.6573, 0.6572,0.6573,0.0
SingleSource/Benchmarks/Shootout-C++/EH/except, 0.1207, 0.1205, 0.1208, 0.1206, 0.1205,0.1206, 0.1202, 0.1206, 0.1206, 0.1208, 0.1212,0.1206,0.0
SingleSource/Benchmarks/Polybench/stencils/seidel-2d/seidel-2d, 0.6473, 0.6473, 0.6473, 0.6473, 0.6473,0.6473, 0.6473, 0.6472, 0.6473, 0.6473, 0.6473,0.6473,0.0
SingleSource/Benchmarks/Polybench/stencils/jacobi-1d-imper/jacobi-1d-imper, 0.0037, 0.0037, 0.0037, 0.0037, 0.0037,0.0037, 0.0037, 0.0037, 0.0037, 0.0037, 0.0037,0.0037,0.0
SingleSource/Benchmarks/Polybench/medley/reg_detect/reg_detect, 0.0175, 0.0176, 0.0175, 0.0175, 0.0175,0.0175, 0.0175, 0.0175, 0.0175, 0.0175, 0.0175,0.0175,0.0
SingleSource/Benchmarks/Polybench/linear-algebra/kernels/bicg/bicg, 0.2129, 0.2128, 0.2127, 0.2128, 0.2128,0.2128, 0.2127, 0.2129, 0.2129, 0.2128, 0.2128,0.2128,0.0
SingleSource/Benchmarks/Misc/salsa20, 4.8176, 4.8176, 4.8175, 4.8174, 4.8173,4.8175, 4.8285, 4.8175, 4.8175, 4.8175, 4.8286,4.8175,0.0
SingleSource/Benchmarks/Misc/pi, 0.6943, 0.6943, 0.6943, 0.6943, 0.6943,0.6943, 0.6943, 0.6943, 0.6943, 0.6943, 0.6943,0.6943,0.0
SingleSource/Benchmarks/Misc/mandel-2, 1.2780, 1.2781, 1.2781, 1.2781, 1.2780,1.2781, 1.2780, 1.2780, 1.2781, 1.2781, 1.2781,1.2781,0.0
SingleSource/Benchmarks/Misc/mandel, 0.8337, 0.8337, 0.8337, 0.8337, 0.8338,0.8337, 0.8337, 0.8337, 0.8338, 0.8337, 0.8337,0.8337,0.0
SingleSource/Benchmarks/Misc/fp-convert, 3.0625, 3.0626, 3.0626, 3.0626, 3.0626,3.0626, 3.0626, 3.0626, 3.0626, 3.0626, 3.0626,3.0626,0.0
SingleSource/Benchmarks/Misc/flops-7, 1.5901, 1.5901, 1.5901, 1.5901, 1.5901,1.5901, 1.5901, 1.5901, 1.5901, 1.5901, 1.5901,1.5901,0.0
SingleSource/Benchmarks/Misc/flops-6, 3.1818, 3.1818, 3.1818, 3.1818, 3.1818,3.1818, 3.1818, 3.1818, 3.1818, 3.1818, 3.1818,3.1818,0.0
SingleSource/Benchmarks/Misc/flops-3, 5.5081, 5.5081, 5.5082, 5.5082, 5.5081,5.5081, 5.5081, 5.5081, 5.5081, 5.5081, 5.5082,5.5081,0.0
SingleSource/Benchmarks/Misc/flops-2, 0.8627, 0.8627, 0.8627, 0.8627, 0.8627,0.8627, 0.8627, 0.8627, 0.8627, 0.8627, 0.8627,0.8627,0.0
SingleSource/Benchmarks/Misc/fbench, 1.7523, 1.7522, 1.7522, 1.7523, 1.7523,1.7523, 1.7523, 1.7525, 1.7523, 1.7523, 1.7523,1.7523,0.0
SingleSource/Benchmarks/Misc/dt, 0.6919, 0.6919, 0.6919, 0.6919, 0.6919,0.6919, 0.6919, 0.6920, 0.6918, 0.6919, 0.6919,0.6919,0.0
SingleSource/Benchmarks/Misc-C++/bigfib, 0.1922, 0.1917, 0.1916, 0.1914, 0.1915,0.1916, 0.1916, 0.1914, 0.1919, 0.1917, 0.1915,0.1916,0.0
SingleSource/Benchmarks/McGill/misr, 0.1012, 0.1012, 0.1012, 0.1012, 0.1012,0.1012, 0.1012, 0.1012, 0.1012, 0.1012, 0.1012,0.1012,0.0
SingleSource/Benchmarks/Dhrystone/fldry, 0.3655, 0.3655, 0.3656, 0.3655, 0.3655,0.3655, 0.3655, 0.3655, 0.3655, 0.3655, 0.3655,0.3655,0.0
SingleSource/Benchmarks/Dhrystone/dry, 0.3351, 0.3351, 0.3351, 0.3351, 0.3351,0.3351, 0.3351, 0.3351, 0.3351, 0.3351, 0.3351,0.3351,0.0
SingleSource/Benchmarks/BenchmarkGame/spectral-norm, 0.9733, 0.9733, 0.9733, 0.9733, 0.9733,0.9733, 0.9733, 0.9733, 0.9733, 0.9733, 0.9733,0.9733,0.0
SingleSource/Benchmarks/BenchmarkGame/puzzle, 0.1140, 0.1138, 0.1137, 0.1136, 0.1140,0.1138, 0.1140, 0.1138, 0.1136, 0.1140, 0.1136,0.1138,0.0
SingleSource/Benchmarks/BenchmarkGame/partialsums, 0.5687, 0.5687, 0.5687, 0.5687, 0.5687,0.5687, 0.5687, 0.5687, 0.5687, 0.5687, 0.5688,0.5687,0.0
SingleSource/Benchmarks/BenchmarkGame/n-body, 1.3718, 1.3718, 1.3719, 1.3719, 1.3718,1.3718, 1.3718, 1.3718, 1.3718, 1.3718, 1.3718,1.3718,0.0
SingleSource/Benchmarks/BenchmarkGame/fannkuch, 1.8623, 1.8636, 1.8634, 1.8625, 1.8630,1.863, 1.8630, 1.8625, 1.8632, 1.8624, 1.8635,1.863,0.0
SingleSource/Benchmarks/Adobe-C++/stepanov_vector, 2.2589, 2.2591, 2.2580, 2.2597, 2.2594,2.2591, 2.2591, 2.2590, 2.2588, 2.2593, 2.2594,2.2591,0.0
SingleSource/Benchmarks/Adobe-C++/simple_types_loop_invariant, 1.6064, 1.6071, 1.6072, 1.6069, 1.6062,1.6069, 1.6068, 1.6069, 1.6074, 1.6067, 1.6071,1.6069,0.0
SingleSource/Benchmarks/Adobe-C++/simple_types_constant_folding, 0.6691, 0.6695, 0.6691, 0.6691, 0.6692,0.6691, 0.6692, 0.6691, 0.6691, 0.6691, 0.6691,0.6691,0.0
MultiSource/Benchmarks/mediabench/g721/g721encode/encode, 0.0290, 0.0291, 0.0291, 0.0290, 0.0290,0.029, 0.0291, 0.0289, 0.0291, 0.0290, 0.0290,0.029,0.0
MultiSource/Benchmarks/VersaBench/ecbdes/ecbdes, 1.6923, 1.6923, 1.6923, 1.6923, 1.6924,1.6923, 1.6924, 1.6924, 1.6923, 1.6923, 1.6923,1.6923,0.0
MultiSource/Benchmarks/Trimaran/netbench-url/netbench-url, 2.9792, 2.9791, 2.9791, 2.9791, 2.9792,2.9791, 2.9791, 2.9792, 2.9791, 2.9790, 2.9791,2.9791,0.0
MultiSource/Benchmarks/Trimaran/enc-pc1/enc-pc1, 0.3534, 0.3533, 0.3533, 0.3533, 0.3533,0.3533, 0.3533, 0.3533, 0.3533, 0.3533, 0.3533,0.3533,0.0
MultiSource/Benchmarks/Trimaran/enc-md5/enc-md5, 1.3929, 1.3929, 1.3929, 1.3929, 1.3929,1.3929, 1.3929, 1.3929, 1.3930, 1.3930, 1.3929,1.3929,0.0
MultiSource/Benchmarks/TSVC/Reductions-flt/Reductions-flt, 5.9693, 5.9695, 5.9695, 5.9694, 5.9694,5.9694, 5.9693, 5.9694, 5.9694, 5.9694, 5.9695,5.9694,0.0
MultiSource/Benchmarks/TSVC/Reductions-dbl/Reductions-dbl, 3.4764, 3.4765, 3.4767, 3.4765, 3.4764,3.4765, 3.4764, 3.4764, 3.4765, 3.4765, 3.4766,3.4765,0.0
MultiSource/Benchmarks/TSVC/Recurrences-flt/Recurrences-flt, 3.5009, 3.5010, 3.5010, 3.5008, 3.5008,3.5009, 3.5010, 3.5009, 3.5009, 3.5009, 3.5010,3.5009,0.0
MultiSource/Benchmarks/TSVC/Recurrences-dbl/Recurrences-dbl, 3.5012, 3.5014, 3.5012, 3.5012, 3.5012,3.5012, 3.5012, 3.5012, 3.5012, 3.5012, 3.5012,3.5012,0.0
MultiSource/Benchmarks/TSVC/Equivalencing-flt/Equivalencing-flt, 0.9692, 0.9713, 0.9663, 0.9679, 0.9672,0.9679, 0.9671, 0.9679, 0.9677, 0.9687, 0.9696,0.9679,0.0
MultiSource/Benchmarks/Ptrdist/anagram/anagram, 0.6662, 0.6663, 0.6663, 0.6661, 0.6663,0.6663, 0.6663, 0.6662, 0.6661, 0.6663, 0.6663,0.6663,0.0
MultiSource/Benchmarks/Prolangs-C++/ocean/ocean, 0.0362, 0.0362, 0.0363, 0.0362, 0.0363,0.0362, 0.0362, 0.0362, 0.0363, 0.0362, 0.0363,0.0362,0.0
MultiSource/Benchmarks/Prolangs-C++/city/city, 0.0051, 0.0051, 0.0051, 0.0051, 0.0051,0.0051, 0.0051, 0.0051, 0.0051, 0.0051, 0.0051,0.0051,0.0
MultiSource/Benchmarks/Olden/power/power, 1.0749, 1.0749, 1.0750, 1.0749, 1.0750,1.0749, 1.0749, 1.0749, 1.0750, 1.0749, 1.0749,1.0749,0.0
MultiSource/Benchmarks/MiBench/telecomm-gsm/telecomm-gsm, 0.1111, 0.1110, 0.1110, 0.1112, 0.1112,0.1111, 0.1111, 0.1111, 0.1111, 0.1111, 0.1112,0.1111,0.0
MultiSource/Benchmarks/MiBench/telecomm-FFT/telecomm-fft, 0.0385, 0.0385, 0.0385, 0.0385, 0.0386,0.0385, 0.0385, 0.0385, 0.0385, 0.0385, 0.0386,0.0385,0.0
MultiSource/Benchmarks/MiBench/network-dijkstra/network-dijkstra, 0.0250, 0.0251, 0.0249, 0.0250, 0.0251,0.025, 0.0250, 0.0251, 0.0250, 0.0250, 0.0249,0.025,0.0
MultiSource/Benchmarks/McCat/18-imp/imp, 0.0677, 0.0677, 0.0677, 0.0677, 0.0677,0.0677, 0.0679, 0.0675, 0.0677, 0.0677, 0.0677,0.0677,0.0
MultiSource/Benchmarks/McCat/04-bisect/bisect, 0.0789, 0.0789, 0.0790, 0.0789, 0.0790,0.0789, 0.0789, 0.0789, 0.0789, 0.0789, 0.0789,0.0789,0.0
MultiSource/Benchmarks/McCat/01-qbsort/qbsort, 0.0394, 0.0396, 0.0395, 0.0394, 0.0395,0.0395, 0.0394, 0.0395, 0.0395, 0.0395, 0.0395,0.0395,0.0
MultiSource/Benchmarks/MallocBench/espresso/espresso, 0.3079, 0.3080, 0.3079, 0.3079, 0.3081,0.3079, 0.3081, 0.3077, 0.3081, 0.3079, 0.3076,0.3079,0.0
MultiSource/Benchmarks/MallocBench/cfrac/cfrac, 0.7717, 0.7716, 0.7717, 0.7714, 0.7709,0.7716, 0.7721, 0.7718, 0.7716, 0.7715, 0.7714,0.7716,0.0
MultiSource/Benchmarks/FreeBench/pcompress2/pcompress2, 0.1032, 0.1032, 0.1031, 0.1032, 0.1032,0.1032, 0.1032, 0.1032, 0.1032, 0.1031, 0.1031,0.1032,0.0
MultiSource/Benchmarks/FreeBench/fourinarow/fourinarow, 0.1772, 0.1772, 0.1773, 0.1773, 0.1773,0.1773, 0.1773, 0.1773, 0.1773, 0.1772, 0.1773,0.1773,0.0
MultiSource/Benchmarks/FreeBench/distray/distray, 0.1382, 0.1381, 0.1381, 0.1381, 0.1381,0.1381, 0.1380, 0.1381, 0.1381, 0.1382, 0.1381,0.1381,0.0
MultiSource/Benchmarks/BitBench/uuencode/uuencode, 0.0111, 0.0111, 0.0111, 0.0111, 0.0110,0.0111, 0.0110, 0.0111, 0.0111, 0.0111, 0.0110,0.0111,0.0
MultiSource/Benchmarks/BitBench/uudecode/uudecode, 0.0598, 0.0598, 0.0598, 0.0599, 0.0598,0.0598, 0.0598, 0.0598, 0.0598, 0.0598, 0.0598,0.0598,0.0
MultiSource/Applications/oggenc/oggenc, 0.0757, 0.0755, 0.0756, 0.0756, 0.0755,0.0756, 0.0755, 0.0756, 0.0755, 0.0757, 0.0756,0.0756,0.0
MultiSource/Applications/kimwitu++/kc, 0.0280, 0.0280, 0.0280, 0.0279, 0.0280,0.028, 0.0280, 0.0280, 0.0281, 0.0281, 0.0280,0.028,0.0
MultiSource/Applications/d/make_dparser, 0.0159, 0.0159, 0.0160, 0.0159, 0.0159,0.0159, 0.0159, 0.0160, 0.0160, 0.0159, 0.0159,0.0159,0.0
MultiSource/Applications/ALAC/decode/alacconvert-decode, 0.0131, 0.0132, 0.0131, 0.0131, 0.0132,0.0131, 0.0131, 0.0130, 0.0131, 0.0131, 0.0132,0.0131,0.0
SingleSource/Benchmarks/Shootout-C++/methcall, 3.5459, 3.5507, 3.5460, 3.5459, 3.5508,3.546, 3.5459, 3.5459, 3.5459, 3.5459, 3.5508,3.5459,-0.002820078962206818
SingleSource/Benchmarks/McGill/queens, 1.5487, 1.5486, 1.5491, 1.5488, 1.5489,1.5488, 1.5486, 1.5487, 1.5486, 1.5488, 1.5492,1.5487,-0.006456611570249127
SingleSource/Benchmarks/Adobe-C++/functionobjects, 3.0001, 2.9993, 2.9986, 2.9991, 3.0015,2.9993, 3.0011, 2.9995, 2.9971, 2.9991, 2.9987,2.9991,-0.006668222585271
SingleSource/Benchmarks/Misc/flops,10.6559,10.6406,10.6566,10.6592,10.6589,10.6566,10.6397,10.6565,10.6558,10.6532,10.6755,10.6558,-0.007507084811286813
MultiSource/Benchmarks/Trimaran/enc-3des/enc-3des, 1.2773, 1.2774, 1.2776, 1.2772, 1.2777,1.2774, 1.2772, 1.2778, 1.2772, 1.2773, 1.2777,1.2773,-0.00782840144042396
MultiSource/Benchmarks/VersaBench/bmm/bmm, 1.6961, 1.6962, 1.6967, 1.6964, 1.6967,1.6964, 1.6962, 1.6961, 1.6965, 1.6957, 1.6964,1.6962,-0.011789672247108918
SingleSource/Benchmarks/Polybench/datamining/correlation/correlation, 1.6586, 1.6602, 1.6625, 1.6574, 1.6544,1.6586, 1.6521, 1.6663, 1.6552, 1.6665, 1.6584,1.6584,-0.012058362474376416
MultiSource/Applications/hexxagon/hexxagon, 6.5826, 6.5816, 6.5831, 6.5823, 6.5821,6.5823, 6.5816, 6.5819, 6.5808, 6.5815, 6.5810,6.5815,-0.012153806420245328
MultiSource/Benchmarks/VersaBench/beamformer/beamformer, 0.7497, 0.7498, 0.7495, 0.7498, 0.7498,0.7498, 0.7496, 0.7497, 0.7497, 0.7496, 0.7498,0.7497,-0.013336889837289867
MultiSource/Benchmarks/Olden/em3d/em3d, 1.7043, 1.7048, 1.7048, 1.7048, 1.7046,1.7048, 1.7041, 1.7046, 1.7046, 1.7040, 1.7045,1.7045,-0.017597372125777166
SingleSource/Benchmarks/Misc-C++-EH/spirit, 2.6201, 2.6223, 2.6218, 2.6229, 2.6296,2.6223, 2.6206, 2.6217, 2.6208, 2.6223, 2.6223,2.6217,-0.022880677268044547
MultiSource/Applications/spiff/spiff, 1.3050, 1.2994, 1.2997, 1.3004, 1.3000,1.3, 1.2995, 1.2997, 1.3020, 1.3003, 1.2990,1.2997,-0.02307692307692566
MultiSource/Benchmarks/mafft/pairlocalalign,24.8327,24.8321,24.8328,24.8328,24.8337,24.8328,24.8265,24.8270,24.8274,24.8269,24.8267,24.8269,-0.023758899519987775
MultiSource/Benchmarks/Fhourstones-3.1/fhourstones3.1, 0.8109, 0.8110, 0.8111, 0.8109, 0.8108,0.8109, 0.8107, 0.8088, 0.8107, 0.8106, 0.8113,0.8107,-0.02466395363176499
SingleSource/Benchmarks/Shootout-C++/hash, 0.3229, 0.3237, 0.3221, 0.3217, 0.3221,0.3221, 0.3219, 0.3220, 0.3219, 0.3230, 0.3223,0.322,-0.031046258925793158
SingleSource/Benchmarks/Shootout-C++/fibo, 1.4743, 1.4751, 1.4764, 1.4726, 1.4725,1.4743, 1.4764, 1.4732, 1.4738, 1.4734, 1.4741,1.4738,-0.03391440005425794
MultiSource/Benchmarks/TSVC/NodeSplitting-dbl/NodeSplitting-dbl, 5.0268, 5.0260, 5.0272, 5.0295, 5.0283,5.0272, 5.0264, 5.0244, 5.0187, 5.0262, 5.0252,5.0252,-0.03978357733926963
MultiSource/Benchmarks/TSVC/Searching-flt/Searching-flt, 2.4460, 2.4492, 2.4491, 2.4486, 2.4484,2.4486, 2.4470, 2.4478, 2.4475, 2.4476, 2.4480,2.4476,-0.04083966348117363
MultiSource/Benchmarks/Prolangs-C++/life/life, 0.7062, 0.7079, 0.7061, 0.7076, 0.7019,0.7062, 0.7059, 0.7057, 0.7078, 0.7049, 0.7066,0.7059,-0.04248088360239155
MultiSource/Benchmarks/McCat/12-IOtest/iotest, 0.2146, 0.2143, 0.2147, 0.2140, 0.2151,0.2146, 0.2135, 0.2159, 0.2145, 0.2152, 0.2138,0.2145,-0.04659832246040052
MultiSource/Benchmarks/SciMark2-C/scimark2,43.2544,43.2248,43.1366,43.0558,43.2533,43.2248,43.2891,43.2905,43.1342,43.2044,43.0743,43.2044,-0.047195128722410384
MultiSource/Benchmarks/TSVC/IndirectAddressing-flt/IndirectAddressing-flt, 2.3042, 2.3052, 2.3044, 2.3094, 2.3056,2.3052, 2.3054, 2.2990, 2.3019, 2.3041, 2.3066,2.3041,-0.04771820232518653
MultiSource/Applications/siod/siod, 1.1072, 1.1076, 1.1075, 1.1072, 1.1067,1.1072, 1.1066, 1.1072, 1.1065, 1.1059, 1.1069,1.1066,-0.05419075144508234
SingleSource/Benchmarks/Polybench/linear-algebra/kernels/atax/atax, 0.1706, 0.1705, 0.1706, 0.1706, 0.1706,0.1706, 0.1704, 0.1704, 0.1707, 0.1705, 0.1707,0.1705,-0.05861664712777381
MultiSource/Benchmarks/TSVC/NodeSplitting-flt/NodeSplitting-flt, 4.6474, 4.6419, 4.6456, 4.6437, 4.6472,4.6456, 4.6399, 4.6420, 4.6462, 4.6428, 4.6459,4.6428,-0.06027208541414808
MultiSource/Benchmarks/DOE-ProxyApps-C/XSBench/XSBench, 2.4395, 2.4374, 2.4289, 2.4322, 2.4338,2.4338, 2.4315, 2.4322, 2.4344, 2.4351, 2.4312,2.4322,-0.06574081682966249
SingleSource/Benchmarks/Polybench/linear-algebra/solvers/dynprog/dynprog, 0.2806, 0.2808, 0.2806, 0.2803, 0.2810,0.2806, 0.2805, 0.2800, 0.2804, 0.2806, 0.2802,0.2804,-0.07127583749110267
MultiSource/Benchmarks/TSVC/StatementReordering-dbl/StatementReordering-dbl, 2.2491, 2.2386, 2.2451, 2.2415, 2.2422,2.2422, 2.2365, 2.2411, 2.2299, 2.2406, 2.2423,2.2406,-0.07135848720006832
SingleSource/Benchmarks/SmallPT/smallpt, 7.5954, 7.5940, 7.5945, 7.5933, 7.5948,7.5945, 7.5888, 7.5879, 7.5879, 7.5891, 7.6528,7.5888,-0.07505431562314646
MultiSource/Benchmarks/FreeBench/mason/mason, 0.1295, 0.1295, 0.1294, 0.1295, 0.1295,0.1295, 0.1294, 0.1293, 0.1294, 0.1294, 0.1294,0.1294,-0.07722007722008595
MultiSource/Benchmarks/Olden/perimeter/perimeter, 0.1229, 0.1228, 0.1232, 0.1229, 0.1226,0.1229, 0.1226, 0.1226, 0.1229, 0.1228, 0.1228,0.1228,-0.08136696501219731
MultiSource/Applications/lambda-0.1.3/lambda, 2.5737, 2.5735, 2.5740, 2.5730, 2.5735,2.5735, 2.5697, 2.5715, 2.5712, 2.5723, 2.5670,2.5712,-0.08937244997085925
MultiSource/Benchmarks/TSVC/Equivalencing-dbl/Equivalencing-dbl, 1.3867, 1.3791, 1.3806, 1.3853, 1.3854,1.3853, 1.3840, 1.3808, 1.3879, 1.3794, 1.3852,1.384,-0.09384248899155789
SingleSource/Benchmarks/Shootout/strcat, 0.1053, 0.1052, 0.1053, 0.1053, 0.1054,0.1053, 0.1052, 0.1053, 0.1052, 0.1053, 0.1052,0.1052,-0.09496676163343043
MultiSource/Applications/minisat/minisat, 4.1756, 4.2080, 4.2029, 4.2165, 4.1938,4.2029, 4.1986, 4.2132, 4.2077, 4.1948, 4.1923,4.1986,-0.10231030954815923
SingleSource/Benchmarks/Shootout/heapsort, 2.0264, 2.0245, 2.0389, 2.0266, 2.0371,2.0266, 2.0246, 2.0242, 2.0240, 2.0372, 2.0238,2.0242,-0.11842494818908866
MultiSource/Benchmarks/TSVC/InductionVariable-dbl/InductionVariable-dbl, 3.0353, 3.0324, 3.0489, 3.0490, 3.0297,3.0353, 3.0330, 3.0278, 3.0317, 3.0505, 3.0311,3.0317,-0.11860442130926518
MultiSource/Benchmarks/TSVC/StatementReordering-flt/StatementReordering-flt, 1.8277, 1.8285, 1.8280, 1.8228, 1.8239,1.8277, 1.8263, 1.8248, 1.8279, 1.8253, 1.8225,1.8253,-0.1313125786507774
SingleSource/Benchmarks/Shootout-C++/matrix, 1.6721, 1.6722, 1.6722, 1.6723, 1.6722,1.6722, 1.6695, 1.6695, 1.6696, 1.6697, 1.6696,1.6696,-0.15548379380456723
MultiSource/Benchmarks/FreeBench/pifft/pifft, 0.0643, 0.0643, 0.0645, 0.0644, 0.0643,0.0643, 0.0642, 0.0642, 0.0644, 0.0643, 0.0642,0.0642,-0.15552099533437946
MultiSource/Applications/sgefa/sgefa, 0.1155, 0.1153, 0.1155, 0.1155, 0.1154,0.1155, 0.1155, 0.1153, 0.1155, 0.1153, 0.1153,0.1153,-0.17316017316018062
SingleSource/Benchmarks/Polybench/medley/floyd-warshall/floyd-warshall, 3.4430, 3.4365, 3.4418, 3.4380, 3.4454,3.4418, 3.4396, 3.4352, 3.4347, 3.4350, 3.4388,3.4352,-0.19176012551572752
SingleSource/Benchmarks/Adobe-C++/loop_unroll, 1.8226, 1.8215, 1.8218, 1.8207, 1.8198,1.8215, 1.8206, 1.8224, 1.8143, 1.8176, 1.8176,1.8176,-0.2141092506176112
MultiSource/Benchmarks/VersaBench/8b10b/8b10b, 3.5874, 3.5986, 3.6075, 3.5982, 3.5987,3.5986, 3.6081, 3.5879, 3.5912, 3.5900, 3.5871,3.59,-0.2389818262657717
SingleSource/Benchmarks/Misc/whetstone, 1.0290, 1.0213, 1.0290, 1.0289, 1.0290,1.029, 1.0214, 1.0265, 1.0291, 1.0214, 1.0291,1.0265,-0.24295432458697475
MultiSource/Benchmarks/TSVC/ControlLoops-dbl/ControlLoops-dbl, 2.5401, 2.5385, 2.5278, 2.5312, 2.5380,2.538, 2.5280, 2.5290, 2.5378, 2.5368, 2.5315,2.5315,-0.2561071710007856
MultiSource/Benchmarks/ASCI_Purple/SMG2000/smg2000, 1.1783, 1.1861, 1.1810, 1.1750, 1.1782,1.1783, 1.1736, 1.1752, 1.1854, 1.1768, 1.1749,1.1752,-0.2630908936603449
SingleSource/Benchmarks/Polybench/datamining/covariance/covariance, 1.6469, 1.6567, 1.6466, 1.6562, 1.6500,1.65, 1.6530, 1.6428, 1.6471, 1.6456, 1.6383,1.6456,-0.2666666666666595
MultiSource/Benchmarks/TSVC/LoopRerolling-dbl/LoopRerolling-dbl, 4.6028, 4.5833, 4.6043, 4.6000, 4.5821,4.6, 4.5838, 4.6087, 4.5929, 4.5839, 4.5877,4.5877,-0.2673913043478193
SingleSource/Benchmarks/Linpack/linpack-pc, 1.2597, 1.2686, 1.2643, 1.2580, 1.2636,1.2636, 1.2584, 1.2601, 1.2602, 1.2599, 1.2604,1.2601,-0.27698638809749987
MultiSource/Benchmarks/TSVC/GlobalDataFlow-flt/GlobalDataFlow-flt, 1.4929, 1.5041, 1.5029, 1.5011, 1.5059,1.5029, 1.4986, 1.4984, 1.4998, 1.4987, 1.5050,1.4987,-0.2794597112249608
MultiSource/Benchmarks/Prolangs-C++/primes/primes, 0.2137, 0.2139, 0.2135, 0.2121, 0.2134,0.2135, 0.2139, 0.2124, 0.2128, 0.2141, 0.2129,0.2129,-0.2810304449648693
MultiSource/Benchmarks/Ptrdist/bc/bc, 0.3598, 0.3604, 0.3599, 0.3600, 0.3598,0.3599, 0.3583, 0.3584, 0.3584, 0.3582, 0.3585,0.3584,-0.41678243956654315
MultiSource/Applications/viterbi/viterbi, 1.2833, 1.2831, 1.2829, 1.2831, 1.2831,1.2831, 1.2812, 1.2776, 1.2780, 1.2777, 1.2773,1.2777,-0.4208557400046664
MultiSource/Benchmarks/Prolangs-C/gnugo/gnugo, 0.0233, 0.0234, 0.0233, 0.0234, 0.0234,0.0234, 0.0233, 0.0233, 0.0234, 0.0233, 0.0234,0.0233,-0.42735042735042583
SingleSource/Benchmarks/Polybench/linear-algebra/kernels/doitgen/doitgen, 0.7973, 0.7904, 0.7921, 0.7964, 0.7954,0.7954, 0.7904, 0.7906, 0.7906, 0.7969, 0.7905,0.7906,-0.6034699522252995
SingleSource/Benchmarks/Shootout-C++/ary2, 0.0151, 0.0150, 0.0150, 0.0151, 0.0151,0.0151, 0.0151, 0.0150, 0.0150, 0.0151, 0.0150,0.015,-0.6622516556291425
SingleSource/Benchmarks/Misc/ReedSolomon, 3.2470, 3.2480, 3.2477, 3.2481, 3.2447,3.2477, 3.1886, 3.1854, 3.1879, 3.1877, 3.1858,3.1877,-1.8474612802906742
SingleSource/Benchmarks/Misc/richards_benchmark, 0.5690, 0.5670, 0.5665, 0.5665, 0.5670,0.567, 0.5316, 0.5321, 0.5322, 0.5318, 0.5325,0.5321,-6.1552028218694765
Total elapsed time,-,-,-,-,-,573.5790000000002,-,-,-,-,-,573.2550000000002,-0.05648742370274462
Total failure,-,-,-,-,-,0,-,-,-,-,-,0,
