Benchmarks,base-4.0,base-4.0,base-4.0,median,noptri64punning,noptri64punning,noptri64punning,median,Slowdown(%)
SingleSource/Benchmarks/Adobe-C++/stepanov_vector, 0.7861, 0.7893, 0.7858,0.7861, 0.8867, 0.8902, 0.8914,0.8902,13.242590001272102
MultiSource/Benchmarks/McCat/18-imp/imp, 0.3266, 0.3291, 0.3267,0.3267, 0.3356, 0.3338, 0.3324,0.3338,2.1732476277930735
SingleSource/Benchmarks/Dhrystone/fldry, 0.0428, 0.0425, 0.0425,0.0425, 0.0430, 0.0427, 0.0430,0.043,1.1764705882352677
MultiSource/Benchmarks/MiBench/telecomm-CRC32/telecomm-CRC32, 0.0347, 0.0347, 0.0348,0.0347, 0.0351, 0.0351, 0.0349,0.0351,1.1527377521613813
MultiSource/Benchmarks/MallocBench/cfrac/cfrac, 0.8692, 0.8660, 0.8640,0.866, 0.8757, 0.8752, 0.8690,0.8752,1.0623556581986104
SingleSource/Benchmarks/BenchmarkGame/partialsums, 0.0300, 0.0300, 0.0299,0.03, 0.0303, 0.0303, 0.0302,0.0303,1.0000000000000009
MultiSource/Benchmarks/nbench/nbench, 1.1712, 1.1721, 1.1664,1.1712, 1.1822, 1.1856, 1.1793,1.1822,0.9392076502732216
MultiSource/Benchmarks/tramp3d-v4/tramp3d-v4,18.0838,18.1082,18.0965,18.0965,18.2320,18.2574,18.2635,18.2574,0.8891222059514314
MultiSource/Benchmarks/FreeBench/mason/mason, 0.0482, 0.0482, 0.0482,0.0482, 0.0485, 0.0486, 0.0487,0.0486,0.8298755186721962
SingleSource/Benchmarks/Shootout-C++/fibo, 0.1140, 0.1142, 0.1140,0.114, 0.1150, 0.1145, 0.1149,0.1149,0.7894736842105177
SingleSource/Benchmarks/Shootout/strcat, 0.0275, 0.0273, 0.0272,0.0273, 0.0275, 0.0275, 0.0274,0.0275,0.73260073260073
MultiSource/Benchmarks/Olden/treeadd/treeadd, 0.0571, 0.0566, 0.0568,0.0568, 0.0571, 0.0572, 0.0573,0.0572,0.7042253521126751
SingleSource/Benchmarks/Shootout/random, 0.0305, 0.0301, 0.0302,0.0302, 0.0304, 0.0304, 0.0301,0.0304,0.6622516556291425
SingleSource/Benchmarks/Misc/matmul_f64_4x4, 0.0308, 0.0307, 0.0307,0.0307, 0.0311, 0.0309, 0.0309,0.0309,0.6514657980456029
SingleSource/Benchmarks/Misc/perlin, 0.0461, 0.0462, 0.0461,0.0461, 0.0464, 0.0464, 0.0462,0.0464,0.6507592190889255
SingleSource/Benchmarks/Stanford/Perm, 0.0310, 0.0309, 0.0309,0.0309, 0.0311, 0.0312, 0.0310,0.0311,0.6472491909385036
SingleSource/Benchmarks/Shootout/methcall, 0.0315, 0.0314, 0.0314,0.0314, 0.0316, 0.0316, 0.0316,0.0316,0.6369426751592577
SingleSource/Benchmarks/Shootout-C++/EH/except, 0.1274, 0.1270, 0.1271,0.1271, 0.1279, 0.1274, 0.1279,0.1279,0.6294256490952277
MultiSource/Benchmarks/TSVC/StatementReordering-dbl/StatementReordering-dbl, 2.0167, 2.0259, 2.0144,2.0167, 2.0292, 2.0271, 2.0319,2.0292,0.6198244657112939
SingleSource/Benchmarks/BenchmarkGame/n-body, 0.0663, 0.0661, 0.0662,0.0662, 0.0665, 0.0666, 0.0667,0.0666,0.6042296072507725
SingleSource/Benchmarks/BenchmarkGame/nsieve-bits, 0.0333, 0.0332, 0.0332,0.0332, 0.0334, 0.0333, 0.0334,0.0334,0.6024096385542022
SingleSource/Benchmarks/Misc-C++-EH/spirit, 3.1146, 3.1105, 3.1079,3.1105, 3.1498, 3.1173, 3.1283,3.1283,0.5722552644269241
SingleSource/Benchmarks/Shootout-C++/methcall, 0.1233, 0.1229, 0.1231,0.1231, 0.1235, 0.1238, 0.1238,0.1238,0.5686433793663515
SingleSource/Benchmarks/Shootout/objinst, 0.0366, 0.0363, 0.0362,0.0363, 0.0364, 0.0365, 0.0366,0.0365,0.5509641873278293
MultiSource/Benchmarks/BitBench/five11/five11, 0.0556, 0.0558, 0.0556,0.0556, 0.0562, 0.0559, 0.0558,0.0559,0.5395683453237377
SingleSource/Benchmarks/Stanford/Quicksort, 0.0376, 0.0375, 0.0375,0.0375, 0.0376, 0.0377, 0.0377,0.0377,0.5333333333333412
MultiSource/Benchmarks/FreeBench/distray/distray, 0.0945, 0.0947, 0.0944,0.0945, 0.0949, 0.0950, 0.0953,0.095,0.5291005291005346
SingleSource/Benchmarks/Shootout-C++/nestedloop, 0.1150, 0.1154, 0.1147,0.115, 0.1160, 0.1156, 0.1154,0.1156,0.521739130434784
SingleSource/Benchmarks/Shootout-C++/sieve, 0.1791, 0.1783, 0.1793,0.1791, 0.1801, 0.1800, 0.1793,0.18,0.5025125628140614
SingleSource/Regression/C/2004-08-12-InlinerAndAllocas, 0.0202, 0.0202, 0.0200,0.0202, 0.0202, 0.0203, 0.0203,0.0203,0.4950495049504955
MultiSource/Benchmarks/Olden/tsp/tsp, 0.1225, 0.1220, 0.1220,0.122, 0.1228, 0.1226, 0.1224,0.1226,0.4918032786885185
MultiSource/Benchmarks/TSVC/LoopRestructuring-dbl/LoopRestructuring-dbl, 2.0942, 2.0974, 2.0976,2.0974, 2.1076, 2.0997, 2.1126,2.1076,0.48631639172309615
MultiSource/Applications/viterbi/viterbi, 0.1653, 0.1645, 0.1647,0.1647, 0.1655, 0.1655, 0.1651,0.1655,0.4857316332726125
SingleSource/Benchmarks/Shootout/fib2, 0.0206, 0.0206, 0.0204,0.0206, 0.0207, 0.0207, 0.0206,0.0207,0.4854368932038833
MultiSource/Benchmarks/TSVC/ControlLoops-flt/ControlLoops-flt, 2.3661, 2.3877, 2.3751,2.3751, 2.3854, 2.3865, 2.3869,2.3865,0.4799797903245917
MultiSource/Benchmarks/BitBench/drop3/drop3, 0.0423, 0.0426, 0.0423,0.0423, 0.0425, 0.0425, 0.0423,0.0425,0.47281323877070847
SingleSource/Benchmarks/Polybench/medley/floyd-warshall/floyd-warshall, 0.0861, 0.0860, 0.0860,0.086, 0.0864, 0.0867, 0.0864,0.0864,0.46511627906977715
MultiSource/Benchmarks/Prolangs-C++/life/life, 0.0657, 0.0654, 0.0653,0.0654, 0.0658, 0.0657, 0.0654,0.0657,0.4587155963302614
SingleSource/Benchmarks/Misc/pi, 0.0220, 0.0219, 0.0218,0.0219, 0.0221, 0.0220, 0.0219,0.022,0.45662100456620447
MultiSource/Benchmarks/SciMark2-C/scimark2, 0.3817, 0.3806, 0.3806,0.3806, 0.3823, 0.3828, 0.3817,0.3823,0.4466631634261642
MultiSource/Benchmarks/McCat/03-testtrie/testtrie, 0.0910, 0.0908, 0.0908,0.0908, 0.0912, 0.0910, 0.0915,0.0912,0.4405286343612369
MultiSource/Benchmarks/McCat/17-bintr/bintr, 0.0689, 0.0689, 0.0690,0.0689, 0.0692, 0.0693, 0.0690,0.0692,0.4354136429608024
SingleSource/Benchmarks/Shootout-C++/ackermann, 0.1160, 0.1153, 0.1156,0.1156, 0.1161, 0.1159, 0.1168,0.1161,0.4325259515570945
SingleSource/Benchmarks/Stanford/Queens, 0.0472, 0.0470, 0.0471,0.0471, 0.0473, 0.0474, 0.0471,0.0473,0.424628450106157
SingleSource/Benchmarks/Misc-C++/mandel-text, 0.0248, 0.0248, 0.0248,0.0248, 0.0251, 0.0249, 0.0247,0.0249,0.40322580645160144
MultiSource/Benchmarks/Prolangs-C++/primes/primes, 0.0248, 0.0249, 0.0247,0.0248, 0.0251, 0.0249, 0.0249,0.0249,0.40322580645160144
SingleSource/Benchmarks/Shootout/matrix, 0.0760, 0.0759, 0.0758,0.0759, 0.0764, 0.0762, 0.0761,0.0762,0.39525691699606735
MultiSource/Benchmarks/Prolangs-C++/city/city, 0.9293, 0.9378, 0.9367,0.9367, 0.9358, 0.9464, 0.9404,0.9404,0.3950037365218373
SingleSource/Benchmarks/BenchmarkGame/fannkuch, 0.0515, 0.0514, 0.0513,0.0514, 0.0516, 0.0516, 0.0516,0.0516,0.3891050583657574
MultiSource/Benchmarks/Olden/perimeter/perimeter, 0.0776, 0.0775, 0.0774,0.0775, 0.0776, 0.0778, 0.0778,0.0778,0.3870967741935516
SingleSource/Benchmarks/Shootout/sieve, 0.0261, 0.0261, 0.0260,0.0261, 0.0263, 0.0262, 0.0262,0.0262,0.3831417624521105
SingleSource/Benchmarks/Misc-C++/bigfib, 0.4227, 0.4212, 0.4209,0.4212, 0.4213, 0.4235, 0.4228,0.4228,0.3798670465337217
MultiSource/Benchmarks/Olden/health/health, 0.1334, 0.1336, 0.1331,0.1334, 0.1342, 0.1339, 0.1339,0.1339,0.37481259370315545
SingleSource/Benchmarks/BenchmarkGame/recursive, 0.0268, 0.0267, 0.0269,0.0268, 0.0269, 0.0269, 0.0268,0.0269,0.3731343283582156
SingleSource/Benchmarks/McGill/misr, 0.0540, 0.0539, 0.0541,0.054, 0.0541, 0.0542, 0.0542,0.0542,0.37037037037037646
SingleSource/Benchmarks/Misc/fbench, 0.0541, 0.0541, 0.0541,0.0541, 0.0544, 0.0543, 0.0542,0.0543,0.3696857670979714
MultiSource/Benchmarks/TSVC/InductionVariable-dbl/InductionVariable-dbl, 2.0954, 2.0964, 2.1017,2.0964, 2.1009, 2.1053, 2.1041,2.1041,0.36729631749665703
SingleSource/Benchmarks/Misc/flops-7, 0.0275, 0.0273, 0.0273,0.0273, 0.0275, 0.0274, 0.0273,0.0274,0.366300366300365
SingleSource/Benchmarks/BenchmarkGame/puzzle, 0.0570, 0.0570, 0.0570,0.057, 0.0572, 0.0572, 0.0571,0.0572,0.35087719298245723
SingleSource/Benchmarks/Misc/flops-5, 0.0286, 0.0286, 0.0287,0.0286, 0.0286, 0.0287, 0.0287,0.0287,0.34965034965035446
SingleSource/Benchmarks/Shootout-C++/matrix, 0.1715, 0.1718, 0.1719,0.1718, 0.1727, 0.1724, 0.1721,0.1724,0.34924330616996624
SingleSource/Benchmarks/CoyoteBench/almabench, 0.0575, 0.0574, 0.0573,0.0574, 0.0576, 0.0579, 0.0575,0.0576,0.34843205574912606
SingleSource/Benchmarks/Polybench/medley/reg_detect/reg_detect, 0.4045, 0.4048, 0.4040,0.4045, 0.4059, 0.4047, 0.4059,0.4059,0.3461063040790968
SingleSource/Benchmarks/Misc/flops-2, 0.0294, 0.0293, 0.0292,0.0293, 0.0294, 0.0295, 0.0294,0.0294,0.34129692832765013
SingleSource/Benchmarks/Polybench/linear-algebra/kernels/syr2k/syr2k, 0.0892, 0.0894, 0.0891,0.0892, 0.0893, 0.0895, 0.0895,0.0895,0.33632286995515237
MultiSource/Benchmarks/ASC_Sequoia/CrystalMk/CrystalMk, 0.2382, 0.2381, 0.2371,0.2381, 0.2389, 0.2388, 0.2390,0.2389,0.33599328013440566
MultiSource/Applications/lua/lua, 3.1066, 3.1046, 3.1068,3.1066, 3.1168, 3.1190, 3.1120,3.1168,0.3283332260348937
SingleSource/Benchmarks/Shootout-C++/strcat, 0.1231, 0.1229, 0.1240,0.1231, 0.1246, 0.1235, 0.1235,0.1235,0.32493907392363575
SingleSource/Benchmarks/Shootout-C++/ary3, 0.1587, 0.1589, 0.1591,0.1589, 0.1595, 0.1594, 0.1593,0.1594,0.314663310258001
SingleSource/Benchmarks/Misc/mandel-2, 0.0319, 0.0318, 0.0318,0.0318, 0.0320, 0.0319, 0.0319,0.0319,0.3144654088050203
SingleSource/Benchmarks/Misc/fp-convert, 0.0328, 0.0329, 0.0326,0.0328, 0.0329, 0.0329, 0.0328,0.0329,0.304878048780477
MultiSource/Benchmarks/DOE-ProxyApps-C/XSBench/XSBench, 0.3312, 0.3305, 0.3305,0.3305, 0.3315, 0.3315, 0.3319,0.3315,0.302571860816947
SingleSource/Benchmarks/Polybench/datamining/covariance/covariance, 0.1010, 0.1008, 0.1009,0.1009, 0.1011, 0.1012, 0.1012,0.1012,0.29732408325073845
SingleSource/Benchmarks/Misc/whetstone, 0.0682, 0.0679, 0.0680,0.068, 0.0680, 0.0683, 0.0682,0.0682,0.2941176470588225
MultiSource/Benchmarks/TSVC/Packing-flt/Packing-flt, 2.2650, 2.2665, 2.2763,2.2665, 2.2730, 2.2788, 2.2697,2.273,0.2867857930730189
SingleSource/Benchmarks/Polybench/linear-algebra/kernels/trisolv/trisolv, 0.0701, 0.0698, 0.0698,0.0698, 0.0702, 0.0700, 0.0700,0.07,0.2865329512893977
MultiSource/Benchmarks/TSVC/Equivalencing-dbl/Equivalencing-dbl, 2.0787, 2.0849, 2.0807,2.0807, 2.0798, 2.0866, 2.0939,2.0866,0.28355841784013514
SingleSource/Benchmarks/Misc-C++/Large/sphereflake, 0.2124, 0.2115, 0.2117,0.2117, 0.2128, 0.2122, 0.2123,0.2123,0.28341993386866715
MultiSource/Benchmarks/FreeBench/neural/neural, 0.1763, 0.1768, 0.1766,0.1766, 0.1773, 0.1771, 0.1768,0.1771,0.28312570781428015
MultiSource/Benchmarks/TSVC/IndirectAddressing-flt/IndirectAddressing-flt, 2.3074, 2.3025, 2.3041,2.3041, 2.3107, 2.3099, 2.3106,2.3106,0.282105811379707
MultiSource/Benchmarks/NPB-serial/is/is, 0.0717, 0.0718, 0.0718,0.0718, 0.0722, 0.0720, 0.0719,0.072,0.278551532033422
SingleSource/Benchmarks/Misc/mandel, 0.0372, 0.0367, 0.0369,0.0369, 0.0368, 0.0370, 0.0370,0.037,0.27100271002709064
SingleSource/Benchmarks/Stanford/Treesort, 0.0381, 0.0381, 0.0379,0.0381, 0.0382, 0.0381, 0.0383,0.0382,0.2624671916010346
SingleSource/Benchmarks/Stanford/Puzzle, 0.1197, 0.1193, 0.1195,0.1195, 0.1200, 0.1198, 0.1196,0.1198,0.2510460251046176
SingleSource/Benchmarks/Shootout/heapsort, 0.0405, 0.0405, 0.0404,0.0405, 0.0406, 0.0407, 0.0405,0.0406,0.24691358024691024
SingleSource/Benchmarks/Shootout-C++/objinst, 0.1277, 0.1276, 0.1272,0.1276, 0.1279, 0.1287, 0.1274,0.1279,0.23510971786835366
SingleSource/Benchmarks/Polybench/linear-algebra/kernels/symm/symm, 0.0865, 0.0868, 0.0866,0.0866, 0.0868, 0.0868, 0.0869,0.0868,0.23094688221709792
SingleSource/Benchmarks/Shootout-C++/heapsort, 0.1319, 0.1320, 0.1321,0.132, 0.1322, 0.1323, 0.1329,0.1323,0.2272727272727204
SingleSource/Benchmarks/Misc/himenobmtxpa, 0.2360, 0.2363, 0.2367,0.2363, 0.2372, 0.2367, 0.2368,0.2368,0.21159542953872457
MultiSource/Benchmarks/Prolangs-C/agrep/agrep, 1.3383, 1.3368, 1.3368,1.3368, 1.3389, 1.3396, 1.3402,1.3396,0.2094554159186135
MultiSource/Benchmarks/ASCI_Purple/SMG2000/smg2000, 6.2250, 6.2221, 6.2307,6.225, 6.2591, 6.2285, 6.2380,6.238,0.20883534136546533
SingleSource/Benchmarks/Adobe-C++/functionobjects, 0.4392, 0.4382, 0.4379,0.4382, 0.4384, 0.4397, 0.4391,0.4391,0.2053856686444533
MultiSource/Benchmarks/FreeBench/pcompress2/pcompress2, 0.2442, 0.2442, 0.2446,0.2442, 0.2447, 0.2444, 0.2447,0.2447,0.20475020475021477
SingleSource/Benchmarks/Shootout/hash, 0.0500, 0.0498, 0.0501,0.05, 0.0500, 0.0503, 0.0501,0.0501,0.20000000000000018
MultiSource/Benchmarks/Trimaran/enc-rc4/enc-rc4, 0.0519, 0.0517, 0.0516,0.0517, 0.0522, 0.0518, 0.0518,0.0518,0.19342359767891004
SingleSource/Benchmarks/Shootout-C++/lists, 0.1590, 0.1572, 0.1579,0.1579, 0.1582, 0.1584, 0.1576,0.1582,0.18999366687777464
SingleSource/Benchmarks/Polybench/linear-algebra/solvers/durbin/durbin, 0.1084, 0.1081, 0.1080,0.1081, 0.1081, 0.1083, 0.1086,0.1083,0.18501387604068498
MultiSource/Benchmarks/Trimaran/enc-md5/enc-md5, 0.1631, 0.1631, 0.1628,0.1631, 0.1634, 0.1631, 0.1635,0.1634,0.18393623543837556
SingleSource/Benchmarks/Polybench/linear-algebra/kernels/cholesky/cholesky, 0.1105, 0.1106, 0.1104,0.1105, 0.1106, 0.1110, 0.1107,0.1107,0.18099547511312153
MultiSource/Benchmarks/Olden/voronoi/voronoi, 0.2308, 0.2303, 0.2311,0.2308, 0.2307, 0.2312, 0.2313,0.2312,0.17331022530329143
MultiSource/Applications/hexxagon/hexxagon, 0.7055, 0.7016, 0.7026,0.7026, 0.7031, 0.7038, 0.7039,0.7038,0.1707941929974366
MultiSource/Benchmarks/Olden/bisort/bisort, 0.0633, 0.0633, 0.0631,0.0633, 0.0637, 0.0634, 0.0634,0.0634,0.15797788309637184
MultiSource/Benchmarks/TSVC/ControlFlow-dbl/ControlFlow-dbl, 2.2406, 2.2399, 2.2359,2.2399, 2.2431, 2.2412, 2.2488,2.2431,0.14286352069288188
SingleSource/Benchmarks/Misc/ffbench, 0.0718, 0.0719, 0.0717,0.0718, 0.0721, 0.0719, 0.0719,0.0719,0.139275766016711
MultiSource/Benchmarks/MallocBench/gs/gs, 3.6483, 3.6442, 3.6404,3.6442, 3.6490, 3.6504, 3.6488,3.649,0.13171615169309536
SingleSource/Benchmarks/Shootout-C++/ary, 0.1551, 0.1548, 0.1553,0.1551, 0.1553, 0.1555, 0.1547,0.1553,0.12894906511928816
MultiSource/Benchmarks/MiBench/telecomm-gsm/telecomm-gsm, 1.1770, 1.1753, 1.1736,1.1753, 1.1763, 1.1768, 1.1779,1.1768,0.12762698885391277
SingleSource/Benchmarks/Polybench/linear-algebra/kernels/trmm/trmm, 0.0847, 0.0846, 0.0848,0.0847, 0.0848, 0.0849, 0.0848,0.0848,0.11806375442739991
SingleSource/Benchmarks/CoyoteBench/huffbench, 0.0890, 0.0888, 0.0887,0.0888, 0.0889, 0.0890, 0.0889,0.0889,0.11261261261261701
MultiSource/Benchmarks/TSVC/Reductions-flt/Reductions-flt, 2.3866, 2.3883, 2.3857,2.3866, 2.3857, 2.3892, 2.3968,2.3892,0.10894159054721797
SingleSource/Benchmarks/Polybench/stencils/jacobi-1d-imper/jacobi-1d-imper, 0.0920, 0.0918, 0.0917,0.0918, 0.0922, 0.0919, 0.0919,0.0919,0.10893246187362315
SingleSource/Benchmarks/SmallPT/smallpt, 0.0955, 0.0955, 0.0957,0.0955, 0.0956, 0.0956, 0.0956,0.0956,0.10471204188482464
MultiSource/Benchmarks/FreeBench/pifft/pifft, 1.0533, 1.0531, 1.0553,1.0533, 1.0544, 1.0541, 1.0563,1.0544,0.10443368461028335
SingleSource/Benchmarks/Misc/ReedSolomon, 0.2009, 0.2007, 0.2006,0.2007, 0.2005, 0.2009, 0.2009,0.2009,0.09965122072745913
MultiSource/Benchmarks/Trimaran/netbench-url/netbench-url, 0.2082, 0.2083, 0.2077,0.2082, 0.2085, 0.2084, 0.2082,0.2084,0.09606147934677622
SingleSource/Benchmarks/Polybench/linear-algebra/solvers/lu/lu, 0.1051, 0.1054, 0.1047,0.1051, 0.1053, 0.1052, 0.1050,0.1052,0.09514747859182826
MultiSource/Benchmarks/7zip/7zip-benchmark,33.2063,33.2004,33.1872,33.2004,33.2319,33.2449,33.2311,33.2319,0.0948783749593396
MultiSource/Applications/hbd/hbd, 1.1990, 1.1952, 1.1952,1.1952, 1.1972, 1.1962, 1.1963,1.1963,0.09203480589021762
MultiSource/Benchmarks/Bullet/bullet,22.3211,22.2956,22.3115,22.3115,22.3488,22.3314,22.3283,22.3314,0.08919167245591275
MultiSource/Benchmarks/TSVC/Searching-dbl/Searching-dbl, 2.0074, 1.9996, 2.0059,2.0059, 2.0076, 2.0082, 1.9932,2.0076,0.08474998753675855
SingleSource/Benchmarks/Shootout-C++/random, 0.1247, 0.1245, 0.1240,0.1245, 0.1249, 0.1246, 0.1242,0.1246,0.08032128514057213
SingleSource/Benchmarks/Polybench/linear-algebra/solvers/gramschmidt/gramschmidt, 0.1284, 0.1283, 0.1283,0.1283, 0.1284, 0.1287, 0.1284,0.1284,0.0779423226812126
MultiSource/Benchmarks/TSVC/Equivalencing-flt/Equivalencing-flt, 2.3253, 2.3547, 2.3335,2.3335, 2.3352, 2.3328, 2.3400,2.3352,0.07285193914721155
MultiSource/Benchmarks/TSVC/Symbolics-flt/Symbolics-flt, 2.3251, 2.3370, 2.3271,2.3271, 2.3389, 2.3287, 2.3267,2.3287,0.06875510291779463
MultiSource/Benchmarks/Fhourstones/fhourstones, 0.1650, 0.1650, 0.1648,0.165, 0.1651, 0.1651, 0.1653,0.1651,0.060606060606049894
SingleSource/Benchmarks/Misc-C++/stepanov_v1p2, 0.1704, 0.1703, 0.1714,0.1704, 0.1702, 0.1705, 0.1706,0.1705,0.058685446009398845
MultiSource/Benchmarks/Prolangs-C/gnugo/gnugo, 0.6956, 0.6935, 0.6930,0.6935, 0.6939, 0.6930, 0.6987,0.6939,0.05767844268205202
MultiSource/Benchmarks/TSVC/IndirectAddressing-dbl/IndirectAddressing-dbl, 2.0543, 2.0623, 2.0640,2.0623, 2.0633, 2.0695, 2.0624,2.0633,0.04848955050185122
SingleSource/Benchmarks/Misc/oourafft, 0.2367, 0.2378, 0.2369,0.2369, 0.2373, 0.2370, 0.2367,0.237,0.042211903756861346
SingleSource/Benchmarks/Shootout-C++/hash, 0.2572, 0.2568, 0.2577,0.2572, 0.2565, 0.2573, 0.2577,0.2573,0.038880248833583764
MultiSource/Benchmarks/TSVC/Expansion-flt/Expansion-flt, 2.3839, 2.3907, 2.3687,2.3839, 2.3848, 2.3844, 2.3853,2.3848,0.03775326146229219
SingleSource/Benchmarks/Adobe-C++/simple_types_loop_invariant, 1.8095, 1.8078, 1.8069,1.8078, 1.8084, 1.8088, 1.8059,1.8084,0.033189512114173425
MultiSource/Benchmarks/TSVC/LinearDependence-dbl/LinearDependence-dbl, 2.1679, 2.1721, 2.1698,2.1698, 2.1729, 2.1684, 2.1704,2.1704,0.027652318186000002
MultiSource/Benchmarks/MiBench/consumer-lame/consumer-lame, 3.8785, 3.8838, 3.8758,3.8785, 3.8795, 3.8781, 3.8822,3.8795,0.02578316359418409
SingleSource/Benchmarks/Adobe-C++/loop_unroll, 4.6956, 4.6992, 4.7009,4.6992, 4.6989, 4.7069, 4.7004,4.7004,0.025536261491310164
MultiSource/Benchmarks/MallocBench/espresso/espresso, 4.7814, 4.7839, 4.7783,4.7814, 4.7826, 4.7708, 4.7876,4.7826,0.025097251850936253
MultiSource/Benchmarks/TSVC/InductionVariable-flt/InductionVariable-flt, 2.3473, 2.3491, 2.3494,2.3491, 2.3495, 2.3486, 2.3499,2.3495,0.017027797880042606
MultiSource/Applications/oggenc/oggenc, 4.7587, 4.7675, 4.7600,4.76, 4.7608, 4.7572, 4.7675,4.7608,0.01680672268906669
MultiSource/Benchmarks/TSVC/LoopRestructuring-flt/LoopRestructuring-flt, 2.3493, 2.3518, 2.3524,2.3518, 2.3644, 2.3521, 2.3501,2.3521,0.01275618675058432
SingleSource/Benchmarks/Stanford/RealMM, 0.0440, 0.0439, 0.0440,0.044, 0.0441, 0.0440, 0.0439,0.044,0.0
SingleSource/Benchmarks/Stanford/FloatMM, 0.0447, 0.0445, 0.0446,0.0446, 0.0447, 0.0446, 0.0445,0.0446,0.0
SingleSource/Benchmarks/Stanford/Bubblesort, 0.0361, 0.0361, 0.0360,0.0361, 0.0362, 0.0361, 0.0361,0.0361,0.0
SingleSource/Benchmarks/Shootout/nestedloop, 0.0249, 0.0247, 0.0248,0.0248, 0.0248, 0.0248, 0.0247,0.0248,0.0
SingleSource/Benchmarks/Shootout/ary3, 0.0353, 0.0353, 0.0353,0.0353, 0.0353, 0.0354, 0.0353,0.0353,0.0
SingleSource/Benchmarks/Polybench/stencils/seidel-2d/seidel-2d, 0.0772, 0.0776, 0.0776,0.0776, 0.0776, 0.0774, 0.0776,0.0776,0.0
SingleSource/Benchmarks/Polybench/stencils/jacobi-2d-imper/jacobi-2d-imper, 0.1274, 0.1272, 0.1276,0.1274, 0.1276, 0.1271, 0.1274,0.1274,0.0
SingleSource/Benchmarks/Polybench/stencils/fdtd-2d/fdtd-2d, 0.1700, 0.1700, 0.1700,0.17, 0.1704, 0.1700, 0.1698,0.17,0.0
SingleSource/Benchmarks/Polybench/stencils/adi/adi, 0.1050, 0.1051, 0.1054,0.1051, 0.1051, 0.1051, 0.1053,0.1051,0.0
SingleSource/Benchmarks/Polybench/linear-algebra/solvers/dynprog/dynprog, 0.0854, 0.0853, 0.0855,0.0854, 0.0855, 0.0854, 0.0854,0.0854,0.0
SingleSource/Benchmarks/Polybench/linear-algebra/kernels/mvt/mvt, 0.0908, 0.0907, 0.0909,0.0908, 0.0908, 0.0909, 0.0908,0.0908,0.0
SingleSource/Benchmarks/Polybench/linear-algebra/kernels/gesummv/gesummv, 0.0712, 0.0713, 0.0713,0.0713, 0.0711, 0.0714, 0.0713,0.0713,0.0
SingleSource/Benchmarks/Polybench/linear-algebra/kernels/doitgen/doitgen, 0.1062, 0.1066, 0.1066,0.1066, 0.1066, 0.1066, 0.1065,0.1066,0.0
SingleSource/Benchmarks/Polybench/linear-algebra/kernels/bicg/bicg, 0.0859, 0.0856, 0.0857,0.0857, 0.0858, 0.0856, 0.0857,0.0857,0.0
SingleSource/Benchmarks/Polybench/linear-algebra/kernels/atax/atax, 0.0899, 0.0898, 0.0896,0.0898, 0.0898, 0.0898, 0.0897,0.0898,0.0
SingleSource/Benchmarks/Polybench/datamining/correlation/correlation, 0.0851, 0.0853, 0.0847,0.0851, 0.0851, 0.0852, 0.0851,0.0851,0.0
SingleSource/Benchmarks/Misc/salsa20, 0.0492, 0.0490, 0.0491,0.0491, 0.0491, 0.0493, 0.0490,0.0491,0.0
SingleSource/Benchmarks/Misc/richards_benchmark, 0.0600, 0.0600, 0.0599,0.06, 0.0599, 0.0602, 0.0600,0.06,0.0
SingleSource/Benchmarks/Misc/lowercase, 0.0259, 0.0257, 0.0258,0.0258, 0.0258, 0.0259, 0.0258,0.0258,0.0
SingleSource/Benchmarks/Misc/flops-3, 0.0275, 0.0275, 0.0274,0.0275, 0.0275, 0.0275, 0.0275,0.0275,0.0
SingleSource/Benchmarks/Misc/flops, 0.0759, 0.0756, 0.0760,0.0759, 0.0759, 0.0760, 0.0759,0.0759,0.0
SingleSource/Benchmarks/McGill/queens, 0.0440, 0.0439, 0.0439,0.0439, 0.0438, 0.0440, 0.0439,0.0439,0.0
SingleSource/Benchmarks/BenchmarkGame/spectral-norm, 0.0582, 0.0581, 0.0580,0.0581, 0.0581, 0.0582, 0.0581,0.0581,0.0
SingleSource/Benchmarks/BenchmarkGame/Large/fasta, 0.0438, 0.0438, 0.0437,0.0438, 0.0440, 0.0438, 0.0438,0.0438,0.0
MultiSource/Benchmarks/MiBench/network-patricia/network-patricia, 0.0776, 0.0771, 0.0774,0.0774, 0.0774, 0.0777, 0.0771,0.0774,0.0
MultiSource/Benchmarks/MiBench/network-dijkstra/network-dijkstra, 0.0432, 0.0433, 0.0431,0.0432, 0.0431, 0.0434, 0.0432,0.0432,0.0
MultiSource/Benchmarks/MiBench/automotive-basicmath/automotive-basicmath, 0.1363, 0.1365, 0.1362,0.1363, 0.1363, 0.1364, 0.1363,0.1363,0.0
MultiSource/Benchmarks/McCat/04-bisect/bisect, 0.1307, 0.1310, 0.1311,0.131, 0.1311, 0.1310, 0.1309,0.131,0.0
MultiSource/Benchmarks/FreeBench/fourinarow/fourinarow, 0.2837, 0.2850, 0.2852,0.285, 0.2850, 0.2844, 0.2853,0.285,0.0
MultiSource/Benchmarks/BitBench/uuencode/uuencode, 0.0438, 0.0439, 0.0440,0.0439, 0.0440, 0.0437, 0.0439,0.0439,0.0
MultiSource/Benchmarks/BitBench/uudecode/uudecode, 0.0451, 0.0449, 0.0451,0.0451, 0.0451, 0.0453, 0.0451,0.0451,0.0
MultiSource/Applications/ALAC/decode/alacconvert-decode, 1.0087, 1.0092, 1.0093,1.0092, 1.0099, 1.0091, 1.0084,1.0091,-0.00990883868410286
MultiSource/Applications/SPASS/SPASS,11.7592,11.7352,11.7463,11.7463,11.7126,11.7439,11.7445,11.7439,-0.02043196581050788
MultiSource/Benchmarks/mediabench/jpeg/jpeg-6a/cjpeg, 4.2128, 4.1989, 4.1885,4.1989, 4.2015, 4.1975, 4.1856,4.1975,-0.03334206577914056
MultiSource/Benchmarks/TSVC/CrossingThresholds-flt/CrossingThresholds-flt, 2.3291, 2.3193, 2.3381,2.3291, 2.3392, 2.3122, 2.3283,2.3283,-0.03434803142844389
MultiSource/Benchmarks/Olden/bh/bh, 0.2560, 0.2560, 0.2567,0.256, 0.2556, 0.2559, 0.2562,0.2559,-0.03906249999999778
SingleSource/Benchmarks/Shootout-C++/moments, 0.2396, 0.2382, 0.2395,0.2395, 0.2394, 0.2387, 0.2402,0.2394,-0.041753653444676075
MultiSource/Applications/ALAC/encode/alacconvert-encode, 1.0101, 1.0091, 1.0165,1.0101, 1.0096, 1.0102, 1.0092,1.0096,-0.04950004950003972
MultiSource/Benchmarks/MiBench/consumer-jpeg/consumer-jpeg, 4.1557, 4.1604, 4.1515,4.1557, 4.1532, 4.1627, 4.1469,4.1532,-0.06015833674231086
SingleSource/Benchmarks/Shootout-C++/ary2, 0.1620, 0.1613, 0.1619,0.1619, 0.1624, 0.1618, 0.1617,0.1618,-0.06176652254477055
MultiSource/Applications/JM/ldecod/ldecod, 6.0250, 6.0303, 6.0469,6.0303, 6.0320, 6.0264, 6.0223,6.0264,-0.06467339933338145
MultiSource/Applications/sgefa/sgefa, 0.4281, 0.4283, 0.4269,0.4281, 0.4286, 0.4275, 0.4278,0.4278,-0.07007708479326302
MultiSource/Benchmarks/McCat/05-eks/eks, 0.5649, 0.5665, 0.5679,0.5665, 0.5616, 0.5684, 0.5661,0.5661,-0.07060900264782566
MultiSource/Benchmarks/Prolangs-C/bison/mybison, 1.6202, 1.6182, 1.6170,1.6182, 1.6161, 1.6170, 1.6192,1.617,-0.07415647015203142
MultiSource/Applications/JM/lencod/lencod,13.3988,13.3810,13.3820,13.382,13.3642,13.3702,13.3766,13.3702,-0.08817814975339289
MultiSource/Benchmarks/TSVC/Expansion-dbl/Expansion-dbl, 2.1300, 2.1415, 2.1386,2.1386, 2.1365, 2.1390, 2.1366,2.1366,-0.093519124660979
MultiSource/Benchmarks/TSVC/ControlLoops-dbl/ControlLoops-dbl, 2.1319, 2.1371, 2.1434,2.1371, 2.1345, 2.1374, 2.1351,2.1351,-0.09358476440036734
MultiSource/Benchmarks/Ptrdist/bc/bc, 1.0233, 1.0207, 1.0223,1.0223, 1.0217, 1.0213, 1.0204,1.0213,-0.09781864423358266
MultiSource/Benchmarks/TSVC/Recurrences-dbl/Recurrences-dbl, 2.0215, 2.0220, 2.0202,2.0215, 2.0206, 2.0008, 2.0194,2.0194,-0.10388325500865214
MultiSource/Benchmarks/TSVC/Reductions-dbl/Reductions-dbl, 2.1401, 2.1402, 2.1428,2.1402, 2.1294, 2.1378, 2.1416,2.1378,-0.11213905242501987
MultiSource/Benchmarks/TSVC/GlobalDataFlow-dbl/GlobalDataFlow-dbl, 2.1250, 2.1262, 2.1297,2.1262, 2.1244, 2.1198, 2.1238,2.1238,-0.11287743391965588
MultiSource/Benchmarks/TSVC/Searching-flt/Searching-flt, 2.2550, 2.2516, 2.2639,2.255, 2.2603, 2.2507, 2.2523,2.2523,-0.11973392461197552
SingleSource/Benchmarks/Polybench/stencils/fdtd-apml/fdtd-apml, 0.1504, 0.1500, 0.1498,0.15, 0.1496, 0.1498, 0.1499,0.1498,-0.13333333333334085
MultiSource/Applications/ClamAV/clamscan,12.5677,12.5320,12.5490,12.549,12.5244,12.5319,12.5439,12.5319,-0.1362658379153614
SingleSource/Benchmarks/Adobe-C++/simple_types_constant_folding, 2.3565, 2.3558, 2.3553,2.3558, 2.3504, 2.3525, 2.3553,2.3525,-0.14007980303930578
SingleSource/Benchmarks/Stanford/Oscar, 0.0668, 0.0668, 0.0667,0.0668, 0.0667, 0.0668, 0.0665,0.0667,-0.14970059880240472
MultiSource/Benchmarks/mafft/pairlocalalign, 9.4433, 9.4578, 9.4599,9.4578, 9.4246, 9.4434, 9.4564,9.4434,-0.1522552813550737
SingleSource/Benchmarks/Shootout-C++/lists1, 0.1905, 0.1894, 0.1902,0.1902, 0.1904, 0.1899, 0.1899,0.1899,-0.1577287066246047
MultiSource/Benchmarks/FreeBench/analyzer/analyzer, 0.2436, 0.2435, 0.2421,0.2435, 0.2434, 0.2431, 0.2429,0.2431,-0.1642710472279152
MultiSource/Benchmarks/mediabench/mpeg2/mpeg2dec/mpeg2decode, 1.3116, 1.3117, 1.3080,1.3116, 1.3095, 1.3093, 1.3082,1.3093,-0.17535834095762093
SingleSource/Benchmarks/Polybench/linear-algebra/kernels/gemver/gemver, 0.1087, 0.1082, 0.1081,0.1082, 0.1080, 0.1083, 0.1080,0.108,-0.1848428835489857
MultiSource/Applications/lambda-0.1.3/lambda, 0.5117, 0.5099, 0.5092,0.5099, 0.5089, 0.5095, 0.5087,0.5089,-0.1961168856638551
MultiSource/Benchmarks/Prolangs-C++/simul/simul, 0.0506, 0.0502, 0.0504,0.0504, 0.0501, 0.0504, 0.0503,0.0503,-0.1984126984127088
MultiSource/Benchmarks/MiBench/telecomm-FFT/telecomm-fft, 0.1444, 0.1442, 0.1436,0.1442, 0.1439, 0.1443, 0.1438,0.1439,-0.20804438280166426
SingleSource/Benchmarks/Polybench/linear-algebra/kernels/syrk/syrk, 0.0887, 0.0887, 0.0885,0.0887, 0.0885, 0.0886, 0.0884,0.0885,-0.22547914317926354
SingleSource/Benchmarks/Adobe-C++/stepanov_abstraction, 0.6012, 0.6014, 0.6012,0.6012, 0.5998, 0.6013, 0.5984,0.5998,-0.23286759813705427
SingleSource/Benchmarks/Stanford/Towers, 0.0415, 0.0413, 0.0415,0.0415, 0.0416, 0.0413, 0.0414,0.0414,-0.24096385542169418
MultiSource/Benchmarks/TSVC/GlobalDataFlow-flt/GlobalDataFlow-flt, 2.3786, 2.3778, 2.3848,2.3786, 2.3756, 2.3725, 2.3726,2.3726,-0.25224922223157087
MultiSource/Applications/kimwitu++/kc,10.2422,10.2024,10.1942,10.2024,10.1757,10.2045,10.1595,10.1757,-0.2617031286756055
MultiSource/Benchmarks/TSVC/NodeSplitting-dbl/NodeSplitting-dbl, 2.0661, 2.0670, 2.0690,2.067, 2.0645, 2.0610, 2.0596,2.061,-0.2902757619738905
SingleSource/Benchmarks/Misc/dt, 0.0343, 0.0343, 0.0340,0.0343, 0.0342, 0.0341, 0.0342,0.0342,-0.2915451895043608
MultiSource/Benchmarks/TSVC/Symbolics-dbl/Symbolics-dbl, 2.0832, 2.0905, 2.0775,2.0832, 2.0798, 2.0754, 2.0767,2.0767,-0.3120199692780323
SingleSource/Benchmarks/McGill/chomp, 0.1912, 0.1915, 0.1916,0.1915, 0.1909, 0.1913, 0.1906,0.1909,-0.3133159268929542
MultiSource/Benchmarks/TSVC/CrossingThresholds-dbl/CrossingThresholds-dbl, 2.0904, 2.0876, 2.0892,2.0892, 2.0852, 2.0826, 2.0809,2.0826,-0.31591039632395956
SingleSource/Benchmarks/CoyoteBench/lpbench, 0.1898, 0.1893, 0.1894,0.1894, 0.1887, 0.1895, 0.1888,0.1888,-0.31678986272439813
MultiSource/Benchmarks/TSVC/StatementReordering-flt/StatementReordering-flt, 2.2646, 2.2839, 2.2816,2.2816, 2.2785, 2.2738, 2.2742,2.2742,-0.3243338008415142
MultiSource/Benchmarks/sim/sim, 0.2945, 0.2939, 0.2936,0.2939, 0.2927, 0.2929, 0.2942,0.2929,-0.3402517863218768
MultiSource/Benchmarks/Ptrdist/ks/ks, 0.1401, 0.1395, 0.1391,0.1395, 0.1391, 0.1390, 0.1389,0.139,-0.35842293906810374
MultiSource/Benchmarks/TSVC/Packing-dbl/Packing-dbl, 2.0233, 2.0390, 2.0274,2.0274, 2.0294, 2.0201, 2.0194,2.0201,-0.36006708099044493
MultiSource/Benchmarks/Ptrdist/yacr2/yacr2, 0.6237, 0.6244, 0.6219,0.6237, 0.6211, 0.6214, 0.6224,0.6214,-0.3687670354337147
MultiSource/Benchmarks/Olden/mst/mst, 0.1327, 0.1323, 0.1324,0.1324, 0.1314, 0.1319, 0.1321,0.1319,-0.3776435045317217
MultiSource/Benchmarks/llubenchmark/llu, 0.0512, 0.0512, 0.0511,0.0512, 0.0512, 0.0510, 0.0510,0.051,-0.3906250000000111
SingleSource/Benchmarks/Shootout/ackermann, 0.0239, 0.0237, 0.0239,0.0239, 0.0239, 0.0238, 0.0238,0.0238,-0.4184100418409997
MultiSource/Benchmarks/PAQ8p/paq8p, 2.0629, 2.0731, 2.0718,2.0718, 2.0607, 2.0613, 2.0661,2.0613,-0.5068056762235762
SingleSource/Benchmarks/Shootout/lists, 0.0737, 0.0736, 0.0734,0.0736, 0.0732, 0.0733, 0.0732,0.0732,-0.5434782608695565
MultiSource/Benchmarks/Ptrdist/anagram/anagram, 0.0861, 0.0862, 0.0857,0.0861, 0.0854, 0.0856, 0.0862,0.0856,-0.5807200929152101
MultiSource/Benchmarks/MiBench/consumer-typeset/consumer-typeset, 9.8322, 9.8399, 9.8275,9.8322, 9.7705, 9.7660, 9.7750,9.7705,-0.6275299526047107
MultiSource/Applications/spiff/spiff, 0.7555, 0.7538, 0.7495,0.7538, 0.7527, 0.7484, 0.7429,0.7484,-0.7163703900238905
MultiSource/Applications/siod/siod, 1.8178, 1.8224, 1.8233,1.8224, 1.8087, 1.8171, 1.8070,1.8087,-0.7517559262510964
MultiSource/Applications/sqlite3/sqlite3,12.7539,12.7055,12.6704,12.7055,12.5301,12.5554,12.5734,12.5554,-1.1813781433237636
MultiSource/Benchmarks/McCat/09-vor/vor, 0.2702, 0.2691, 0.2696,0.2696, 0.2659, 0.2662, 0.2661,0.2661,-1.2982195845697375
Total elapsed time,-,-,-,341.42379999999986,-,-,-,341.5156000000003,0.026887405037512302
Total failure,-,-,-,0,-,-,-,0,
