Benchmarks,base-4.0,base-4.0,base-4.0,median,restrict-pcmp,restrict-pcmp,restrict-pcmp,median,Slowdown(%)
SingleSource/Benchmarks/Adobe-C++/functionobjects, 0.4383, 0.4410, 0.4387,0.4387, 0.4605, 0.4590, 0.4581,0.459,4.627307955322557
MultiSource/Benchmarks/ASC_Sequoia/IRSmk/IRSmk, 0.1084, 0.1085, 0.1097,0.1085, 0.1084, 0.1134, 0.1136,0.1134,4.516129032258065
SingleSource/Benchmarks/Misc-C++/oopack_v1p8, 0.1333, 0.1392, 0.1337,0.1337, 0.1382, 0.1384, 0.1352,0.1382,3.3657442034405127
MultiSource/Benchmarks/VersaBench/ecbdes/ecbdes, 0.2236, 0.2326, 0.2305,0.2305, 0.2379, 0.2362, 0.2392,0.2379,3.210412147505415
MultiSource/Benchmarks/McCat/09-vor/vor, 0.2697, 0.2701, 0.2708,0.2701, 0.2784, 0.2788, 0.2786,0.2786,3.1469825990374067
MultiSource/Applications/lambda-0.1.3/lambda, 0.5102, 0.5097, 0.5097,0.5097, 0.5201, 0.5182, 0.5187,0.5187,1.7657445556209517
MultiSource/Applications/spiff/spiff, 0.7495, 0.7549, 0.7474,0.7495, 0.7914, 0.7626, 0.7517,0.7626,1.7478318879252663
SingleSource/Benchmarks/Misc-C++/bigfib, 0.4222, 0.4219, 0.4216,0.4219, 0.4327, 0.4290, 0.4257,0.429,1.6828632377340558
MultiSource/Benchmarks/VersaBench/dbms/dbms, 1.0126, 1.0267, 1.0497,1.0267, 1.0606, 1.0429, 1.0380,1.0429,1.5778708483490833
MultiSource/Benchmarks/Ptrdist/ft/ft, 0.2063, 0.2152, 0.2106,0.2106, 0.2139, 0.2165, 0.2133,0.2139,1.5669515669515688
MultiSource/Applications/siod/siod, 1.8102, 1.8094, 1.8103,1.8102, 1.8383, 1.8339, 1.8254,1.8339,1.3092475969506134
MultiSource/Benchmarks/Olden/tsp/tsp, 0.1225, 0.1224, 0.1227,0.1225, 0.1300, 0.1241, 0.1238,0.1241,1.3061224489795853
MultiSource/Benchmarks/ASC_Sequoia/AMGmk/AMGmk, 0.6116, 0.6087, 0.6212,0.6116, 0.6195, 0.6069, 0.6218,0.6195,1.2916939175932063
SingleSource/Benchmarks/Shootout/hash, 0.0499, 0.0499, 0.0501,0.0499, 0.0505, 0.0504, 0.0505,0.0505,1.2024048096192397
MultiSource/Applications/kimwitu++/kc,10.3083,10.2084,10.2153,10.2153,10.2666,10.3306,10.3480,10.3306,1.1286991082004594
MultiSource/Benchmarks/VersaBench/beamformer/beamformer, 0.2070, 0.2034, 0.2122,0.207, 0.2092, 0.2121, 0.2093,0.2093,1.1111111111111294
MultiSource/Benchmarks/Olden/voronoi/voronoi, 0.2306, 0.2308, 0.2309,0.2308, 0.2335, 0.2331, 0.2325,0.2331,0.9965337954939368
MultiSource/Benchmarks/Prolangs-C/bison/mybison, 1.6218, 1.6200, 1.6197,1.62, 1.6374, 1.6360, 1.6331,1.636,0.9876543209876409
SingleSource/Benchmarks/Misc/himenobmtxpa, 0.2373, 0.2362, 0.2363,0.2363, 0.2386, 0.2384, 0.2387,0.2386,0.9733389758781241
MultiSource/Benchmarks/Prolangs-C++/city/city, 0.9352, 0.9396, 0.9334,0.9352, 0.9442, 0.9435, 0.9474,0.9442,0.9623609923011145
SingleSource/Benchmarks/Shootout-C++/ackermann, 0.1156, 0.1155, 0.1156,0.1156, 0.1167, 0.1167, 0.1162,0.1167,0.9515570934256035
MultiSource/Applications/d/make_dparser, 2.5565, 2.5472, 2.5511,2.5511, 2.5730, 2.5787, 2.5745,2.5745,0.9172513817568895
SingleSource/Benchmarks/BenchmarkGame/nsieve-bits, 0.0333, 0.0332, 0.0333,0.0333, 0.0337, 0.0335, 0.0336,0.0336,0.9009009009008917
SingleSource/Benchmarks/Shootout/ackermann, 0.0238, 0.0237, 0.0240,0.0238, 0.0239, 0.0241, 0.0240,0.024,0.8403361344537785
MultiSource/Benchmarks/FreeBench/mason/mason, 0.0481, 0.0481, 0.0484,0.0481, 0.0485, 0.0485, 0.0485,0.0485,0.8316008316008316
MultiSource/Benchmarks/FreeBench/neural/neural, 0.1768, 0.1768, 0.1768,0.1768, 0.1783, 0.1782, 0.1781,0.1782,0.7918552036199067
MultiSource/Benchmarks/Fhourstones-3.1/fhourstones3.1, 0.1390, 0.1392, 0.1344,0.139, 0.1401, 0.1400, 0.1425,0.1401,0.7913669064748108
SingleSource/Benchmarks/Misc/lowercase, 0.0258, 0.0259, 0.0258,0.0258, 0.0261, 0.0259, 0.0260,0.026,0.7751937984496138
MultiSource/Benchmarks/McCat/03-testtrie/testtrie, 0.0909, 0.0910, 0.0913,0.091, 0.0917, 0.0917, 0.0908,0.0917,0.7692307692307665
SingleSource/Benchmarks/BenchmarkGame/n-body, 0.0663, 0.0664, 0.0663,0.0663, 0.0668, 0.0667, 0.0668,0.0668,0.7541478129713397
SingleSource/Benchmarks/Shootout/strcat, 0.0272, 0.0274, 0.0274,0.0274, 0.0276, 0.0276, 0.0274,0.0276,0.7299270072992581
SingleSource/Benchmarks/Misc/flops-1, 0.0276, 0.0276, 0.0276,0.0276, 0.0279, 0.0277, 0.0278,0.0278,0.7246376811594235
MultiSource/Benchmarks/MallocBench/gs/gs, 3.6501, 3.6488, 3.6532,3.6501, 3.6988, 3.6762, 3.6731,3.6762,0.7150489027697882
SingleSource/Benchmarks/Polybench/linear-algebra/solvers/gramschmidt/gramschmidt, 0.1284, 0.1285, 0.1286,0.1285, 0.1294, 0.1295, 0.1290,0.1294,0.7003891050583633
SingleSource/Benchmarks/Misc/flops-6, 0.0287, 0.0287, 0.0287,0.0287, 0.0290, 0.0289, 0.0286,0.0289,0.6968641114982521
MultiSource/Benchmarks/mediabench/gsm/toast/toast, 1.2171, 1.2211, 1.2225,1.2211, 1.2345, 1.2296, 1.2234,1.2296,0.6960936860207934
SingleSource/Benchmarks/Misc/flops-2, 0.0293, 0.0294, 0.0294,0.0294, 0.0296, 0.0296, 0.0296,0.0296,0.6802721088435382
MultiSource/Benchmarks/BitBench/uudecode/uudecode, 0.0452, 0.0450, 0.0450,0.045, 0.0453, 0.0451, 0.0453,0.0453,0.6666666666666599
SingleSource/Benchmarks/BenchmarkGame/partialsums, 0.0301, 0.0301, 0.0300,0.0301, 0.0304, 0.0303, 0.0303,0.0303,0.6644518272425293
SingleSource/Benchmarks/Shootout/random, 0.0303, 0.0303, 0.0304,0.0303, 0.0305, 0.0305, 0.0305,0.0305,0.6600660066006458
MultiSource/Benchmarks/FreeBench/analyzer/analyzer, 0.2428, 0.2427, 0.2431,0.2428, 0.2455, 0.2444, 0.2444,0.2444,0.6589785831960571
SingleSource/Benchmarks/Polybench/stencils/seidel-2d/seidel-2d, 0.0773, 0.0777, 0.0774,0.0774, 0.0781, 0.0779, 0.0775,0.0779,0.6459948320413522
MultiSource/Applications/lua/lua, 3.1167, 3.1187, 3.1140,3.1167, 3.1393, 3.1353, 3.1251,3.1353,0.5967850611223513
MultiSource/Benchmarks/Prolangs-C++/simul/simul, 0.0505, 0.0506, 0.0504,0.0505, 0.0507, 0.0510, 0.0508,0.0508,0.5940594059405946
SingleSource/Benchmarks/Misc/dt, 0.0341, 0.0342, 0.0344,0.0342, 0.0345, 0.0344, 0.0343,0.0344,0.5847953216374213
MultiSource/Benchmarks/McCat/17-bintr/bintr, 0.0693, 0.0692, 0.0694,0.0693, 0.0697, 0.0696, 0.0697,0.0697,0.5772005772005651
MultiSource/Benchmarks/Trimaran/netbench-url/netbench-url, 0.2083, 0.2079, 0.2090,0.2083, 0.2096, 0.2095, 0.2087,0.2095,0.5760921747479442
MultiSource/Benchmarks/MiBench/telecomm-CRC32/telecomm-CRC32, 0.0352, 0.0347, 0.0348,0.0348, 0.0355, 0.0350, 0.0349,0.035,0.574712643678188
SingleSource/Benchmarks/Shootout-C++/lists, 0.1583, 0.1576, 0.1583,0.1583, 0.1592, 0.1589, 0.1594,0.1592,0.5685407454200986
SingleSource/Benchmarks/Shootout/ary3, 0.0353, 0.0353, 0.0354,0.0353, 0.0354, 0.0355, 0.0355,0.0355,0.5665722379603277
SingleSource/Benchmarks/Polybench/linear-algebra/kernels/syr2k/syr2k, 0.0891, 0.0893, 0.0891,0.0891, 0.0898, 0.0896, 0.0894,0.0896,0.561167227833903
MultiSource/Benchmarks/NPB-serial/is/is, 0.0719, 0.0722, 0.0719,0.0719, 0.0721, 0.0725, 0.0723,0.0723,0.5563282336578546
SingleSource/Benchmarks/Misc/fbench, 0.0542, 0.0542, 0.0543,0.0542, 0.0545, 0.0548, 0.0544,0.0545,0.5535055350553542
SingleSource/Benchmarks/Shootout/objinst, 0.0363, 0.0364, 0.0366,0.0364, 0.0366, 0.0366, 0.0365,0.0366,0.5494505494505475
MultiSource/Benchmarks/BitBench/five11/five11, 0.0557, 0.0558, 0.0558,0.0558, 0.0562, 0.0560, 0.0561,0.0561,0.5376344086021501
MultiSource/Benchmarks/FreeBench/distray/distray, 0.0946, 0.0945, 0.0946,0.0946, 0.0951, 0.0950, 0.0955,0.0951,0.5285412262156397
MultiSource/Applications/ClamAV/clamscan,12.5540,12.5285,12.5523,12.5523,12.6429,12.6182,12.6115,12.6182,0.5250033858336556
SingleSource/Benchmarks/Shootout-C++/nestedloop, 0.1159, 0.1149, 0.1148,0.1149, 0.1155, 0.1147, 0.1156,0.1155,0.5221932114882533
SingleSource/Benchmarks/CoyoteBench/almabench, 0.0576, 0.0574, 0.0577,0.0576, 0.0579, 0.0579, 0.0577,0.0579,0.5208333333333259
MultiSource/Benchmarks/MiBench/consumer-typeset/consumer-typeset, 9.8302, 9.8291, 9.8372,9.8302, 9.8965, 9.8812, 9.8490,9.8812,0.5188093833289331
MultiSource/Benchmarks/MiBench/network-patricia/network-patricia, 0.0772, 0.0774, 0.0776,0.0774, 0.0782, 0.0778, 0.0775,0.0778,0.5167958656330685
MultiSource/Benchmarks/MallocBench/espresso/espresso, 4.7884, 4.7825, 4.7825,4.7825, 4.8249, 4.8023, 4.8072,4.8072,0.5164662833246236
MultiSource/Benchmarks/Olden/bisort/bisort, 0.0632, 0.0634, 0.0635,0.0634, 0.0641, 0.0637, 0.0633,0.0637,0.4731861198738363
MultiSource/Benchmarks/BitBench/drop3/drop3, 0.0424, 0.0423, 0.0425,0.0424, 0.0427, 0.0426, 0.0426,0.0426,0.4716981132075526
SingleSource/Benchmarks/Dhrystone/fldry, 0.0427, 0.0426, 0.0426,0.0426, 0.0428, 0.0428, 0.0426,0.0428,0.46948356807512415
SingleSource/Benchmarks/Polybench/linear-algebra/kernels/symm/symm, 0.0867, 0.0868, 0.0868,0.0868, 0.0872, 0.0870, 0.0874,0.0872,0.4608294930875445
MultiSource/Benchmarks/TSVC/LoopRerolling-flt/LoopRerolling-flt, 2.2843, 2.2762, 2.2767,2.2767, 2.2866, 2.2872, 2.2820,2.2866,0.434839899855044
SingleSource/Benchmarks/Stanford/Queens, 0.0472, 0.0471, 0.0473,0.0472, 0.0474, 0.0474, 0.0473,0.0474,0.4237288135593209
MultiSource/Benchmarks/DOE-ProxyApps-C/XSBench/XSBench, 0.3311, 0.3303, 0.3311,0.3311, 0.3325, 0.3325, 0.3323,0.3325,0.42283298097252064
SingleSource/Benchmarks/Misc/ffbench, 0.0720, 0.0720, 0.0719,0.072, 0.0724, 0.0723, 0.0720,0.0723,0.4166666666666874
SingleSource/Benchmarks/Misc/salsa20, 0.0491, 0.0492, 0.0491,0.0491, 0.0493, 0.0492, 0.0493,0.0493,0.40733197556008793
SingleSource/Benchmarks/Misc-C++/mandel-text, 0.0249, 0.0248, 0.0250,0.0249, 0.0250, 0.0250, 0.0251,0.025,0.40160642570281624
MultiSource/Benchmarks/llubenchmark/llu, 0.0513, 0.0512, 0.0512,0.0512, 0.0514, 0.0515, 0.0512,0.0514,0.390625
SingleSource/Benchmarks/Shootout-C++/sieve, 0.1793, 0.1799, 0.1790,0.1793, 0.1800, 0.1799, 0.1807,0.18,0.3904071388733943
SingleSource/Benchmarks/BenchmarkGame/fannkuch, 0.0516, 0.0516, 0.0516,0.0516, 0.0519, 0.0518, 0.0516,0.0518,0.3875968992248069
MultiSource/Benchmarks/Prolangs-C/gnugo/gnugo, 0.7018, 0.7001, 0.6956,0.7001, 0.7198, 0.6976, 0.7028,0.7028,0.38565919154407435
SingleSource/Benchmarks/Shootout/sieve, 0.0262, 0.0264, 0.0263,0.0263, 0.0264, 0.0264, 0.0264,0.0264,0.3802281368821214
SingleSource/Benchmarks/Misc-C++/Large/sphereflake, 0.2122, 0.2126, 0.2128,0.2126, 0.2134, 0.2133, 0.2141,0.2134,0.37629350893697566
SingleSource/Benchmarks/BenchmarkGame/recursive, 0.0267, 0.0269, 0.0271,0.0269, 0.0270, 0.0270, 0.0270,0.027,0.3717472118959009
SingleSource/Benchmarks/McGill/misr, 0.0542, 0.0539, 0.0541,0.0541, 0.0543, 0.0543, 0.0541,0.0543,0.3696857670979714
MultiSource/Benchmarks/mediabench/mpeg2/mpeg2dec/mpeg2decode, 1.3066, 1.3095, 1.3085,1.3085, 1.3546, 1.3101, 1.3133,1.3133,0.36683225066869163
SingleSource/Benchmarks/Misc/flops-7, 0.0273, 0.0275, 0.0274,0.0274, 0.0275, 0.0277, 0.0274,0.0275,0.36496350364962904
SingleSource/Benchmarks/Misc/flops-4, 0.0279, 0.0279, 0.0281,0.0279, 0.0281, 0.0280, 0.0280,0.028,0.35842293906809264
MultiSource/Benchmarks/Prolangs-C/agrep/agrep, 1.3388, 1.3402, 1.3407,1.3402, 1.3569, 1.3450, 1.3418,1.345,0.3581554991792135
SingleSource/Benchmarks/Polybench/linear-algebra/solvers/dynprog/dynprog, 0.0856, 0.0854, 0.0855,0.0855, 0.0859, 0.0858, 0.0854,0.0858,0.35087719298245723
SingleSource/Benchmarks/Misc/flops-5, 0.0285, 0.0288, 0.0289,0.0288, 0.0290, 0.0289, 0.0289,0.0289,0.3472222222222099
SingleSource/Benchmarks/Polybench/linear-algebra/kernels/mvt/mvt, 0.0907, 0.0906, 0.0907,0.0907, 0.0910, 0.0907, 0.0911,0.091,0.330760749724357
MultiSource/Benchmarks/FreeBench/pcompress2/pcompress2, 0.2449, 0.2446, 0.2446,0.2446, 0.2463, 0.2454, 0.2450,0.2454,0.3270645952575535
SingleSource/Benchmarks/Polybench/stencils/jacobi-1d-imper/jacobi-1d-imper, 0.0917, 0.0919, 0.0919,0.0919, 0.0925, 0.0922, 0.0921,0.0922,0.32644178454843686
SingleSource/Benchmarks/Misc/matmul_f64_4x4, 0.0308, 0.0309, 0.0308,0.0308, 0.0310, 0.0309, 0.0309,0.0309,0.32467532467532756
SingleSource/Benchmarks/Shootout-C++/random, 0.1238, 0.1243, 0.1239,0.1239, 0.1243, 0.1248, 0.1243,0.1243,0.32284100080710587
SingleSource/Benchmarks/Shootout/methcall, 0.0315, 0.0315, 0.0315,0.0315, 0.0316, 0.0316, 0.0316,0.0316,0.31746031746031633
MultiSource/Benchmarks/SciMark2-C/scimark2, 0.3818, 0.3821, 0.3823,0.3821, 0.3844, 0.3831, 0.3833,0.3833,0.31405391258831905
SingleSource/Benchmarks/SmallPT/smallpt, 0.0954, 0.0956, 0.0957,0.0956, 0.0959, 0.0960, 0.0956,0.0959,0.3138075313807498
MultiSource/Applications/hexxagon/hexxagon, 0.7024, 0.7061, 0.7042,0.7042, 0.7073, 0.7064, 0.7055,0.7064,0.31241124680487786
SingleSource/Benchmarks/Misc/fp-convert, 0.0326, 0.0328, 0.0328,0.0328, 0.0330, 0.0329, 0.0328,0.0329,0.304878048780477
SingleSource/Benchmarks/Polybench/datamining/covariance/covariance, 0.1010, 0.1009, 0.1011,0.101, 0.1013, 0.1012, 0.1014,0.1013,0.2970297029702973
SingleSource/Benchmarks/Misc/whetstone, 0.0681, 0.0681, 0.0682,0.0681, 0.0684, 0.0682, 0.0683,0.0683,0.2936857562408246
MultiSource/Benchmarks/FreeBench/fourinarow/fourinarow, 0.2848, 0.2843, 0.2850,0.2848, 0.2849, 0.2856, 0.2857,0.2856,0.2808988764045006
MultiSource/Benchmarks/MiBench/telecomm-gsm/telecomm-gsm, 1.1776, 1.1767, 1.1777,1.1776, 1.1829, 1.1809, 1.1784,1.1809,0.28023097826088694
MultiSource/Applications/ALAC/decode/alacconvert-decode, 1.0095, 1.0106, 1.0098,1.0098, 1.0127, 1.0126, 1.0111,1.0126,0.2772826302237963
SingleSource/Benchmarks/Shootout/lists, 0.0737, 0.0735, 0.0738,0.0737, 0.0739, 0.0740, 0.0738,0.0739,0.27137042062415073
MultiSource/Applications/hbd/hbd, 1.1994, 1.1981, 1.2002,1.1994, 1.2188, 1.2023, 1.2026,1.2026,0.26680006670001255
SingleSource/Benchmarks/Stanford/Quicksort, 0.0377, 0.0376, 0.0377,0.0377, 0.0379, 0.0377, 0.0378,0.0378,0.2652519893899363
SingleSource/Benchmarks/Misc/flops, 0.0760, 0.0757, 0.0759,0.0759, 0.0761, 0.0761, 0.0760,0.0761,0.26350461133071157
SingleSource/Benchmarks/Shootout-C++/fibo, 0.1143, 0.1143, 0.1143,0.1143, 0.1146, 0.1142, 0.1150,0.1146,0.2624671916010346
SingleSource/Benchmarks/Stanford/Treesort, 0.0383, 0.0383, 0.0381,0.0383, 0.0384, 0.0383, 0.0384,0.0384,0.26109660574411553
MultiSource/Applications/sgefa/sgefa, 0.4283, 0.4286, 0.4276,0.4283, 0.4302, 0.4294, 0.4275,0.4294,0.2568293252393161
SingleSource/Benchmarks/Misc/ReedSolomon, 0.2011, 0.2007, 0.2007,0.2007, 0.2015, 0.2010, 0.2012,0.2012,0.24912805181862563
SingleSource/Benchmarks/Shootout/heapsort, 0.0406, 0.0408, 0.0408,0.0408, 0.0409, 0.0409, 0.0408,0.0409,0.2450980392156854
MultiSource/Benchmarks/TSVC/Equivalencing-dbl/Equivalencing-dbl, 2.0843, 2.0802, 2.0817,2.0817, 2.0913, 2.0726, 2.0868,2.0868,0.24499207378585464
MultiSource/Benchmarks/mafft/pairlocalalign, 9.4614, 9.4299, 9.4298,9.4299, 9.4571, 9.4523, 9.4520,9.4523,0.23754228570822544
SingleSource/Benchmarks/BenchmarkGame/Large/fasta, 0.0438, 0.0437, 0.0439,0.0438, 0.0443, 0.0439, 0.0439,0.0439,0.22831050228311334
SingleSource/Benchmarks/Stanford/RealMM, 0.0441, 0.0442, 0.0440,0.0441, 0.0442, 0.0443, 0.0440,0.0442,0.22675736961452753
SingleSource/Benchmarks/CoyoteBench/huffbench, 0.0890, 0.0891, 0.0889,0.089, 0.0896, 0.0892, 0.0892,0.0892,0.22471910112360494
MultiSource/Benchmarks/7zip/7zip-benchmark,33.2481,33.2290,33.2500,33.2481,33.3564,33.3196,33.3223,33.3223,0.22317064734524994
MultiSource/Benchmarks/MiBench/automotive-basicmath/automotive-basicmath, 0.1366, 0.1370, 0.1365,0.1366, 0.1375, 0.1369, 0.1367,0.1369,0.21961932650071958
MultiSource/Benchmarks/MiBench/consumer-jpeg/consumer-jpeg, 4.1588, 4.1597, 4.1690,4.1597, 4.1775, 4.1688, 4.1623,4.1688,0.2187657763781159
SingleSource/Benchmarks/Shootout-C++/lists1, 0.1906, 0.1900, 0.1908,0.1906, 0.1921, 0.1906, 0.1910,0.191,0.20986358866736943
MultiSource/Benchmarks/MiBench/telecomm-FFT/telecomm-fft, 0.1438, 0.1447, 0.1443,0.1443, 0.1450, 0.1443, 0.1446,0.1446,0.20790020790020236
MultiSource/Benchmarks/ASCI_Purple/SMG2000/smg2000, 6.2225, 6.2324, 6.2093,6.2225, 6.2965, 6.2353, 6.2276,6.2353,0.20570510245077056
MultiSource/Benchmarks/mediabench/jpeg/jpeg-6a/cjpeg, 4.2003, 4.2045, 4.1954,4.2003, 4.2531, 4.2083, 4.1956,4.2083,0.19046258600576849
SingleSource/Benchmarks/Polybench/linear-algebra/solvers/lu/lu, 0.1052, 0.1049, 0.1051,0.1051, 0.1058, 0.1053, 0.1052,0.1053,0.19029495718363432
SingleSource/Benchmarks/Shootout-C++/ary3, 0.1591, 0.1589, 0.1590,0.159, 0.1597, 0.1587, 0.1593,0.1593,0.18867924528300772
MultiSource/Benchmarks/Fhourstones/fhourstones, 0.1651, 0.1648, 0.1652,0.1651, 0.1654, 0.1661, 0.1649,0.1654,0.1817080557237949
MultiSource/Benchmarks/Olden/treeadd/treeadd, 0.0568, 0.0571, 0.0571,0.0571, 0.0576, 0.0571, 0.0572,0.0572,0.17513134851139256
MultiSource/Benchmarks/VersaBench/bmm/bmm, 0.0574, 0.0572, 0.0572,0.0572, 0.0573, 0.0574, 0.0572,0.0573,0.17482517482516613
SingleSource/Benchmarks/Polybench/medley/reg_detect/reg_detect, 0.4052, 0.4044, 0.4043,0.4044, 0.4051, 0.4051, 0.4033,0.4051,0.17309594460930278
SingleSource/Benchmarks/Shootout-C++/strcat, 0.1233, 0.1239, 0.1231,0.1233, 0.1236, 0.1234, 0.1235,0.1235,0.16220600162204502
SingleSource/Benchmarks/Stanford/Oscar, 0.0667, 0.0668, 0.0667,0.0667, 0.0668, 0.0666, 0.0669,0.0668,0.14992503748125774
MultiSource/Applications/JM/ldecod/ldecod, 6.0374, 6.0281, 6.0272,6.0281, 6.0440, 6.0371, 6.0313,6.0371,0.14930077470511893
MultiSource/Benchmarks/Ptrdist/ks/ks, 0.1394, 0.1394, 0.1394,0.1394, 0.1401, 0.1396, 0.1394,0.1396,0.1434720229555264
SingleSource/Benchmarks/Polybench/linear-algebra/kernels/gesummv/gesummv, 0.0714, 0.0713, 0.0713,0.0713, 0.0717, 0.0713, 0.0714,0.0714,0.14025245441795509
MultiSource/Benchmarks/TSVC/ControlLoops-flt/ControlLoops-flt, 2.3786, 2.3764, 2.3624,2.3764, 2.3835, 2.3796, 2.3794,2.3796,0.13465746507321796
SingleSource/Benchmarks/Shootout-C++/ary, 0.1554, 0.1549, 0.1548,0.1549, 0.1551, 0.1548, 0.1554,0.1551,0.12911555842478606
MultiSource/Benchmarks/Olden/perimeter/perimeter, 0.0776, 0.0779, 0.0778,0.0778, 0.0783, 0.0779, 0.0779,0.0779,0.12853470437017567
MultiSource/Benchmarks/McCat/05-eks/eks, 0.5647, 0.5666, 0.5586,0.5647, 0.5654, 0.5641, 0.5678,0.5654,0.12395962457942833
SingleSource/Benchmarks/Polybench/linear-algebra/kernels/trmm/trmm, 0.0847, 0.0850, 0.0848,0.0848, 0.0851, 0.0849, 0.0849,0.0849,0.1179245283018826
MultiSource/Benchmarks/Olden/bh/bh, 0.2560, 0.2568, 0.2565,0.2565, 0.2579, 0.2564, 0.2568,0.2568,0.11695906432747094
SingleSource/Benchmarks/Polybench/linear-algebra/kernels/bicg/bicg, 0.0860, 0.0858, 0.0855,0.0858, 0.0861, 0.0859, 0.0858,0.0859,0.11655011655011815
MultiSource/Benchmarks/TSVC/CrossingThresholds-flt/CrossingThresholds-flt, 2.3293, 2.3220, 2.3278,2.3278, 2.3305, 2.3320, 2.3305,2.3305,0.11598934616374734
SingleSource/Benchmarks/Polybench/medley/floyd-warshall/floyd-warshall, 0.0866, 0.0863, 0.0862,0.0863, 0.0864, 0.0865, 0.0862,0.0864,0.11587485515642815
SingleSource/Benchmarks/Polybench/linear-algebra/kernels/syrk/syrk, 0.0888, 0.0887, 0.0886,0.0887, 0.0889, 0.0886, 0.0888,0.0888,0.11273957158963732
SingleSource/Benchmarks/Misc-C++-EH/spirit, 3.1176, 3.1048, 3.1170,3.117, 3.1420, 3.1172, 3.1204,3.1204,0.10907924286172044
MultiSource/Benchmarks/TSVC/IndirectAddressing-flt/IndirectAddressing-flt, 2.3093, 2.2970, 2.3070,2.307, 2.3159, 2.3051, 2.3095,2.3095,0.10836584308626662
SingleSource/Benchmarks/McGill/chomp, 0.1920, 0.1913, 0.1911,0.1913, 0.1915, 0.1915, 0.1907,0.1915,0.1045478306325176
MultiSource/Benchmarks/sim/sim, 0.2936, 0.2938, 0.2947,0.2938, 0.2941, 0.2937, 0.2941,0.2941,0.10211027910140835
MultiSource/Benchmarks/TSVC/StatementReordering-flt/StatementReordering-flt, 2.2728, 2.2697, 2.2697,2.2697, 2.2722, 2.2689, 2.2720,2.272,0.10133497819095894
SingleSource/Benchmarks/Polybench/linear-algebra/kernels/doitgen/doitgen, 0.1064, 0.1067, 0.1068,0.1067, 0.1073, 0.1068, 0.1068,0.1068,0.09372071227742307
SingleSource/Benchmarks/Polybench/linear-algebra/kernels/gemver/gemver, 0.1083, 0.1081, 0.1081,0.1081, 0.1083, 0.1082, 0.1081,0.1082,0.09250693802036469
MultiSource/Benchmarks/McCat/18-imp/imp, 0.3292, 0.3343, 0.3266,0.3292, 0.3331, 0.3295, 0.3289,0.3295,0.09113001215066419
SingleSource/Benchmarks/Polybench/linear-algebra/kernels/cholesky/cholesky, 0.1107, 0.1106, 0.1108,0.1107, 0.1112, 0.1108, 0.1108,0.1108,0.09033423667568208
MultiSource/Applications/SPASS/SPASS,11.7599,11.7645,11.7559,11.7599,11.8087,11.7699,11.7583,11.7699,0.08503473668992623
MultiSource/Benchmarks/TSVC/ControlFlow-flt/ControlFlow-flt, 2.4935, 2.4874, 2.4847,2.4874, 2.4895, 2.4881, 2.4924,2.4895,0.08442550454290654
MultiSource/Benchmarks/ASC_Sequoia/CrystalMk/CrystalMk, 0.2386, 0.2383, 0.2390,0.2386, 0.2390, 0.2388, 0.2388,0.2388,0.08382229673093988
SingleSource/Benchmarks/Stanford/Puzzle, 0.1197, 0.1195, 0.1193,0.1195, 0.1202, 0.1196, 0.1196,0.1196,0.08368200836821327
SingleSource/Benchmarks/Polybench/stencils/jacobi-2d-imper/jacobi-2d-imper, 0.1273, 0.1273, 0.1278,0.1273, 0.1274, 0.1272, 0.1275,0.1274,0.07855459544383603
MultiSource/Benchmarks/McCat/04-bisect/bisect, 0.1307, 0.1313, 0.1318,0.1313, 0.1314, 0.1317, 0.1313,0.1314,0.07616146230007281
MultiSource/Benchmarks/TSVC/Recurrences-flt/Recurrences-flt, 2.2631, 2.2656, 2.2700,2.2656, 2.2698, 2.2669, 2.2671,2.2671,0.06620762711864181
SingleSource/Benchmarks/Adobe-C++/simple_types_constant_folding, 2.3624, 2.3565, 2.3554,2.3565, 2.3645, 2.3579, 2.3567,2.3579,0.059410142159976864
MultiSource/Benchmarks/TSVC/NodeSplitting-dbl/NodeSplitting-dbl, 2.0718, 2.0580, 2.0575,2.058, 2.0587, 2.0571, 2.0596,2.0587,0.03401360544217358
MultiSource/Benchmarks/Bullet/bullet,22.3299,22.3297,22.3368,22.3299,22.3501,22.3297,22.3373,22.3373,0.03313942292622052
MultiSource/Benchmarks/TSVC/LoopRestructuring-dbl/LoopRestructuring-dbl, 2.0992, 2.0946, 2.0981,2.0981, 2.0985, 2.0974, 2.1023,2.0985,0.01906486821410258
MultiSource/Applications/oggenc/oggenc, 4.7729, 4.7642, 4.7659,4.7659, 4.7773, 4.7665, 4.7582,4.7665,0.012589437461962838
MultiSource/Benchmarks/FreeBench/pifft/pifft, 1.0562, 1.0538, 1.0546,1.0546, 1.0562, 1.0546, 1.0547,1.0547,0.009482268158533813
SingleSource/Regression/C/2004-08-12-InlinerAndAllocas, 0.0203, 0.0202, 0.0204,0.0203, 0.0204, 0.0201, 0.0203,0.0203,0.0
SingleSource/Benchmarks/Shootout/nestedloop, 0.0248, 0.0248, 0.0250,0.0248, 0.0250, 0.0247, 0.0248,0.0248,0.0
SingleSource/Benchmarks/Shootout/matrix, 0.0764, 0.0760, 0.0761,0.0761, 0.0761, 0.0761, 0.0759,0.0761,0.0
SingleSource/Benchmarks/Shootout/fib2, 0.0207, 0.0205, 0.0207,0.0207, 0.0208, 0.0207, 0.0206,0.0207,0.0
SingleSource/Benchmarks/Shootout-C++/heapsort, 0.1318, 0.1320, 0.1319,0.1319, 0.1330, 0.1317, 0.1319,0.1319,0.0
SingleSource/Benchmarks/Shootout-C++/hash, 0.2594, 0.2583, 0.2581,0.2583, 0.2587, 0.2583, 0.2576,0.2583,0.0
SingleSource/Benchmarks/Shootout-C++/ary2, 0.1631, 0.1621, 0.1617,0.1621, 0.1623, 0.1616, 0.1621,0.1621,0.0
SingleSource/Benchmarks/Shootout-C++/EH/except, 0.1268, 0.1278, 0.1276,0.1276, 0.1278, 0.1272, 0.1276,0.1276,0.0
SingleSource/Benchmarks/Polybench/stencils/fdtd-2d/fdtd-2d, 0.1701, 0.1701, 0.1706,0.1701, 0.1701, 0.1701, 0.1698,0.1701,0.0
SingleSource/Benchmarks/Polybench/linear-algebra/kernels/trisolv/trisolv, 0.0699, 0.0702, 0.0701,0.0701, 0.0703, 0.0701, 0.0701,0.0701,0.0
SingleSource/Benchmarks/Polybench/datamining/correlation/correlation, 0.0854, 0.0849, 0.0850,0.085, 0.0853, 0.0850, 0.0850,0.085,0.0
SingleSource/Benchmarks/Misc/richards_benchmark, 0.0600, 0.0602, 0.0602,0.0602, 0.0602, 0.0603, 0.0600,0.0602,0.0
SingleSource/Benchmarks/Misc/pi, 0.0220, 0.0220, 0.0220,0.022, 0.0221, 0.0220, 0.0220,0.022,0.0
SingleSource/Benchmarks/Misc/oourafft, 0.2377, 0.2371, 0.2367,0.2371, 0.2380, 0.2371, 0.2368,0.2371,0.0
SingleSource/Benchmarks/Misc/flops-3, 0.0274, 0.0276, 0.0276,0.0276, 0.0276, 0.0276, 0.0276,0.0276,0.0
SingleSource/Benchmarks/BenchmarkGame/spectral-norm, 0.0582, 0.0583, 0.0583,0.0583, 0.0583, 0.0583, 0.0581,0.0583,0.0
MultiSource/Benchmarks/Ptrdist/anagram/anagram, 0.0861, 0.0863, 0.0862,0.0862, 0.0863, 0.0860, 0.0862,0.0862,0.0
MultiSource/Benchmarks/MiBench/network-dijkstra/network-dijkstra, 0.0434, 0.0434, 0.0434,0.0434, 0.0434, 0.0432, 0.0434,0.0434,0.0
MultiSource/Benchmarks/BitBench/uuencode/uuencode, 0.0442, 0.0441, 0.0437,0.0441, 0.0442, 0.0439, 0.0441,0.0441,0.0
MultiSource/Applications/SIBsim4/SIBsim4, 1.2741, 1.2798, 1.2785,1.2785, 1.2650, 1.2784, 1.2802,1.2784,-0.007821666014862227
MultiSource/Benchmarks/TSVC/LinearDependence-dbl/LinearDependence-dbl, 2.1712, 2.1563, 2.1696,2.1696, 2.1694, 2.1561, 2.1747,2.1694,-0.009218289085544118
MultiSource/Benchmarks/Ptrdist/yacr2/yacr2, 0.6238, 0.6240, 0.6235,0.6238, 0.6238, 0.6237, 0.6220,0.6237,-0.01603077909586581
MultiSource/Benchmarks/TSVC/Equivalencing-flt/Equivalencing-flt, 2.3366, 2.3307, 2.3332,2.3332, 2.3308, 2.3405, 2.3328,2.3328,-0.017143836790667333
MultiSource/Applications/JM/lencod/lencod,13.4013,13.3796,13.3840,13.384,13.3953,13.3812,13.3773,13.3812,-0.020920502092058868
MultiSource/Benchmarks/TSVC/Searching-flt/Searching-flt, 2.2534, 2.2529, 2.2489,2.2529, 2.2538, 2.2457, 2.2523,2.2523,-0.02663234053885688
MultiSource/Benchmarks/Ptrdist/bc/bc, 1.0246, 1.0231, 1.0241,1.0241, 1.0254, 1.0237, 1.0236,1.0237,-0.03905868567521953
SingleSource/Benchmarks/Adobe-C++/simple_types_loop_invariant, 1.8093, 1.7996, 1.8221,1.8093, 1.8087, 1.8085, 1.8060,1.8085,-0.04421599513623198
MultiSource/Benchmarks/TSVC/LoopRerolling-dbl/LoopRerolling-dbl, 2.0345, 2.0301, 2.0279,2.0301, 2.0292, 2.0390, 2.0285,2.0292,-0.04433279148811087
MultiSource/Benchmarks/TSVC/Expansion-flt/Expansion-flt, 2.3953, 2.3866, 2.3853,2.3866, 2.3855, 2.3885, 2.3816,2.3855,-0.0460906729238264
MultiSource/Benchmarks/tramp3d-v4/tramp3d-v4,18.0957,18.1131,18.1154,18.1131,18.1161,18.0899,18.1047,18.1047,-0.0463752753531832
MultiSource/Benchmarks/TSVC/GlobalDataFlow-flt/GlobalDataFlow-flt, 2.3628, 2.3755, 2.3745,2.3745, 2.3790, 2.3733, 2.3714,2.3733,-0.05053695514845025
MultiSource/Benchmarks/TSVC/InductionVariable-dbl/InductionVariable-dbl, 2.1011, 2.0950, 2.1001,2.1001, 2.0990, 2.0983, 2.1081,2.099,-0.05237845816864484
MultiSource/Benchmarks/MiBench/consumer-lame/consumer-lame, 3.8892, 3.8887, 3.8864,3.8887, 3.8904, 3.8865, 3.8762,3.8865,-0.05657417646000029
MultiSource/Benchmarks/Trimaran/enc-md5/enc-md5, 0.1629, 0.1631, 0.1636,0.1631, 0.1633, 0.1630, 0.1630,0.163,-0.06131207847945852
SingleSource/Benchmarks/Polybench/stencils/fdtd-apml/fdtd-apml, 0.1501, 0.1502, 0.1502,0.1502, 0.1506, 0.1499, 0.1501,0.1501,-0.06657789613847553
MultiSource/Benchmarks/TSVC/ControlFlow-dbl/ControlFlow-dbl, 2.2331, 2.2373, 2.2371,2.2371, 2.2352, 2.2421, 2.2342,2.2352,-0.08493138438157022
MultiSource/Benchmarks/TSVC/LinearDependence-flt/LinearDependence-flt, 2.4469, 2.4291, 2.4295,2.4295, 2.4263, 2.4303, 2.4172,2.4263,-0.13171434451533237
MultiSource/Benchmarks/TSVC/Recurrences-dbl/Recurrences-dbl, 2.0315, 2.0251, 2.0211,2.0251, 2.0277, 2.0211, 2.0223,2.0223,-0.13826477704805828
MultiSource/Benchmarks/TSVC/Packing-flt/Packing-flt, 2.2793, 2.2741, 2.2667,2.2741, 2.2707, 2.2696, 2.2763,2.2707,-0.14950969614351273
MultiSource/Benchmarks/Prolangs-C++/life/life, 0.0656, 0.0656, 0.0655,0.0656, 0.0657, 0.0654, 0.0655,0.0655,-0.1524390243902496
MultiSource/Benchmarks/TSVC/Packing-dbl/Packing-dbl, 2.0266, 2.0295, 2.0226,2.0266, 2.0199, 2.0235, 2.0277,2.0235,-0.15296555807758905
MultiSource/Benchmarks/TSVC/ControlLoops-dbl/ControlLoops-dbl, 2.1463, 2.1324, 2.1351,2.1351, 2.1361, 2.1055, 2.1318,2.1318,-0.1545595054095794
SingleSource/Benchmarks/Adobe-C++/loop_unroll, 4.7041, 4.7222, 4.6940,4.7041, 4.6945, 4.7092, 4.6967,4.6967,-0.1573095810038172
SingleSource/Benchmarks/CoyoteBench/lpbench, 0.1896, 0.1896, 0.1894,0.1896, 0.1900, 0.1892, 0.1893,0.1893,-0.15822784810126667
MultiSource/Benchmarks/TSVC/Expansion-dbl/Expansion-dbl, 2.1348, 2.1311, 2.1310,2.1311, 2.1326, 2.1274, 2.1258,2.1274,-0.17361925766035124
SingleSource/Benchmarks/Shootout-C++/matrix, 0.1722, 0.1721, 0.1725,0.1722, 0.1719, 0.1721, 0.1718,0.1719,-0.17421602787456303
SingleSource/Benchmarks/BenchmarkGame/puzzle, 0.0574, 0.0573, 0.0571,0.0573, 0.0573, 0.0572, 0.0572,0.0572,-0.17452006980802626
MultiSource/Benchmarks/TSVC/GlobalDataFlow-dbl/GlobalDataFlow-dbl, 2.1278, 2.1237, 2.1368,2.1278, 2.1240, 2.1166, 2.1250,2.124,-0.1785882131779326
SingleSource/Benchmarks/Polybench/linear-algebra/solvers/durbin/durbin, 0.1082, 0.1083, 0.1084,0.1083, 0.1084, 0.1081, 0.1081,0.1081,-0.1846722068328588
MultiSource/Benchmarks/Trimaran/enc-rc4/enc-rc4, 0.0517, 0.0519, 0.0519,0.0519, 0.0520, 0.0518, 0.0518,0.0518,-0.19267822736031004
MultiSource/Benchmarks/PAQ8p/paq8p, 2.0645, 2.0609, 2.0586,2.0609, 2.0650, 2.0567, 2.0542,2.0567,-0.20379445873162094
SingleSource/Benchmarks/Stanford/FloatMM, 0.0448, 0.0448, 0.0447,0.0448, 0.0447, 0.0448, 0.0445,0.0447,-0.22321428571429047
SingleSource/Benchmarks/McGill/queens, 0.0442, 0.0442, 0.0442,0.0442, 0.0441, 0.0439, 0.0441,0.0441,-0.226244343891413
MultiSource/Applications/ALAC/encode/alacconvert-encode, 1.0095, 1.0141, 1.0151,1.0141, 1.0159, 1.0115, 1.0118,1.0118,-0.22680209052361455
MultiSource/Benchmarks/McCat/08-main/main, 0.2489, 0.2431, 0.2488,0.2488, 0.2453, 0.2508, 0.2482,0.2482,-0.2411575562700885
SingleSource/Benchmarks/Shootout-C++/methcall, 0.1230, 0.1233, 0.1238,0.1233, 0.1230, 0.1229, 0.1232,0.123,-0.24330900243310083
MultiSource/Benchmarks/TSVC/LoopRestructuring-flt/LoopRestructuring-flt, 2.3611, 2.3243, 2.3543,2.3543, 2.3518, 2.3406, 2.3485,2.3485,-0.246357728411839
MultiSource/Benchmarks/TSVC/Reductions-dbl/Reductions-dbl, 2.1427, 2.1392, 2.1372,2.1392, 2.1390, 2.1133, 2.1339,2.1339,-0.24775617053104382
SingleSource/Benchmarks/Polybench/stencils/adi/adi, 0.1055, 0.1049, 0.1055,0.1055, 0.1053, 0.1052, 0.1050,0.1052,-0.28436018957345155
MultiSource/Benchmarks/TSVC/InductionVariable-flt/InductionVariable-flt, 2.3510, 2.3461, 2.3489,2.3489, 2.3467, 2.3398, 2.3421,2.3421,-0.2894972114606875
SingleSource/Benchmarks/Shootout-C++/objinst, 0.1281, 0.1278, 0.1284,0.1281, 0.1277, 0.1279, 0.1274,0.1277,-0.31225604996095724
MultiSource/Benchmarks/TSVC/IndirectAddressing-dbl/IndirectAddressing-dbl, 2.0661, 2.0596, 2.0628,2.0628, 2.0602, 2.0563, 2.0530,2.0563,-0.31510568159784924
SingleSource/Benchmarks/Polybench/linear-algebra/kernels/atax/atax, 0.0900, 0.0898, 0.0901,0.09, 0.0899, 0.0897, 0.0897,0.0897,-0.33333333333332993
MultiSource/Benchmarks/TSVC/Symbolics-flt/Symbolics-flt, 2.3315, 2.3251, 2.3281,2.3281, 2.3224, 2.2936, 2.3200,2.32,-0.347923199175304
MultiSource/Benchmarks/TSVC/StatementReordering-dbl/StatementReordering-dbl, 2.0280, 2.0230, 2.0128,2.023, 2.0156, 2.0089, 2.0239,2.0156,-0.3657933761740062
MultiSource/Benchmarks/TSVC/Reductions-flt/Reductions-flt, 2.3948, 2.3864, 2.3921,2.3921, 2.3832, 2.3847, 2.3826,2.3832,-0.37205802433009083
MultiSource/Benchmarks/MiBench/automotive-susan/automotive-susan, 0.7735, 0.7820, 0.7814,0.7814, 0.7783, 0.7854, 0.7744,0.7783,-0.3967238290248254
MultiSource/Benchmarks/nbench/nbench, 1.1769, 1.1786, 1.1737,1.1769, 1.1722, 1.1754, 1.1717,1.1722,-0.39935423570398587
MultiSource/Benchmarks/Prolangs-C++/primes/primes, 0.0250, 0.0250, 0.0249,0.025, 0.0252, 0.0249, 0.0249,0.0249,-0.40000000000001146
MultiSource/Benchmarks/TSVC/Searching-dbl/Searching-dbl, 2.0080, 2.0007, 2.0077,2.0077, 2.0011, 1.9979, 1.9993,1.9993,-0.4183892015739321
MultiSource/Benchmarks/MiBench/automotive-bitcount/automotive-bitcount, 0.2591, 0.2586, 0.2599,0.2591, 0.2595, 0.2511, 0.2580,0.258,-0.4245465071401
MultiSource/Applications/obsequi/Obsequi, 1.0155, 1.0195, 1.0322,1.0195, 1.0148, 1.0116, 1.0236,1.0148,-0.46101029916627567
MultiSource/Benchmarks/TSVC/Symbolics-dbl/Symbolics-dbl, 2.0896, 2.0782, 2.0787,2.0787, 2.0663, 2.0667, 2.0678,2.0667,-0.5772838793476676
MultiSource/Benchmarks/MiBench/security-rijndael/security-rijndael, 0.4137, 0.4059, 0.4095,0.4095, 0.4072, 0.4050, 0.4068,0.4068,-0.659340659340657
SingleSource/Benchmarks/Misc-C++/stepanov_container, 0.6673, 0.6559, 0.6504,0.6559, 0.6444, 0.6513, 0.6553,0.6513,-0.7013264217106352
MultiSource/Benchmarks/MallocBench/cfrac/cfrac, 0.8726, 0.8721, 0.8694,0.8721, 0.8655, 0.8647, 0.8695,0.8655,-0.7567939456484263
MultiSource/Applications/sqlite3/sqlite3,12.7240,12.7020,12.7143,12.7143,12.5962,12.6173,12.6431,12.6173,-0.7629204911005716
MultiSource/Benchmarks/TSVC/CrossingThresholds-dbl/CrossingThresholds-dbl, 2.0853, 2.0854, 2.0614,2.0853, 2.0686, 2.0725, 2.0554,2.0686,-0.8008440032609254
MultiSource/Benchmarks/TSVC/NodeSplitting-flt/NodeSplitting-flt, 2.3198, 2.3094, 2.3108,2.3108, 2.2910, 2.3058, 2.2840,2.291,-0.856846113899945
SingleSource/Benchmarks/Shootout-C++/moments, 0.2387, 0.2395, 0.2385,0.2387, 0.2351, 0.2347, 0.2349,0.2349,-1.5919564306661083
MultiSource/Benchmarks/mediabench/g721/g721encode/encode, 0.2114, 0.2151, 0.2106,0.2114, 0.2112, 0.2077, 0.2059,0.2077,-1.7502365184484447
MultiSource/Applications/minisat/minisat, 0.6153, 0.6250, 0.6249,0.6249, 0.6236, 0.6139, 0.6107,0.6139,-1.7602816450632108
MultiSource/Benchmarks/MiBench/security-sha/security-sha, 0.1002, 0.1008, 0.0971,0.1002, 0.0965, 0.0983, 0.0988,0.0983,-1.896207584830334
SingleSource/Benchmarks/Linpack/linpack-pc, 0.3818, 0.3830, 0.3898,0.383, 0.3696, 0.3739, 0.3790,0.3739,-2.3759791122715423
SingleSource/Benchmarks/Misc-C++/stepanov_v1p2, 0.1716, 0.1709, 0.1709,0.1709, 0.1459, 0.1458, 0.1456,0.1458,-14.68695143358688
SingleSource/Benchmarks/Adobe-C++/stepanov_abstraction, 0.6019, 0.6018, 0.6011,0.6018, 0.4995, 0.4983, 0.5027,0.4995,-16.999002991026924
SingleSource/Benchmarks/Adobe-C++/stepanov_vector, 0.7878, 0.7877, 0.7881,0.7878, 0.5902, 0.5917, 0.5956,0.5917,-24.892104595074883
Total elapsed time,-,-,-,341.56609999999955,-,-,-,341.69829999999996,0.03870407514106056
Total failure,-,-,-,0,-,-,-,0,
Geom. avg slowdown,,,,,,,,,0.00640348882956%
