Benchmarks,base-4.0,base-4.0,base-4.0,median,restrict-pcmp,restrict-pcmp,restrict-pcmp,median,Slowdown(%)
MultiSource/Benchmarks/Prolangs-C++/employ/employ, 0.0050, 0.0050, 0.0050,0.005, 0.0051, 0.0051, 0.0051,0.0051,2.0000000000000018
MultiSource/Applications/d/make_dparser, 0.0158, 0.0157, 0.0159,0.0158, 0.0160, 0.0159, 0.0161,0.016,1.2658227848101111
SingleSource/Benchmarks/Misc-C++-EH/spirit, 2.6093, 2.6095, 2.6141,2.6095, 2.6435, 2.6409, 2.6411,2.6411,1.210959954014168
MultiSource/Applications/ALAC/encode/alacconvert-encode, 0.0286, 0.0286, 0.0286,0.0286, 0.0291, 0.0289, 0.0287,0.0289,1.0489510489510412
SingleSource/Benchmarks/Shootout-C++/lists1, 0.1314, 0.1321, 0.1322,0.1321, 0.1334, 0.1347, 0.1333,0.1334,0.9841029523088629
SingleSource/Benchmarks/Shootout-C++/moments, 0.0505, 0.0505, 0.0505,0.0505, 0.0510, 0.0508, 0.0509,0.0509,0.7920792079207928
MultiSource/Benchmarks/Ptrdist/anagram/anagram, 0.6906, 0.6835, 0.6853,0.6853, 0.6865, 0.6919, 0.6903,0.6903,0.7296074711805156
MultiSource/Benchmarks/mediabench/mpeg2/mpeg2dec/mpeg2decode, 0.0153, 0.0152, 0.0152,0.0152, 0.0154, 0.0153, 0.0153,0.0153,0.6578947368421018
SingleSource/Benchmarks/Shootout/hash, 2.7830, 2.8095, 2.7910,2.791, 2.8153, 2.7868, 2.8087,2.8087,0.6341812970261484
SingleSource/Benchmarks/Shootout/heapsort, 2.0318, 2.0197, 2.0190,2.0197, 2.0325, 2.0357, 2.0222,2.0325,0.6337574887359754
MultiSource/Benchmarks/TSVC/Packing-flt/Packing-flt, 2.0913, 2.1009, 2.0851,2.0913, 2.1252, 2.1044, 2.0977,2.1044,0.6264046286998504
SingleSource/Benchmarks/Shootout-C++/heapsort, 2.0369, 2.0429, 2.0347,2.0369, 2.0498, 2.0369, 2.0489,2.0489,0.589130541509153
MultiSource/Benchmarks/TSVC/CrossingThresholds-flt/CrossingThresholds-flt, 1.6175, 1.6192, 1.6187,1.6187, 1.6140, 1.6377, 1.6282,1.6282,0.5868907147711155
MultiSource/Benchmarks/TSVC/GlobalDataFlow-flt/GlobalDataFlow-flt, 1.5054, 1.4889, 1.4959,1.4959, 1.5040, 1.5051, 1.4964,1.504,0.5414800454575763
SingleSource/Benchmarks/Misc/whetstone, 1.0198, 1.0275, 1.0198,1.0198, 1.0249, 1.0249, 1.0198,1.0249,0.5000980584428216
SingleSource/Benchmarks/Misc/ffbench, 0.5770, 0.5787, 0.5777,0.5777, 0.5843, 0.5803, 0.5804,0.5804,0.46737060758179627
SingleSource/Benchmarks/Stanford/Treesort, 0.0548, 0.0546, 0.0545,0.0546, 0.0549, 0.0547, 0.0548,0.0548,0.366300366300365
MultiSource/Applications/kimwitu++/kc, 0.0280, 0.0282, 0.0281,0.0281, 0.0282, 0.0283, 0.0282,0.0282,0.3558718861209842
SingleSource/Benchmarks/Shootout-C++/lists, 2.9781, 2.9676, 2.9806,2.9781, 2.9886, 2.9906, 2.9764,2.9886,0.3525737886572067
MultiSource/Applications/sqlite3/sqlite3, 1.8079, 1.8247, 1.8051,1.8079, 1.8107, 1.8146, 1.8137,1.8137,0.32081420432545915
MultiSource/Applications/lua/lua,11.5138,11.5111,11.5371,11.5138,11.5241,11.5521,11.5502,11.5502,0.31614236828849673
MultiSource/Benchmarks/PAQ8p/paq8p,43.9641,43.9615,43.9152,43.9615,44.0965,44.0811,44.0905,44.0905,0.2934385769366221
MultiSource/Benchmarks/ASC_Sequoia/AMGmk/AMGmk, 5.0441, 5.0400, 5.0533,5.0441, 5.0570, 5.0531, 5.0761,5.057,0.2557443349656019
SingleSource/Benchmarks/Shootout-C++/strcat, 0.0405, 0.0405, 0.0406,0.0405, 0.0406, 0.0405, 0.0407,0.0406,0.24691358024691024
SingleSource/Benchmarks/Misc-C++/oopack_v1p8, 0.1619, 0.1632, 0.1633,0.1632, 0.1636, 0.1642, 0.1634,0.1636,0.2450980392156854
SingleSource/Benchmarks/Stanford/Puzzle, 0.0875, 0.0874, 0.0876,0.0875, 0.0878, 0.0876, 0.0877,0.0877,0.22857142857144463
MultiSource/Benchmarks/DOE-ProxyApps-C/XSBench/XSBench, 2.4433, 2.4407, 2.4404,2.4407, 2.4399, 2.4473, 2.4462,2.4462,0.22534518785595203
MultiSource/Benchmarks/TSVC/LinearDependence-dbl/LinearDependence-dbl, 5.1464, 5.1461, 5.1468,5.1464, 5.1557, 5.1554, 5.1474,5.1554,0.17487952743666657
SingleSource/Benchmarks/CoyoteBench/lpbench, 1.8283, 1.8207, 1.8220,1.822, 1.8215, 1.8281, 1.8245,1.8245,0.13721185510426892
MultiSource/Benchmarks/TSVC/LoopRerolling-flt/LoopRerolling-flt, 3.8250, 3.8175, 3.8159,3.8175, 3.8226, 3.8202, 3.8277,3.8226,0.1335952848723121
MultiSource/Benchmarks/VersaBench/8b10b/8b10b, 3.7672, 3.7611, 3.7659,3.7659, 3.7709, 3.7692, 3.7720,3.7709,0.13277038689292198
SingleSource/Benchmarks/Polybench/stencils/fdtd-apml/fdtd-apml, 0.7267, 0.7234, 0.7238,0.7238, 0.7247, 0.7252, 0.7213,0.7247,0.12434374136502946
MultiSource/Benchmarks/Olden/em3d/em3d, 1.7040, 1.7040, 1.7041,1.704, 1.7060, 1.7056, 1.7060,1.706,0.11737089201877549
MultiSource/Benchmarks/FreeBench/fourinarow/fourinarow, 0.1757, 0.1755, 0.1755,0.1755, 0.1757, 0.1757, 0.1757,0.1757,0.11396011396012096
MultiSource/Benchmarks/TSVC/Symbolics-flt/Symbolics-flt, 1.3941, 1.3895, 1.3894,1.3895, 1.3953, 1.3895, 1.3910,1.391,0.10795250089961073
MultiSource/Benchmarks/mafft/pairlocalalign,26.2162,26.2153,26.2143,26.2153,26.2416,26.2427,26.2433,26.2427,0.10451911669902003
SingleSource/Benchmarks/McGill/misr, 0.1016, 0.1015, 0.1015,0.1015, 0.1016, 0.1015, 0.1016,0.1016,0.09852216748766907
SingleSource/Benchmarks/Shootout/strcat, 0.1052, 0.1052, 0.1052,0.1052, 0.1053, 0.1053, 0.1052,0.1053,0.0950570342205248
MultiSource/Benchmarks/NPB-serial/is/is, 5.2171, 5.2042, 5.2051,5.2051, 5.2098, 5.2097, 5.2095,5.2097,0.08837486311501497
SingleSource/Benchmarks/Shootout/lists, 4.0578, 4.0578, 4.0593,4.0578, 4.0610, 4.0631, 4.0613,4.0613,0.08625363497460903
MultiSource/Benchmarks/TSVC/ControlFlow-dbl/ControlFlow-dbl, 3.6918, 3.6748, 3.6728,3.6748, 3.6932, 3.6779, 3.6733,3.6779,0.08435833242625979
MultiSource/Benchmarks/Olden/perimeter/perimeter, 0.1230, 0.1232, 0.1231,0.1231, 0.1237, 0.1232, 0.1229,0.1232,0.08123476848092004
MultiSource/Benchmarks/Olden/bh/bh, 1.2612, 1.2625, 1.2612,1.2612, 1.2622, 1.2624, 1.2620,1.2622,0.07928956549316801
MultiSource/Benchmarks/Olden/treeadd/treeadd, 0.1274, 0.1270, 0.1269,0.127, 0.1277, 0.1269, 0.1271,0.1271,0.07874015748030594
MultiSource/Benchmarks/FreeBench/distray/distray, 0.1331, 0.1332, 0.1330,0.1331, 0.1332, 0.1330, 0.1333,0.1332,0.07513148009017367
MultiSource/Benchmarks/TSVC/ControlLoops-flt/ControlLoops-flt, 2.3456, 2.3427, 2.3477,2.3456, 2.3374, 2.3470, 2.3543,2.347,0.05968622100953613
MultiSource/Benchmarks/llubenchmark/llu, 4.0713, 4.0645, 4.0286,4.0645, 4.0669, 4.0695, 4.0455,4.0669,0.059047853364502245
SingleSource/Benchmarks/Shootout/sieve, 3.4690, 3.4736, 3.4688,3.469, 3.4710, 3.4708, 3.4735,3.471,0.057653502450283334
MultiSource/Benchmarks/Olden/tsp/tsp, 1.0840, 1.0838, 1.0842,1.084, 1.0846, 1.0846, 1.0841,1.0846,0.05535055350553986
SingleSource/Benchmarks/Misc/flops,10.6746,10.6996,10.6628,10.6746,10.6638,10.6996,10.6805,10.6805,0.055271391902267375
MultiSource/Benchmarks/McCat/12-IOtest/iotest, 0.2135, 0.2142, 0.2156,0.2142, 0.2143, 0.2142, 0.2160,0.2143,0.046685340802987696
MultiSource/Benchmarks/sim/sim, 2.6081, 2.6077, 2.6100,2.6081, 2.6146, 2.6085, 2.6093,2.6093,0.04601050573216359
MultiSource/Benchmarks/TSVC/StatementReordering-dbl/StatementReordering-dbl, 2.2421, 2.2364, 2.2318,2.2364, 2.2446, 2.2360, 2.2374,2.2374,0.04471472008584776
MultiSource/Benchmarks/nbench/nbench, 1.1950, 1.1950, 1.1961,1.195, 1.1955, 1.1976, 1.1950,1.1955,0.04184100418409553
SingleSource/Benchmarks/Adobe-C++/simple_types_loop_invariant, 1.5948, 1.5945, 1.5951,1.5948, 1.5954, 1.5956, 1.5954,1.5954,0.03762227238524041
MultiSource/Benchmarks/tramp3d-v4/tramp3d-v4, 0.2663, 0.2665, 0.2665,0.2665, 0.2665, 0.2670, 0.2666,0.2666,0.037523452157595116
SingleSource/Benchmarks/Shootout/matrix, 1.0670, 1.0666, 1.0667,1.0667, 1.0671, 1.0669, 1.0672,1.0671,0.037498828161619535
MultiSource/Benchmarks/BitBench/five11/five11, 1.1135, 1.1166, 1.1159,1.1159, 1.1155, 1.1163, 1.1203,1.1163,0.0358455058697249
MultiSource/Benchmarks/TSVC/InductionVariable-dbl/InductionVariable-dbl, 3.0365, 3.0310, 3.0332,3.0332, 3.0358, 3.0302, 3.0342,3.0342,0.03296848213107939
SingleSource/Benchmarks/BenchmarkGame/fannkuch, 2.2517, 2.2548, 2.2500,2.2517, 2.2523, 2.2533, 2.2514,2.2523,0.026646533730056987
MultiSource/Benchmarks/Trimaran/netbench-url/netbench-url, 2.9790, 2.9795, 2.9791,2.9791, 2.9932, 2.9792, 2.9798,2.9798,0.02349702930415365
MultiSource/Benchmarks/Trimaran/enc-3des/enc-3des, 1.2817, 1.2817, 1.2817,1.2817, 1.2820, 1.2820, 1.2821,1.282,0.02340641335725202
MultiSource/Benchmarks/TSVC/GlobalDataFlow-dbl/GlobalDataFlow-dbl, 2.8365, 2.8397, 2.8386,2.8386, 2.8395, 2.8386, 2.8392,2.8392,0.021137180300145886
MultiSource/Benchmarks/TSVC/LoopRerolling-dbl/LoopRerolling-dbl, 4.6037, 4.5872, 4.5875,4.5875, 4.5883, 4.5880, 4.6046,4.5883,0.0174386920980929
MultiSource/Benchmarks/TSVC/Expansion-flt/Expansion-flt, 1.1547, 1.1592, 1.1621,1.1592, 1.1585, 1.1631, 1.1594,1.1594,0.01725327812283073
MultiSource/Benchmarks/Fhourstones-3.1/fhourstones3.1, 0.7966, 0.7964, 0.7966,0.7966, 0.7950, 0.7968, 0.7967,0.7967,0.012553351744903907
SingleSource/Benchmarks/Polybench/linear-algebra/kernels/syrk/syrk, 4.6300, 4.6295, 4.6293,4.6295, 4.6306, 4.6300, 4.6299,4.63,0.010800302408453533
MultiSource/Benchmarks/Olden/power/power, 0.9764, 0.9764, 0.9765,0.9764, 0.9765, 0.9765, 0.9765,0.9765,0.010241704219571268
MultiSource/Applications/obsequi/Obsequi, 1.0782, 1.0826, 1.0789,1.0789, 1.0790, 1.0790, 1.0791,1.079,0.009268699601450159
MultiSource/Benchmarks/TSVC/Searching-dbl/Searching-dbl, 2.2844, 2.2841, 2.2834,2.2841, 2.2843, 2.2842, 2.2844,2.2843,0.00875618405498102
MultiSource/Benchmarks/TSVC/LinearDependence-flt/LinearDependence-flt, 4.6218, 4.6170, 4.6179,4.6179, 4.6214, 4.6180, 4.6183,4.6183,0.008661945906141
SingleSource/Benchmarks/McGill/chomp, 1.2878, 1.2846, 1.2857,1.2857, 1.2852, 1.2873, 1.2858,1.2858,0.007777864198499351
SingleSource/Benchmarks/Misc-C++/Large/ray, 2.8211, 2.8211, 2.8210,2.8211, 2.8213, 2.8213, 2.8212,2.8213,0.007089433199825024
SingleSource/Benchmarks/CoyoteBench/huffbench, 9.3773, 9.3784, 9.3789,9.3784, 9.3801, 9.3790, 9.3784,9.379,0.006397679774816645
MultiSource/Benchmarks/TSVC/Recurrences-dbl/Recurrences-dbl, 3.5013, 3.5012, 3.5012,3.5012, 3.5013, 3.5012, 3.5013,3.5013,0.0028561636010504543
SingleSource/Regression/C/uint64_to_float, 0.2607, 0.2608, 0.2608,0.2608, 0.2608, 0.2608, 0.2608,0.2608,0.0
SingleSource/Regression/C/2004-08-12-InlinerAndAllocas, 0.0015, 0.0015, 0.0015,0.0015, 0.0015, 0.0015, 0.0015,0.0015,0.0
SingleSource/Benchmarks/Stanford/RealMM, 0.0020, 0.0020, 0.0020,0.002, 0.0020, 0.0020, 0.0020,0.002,0.0
SingleSource/Benchmarks/Stanford/Perm, 0.0147, 0.0147, 0.0147,0.0147, 0.0147, 0.0147, 0.0147,0.0147,0.0
SingleSource/Benchmarks/Stanford/FloatMM, 0.5466, 0.5466, 0.5465,0.5466, 0.5467, 0.5466, 0.5466,0.5466,0.0
SingleSource/Benchmarks/Stanford/Bubblesort, 0.0160, 0.0162, 0.0161,0.0161, 0.0161, 0.0161, 0.0162,0.0161,0.0
SingleSource/Benchmarks/Shootout/objinst, 0.0009, 0.0009, 0.0009,0.0009, 0.0009, 0.0009, 0.0009,0.0009,0.0
SingleSource/Benchmarks/Shootout/nestedloop, 0.0009, 0.0009, 0.0009,0.0009, 0.0009, 0.0009, 0.0009,0.0009,0.0
SingleSource/Benchmarks/Shootout/methcall, 3.2761, 3.2762, 3.2759,3.2761, 3.2762, 3.2761, 3.2760,3.2761,0.0
SingleSource/Benchmarks/Shootout-C++/random, 1.7450, 1.7450, 1.7450,1.745, 1.7450, 1.7450, 1.7450,1.745,0.0
SingleSource/Benchmarks/Shootout-C++/methcall, 3.5460, 3.5464, 3.5459,3.546, 3.5508, 3.5460, 3.5460,3.546,0.0
SingleSource/Benchmarks/Shootout-C++/matrix, 1.3226, 1.3266, 1.3230,1.323, 1.3226, 1.3266, 1.3230,1.323,0.0
SingleSource/Benchmarks/Shootout-C++/ary2, 0.0149, 0.0151, 0.0150,0.015, 0.0150, 0.0150, 0.0150,0.015,0.0
SingleSource/Benchmarks/Shootout-C++/ary, 0.0143, 0.0142, 0.0142,0.0142, 0.0142, 0.0142, 0.0142,0.0142,0.0
SingleSource/Benchmarks/Shootout-C++/EH/except, 0.1208, 0.1204, 0.1204,0.1204, 0.1204, 0.1204, 0.1208,0.1204,0.0
SingleSource/Benchmarks/Polybench/medley/reg_detect/reg_detect, 0.0145, 0.0145, 0.0145,0.0145, 0.0144, 0.0146, 0.0145,0.0145,0.0
SingleSource/Benchmarks/Polybench/linear-algebra/solvers/lu/lu, 0.0023, 0.0023, 0.0023,0.0023, 0.0023, 0.0023, 0.0023,0.0023,0.0
SingleSource/Benchmarks/Polybench/linear-algebra/kernels/bicg/bicg, 0.2122, 0.2122, 0.2122,0.2122, 0.2122, 0.2122, 0.2122,0.2122,0.0
SingleSource/Benchmarks/Misc/pi, 0.6943, 0.6943, 0.6943,0.6943, 0.6943, 0.6943, 0.6943,0.6943,0.0
SingleSource/Benchmarks/Misc/matmul_f64_4x4, 1.2953, 1.2953, 1.2953,1.2953, 1.2953, 1.2953, 1.2952,1.2953,0.0
SingleSource/Benchmarks/Misc/mandel-2, 1.2780, 1.2780, 1.2780,1.278, 1.2780, 1.2781, 1.2780,1.278,0.0
SingleSource/Benchmarks/Misc/fp-convert, 3.0626, 3.0626, 3.0626,3.0626, 3.0627, 3.0626, 3.0626,3.0626,0.0
SingleSource/Benchmarks/Misc/flops-7, 1.5902, 1.5901, 1.5902,1.5902, 1.5902, 1.5902, 1.5902,1.5902,0.0
SingleSource/Benchmarks/Misc/flops-6, 3.4395, 3.4395, 3.4396,3.4395, 3.4395, 3.4395, 3.4395,3.4395,0.0
SingleSource/Benchmarks/Misc/flops-5, 4.2776, 4.2776, 4.2776,4.2776, 4.2776, 4.2776, 4.2776,4.2776,0.0
SingleSource/Benchmarks/Misc/flops-2, 0.8627, 0.8628, 0.8627,0.8627, 0.8627, 0.8627, 0.8628,0.8627,0.0
SingleSource/Benchmarks/Misc/fbench, 1.7531, 1.7530, 1.7531,1.7531, 1.7531, 1.7531, 1.7531,1.7531,0.0
SingleSource/Benchmarks/Misc/dt, 0.6919, 0.6919, 0.6920,0.6919, 0.6919, 0.6919, 0.6920,0.6919,0.0
SingleSource/Benchmarks/Misc-C++/mandel-text, 1.6048, 1.6053, 1.6042,1.6048, 1.6050, 1.6044, 1.6048,1.6048,0.0
SingleSource/Benchmarks/Dhrystone/fldry, 0.3655, 0.3655, 0.3655,0.3655, 0.3655, 0.3655, 0.3655,0.3655,0.0
SingleSource/Benchmarks/Dhrystone/dry, 0.3351, 0.3351, 0.3351,0.3351, 0.3351, 0.3351, 0.3351,0.3351,0.0
SingleSource/Benchmarks/BenchmarkGame/spectral-norm, 0.9733, 0.9733, 0.9733,0.9733, 0.9733, 0.9733, 0.9733,0.9733,0.0
SingleSource/Benchmarks/BenchmarkGame/recursive, 0.7045, 0.7044, 0.7045,0.7045, 0.7045, 0.7044, 0.7046,0.7045,0.0
SingleSource/Benchmarks/BenchmarkGame/partialsums, 0.5687, 0.5687, 0.5688,0.5687, 0.5687, 0.5687, 0.5687,0.5687,0.0
SingleSource/Benchmarks/BenchmarkGame/n-body, 1.3713, 1.3713, 1.3713,1.3713, 1.3713, 1.3712, 1.3713,1.3713,0.0
SingleSource/Benchmarks/Adobe-C++/simple_types_constant_folding, 0.6684, 0.6684, 0.6688,0.6684, 0.6684, 0.6684, 0.6684,0.6684,0.0
MultiSource/Benchmarks/mediabench/gsm/toast/toast, 0.0155, 0.0155, 0.0154,0.0155, 0.0155, 0.0154, 0.0155,0.0155,0.0
MultiSource/Benchmarks/mediabench/g721/g721encode/encode, 0.0291, 0.0290, 0.0291,0.0291, 0.0291, 0.0290, 0.0291,0.0291,0.0
MultiSource/Benchmarks/mediabench/adpcm/rawcaudio/rawcaudio, 0.0029, 0.0029, 0.0029,0.0029, 0.0029, 0.0029, 0.0029,0.0029,0.0
MultiSource/Benchmarks/VersaBench/ecbdes/ecbdes, 1.6837, 1.6836, 1.6837,1.6837, 1.6837, 1.6837, 1.6837,1.6837,0.0
MultiSource/Benchmarks/VersaBench/bmm/bmm, 1.6827, 1.6827, 1.6827,1.6827, 1.6827, 1.6825, 1.6829,1.6827,0.0
MultiSource/Benchmarks/Trimaran/enc-pc1/enc-pc1, 0.3528, 0.3529, 0.3528,0.3528, 0.3528, 0.3528, 0.3528,0.3528,0.0
MultiSource/Benchmarks/Trimaran/enc-md5/enc-md5, 1.3940, 1.3937, 1.3938,1.3938, 1.3940, 1.3938, 1.3938,1.3938,0.0
MultiSource/Benchmarks/TSVC/Reductions-flt/Reductions-flt, 5.9693, 5.9694, 5.9695,5.9694, 5.9695, 5.9694, 5.9694,5.9694,0.0
MultiSource/Benchmarks/TSVC/Recurrences-flt/Recurrences-flt, 3.5010, 3.5009, 3.5010,3.501, 3.5010, 3.5010, 3.5010,3.501,0.0
MultiSource/Benchmarks/Prolangs-C/gnugo/gnugo, 0.0240, 0.0241, 0.0241,0.0241, 0.0242, 0.0241, 0.0240,0.0241,0.0
MultiSource/Benchmarks/Prolangs-C++/simul/simul, 0.0040, 0.0040, 0.0040,0.004, 0.0040, 0.0040, 0.0040,0.004,0.0
MultiSource/Benchmarks/MiBench/telecomm-FFT/telecomm-fft, 0.0386, 0.0386, 0.0386,0.0386, 0.0387, 0.0386, 0.0386,0.0386,0.0
MultiSource/Benchmarks/MiBench/network-dijkstra/network-dijkstra, 0.0238, 0.0237, 0.0239,0.0238, 0.0238, 0.0239, 0.0238,0.0238,0.0
MultiSource/Benchmarks/MiBench/automotive-basicmath/automotive-basicmath, 0.2227, 0.2230, 0.2226,0.2227, 0.2226, 0.2229, 0.2227,0.2227,0.0
MultiSource/Benchmarks/McCat/08-main/main, 0.0430, 0.0429, 0.0429,0.0429, 0.0429, 0.0429, 0.0429,0.0429,0.0
MultiSource/Benchmarks/McCat/05-eks/eks, 0.0036, 0.0036, 0.0036,0.0036, 0.0036, 0.0036, 0.0036,0.0036,0.0
MultiSource/Benchmarks/McCat/04-bisect/bisect, 0.0791, 0.0790, 0.0792,0.0791, 0.0791, 0.0791, 0.0791,0.0791,0.0
MultiSource/Benchmarks/FreeBench/pifft/pifft, 0.0640, 0.0641, 0.0640,0.064, 0.0639, 0.0640, 0.0640,0.064,0.0
MultiSource/Benchmarks/FreeBench/pcompress2/pcompress2, 0.1030, 0.1031, 0.1030,0.103, 0.1030, 0.1030, 0.1030,0.103,0.0
MultiSource/Benchmarks/FreeBench/mason/mason, 0.1317, 0.1317, 0.1318,0.1317, 0.1316, 0.1317, 0.1318,0.1317,0.0
MultiSource/Applications/sgefa/sgefa, 0.1154, 0.1153, 0.1157,0.1154, 0.1154, 0.1154, 0.1155,0.1154,0.0
SingleSource/Benchmarks/CoyoteBench/almabench,12.5856,12.5852,12.5857,12.5856,12.5851,12.5854,12.5857,12.5854,-0.0015891177218341213
SingleSource/Benchmarks/Misc/ReedSolomon, 3.1981, 3.1978, 3.1974,3.1978, 3.1972, 3.1979, 3.1977,3.1977,-0.003127149915560512
SingleSource/Benchmarks/Misc-C++/Large/sphereflake, 5.5045, 5.5046, 5.5047,5.5046, 5.5041, 5.5045, 5.5044,5.5044,-0.0036333248555675546
SingleSource/Benchmarks/Misc-C++/stepanov_v1p2, 7.9034, 7.9034, 7.9034,7.9034, 7.9032, 7.9031, 7.9031,7.9031,-0.0037958347040567553
MultiSource/Applications/hexxagon/hexxagon, 6.8368, 6.8376, 6.8372,6.8372, 6.8369, 6.8369, 6.8369,6.8369,-0.004387761071789065
SingleSource/Benchmarks/Shootout/random, 1.7449, 1.7449, 1.7449,1.7449, 1.7448, 1.7449, 1.7448,1.7448,-0.005730987449137359
MultiSource/Benchmarks/ASC_Sequoia/CrystalMk/CrystalMk, 6.7158, 6.7169, 6.7164,6.7164, 6.7160, 6.7157, 6.7169,6.716,-0.005955571437077367
SingleSource/Benchmarks/McGill/queens, 1.5489, 1.5488, 1.5489,1.5489, 1.5491, 1.5485, 1.5488,1.5488,-0.006456194718829078
SingleSource/Benchmarks/Shootout/fib2, 1.4732, 1.4748, 1.4732,1.4732, 1.4731, 1.4731, 1.4722,1.4731,-0.006787944610375796
SingleSource/Benchmarks/Misc/perlin, 3.9906, 3.9910, 3.9909,3.9909, 3.9906, 3.9906, 3.9905,3.9906,-0.00751710140569628
MultiSource/Benchmarks/TSVC/Reductions-dbl/Reductions-dbl, 3.4751, 3.4751, 3.4748,3.4751, 3.4748, 3.4750, 3.4748,3.4748,-0.008632845097977793
MultiSource/Applications/aha/aha, 1.0744, 1.0737, 1.0726,1.0737, 1.0736, 1.0737, 1.0724,1.0736,-0.00931358852566122
SingleSource/Benchmarks/Misc/mandel, 0.8022, 0.8024, 0.8023,0.8023, 0.8022, 0.8021, 0.8023,0.8022,-0.012464165524117554
SingleSource/Benchmarks/SmallPT/smallpt, 7.3939, 7.3915, 7.3925,7.3925, 7.3942, 7.3915, 7.3913,7.3915,-0.01352722353736846
SingleSource/Benchmarks/Shootout-C++/fibo, 1.4737, 1.4748, 1.4754,1.4748, 1.4746, 1.4766, 1.4742,1.4746,-0.013561160835384722
MultiSource/Benchmarks/Trimaran/enc-rc4/enc-rc4, 0.7354, 0.7352, 0.7352,0.7352, 0.7348, 0.7351, 0.7360,0.7351,-0.01360174102285061
MultiSource/Benchmarks/VersaBench/beamformer/beamformer, 0.6732, 0.6733, 0.6733,0.6733, 0.6732, 0.6732, 0.6733,0.6732,-0.014852220406946781
SingleSource/Benchmarks/Shootout-C++/ackermann, 0.6574, 0.6573, 0.6574,0.6574, 0.6573, 0.6574, 0.6573,0.6573,-0.015211439002127403
SingleSource/Benchmarks/Polybench/stencils/seidel-2d/seidel-2d, 0.6466, 0.6465, 0.6466,0.6466, 0.6466, 0.6465, 0.6465,0.6465,-0.015465511908441254
SingleSource/Benchmarks/Linpack/linpack-pc, 1.2864, 1.2883, 1.2877,1.2877, 1.2875, 1.2874, 1.2896,1.2875,-0.015531567911775124
SingleSource/Benchmarks/Polybench/stencils/adi/adi, 2.8086, 2.8103, 2.8099,2.8099, 2.8107, 2.8088, 2.8092,2.8092,-0.0249119185736002
MultiSource/Benchmarks/TSVC/NodeSplitting-flt/NodeSplitting-flt, 4.6470, 4.6544, 4.6510,4.651, 4.6511, 4.6497, 4.6471,4.6497,-0.02795097828423021
MultiSource/Benchmarks/Trimaran/netbench-crc/netbench-crc, 0.6215, 0.6216, 0.6214,0.6215, 0.6217, 0.6213, 0.6212,0.6213,-0.03218020917137299
SingleSource/Benchmarks/Shootout/ary3, 0.5904, 0.5894, 0.5847,0.5894, 0.5877, 0.5913, 0.5892,0.5892,-0.033932813030213005
MultiSource/Benchmarks/TSVC/Searching-flt/Searching-flt, 2.4425, 2.4410, 2.4413,2.4413, 2.4437, 2.4404, 2.4404,2.4404,-0.03686560439111197
SingleSource/Benchmarks/Polybench/linear-algebra/solvers/dynprog/dynprog, 0.2683, 0.2680, 0.2683,0.2683, 0.2682, 0.2682, 0.2694,0.2682,-0.0372717107715248
MultiSource/Benchmarks/TSVC/IndirectAddressing-dbl/IndirectAddressing-dbl, 2.4743, 2.4863, 2.4768,2.4768, 2.4757, 2.4779, 2.4705,2.4757,-0.04441214470284338
SingleSource/Benchmarks/BenchmarkGame/Large/fasta, 0.6491, 0.6494, 0.6494,0.6494, 0.6491, 0.6482, 0.6492,0.6491,-0.04619648906682983
SingleSource/Benchmarks/Polybench/datamining/covariance/covariance, 1.6571, 1.6485, 1.6509,1.6509, 1.6403, 1.6518, 1.6501,1.6501,-0.04845841662124428
MultiSource/Benchmarks/Olden/voronoi/voronoi, 0.2063, 0.2061, 0.2058,0.2061, 0.2068, 0.2056, 0.2060,0.206,-0.048520135856389146
MultiSource/Benchmarks/TSVC/Symbolics-dbl/Symbolics-dbl, 2.4432, 2.4425, 2.4568,2.4432, 2.4574, 2.4420, 2.4419,2.442,-0.04911591355598599
MultiSource/Benchmarks/TSVC/NodeSplitting-dbl/NodeSplitting-dbl, 5.0236, 5.0210, 5.0294,5.0236, 5.0209, 5.0204, 5.0295,5.0209,-0.05374631738195301
SingleSource/Benchmarks/Misc/richards_benchmark, 0.5319, 0.5317, 0.5316,0.5317, 0.5311, 0.5320, 0.5314,0.5314,-0.05642279480909673
MultiSource/Benchmarks/FreeBench/neural/neural, 0.1645, 0.1645, 0.1644,0.1645, 0.1644, 0.1644, 0.1643,0.1644,-0.06079027355624378
MultiSource/Benchmarks/Olden/health/health, 0.1453, 0.1453, 0.1452,0.1453, 0.1458, 0.1452, 0.1452,0.1452,-0.06882312456987227
MultiSource/Benchmarks/TSVC/IndirectAddressing-flt/IndirectAddressing-flt, 2.3031, 2.3035, 2.3054,2.3035, 2.3030, 2.3007, 2.3019,2.3019,-0.06945951812460383
MultiSource/Benchmarks/TSVC/ControlLoops-dbl/ControlLoops-dbl, 2.5380, 2.5318, 2.5307,2.5318, 2.5309, 2.5300, 2.5294,2.53,-0.0710956631645554
MultiSource/Benchmarks/ASCI_Purple/SMG2000/smg2000, 1.1724, 1.1719, 1.1758,1.1724, 1.1757, 1.1715, 1.1714,1.1715,-0.07676560900717888
MultiSource/Benchmarks/TSVC/StatementReordering-flt/StatementReordering-flt, 1.8280, 1.8198, 1.8297,1.828, 1.8282, 1.8265, 1.8217,1.8265,-0.0820568927789922
MultiSource/Benchmarks/MiBench/telecomm-gsm/telecomm-gsm, 0.1179, 0.1178, 0.1179,0.1179, 0.1178, 0.1178, 0.1179,0.1178,-0.08481764206955678
SingleSource/Benchmarks/BenchmarkGame/puzzle, 0.1142, 0.1147, 0.1142,0.1142, 0.1142, 0.1140, 0.1141,0.1141,-0.08756567425569628
MultiSource/Benchmarks/MallocBench/espresso/espresso, 0.3063, 0.3062, 0.3063,0.3063, 0.3060, 0.3059, 0.3060,0.306,-0.09794319294810228
MultiSource/Benchmarks/Prolangs-C++/life/life, 0.7113, 0.7047, 0.7064,0.7064, 0.7057, 0.7112, 0.7053,0.7057,-0.09909399773500027
MultiSource/Benchmarks/SciMark2-C/scimark2,43.0922,42.9418,42.8801,42.9418,42.9188,42.8969,42.7914,42.8969,-0.10456012556530059
MultiSource/Benchmarks/Olden/bisort/bisort, 0.3669, 0.3679, 0.3661,0.3669, 0.3665, 0.3668, 0.3659,0.3665,-0.10902153175252893
SingleSource/Benchmarks/Polybench/linear-algebra/kernels/cholesky/cholesky, 0.4578, 0.4619, 0.4578,0.4578, 0.4573, 0.4609, 0.4563,0.4573,-0.1092179991262543
SingleSource/Benchmarks/Adobe-C++/loop_unroll, 1.8928, 1.8921, 1.8922,1.8922, 1.8929, 1.8900, 1.8885,1.89,-0.11626677941022345
MultiSource/Applications/siod/siod, 1.1048, 1.1052, 1.1048,1.1048, 1.1006, 1.1035, 1.1036,1.1035,-0.1176683562635894
SingleSource/Benchmarks/Polybench/stencils/fdtd-2d/fdtd-2d, 0.3956, 0.3950, 0.3942,0.395, 0.3958, 0.3939, 0.3945,0.3945,-0.12658227848101333
SingleSource/Benchmarks/Polybench/medley/floyd-warshall/floyd-warshall, 3.4411, 3.4348, 3.4411,3.4411, 3.4292, 3.4377, 3.4361,3.4361,-0.14530237424079662
MultiSource/Applications/JM/lencod/lencod, 3.2641, 3.2623, 3.2730,3.2641, 3.2682, 3.2576, 3.2593,3.2593,-0.14705431818877734
MultiSource/Benchmarks/TSVC/InductionVariable-flt/InductionVariable-flt, 2.5690, 2.5763, 2.5779,2.5763, 2.5718, 2.5665, 2.5766,2.5718,-0.17466909909559236
MultiSource/Benchmarks/Prolangs-C++/primes/primes, 0.2131, 0.2119, 0.2144,0.2131, 0.2131, 0.2123, 0.2127,0.2127,-0.187705302674801
MultiSource/Benchmarks/Ptrdist/yacr2/yacr2, 0.5097, 0.5096, 0.5097,0.5097, 0.5086, 0.5088, 0.5087,0.5087,-0.1961938395134366
SingleSource/Benchmarks/Shootout-C++/hash, 0.3219, 0.3226, 0.3219,0.3219, 0.3212, 0.3221, 0.3212,0.3212,-0.21745883814849876
MultiSource/Applications/spiff/spiff, 1.2809, 1.2779, 1.2830,1.2809, 1.2787, 1.2781, 1.2766,1.2781,-0.21859629947692527
SingleSource/Benchmarks/Polybench/datamining/correlation/correlation, 1.6833, 1.6940, 1.6870,1.687, 1.6814, 1.6890, 1.6833,1.6833,-0.219324244220509
SingleSource/Benchmarks/Misc/salsa20, 4.8286, 4.8175, 4.8285,4.8285, 4.8173, 4.8173, 4.8174,4.8173,-0.23195609402505424
SingleSource/Benchmarks/Misc-C++/bigfib, 0.1923, 0.1924, 0.1921,0.1923, 0.1924, 0.1918, 0.1918,0.1918,-0.26001040041602197
MultiSource/Applications/JM/ldecod/ldecod, 0.0365, 0.0364, 0.0363,0.0364, 0.0363, 0.0364, 0.0363,0.0363,-0.27472527472528485
MultiSource/Benchmarks/Prolangs-C++/ocean/ocean, 0.0364, 0.0363, 0.0363,0.0363, 0.0363, 0.0362, 0.0362,0.0362,-0.2754820936639035
MultiSource/Benchmarks/TSVC/Equivalencing-flt/Equivalencing-flt, 0.9686, 0.9694, 0.9703,0.9694, 0.9667, 0.9665, 0.9685,0.9667,-0.2785227976067728
SingleSource/Benchmarks/CoyoteBench/fftbench, 0.6362, 0.6348, 0.6337,0.6348, 0.6338, 0.6328, 0.6302,0.6328,-0.3150598613736566
MultiSource/Benchmarks/ASC_Sequoia/IRSmk/IRSmk, 3.0191, 2.9866, 3.0134,3.0134, 3.0098, 3.0036, 2.9882,3.0036,-0.3252140439370721
MultiSource/Benchmarks/TSVC/Equivalencing-dbl/Equivalencing-dbl, 1.3847, 1.3864, 1.3842,1.3847, 1.3801, 1.3817, 1.3798,1.3801,-0.33220192099371326
MultiSource/Benchmarks/Ptrdist/bc/bc, 0.3583, 0.3587, 0.3583,0.3583, 0.3570, 0.3572, 0.3570,0.357,-0.36282444878593667
MultiSource/Benchmarks/7zip/7zip-benchmark, 6.4132, 6.4023, 6.4065,6.4065, 6.3715, 6.3835, 6.3827,6.3827,-0.3714976976508355
MultiSource/Benchmarks/TSVC/ControlFlow-flt/ControlFlow-flt, 3.5024, 3.4799, 3.5042,3.5024, 3.4829, 3.4905, 3.4884,3.4884,-0.39972590223846804
MultiSource/Applications/minisat/minisat, 4.1755, 4.1783, 4.1651,4.1755, 4.1566, 4.1661, 4.1567,4.1567,-0.45024547958329997
SingleSource/Benchmarks/Adobe-C++/stepanov_vector, 2.2679, 2.2676, 2.2687,2.2679, 2.2578, 2.2571, 2.2576,2.2576,-0.4541646457074777
MultiSource/Benchmarks/Bullet/bullet, 3.2703, 3.2930, 3.2793,3.2793, 3.2608, 3.2751, 3.2622,3.2622,-0.5214527490623011
SingleSource/Benchmarks/Adobe-C++/stepanov_abstraction, 4.2296, 4.2301, 4.2301,4.2301, 4.2036, 4.2024, 4.2028,4.2028,-0.6453748138341986
SingleSource/Benchmarks/Polybench/stencils/jacobi-2d-imper/jacobi-2d-imper, 0.1478, 0.1476, 0.1464,0.1476, 0.1457, 0.1463, 0.1465,0.1463,-0.8807588075880779
SingleSource/Benchmarks/Shootout-C++/ary3, 0.5415, 0.5386, 0.5412,0.5412, 0.5394, 0.5363, 0.5341,0.5363,-0.9053954175905377
SingleSource/Benchmarks/Shootout-C++/hash2, 1.7877, 1.7878, 1.7845,1.7877, 1.7706, 1.7708, 1.7692,1.7706,-0.956536331599267
SingleSource/Benchmarks/Stanford/Quicksort, 0.0303, 0.0303, 0.0303,0.0303, 0.0300, 0.0301, 0.0300,0.03,-0.990099009900991
MultiSource/Benchmarks/MallocBench/cfrac/cfrac, 0.7709, 0.7702, 0.7703,0.7703, 0.7605, 0.7610, 0.7605,0.7605,-1.272231598078677
SingleSource/Benchmarks/Adobe-C++/functionobjects, 3.0271, 3.0266, 3.0270,3.027, 2.9862, 2.9873, 2.9850,2.9862,-1.3478691774033713
Total elapsed time,-,-,-,572.3491000000004,-,-,-,572.7148,0.06389457063873394
Total failure,-,-,-,0,-,-,-,0,
Geom. avg slowdown,,,,,,,,,0.0169991137037%
