Benchmarks,base-4.0,base-4.0,base-4.0,median,insts,insts,insts,median,Slowdown(%)
MultiSource/Applications/lambda-0.1.3/lambda, 2.6527, 2.6449, 2.6437,2.6449, 2.6895, 2.6977, 2.6865,2.6895,1.6862641309690396
MultiSource/Benchmarks/Olden/voronoi/voronoi, 0.2045, 0.2049, 0.2050,0.2049, 0.2073, 0.2073, 0.2076,0.2073,1.171303074670571
MultiSource/Benchmarks/TSVC/CrossingThresholds-dbl/CrossingThresholds-dbl, 2.1494, 2.1485, 2.1495,2.1494, 2.1723, 2.1726, 2.1730,2.1726,1.0793709872522594
SingleSource/Benchmarks/Misc/ffbench, 0.5771, 0.5770, 0.5786,0.5771, 0.5831, 0.5807, 0.5868,0.5831,1.0396811644429071
MultiSource/Applications/JM/ldecod/ldecod, 0.0364, 0.0362, 0.0363,0.0363, 0.0366, 0.0366, 0.0363,0.0366,0.8264462809917328
MultiSource/Applications/kimwitu++/kc, 0.0278, 0.0281, 0.0280,0.028, 0.0280, 0.0282, 0.0283,0.0282,0.7142857142857117
MultiSource/Applications/d/make_dparser, 0.0159, 0.0159, 0.0159,0.0159, 0.0160, 0.0160, 0.0161,0.016,0.6289308176100628
MultiSource/Benchmarks/Olden/mst/mst, 0.0524, 0.0521, 0.0524,0.0524, 0.0524, 0.0527, 0.0527,0.0527,0.5725190839694472
MultiSource/Benchmarks/ASC_Sequoia/IRSmk/IRSmk, 2.9961, 2.9911, 3.0136,2.9961, 3.0205, 2.9970, 3.0119,3.0119,0.5273522245585749
SingleSource/Benchmarks/Misc-C++-EH/spirit, 2.6087, 2.6127, 2.6093,2.6093, 2.6218, 2.6218, 2.6213,2.6218,0.479055685432872
SingleSource/Benchmarks/BenchmarkGame/recursive, 0.7078, 0.7126, 0.7045,0.7078, 0.7113, 0.7061, 0.7111,0.7111,0.4662333992653256
MultiSource/Benchmarks/Olden/bisort/bisort, 0.3672, 0.3653, 0.3653,0.3653, 0.3666, 0.3670, 0.3667,0.3667,0.3832466465918394
SingleSource/Benchmarks/CoyoteBench/lpbench, 1.8213, 1.8188, 1.8247,1.8213, 1.8313, 1.8277, 1.8256,1.8277,0.35139735353868495
SingleSource/Benchmarks/Stanford/Quicksort, 0.0303, 0.0302, 0.0303,0.0303, 0.0303, 0.0304, 0.0304,0.0304,0.3300330033003229
MultiSource/Benchmarks/ASC_Sequoia/AMGmk/AMGmk, 5.0462, 5.0469, 5.0387,5.0462, 5.0555, 5.0626, 5.0709,5.0626,0.3249970274662006
MultiSource/Benchmarks/PAQ8p/paq8p,43.9231,43.9353,43.9853,43.9353,44.1184,44.0759,44.0543,44.0759,0.3200160235619087
MultiSource/Benchmarks/Olden/treeadd/treeadd, 0.1266, 0.1265, 0.1265,0.1265, 0.1265, 0.1269, 0.1270,0.1269,0.3162055335968361
SingleSource/Benchmarks/Shootout/hash, 2.7853, 2.7757, 2.7788,2.7788, 2.7839, 2.7903, 2.7871,2.7871,0.29869008204981284
MultiSource/Benchmarks/MallocBench/cfrac/cfrac, 0.7706, 0.7705, 0.7707,0.7706, 0.7728, 0.7730, 0.7728,0.7728,0.2854918245523086
SingleSource/Benchmarks/Polybench/datamining/correlation/correlation, 1.6771, 1.6736, 1.6807,1.6771, 1.6802, 1.6818, 1.6852,1.6818,0.28024566215489877
MultiSource/Benchmarks/mafft/pairlocalalign,26.2159,26.2173,26.2173,26.2173,26.3066,26.2873,26.2896,26.2896,0.27577210467897295
SingleSource/Benchmarks/Misc-C++/bigfib, 0.1908, 0.1912, 0.1915,0.1912, 0.1913, 0.1916, 0.1917,0.1916,0.20920502092049986
MultiSource/Benchmarks/Olden/tsp/tsp, 1.0828, 1.0831, 1.0826,1.0828, 1.0850, 1.0841, 1.0854,1.085,0.20317694865163993
SingleSource/Benchmarks/Shootout-C++/moments, 0.0504, 0.0505, 0.0505,0.0505, 0.0505, 0.0507, 0.0506,0.0506,0.1980198019801982
MultiSource/Benchmarks/TSVC/CrossingThresholds-flt/CrossingThresholds-flt, 1.6132, 1.6235, 1.6247,1.6235, 1.6267, 1.6341, 1.6251,1.6267,0.1971050200184843
MultiSource/Benchmarks/VersaBench/dbms/dbms, 0.8949, 0.8906, 0.8888,0.8906, 0.8933, 0.8870, 0.8923,0.8923,0.19088255108916652
SingleSource/Benchmarks/Polybench/linear-algebra/kernels/cholesky/cholesky, 0.4624, 0.4596, 0.4558,0.4596, 0.4604, 0.4609, 0.4591,0.4604,0.17406440382941035
MultiSource/Benchmarks/TSVC/ControlLoops-flt/ControlLoops-flt, 2.3450, 2.3448, 2.3514,2.345, 2.3563, 2.3490, 2.3458,2.349,0.17057569296374808
MultiSource/Benchmarks/MiBench/telecomm-gsm/telecomm-gsm, 0.1179, 0.1180, 0.1178,0.1179, 0.1182, 0.1179, 0.1181,0.1181,0.16963528413909135
SingleSource/Benchmarks/CoyoteBench/almabench,12.5850,12.5853,12.6081,12.5853,12.6088,12.5964,12.6063,12.6063,0.16686133822791938
MultiSource/Benchmarks/Olden/bh/bh, 1.2608, 1.2599, 1.2601,1.2601, 1.2602, 1.2621, 1.2670,1.2621,0.15871756209824284
SingleSource/Benchmarks/Shootout-C++/ary3, 0.5382, 0.5332, 0.5360,0.536, 0.5333, 0.5417, 0.5367,0.5367,0.1305970149253488
SingleSource/Benchmarks/Shootout/lists, 4.0595, 4.0572, 4.0564,4.0572, 4.0627, 4.0620, 4.0623,4.0623,0.12570245489498255
MultiSource/Benchmarks/Olden/em3d/em3d, 1.7033, 1.7034, 1.7036,1.7034, 1.7052, 1.7055, 1.7061,1.7055,0.1232828460725699
SingleSource/Benchmarks/Polybench/datamining/covariance/covariance, 1.6473, 1.6544, 1.6476,1.6476, 1.6518, 1.6494, 1.6494,1.6494,0.10924981791697874
MultiSource/Benchmarks/TSVC/Symbolics-flt/Symbolics-flt, 1.3911, 1.3914, 1.3990,1.3914, 1.3928, 1.3981, 1.3926,1.3928,0.10061808250683146
SingleSource/Benchmarks/Shootout-C++/heapsort, 2.0345, 2.0392, 2.0351,2.0351, 2.0305, 2.0367, 2.0382,2.0367,0.07862021522284657
MultiSource/Benchmarks/FreeBench/distray/distray, 0.1332, 0.1331, 0.1331,0.1331, 0.1332, 0.1332, 0.1332,0.1332,0.07513148009017367
SingleSource/Benchmarks/Polybench/linear-algebra/solvers/dynprog/dynprog, 0.2682, 0.2686, 0.2677,0.2682, 0.2680, 0.2690, 0.2684,0.2684,0.07457121551082135
MultiSource/Benchmarks/TSVC/Equivalencing-flt/Equivalencing-flt, 0.9672, 0.9675, 0.9686,0.9675, 0.9688, 0.9682, 0.9678,0.9682,0.07235142118862115
MultiSource/Benchmarks/TSVC/Searching-flt/Searching-flt, 2.4433, 2.4416, 2.4432,2.4432, 2.4489, 2.4442, 2.4448,2.4448,0.06548788474132206
MultiSource/Benchmarks/Trimaran/netbench-crc/netbench-crc, 0.6203, 0.6211, 0.6205,0.6205, 0.6209, 0.6208, 0.6208,0.6208,0.048348106365825316
SingleSource/Benchmarks/BenchmarkGame/Large/fasta, 0.6491, 0.6493, 0.6500,0.6493, 0.6496, 0.6479, 0.6497,0.6496,0.046203603881100896
MultiSource/Benchmarks/NPB-serial/is/is, 5.2039, 5.2043, 5.2123,5.2043, 5.2097, 5.2065, 5.2046,5.2065,0.0422727360067654
SingleSource/Benchmarks/BenchmarkGame/fannkuch, 2.2526, 2.2521, 2.2505,2.2521, 2.2518, 2.2545, 2.2530,2.253,0.03996270147863523
SingleSource/Benchmarks/Misc/richards_benchmark, 0.5317, 0.5316, 0.5323,0.5317, 0.5316, 0.5319, 0.5322,0.5319,0.037615196539420026
MultiSource/Benchmarks/nbench/nbench, 1.1950, 1.1956, 1.1954,1.1954, 1.1958, 1.1952, 1.1970,1.1958,0.033461602810769264
MultiSource/Benchmarks/TSVC/GlobalDataFlow-flt/GlobalDataFlow-flt, 1.4943, 1.4980, 1.4997,1.498, 1.4926, 1.5010, 1.4985,1.4985,0.03337783711614417
MultiSource/Benchmarks/TSVC/InductionVariable-dbl/InductionVariable-dbl, 3.0349, 3.0344, 3.0504,3.0349, 3.0340, 3.0359, 3.0516,3.0359,0.03295001482750415
MultiSource/Benchmarks/TSVC/StatementReordering-flt/StatementReordering-flt, 1.8252, 1.8243, 1.8247,1.8247, 1.8296, 1.8238, 1.8253,1.8253,0.03288211760836823
MultiSource/Benchmarks/TSVC/ControlFlow-dbl/ControlFlow-dbl, 3.6762, 3.6748, 3.6725,3.6748, 3.6728, 3.6760, 3.6835,3.676,0.03265483835854788
MultiSource/Applications/JM/lencod/lencod, 3.2635, 3.2623, 3.2629,3.2629, 3.2558, 3.2644, 3.2639,3.2639,0.030647583438048187
MultiSource/Applications/aha/aha, 1.0720, 1.0734, 1.0741,1.0734, 1.0742, 1.0728, 1.0737,1.0737,0.027948574622715938
MultiSource/Applications/obsequi/Obsequi, 1.0799, 1.0787, 1.0780,1.0787, 1.0790, 1.0799, 1.0790,1.079,0.027811254287568588
SingleSource/Benchmarks/Shootout-C++/lists, 2.9682, 2.9776, 2.9734,2.9734, 2.9727, 2.9742, 2.9892,2.9742,0.026905226340234734
MultiSource/Benchmarks/TSVC/Expansion-flt/Expansion-flt, 1.1535, 1.1635, 1.1537,1.1537, 1.1540, 1.1516, 1.1545,1.154,0.026003293750531675
MultiSource/Benchmarks/TSVC/Searching-dbl/Searching-dbl, 2.2836, 2.2839, 2.2845,2.2839, 2.2843, 2.2847, 2.2843,2.2843,0.017513901659449438
SingleSource/Benchmarks/Shootout/heapsort, 2.0209, 2.0237, 2.0248,2.0237, 2.0240, 2.0189, 2.0257,2.024,0.014824331669727187
SingleSource/Benchmarks/Misc/ReedSolomon, 3.1974, 3.1979, 3.1975,3.1975, 3.1979, 3.1981, 3.1973,3.1979,0.012509773260371837
SingleSource/Benchmarks/Misc/flops-2, 0.8627, 0.8627, 0.8627,0.8627, 0.8628, 0.8628, 0.8627,0.8628,0.011591515011000197
MultiSource/Benchmarks/TSVC/ControlLoops-dbl/ControlLoops-dbl, 2.5302, 2.5309, 2.5379,2.5309, 2.5292, 2.5378, 2.5311,2.5311,0.007902327235376205
SingleSource/Benchmarks/Linpack/linpack-pc, 1.2891, 1.2880, 1.2901,1.2891, 1.2867, 1.2892, 1.2902,1.2892,0.0077573500891992
SingleSource/Benchmarks/McGill/queens, 1.5489, 1.5491, 1.5486,1.5489, 1.5492, 1.5490, 1.5486,1.549,0.00645619471884018
SingleSource/Benchmarks/Misc-C++/Large/sphereflake, 5.5044, 5.5043, 5.5042,5.5043, 5.5046, 5.5046, 5.5042,5.5046,0.00545028432317185
MultiSource/Benchmarks/VersaBench/8b10b/8b10b, 3.7821, 3.7686, 3.7693,3.7693, 3.7695, 3.7743, 3.7672,3.7695,0.0053060249913805535
MultiSource/Benchmarks/ASC_Sequoia/CrystalMk/CrystalMk, 6.7167, 6.7171, 6.7166,6.7167, 6.7167, 6.7171, 6.7170,6.717,0.004466479074527463
SingleSource/Benchmarks/Polybench/stencils/adi/adi, 2.8093, 2.8104, 2.8095,2.8095, 2.8102, 2.8088, 2.8096,2.8096,0.003559352197912702
SingleSource/Benchmarks/Misc-C++/Large/ray, 2.8211, 2.8212, 2.8212,2.8212, 2.8215, 2.8213, 2.8210,2.8213,0.003544590954196458
MultiSource/Benchmarks/TSVC/Recurrences-dbl/Recurrences-dbl, 3.5012, 3.5012, 3.5012,3.5012, 3.5013, 3.5012, 3.5013,3.5013,0.0028561636010504543
SingleSource/Benchmarks/Shootout-C++/methcall, 3.5459, 3.5508, 3.5459,3.5459, 3.5510, 3.5460, 3.5460,3.546,0.0028201584929110624
MultiSource/Benchmarks/TSVC/Reductions-flt/Reductions-flt, 5.9694, 5.9694, 5.9694,5.9694, 5.9695, 5.9694, 5.9695,5.9695,0.0016752102388828405
SingleSource/Regression/C/uint64_to_float, 0.2608, 0.2608, 0.2608,0.2608, 0.2608, 0.2607, 0.2608,0.2608,0.0
SingleSource/Benchmarks/Stanford/RealMM, 0.0020, 0.0020, 0.0020,0.002, 0.0020, 0.0020, 0.0020,0.002,0.0
SingleSource/Benchmarks/Stanford/Puzzle, 0.0875, 0.0874, 0.0876,0.0875, 0.0874, 0.0875, 0.0875,0.0875,0.0
SingleSource/Benchmarks/Stanford/Perm, 0.0147, 0.0147, 0.0147,0.0147, 0.0147, 0.0147, 0.0147,0.0147,0.0
SingleSource/Benchmarks/Stanford/Oscar, 0.0034, 0.0034, 0.0034,0.0034, 0.0034, 0.0034, 0.0034,0.0034,0.0
SingleSource/Benchmarks/Stanford/FloatMM, 0.5467, 0.5466, 0.5466,0.5466, 0.5466, 0.5466, 0.5467,0.5466,0.0
SingleSource/Benchmarks/Stanford/Bubblesort, 0.0161, 0.0161, 0.0162,0.0161, 0.0161, 0.0161, 0.0162,0.0161,0.0
SingleSource/Benchmarks/Shootout/strcat, 0.1052, 0.1053, 0.1052,0.1052, 0.1051, 0.1053, 0.1052,0.1052,0.0
SingleSource/Benchmarks/Shootout/random, 1.7449, 1.7449, 1.7449,1.7449, 1.7450, 1.7448, 1.7449,1.7449,0.0
SingleSource/Benchmarks/Shootout/objinst, 0.0009, 0.0009, 0.0009,0.0009, 0.0009, 0.0009, 0.0009,0.0009,0.0
SingleSource/Benchmarks/Shootout/fib2, 1.4728, 1.4735, 1.4741,1.4735, 1.4735, 1.4729, 1.4735,1.4735,0.0
SingleSource/Benchmarks/Shootout/ackermann, 0.0035, 0.0035, 0.0035,0.0035, 0.0035, 0.0035, 0.0035,0.0035,0.0
SingleSource/Benchmarks/Shootout-C++/strcat, 0.0406, 0.0405, 0.0406,0.0406, 0.0406, 0.0407, 0.0406,0.0406,0.0
SingleSource/Benchmarks/Shootout-C++/random, 1.7450, 1.7451, 1.7450,1.745, 1.7450, 1.7450, 1.7450,1.745,0.0
SingleSource/Benchmarks/Shootout-C++/matrix, 1.3230, 1.3224, 1.3226,1.3226, 1.3229, 1.3226, 1.3225,1.3226,0.0
SingleSource/Benchmarks/Shootout-C++/ackermann, 0.6572, 0.6573, 0.6573,0.6573, 0.6574, 0.6573, 0.6572,0.6573,0.0
SingleSource/Benchmarks/Polybench/stencils/seidel-2d/seidel-2d, 0.6465, 0.6465, 0.6465,0.6465, 0.6465, 0.6465, 0.6466,0.6465,0.0
SingleSource/Benchmarks/Polybench/stencils/jacobi-1d-imper/jacobi-1d-imper, 0.0037, 0.0037, 0.0037,0.0037, 0.0037, 0.0037, 0.0037,0.0037,0.0
SingleSource/Benchmarks/Polybench/medley/reg_detect/reg_detect, 0.0145, 0.0145, 0.0145,0.0145, 0.0145, 0.0145, 0.0145,0.0145,0.0
SingleSource/Benchmarks/Polybench/linear-algebra/solvers/lu/lu, 0.0023, 0.0023, 0.0023,0.0023, 0.0023, 0.0023, 0.0023,0.0023,0.0
SingleSource/Benchmarks/Polybench/linear-algebra/kernels/trisolv/trisolv, 0.1737, 0.1737, 0.1736,0.1737, 0.1739, 0.1737, 0.1737,0.1737,0.0
SingleSource/Benchmarks/Polybench/linear-algebra/kernels/bicg/bicg, 0.2122, 0.2122, 0.2123,0.2122, 0.2122, 0.2122, 0.2121,0.2122,0.0
SingleSource/Benchmarks/Misc/whetstone, 1.0275, 1.0198, 1.0275,1.0275, 1.0275, 1.0197, 1.0275,1.0275,0.0
SingleSource/Benchmarks/Misc/pi, 0.6943, 0.6943, 0.6944,0.6943, 0.6944, 0.6943, 0.6943,0.6943,0.0
SingleSource/Benchmarks/Misc/matmul_f64_4x4, 1.2953, 1.2953, 1.2951,1.2953, 1.2953, 1.2953, 1.2953,1.2953,0.0
SingleSource/Benchmarks/Misc/mandel-2, 1.2781, 1.2780, 1.2781,1.2781, 1.2781, 1.2780, 1.2781,1.2781,0.0
SingleSource/Benchmarks/Misc/mandel, 0.8022, 0.8023, 0.8023,0.8023, 0.8023, 0.8022, 0.8023,0.8023,0.0
SingleSource/Benchmarks/Misc/lowercase, 0.0009, 0.0009, 0.0009,0.0009, 0.0009, 0.0009, 0.0009,0.0009,0.0
SingleSource/Benchmarks/Misc/fp-convert, 3.0626, 3.0626, 3.0626,3.0626, 3.0627, 3.0626, 3.0626,3.0626,0.0
SingleSource/Benchmarks/Misc/flops-6, 3.4395, 3.4395, 3.4394,3.4395, 3.4396, 3.4395, 3.4395,3.4395,0.0
SingleSource/Benchmarks/Misc/flops-5, 4.2778, 4.2776, 4.2775,4.2776, 4.2777, 4.2776, 4.2776,4.2776,0.0
SingleSource/Benchmarks/Misc/flops-1, 3.6290, 3.6289, 3.6290,3.629, 3.6291, 3.6290, 3.6289,3.629,0.0
SingleSource/Benchmarks/Misc/fbench, 1.7531, 1.7530, 1.7531,1.7531, 1.7532, 1.7531, 1.7531,1.7531,0.0
SingleSource/Benchmarks/Misc/dt, 0.6919, 0.6919, 0.6919,0.6919, 0.6919, 0.6919, 0.6919,0.6919,0.0
SingleSource/Benchmarks/Misc-C++/stepanov_v1p2, 7.9034, 7.9033, 7.9035,7.9034, 7.9035, 7.9034, 7.9034,7.9034,0.0
SingleSource/Benchmarks/McGill/misr, 0.1016, 0.1015, 0.1016,0.1016, 0.1016, 0.1016, 0.1015,0.1016,0.0
SingleSource/Benchmarks/Dhrystone/fldry, 0.3655, 0.3655, 0.3655,0.3655, 0.3655, 0.3655, 0.3655,0.3655,0.0
SingleSource/Benchmarks/Dhrystone/dry, 0.3351, 0.3351, 0.3351,0.3351, 0.3351, 0.3351, 0.3351,0.3351,0.0
SingleSource/Benchmarks/BenchmarkGame/spectral-norm, 0.9732, 0.9733, 0.9733,0.9733, 0.9733, 0.9733, 0.9733,0.9733,0.0
SingleSource/Benchmarks/BenchmarkGame/n-body, 1.3713, 1.3713, 1.3713,1.3713, 1.3713, 1.3713, 1.3713,1.3713,0.0
SingleSource/Benchmarks/Adobe-C++/simple_types_loop_invariant, 1.5950, 1.5949, 1.5949,1.5949, 1.5949, 1.5955, 1.5949,1.5949,0.0
SingleSource/Benchmarks/Adobe-C++/simple_types_constant_folding, 0.6684, 0.6684, 0.6684,0.6684, 0.6684, 0.6684, 0.6684,0.6684,0.0
MultiSource/Benchmarks/VersaBench/ecbdes/ecbdes, 1.6837, 1.6837, 1.6837,1.6837, 1.6837, 1.6837, 1.6837,1.6837,0.0
MultiSource/Benchmarks/Trimaran/enc-pc1/enc-pc1, 0.3528, 0.3528, 0.3529,0.3528, 0.3528, 0.3528, 0.3528,0.3528,0.0
MultiSource/Benchmarks/Trimaran/enc-md5/enc-md5, 1.3939, 1.3939, 1.3939,1.3939, 1.3939, 1.3939, 1.3938,1.3939,0.0
MultiSource/Benchmarks/TSVC/Recurrences-flt/Recurrences-flt, 3.5010, 3.5010, 3.5009,3.501, 3.5010, 3.5010, 3.5010,3.501,0.0
MultiSource/Benchmarks/Ptrdist/bc/bc, 0.3586, 0.3583, 0.3585,0.3585, 0.3585, 0.3585, 0.3582,0.3585,0.0
MultiSource/Benchmarks/Prolangs-C/gnugo/gnugo, 0.0241, 0.0242, 0.0240,0.0241, 0.0241, 0.0241, 0.0241,0.0241,0.0
MultiSource/Benchmarks/Prolangs-C++/ocean/ocean, 0.0361, 0.0361, 0.0361,0.0361, 0.0361, 0.0362, 0.0361,0.0361,0.0
MultiSource/Benchmarks/Olden/power/power, 0.9765, 0.9765, 0.9765,0.9765, 0.9765, 0.9765, 0.9765,0.9765,0.0
MultiSource/Benchmarks/Olden/perimeter/perimeter, 0.1229, 0.1228, 0.1227,0.1228, 0.1231, 0.1228, 0.1228,0.1228,0.0
MultiSource/Benchmarks/MiBench/telecomm-FFT/telecomm-fft, 0.0386, 0.0387, 0.0386,0.0386, 0.0386, 0.0386, 0.0386,0.0386,0.0
MultiSource/Benchmarks/MiBench/network-dijkstra/network-dijkstra, 0.0238, 0.0239, 0.0239,0.0239, 0.0240, 0.0239, 0.0238,0.0239,0.0
MultiSource/Benchmarks/MiBench/automotive-basicmath/automotive-basicmath, 0.2227, 0.2228, 0.2227,0.2227, 0.2226, 0.2231, 0.2227,0.2227,0.0
MultiSource/Benchmarks/McCat/12-IOtest/iotest, 0.2148, 0.2134, 0.2140,0.214, 0.2139, 0.2145, 0.2140,0.214,0.0
MultiSource/Benchmarks/McCat/08-main/main, 0.0429, 0.0429, 0.0429,0.0429, 0.0429, 0.0429, 0.0428,0.0429,0.0
MultiSource/Benchmarks/McCat/04-bisect/bisect, 0.0790, 0.0791, 0.0791,0.0791, 0.0791, 0.0791, 0.0790,0.0791,0.0
MultiSource/Benchmarks/FreeBench/pifft/pifft, 0.0641, 0.0640, 0.0640,0.064, 0.0641, 0.0639, 0.0640,0.064,0.0
MultiSource/Benchmarks/FreeBench/pcompress2/pcompress2, 0.1031, 0.1030, 0.1030,0.103, 0.1030, 0.1030, 0.1031,0.103,0.0
MultiSource/Benchmarks/FreeBench/neural/neural, 0.1644, 0.1645, 0.1644,0.1644, 0.1645, 0.1644, 0.1644,0.1644,0.0
MultiSource/Benchmarks/FreeBench/mason/mason, 0.1317, 0.1317, 0.1318,0.1317, 0.1317, 0.1318, 0.1317,0.1317,0.0
MultiSource/Benchmarks/FreeBench/fourinarow/fourinarow, 0.1756, 0.1756, 0.1758,0.1756, 0.1758, 0.1755, 0.1756,0.1756,0.0
MultiSource/Applications/sgefa/sgefa, 0.1153, 0.1152, 0.1153,0.1153, 0.1151, 0.1155, 0.1153,0.1153,0.0
MultiSource/Applications/hexxagon/hexxagon, 6.8369, 6.8363, 6.8376,6.8369, 6.8370, 6.8369, 6.8366,6.8369,0.0
MultiSource/Benchmarks/TSVC/LinearDependence-dbl/LinearDependence-dbl, 5.1474, 5.1473, 5.1562,5.1474, 5.1473, 5.1483, 5.1472,5.1473,-0.0019427283677098117
SingleSource/Benchmarks/Misc/perlin, 3.9910, 3.9907, 3.9905,3.9907, 3.9909, 3.9906, 3.9905,3.9906,-0.0025058260455512738
MultiSource/Benchmarks/TSVC/Reductions-dbl/Reductions-dbl, 3.4749, 3.4749, 3.4750,3.4749, 3.4748, 3.4748, 3.4749,3.4748,-0.002877780655552442
SingleSource/Benchmarks/Shootout/methcall, 3.2764, 3.2765, 3.2762,3.2764, 3.2763, 3.2763, 3.2760,3.2763,-0.0030521303870156835
SingleSource/Benchmarks/Misc/oourafft, 6.0595, 6.0621, 6.0626,6.0621, 6.0618, 6.0621, 6.0612,6.0618,-0.00494878012570199
SingleSource/Benchmarks/SmallPT/smallpt, 7.3920, 7.3910, 7.3923,7.392, 7.3918, 7.3916, 7.3874,7.3916,-0.00541125541125842
MultiSource/Benchmarks/VersaBench/bmm/bmm, 1.6827, 1.6828, 1.6826,1.6827, 1.6826, 1.6828, 1.6826,1.6826,-0.005942829975635888
SingleSource/Benchmarks/Misc-C++/mandel-text, 1.6049, 1.6052, 1.6049,1.6049, 1.6049, 1.6046, 1.6048,1.6048,-0.006230917814198378
SingleSource/Benchmarks/Misc/flops-7, 1.5902, 1.5901, 1.5902,1.5902, 1.5902, 1.5901, 1.5901,1.5901,-0.006288517167651886
MultiSource/Benchmarks/Trimaran/netbench-url/netbench-url, 2.9793, 2.9791, 2.9799,2.9793, 2.9872, 2.9790, 2.9791,2.9791,-0.006712986271939503
MultiSource/Benchmarks/Trimaran/enc-3des/enc-3des, 1.2821, 1.2817, 1.2819,1.2819, 1.2818, 1.2818, 1.2820,1.2818,-0.007800920508616027
MultiSource/Benchmarks/TSVC/LinearDependence-flt/LinearDependence-flt, 4.6174, 4.6187, 4.6184,4.6184, 4.6185, 4.6179, 4.6173,4.6179,-0.01082626017669952
MultiSource/Benchmarks/Trimaran/enc-rc4/enc-rc4, 0.7355, 0.7353, 0.7355,0.7355, 0.7354, 0.7352, 0.7355,0.7354,-0.013596193065934514
MultiSource/Benchmarks/VersaBench/beamformer/beamformer, 0.6731, 0.6733, 0.6733,0.6733, 0.6733, 0.6732, 0.6732,0.6732,-0.014852220406946781
SingleSource/Benchmarks/BenchmarkGame/partialsums, 0.5688, 0.5688, 0.5687,0.5688, 0.5687, 0.5687, 0.5687,0.5687,-0.017580872011246917
MultiSource/Benchmarks/BitBench/five11/five11, 1.1173, 1.1161, 1.1163,1.1163, 1.1161, 1.1177, 1.1138,1.1161,-0.017916330735467945
MultiSource/Benchmarks/TSVC/NodeSplitting-dbl/NodeSplitting-dbl, 5.0228, 5.0201, 5.0216,5.0216, 5.0204, 5.0231, 5.0205,5.0205,-0.021905368806751646
SingleSource/Benchmarks/Polybench/stencils/fdtd-2d/fdtd-2d, 0.3938, 0.3955, 0.3953,0.3953, 0.3952, 0.3943, 0.3953,0.3952,-0.02529724260055266
MultiSource/Benchmarks/TSVC/Symbolics-dbl/Symbolics-dbl, 2.4421, 2.4429, 2.4567,2.4429, 2.4415, 2.4422, 2.4422,2.4422,-0.02865446805025984
SingleSource/Benchmarks/Shootout-C++/hash, 0.3199, 0.3209, 0.3220,0.3209, 0.3202, 0.3212, 0.3208,0.3208,-0.031162355874114755
MultiSource/Benchmarks/TSVC/LoopRerolling-flt/LoopRerolling-flt, 3.8170, 3.8236, 3.8314,3.8236, 3.8249, 3.8168, 3.8223,3.8223,-0.033999372319282184
SingleSource/Benchmarks/Shootout/matrix, 1.0675, 1.0667, 1.0672,1.0672, 1.0664, 1.0674, 1.0668,1.0668,-0.037481259370308884
MultiSource/Benchmarks/TSVC/IndirectAddressing-dbl/IndirectAddressing-dbl, 2.4772, 2.4773, 2.4740,2.4772, 2.4761, 2.4890, 2.4747,2.4761,-0.044404973357003996
MultiSource/Benchmarks/TSVC/GlobalDataFlow-dbl/GlobalDataFlow-dbl, 2.8390, 2.8388, 2.8391,2.839, 2.8376, 2.8371, 2.8402,2.8376,-0.04931313842901908
SingleSource/Benchmarks/Polybench/medley/floyd-warshall/floyd-warshall, 3.4402, 3.4392, 3.4410,3.4402, 3.4399, 3.4384, 3.4303,3.4384,-0.05232253938723952
MultiSource/Benchmarks/TSVC/StatementReordering-dbl/StatementReordering-dbl, 2.2367, 2.2318, 2.2351,2.2351, 2.2314, 2.2339, 2.2367,2.2339,-0.0536888729810725
SingleSource/Benchmarks/Polybench/linear-algebra/kernels/atax/atax, 0.1702, 0.1703, 0.1706,0.1703, 0.1705, 0.1702, 0.1702,0.1702,-0.05871990604815469
MultiSource/Benchmarks/sim/sim, 2.6128, 2.6106, 2.6144,2.6128, 2.6117, 2.6112, 2.6109,2.6112,-0.061236987140222965
MultiSource/Benchmarks/TSVC/Equivalencing-dbl/Equivalencing-dbl, 1.3791, 1.3862, 1.3816,1.3816, 1.3789, 1.3807, 1.3819,1.3807,-0.065141864504914
MultiSource/Benchmarks/MallocBench/espresso/espresso, 0.3067, 0.3064, 0.3066,0.3066, 0.3061, 0.3064, 0.3065,0.3064,-0.0652315720808816
MultiSource/Benchmarks/Bullet/bullet, 3.2598, 3.2598, 3.2883,3.2598, 3.2576, 3.2545, 3.2578,3.2576,-0.06748880299404236
MultiSource/Benchmarks/Olden/health/health, 0.1449, 0.1453, 0.1454,0.1453, 0.1452, 0.1452, 0.1453,0.1452,-0.06882312456987227
SingleSource/Benchmarks/Shootout/sieve, 3.4732, 3.4735, 3.4745,3.4735, 3.4707, 3.4738, 3.4711,3.4711,-0.06909457319707046
MultiSource/Benchmarks/TSVC/LoopRerolling-dbl/LoopRerolling-dbl, 4.5879, 4.5918, 4.6038,4.5918, 4.5932, 4.5886, 4.5879,4.5886,-0.06968944640447505
MultiSource/Benchmarks/MiBench/consumer-lame/consumer-lame, 0.1183, 0.1181, 0.1183,0.1183, 0.1182, 0.1182, 0.1181,0.1182,-0.08453085376162184
SingleSource/Benchmarks/Shootout-C++/fibo, 1.4747, 1.4748, 1.4762,1.4748, 1.4733, 1.4734, 1.4727,1.4733,-0.10170870626525774
MultiSource/Applications/viterbi/viterbi, 1.2672, 1.2686, 1.2688,1.2686, 1.2674, 1.2671, 1.2671,1.2671,-0.11824058016711714
MultiSource/Benchmarks/Ptrdist/yacr2/yacr2, 0.5097, 0.5095, 0.5093,0.5095, 0.5087, 0.5089, 0.5088,0.5088,-0.13738959764473258
MultiSource/Benchmarks/DOE-ProxyApps-C/XSBench/XSBench, 2.4462, 2.4456, 2.4425,2.4456, 2.4349, 2.4437, 2.4421,2.4421,-0.14311416421328715
MultiSource/Benchmarks/TSVC/IndirectAddressing-flt/IndirectAddressing-flt, 2.3058, 2.3043, 2.3057,2.3057, 2.3022, 2.3038, 2.2998,2.3022,-0.1517977186971331
SingleSource/Benchmarks/Polybench/linear-algebra/kernels/doitgen/doitgen, 0.7872, 0.7856, 0.7897,0.7872, 0.7923, 0.7860, 0.7858,0.786,-0.1524390243902385
SingleSource/Benchmarks/CoyoteBench/fftbench, 0.6316, 0.6304, 0.6280,0.6304, 0.6246, 0.6311, 0.6294,0.6294,-0.15862944162436943
MultiSource/Benchmarks/Fhourstones-3.1/fhourstones3.1, 0.7981, 0.7951, 0.7983,0.7981, 0.7983, 0.7952, 0.7968,0.7968,-0.16288685628368382
SingleSource/Benchmarks/Shootout-C++/EH/except, 0.1207, 0.1204, 0.1206,0.1206, 0.1204, 0.1208, 0.1203,0.1204,-0.16583747927031434
SingleSource/Benchmarks/BenchmarkGame/puzzle, 0.1143, 0.1143, 0.1143,0.1143, 0.1141, 0.1141, 0.1142,0.1141,-0.17497812773403787
MultiSource/Benchmarks/TSVC/NodeSplitting-flt/NodeSplitting-flt, 4.6528, 4.6528, 4.6494,4.6528, 4.6465, 4.6428, 4.6443,4.6443,-0.18268569463548712
SingleSource/Benchmarks/Stanford/Treesort, 0.0544, 0.0546, 0.0546,0.0546, 0.0545, 0.0547, 0.0545,0.0545,-0.1831501831501936
SingleSource/Benchmarks/Misc/salsa20, 4.8265, 4.8285, 4.8173,4.8265, 4.8175, 4.8173, 4.8285,4.8175,-0.18647052729722224
MultiSource/Benchmarks/TSVC/InductionVariable-flt/InductionVariable-flt, 2.5619, 2.5606, 2.5674,2.5619, 2.5571, 2.5558, 2.5610,2.5571,-0.18736094305007445
MultiSource/Applications/lua/lua,11.5138,11.5571,11.5145,11.5145,11.4509,11.4807,11.4945,11.4807,-0.293542924139123
SingleSource/Benchmarks/Misc/flops,10.6638,10.6946,10.7190,10.6946,10.6641,10.6630,10.6614,10.663,-0.2954762216445639
MultiSource/Benchmarks/tramp3d-v4/tramp3d-v4, 0.2666, 0.2668, 0.2669,0.2668, 0.2661, 0.2660, 0.2660,0.266,-0.2998500749625044
SingleSource/Benchmarks/Adobe-C++/loop_unroll, 1.8932, 1.8885, 1.8937,1.8932, 1.8869, 1.8916, 1.8863,1.8869,-0.3327699133741757
SingleSource/Benchmarks/Polybench/stencils/jacobi-2d-imper/jacobi-2d-imper, 0.1466, 0.1467, 0.1463,0.1466, 0.1461, 0.1461, 0.1454,0.1461,-0.3410641200545683
MultiSource/Benchmarks/mediabench/g721/g721encode/encode, 0.0290, 0.0291, 0.0291,0.0291, 0.0290, 0.0290, 0.0291,0.029,-0.3436426116838476
MultiSource/Applications/siod/siod, 1.1073, 1.1030, 1.1052,1.1052, 1.1010, 1.1011, 1.1010,1.101,-0.3800217155266017
MultiSource/Benchmarks/Prolangs-C++/primes/primes, 0.2134, 0.2125, 0.2136,0.2134, 0.2132, 0.2124, 0.2125,0.2125,-0.4217432052483705
MultiSource/Benchmarks/MallocBench/gs/gs, 0.0233, 0.0234, 0.0234,0.0234, 0.0233, 0.0233, 0.0233,0.0233,-0.42735042735042583
MultiSource/Applications/sqlite3/sqlite3, 1.8121, 1.8122, 1.8146,1.8122, 1.8038, 1.8006, 1.8066,1.8038,-0.4635249972409161
SingleSource/Benchmarks/CoyoteBench/huffbench, 9.3780, 9.3792, 9.3790,9.379, 9.3353, 9.3335, 9.3336,9.3336,-0.4840601343426676
SingleSource/Benchmarks/Misc-C++/oopack_v1p8, 0.1640, 0.1637, 0.1628,0.1637, 0.1640, 0.1627, 0.1628,0.1628,-0.5497861942577953
MultiSource/Benchmarks/7zip/7zip-benchmark, 6.4059, 6.4138, 6.4061,6.4061, 6.3661, 6.3646, 6.3771,6.3661,-0.6244048641138922
SingleSource/Benchmarks/Adobe-C++/functionobjects, 3.0280, 3.0251, 3.0278,3.0278, 3.0088, 3.0088, 3.0082,3.0088,-0.6275183301406972
SingleSource/Benchmarks/Shootout-C++/hash2, 1.7883, 1.7859, 1.7878,1.7878, 1.7765, 1.7766, 1.7746,1.7765,-0.6320617518738136
MultiSource/Benchmarks/mediabench/gsm/toast/toast, 0.0154, 0.0154, 0.0155,0.0154, 0.0152, 0.0153, 0.0153,0.0153,-0.6493506493506551
MultiSource/Benchmarks/TSVC/ControlFlow-flt/ControlFlow-flt, 3.4992, 3.4944, 3.4979,3.4979, 3.4413, 3.4776, 3.4740,3.474,-0.6832671031190118
SingleSource/Benchmarks/Shootout-C++/ary, 0.0142, 0.0143, 0.0143,0.0143, 0.0143, 0.0142, 0.0142,0.0142,-0.6993006993006978
SingleSource/Benchmarks/Adobe-C++/stepanov_abstraction, 4.2296, 4.2305, 4.2298,4.2298, 4.1938, 4.1950, 4.1953,4.195,-0.8227339354106467
SingleSource/Benchmarks/Adobe-C++/stepanov_vector, 2.2684, 2.2682, 2.2682,2.2682, 2.2356, 2.2358, 2.2365,2.2358,-1.4284454633630372
Total elapsed time,-,-,-,571.5158000000001,-,-,-,572.53,0.17745791104986086
Total failure,-,-,-,0,-,-,-,0,
Geom. avg slowdown,,,,,,,,,0.0076713586117%
