Benchmarks,/mnt/freezedisk/llvm-intptr-insts-release/bin/clang,/mnt/freezedisk/llvm-intptr-insts-release/bin/clang,/mnt/freezedisk/llvm-intptr-insts-release/bin/clang,median
MultiSource/Applications/ALAC/decode/alacconvert-decode, 0.0143, 0.0141, 0.0142,0.0142
MultiSource/Applications/ALAC/encode/alacconvert-encode, 0.0283, 0.0286, 0.0283,0.0283
MultiSource/Applications/ClamAV/clamscan, 0.1695, 0.1844, 0.1879,0.1844
MultiSource/Applications/JM/ldecod/ldecod, 0.0366, 0.0366, 0.0363,0.0366
MultiSource/Applications/JM/lencod/lencod, 3.2558, 3.2644, 3.2639,3.2639
MultiSource/Applications/SIBsim4/SIBsim4, 2.0760, 2.0663, 2.0654,2.0663
MultiSource/Applications/SPASS/SPASS, 6.6803, 6.7688, 6.7569,6.7569
MultiSource/Applications/aha/aha, 1.0742, 1.0728, 1.0737,1.0737
MultiSource/Applications/d/make_dparser, 0.0160, 0.0160, 0.0161,0.016
MultiSource/Applications/hbd/hbd, 0.0019, 0.0018, 0.0018,0.0018
MultiSource/Applications/hexxagon/hexxagon, 6.8370, 6.8369, 6.8366,6.8369
MultiSource/Applications/kimwitu++/kc, 0.0280, 0.0282, 0.0283,0.0282
MultiSource/Applications/lambda-0.1.3/lambda, 2.6895, 2.6977, 2.6865,2.6895
MultiSource/Applications/lua/lua,11.4509,11.4807,11.4945,11.4807
MultiSource/Applications/minisat/minisat, 4.0693, 4.2280, 4.2030,4.203
MultiSource/Applications/obsequi/Obsequi, 1.0790, 1.0799, 1.0790,1.079
MultiSource/Applications/oggenc/oggenc, 0.1182, 0.0966, 0.0917,0.0966
MultiSource/Applications/sgefa/sgefa, 0.1151, 0.1155, 0.1153,0.1153
MultiSource/Applications/siod/siod, 1.1010, 1.1011, 1.1010,1.101
MultiSource/Applications/spiff/spiff, 1.2791, 1.2798, 1.2825,1.2798
MultiSource/Applications/sqlite3/sqlite3, 1.8038, 1.8006, 1.8066,1.8038
MultiSource/Applications/viterbi/viterbi, 1.2674, 1.2671, 1.2671,1.2671
MultiSource/Benchmarks/7zip/7zip-benchmark, 6.3661, 6.3646, 6.3771,6.3661
MultiSource/Benchmarks/ASCI_Purple/SMG2000/smg2000, 1.1734, 1.1707, 1.1750,1.1734
MultiSource/Benchmarks/ASC_Sequoia/AMGmk/AMGmk, 5.0555, 5.0626, 5.0709,5.0626
MultiSource/Benchmarks/ASC_Sequoia/CrystalMk/CrystalMk, 6.7167, 6.7171, 6.7170,6.717
MultiSource/Benchmarks/ASC_Sequoia/IRSmk/IRSmk, 3.0205, 2.9970, 3.0119,3.0119
MultiSource/Benchmarks/BitBench/drop3/drop3, 0.1793, 0.1777, 0.1864,0.1793
MultiSource/Benchmarks/BitBench/five11/five11, 1.1161, 1.1177, 1.1138,1.1161
MultiSource/Benchmarks/BitBench/uudecode/uudecode, 0.0795, 0.0788, 0.0798,0.0795
MultiSource/Benchmarks/BitBench/uuencode/uuencode, 0.0111, 0.0111, 0.0112,0.0111
MultiSource/Benchmarks/Bullet/bullet, 3.2576, 3.2545, 3.2578,3.2576
MultiSource/Benchmarks/DOE-ProxyApps-C/XSBench/XSBench, 2.4349, 2.4437, 2.4421,2.4421
MultiSource/Benchmarks/Fhourstones-3.1/fhourstones3.1, 0.7983, 0.7952, 0.7968,0.7968
MultiSource/Benchmarks/Fhourstones/fhourstones, 0.6192, 0.6092, 0.6124,0.6124
MultiSource/Benchmarks/FreeBench/analyzer/analyzer, 0.0487, 0.0475, 0.0424,0.0475
MultiSource/Benchmarks/FreeBench/distray/distray, 0.1332, 0.1332, 0.1332,0.1332
MultiSource/Benchmarks/FreeBench/fourinarow/fourinarow, 0.1758, 0.1755, 0.1756,0.1756
MultiSource/Benchmarks/FreeBench/mason/mason, 0.1317, 0.1318, 0.1317,0.1317
MultiSource/Benchmarks/FreeBench/neural/neural, 0.1645, 0.1644, 0.1644,0.1644
MultiSource/Benchmarks/FreeBench/pcompress2/pcompress2, 0.1030, 0.1030, 0.1031,0.103
MultiSource/Benchmarks/FreeBench/pifft/pifft, 0.0641, 0.0639, 0.0640,0.064
MultiSource/Benchmarks/MallocBench/cfrac/cfrac, 0.7728, 0.7730, 0.7728,0.7728
MultiSource/Benchmarks/MallocBench/espresso/espresso, 0.3061, 0.3064, 0.3065,0.3064
MultiSource/Benchmarks/MallocBench/gs/gs, 0.0233, 0.0233, 0.0233,0.0233
MultiSource/Benchmarks/McCat/01-qbsort/qbsort, 0.0510, 0.0464, 0.0468,0.0468
MultiSource/Benchmarks/McCat/03-testtrie/testtrie, 0.0065, 0.0065, 0.0064,0.0065
MultiSource/Benchmarks/McCat/04-bisect/bisect, 0.0791, 0.0791, 0.0790,0.0791
MultiSource/Benchmarks/McCat/05-eks/eks, 0.0035, 0.0036, 0.0036,0.0036
MultiSource/Benchmarks/McCat/08-main/main, 0.0429, 0.0429, 0.0428,0.0429
MultiSource/Benchmarks/McCat/09-vor/vor, 0.1022, 0.0928, 0.0958,0.0958
MultiSource/Benchmarks/McCat/12-IOtest/iotest, 0.2139, 0.2145, 0.2140,0.214
MultiSource/Benchmarks/McCat/17-bintr/bintr, 0.1471, 0.0993, 0.0923,0.0993
MultiSource/Benchmarks/McCat/18-imp/imp, 0.0710, 0.0748, 0.0757,0.0748
MultiSource/Benchmarks/MiBench/automotive-basicmath/automotive-basicmath, 0.2226, 0.2231, 0.2227,0.2227
MultiSource/Benchmarks/MiBench/automotive-bitcount/automotive-bitcount, 0.0619, 0.0627, 0.0605,0.0619
MultiSource/Benchmarks/MiBench/automotive-susan/automotive-susan, 0.0391, 0.0354, 0.0333,0.0354
MultiSource/Benchmarks/MiBench/consumer-jpeg/consumer-jpeg, 0.0030, 0.0031, 0.0030,0.003
MultiSource/Benchmarks/MiBench/consumer-lame/consumer-lame, 0.1182, 0.1182, 0.1181,0.1182
MultiSource/Benchmarks/MiBench/consumer-typeset/consumer-typeset, 0.0914, 0.0977, 0.0997,0.0977
MultiSource/Benchmarks/MiBench/network-dijkstra/network-dijkstra, 0.0240, 0.0239, 0.0238,0.0239
MultiSource/Benchmarks/MiBench/network-patricia/network-patricia, 0.0846, 0.0755, 0.0809,0.0809
MultiSource/Benchmarks/MiBench/security-rijndael/security-rijndael, 0.0315, 0.0375, 0.0348,0.0348
MultiSource/Benchmarks/MiBench/security-sha/security-sha, 0.0159, 0.0157, 0.0158,0.0158
MultiSource/Benchmarks/MiBench/telecomm-CRC32/telecomm-CRC32, 0.2104, 0.2053, 0.2066,0.2066
MultiSource/Benchmarks/MiBench/telecomm-FFT/telecomm-fft, 0.0386, 0.0386, 0.0386,0.0386
MultiSource/Benchmarks/MiBench/telecomm-adpcm/telecomm-adpcm, 0.0767, 0.0686, 0.0761,0.0761
MultiSource/Benchmarks/MiBench/telecomm-gsm/telecomm-gsm, 0.1182, 0.1179, 0.1181,0.1181
MultiSource/Benchmarks/NPB-serial/is/is, 5.2097, 5.2065, 5.2046,5.2065
MultiSource/Benchmarks/Olden/bh/bh, 1.2602, 1.2621, 1.2670,1.2621
MultiSource/Benchmarks/Olden/bisort/bisort, 0.3666, 0.3670, 0.3667,0.3667
MultiSource/Benchmarks/Olden/em3d/em3d, 1.7052, 1.7055, 1.7061,1.7055
MultiSource/Benchmarks/Olden/health/health, 0.1452, 0.1452, 0.1453,0.1452
MultiSource/Benchmarks/Olden/mst/mst, 0.0524, 0.0527, 0.0527,0.0527
MultiSource/Benchmarks/Olden/perimeter/perimeter, 0.1231, 0.1228, 0.1228,0.1228
MultiSource/Benchmarks/Olden/power/power, 0.9765, 0.9765, 0.9765,0.9765
MultiSource/Benchmarks/Olden/treeadd/treeadd, 0.1265, 0.1269, 0.1270,0.1269
MultiSource/Benchmarks/Olden/tsp/tsp, 1.0850, 1.0841, 1.0854,1.085
MultiSource/Benchmarks/Olden/voronoi/voronoi, 0.2073, 0.2073, 0.2076,0.2073
MultiSource/Benchmarks/PAQ8p/paq8p,44.1184,44.0759,44.0543,44.0759
MultiSource/Benchmarks/Prolangs-C++/city/city, 0.0051, 0.0052, 0.0052,0.0052
MultiSource/Benchmarks/Prolangs-C++/employ/employ, 0.0051, 0.0051, 0.0050,0.0051
MultiSource/Benchmarks/Prolangs-C++/life/life, 0.7088, 0.7046, 0.7063,0.7063
MultiSource/Benchmarks/Prolangs-C++/ocean/ocean, 0.0361, 0.0362, 0.0361,0.0361
MultiSource/Benchmarks/Prolangs-C++/primes/primes, 0.2132, 0.2124, 0.2125,0.2125
MultiSource/Benchmarks/Prolangs-C++/simul/simul, 0.0039, 0.0040, 0.0040,0.004
MultiSource/Benchmarks/Prolangs-C/agrep/agrep, 0.0031, 0.0031, 0.0030,0.0031
MultiSource/Benchmarks/Prolangs-C/bison/mybison, 0.0021, 0.0021, 0.0021,0.0021
MultiSource/Benchmarks/Prolangs-C/gnugo/gnugo, 0.0241, 0.0241, 0.0241,0.0241
MultiSource/Benchmarks/Ptrdist/anagram/anagram, 0.6864, 0.6856, 0.6824,0.6856
MultiSource/Benchmarks/Ptrdist/bc/bc, 0.3585, 0.3585, 0.3582,0.3585
MultiSource/Benchmarks/Ptrdist/ft/ft, 0.5991, 0.6652, 0.6004,0.6004
MultiSource/Benchmarks/Ptrdist/ks/ks, 0.6735, 0.6601, 0.6597,0.6601
MultiSource/Benchmarks/Ptrdist/yacr2/yacr2, 0.5087, 0.5089, 0.5088,0.5088
MultiSource/Benchmarks/SciMark2-C/scimark2,43.0896,42.8176,43.0727,43.0727
MultiSource/Benchmarks/TSVC/ControlFlow-dbl/ControlFlow-dbl, 3.6728, 3.6760, 3.6835,3.676
MultiSource/Benchmarks/TSVC/ControlFlow-flt/ControlFlow-flt, 3.4413, 3.4776, 3.4740,3.474
MultiSource/Benchmarks/TSVC/ControlLoops-dbl/ControlLoops-dbl, 2.5292, 2.5378, 2.5311,2.5311
MultiSource/Benchmarks/TSVC/ControlLoops-flt/ControlLoops-flt, 2.3563, 2.3490, 2.3458,2.349
MultiSource/Benchmarks/TSVC/CrossingThresholds-dbl/CrossingThresholds-dbl, 2.1723, 2.1726, 2.1730,2.1726
MultiSource/Benchmarks/TSVC/CrossingThresholds-flt/CrossingThresholds-flt, 1.6267, 1.6341, 1.6251,1.6267
MultiSource/Benchmarks/TSVC/Equivalencing-dbl/Equivalencing-dbl, 1.3789, 1.3807, 1.3819,1.3807
MultiSource/Benchmarks/TSVC/Equivalencing-flt/Equivalencing-flt, 0.9688, 0.9682, 0.9678,0.9682
MultiSource/Benchmarks/TSVC/Expansion-dbl/Expansion-dbl, 1.9622, 1.9612, 1.9629,1.9622
MultiSource/Benchmarks/TSVC/Expansion-flt/Expansion-flt, 1.1540, 1.1516, 1.1545,1.154
MultiSource/Benchmarks/TSVC/GlobalDataFlow-dbl/GlobalDataFlow-dbl, 2.8376, 2.8371, 2.8402,2.8376
MultiSource/Benchmarks/TSVC/GlobalDataFlow-flt/GlobalDataFlow-flt, 1.4926, 1.5010, 1.4985,1.4985
MultiSource/Benchmarks/TSVC/IndirectAddressing-dbl/IndirectAddressing-dbl, 2.4761, 2.4890, 2.4747,2.4761
MultiSource/Benchmarks/TSVC/IndirectAddressing-flt/IndirectAddressing-flt, 2.3022, 2.3038, 2.2998,2.3022
MultiSource/Benchmarks/TSVC/InductionVariable-dbl/InductionVariable-dbl, 3.0340, 3.0359, 3.0516,3.0359
MultiSource/Benchmarks/TSVC/InductionVariable-flt/InductionVariable-flt, 2.5571, 2.5558, 2.5610,2.5571
MultiSource/Benchmarks/TSVC/LinearDependence-dbl/LinearDependence-dbl, 5.1473, 5.1483, 5.1472,5.1473
MultiSource/Benchmarks/TSVC/LinearDependence-flt/LinearDependence-flt, 4.6185, 4.6179, 4.6173,4.6179
MultiSource/Benchmarks/TSVC/LoopRerolling-dbl/LoopRerolling-dbl, 4.5932, 4.5886, 4.5879,4.5886
MultiSource/Benchmarks/TSVC/LoopRerolling-flt/LoopRerolling-flt, 3.8249, 3.8168, 3.8223,3.8223
MultiSource/Benchmarks/TSVC/LoopRestructuring-dbl/LoopRestructuring-dbl, 3.5729, 3.6446, 3.5785,3.5785
MultiSource/Benchmarks/TSVC/LoopRestructuring-flt/LoopRestructuring-flt, 2.9524, 2.8315, 2.9098,2.9098
MultiSource/Benchmarks/TSVC/NodeSplitting-dbl/NodeSplitting-dbl, 5.0204, 5.0231, 5.0205,5.0205
MultiSource/Benchmarks/TSVC/NodeSplitting-flt/NodeSplitting-flt, 4.6465, 4.6428, 4.6443,4.6443
MultiSource/Benchmarks/TSVC/Packing-dbl/Packing-dbl, 2.3271, 2.2784, 2.3269,2.3269
MultiSource/Benchmarks/TSVC/Packing-flt/Packing-flt, 2.1033, 2.1131, 2.1190,2.1131
MultiSource/Benchmarks/TSVC/Recurrences-dbl/Recurrences-dbl, 3.5013, 3.5012, 3.5013,3.5013
MultiSource/Benchmarks/TSVC/Recurrences-flt/Recurrences-flt, 3.5010, 3.5010, 3.5010,3.501
MultiSource/Benchmarks/TSVC/Reductions-dbl/Reductions-dbl, 3.4748, 3.4748, 3.4749,3.4748
MultiSource/Benchmarks/TSVC/Reductions-flt/Reductions-flt, 5.9695, 5.9694, 5.9695,5.9695
MultiSource/Benchmarks/TSVC/Searching-dbl/Searching-dbl, 2.2843, 2.2847, 2.2843,2.2843
MultiSource/Benchmarks/TSVC/Searching-flt/Searching-flt, 2.4489, 2.4442, 2.4448,2.4448
MultiSource/Benchmarks/TSVC/StatementReordering-dbl/StatementReordering-dbl, 2.2314, 2.2339, 2.2367,2.2339
MultiSource/Benchmarks/TSVC/StatementReordering-flt/StatementReordering-flt, 1.8296, 1.8238, 1.8253,1.8253
MultiSource/Benchmarks/TSVC/Symbolics-dbl/Symbolics-dbl, 2.4415, 2.4422, 2.4422,2.4422
MultiSource/Benchmarks/TSVC/Symbolics-flt/Symbolics-flt, 1.3928, 1.3981, 1.3926,1.3928
MultiSource/Benchmarks/Trimaran/enc-3des/enc-3des, 1.2818, 1.2818, 1.2820,1.2818
MultiSource/Benchmarks/Trimaran/enc-md5/enc-md5, 1.3939, 1.3939, 1.3938,1.3939
MultiSource/Benchmarks/Trimaran/enc-pc1/enc-pc1, 0.3528, 0.3528, 0.3528,0.3528
MultiSource/Benchmarks/Trimaran/enc-rc4/enc-rc4, 0.7354, 0.7352, 0.7355,0.7354
MultiSource/Benchmarks/Trimaran/netbench-crc/netbench-crc, 0.6209, 0.6208, 0.6208,0.6208
MultiSource/Benchmarks/Trimaran/netbench-url/netbench-url, 2.9872, 2.9790, 2.9791,2.9791
MultiSource/Benchmarks/VersaBench/8b10b/8b10b, 3.7695, 3.7743, 3.7672,3.7695
MultiSource/Benchmarks/VersaBench/beamformer/beamformer, 0.6733, 0.6732, 0.6732,0.6732
MultiSource/Benchmarks/VersaBench/bmm/bmm, 1.6826, 1.6828, 1.6826,1.6826
MultiSource/Benchmarks/VersaBench/dbms/dbms, 0.8933, 0.8870, 0.8923,0.8923
MultiSource/Benchmarks/VersaBench/ecbdes/ecbdes, 1.6837, 1.6837, 1.6837,1.6837
MultiSource/Benchmarks/llubenchmark/llu, 4.1392, 4.0276, 4.0296,4.0296
MultiSource/Benchmarks/mafft/pairlocalalign,26.3066,26.2873,26.2896,26.2896
MultiSource/Benchmarks/mediabench/adpcm/rawcaudio/rawcaudio, 0.0029, 0.0028, 0.0028,0.0028
MultiSource/Benchmarks/mediabench/adpcm/rawdaudio/rawdaudio, 0.0019, 0.0020, 0.0019,0.0019
MultiSource/Benchmarks/mediabench/g721/g721encode/encode, 0.0290, 0.0290, 0.0291,0.029
MultiSource/Benchmarks/mediabench/gsm/toast/toast, 0.0152, 0.0153, 0.0153,0.0153
MultiSource/Benchmarks/mediabench/jpeg/jpeg-6a/cjpeg, 0.0031, 0.0031, 0.0031,0.0031
MultiSource/Benchmarks/mediabench/mpeg2/mpeg2dec/mpeg2decode, 0.0155, 0.0152, 0.0153,0.0153
MultiSource/Benchmarks/nbench/nbench, 1.1958, 1.1952, 1.1970,1.1958
MultiSource/Benchmarks/sim/sim, 2.6117, 2.6112, 2.6109,2.6112
MultiSource/Benchmarks/tramp3d-v4/tramp3d-v4, 0.2661, 0.2660, 0.2660,0.266
SingleSource/Benchmarks/Adobe-C++/functionobjects, 3.0088, 3.0088, 3.0082,3.0088
SingleSource/Benchmarks/Adobe-C++/loop_unroll, 1.8869, 1.8916, 1.8863,1.8869
SingleSource/Benchmarks/Adobe-C++/simple_types_constant_folding, 0.6684, 0.6684, 0.6684,0.6684
SingleSource/Benchmarks/Adobe-C++/simple_types_loop_invariant, 1.5949, 1.5955, 1.5949,1.5949
SingleSource/Benchmarks/Adobe-C++/stepanov_abstraction, 4.1938, 4.1950, 4.1953,4.195
SingleSource/Benchmarks/Adobe-C++/stepanov_vector, 2.2356, 2.2358, 2.2365,2.2358
SingleSource/Benchmarks/BenchmarkGame/Large/fasta, 0.6496, 0.6479, 0.6497,0.6496
SingleSource/Benchmarks/BenchmarkGame/fannkuch, 2.2518, 2.2545, 2.2530,2.253
SingleSource/Benchmarks/BenchmarkGame/n-body, 1.3713, 1.3713, 1.3713,1.3713
SingleSource/Benchmarks/BenchmarkGame/nsieve-bits, 0.4979, 0.4931, 0.4898,0.4931
SingleSource/Benchmarks/BenchmarkGame/partialsums, 0.5687, 0.5687, 0.5687,0.5687
SingleSource/Benchmarks/BenchmarkGame/puzzle, 0.1141, 0.1141, 0.1142,0.1141
SingleSource/Benchmarks/BenchmarkGame/recursive, 0.7113, 0.7061, 0.7111,0.7111
SingleSource/Benchmarks/BenchmarkGame/spectral-norm, 0.9733, 0.9733, 0.9733,0.9733
SingleSource/Benchmarks/CoyoteBench/almabench,12.6088,12.5964,12.6063,12.6063
SingleSource/Benchmarks/CoyoteBench/fftbench, 0.6246, 0.6311, 0.6294,0.6294
SingleSource/Benchmarks/CoyoteBench/huffbench, 9.3353, 9.3335, 9.3336,9.3336
SingleSource/Benchmarks/CoyoteBench/lpbench, 1.8313, 1.8277, 1.8256,1.8277
SingleSource/Benchmarks/Dhrystone/dry, 0.3351, 0.3351, 0.3351,0.3351
SingleSource/Benchmarks/Dhrystone/fldry, 0.3655, 0.3655, 0.3655,0.3655
SingleSource/Benchmarks/Linpack/linpack-pc, 1.2867, 1.2892, 1.2902,1.2892
SingleSource/Benchmarks/McGill/chomp, 1.2838, 1.3151, 1.2842,1.2842
SingleSource/Benchmarks/McGill/misr, 0.1016, 0.1016, 0.1015,0.1016
SingleSource/Benchmarks/McGill/queens, 1.5492, 1.5490, 1.5486,1.549
SingleSource/Benchmarks/Misc-C++-EH/spirit, 2.6218, 2.6218, 2.6213,2.6218
SingleSource/Benchmarks/Misc-C++/Large/ray, 2.8215, 2.8213, 2.8210,2.8213
SingleSource/Benchmarks/Misc-C++/Large/sphereflake, 5.5046, 5.5046, 5.5042,5.5046
SingleSource/Benchmarks/Misc-C++/bigfib, 0.1913, 0.1916, 0.1917,0.1916
SingleSource/Benchmarks/Misc-C++/mandel-text, 1.6049, 1.6046, 1.6048,1.6048
SingleSource/Benchmarks/Misc-C++/oopack_v1p8, 0.1640, 0.1627, 0.1628,0.1628
SingleSource/Benchmarks/Misc-C++/stepanov_container, 3.1067, 3.0764, 3.0937,3.0937
SingleSource/Benchmarks/Misc-C++/stepanov_v1p2, 7.9035, 7.9034, 7.9034,7.9034
SingleSource/Benchmarks/Misc/ReedSolomon, 3.1979, 3.1981, 3.1973,3.1979
SingleSource/Benchmarks/Misc/dt, 0.6919, 0.6919, 0.6919,0.6919
SingleSource/Benchmarks/Misc/fbench, 1.7532, 1.7531, 1.7531,1.7531
SingleSource/Benchmarks/Misc/ffbench, 0.5831, 0.5807, 0.5868,0.5831
SingleSource/Benchmarks/Misc/flops,10.6641,10.6630,10.6614,10.663
SingleSource/Benchmarks/Misc/flops-1, 3.6291, 3.6290, 3.6289,3.629
SingleSource/Benchmarks/Misc/flops-2, 0.8628, 0.8628, 0.8627,0.8628
SingleSource/Benchmarks/Misc/flops-3, 5.4134, 5.4133, 5.5081,5.4134
SingleSource/Benchmarks/Misc/flops-4, 2.2798, 2.2798, 2.3272,2.2798
SingleSource/Benchmarks/Misc/flops-5, 4.2777, 4.2776, 4.2776,4.2776
SingleSource/Benchmarks/Misc/flops-6, 3.4396, 3.4395, 3.4395,3.4395
SingleSource/Benchmarks/Misc/flops-7, 1.5902, 1.5901, 1.5901,1.5901
SingleSource/Benchmarks/Misc/flops-8, 3.8466, 3.7515, 3.7515,3.7515
SingleSource/Benchmarks/Misc/fp-convert, 3.0627, 3.0626, 3.0626,3.0626
SingleSource/Benchmarks/Misc/himenobmtxpa, 0.5113, 0.5094, 0.5105,0.5105
SingleSource/Benchmarks/Misc/lowercase, 0.0009, 0.0009, 0.0009,0.0009
SingleSource/Benchmarks/Misc/mandel, 0.8023, 0.8022, 0.8023,0.8023
SingleSource/Benchmarks/Misc/mandel-2, 1.2781, 1.2780, 1.2781,1.2781
SingleSource/Benchmarks/Misc/matmul_f64_4x4, 1.2953, 1.2953, 1.2953,1.2953
SingleSource/Benchmarks/Misc/oourafft, 6.0618, 6.0621, 6.0612,6.0618
SingleSource/Benchmarks/Misc/perlin, 3.9909, 3.9906, 3.9905,3.9906
SingleSource/Benchmarks/Misc/pi, 0.6944, 0.6943, 0.6943,0.6943
SingleSource/Benchmarks/Misc/richards_benchmark, 0.5316, 0.5319, 0.5322,0.5319
SingleSource/Benchmarks/Misc/salsa20, 4.8175, 4.8173, 4.8285,4.8175
SingleSource/Benchmarks/Misc/whetstone, 1.0275, 1.0197, 1.0275,1.0275
SingleSource/Benchmarks/Polybench/datamining/correlation/correlation, 1.6802, 1.6818, 1.6852,1.6818
SingleSource/Benchmarks/Polybench/datamining/covariance/covariance, 1.6518, 1.6494, 1.6494,1.6494
SingleSource/Benchmarks/Polybench/linear-algebra/kernels/atax/atax, 0.1705, 0.1702, 0.1702,0.1702
SingleSource/Benchmarks/Polybench/linear-algebra/kernels/bicg/bicg, 0.2122, 0.2122, 0.2121,0.2122
SingleSource/Benchmarks/Polybench/linear-algebra/kernels/cholesky/cholesky, 0.4604, 0.4609, 0.4591,0.4604
SingleSource/Benchmarks/Polybench/linear-algebra/kernels/doitgen/doitgen, 0.7923, 0.7860, 0.7858,0.786
SingleSource/Benchmarks/Polybench/linear-algebra/kernels/gemver/gemver, 0.3259, 0.3283, 0.3264,0.3264
SingleSource/Benchmarks/Polybench/linear-algebra/kernels/gesummv/gesummv, 0.3067, 0.3065, 0.3019,0.3065
SingleSource/Benchmarks/Polybench/linear-algebra/kernels/mvt/mvt, 0.2477, 0.2427, 0.2477,0.2477
SingleSource/Benchmarks/Polybench/linear-algebra/kernels/symm/symm,16.1029,16.2326,16.1749,16.1749
SingleSource/Benchmarks/Polybench/linear-algebra/kernels/syr2k/syr2k, 9.1864, 9.1865, 9.1858,9.1864
SingleSource/Benchmarks/Polybench/linear-algebra/kernels/syrk/syrk, 4.5017, 4.6292, 4.6296,4.6292
SingleSource/Benchmarks/Polybench/linear-algebra/kernels/trisolv/trisolv, 0.1739, 0.1737, 0.1737,0.1737
SingleSource/Benchmarks/Polybench/linear-algebra/kernels/trmm/trmm, 2.2490, 2.2329, 2.2342,2.2342
SingleSource/Benchmarks/Polybench/linear-algebra/solvers/durbin/durbin, 0.3990, 0.4084, 0.4080,0.408
SingleSource/Benchmarks/Polybench/linear-algebra/solvers/dynprog/dynprog, 0.2680, 0.2690, 0.2684,0.2684
SingleSource/Benchmarks/Polybench/linear-algebra/solvers/gramschmidt/gramschmidt, 1.6323, 1.5113, 1.5779,1.5779
SingleSource/Benchmarks/Polybench/linear-algebra/solvers/lu/lu, 0.0023, 0.0023, 0.0023,0.0023
SingleSource/Benchmarks/Polybench/medley/floyd-warshall/floyd-warshall, 3.4399, 3.4384, 3.4303,3.4384
SingleSource/Benchmarks/Polybench/medley/reg_detect/reg_detect, 0.0145, 0.0145, 0.0145,0.0145
SingleSource/Benchmarks/Polybench/stencils/adi/adi, 2.8102, 2.8088, 2.8096,2.8096
SingleSource/Benchmarks/Polybench/stencils/fdtd-2d/fdtd-2d, 0.3952, 0.3943, 0.3953,0.3952
SingleSource/Benchmarks/Polybench/stencils/fdtd-apml/fdtd-apml, 0.7224, 0.7216, 0.7309,0.7224
SingleSource/Benchmarks/Polybench/stencils/jacobi-1d-imper/jacobi-1d-imper, 0.0037, 0.0037, 0.0037,0.0037
SingleSource/Benchmarks/Polybench/stencils/jacobi-2d-imper/jacobi-2d-imper, 0.1461, 0.1461, 0.1454,0.1461
SingleSource/Benchmarks/Polybench/stencils/seidel-2d/seidel-2d, 0.6465, 0.6465, 0.6466,0.6465
SingleSource/Benchmarks/Shootout-C++/EH/except, 0.1204, 0.1208, 0.1203,0.1204
SingleSource/Benchmarks/Shootout-C++/ackermann, 0.6574, 0.6573, 0.6572,0.6573
SingleSource/Benchmarks/Shootout-C++/ary, 0.0143, 0.0142, 0.0142,0.0142
SingleSource/Benchmarks/Shootout-C++/ary2, 0.0150, 0.0152, 0.0150,0.015
SingleSource/Benchmarks/Shootout-C++/ary3, 0.5333, 0.5417, 0.5367,0.5367
SingleSource/Benchmarks/Shootout-C++/fibo, 1.4733, 1.4734, 1.4727,1.4733
SingleSource/Benchmarks/Shootout-C++/hash, 0.3202, 0.3212, 0.3208,0.3208
SingleSource/Benchmarks/Shootout-C++/hash2, 1.7765, 1.7766, 1.7746,1.7765
SingleSource/Benchmarks/Shootout-C++/heapsort, 2.0305, 2.0367, 2.0382,2.0367
SingleSource/Benchmarks/Shootout-C++/lists, 2.9727, 2.9742, 2.9892,2.9742
SingleSource/Benchmarks/Shootout-C++/lists1, 0.1318, 0.1330, 0.1328,0.1328
SingleSource/Benchmarks/Shootout-C++/matrix, 1.3229, 1.3226, 1.3225,1.3226
SingleSource/Benchmarks/Shootout-C++/methcall, 3.5510, 3.5460, 3.5460,3.546
SingleSource/Benchmarks/Shootout-C++/moments, 0.0505, 0.0507, 0.0506,0.0506
SingleSource/Benchmarks/Shootout-C++/nestedloop, 0.0009, 0.0009, 0.0009,0.0009
SingleSource/Benchmarks/Shootout-C++/objinst, 0.0009, 0.0009, 0.0010,0.0009
SingleSource/Benchmarks/Shootout-C++/random, 1.7450, 1.7450, 1.7450,1.745
SingleSource/Benchmarks/Shootout-C++/sieve, 1.3401, 1.3903, 1.3567,1.3567
SingleSource/Benchmarks/Shootout-C++/strcat, 0.0406, 0.0407, 0.0406,0.0406
SingleSource/Benchmarks/Shootout/ackermann, 0.0035, 0.0035, 0.0035,0.0035
SingleSource/Benchmarks/Shootout/ary3, 0.5855, 0.5883, 0.6032,0.5883
SingleSource/Benchmarks/Shootout/fib2, 1.4735, 1.4729, 1.4735,1.4735
SingleSource/Benchmarks/Shootout/hash, 2.7839, 2.7903, 2.7871,2.7871
SingleSource/Benchmarks/Shootout/heapsort, 2.0240, 2.0189, 2.0257,2.024
SingleSource/Benchmarks/Shootout/lists, 4.0627, 4.0620, 4.0623,4.0623
SingleSource/Benchmarks/Shootout/matrix, 1.0664, 1.0674, 1.0668,1.0668
SingleSource/Benchmarks/Shootout/methcall, 3.2763, 3.2763, 3.2760,3.2763
SingleSource/Benchmarks/Shootout/nestedloop, 0.0009, 0.0009, 0.0009,0.0009
SingleSource/Benchmarks/Shootout/objinst, 0.0009, 0.0009, 0.0009,0.0009
SingleSource/Benchmarks/Shootout/random, 1.7450, 1.7448, 1.7449,1.7449
SingleSource/Benchmarks/Shootout/sieve, 3.4707, 3.4738, 3.4711,3.4711
SingleSource/Benchmarks/Shootout/strcat, 0.1051, 0.1053, 0.1052,0.1052
SingleSource/Benchmarks/SmallPT/smallpt, 7.3918, 7.3916, 7.3874,7.3916
SingleSource/Benchmarks/Stanford/Bubblesort, 0.0161, 0.0161, 0.0162,0.0161
SingleSource/Benchmarks/Stanford/FloatMM, 0.5466, 0.5466, 0.5467,0.5466
SingleSource/Benchmarks/Stanford/Oscar, 0.0034, 0.0034, 0.0034,0.0034
SingleSource/Benchmarks/Stanford/Perm, 0.0147, 0.0147, 0.0147,0.0147
SingleSource/Benchmarks/Stanford/Puzzle, 0.0874, 0.0875, 0.0875,0.0875
SingleSource/Benchmarks/Stanford/Queens, 0.0078, 0.0078, 0.0076,0.0078
SingleSource/Benchmarks/Stanford/Quicksort, 0.0303, 0.0304, 0.0304,0.0304
SingleSource/Benchmarks/Stanford/RealMM, 0.0020, 0.0020, 0.0020,0.002
SingleSource/Benchmarks/Stanford/Towers, 0.0088, 0.0088, 0.0089,0.0088
SingleSource/Benchmarks/Stanford/Treesort, 0.0545, 0.0547, 0.0545,0.0545
SingleSource/Regression/C/2004-08-12-InlinerAndAllocas, 0.0015, 0.0013, 0.0015,0.0015
SingleSource/Regression/C/uint64_to_float, 0.2608, 0.2607, 0.2608,0.2608
Total elapsed time,-,-,-,572.53
Total failure,-,-,-,0
