Benchmarks,base-5.0,base-5.0,base-5.0,median,insts-opt-noprov-5.0,insts-opt-noprov-5.0,insts-opt-noprov-5.0,median,Slowdown(%)
SingleSource/Benchmarks/Adobe-C++/stepanov_vector, 0.6684, 0.6697, 0.6663,0.6684, 0.7706, 0.7715, 0.7711,0.7711,15.365050867743868
SingleSource/Benchmarks/Stanford/Oscar, 0.0576, 0.0575, 0.0574,0.0575, 0.0619, 0.0620, 0.0619,0.0619,7.65217391304347
MultiSource/Benchmarks/Olden/mst/mst, 0.1139, 0.1134, 0.1135,0.1135, 0.1170, 0.1172, 0.1172,0.1172,3.2599118942731264
SingleSource/Benchmarks/CoyoteBench/almabench, 0.0594, 0.0605, 0.0608,0.0605, 0.0618, 0.0617, 0.0618,0.0618,2.148760330578514
MultiSource/Benchmarks/McCat/08-main/main, 0.2184, 0.2181, 0.2178,0.2181, 0.2221, 0.2220, 0.2220,0.222,1.7881705639614998
MultiSource/Applications/minisat/minisat, 0.5482, 0.5491, 0.5490,0.549, 0.5570, 0.5573, 0.5579,0.5573,1.5118397085610136
MultiSource/Benchmarks/MiBench/automotive-bitcount/automotive-bitcount, 0.2387, 0.2383, 0.2383,0.2383, 0.2411, 0.2401, 0.2399,0.2401,0.7553503986571508
MultiSource/Benchmarks/MiBench/telecomm-gsm/telecomm-gsm, 0.9464, 0.9442, 0.9449,0.9449, 0.9519, 0.9519, 0.9501,0.9519,0.7408191342999304
MultiSource/Benchmarks/DOE-ProxyApps-C/XSBench/XSBench, 0.3189, 0.3180, 0.3179,0.318, 0.3212, 0.3203, 0.3202,0.3203,0.7232704402515555
MultiSource/Benchmarks/DOE-ProxyApps-C/SimpleMOC/SimpleMOC, 0.7806, 0.7812, 0.7794,0.7806, 0.7862, 0.7858, 0.7867,0.7862,0.7173968741993386
MultiSource/Benchmarks/VersaBench/dbms/dbms, 0.8969, 0.8946, 0.8938,0.8946, 0.9011, 0.9006, 0.8988,0.9006,0.670690811535879
MultiSource/Benchmarks/mediabench/gsm/toast/toast, 0.9462, 0.9447, 0.9446,0.9447, 0.9509, 0.9495, 0.9520,0.9509,0.6562930030697522
MultiSource/Benchmarks/DOE-ProxyApps-C/RSBench/rsbench, 0.3582, 0.3578, 0.3569,0.3578, 0.3604, 0.3600, 0.3596,0.36,0.6148686416992621
MultiSource/Benchmarks/MallocBench/cfrac/cfrac, 0.8073, 0.8052, 0.8041,0.8052, 0.8099, 0.8103, 0.8081,0.8099,0.58370591157475
MultiSource/Benchmarks/ASCI_Purple/SMG2000/smg2000, 5.0904, 5.0888, 5.0857,5.0888, 5.1176, 5.1139, 5.1151,5.1151,0.5168212545197282
MultiSource/Benchmarks/McCat/05-eks/eks, 0.4707, 0.4700, 0.4700,0.47, 0.4721, 0.4732, 0.4724,0.4724,0.5106382978723456
MultiSource/Benchmarks/DOE-ProxyApps-C++/HPCCG/HPCCG, 1.2597, 1.2899, 1.2882,1.2882, 1.2963, 1.2939, 1.2945,1.2945,0.48905449464369255
MultiSource/Benchmarks/TSVC/NodeSplitting-dbl/NodeSplitting-dbl, 1.8149, 1.8171, 1.8146,1.8149, 1.8230, 1.8205, 1.8244,1.823,0.4463055815747463
MultiSource/Applications/spiff/spiff, 0.6833, 0.6827, 0.6827,0.6827, 0.6848, 0.6864, 0.6855,0.6855,0.4101362238172035
MultiSource/Benchmarks/DOE-ProxyApps-C/miniAMR/miniAMR, 1.1930, 1.2098, 1.2077,1.2077, 1.2137, 1.2112, 1.2123,1.2123,0.3808892936987718
MultiSource/Benchmarks/SciMark2-C/scimark2, 0.3429, 0.3418, 0.3417,0.3418, 0.3432, 0.3431, 0.3431,0.3431,0.3803393797542576
MultiSource/Benchmarks/Prolangs-C++/employ/employ, 0.1844, 0.1849, 0.1845,0.1845, 0.1852, 0.1852, 0.1853,0.1852,0.3794037940379358
MultiSource/Benchmarks/DOE-ProxyApps-C/miniGMG/miniGMG, 0.8739, 0.8747, 0.8734,0.8739, 0.8774, 0.8772, 0.8765,0.8772,0.377617576381728
MultiSource/Benchmarks/MiBench/consumer-lame/consumer-lame, 3.5118, 3.5629, 3.5578,3.5578, 3.5722, 3.5693, 3.5701,3.5701,0.3457192647141616
SingleSource/Benchmarks/Misc-C++/stepanov_v1p2, 0.1568, 0.1568, 0.1566,0.1568, 0.1573, 0.1565, 0.1574,0.1573,0.3188775510204023
MultiSource/Benchmarks/TSVC/Symbolics-flt/Symbolics-flt, 1.5192, 1.5189, 1.5031,1.5189, 1.5236, 1.5229, 1.5263,1.5236,0.30943445914808354
MultiSource/Benchmarks/7zip/7zip-benchmark,30.6786,30.8041,30.7512,30.7512,30.8566,30.8365,30.8076,30.8365,0.2773875491037803
MultiSource/Benchmarks/MiBench/automotive-susan/automotive-susan, 0.5547, 0.5550, 0.5547,0.5547, 0.5562, 0.5558, 0.5567,0.5562,0.27041644131964304
MultiSource/Benchmarks/TSVC/InductionVariable-flt/InductionVariable-flt, 1.5406, 1.5439, 1.5390,1.5406, 1.5434, 1.5444, 1.5451,1.5444,0.2466571465662648
MultiSource/Benchmarks/TSVC/Searching-dbl/Searching-dbl, 1.7789, 1.7873, 1.7805,1.7805, 1.7846, 1.7816, 1.7850,1.7846,0.23027239539454847
MultiSource/Benchmarks/Bullet/bullet,20.8266,20.9475,20.9128,20.9128,20.9698,20.9580,20.9570,20.958,0.2161355724723535
SingleSource/Benchmarks/Misc-C++/Large/ray, 0.1932, 0.1938, 0.1930,0.1932, 0.1936, 0.1935, 0.1937,0.1936,0.20703933747410197
MultiSource/Benchmarks/Trimaran/enc-3des/enc-3des, 0.2123, 0.2140, 0.2141,0.214, 0.2153, 0.2143, 0.2144,0.2144,0.18691588785046953
MultiSource/Applications/hexxagon/hexxagon, 0.6053, 0.6064, 0.6050,0.6053, 0.6062, 0.6066, 0.6064,0.6064,0.18172806872627234
MultiSource/Applications/ALAC/decode/alacconvert-decode, 0.8565, 0.8569, 0.8547,0.8565, 0.8587, 0.8580, 0.8577,0.858,0.17513134851137035
MultiSource/Benchmarks/PAQ8p/paq8p, 1.7219, 1.7184, 1.7198,1.7198, 1.7223, 1.7217, 1.7227,1.7223,0.14536574020234116
MultiSource/Benchmarks/FreeBench/analyzer/analyzer, 0.2175, 0.2173, 0.2168,0.2173, 0.2176, 0.2178, 0.2173,0.2176,0.13805798435342354
MultiSource/Benchmarks/MallocBench/espresso/espresso, 4.1322, 4.1286, 4.1246,4.1286, 4.1326, 4.1340, 4.1368,4.134,0.1307949425955801
MultiSource/Applications/ALAC/encode/alacconvert-encode, 0.8578, 0.8570, 0.8548,0.857, 0.8592, 0.8580, 0.8578,0.858,0.1166861143523823
MultiSource/Benchmarks/TSVC/CrossingThresholds-flt/CrossingThresholds-flt, 1.5265, 1.5302, 1.5239,1.5265, 1.5275, 1.5282, 1.5285,1.5282,0.11136586963642614
MultiSource/Applications/lua/lua, 2.9301, 2.9317, 2.9254,2.9301, 2.9346, 2.9331, 2.9315,2.9331,0.10238558410975429
MultiSource/Benchmarks/TSVC/GlobalDataFlow-dbl/GlobalDataFlow-dbl, 1.8669, 1.8691, 1.8667,1.8669, 1.8702, 1.8681, 1.8685,1.8685,0.08570357276769247
MultiSource/Applications/lambda-0.1.3/lambda, 0.5040, 0.5034, 0.5027,0.5034, 0.5030, 0.5040, 0.5038,0.5038,0.07945967421534306
MultiSource/Benchmarks/MallocBench/gs/gs, 3.4251, 3.4206, 3.4159,3.4206, 3.4205, 3.4260, 3.4233,3.4233,0.07893352043499835
MultiSource/Benchmarks/Ptrdist/ks/ks, 0.1317, 0.1318, 0.1314,0.1317, 0.1316, 0.1318, 0.1319,0.1318,0.07593014426725553
MultiSource/Applications/JM/ldecod/ldecod, 5.6739, 5.6717, 5.6771,5.6739, 5.6782, 5.6825, 5.6696,5.6782,0.07578561483283508
MultiSource/Applications/JM/lencod/lencod,13.2944,13.2996,13.2901,13.2944,13.3084,13.2962,13.3017,13.3017,0.054910338187519336
MultiSource/Benchmarks/TSVC/InductionVariable-dbl/InductionVariable-dbl, 1.8532, 1.8499, 1.8477,1.8499, 1.8524, 1.8463, 1.8507,1.8507,0.04324558084221053
MultiSource/Benchmarks/TSVC/CrossingThresholds-dbl/CrossingThresholds-dbl, 1.8329, 1.8327, 1.8335,1.8329, 1.8335, 1.8356, 1.8326,1.8335,0.03273501009328772
MultiSource/Benchmarks/Prolangs-C/bison/mybison, 1.4598, 1.4604, 1.4588,1.4598, 1.4602, 1.4620, 1.4600,1.4602,0.027401013837513588
MultiSource/Benchmarks/MiBench/consumer-jpeg/consumer-jpeg, 3.9733, 4.0217, 4.0214,4.0214, 4.0214, 4.0232, 4.0220,4.022,0.014920177052779593
SingleSource/Benchmarks/Shootout-C++/lists, 0.1471, 0.1474, 0.1470,0.1471, 0.1470, 0.1471, 0.1471,0.1471,0.0
MultiSource/Benchmarks/Prolangs-C/agrep/agrep, 1.2031, 1.2014, 1.1988,1.2014, 1.2015, 1.2012, 1.2014,1.2014,0.0
MultiSource/Benchmarks/TSVC/LoopRerolling-dbl/LoopRerolling-dbl, 1.8049, 1.8055, 1.8049,1.8049, 1.8047, 1.8023, 1.8049,1.8047,-0.011080946312813644
MultiSource/Benchmarks/DOE-ProxyApps-C/Pathfinder/PathFinder, 0.7373, 0.7370, 0.7346,0.737, 0.7411, 0.7369, 0.7363,0.7369,-0.013568521031204206
MultiSource/Benchmarks/TSVC/Expansion-dbl/Expansion-dbl, 1.8794, 1.8769, 1.8768,1.8769, 1.8765, 1.8742, 1.8788,1.8765,-0.021311737439388967
MultiSource/Benchmarks/mediabench/jpeg/jpeg-6a/cjpeg, 4.0641, 4.0598, 4.0558,4.0598, 4.0649, 4.0583, 4.0576,4.0583,-0.036947632888317816
MultiSource/Benchmarks/TSVC/Symbolics-dbl/Symbolics-dbl, 1.8323, 1.8323, 1.8285,1.8323, 1.8351, 1.8316, 1.8310,1.8316,-0.038203350979648665
MultiSource/Benchmarks/TSVC/StatementReordering-dbl/StatementReordering-dbl, 1.7918, 1.7915, 1.7925,1.7918, 1.7924, 1.7907, 1.7910,1.791,-0.04464784016073864
MultiSource/Benchmarks/TSVC/LoopRestructuring-dbl/LoopRestructuring-dbl, 1.8483, 1.8471, 1.8464,1.8471, 1.8484, 1.8461, 1.8457,1.8461,-0.054138920469914975
MultiSource/Benchmarks/TSVC/GlobalDataFlow-flt/GlobalDataFlow-flt, 1.5624, 1.5613, 1.5496,1.5613, 1.5603, 1.5579, 1.5694,1.5603,-0.06404918977773733
MultiSource/Benchmarks/TSVC/LoopRestructuring-flt/LoopRestructuring-flt, 1.5375, 1.5413, 1.5408,1.5408, 1.5389, 1.5419, 1.5398,1.5398,-0.06490134994807661
MultiSource/Benchmarks/TSVC/Expansion-flt/Expansion-flt, 1.5672, 1.5665, 1.5648,1.5665, 1.5656, 1.5654, 1.5636,1.5654,-0.07022023619535078
MultiSource/Benchmarks/Prolangs-C++/city/city, 0.8286, 0.8297, 0.8275,0.8286, 0.8279, 0.8293, 0.8262,0.8279,-0.08447984552256704
MultiSource/Benchmarks/TSVC/Reductions-flt/Reductions-flt, 1.5765, 1.5801, 1.5811,1.5801, 1.5810, 1.5754, 1.5787,1.5787,-0.0886019872160082
MultiSource/Benchmarks/TSVC/NodeSplitting-flt/NodeSplitting-flt, 1.5108, 1.5117, 1.5081,1.5108, 1.5119, 1.5068, 1.5093,1.5093,-0.09928514694200752
MultiSource/Benchmarks/TSVC/Equivalencing-dbl/Equivalencing-dbl, 1.8438, 1.8427, 1.8403,1.8427, 1.8388, 1.8408, 1.8416,1.8408,-0.10310956748249556
MultiSource/Applications/sqlite3/sqlite3,13.5996,13.6016,13.6037,13.6016,13.5769,13.5847,13.5984,13.5847,-0.12425008822490868
MultiSource/Benchmarks/TSVC/LoopRerolling-flt/LoopRerolling-flt, 1.4990, 1.4971, 1.4957,1.4971, 1.4949, 1.4952, 1.4977,1.4952,-0.12691202992451966
MultiSource/Benchmarks/TSVC/Recurrences-dbl/Recurrences-dbl, 1.7953, 1.7951, 1.7933,1.7951, 1.7893, 1.7927, 1.7980,1.7927,-0.13369728705920902
MultiSource/Benchmarks/TSVC/Packing-dbl/Packing-dbl, 1.7932, 1.7958, 1.7937,1.7937, 1.7913, 1.7911, 1.7926,1.7913,-0.1338016390700858
MultiSource/Benchmarks/TSVC/ControlFlow-flt/ControlFlow-flt, 1.6597, 1.6610, 1.6598,1.6598, 1.6587, 1.6575, 1.6563,1.6575,-0.13857091215808692
MultiSource/Benchmarks/TSVC/IndirectAddressing-dbl/IndirectAddressing-dbl, 1.8287, 1.8280, 1.8256,1.828, 1.8254, 1.8270, 1.8237,1.8254,-0.14223194748359536
MultiSource/Applications/hbd/hbd, 1.0940, 1.0911, 1.0930,1.093, 1.0941, 1.0913, 1.0897,1.0913,-0.15553522415371335
MultiSource/Benchmarks/Ptrdist/yacr2/yacr2, 0.5497, 0.5505, 0.5474,0.5497, 0.5481, 0.5488, 0.5488,0.5488,-0.1637256685464772
SingleSource/Benchmarks/Shootout-C++/lists1, 0.1824, 0.1825, 0.1820,0.1824, 0.1821, 0.1814, 0.1835,0.1821,-0.1644736842105199
MultiSource/Benchmarks/TSVC/LinearDependence-flt/LinearDependence-flt, 1.5862, 1.5863, 1.5862,1.5862, 1.5836, 1.5834, 1.5835,1.5835,-0.17021813138319297
MultiSource/Applications/SIBsim4/SIBsim4, 1.0351, 1.0347, 1.0345,1.0347, 1.0329, 1.0317, 1.0345,1.0329,-0.17396346767178938
MultiSource/Benchmarks/TSVC/Packing-flt/Packing-flt, 1.4895, 1.4878, 1.4856,1.4878, 1.4851, 1.4870, 1.4846,1.4851,-0.18147600483935378
MultiSource/Benchmarks/sim/sim, 0.2552, 0.2555, 0.2549,0.2552, 0.2545, 0.2549, 0.2547,0.2547,-0.19592476489028732
MultiSource/Benchmarks/TSVC/Equivalencing-flt/Equivalencing-flt, 1.5314, 1.5371, 1.5270,1.5314, 1.5290, 1.5269, 1.5282,1.5282,-0.208959122371688
MultiSource/Benchmarks/mafft/pairlocalalign, 7.8611, 7.8619, 7.8539,7.8611, 7.8426, 7.8446, 7.8458,7.8446,-0.20989428960324075
MultiSource/Benchmarks/DOE-ProxyApps-C++/PENNANT/PENNANT, 3.6716, 3.6979, 3.6948,3.6948, 3.6902, 3.6812, 3.6869,3.6869,-0.21381400887733326
MultiSource/Benchmarks/TSVC/ControlFlow-dbl/ControlFlow-dbl, 1.9713, 1.9682, 1.9698,1.9698, 1.9655, 1.9639, 1.9664,1.9655,-0.218296273733376
MultiSource/Benchmarks/Ptrdist/anagram/anagram, 0.0911, 0.0910, 0.0911,0.0911, 0.0918, 0.0907, 0.0909,0.0909,-0.2195389681668547
MultiSource/Benchmarks/TSVC/LinearDependence-dbl/LinearDependence-dbl, 1.8916, 1.8910, 1.8922,1.8916, 1.8924, 1.8870, 1.8783,1.887,-0.24318037640093104
MultiSource/Benchmarks/TSVC/StatementReordering-flt/StatementReordering-flt, 1.4854, 1.4850, 1.4819,1.485, 1.4832, 1.4804, 1.4812,1.4812,-0.25589225589225384
MultiSource/Benchmarks/McCat/09-vor/vor, 0.2522, 0.2513, 0.2509,0.2513, 0.2505, 0.2506, 0.2513,0.2506,-0.2785515320334442
MultiSource/Applications/SPASS/SPASS,11.0359,11.0351,11.0168,11.0351,10.9936,11.0004,10.9992,10.9992,-0.32532555210192937
MultiSource/Benchmarks/TSVC/IndirectAddressing-flt/IndirectAddressing-flt, 1.5220, 1.5185, 1.5233,1.522, 1.5170, 1.5151, 1.5180,1.517,-0.328515111695149
MultiSource/Applications/oggenc/oggenc, 4.4045, 4.3990, 4.4047,4.4045, 4.3929, 4.3849, 4.3896,4.3896,-0.3382903848336949
MultiSource/Applications/ClamAV/clamscan,12.9937,12.9935,12.9860,12.9935,12.9467,12.9390,12.9639,12.9467,-0.3601800900450147
MultiSource/Benchmarks/Ptrdist/bc/bc, 0.9120, 0.9130, 0.9117,0.912, 0.9087, 0.9084, 0.9088,0.9087,-0.36184210526316596
SingleSource/Benchmarks/Misc/himenobmtxpa, 0.1550, 0.1548, 0.1546,0.1548, 0.1542, 0.1591, 0.1542,0.1542,-0.3875968992247958
SingleSource/Benchmarks/Shootout-C++/sieve, 0.1684, 0.1682, 0.1675,0.1682, 0.1674, 0.1677, 0.1675,0.1675,-0.4161712247324534
MultiSource/Benchmarks/TSVC/Recurrences-flt/Recurrences-flt, 1.4811, 1.4870, 1.4864,1.4864, 1.4806, 1.4791, 1.4800,1.48,-0.43057050592034685
MultiSource/Benchmarks/TSVC/Searching-flt/Searching-flt, 1.4766, 1.4792, 1.4731,1.4766, 1.4702, 1.4683, 1.4693,1.4693,-0.49437897873492176
SingleSource/Benchmarks/Misc-C++-EH/spirit, 3.3071, 3.3114, 3.3021,3.3071, 3.2892, 3.2920, 3.2890,3.2892,-0.5412597139487829
MultiSource/Benchmarks/TSVC/Reductions-dbl/Reductions-dbl, 1.8860, 1.8876, 1.8847,1.886, 1.8592, 1.8754, 1.8810,1.8754,-0.5620360551431558
MultiSource/Benchmarks/Olden/tsp/tsp, 0.1187, 0.1184, 0.1186,0.1186, 0.1184, 0.1179, 0.1179,0.1179,-0.5902192242832949
MultiSource/Applications/d/make_dparser, 2.3351, 2.3364, 2.3303,2.3351, 2.3207, 2.3235, 2.3199,2.3207,-0.6166759453556714
MultiSource/Applications/kimwitu++/kc,10.0896,10.0878,10.0639,10.0878,10.0303,10.0215,10.0206,10.0215,-0.6572295247724957
MultiSource/Benchmarks/DOE-ProxyApps-C++/miniFE/miniFE, 2.3407, 2.3497, 2.3478,2.3478, 2.3340, 2.3303, 2.3319,2.3319,-0.6772297469971766
SingleSource/Benchmarks/Shootout-C++/hash, 0.2452, 0.2464, 0.2458,0.2458, 0.2448, 0.2441, 0.2441,0.2441,-0.6916192026037327
MultiSource/Applications/siod/siod, 1.7768, 1.7754, 1.7732,1.7754, 1.7624, 1.7660, 1.7621,1.7624,-0.7322293567646798
MultiSource/Benchmarks/tramp3d-v4/tramp3d-v4,18.5736,18.6171,18.5789,18.5789,18.4761,18.4419,18.4211,18.4419,-0.7373956477509491
MultiSource/Benchmarks/MiBench/consumer-typeset/consumer-typeset, 8.9003, 8.9041, 8.9033,8.9033, 8.8199, 8.8167, 8.8161,8.8167,-0.9726730538114903
SingleSource/Benchmarks/Misc-C++/bigfib, 0.4043, 0.4041, 0.4034,0.4041, 0.3998, 0.4006, 0.3999,0.3999,-1.0393466963622977
SingleSource/Benchmarks/Shootout-C++/hash2, 0.2777, 0.2782, 0.2783,0.2782, 0.2754, 0.2748, 0.2752,0.2752,-1.0783608914450071
SingleSource/Benchmarks/CoyoteBench/lpbench, 0.1362, 0.1361, 0.1358,0.1361, 0.1345, 0.1331, 0.1345,0.1345,-1.1756061719323974
MultiSource/Benchmarks/DOE-ProxyApps-C++/CLAMR/CLAMR,16.4431,16.4327,16.3991,16.4327,16.2490,16.2250,16.2334,16.2334,-1.212825646424509
MultiSource/Benchmarks/Olden/voronoi/voronoi, 0.2208, 0.2209, 0.2205,0.2208, 0.2181, 0.2182, 0.2175,0.2181,-1.22282608695653
SingleSource/Benchmarks/Shootout-C++/moments, 0.2237, 0.2239, 0.2244,0.2239, 0.2189, 0.2190, 0.2188,0.2189,-2.233139794551131
SingleSource/Benchmarks/CoyoteBench/huffbench, 0.0773, 0.0773, 0.0771,0.0773, 0.0756, 0.0753, 0.0755,0.0755,-2.3285899094437235
SingleSource/Benchmarks/Misc-C++/stepanov_container, 0.6068, 0.6070, 0.6081,0.607, 0.5908, 0.5915, 0.5920,0.5915,-2.5535420098846684
SingleSource/Benchmarks/Adobe-C++/functionobjects, 0.4130, 0.4143, 0.4124,0.413, 0.3992, 0.3990, 0.3999,0.3992,-3.341404358353506
SingleSource/Benchmarks/Adobe-C++/stepanov_abstraction, 0.5537, 0.5544, 0.5529,0.5537, 0.4938, 0.4947, 0.4943,0.4943,-10.727830955390994
Total elapsed time,-,-,-,333.8871000000001,-,-,-,333.47309999999993,-0.12399400875330313
Total failure,-,-,-,0,-,-,-,0,
Geom. avg slowdown,,,,,,,,,0.0107807963467%
