Benchmarks,/mnt/freezedisk/llvm-intptr-base-5.0-release/bin/clang,/mnt/freezedisk/llvm-intptr-base-5.0-release/bin/clang,/mnt/freezedisk/llvm-intptr-base-5.0-release/bin/clang,median,/mnt/freezedisk/llvm-intptr-insts-opt-noprov-5.0-release/bin/clang,/mnt/freezedisk/llvm-intptr-insts-opt-noprov-5.0-release/bin/clang,/mnt/freezedisk/llvm-intptr-insts-opt-noprov-5.0-release/bin/clang,median
MultiSource/Applications/ALAC/decode/alacconvert-decode, 0.0137, 0.0137, 0.0137,0.0137, 0.0137, 0.0137, 0.0137,0.0137
MultiSource/Applications/ALAC/encode/alacconvert-encode, 0.0262, 0.0262, 0.0262,0.0262, 0.0262, 0.0262, 0.0262,0.0262
MultiSource/Applications/ClamAV/clamscan, 0.1807, 0.2072, 0.2055,0.2055, 0.2068, 0.2044, 0.2077,0.2068
MultiSource/Applications/JM/ldecod/ldecod, 0.0380, 0.0380, 0.0380,0.038, 0.0379, 0.0378, 0.0382,0.0379
MultiSource/Applications/JM/lencod/lencod, 2.9022, 2.8995, 2.9027,2.9022, 2.9022, 2.9009, 2.8995,2.9009
MultiSource/Applications/SIBsim4/SIBsim4, 1.9135, 1.8879, 1.9281,1.9135, 1.9180, 1.9067, 1.9253,1.918
MultiSource/Applications/SPASS/SPASS, 6.0149, 5.9716, 6.2174,6.0149, 5.9407, 6.1933, 6.2178,6.1933
MultiSource/Applications/d/make_dparser, 0.0163, 0.0163, 0.0162,0.0163, 0.0161, 0.0161, 0.0161,0.0161
MultiSource/Applications/hbd/hbd, 0.0034, 0.0034, 0.0034,0.0034, 0.0034, 0.0034, 0.0034,0.0034
MultiSource/Applications/hexxagon/hexxagon, 6.4693, 6.4696, 6.4701,6.4696, 6.4701, 6.4701, 6.4712,6.4701
MultiSource/Applications/kimwitu++/kc, 0.0279, 0.0279, 0.0279,0.0279, 0.0278, 0.0278, 0.0280,0.0278
MultiSource/Applications/lambda-0.1.3/lambda, 2.4242, 2.4552, 2.4170,2.4242, 2.4545, 2.4532, 2.4533,2.4533
MultiSource/Applications/lua/lua,10.1832,10.1809,10.1809,10.1809,10.1673,10.1773,10.1704,10.1704
MultiSource/Applications/minisat/minisat, 3.7353, 3.7420, 3.7331,3.7353, 3.8113, 3.8202, 3.7972,3.8113
MultiSource/Applications/oggenc/oggenc, 0.0709, 0.0709, 0.0713,0.0709, 0.0707, 0.0706, 0.0706,0.0706
MultiSource/Applications/siod/siod, 1.0349, 1.0342, 1.0333,1.0342, 1.0452, 1.0588, 0.9844,1.0452
MultiSource/Applications/spiff/spiff, 1.1778, 1.1761, 1.1754,1.1761, 1.1771, 1.1766, 1.1774,1.1771
MultiSource/Applications/sqlite3/sqlite3, 1.6308, 1.6309, 1.6622,1.6309, 1.6329, 1.6482, 1.6430,1.643
MultiSource/Benchmarks/7zip/7zip-benchmark, 5.8032, 5.8049, 5.8030,5.8032, 5.8125, 5.8125, 5.8123,5.8125
MultiSource/Benchmarks/ASCI_Purple/SMG2000/smg2000, 1.2861, 1.2848, 1.2838,1.2848, 1.2849, 1.2823, 1.2852,1.2849
MultiSource/Benchmarks/Bullet/bullet, 2.9578, 2.9534, 2.9595,2.9578, 3.0338, 3.0341, 3.0287,3.0338
MultiSource/Benchmarks/DOE-ProxyApps-C++/CLAMR/CLAMR, 1.0247, 1.0247, 1.0249,1.0247, 1.0247, 1.0249, 1.0246,1.0247
MultiSource/Benchmarks/DOE-ProxyApps-C++/HPCCG/HPCCG, 0.8368, 0.8374, 0.8373,0.8373, 0.8357, 0.8371, 0.8368,0.8368
MultiSource/Benchmarks/DOE-ProxyApps-C++/PENNANT/PENNANT, 0.3780, 0.3776, 0.3774,0.3776, 0.3782, 0.3776, 0.3780,0.378
MultiSource/Benchmarks/DOE-ProxyApps-C++/miniFE/miniFE, 2.4173, 2.4230, 2.4261,2.423, 2.4192, 2.4198, 2.4183,2.4192
MultiSource/Benchmarks/DOE-ProxyApps-C/Pathfinder/PathFinder, 1.9430, 1.9434, 1.9430,1.943, 1.9323, 1.9366, 1.9382,1.9366
MultiSource/Benchmarks/DOE-ProxyApps-C/RSBench/rsbench, 0.5224, 0.5308, 0.5283,0.5283, 0.5284, 0.5267, 0.5301,0.5284
MultiSource/Benchmarks/DOE-ProxyApps-C/SimpleMOC/SimpleMOC, 3.4692, 3.4704, 3.4819,3.4704, 3.4660, 3.4677, 3.4664,3.4664
MultiSource/Benchmarks/DOE-ProxyApps-C/XSBench/XSBench, 2.2199, 2.2217, 2.2216,2.2216, 2.2248, 2.2243, 2.2209,2.2243
MultiSource/Benchmarks/DOE-ProxyApps-C/miniAMR/miniAMR, 0.7164, 0.7145, 0.7143,0.7145, 0.7146, 0.7154, 0.7155,0.7154
MultiSource/Benchmarks/DOE-ProxyApps-C/miniGMG/miniGMG, 5.0094, 5.0105, 5.0158,5.0105, 5.0134, 5.0089, 5.0145,5.0134
MultiSource/Benchmarks/FreeBench/analyzer/analyzer, 0.0393, 0.0389, 0.0383,0.0389, 0.0384, 0.0382, 0.0388,0.0384
MultiSource/Benchmarks/MallocBench/cfrac/cfrac, 0.6969, 0.6972, 0.6978,0.6972, 0.6960, 0.6962, 0.6966,0.6962
MultiSource/Benchmarks/MallocBench/espresso/espresso, 0.2745, 0.2753, 0.2747,0.2747, 0.2756, 0.2755, 0.2755,0.2755
MultiSource/Benchmarks/MallocBench/gs/gs, 0.0274, 0.0274, 0.0275,0.0274, 0.0273, 0.0273, 0.0274,0.0273
MultiSource/Benchmarks/McCat/05-eks/eks, 0.0031, 0.0031, 0.0031,0.0031, 0.0031, 0.0031, 0.0031,0.0031
MultiSource/Benchmarks/McCat/08-main/main, 0.0390, 0.0391, 0.0390,0.039, 0.0390, 0.0390, 0.0391,0.039
MultiSource/Benchmarks/McCat/09-vor/vor, 0.0779, 0.0778, 0.0780,0.0779, 0.0781, 0.0782, 0.0782,0.0782
MultiSource/Benchmarks/MiBench/automotive-bitcount/automotive-bitcount, 0.0562, 0.0523, 0.0500,0.0523, 0.0500, 0.0511, 0.0500,0.05
MultiSource/Benchmarks/MiBench/automotive-susan/automotive-susan, 0.0277, 0.0278, 0.0278,0.0278, 0.0278, 0.0277, 0.0278,0.0278
MultiSource/Benchmarks/MiBench/consumer-jpeg/consumer-jpeg, 0.0046, 0.0045, 0.0046,0.0046, 0.0045, 0.0045, 0.0045,0.0045
MultiSource/Benchmarks/MiBench/consumer-lame/consumer-lame, 0.1089, 0.1089, 0.1088,0.1089, 0.1088, 0.1090, 0.1089,0.1089
MultiSource/Benchmarks/MiBench/consumer-typeset/consumer-typeset, 0.0805, 0.0807, 0.0799,0.0805, 0.0792, 0.0796, 0.0791,0.0792
MultiSource/Benchmarks/MiBench/telecomm-gsm/telecomm-gsm, 0.0930, 0.0931, 0.0930,0.093, 0.0931, 0.0930, 0.0930,0.093
MultiSource/Benchmarks/Olden/mst/mst, 0.0492, 0.0489, 0.0486,0.0489, 0.0482, 0.0482, 0.0482,0.0482
MultiSource/Benchmarks/Olden/tsp/tsp, 1.0733, 1.0726, 1.0735,1.0733, 1.0731, 1.0731, 1.0730,1.0731
MultiSource/Benchmarks/Olden/voronoi/voronoi, 0.1971, 0.1966, 0.1966,0.1966, 0.1992, 0.1992, 0.1992,0.1992
MultiSource/Benchmarks/PAQ8p/paq8p,39.0364,39.0627,39.0595,39.0595,39.0241,39.0287,39.0024,39.0241
MultiSource/Benchmarks/Prolangs-C++/city/city, 0.0046, 0.0046, 0.0046,0.0046, 0.0046, 0.0046, 0.0047,0.0046
MultiSource/Benchmarks/Prolangs-C++/employ/employ, 0.0062, 0.0062, 0.0063,0.0062, 0.0063, 0.0062, 0.0062,0.0062
MultiSource/Benchmarks/Prolangs-C/agrep/agrep, 0.0045, 0.0045, 0.0045,0.0045, 0.0045, 0.0045, 0.0045,0.0045
MultiSource/Benchmarks/Prolangs-C/bison/mybison, 0.0037, 0.0037, 0.0036,0.0037, 0.0036, 0.0037, 0.0036,0.0036
MultiSource/Benchmarks/Ptrdist/anagram/anagram, 0.5504, 0.5504, 0.5504,0.5504, 0.5504, 0.5504, 0.5504,0.5504
MultiSource/Benchmarks/Ptrdist/bc/bc, 0.3351, 0.3351, 0.3349,0.3351, 0.3378, 0.3378, 0.3379,0.3378
MultiSource/Benchmarks/Ptrdist/ks/ks, 0.6009, 0.5977, 0.5971,0.5977, 0.5975, 0.6010, 0.6020,0.601
MultiSource/Benchmarks/Ptrdist/yacr2/yacr2, 0.4872, 0.4869, 0.4869,0.4869, 0.4866, 0.4868, 0.4867,0.4867
MultiSource/Benchmarks/SciMark2-C/scimark2,38.4742,38.4702,38.4665,38.4702,38.4874,38.4907,38.4925,38.4907
MultiSource/Benchmarks/TSVC/ControlFlow-dbl/ControlFlow-dbl, 3.4381, 3.4419, 3.4400,3.44, 3.4435, 3.4462, 3.4429,3.4435
MultiSource/Benchmarks/TSVC/ControlFlow-flt/ControlFlow-flt, 3.2199, 3.1904, 3.2174,3.2174, 3.2087, 3.2280, 3.2346,3.228
MultiSource/Benchmarks/TSVC/CrossingThresholds-dbl/CrossingThresholds-dbl, 1.9838, 1.9842, 1.9843,1.9842, 1.9842, 1.9838, 1.9841,1.9841
MultiSource/Benchmarks/TSVC/CrossingThresholds-flt/CrossingThresholds-flt, 1.4951, 1.4920, 1.4881,1.492, 1.5035, 1.4915, 1.4987,1.4987
MultiSource/Benchmarks/TSVC/Equivalencing-dbl/Equivalencing-dbl, 1.2722, 1.2732, 1.2734,1.2732, 1.2740, 1.2738, 1.2722,1.2738
MultiSource/Benchmarks/TSVC/Equivalencing-flt/Equivalencing-flt, 0.8885, 0.8867, 0.8870,0.887, 0.8868, 0.8846, 0.8857,0.8857
MultiSource/Benchmarks/TSVC/Expansion-dbl/Expansion-dbl, 1.8342, 1.8348, 1.8339,1.8342, 1.8330, 1.8344, 1.8351,1.8344
MultiSource/Benchmarks/TSVC/Expansion-flt/Expansion-flt, 1.0771, 1.0845, 1.0880,1.0845, 1.0851, 1.0887, 1.0918,1.0887
MultiSource/Benchmarks/TSVC/GlobalDataFlow-dbl/GlobalDataFlow-dbl, 2.6190, 2.6193, 2.6184,2.619, 2.6182, 2.6178, 2.6178,2.6178
MultiSource/Benchmarks/TSVC/GlobalDataFlow-flt/GlobalDataFlow-flt, 1.3829, 1.3700, 1.3707,1.3707, 1.3694, 1.3805, 1.3745,1.3745
MultiSource/Benchmarks/TSVC/IndirectAddressing-dbl/IndirectAddressing-dbl, 2.2738, 2.2777, 2.2723,2.2738, 2.2759, 2.2715, 2.2816,2.2759
MultiSource/Benchmarks/TSVC/IndirectAddressing-flt/IndirectAddressing-flt, 2.0545, 2.0562, 2.0559,2.0559, 2.0566, 2.0564, 2.0548,2.0564
MultiSource/Benchmarks/TSVC/InductionVariable-dbl/InductionVariable-dbl, 2.8009, 2.7996, 2.8020,2.8009, 2.8008, 2.8015, 2.7984,2.8008
MultiSource/Benchmarks/TSVC/InductionVariable-flt/InductionVariable-flt, 2.3440, 2.3460, 2.3418,2.344, 2.3449, 2.3435, 2.3404,2.3435
MultiSource/Benchmarks/TSVC/LinearDependence-dbl/LinearDependence-dbl, 5.2304, 5.2290, 5.2294,5.2294, 5.2293, 5.2277, 5.2303,5.2293
MultiSource/Benchmarks/TSVC/LinearDependence-flt/LinearDependence-flt, 4.5604, 4.5616, 4.5551,4.5604, 4.5583, 4.5583, 4.5598,4.5583
MultiSource/Benchmarks/TSVC/LoopRerolling-dbl/LoopRerolling-dbl, 4.2280, 4.2289, 4.2281,4.2281, 4.2280, 4.2282, 4.2280,4.228
MultiSource/Benchmarks/TSVC/LoopRerolling-flt/LoopRerolling-flt, 3.5087, 3.5113, 3.5050,3.5087, 3.5013, 3.5141, 3.5068,3.5068
MultiSource/Benchmarks/TSVC/LoopRestructuring-dbl/LoopRestructuring-dbl, 3.3716, 3.3801, 3.3759,3.3759, 3.3839, 3.3712, 3.3782,3.3782
MultiSource/Benchmarks/TSVC/LoopRestructuring-flt/LoopRestructuring-flt, 2.7255, 2.5726, 2.6926,2.6926, 2.6400, 2.6102, 2.8027,2.64
MultiSource/Benchmarks/TSVC/NodeSplitting-dbl/NodeSplitting-dbl, 4.6031, 4.6037, 4.6053,4.6037, 4.6043, 4.6039, 4.6038,4.6039
MultiSource/Benchmarks/TSVC/NodeSplitting-flt/NodeSplitting-flt, 4.2598, 4.2629, 4.2587,4.2598, 4.2635, 4.2623, 4.2646,4.2635
MultiSource/Benchmarks/TSVC/Packing-dbl/Packing-dbl, 2.1456, 2.1458, 2.1459,2.1458, 2.1453, 2.1459, 2.1460,2.1459
MultiSource/Benchmarks/TSVC/Packing-flt/Packing-flt, 1.9048, 1.9432, 1.9267,1.9267, 1.9357, 1.9269, 1.9398,1.9357
MultiSource/Benchmarks/TSVC/Recurrences-dbl/Recurrences-dbl, 3.2016, 3.2017, 3.2016,3.2016, 3.2014, 3.2017, 3.2016,3.2016
MultiSource/Benchmarks/TSVC/Recurrences-flt/Recurrences-flt, 3.2012, 3.2013, 3.2010,3.2012, 3.2011, 3.2013, 3.2010,3.2011
MultiSource/Benchmarks/TSVC/Reductions-dbl/Reductions-dbl, 3.1455, 3.1457, 3.1456,3.1456, 3.1455, 3.1456, 3.1457,3.1456
MultiSource/Benchmarks/TSVC/Reductions-flt/Reductions-flt, 5.4270, 5.4270, 5.4269,5.427, 5.4270, 5.4270, 5.4271,5.427
MultiSource/Benchmarks/TSVC/Searching-dbl/Searching-dbl, 2.0806, 2.0811, 2.0813,2.0811, 2.0804, 2.0807, 2.0808,2.0807
MultiSource/Benchmarks/TSVC/Searching-flt/Searching-flt, 2.2254, 2.2247, 2.2249,2.2249, 2.2257, 2.2253, 2.2268,2.2257
MultiSource/Benchmarks/TSVC/StatementReordering-dbl/StatementReordering-dbl, 2.0587, 2.0585, 2.0594,2.0587, 2.0572, 2.0564, 2.0621,2.0572
MultiSource/Benchmarks/TSVC/StatementReordering-flt/StatementReordering-flt, 1.6735, 1.6746, 1.6748,1.6746, 1.6756, 1.6684, 1.6734,1.6734
MultiSource/Benchmarks/TSVC/Symbolics-dbl/Symbolics-dbl, 2.2565, 2.2571, 2.2569,2.2569, 2.2568, 2.2571, 2.2570,2.257
MultiSource/Benchmarks/TSVC/Symbolics-flt/Symbolics-flt, 1.2709, 1.2767, 1.2693,1.2709, 1.2737, 1.2740, 1.2816,1.274
MultiSource/Benchmarks/Trimaran/enc-3des/enc-3des, 1.1783, 1.1781, 1.1787,1.1783, 1.1790, 1.1791, 1.1786,1.179
MultiSource/Benchmarks/VersaBench/dbms/dbms, 0.7967, 0.7981, 0.7968,0.7968, 0.7962, 0.7952, 0.7933,0.7952
MultiSource/Benchmarks/mafft/pairlocalalign,22.5442,22.5445,22.5448,22.5445,22.5951,22.5944,22.5943,22.5944
MultiSource/Benchmarks/mediabench/gsm/toast/toast, 0.0139, 0.0140, 0.0139,0.0139, 0.0139, 0.0139, 0.0139,0.0139
MultiSource/Benchmarks/mediabench/jpeg/jpeg-6a/cjpeg, 0.0046, 0.0046, 0.0046,0.0046, 0.0048, 0.0048, 0.0048,0.0048
MultiSource/Benchmarks/sim/sim, 2.4075, 2.4078, 2.4090,2.4078, 2.4110, 2.4110, 2.4089,2.411
MultiSource/Benchmarks/tramp3d-v4/tramp3d-v4, 0.2193, 0.2191, 0.2191,0.2191, 0.2191, 0.2189, 0.2190,0.219
SingleSource/Benchmarks/Adobe-C++/functionobjects, 2.7600, 2.7611, 2.7608,2.7608, 2.7686, 2.7687, 2.7684,2.7686
SingleSource/Benchmarks/Adobe-C++/stepanov_abstraction, 3.9012, 3.8997, 3.9004,3.9004, 3.8778, 3.8769, 3.8774,3.8774
SingleSource/Benchmarks/Adobe-C++/stepanov_vector, 2.1096, 2.1098, 2.1099,2.1098, 2.0623, 2.0619, 2.0613,2.0619
SingleSource/Benchmarks/CoyoteBench/almabench,11.5584,11.5607,11.5626,11.5607,11.5557,11.5601,11.5563,11.5563
SingleSource/Benchmarks/CoyoteBench/huffbench, 8.2789, 8.2815, 8.2946,8.2815, 8.2772, 8.2760, 8.2834,8.2772
SingleSource/Benchmarks/CoyoteBench/lpbench, 2.4085, 2.3847, 2.3917,2.3917, 2.3961, 2.3882, 2.3902,2.3902
SingleSource/Benchmarks/Misc-C++-EH/spirit, 2.3832, 2.3846, 2.3836,2.3836, 2.4210, 2.4212, 2.4212,2.4212
SingleSource/Benchmarks/Misc-C++/Large/ray, 2.8694, 2.8695, 2.8693,2.8694, 2.8699, 2.8696, 2.8696,2.8696
SingleSource/Benchmarks/Misc-C++/bigfib, 0.1775, 0.1768, 0.1768,0.1768, 0.1770, 0.1767, 0.1768,0.1768
SingleSource/Benchmarks/Misc-C++/stepanov_container, 2.6580, 2.6474, 2.6592,2.658, 2.6422, 2.6396, 2.6375,2.6396
SingleSource/Benchmarks/Misc-C++/stepanov_v1p2, 7.2271, 7.2272, 7.2272,7.2272, 7.2272, 7.2274, 7.2273,7.2273
SingleSource/Benchmarks/Misc/himenobmtxpa, 0.5096, 0.5029, 0.4978,0.5029, 0.5107, 0.5072, 0.5120,0.5107
SingleSource/Benchmarks/Shootout-C++/hash, 0.2857, 0.2844, 0.2840,0.2844, 0.2853, 0.2845, 0.2853,0.2853
SingleSource/Benchmarks/Shootout-C++/hash2, 1.5755, 1.5778, 1.5774,1.5774, 1.5841, 1.5831, 1.5820,1.5831
SingleSource/Benchmarks/Shootout-C++/lists, 2.6441, 2.6528, 2.6381,2.6441, 2.6354, 2.6458, 2.6446,2.6446
SingleSource/Benchmarks/Shootout-C++/lists1, 0.1237, 0.1261, 0.1242,0.1242, 0.1247, 0.1258, 0.1250,0.125
SingleSource/Benchmarks/Shootout-C++/moments, 0.0503, 0.0504, 0.0504,0.0504, 0.0503, 0.0503, 0.0503,0.0503
SingleSource/Benchmarks/Shootout-C++/sieve, 1.1506, 1.1507, 1.1273,1.1506, 1.3567, 1.2214, 1.2923,1.2923
SingleSource/Benchmarks/Stanford/Oscar, 0.0029, 0.0029, 0.0029,0.0029, 0.0022, 0.0022, 0.0022,0.0022
Total elapsed time,-,-,-,539.5071000000006,-,-,-,539.6524000000005
Total failure,-,-,-,0,-,-,-,0
