Benchmarks,/mnt/freezedisk/llvm-intptr-br4-aa-release/bin/clang,/mnt/freezedisk/llvm-intptr-br4-aa-release/bin/clang,/mnt/freezedisk/llvm-intptr-br4-aa-release/bin/clang,median
MultiSource/Applications/ALAC/decode/alacconvert-decode, 0.8716, 0.8733, 0.8718,0.8718
MultiSource/Applications/ALAC/encode/alacconvert-encode, 0.8712, 0.8717, 0.8719,0.8717
MultiSource/Applications/ClamAV/clamscan,13.2824,13.2813,13.2792,13.2813
MultiSource/Applications/JM/ldecod/ldecod, 5.8178, 5.8414, 5.8291,5.8291
MultiSource/Applications/JM/lencod/lencod,13.5225,13.5394,13.5370,13.537
MultiSource/Applications/SIBsim4/SIBsim4, 1.0664, 1.0629, 1.0681,1.0664
MultiSource/Applications/SPASS/SPASS,11.1964,11.2135,11.2121,11.2121
MultiSource/Applications/aha/aha, 0.0912, 0.0914, 0.0916,0.0914
MultiSource/Applications/d/make_dparser, 2.4512, 2.4083, 2.4103,2.4103
MultiSource/Applications/hbd/hbd, 1.1086, 1.1083, 1.1084,1.1084
MultiSource/Applications/hexxagon/hexxagon, 0.6118, 0.6116, 0.6111,0.6116
MultiSource/Applications/kimwitu++/kc,10.0981,10.0640,10.0866,10.0866
MultiSource/Applications/lambda-0.1.3/lambda, 0.5099, 0.5104, 0.5106,0.5104
MultiSource/Applications/lua/lua, 2.9821, 2.9828, 2.9871,2.9828
MultiSource/Applications/minisat/minisat, 0.5801, 0.5770, 0.5741,0.577
MultiSource/Applications/obsequi/Obsequi, 0.9125, 0.9162, 0.9058,0.9125
MultiSource/Applications/oggenc/oggenc, 4.3782, 4.3818, 4.3797,4.3797
MultiSource/Applications/sgefa/sgefa, 0.3600, 0.3600, 0.3603,0.36
MultiSource/Applications/siod/siod, 1.8418, 1.8184, 1.8305,1.8305
MultiSource/Applications/spiff/spiff, 0.6941, 0.6987, 0.6941,0.6941
MultiSource/Applications/sqlite3/sqlite3,13.3826,13.3865,13.4033,13.3865
MultiSource/Applications/viterbi/viterbi, 0.1570, 0.1570, 0.1569,0.157
MultiSource/Benchmarks/7zip/7zip-benchmark,31.2552,31.2625,31.2637,31.2625
MultiSource/Benchmarks/ASCI_Purple/SMG2000/smg2000, 5.1904, 5.1896, 5.1915,5.1904
MultiSource/Benchmarks/ASC_Sequoia/AMGmk/AMGmk, 0.5413, 0.5413, 0.5417,0.5413
MultiSource/Benchmarks/ASC_Sequoia/CrystalMk/CrystalMk, 0.2073, 0.2072, 0.2073,0.2073
MultiSource/Benchmarks/ASC_Sequoia/IRSmk/IRSmk, 0.0965, 0.0964, 0.0963,0.0964
MultiSource/Benchmarks/BitBench/drop3/drop3, 0.0402, 0.0403, 0.0402,0.0402
MultiSource/Benchmarks/BitBench/five11/five11, 0.0501, 0.0501, 0.0501,0.0501
MultiSource/Benchmarks/BitBench/uudecode/uudecode, 0.0407, 0.0407, 0.0408,0.0407
MultiSource/Benchmarks/BitBench/uuencode/uuencode, 0.0401, 0.0401, 0.0401,0.0401
MultiSource/Benchmarks/Bullet/bullet,21.2126,21.2120,21.2127,21.2126
MultiSource/Benchmarks/DOE-ProxyApps-C++/CLAMR/CLAMR,16.2890,16.3021,16.3130,16.3021
MultiSource/Benchmarks/DOE-ProxyApps-C++/HPCCG/HPCCG, 1.3048, 1.3027, 1.3023,1.3027
MultiSource/Benchmarks/DOE-ProxyApps-C++/PENNANT/PENNANT, 3.7262, 3.7254, 3.7267,3.7262
MultiSource/Benchmarks/DOE-ProxyApps-C++/miniFE/miniFE, 2.3392, 2.3464, 2.3409,2.3409
MultiSource/Benchmarks/DOE-ProxyApps-C/Pathfinder/PathFinder, 0.7458, 0.7455, 0.7461,0.7458
MultiSource/Benchmarks/DOE-ProxyApps-C/RSBench/rsbench, 0.3638, 0.3636, 0.3640,0.3638
MultiSource/Benchmarks/DOE-ProxyApps-C/SimpleMOC/SimpleMOC, 0.7969, 0.7967, 0.7968,0.7968
MultiSource/Benchmarks/DOE-ProxyApps-C/XSBench/XSBench, 0.3235, 0.3295, 0.3237,0.3237
MultiSource/Benchmarks/DOE-ProxyApps-C/miniAMR/miniAMR, 1.2401, 1.2395, 1.2402,1.2401
MultiSource/Benchmarks/DOE-ProxyApps-C/miniGMG/miniGMG, 0.8946, 0.8942, 0.8944,0.8944
MultiSource/Benchmarks/Fhourstones-3.1/fhourstones3.1, 0.1076, 0.1076, 0.1077,0.1076
MultiSource/Benchmarks/Fhourstones/fhourstones, 0.1509, 0.1509, 0.1511,0.1509
MultiSource/Benchmarks/FreeBench/analyzer/analyzer, 0.2213, 0.2213, 0.2214,0.2213
MultiSource/Benchmarks/FreeBench/distray/distray, 0.0862, 0.0863, 0.0864,0.0863
MultiSource/Benchmarks/FreeBench/fourinarow/fourinarow, 0.3087, 0.3087, 0.3088,0.3087
MultiSource/Benchmarks/FreeBench/mason/mason, 0.0466, 0.0465, 0.0465,0.0465
MultiSource/Benchmarks/FreeBench/neural/neural, 0.1621, 0.1621, 0.1622,0.1621
MultiSource/Benchmarks/FreeBench/pcompress2/pcompress2, 0.2293, 0.2296, 0.2294,0.2294
MultiSource/Benchmarks/FreeBench/pifft/pifft, 0.8438, 0.8437, 0.8437,0.8437
MultiSource/Benchmarks/MallocBench/cfrac/cfrac, 0.8177, 0.8169, 0.8177,0.8177
MultiSource/Benchmarks/MallocBench/espresso/espresso, 4.1953, 4.1971, 4.1992,4.1971
MultiSource/Benchmarks/MallocBench/gs/gs, 3.4563, 3.4634, 3.4579,3.4579
MultiSource/Benchmarks/McCat/01-qbsort/qbsort, 0.0908, 0.0908, 0.0908,0.0908
MultiSource/Benchmarks/McCat/03-testtrie/testtrie, 0.0856, 0.0855, 0.0856,0.0856
MultiSource/Benchmarks/McCat/04-bisect/bisect, 0.1200, 0.1200, 0.1202,0.12
MultiSource/Benchmarks/McCat/05-eks/eks, 0.4805, 0.4806, 0.4809,0.4806
MultiSource/Benchmarks/McCat/08-main/main, 0.2240, 0.2241, 0.2242,0.2241
MultiSource/Benchmarks/McCat/09-vor/vor, 0.2529, 0.2534, 0.2532,0.2532
MultiSource/Benchmarks/McCat/12-IOtest/iotest, 0.0893, 0.0894, 0.0895,0.0894
MultiSource/Benchmarks/McCat/17-bintr/bintr, 0.0657, 0.0657, 0.0656,0.0657
MultiSource/Benchmarks/McCat/18-imp/imp, 0.3034, 0.3035, 0.3038,0.3035
MultiSource/Benchmarks/MiBench/automotive-basicmath/automotive-basicmath, 0.1354, 0.1353, 0.1355,0.1354
MultiSource/Benchmarks/MiBench/automotive-bitcount/automotive-bitcount, 0.2415, 0.2417, 0.2417,0.2417
MultiSource/Benchmarks/MiBench/automotive-susan/automotive-susan, 0.5740, 0.5791, 0.5845,0.5791
MultiSource/Benchmarks/MiBench/consumer-jpeg/consumer-jpeg, 4.0867, 4.0874, 4.0878,4.0874
MultiSource/Benchmarks/MiBench/consumer-lame/consumer-lame, 3.6263, 3.6274, 3.6279,3.6274
MultiSource/Benchmarks/MiBench/consumer-typeset/consumer-typeset, 8.9165, 8.9237, 8.9200,8.92
MultiSource/Benchmarks/MiBench/network-dijkstra/network-dijkstra, 0.0393, 0.0394, 0.0393,0.0393
MultiSource/Benchmarks/MiBench/network-patricia/network-patricia, 0.0757, 0.0757, 0.0756,0.0757
MultiSource/Benchmarks/MiBench/security-rijndael/security-rijndael, 0.3642, 0.3639, 0.3642,0.3642
MultiSource/Benchmarks/MiBench/security-sha/security-sha, 0.1091, 0.1091, 0.1090,0.1091
MultiSource/Benchmarks/MiBench/telecomm-CRC32/telecomm-CRC32, 0.0330, 0.0330, 0.0329,0.033
MultiSource/Benchmarks/MiBench/telecomm-FFT/telecomm-fft, 0.1302, 0.1304, 0.1302,0.1302
MultiSource/Benchmarks/MiBench/telecomm-adpcm/telecomm-adpcm, 0.0527, 0.0590, 0.0527,0.0527
MultiSource/Benchmarks/MiBench/telecomm-gsm/telecomm-gsm, 0.9626, 0.9627, 0.9624,0.9626
MultiSource/Benchmarks/NPB-serial/is/is, 0.0601, 0.0601, 0.0600,0.0601
MultiSource/Benchmarks/Olden/bh/bh, 0.2354, 0.2372, 0.2374,0.2372
MultiSource/Benchmarks/Olden/bisort/bisort, 0.0601, 0.0601, 0.0601,0.0601
MultiSource/Benchmarks/Olden/em3d/em3d, 0.1651, 0.1682, 0.1652,0.1652
MultiSource/Benchmarks/Olden/health/health, 0.1285, 0.1284, 0.1284,0.1284
MultiSource/Benchmarks/Olden/mst/mst, 0.1185, 0.1184, 0.1185,0.1185
MultiSource/Benchmarks/Olden/perimeter/perimeter, 0.0737, 0.0737, 0.0737,0.0737
MultiSource/Benchmarks/Olden/power/power, 0.1192, 0.1190, 0.1192,0.1192
MultiSource/Benchmarks/Olden/treeadd/treeadd, 0.0536, 0.0537, 0.0537,0.0537
MultiSource/Benchmarks/Olden/tsp/tsp, 0.1195, 0.1195, 0.1195,0.1195
MultiSource/Benchmarks/Olden/voronoi/voronoi, 0.2248, 0.2252, 0.2253,0.2252
MultiSource/Benchmarks/PAQ8p/paq8p, 1.7368, 1.7361, 1.7373,1.7368
MultiSource/Benchmarks/Prolangs-C++/city/city, 0.8322, 0.8311, 0.8312,0.8312
MultiSource/Benchmarks/Prolangs-C++/employ/employ, 0.1850, 0.1849, 0.1851,0.185
MultiSource/Benchmarks/Prolangs-C++/life/life, 0.0555, 0.0555, 0.0555,0.0555
MultiSource/Benchmarks/Prolangs-C++/ocean/ocean, 0.1009, 0.1009, 0.1009,0.1009
MultiSource/Benchmarks/Prolangs-C++/primes/primes, 0.0238, 0.0238, 0.0239,0.0238
MultiSource/Benchmarks/Prolangs-C++/simul/simul, 0.0495, 0.0494, 0.0497,0.0495
MultiSource/Benchmarks/Prolangs-C/agrep/agrep, 1.2267, 1.2260, 1.2265,1.2265
MultiSource/Benchmarks/Prolangs-C/bison/mybison, 1.4809, 1.4814, 1.4812,1.4812
MultiSource/Benchmarks/Prolangs-C/gnugo/gnugo, 0.6879, 0.6882, 0.6883,0.6882
MultiSource/Benchmarks/Ptrdist/anagram/anagram, 0.0919, 0.0918, 0.0918,0.0918
MultiSource/Benchmarks/Ptrdist/bc/bc, 0.9254, 0.9250, 0.9260,0.9254
MultiSource/Benchmarks/Ptrdist/ft/ft, 0.1933, 0.1932, 0.1936,0.1933
MultiSource/Benchmarks/Ptrdist/ks/ks, 0.1340, 0.1339, 0.1339,0.1339
MultiSource/Benchmarks/Ptrdist/yacr2/yacr2, 0.5573, 0.5574, 0.5579,0.5574
MultiSource/Benchmarks/SciMark2-C/scimark2, 0.3465, 0.3463, 0.3466,0.3465
MultiSource/Benchmarks/TSVC/ControlFlow-dbl/ControlFlow-dbl, 1.9588, 1.9500, 1.9453,1.95
MultiSource/Benchmarks/TSVC/ControlFlow-flt/ControlFlow-flt, 1.6408, 1.6407, 1.6426,1.6408
MultiSource/Benchmarks/TSVC/ControlLoops-dbl/ControlLoops-dbl, 1.8597, 1.8676, 1.8621,1.8621
MultiSource/Benchmarks/TSVC/ControlLoops-flt/ControlLoops-flt, 1.5571, 1.5588, 1.5564,1.5571
MultiSource/Benchmarks/TSVC/CrossingThresholds-dbl/CrossingThresholds-dbl, 1.8200, 1.8211, 1.8248,1.8211
MultiSource/Benchmarks/TSVC/CrossingThresholds-flt/CrossingThresholds-flt, 1.5159, 1.5166, 1.5141,1.5159
MultiSource/Benchmarks/TSVC/Equivalencing-dbl/Equivalencing-dbl, 1.8279, 1.8266, 1.8261,1.8266
MultiSource/Benchmarks/TSVC/Equivalencing-flt/Equivalencing-flt, 1.5271, 1.5258, 1.5216,1.5258
MultiSource/Benchmarks/TSVC/Expansion-dbl/Expansion-dbl, 1.8678, 1.8598, 1.8618,1.8618
MultiSource/Benchmarks/TSVC/Expansion-flt/Expansion-flt, 1.5575, 1.5585, 1.5567,1.5575
MultiSource/Benchmarks/TSVC/GlobalDataFlow-dbl/GlobalDataFlow-dbl, 1.8564, 1.8564, 1.8547,1.8564
MultiSource/Benchmarks/TSVC/GlobalDataFlow-flt/GlobalDataFlow-flt, 1.5571, 1.5509, 1.5492,1.5509
MultiSource/Benchmarks/TSVC/IndirectAddressing-dbl/IndirectAddressing-dbl, 1.8136, 1.8166, 1.8145,1.8145
MultiSource/Benchmarks/TSVC/IndirectAddressing-flt/IndirectAddressing-flt, 1.5108, 1.5092, 1.5113,1.5108
MultiSource/Benchmarks/TSVC/InductionVariable-dbl/InductionVariable-dbl, 1.8352, 1.8306, 1.8478,1.8352
MultiSource/Benchmarks/TSVC/InductionVariable-flt/InductionVariable-flt, 1.5300, 1.5319, 1.5316,1.5316
MultiSource/Benchmarks/TSVC/LinearDependence-dbl/LinearDependence-dbl, 1.8802, 1.8805, 1.8798,1.8802
MultiSource/Benchmarks/TSVC/LinearDependence-flt/LinearDependence-flt, 1.5726, 1.5742, 1.5746,1.5742
MultiSource/Benchmarks/TSVC/LoopRerolling-dbl/LoopRerolling-dbl, 1.7961, 1.7942, 1.7930,1.7942
MultiSource/Benchmarks/TSVC/LoopRerolling-flt/LoopRerolling-flt, 1.4877, 1.4870, 1.4885,1.4877
MultiSource/Benchmarks/TSVC/LoopRestructuring-dbl/LoopRestructuring-dbl, 1.8364, 1.8359, 1.8360,1.836
MultiSource/Benchmarks/TSVC/LoopRestructuring-flt/LoopRestructuring-flt, 1.5291, 1.5305, 1.5292,1.5292
MultiSource/Benchmarks/TSVC/NodeSplitting-dbl/NodeSplitting-dbl, 1.8104, 1.8089, 1.8082,1.8089
MultiSource/Benchmarks/TSVC/NodeSplitting-flt/NodeSplitting-flt, 1.4990, 1.5045, 1.4989,1.499
MultiSource/Benchmarks/TSVC/Packing-dbl/Packing-dbl, 1.7858, 1.7950, 1.7820,1.7858
MultiSource/Benchmarks/TSVC/Packing-flt/Packing-flt, 1.4853, 1.4800, 1.4784,1.48
MultiSource/Benchmarks/TSVC/Recurrences-dbl/Recurrences-dbl, 1.7808, 1.7827, 1.7813,1.7813
MultiSource/Benchmarks/TSVC/Recurrences-flt/Recurrences-flt, 1.4777, 1.4771, 1.4772,1.4772
MultiSource/Benchmarks/TSVC/Reductions-dbl/Reductions-dbl, 1.8732, 1.8778, 1.8762,1.8762
MultiSource/Benchmarks/TSVC/Reductions-flt/Reductions-flt, 1.5630, 1.5632, 1.5651,1.5632
MultiSource/Benchmarks/TSVC/Searching-dbl/Searching-dbl, 1.7683, 1.7737, 1.7659,1.7683
MultiSource/Benchmarks/TSVC/Searching-flt/Searching-flt, 1.4770, 1.4689, 1.4662,1.4689
MultiSource/Benchmarks/TSVC/StatementReordering-dbl/StatementReordering-dbl, 1.7871, 1.7840, 1.7829,1.784
MultiSource/Benchmarks/TSVC/StatementReordering-flt/StatementReordering-flt, 1.4770, 1.4785, 1.4790,1.4785
MultiSource/Benchmarks/TSVC/Symbolics-dbl/Symbolics-dbl, 1.8182, 1.8170, 1.8177,1.8177
MultiSource/Benchmarks/TSVC/Symbolics-flt/Symbolics-flt, 1.5156, 1.5145, 1.5180,1.5156
MultiSource/Benchmarks/Trimaran/enc-3des/enc-3des, 0.2195, 0.2194, 0.2192,0.2194
MultiSource/Benchmarks/Trimaran/enc-md5/enc-md5, 0.1373, 0.1372, 0.1372,0.1372
MultiSource/Benchmarks/Trimaran/enc-pc1/enc-pc1, 0.0602, 0.0603, 0.0603,0.0603
MultiSource/Benchmarks/Trimaran/enc-rc4/enc-rc4, 0.0465, 0.0465, 0.0465,0.0465
MultiSource/Benchmarks/Trimaran/netbench-crc/netbench-crc, 0.0721, 0.0722, 0.0722,0.0722
MultiSource/Benchmarks/Trimaran/netbench-url/netbench-url, 0.1911, 0.1913, 0.1912,0.1912
MultiSource/Benchmarks/VersaBench/8b10b/8b10b, 0.0707, 0.0707, 0.0705,0.0707
MultiSource/Benchmarks/VersaBench/beamformer/beamformer, 0.2788, 0.2791, 0.2789,0.2789
MultiSource/Benchmarks/VersaBench/bmm/bmm, 0.0474, 0.0473, 0.0474,0.0474
MultiSource/Benchmarks/VersaBench/dbms/dbms, 0.9066, 0.9051, 0.9066,0.9066
MultiSource/Benchmarks/VersaBench/ecbdes/ecbdes, 0.1966, 0.1966, 0.1966,0.1966
MultiSource/Benchmarks/llubenchmark/llu, 0.0442, 0.0441, 0.0442,0.0442
MultiSource/Benchmarks/mafft/pairlocalalign, 7.9591, 7.9615, 7.9625,7.9615
MultiSource/Benchmarks/mediabench/adpcm/rawcaudio/rawcaudio, 0.0528, 0.0529, 0.0529,0.0529
MultiSource/Benchmarks/mediabench/adpcm/rawdaudio/rawdaudio, 0.0527, 0.0528, 0.0529,0.0528
MultiSource/Benchmarks/mediabench/g721/g721encode/encode, 0.1846, 0.1848, 0.1847,0.1847
MultiSource/Benchmarks/mediabench/gsm/toast/toast, 0.9629, 0.9627, 0.9633,0.9629
MultiSource/Benchmarks/mediabench/jpeg/jpeg-6a/cjpeg, 4.1279, 4.1288, 4.1312,4.1288
MultiSource/Benchmarks/mediabench/mpeg2/mpeg2dec/mpeg2decode, 1.2242, 1.2245, 1.2248,1.2245
MultiSource/Benchmarks/nbench/nbench, 1.0242, 1.0240, 1.0240,1.024
MultiSource/Benchmarks/sim/sim, 0.2592, 0.2594, 0.2593,0.2593
MultiSource/Benchmarks/tramp3d-v4/tramp3d-v4,18.2545,18.3119,18.3176,18.3119
SingleSource/Benchmarks/Adobe-C++/functionobjects, 0.4051, 0.4051, 0.4053,0.4051
SingleSource/Benchmarks/Adobe-C++/loop_unroll, 3.9320, 3.9321, 3.9365,3.9321
SingleSource/Benchmarks/Adobe-C++/simple_types_constant_folding, 2.2351, 2.2331, 2.2341,2.2341
SingleSource/Benchmarks/Adobe-C++/simple_types_loop_invariant, 1.8070, 1.8066, 1.8089,1.807
SingleSource/Benchmarks/Adobe-C++/stepanov_abstraction, 0.4991, 0.4993, 0.4996,0.4993
SingleSource/Benchmarks/Adobe-C++/stepanov_vector, 0.7780, 0.7791, 0.7849,0.7791
SingleSource/Benchmarks/BenchmarkGame/Large/fasta, 0.0540, 0.0554, 0.0504,0.054
SingleSource/Benchmarks/BenchmarkGame/fannkuch, 0.0488, 0.0488, 0.0488,0.0488
SingleSource/Benchmarks/BenchmarkGame/n-body, 0.0658, 0.0659, 0.0660,0.0659
SingleSource/Benchmarks/BenchmarkGame/nsieve-bits, 0.0302, 0.0302, 0.0303,0.0302
SingleSource/Benchmarks/BenchmarkGame/partialsums, 0.0282, 0.0282, 0.0282,0.0282
SingleSource/Benchmarks/BenchmarkGame/puzzle, 0.0518, 0.0517, 0.0518,0.0518
SingleSource/Benchmarks/BenchmarkGame/recursive, 0.0251, 0.0251, 0.0251,0.0251
SingleSource/Benchmarks/BenchmarkGame/spectral-norm, 0.0508, 0.0508, 0.0509,0.0508
SingleSource/Benchmarks/CoyoteBench/almabench, 0.0618, 0.0618, 0.0618,0.0618
SingleSource/Benchmarks/CoyoteBench/fftbench, 0.5497, 0.5587, 0.5565,0.5565
SingleSource/Benchmarks/CoyoteBench/huffbench, 0.0789, 0.0789, 0.0789,0.0789
SingleSource/Benchmarks/CoyoteBench/lpbench, 0.1386, 0.1387, 0.1388,0.1387
SingleSource/Benchmarks/Dhrystone/dry, 0.0401, 0.0446, 0.0468,0.0446
SingleSource/Benchmarks/Dhrystone/fldry, 0.0413, 0.0412, 0.0413,0.0413
SingleSource/Benchmarks/Linpack/linpack-pc, 0.2816, 0.2815, 0.2816,0.2816
SingleSource/Benchmarks/McGill/chomp, 0.1717, 0.1700, 0.1718,0.1717
SingleSource/Benchmarks/McGill/misr, 0.0497, 0.0497, 0.0497,0.0497
SingleSource/Benchmarks/McGill/queens, 0.0419, 0.0419, 0.0419,0.0419
SingleSource/Benchmarks/Misc-C++-EH/spirit, 3.3842, 3.3805, 3.3933,3.3842
SingleSource/Benchmarks/Misc-C++/Large/ray, 0.2033, 0.2120, 0.2137,0.212
SingleSource/Benchmarks/Misc-C++/Large/sphereflake, 0.2031, 0.2030, 0.2030,0.203
SingleSource/Benchmarks/Misc-C++/bigfib, 0.4249, 0.4266, 0.4253,0.4253
SingleSource/Benchmarks/Misc-C++/mandel-text, 0.0231, 0.0230, 0.0231,0.0231
SingleSource/Benchmarks/Misc-C++/oopack_v1p8, 0.1200, 0.1185, 0.1171,0.1185
SingleSource/Benchmarks/Misc-C++/stepanov_container, 0.6592, 0.6432, 0.6542,0.6542
SingleSource/Benchmarks/Misc-C++/stepanov_v1p2, 0.1591, 0.1592, 0.1592,0.1592
SingleSource/Benchmarks/Misc/ReedSolomon, 0.1736, 0.1737, 0.1737,0.1737
SingleSource/Benchmarks/Misc/dt, 0.0305, 0.0306, 0.0305,0.0305
SingleSource/Benchmarks/Misc/evalloop, 0.0341, 0.0341, 0.0341,0.0341
SingleSource/Benchmarks/Misc/fbench, 0.0502, 0.0503, 0.0502,0.0502
SingleSource/Benchmarks/Misc/ffbench, 0.0623, 0.0623, 0.0624,0.0623
SingleSource/Benchmarks/Misc/flops, 0.0719, 0.0718, 0.0719,0.0719
SingleSource/Benchmarks/Misc/flops-1, 0.0257, 0.0257, 0.0258,0.0257
SingleSource/Benchmarks/Misc/flops-2, 0.0265, 0.0267, 0.0266,0.0266
SingleSource/Benchmarks/Misc/flops-3, 0.0256, 0.0256, 0.0256,0.0256
SingleSource/Benchmarks/Misc/flops-4, 0.0261, 0.0261, 0.0261,0.0261
SingleSource/Benchmarks/Misc/flops-5, 0.0265, 0.0266, 0.0267,0.0266
SingleSource/Benchmarks/Misc/flops-6, 0.0265, 0.0265, 0.0265,0.0265
SingleSource/Benchmarks/Misc/flops-7, 0.0255, 0.0254, 0.0256,0.0255
SingleSource/Benchmarks/Misc/flops-8, 0.0266, 0.0267, 0.0266,0.0266
SingleSource/Benchmarks/Misc/fp-convert, 0.0285, 0.0285, 0.0285,0.0285
SingleSource/Benchmarks/Misc/himenobmtxpa, 0.1581, 0.1581, 0.1581,0.1581
SingleSource/Benchmarks/Misc/lowercase, 0.0241, 0.0241, 0.0241,0.0241
SingleSource/Benchmarks/Misc/mandel, 0.0414, 0.0413, 0.0415,0.0414
SingleSource/Benchmarks/Misc/mandel-2, 0.0535, 0.0492, 0.0417,0.0492
SingleSource/Benchmarks/Misc/matmul_f64_4x4, 0.0269, 0.0269, 0.0270,0.0269
SingleSource/Benchmarks/Misc/oourafft, 0.2063, 0.1996, 0.2047,0.2047
SingleSource/Benchmarks/Misc/perlin, 0.0421, 0.0421, 0.0422,0.0421
SingleSource/Benchmarks/Misc/pi, 0.0203, 0.0202, 0.0202,0.0202
SingleSource/Benchmarks/Misc/revertBits, 0.0243, 0.0243, 0.0242,0.0243
SingleSource/Benchmarks/Misc/richards_benchmark, 0.0590, 0.0592, 0.0592,0.0592
SingleSource/Benchmarks/Misc/salsa20, 0.0503, 0.0503, 0.0503,0.0503
SingleSource/Benchmarks/Misc/whetstone, 0.0622, 0.0623, 0.0623,0.0623
SingleSource/Benchmarks/Polybench/datamining/correlation/correlation, 0.0710, 0.0711, 0.0711,0.0711
SingleSource/Benchmarks/Polybench/datamining/covariance/covariance, 0.0778, 0.0778, 0.0779,0.0778
SingleSource/Benchmarks/Polybench/linear-algebra/kernels/atax/atax, 0.0743, 0.0742, 0.0744,0.0743
SingleSource/Benchmarks/Polybench/linear-algebra/kernels/bicg/bicg, 0.0733, 0.0732, 0.0733,0.0733
SingleSource/Benchmarks/Polybench/linear-algebra/kernels/cholesky/cholesky, 0.0857, 0.0857, 0.0857,0.0857
SingleSource/Benchmarks/Polybench/linear-algebra/kernels/doitgen/doitgen, 0.0905, 0.0904, 0.0906,0.0905
SingleSource/Benchmarks/Polybench/linear-algebra/kernels/gemver/gemver, 0.0843, 0.0842, 0.0841,0.0842
SingleSource/Benchmarks/Polybench/linear-algebra/kernels/gesummv/gesummv, 0.0624, 0.0627, 0.0625,0.0625
SingleSource/Benchmarks/Polybench/linear-algebra/kernels/mvt/mvt, 0.0754, 0.0754, 0.0754,0.0754
SingleSource/Benchmarks/Polybench/linear-algebra/kernels/symm/symm, 0.0715, 0.0715, 0.0716,0.0715
SingleSource/Benchmarks/Polybench/linear-algebra/kernels/syr2k/syr2k, 0.0727, 0.0727, 0.0727,0.0727
SingleSource/Benchmarks/Polybench/linear-algebra/kernels/syrk/syrk, 0.0711, 0.0711, 0.0711,0.0711
SingleSource/Benchmarks/Polybench/linear-algebra/kernels/trisolv/trisolv, 0.0589, 0.0589, 0.0589,0.0589
SingleSource/Benchmarks/Polybench/linear-algebra/kernels/trmm/trmm, 0.0673, 0.0673, 0.0673,0.0673
SingleSource/Benchmarks/Polybench/linear-algebra/solvers/durbin/durbin, 0.0816, 0.0816, 0.0817,0.0816
SingleSource/Benchmarks/Polybench/linear-algebra/solvers/dynprog/dynprog, 0.0678, 0.0679, 0.0679,0.0679
SingleSource/Benchmarks/Polybench/linear-algebra/solvers/gramschmidt/gramschmidt, 0.0944, 0.0945, 0.0945,0.0945
SingleSource/Benchmarks/Polybench/linear-algebra/solvers/lu/lu, 0.0831, 0.0830, 0.0830,0.083
SingleSource/Benchmarks/Polybench/medley/floyd-warshall/floyd-warshall, 0.0699, 0.0700, 0.0702,0.07
SingleSource/Benchmarks/Polybench/medley/reg_detect/reg_detect, 0.3853, 0.3848, 0.3847,0.3848
SingleSource/Benchmarks/Polybench/stencils/adi/adi, 0.0836, 0.0835, 0.0836,0.0836
SingleSource/Benchmarks/Polybench/stencils/fdtd-2d/fdtd-2d, 0.1285, 0.1284, 0.1284,0.1284
SingleSource/Benchmarks/Polybench/stencils/fdtd-apml/fdtd-apml, 0.1211, 0.1212, 0.1211,0.1211
SingleSource/Benchmarks/Polybench/stencils/jacobi-1d-imper/jacobi-1d-imper, 0.0779, 0.0779, 0.0780,0.0779
SingleSource/Benchmarks/Polybench/stencils/jacobi-2d-imper/jacobi-2d-imper, 0.1044, 0.1044, 0.1044,0.1044
SingleSource/Benchmarks/Polybench/stencils/seidel-2d/seidel-2d, 0.0650, 0.0651, 0.0651,0.0651
SingleSource/Benchmarks/Shootout-C++/EH/except, 0.1428, 0.1358, 0.1352,0.1358
SingleSource/Benchmarks/Shootout-C++/ackermann, 0.1085, 0.1084, 0.1084,0.1084
SingleSource/Benchmarks/Shootout-C++/ary, 0.1431, 0.1429, 0.1428,0.1429
SingleSource/Benchmarks/Shootout-C++/ary2, 0.1448, 0.1446, 0.1445,0.1446
SingleSource/Benchmarks/Shootout-C++/ary3, 0.1466, 0.1463, 0.1462,0.1463
SingleSource/Benchmarks/Shootout-C++/fibo, 0.1067, 0.1064, 0.1065,0.1065
SingleSource/Benchmarks/Shootout-C++/hash, 0.2468, 0.2467, 0.2466,0.2467
SingleSource/Benchmarks/Shootout-C++/hash2, 0.3176, 0.3158, 0.3141,0.3158
SingleSource/Benchmarks/Shootout-C++/heapsort, 0.1217, 0.1213, 0.1215,0.1215
SingleSource/Benchmarks/Shootout-C++/lists, 0.1593, 0.1556, 0.1552,0.1556
SingleSource/Benchmarks/Shootout-C++/lists1, 0.1782, 0.1779, 0.1779,0.1779
SingleSource/Benchmarks/Shootout-C++/matrix, 0.1703, 0.1700, 0.1701,0.1701
SingleSource/Benchmarks/Shootout-C++/methcall, 0.1158, 0.1157, 0.1157,0.1157
SingleSource/Benchmarks/Shootout-C++/moments, 0.3511, 0.3472, 0.3424,0.3472
SingleSource/Benchmarks/Shootout-C++/nestedloop, 0.1074, 0.1073, 0.1072,0.1073
SingleSource/Benchmarks/Shootout-C++/objinst, 0.1308, 0.1307, 0.1305,0.1307
SingleSource/Benchmarks/Shootout-C++/random, 0.1162, 0.1158, 0.1159,0.1159
SingleSource/Benchmarks/Shootout-C++/sieve, 0.1668, 0.1667, 0.1667,0.1667
SingleSource/Benchmarks/Shootout-C++/strcat, 0.1164, 0.1162, 0.1162,0.1162
SingleSource/Benchmarks/Shootout/ackermann, 0.0223, 0.0223, 0.0223,0.0223
SingleSource/Benchmarks/Shootout/ary3, 0.0326, 0.0326, 0.0326,0.0326
SingleSource/Benchmarks/Shootout/fib2, 0.0190, 0.0190, 0.0190,0.019
SingleSource/Benchmarks/Shootout/hash, 0.0478, 0.0479, 0.0478,0.0478
SingleSource/Benchmarks/Shootout/heapsort, 0.0367, 0.0367, 0.0368,0.0367
SingleSource/Benchmarks/Shootout/lists, 0.0623, 0.0623, 0.0623,0.0623
SingleSource/Benchmarks/Shootout/matrix, 0.0773, 0.0773, 0.0772,0.0773
SingleSource/Benchmarks/Shootout/methcall, 0.0298, 0.0299, 0.0299,0.0299
SingleSource/Benchmarks/Shootout/nestedloop, 0.0230, 0.0231, 0.0230,0.023
SingleSource/Benchmarks/Shootout/objinst, 0.0353, 0.0353, 0.0354,0.0353
SingleSource/Benchmarks/Shootout/random, 0.0282, 0.0283, 0.0283,0.0283
SingleSource/Benchmarks/Shootout/sieve, 0.0241, 0.0241, 0.0242,0.0241
SingleSource/Benchmarks/Shootout/strcat, 0.0259, 0.0259, 0.0259,0.0259
SingleSource/Benchmarks/SmallPT/smallpt, 0.0926, 0.0926, 0.0926,0.0926
SingleSource/Benchmarks/Stanford/Bubblesort, 0.0319, 0.0320, 0.0319,0.0319
SingleSource/Benchmarks/Stanford/FloatMM, 0.0495, 0.0495, 0.0496,0.0495
SingleSource/Benchmarks/Stanford/Oscar, 0.0626, 0.0626, 0.0627,0.0626
SingleSource/Benchmarks/Stanford/Perm, 0.0296, 0.0295, 0.0295,0.0295
SingleSource/Benchmarks/Stanford/Puzzle, 0.1020, 0.1019, 0.1021,0.102
SingleSource/Benchmarks/Stanford/Queens, 0.0419, 0.0418, 0.0418,0.0418
SingleSource/Benchmarks/Stanford/Quicksort, 0.0351, 0.0352, 0.0352,0.0352
SingleSource/Benchmarks/Stanford/RealMM, 0.0468, 0.0468, 0.0468,0.0468
SingleSource/Benchmarks/Stanford/Towers, 0.0450, 0.0450, 0.0451,0.045
SingleSource/Benchmarks/Stanford/Treesort, 0.0360, 0.0360, 0.0360,0.036
SingleSource/Regression/C/2004-08-12-InlinerAndAllocas, 0.0188, 0.0188, 0.0188,0.0188
SingleSource/Regression/C/uint64_to_float, 0.0601, 0.0630, 0.0546,0.0601
Total elapsed time,-,-,-,336.70019999999977
Total failure,-,-,-,0
