Benchmarks,base-5.0,base-5.0,base-5.0,median,nocapture-5.0,nocapture-5.0,nocapture-5.0,median,Slowdown(%)
MultiSource/Applications/aha/aha, 0.1024, 0.1016, 0.1011,0.1016, 0.1047, 0.1073, 0.1070,0.107,5.314960629921273
MultiSource/Applications/lambda-0.1.3/lambda, 0.5712, 0.5449, 0.5439,0.5449, 0.5713, 0.5874, 0.5644,0.5713,4.844925674435663
MultiSource/Benchmarks/DOE-ProxyApps-C++/miniFE/miniFE, 2.5495, 2.5492, 2.5478,2.5492, 2.6635, 2.6728, 2.6694,2.6694,4.715204770123971
SingleSource/Benchmarks/CoyoteBench/almabench, 0.0651, 0.0650, 0.0650,0.065, 0.0673, 0.0673, 0.0672,0.0673,3.5384615384615348
MultiSource/Benchmarks/Olden/mst/mst, 0.1169, 0.1164, 0.1165,0.1165, 0.1201, 0.1202, 0.1202,0.1202,3.175965665236058
SingleSource/Benchmarks/Misc/himenobmtxpa, 0.1703, 0.1699, 0.1699,0.1699, 0.1744, 0.1741, 0.1745,0.1744,2.6486168334314275
MultiSource/Benchmarks/McCat/01-qbsort/qbsort, 0.0978, 0.0954, 0.1009,0.0978, 0.0977, 0.1000, 0.1023,0.1,2.249488752556239
MultiSource/Benchmarks/DOE-ProxyApps-C/RSBench/rsbench, 0.3929, 0.3918, 0.3912,0.3918, 0.3996, 0.3988, 0.4022,0.3996,1.9908116385911168
MultiSource/Benchmarks/MiBench/network-patricia/network-patricia, 0.0836, 0.0864, 0.0858,0.0858, 0.0897, 0.0873, 0.0873,0.0873,1.7482517482517501
MultiSource/Benchmarks/DOE-ProxyApps-C++/HPCCG/HPCCG, 1.3850, 1.3834, 1.3838,1.3838, 1.4056, 1.4070, 1.4073,1.407,1.6765428530134407
SingleSource/Benchmarks/Shootout-C++/lists1, 0.2086, 0.2207, 0.2117,0.2117, 0.2150, 0.2114, 0.2149,0.2149,1.5115729806329803
MultiSource/Benchmarks/DOE-ProxyApps-C/XSBench/XSBench, 0.3400, 0.3392, 0.3393,0.3393, 0.3443, 0.3438, 0.3439,0.3439,1.3557323902151364
SingleSource/Benchmarks/CoyoteBench/fftbench, 0.5466, 0.5400, 0.5535,0.5466, 0.5563, 0.5534, 0.5412,0.5534,1.244054152945484
MultiSource/Benchmarks/FreeBench/analyzer/analyzer, 0.2301, 0.2297, 0.2299,0.2299, 0.2322, 0.2324, 0.2325,0.2324,1.0874293170943794
MultiSource/Applications/sqlite3/sqlite3,14.5631,14.5803,14.5780,14.578,14.7216,14.7348,14.7207,14.7216,0.985045959665265
SingleSource/Benchmarks/Misc/ReedSolomon, 0.1860, 0.1862, 0.1860,0.186, 0.1876, 0.1872, 0.1875,0.1875,0.8064516129032251
SingleSource/Benchmarks/Misc/salsa20, 0.0529, 0.0529, 0.0529,0.0529, 0.0532, 0.0533, 0.0533,0.0533,0.7561436672967714
SingleSource/Benchmarks/Misc/flops-6, 0.0270, 0.0269, 0.0269,0.0269, 0.0272, 0.0270, 0.0271,0.0271,0.743494423791824
MultiSource/Benchmarks/DOE-ProxyApps-C/SimpleMOC/SimpleMOC, 0.8434, 0.8427, 0.8431,0.8431, 0.8490, 0.8496, 0.8492,0.8492,0.7235203415964842
SingleSource/Benchmarks/McGill/queens, 0.0436, 0.0434, 0.0434,0.0434, 0.0437, 0.0436, 0.0437,0.0437,0.691244239631339
SingleSource/Benchmarks/Misc/perlin, 0.0439, 0.0439, 0.0439,0.0439, 0.0441, 0.0442, 0.0443,0.0442,0.6833712984054774
SingleSource/Benchmarks/Polybench/linear-algebra/solvers/lu/lu, 0.0884, 0.0881, 0.0880,0.0881, 0.0887, 0.0887, 0.0886,0.0887,0.6810442678774065
MultiSource/Benchmarks/NPB-serial/is/is, 0.0631, 0.0630, 0.0630,0.063, 0.0634, 0.0634, 0.0636,0.0634,0.6349206349206327
SingleSource/Benchmarks/BenchmarkGame/fannkuch, 0.0504, 0.0502, 0.0502,0.0502, 0.0505, 0.0505, 0.0506,0.0505,0.5976095617529875
MultiSource/Benchmarks/MiBench/consumer-lame/consumer-lame, 3.8825, 3.8817, 3.8816,3.8817, 3.9057, 3.9023, 3.9041,3.9041,0.5770667491047821
SingleSource/Benchmarks/Shootout-C++/nestedloop, 0.1218, 0.1245, 0.1203,0.1218, 0.1175, 0.1263, 0.1225,0.1225,0.5747126436781436
SingleSource/Benchmarks/Misc/fbench, 0.0525, 0.0525, 0.0524,0.0525, 0.0528, 0.0527, 0.0528,0.0528,0.5714285714285783
SingleSource/Benchmarks/Shootout/objinst, 0.0363, 0.0361, 0.0361,0.0361, 0.0363, 0.0363, 0.0364,0.0363,0.5540166204986097
SingleSource/Benchmarks/Polybench/stencils/jacobi-2d-imper/jacobi-2d-imper, 0.1113, 0.1111, 0.1110,0.1111, 0.1117, 0.1116, 0.1117,0.1117,0.5400540054005365
MultiSource/Benchmarks/ASCI_Purple/SMG2000/smg2000, 5.5712, 5.5506, 5.5630,5.563, 5.5928, 5.5964, 5.5830,5.5928,0.5356821858709448
SingleSource/Benchmarks/Shootout/heapsort, 0.0379, 0.0377, 0.0378,0.0378, 0.0380, 0.0380, 0.0379,0.038,0.5291005291005346
SingleSource/Benchmarks/Adobe-C++/simple_types_loop_invariant, 1.9672, 1.9705, 1.9637,1.9672, 1.9736, 1.9775, 1.9799,1.9775,0.5235868239121588
MultiSource/Benchmarks/mediabench/mpeg2/mpeg2dec/mpeg2decode, 1.3002, 1.3075, 1.3033,1.3033, 1.3115, 1.3096, 1.3101,1.3101,0.5217524744878466
MultiSource/Benchmarks/FreeBench/neural/neural, 0.1741, 0.1742, 0.1744,0.1742, 0.1750, 0.1751, 0.1751,0.1751,0.5166475315729224
MultiSource/Benchmarks/Prolangs-C++/life/life, 0.0581, 0.0581, 0.0581,0.0581, 0.0584, 0.0584, 0.0583,0.0584,0.5163511187607606
SingleSource/Benchmarks/Polybench/linear-algebra/kernels/atax/atax, 0.0788, 0.0786, 0.0786,0.0786, 0.0790, 0.0790, 0.0788,0.079,0.5089058524172962
SingleSource/Benchmarks/SmallPT/smallpt, 0.0982, 0.0983, 0.0983,0.0983, 0.0987, 0.0988, 0.0988,0.0988,0.508646998982698
SingleSource/Benchmarks/Dhrystone/dry, 0.0397, 0.0397, 0.0398,0.0397, 0.0399, 0.0398, 0.0399,0.0399,0.5037783375314797
SingleSource/Benchmarks/Misc/pi, 0.0199, 0.0199, 0.0199,0.0199, 0.0200, 0.0200, 0.0200,0.02,0.5025125628140614
SingleSource/Benchmarks/Shootout/matrix, 0.0810, 0.0809, 0.0810,0.081, 0.0813, 0.0814, 0.0814,0.0814,0.49382716049382047
SingleSource/Benchmarks/Shootout-C++/matrix, 0.1832, 0.1827, 0.1827,0.1827, 0.1836, 0.1833, 0.1838,0.1836,0.49261083743843415
MultiSource/Applications/d/make_dparser, 2.5747, 2.5765, 2.5755,2.5755, 2.5880, 2.5961, 2.5849,2.588,0.4853426519122461
SingleSource/Benchmarks/Polybench/stencils/jacobi-1d-imper/jacobi-1d-imper, 0.0824, 0.0825, 0.0825,0.0825, 0.0829, 0.0825, 0.0829,0.0829,0.48484848484848797
MultiSource/Benchmarks/Trimaran/enc-pc1/enc-pc1, 0.0633, 0.0631, 0.0632,0.0632, 0.0635, 0.0633, 0.0635,0.0635,0.4746835443038
MultiSource/Benchmarks/Prolangs-C++/ocean/ocean, 0.1064, 0.1064, 0.1064,0.1064, 0.1070, 0.1069, 0.1068,0.1069,0.46992481203007586
SingleSource/Benchmarks/Polybench/stencils/fdtd-apml/fdtd-apml, 0.1299, 0.1298, 0.1298,0.1298, 0.1304, 0.1304, 0.1301,0.1304,0.46224961479197635
SingleSource/Benchmarks/Stanford/Puzzle, 0.1087, 0.1087, 0.1086,0.1087, 0.1092, 0.1090, 0.1092,0.1092,0.4599816007359703
MultiSource/Applications/spiff/spiff, 0.7330, 0.7287, 0.7309,0.7309, 0.7347, 0.7313, 0.7342,0.7342,0.45149815296210427
SingleSource/Benchmarks/Shootout/ackermann, 0.0223, 0.0222, 0.0221,0.0222, 0.0223, 0.0222, 0.0223,0.0223,0.45045045045044585
MultiSource/Benchmarks/MiBench/telecomm-FFT/telecomm-fft, 0.1356, 0.1355, 0.1355,0.1355, 0.1362, 0.1361, 0.1361,0.1361,0.44280442804427445
SingleSource/Benchmarks/Polybench/stencils/seidel-2d/seidel-2d, 0.0686, 0.0684, 0.0684,0.0684, 0.0687, 0.0687, 0.0686,0.0687,0.43859649122806044
MultiSource/Benchmarks/llubenchmark/llu, 0.0457, 0.0458, 0.0457,0.0457, 0.0459, 0.0458, 0.0459,0.0459,0.4376367614879806
SingleSource/Benchmarks/Shootout/nestedloop, 0.0230, 0.0229, 0.0229,0.0229, 0.0230, 0.0230, 0.0230,0.023,0.4366812227074135
SingleSource/Benchmarks/BenchmarkGame/n-body, 0.0696, 0.0695, 0.0695,0.0695, 0.0699, 0.0698, 0.0698,0.0698,0.4316546762589857
MultiSource/Benchmarks/TSVC/LoopRerolling-dbl/LoopRerolling-dbl, 1.9593, 1.9452, 1.9558,1.9558, 1.9647, 1.9425, 1.9642,1.9642,0.42949176807445255
SingleSource/Benchmarks/Polybench/linear-algebra/kernels/trmm/trmm, 0.0710, 0.0710, 0.0710,0.071, 0.0712, 0.0713, 0.0713,0.0713,0.4225352112676273
SingleSource/Benchmarks/Polybench/linear-algebra/kernels/doitgen/doitgen, 0.0958, 0.0958, 0.0959,0.0958, 0.0963, 0.0961, 0.0962,0.0962,0.41753653444676075
MultiSource/Benchmarks/7zip/7zip-benchmark,33.4213,33.4405,33.4126,33.4213,33.5604,33.5499,33.5705,33.5604,0.41620164386184655
SingleSource/Benchmarks/Misc/lowercase, 0.0242, 0.0241, 0.0241,0.0241, 0.0242, 0.0241, 0.0242,0.0242,0.4149377593360981
MultiSource/Benchmarks/Trimaran/enc-rc4/enc-rc4, 0.0484, 0.0484, 0.0483,0.0484, 0.0486, 0.0484, 0.0488,0.0486,0.4132231404958553
MultiSource/Benchmarks/Olden/power/power, 0.1233, 0.1234, 0.1232,0.1233, 0.1238, 0.1237, 0.1238,0.1238,0.40551500405514584
MultiSource/Benchmarks/TSVC/GlobalDataFlow-dbl/GlobalDataFlow-dbl, 2.0243, 2.0231, 2.0247,2.0243, 2.0325, 2.0325, 2.0361,2.0325,0.40507829867113543
SingleSource/Benchmarks/Polybench/datamining/correlation/correlation, 0.0748, 0.0748, 0.0749,0.0748, 0.0751, 0.0754, 0.0750,0.0751,0.40106951871656804
SingleSource/Benchmarks/Shootout/hash, 0.0500, 0.0499, 0.0499,0.0499, 0.0499, 0.0501, 0.0501,0.0501,0.4008016032064132
MultiSource/Benchmarks/TSVC/Reductions-dbl/Reductions-dbl, 2.0416, 2.0413, 2.0388,2.0413, 2.0493, 2.0472, 2.0511,2.0493,0.391907118013024
SingleSource/Benchmarks/Polybench/linear-algebra/kernels/syr2k/syr2k, 0.0768, 0.0768, 0.0769,0.0768, 0.0770, 0.0771, 0.0771,0.0771,0.3906250000000222
SingleSource/Benchmarks/Polybench/medley/reg_detect/reg_detect, 0.4178, 0.4181, 0.4177,0.4178, 0.4194, 0.4194, 0.4196,0.4194,0.3829583532790837
SingleSource/Benchmarks/Misc/flops-2, 0.0270, 0.0269, 0.0269,0.0269, 0.0271, 0.0270, 0.0269,0.027,0.3717472118959009
SingleSource/Benchmarks/Misc/flops-5, 0.0271, 0.0269, 0.0270,0.027, 0.0271, 0.0271, 0.0270,0.0271,0.37037037037037646
MultiSource/Benchmarks/PAQ8p/paq8p, 1.8882, 1.8919, 1.8950,1.8919, 1.8848, 1.8989, 1.8997,1.8989,0.3699984142925272
SingleSource/Benchmarks/BenchmarkGame/puzzle, 0.0544, 0.0543, 0.0542,0.0543, 0.0545, 0.0545, 0.0545,0.0545,0.36832412523020164
MultiSource/Benchmarks/MiBench/automotive-basicmath/automotive-basicmath, 0.1392, 0.1388, 0.1390,0.139, 0.1399, 0.1395, 0.1392,0.1395,0.3597122302158251
MultiSource/Benchmarks/Fhourstones-3.1/fhourstones3.1, 0.1146, 0.1145, 0.1144,0.1145, 0.1149, 0.1149, 0.1150,0.1149,0.3493449781659441
SingleSource/Benchmarks/Shootout/random, 0.0289, 0.0287, 0.0287,0.0287, 0.0288, 0.0288, 0.0289,0.0288,0.34843205574912606
MultiSource/Benchmarks/TSVC/LinearDependence-dbl/LinearDependence-dbl, 2.0478, 2.0549, 2.0516,2.0516, 2.0543, 2.0587, 2.0587,2.0587,0.34607135893935936
MultiSource/Benchmarks/McCat/08-main/main, 0.2318, 0.2318, 0.2318,0.2318, 0.2326, 0.2324, 0.2328,0.2326,0.3451251078515849
SingleSource/Benchmarks/Shootout-C++/ackermann, 0.1161, 0.1165, 0.1161,0.1161, 0.1165, 0.1171, 0.1162,0.1165,0.3445305770887197
SingleSource/Benchmarks/Adobe-C++/simple_types_constant_folding, 2.4279, 2.4322, 2.4298,2.4298, 2.4377, 2.4418, 2.4380,2.438,0.33747633550085254
MultiSource/Benchmarks/mediabench/gsm/toast/toast, 1.0007, 0.9998, 0.9996,0.9998, 1.0034, 1.0022, 1.0031,1.0031,0.3300660132026456
SingleSource/Benchmarks/Shootout/methcall, 0.0303, 0.0304, 0.0303,0.0303, 0.0304, 0.0304, 0.0305,0.0304,0.3300330033003229
MultiSource/Benchmarks/DOE-ProxyApps-C++/PENNANT/PENNANT, 4.0357, 4.0390, 4.0341,4.0357, 4.0480, 4.0490, 4.0502,4.049,0.32955868870332417
MultiSource/Benchmarks/TSVC/IndirectAddressing-dbl/IndirectAddressing-dbl, 1.9796, 1.9766, 1.9812,1.9796, 1.9846, 1.9861, 1.9892,1.9861,0.3283491614467504
SingleSource/Benchmarks/Stanford/Oscar, 0.0613, 0.0611, 0.0612,0.0612, 0.0614, 0.0615, 0.0613,0.0614,0.32679738562091387
MultiSource/Benchmarks/MallocBench/espresso/espresso, 4.5032, 4.5013, 4.5052,4.5032, 4.5114, 4.5179, 4.5234,4.5179,0.3264345354414777
SingleSource/Benchmarks/BenchmarkGame/nsieve-bits, 0.0309, 0.0309, 0.0309,0.0309, 0.0310, 0.0309, 0.0310,0.031,0.3236245954692629
SingleSource/Benchmarks/Misc/dt, 0.0313, 0.0312, 0.0312,0.0312, 0.0313, 0.0312, 0.0313,0.0313,0.3205128205128194
MultiSource/Benchmarks/Olden/bh/bh, 0.2495, 0.2497, 0.2499,0.2497, 0.2508, 0.2505, 0.2503,0.2505,0.32038446135362886
SingleSource/Benchmarks/Shootout-C++/strcat, 0.1249, 0.1253, 0.1247,0.1249, 0.1253, 0.1253, 0.1254,0.1253,0.32025620496396456
MultiSource/Benchmarks/SciMark2-C/scimark2, 0.3563, 0.3560, 0.3554,0.356, 0.3576, 0.3564, 0.3571,0.3571,0.30898876404494846
SingleSource/Benchmarks/Stanford/Bubblesort, 0.0327, 0.0326, 0.0326,0.0326, 0.0328, 0.0327, 0.0327,0.0327,0.30674846625766694
MultiSource/Benchmarks/FreeBench/pifft/pifft, 0.9149, 0.9150, 0.9157,0.915, 0.9180, 0.9178, 0.9170,0.9178,0.30601092896174187
MultiSource/Benchmarks/Olden/health/health, 0.1319, 0.1314, 0.1316,0.1316, 0.1320, 0.1320, 0.1319,0.132,0.3039513677811634
SingleSource/Benchmarks/Polybench/linear-algebra/kernels/gesummv/gesummv, 0.0659, 0.0659, 0.0660,0.0659, 0.0660, 0.0661, 0.0661,0.0661,0.3034901365705611
MultiSource/Benchmarks/McCat/17-bintr/bintr, 0.0671, 0.0669, 0.0668,0.0669, 0.0671, 0.0675, 0.0671,0.0671,0.2989536621823774
MultiSource/Benchmarks/MiBench/telecomm-CRC32/telecomm-CRC32, 0.0339, 0.0338, 0.0338,0.0338, 0.0339, 0.0338, 0.0339,0.0339,0.2958579881656931
SingleSource/Benchmarks/Linpack/linpack-pc, 0.3047, 0.3042, 0.3043,0.3043, 0.3047, 0.3052, 0.3053,0.3052,0.29576076240551696
MultiSource/Applications/ClamAV/clamscan,14.2364,14.2558,14.2457,14.2457,14.2858,14.2856,14.2718,14.2856,0.28008451673138257
MultiSource/Benchmarks/Prolangs-C/bison/mybison, 1.5772, 1.5772, 1.5762,1.5772, 1.5816, 1.5804, 1.5817,1.5816,0.27897539944203853
SingleSource/Benchmarks/Polybench/linear-algebra/kernels/syrk/syrk, 0.0753, 0.0752, 0.0751,0.0752, 0.0754, 0.0754, 0.0752,0.0754,0.26595744680850686
SingleSource/Benchmarks/Polybench/linear-algebra/kernels/symm/symm, 0.0756, 0.0755, 0.0757,0.0756, 0.0759, 0.0758, 0.0758,0.0758,0.2645502645502784
SingleSource/Benchmarks/Misc/flops, 0.0757, 0.0756, 0.0757,0.0757, 0.0759, 0.0759, 0.0759,0.0759,0.26420079260236484
MultiSource/Benchmarks/MiBench/security-sha/security-sha, 0.1145, 0.1144, 0.1141,0.1144, 0.1147, 0.1148, 0.1146,0.1147,0.2622377622377492
MultiSource/Benchmarks/Prolangs-C/agrep/agrep, 1.3141, 1.3183, 1.3114,1.3141, 1.3197, 1.3173, 1.3174,1.3174,0.2511224412145019
MultiSource/Benchmarks/McCat/04-bisect/bisect, 0.1246, 0.1243, 0.1241,0.1243, 0.1246, 0.1244, 0.1246,0.1246,0.24135156878519748
MultiSource/Benchmarks/McCat/05-eks/eks, 0.5082, 0.5066, 0.5075,0.5075, 0.5084, 0.5087, 0.5087,0.5087,0.2364532019704546
SingleSource/Benchmarks/Dhrystone/fldry, 0.0428, 0.0427, 0.0428,0.0428, 0.0429, 0.0428, 0.0430,0.0429,0.23364485981309802
SingleSource/Benchmarks/Polybench/stencils/adi/adi, 0.0889, 0.0888, 0.0886,0.0888, 0.0891, 0.0890, 0.0889,0.089,0.22522522522521182
MultiSource/Benchmarks/FreeBench/distray/distray, 0.0919, 0.0918, 0.0918,0.0918, 0.0920, 0.0921, 0.0920,0.092,0.2178649237472685
MultiSource/Benchmarks/FreeBench/mason/mason, 0.0485, 0.0483, 0.0484,0.0484, 0.0485, 0.0485, 0.0485,0.0485,0.20661157024794985
MultiSource/Benchmarks/Trimaran/enc-md5/enc-md5, 0.1472, 0.1471, 0.1471,0.1471, 0.1476, 0.1474, 0.1474,0.1474,0.20394289598912874
MultiSource/Benchmarks/TSVC/LoopRerolling-flt/LoopRerolling-flt, 1.6242, 1.6263, 1.6198,1.6242, 1.6275, 1.6266, 1.6296,1.6275,0.20317694865163993
MultiSource/Benchmarks/Prolangs-C++/employ/employ, 0.1975, 0.1978, 0.1973,0.1975, 0.1979, 0.1975, 0.1981,0.1979,0.20253164556960357
MultiSource/Benchmarks/MiBench/telecomm-gsm/telecomm-gsm, 1.0120, 1.0060, 1.0114,1.0114, 1.0151, 1.0134, 1.0092,1.0134,0.19774569903103778
MultiSource/Benchmarks/VersaBench/ecbdes/ecbdes, 0.2053, 0.2054, 0.2052,0.2053, 0.2057, 0.2057, 0.2056,0.2057,0.1948368241597498
SingleSource/Benchmarks/McGill/misr, 0.0520, 0.0519, 0.0520,0.052, 0.0522, 0.0521, 0.0521,0.0521,0.19230769230769162
SingleSource/Benchmarks/BenchmarkGame/spectral-norm, 0.0534, 0.0533, 0.0533,0.0533, 0.0534, 0.0533, 0.0535,0.0534,0.18761726078799779
MultiSource/Benchmarks/mediabench/adpcm/rawcaudio/rawcaudio, 0.0534, 0.0533, 0.0533,0.0533, 0.0534, 0.0534, 0.0533,0.0534,0.18761726078799779
MultiSource/Benchmarks/ASC_Sequoia/CrystalMk/CrystalMk, 0.2137, 0.2132, 0.2131,0.2132, 0.2138, 0.2136, 0.2136,0.2136,0.18761726078799779
MultiSource/Benchmarks/TSVC/CrossingThresholds-dbl/CrossingThresholds-dbl, 1.9979, 1.9951, 1.9954,1.9954, 1.9966, 1.9991, 2.0006,1.9991,0.18542648090609237
MultiSource/Applications/JM/lencod/lencod,14.6309,14.6229,14.6109,14.6229,14.6436,14.6556,14.6488,14.6488,0.17711944963036963
MultiSource/Benchmarks/TSVC/Searching-dbl/Searching-dbl, 1.9374, 1.9364, 1.9347,1.9364, 1.9398, 1.9405, 1.9395,1.9398,0.17558355711631002
SingleSource/Benchmarks/Adobe-C++/loop_unroll, 4.2995, 4.3144, 4.3039,4.3039, 4.3143, 4.3114, 4.3098,4.3114,0.1742605543809228
MultiSource/Benchmarks/TSVC/LoopRestructuring-dbl/LoopRestructuring-dbl, 2.0043, 2.0127, 2.0058,2.0058, 2.0120, 2.0092, 2.0033,2.0092,0.16950842556586743
SingleSource/Benchmarks/Polybench/linear-algebra/kernels/trisolv/trisolv, 0.0621, 0.0619, 0.0620,0.062, 0.0621, 0.0623, 0.0621,0.0621,0.1612903225806539
SingleSource/Benchmarks/Misc/richards_benchmark, 0.0623, 0.0621, 0.0621,0.0621, 0.0622, 0.0622, 0.0620,0.0622,0.16103059581320522
MultiSource/Benchmarks/mediabench/g721/g721encode/encode, 0.1883, 0.1881, 0.1881,0.1881, 0.1884, 0.1883, 0.1884,0.1884,0.15948963317384823
MultiSource/Benchmarks/Prolangs-C/gnugo/gnugo, 0.6955, 0.6939, 0.6938,0.6939, 0.6950, 0.6945, 0.6955,0.695,0.15852428303790855
MultiSource/Benchmarks/MallocBench/gs/gs, 3.6434, 3.6384, 3.6404,3.6404, 3.6425, 3.6477, 3.6461,3.6461,0.15657620041753528
MultiSource/Benchmarks/TSVC/Reductions-flt/Reductions-flt, 1.7099, 1.7063, 1.7110,1.7099, 1.7125, 1.7340, 1.7124,1.7125,0.1520556757705016
SingleSource/Benchmarks/Misc/ffbench, 0.0659, 0.0657, 0.0658,0.0658, 0.0658, 0.0659, 0.0659,0.0659,0.1519756838905817
SingleSource/Benchmarks/Misc/whetstone, 0.0660, 0.0660, 0.0658,0.066, 0.0662, 0.0661, 0.0659,0.0661,0.15151515151514694
MultiSource/Benchmarks/Bullet/bullet,22.7947,22.7656,22.7647,22.7656,22.8098,22.7990,22.7892,22.799,0.14671258389851172
MultiSource/Benchmarks/nbench/nbench, 1.1022, 1.1048, 1.1034,1.1034, 1.1050, 1.1046, 1.1064,1.105,0.14500634402756507
MultiSource/Benchmarks/sim/sim, 0.2807, 0.2811, 0.2806,0.2807, 0.2810, 0.2811, 0.2811,0.2811,0.14250089063057025
SingleSource/Benchmarks/Polybench/linear-algebra/solvers/dynprog/dynprog, 0.0717, 0.0718, 0.0719,0.0718, 0.0719, 0.0720, 0.0719,0.0719,0.139275766016711
SingleSource/Benchmarks/Polybench/linear-algebra/kernels/bicg/bicg, 0.0774, 0.0773, 0.0772,0.0773, 0.0774, 0.0774, 0.0775,0.0774,0.1293661060802087
MultiSource/Benchmarks/TSVC/Symbolics-dbl/Symbolics-dbl, 1.9919, 1.9862, 1.9879,1.9879, 1.9904, 1.9912, 1.9885,1.9904,0.12576085316162722
SingleSource/Benchmarks/Polybench/datamining/covariance/covariance, 0.0825, 0.0824, 0.0824,0.0824, 0.0827, 0.0825, 0.0825,0.0825,0.12135922330096527
SingleSource/Benchmarks/Polybench/linear-algebra/solvers/durbin/durbin, 0.0869, 0.0867, 0.0868,0.0868, 0.0868, 0.0869, 0.0870,0.0869,0.11520737327188613
SingleSource/Benchmarks/Polybench/linear-algebra/kernels/gemver/gemver, 0.0894, 0.0895, 0.0893,0.0894, 0.0894, 0.0895, 0.0896,0.0895,0.11185682326622093
SingleSource/Benchmarks/McGill/chomp, 0.1844, 0.1847, 0.1847,0.1847, 0.1849, 0.1849, 0.1851,0.1849,0.10828370330264736
MultiSource/Benchmarks/Ptrdist/anagram/anagram, 0.0981, 0.0980, 0.0979,0.098, 0.0981, 0.0979, 0.0981,0.0981,0.10204081632654294
MultiSource/Benchmarks/TSVC/Packing-dbl/Packing-dbl, 1.9292, 1.9505, 1.9514,1.9505, 1.9533, 1.9524, 1.9278,1.9524,0.0974109202768636
MultiSource/Benchmarks/TSVC/InductionVariable-flt/InductionVariable-flt, 1.6721, 1.6716, 1.6733,1.6721, 1.6736, 1.6696, 1.6749,1.6736,0.08970755337600611
MultiSource/Applications/JM/ldecod/ldecod, 6.2299, 6.2295, 6.2276,6.2295, 6.2356, 6.2350, 6.2312,6.235,0.08828958985473978
MultiSource/Benchmarks/TSVC/StatementReordering-dbl/StatementReordering-dbl, 1.9611, 1.9493, 1.9503,1.9503, 1.9491, 1.9520, 1.9533,1.952,0.08716607701380052
MultiSource/Applications/ALAC/encode/alacconvert-encode, 0.9229, 0.9235, 0.9222,0.9229, 0.9238, 0.9237, 0.9235,0.9237,0.08668328096217426
SingleSource/Benchmarks/Shootout-C++/ary3, 0.1576, 0.1582, 0.1576,0.1576, 0.1576, 0.1577, 0.1578,0.1577,0.06345177664974777
MultiSource/Benchmarks/DOE-ProxyApps-C/Pathfinder/PathFinder, 0.7995, 0.7965, 0.7953,0.7965, 0.7980, 0.7917, 0.7970,0.797,0.06277463904582614
MultiSource/Benchmarks/McCat/18-imp/imp, 0.3218, 0.3221, 0.3221,0.3221, 0.3221, 0.3223, 0.3223,0.3223,0.062092517851586315
MultiSource/Applications/viterbi/viterbi, 0.1623, 0.1620, 0.1622,0.1622, 0.1623, 0.1623, 0.1626,0.1623,0.06165228113439447
MultiSource/Benchmarks/Ptrdist/bc/bc, 0.9888, 0.9885, 0.9891,0.9888, 0.9890, 0.9894, 0.9900,0.9894,0.060679611650482634
MultiSource/Benchmarks/TSVC/ControlFlow-dbl/ControlFlow-dbl, 2.1298, 2.1484, 2.1293,2.1298, 2.1292, 2.1310, 2.1321,2.131,0.056343318621454586
MultiSource/Benchmarks/TSVC/IndirectAddressing-flt/IndirectAddressing-flt, 1.6493, 1.6465, 1.6459,1.6465, 1.6474, 1.6442, 1.6526,1.6474,0.05466140297600841
MultiSource/Applications/kimwitu++/kc,10.9953,11.0139,11.0106,11.0106,11.1050,11.0165,10.9909,11.0165,0.05358472744447784
SingleSource/Benchmarks/Misc-C++/Large/sphereflake, 0.2193, 0.2189, 0.2191,0.2191, 0.2192, 0.2195, 0.2189,0.2192,0.045641259698769865
MultiSource/Benchmarks/DOE-ProxyApps-C/miniGMG/miniGMG, 0.9584, 0.9580, 0.9586,0.9584, 0.9598, 0.9582, 0.9588,0.9588,0.041736227045063856
MultiSource/Benchmarks/TSVC/Recurrences-flt/Recurrences-flt, 1.6142, 1.6137, 1.6142,1.6142, 1.6148, 1.6121, 1.6170,1.6148,0.03717011522734737
MultiSource/Benchmarks/TSVC/GlobalDataFlow-flt/GlobalDataFlow-flt, 1.6937, 1.6968, 1.6931,1.6937, 1.6971, 1.6926, 1.6943,1.6943,0.0354254000118015
MultiSource/Benchmarks/TSVC/ControlLoops-flt/ControlLoops-flt, 1.7054, 1.7024, 1.7019,1.7024, 1.7035, 1.7012, 1.7030,1.703,0.03524436090227567
MultiSource/Benchmarks/TSVC/NodeSplitting-dbl/NodeSplitting-dbl, 1.9784, 1.9525, 1.9796,1.9784, 1.9790, 1.9633, 1.9810,1.979,0.030327537403973537
MultiSource/Benchmarks/mediabench/jpeg/jpeg-6a/cjpeg, 4.3914, 4.3910, 4.3876,4.391, 4.3971, 4.3841, 4.3922,4.3922,0.027328626736511374
MultiSource/Benchmarks/DOE-ProxyApps-C++/CLAMR/CLAMR,17.8268,17.8052,17.8187,17.8187,17.8227,17.8220,17.8209,17.822,0.018519869575217562
MultiSource/Benchmarks/TSVC/NodeSplitting-flt/NodeSplitting-flt, 1.6419, 1.6352, 1.6459,1.6419, 1.6278, 1.6422, 1.6441,1.6422,0.018271514708589898
MultiSource/Benchmarks/DOE-ProxyApps-C/miniAMR/miniAMR, 1.3190, 1.3192, 1.3193,1.3192, 1.3196, 1.3185, 1.3194,1.3194,0.015160703456640334
MultiSource/Benchmarks/TSVC/Expansion-flt/Expansion-flt, 1.6988, 1.7002, 1.7011,1.7002, 1.6985, 1.7004, 1.7106,1.7004,0.011763321962110496
SingleSource/Regression/C/2004-08-12-InlinerAndAllocas, 0.0185, 0.0184, 0.0183,0.0184, 0.0183, 0.0184, 0.0184,0.0184,0.0
SingleSource/Benchmarks/Stanford/Treesort, 0.0372, 0.0372, 0.0372,0.0372, 0.0373, 0.0372, 0.0372,0.0372,0.0
SingleSource/Benchmarks/Stanford/RealMM, 0.0489, 0.0490, 0.0489,0.0489, 0.0488, 0.0489, 0.0490,0.0489,0.0
SingleSource/Benchmarks/Stanford/Queens, 0.0434, 0.0433, 0.0434,0.0434, 0.0434, 0.0435, 0.0434,0.0434,0.0
SingleSource/Benchmarks/Stanford/FloatMM, 0.0518, 0.0518, 0.0518,0.0518, 0.0518, 0.0518, 0.0518,0.0518,0.0
SingleSource/Benchmarks/Shootout/strcat, 0.0262, 0.0261, 0.0261,0.0261, 0.0262, 0.0261, 0.0261,0.0261,0.0
SingleSource/Benchmarks/Shootout/sieve, 0.0242, 0.0242, 0.0242,0.0242, 0.0242, 0.0242, 0.0242,0.0242,0.0
SingleSource/Benchmarks/Shootout/lists, 0.0657, 0.0655, 0.0656,0.0656, 0.0656, 0.0655, 0.0657,0.0656,0.0
SingleSource/Benchmarks/Shootout/fib2, 0.0187, 0.0185, 0.0186,0.0186, 0.0186, 0.0185, 0.0186,0.0186,0.0
SingleSource/Benchmarks/Shootout/ary3, 0.0333, 0.0332, 0.0333,0.0333, 0.0334, 0.0333, 0.0333,0.0333,0.0
SingleSource/Benchmarks/Shootout-C++/random, 0.1243, 0.1242, 0.1241,0.1242, 0.1241, 0.1242, 0.1248,0.1242,0.0
SingleSource/Benchmarks/Polybench/stencils/fdtd-2d/fdtd-2d, 0.1368, 0.1369, 0.1368,0.1368, 0.1368, 0.1367, 0.1368,0.1368,0.0
SingleSource/Benchmarks/Polybench/linear-algebra/kernels/mvt/mvt, 0.0800, 0.0799, 0.0800,0.08, 0.0800, 0.0799, 0.0801,0.08,0.0
SingleSource/Benchmarks/Polybench/linear-algebra/kernels/cholesky/cholesky, 0.0912, 0.0910, 0.0908,0.091, 0.0911, 0.0910, 0.0910,0.091,0.0
SingleSource/Benchmarks/Misc/matmul_f64_4x4, 0.0272, 0.0271, 0.0272,0.0272, 0.0273, 0.0272, 0.0272,0.0272,0.0
SingleSource/Benchmarks/Misc/fp-convert, 0.0290, 0.0290, 0.0289,0.029, 0.0290, 0.0289, 0.0290,0.029,0.0
SingleSource/Benchmarks/Misc/flops-8, 0.0271, 0.0270, 0.0270,0.027, 0.0271, 0.0270, 0.0270,0.027,0.0
SingleSource/Benchmarks/Misc/flops-4, 0.0264, 0.0262, 0.0264,0.0264, 0.0266, 0.0264, 0.0264,0.0264,0.0
SingleSource/Benchmarks/Misc/flops-3, 0.0259, 0.0258, 0.0259,0.0259, 0.0259, 0.0259, 0.0258,0.0259,0.0
SingleSource/Benchmarks/Misc/flops-1, 0.0261, 0.0260, 0.0261,0.0261, 0.0262, 0.0261, 0.0261,0.0261,0.0
SingleSource/Benchmarks/Misc/evalloop, 0.0351, 0.0351, 0.0351,0.0351, 0.0351, 0.0350, 0.0351,0.0351,0.0
MultiSource/Benchmarks/mediabench/adpcm/rawdaudio/rawdaudio, 0.0532, 0.0531, 0.0532,0.0532, 0.0532, 0.0532, 0.0533,0.0532,0.0
MultiSource/Benchmarks/VersaBench/8b10b/8b10b, 0.0708, 0.0705, 0.0706,0.0706, 0.0708, 0.0706, 0.0705,0.0706,0.0
MultiSource/Benchmarks/Trimaran/netbench-url/netbench-url, 0.1999, 0.1992, 0.2000,0.1999, 0.1999, 0.2000, 0.1996,0.1999,0.0
MultiSource/Benchmarks/Trimaran/netbench-crc/netbench-crc, 0.0745, 0.0741, 0.0744,0.0744, 0.0744, 0.0744, 0.0745,0.0744,0.0
MultiSource/Benchmarks/TSVC/LoopRestructuring-flt/LoopRestructuring-flt, 1.6725, 1.6705, 1.6781,1.6725, 1.6725, 1.6732, 1.6717,1.6725,0.0
MultiSource/Benchmarks/Ptrdist/yacr2/yacr2, 0.5918, 0.5915, 0.5910,0.5915, 0.5915, 0.5908, 0.5920,0.5915,0.0
MultiSource/Benchmarks/Prolangs-C++/primes/primes, 0.0239, 0.0238, 0.0238,0.0238, 0.0238, 0.0238, 0.0238,0.0238,0.0
MultiSource/Benchmarks/Olden/bisort/bisort, 0.0609, 0.0609, 0.0608,0.0609, 0.0609, 0.0610, 0.0609,0.0609,0.0
MultiSource/Benchmarks/MiBench/telecomm-adpcm/telecomm-adpcm, 0.0531, 0.0530, 0.0529,0.053, 0.0531, 0.0530, 0.0529,0.053,0.0
MultiSource/Benchmarks/MiBench/network-dijkstra/network-dijkstra, 0.0408, 0.0406, 0.0407,0.0407, 0.0407, 0.0407, 0.0408,0.0407,0.0
MultiSource/Benchmarks/MiBench/automotive-bitcount/automotive-bitcount, 0.2447, 0.2441, 0.2445,0.2445, 0.2451, 0.2444, 0.2445,0.2445,0.0
MultiSource/Benchmarks/McCat/03-testtrie/testtrie, 0.0870, 0.0868, 0.0869,0.0869, 0.0868, 0.0872, 0.0869,0.0869,0.0
MultiSource/Benchmarks/BitBench/uuencode/uuencode, 0.0417, 0.0415, 0.0416,0.0416, 0.0416, 0.0416, 0.0417,0.0416,0.0
MultiSource/Benchmarks/BitBench/uudecode/uudecode, 0.0425, 0.0424, 0.0423,0.0424, 0.0423, 0.0425, 0.0424,0.0424,0.0
MultiSource/Benchmarks/BitBench/five11/five11, 0.0525, 0.0525, 0.0524,0.0525, 0.0525, 0.0525, 0.0526,0.0525,0.0
MultiSource/Applications/sgefa/sgefa, 0.3836, 0.3836, 0.3830,0.3836, 0.3832, 0.3839, 0.3836,0.3836,0.0
MultiSource/Applications/ALAC/decode/alacconvert-decode, 0.9340, 0.9356, 0.9337,0.934, 0.9338, 0.9321, 0.9380,0.9338,-0.021413276231274647
MultiSource/Applications/oggenc/oggenc, 4.8087, 4.7926, 4.8026,4.8026, 4.8002, 4.8045, 4.8015,4.8015,-0.022904260192402326
MultiSource/Benchmarks/TSVC/Recurrences-dbl/Recurrences-dbl, 1.9472, 1.9529, 1.9489,1.9489, 1.9484, 1.9483, 1.9512,1.9484,-0.02565549797322042
MultiSource/Benchmarks/TSVC/Expansion-dbl/Expansion-dbl, 2.0348, 2.0361, 2.0358,2.0358, 2.0349, 2.0332, 2.0349,2.0349,-0.04420866489832642
MultiSource/Benchmarks/TSVC/ControlFlow-flt/ControlFlow-flt, 1.7957, 1.8013, 1.7921,1.7957, 1.7936, 1.7949, 1.7993,1.7949,-0.04455087152642756
MultiSource/Benchmarks/FreeBench/fourinarow/fourinarow, 0.3345, 0.3341, 0.3345,0.3345, 0.3343, 0.3343, 0.3342,0.3343,-0.05979073243648214
MultiSource/Benchmarks/Fhourstones/fhourstones, 0.1558, 0.1553, 0.1555,0.1555, 0.1554, 0.1554, 0.1555,0.1554,-0.06430868167202064
SingleSource/Benchmarks/Shootout-C++/ary, 0.1540, 0.1546, 0.1544,0.1544, 0.1543, 0.1539, 0.1543,0.1543,-0.06476683937824967
MultiSource/Benchmarks/MiBench/consumer-jpeg/consumer-jpeg, 4.3415, 4.3409, 4.3388,4.3409, 4.3384, 4.3368, 4.3379,4.3379,-0.06911009237715593
MultiSource/Applications/SIBsim4/SIBsim4, 1.1360, 1.1361, 1.1358,1.136, 1.1352, 1.1343, 1.1355,1.1352,-0.07042253521125641
MultiSource/Benchmarks/Ptrdist/ks/ks, 0.1413, 0.1414, 0.1410,0.1413, 0.1411, 0.1412, 0.1412,0.1412,-0.07077140835103357
MultiSource/Benchmarks/TSVC/Equivalencing-dbl/Equivalencing-dbl, 2.0037, 2.0015, 2.0034,2.0034, 2.0032, 2.0004, 2.0019,2.0019,-0.0748727163821572
SingleSource/Benchmarks/Shootout-C++/heapsort, 0.1311, 0.1307, 0.1307,0.1307, 0.1306, 0.1306, 0.1305,0.1306,-0.07651109410865553
MultiSource/Benchmarks/TSVC/LinearDependence-flt/LinearDependence-flt, 1.7305, 1.7282, 1.7243,1.7282, 1.7249, 1.7313, 1.7266,1.7266,-0.09258187709756394
SingleSource/Benchmarks/Polybench/linear-algebra/solvers/gramschmidt/gramschmidt, 0.1007, 0.1008, 0.1006,0.1007, 0.1008, 0.1006, 0.1005,0.1006,-0.09930486593843213
MultiSource/Benchmarks/McCat/12-IOtest/iotest, 0.0888, 0.0889, 0.0887,0.0888, 0.0889, 0.0885, 0.0887,0.0887,-0.11261261261261701
MultiSource/Benchmarks/TSVC/InductionVariable-dbl/InductionVariable-dbl, 2.0148, 2.0120, 2.0116,2.012, 2.0072, 2.0105, 2.0093,2.0093,-0.13419483101391183
MultiSource/Benchmarks/TSVC/ControlLoops-dbl/ControlLoops-dbl, 2.0432, 2.0424, 2.0402,2.0424, 2.0378, 2.0393, 2.0429,2.0393,-0.15178221699962968
MultiSource/Benchmarks/TSVC/Searching-flt/Searching-flt, 1.6016, 1.6040, 1.6013,1.6016, 1.5986, 1.5968, 1.6022,1.5986,-0.18731268731267958
MultiSource/Benchmarks/Olden/treeadd/treeadd, 0.0521, 0.0520, 0.0520,0.052, 0.0519, 0.0519, 0.0521,0.0519,-0.19230769230768052
MultiSource/Applications/hexxagon/hexxagon, 0.6553, 0.6579, 0.6558,0.6558, 0.6543, 0.6545, 0.6548,0.6545,-0.1982311680390536
MultiSource/Benchmarks/VersaBench/bmm/bmm, 0.0496, 0.0495, 0.0494,0.0495, 0.0494, 0.0494, 0.0495,0.0494,-0.20202020202020332
MultiSource/Applications/minisat/minisat, 0.6059, 0.6097, 0.5994,0.6059, 0.6046, 0.6101, 0.6035,0.6046,-0.21455685756724963
MultiSource/Benchmarks/TSVC/CrossingThresholds-flt/CrossingThresholds-flt, 1.6611, 1.6632, 1.6603,1.6611, 1.6368, 1.6574, 1.6589,1.6574,-0.22274396484257553
MultiSource/Benchmarks/MiBench/consumer-typeset/consumer-typeset, 9.6940, 9.6975, 9.7000,9.6975, 9.6801, 9.6695, 9.6752,9.6752,-0.2299561742717171
SingleSource/Benchmarks/Shootout-C++/EH/except, 0.1293, 0.1294, 0.1296,0.1294, 0.1290, 0.1293, 0.1291,0.1291,-0.23183925811437467
MultiSource/Benchmarks/Olden/em3d/em3d, 0.1699, 0.1693, 0.1695,0.1695, 0.1690, 0.1691, 0.1693,0.1691,-0.23598820058997605
MultiSource/Applications/SPASS/SPASS,12.0595,12.0593,12.0540,12.0593,12.0282,12.0327,12.0304,12.0304,-0.23964906752464987
MultiSource/Benchmarks/BitBench/drop3/drop3, 0.0417, 0.0417, 0.0416,0.0417, 0.0415, 0.0416, 0.0416,0.0416,-0.23980815347722784
SingleSource/Benchmarks/Shootout-C++/methcall, 0.1245, 0.1246, 0.1245,0.1245, 0.1238, 0.1242, 0.1242,0.1242,-0.24096385542168308
MultiSource/Benchmarks/Prolangs-C++/city/city, 0.8922, 0.8920, 0.8925,0.8922, 0.8888, 0.8900, 0.8911,0.89,-0.24658148397219692
MultiSource/Benchmarks/TSVC/Symbolics-flt/Symbolics-flt, 1.6556, 1.6603, 1.6529,1.6556, 1.6515, 1.6524, 1.6505,1.6515,-0.24764435854071065
MultiSource/Applications/lua/lua, 3.1828, 3.1866, 3.1769,3.1828, 3.1748, 3.1745, 3.1797,3.1748,-0.25135101168781704
MultiSource/Benchmarks/Trimaran/enc-3des/enc-3des, 0.2373, 0.2374, 0.2369,0.2373, 0.2370, 0.2367, 0.2367,0.2367,-0.25284450063212116
MultiSource/Applications/siod/siod, 1.9353, 1.9376, 1.9455,1.9376, 1.9326, 1.9313, 1.9362,1.9326,-0.258051197357545
MultiSource/Benchmarks/mafft/pairlocalalign, 8.6469, 8.6488, 8.6447,8.6469, 8.6243, 8.6241, 8.6282,8.6243,-0.2613653448056641
MultiSource/Benchmarks/Olden/perimeter/perimeter, 0.0742, 0.0742, 0.0741,0.0742, 0.0742, 0.0739, 0.0740,0.074,-0.26954177897574594
SingleSource/Benchmarks/Shootout-C++/sieve, 0.1840, 0.1839, 0.1843,0.184, 0.1832, 0.1835, 0.1836,0.1835,-0.27173913043477826
MultiSource/Benchmarks/MallocBench/cfrac/cfrac, 0.8411, 0.8453, 0.8361,0.8411, 0.8397, 0.8365, 0.8387,0.8387,-0.28534062537153293
MultiSource/Benchmarks/TSVC/Equivalencing-flt/Equivalencing-flt, 1.6673, 1.6681, 1.6667,1.6673, 1.6625, 1.6600, 1.6640,1.6625,-0.28789060157139446
MultiSource/Benchmarks/TSVC/StatementReordering-flt/StatementReordering-flt, 1.6146, 1.6241, 1.6141,1.6146, 1.6099, 1.6128, 1.6095,1.6099,-0.2910937693546334
MultiSource/Benchmarks/Ptrdist/ft/ft, 0.2004, 0.2004, 0.2006,0.2004, 0.1998, 0.2000, 0.1998,0.1998,-0.29940119760478723
MultiSource/Benchmarks/ASC_Sequoia/IRSmk/IRSmk, 0.0989, 0.0989, 0.0987,0.0989, 0.0987, 0.0986, 0.0986,0.0986,-0.30333670374116384
MultiSource/Benchmarks/tramp3d-v4/tramp3d-v4,19.9512,19.9657,19.9427,19.9512,19.8991,19.8596,19.8901,19.8901,-0.306247243273583
SingleSource/Benchmarks/Shootout-C++/ary2, 0.1558, 0.1562, 0.1557,0.1558, 0.1553, 0.1556, 0.1551,0.1553,-0.3209242618742003
SingleSource/Benchmarks/Shootout-C++/fibo, 0.1146, 0.1146, 0.1142,0.1146, 0.1141, 0.1145, 0.1142,0.1142,-0.3490401396160525
SingleSource/Benchmarks/Misc/flops-7, 0.0258, 0.0257, 0.0258,0.0258, 0.0259, 0.0257, 0.0257,0.0257,-0.3875968992248069
MultiSource/Benchmarks/Prolangs-C++/simul/simul, 0.0514, 0.0511, 0.0516,0.0514, 0.0512, 0.0514, 0.0511,0.0512,-0.3891050583657574
MultiSource/Benchmarks/TSVC/Packing-flt/Packing-flt, 1.6237, 1.6196, 1.6140,1.6196, 1.6125, 1.6131, 1.6199,1.6131,-0.4013336626327413
SingleSource/Benchmarks/Misc/revertBits, 0.0244, 0.0244, 0.0243,0.0244, 0.0244, 0.0243, 0.0243,0.0243,-0.4098360655737876
SingleSource/Benchmarks/Misc-C++/mandel-text, 0.0231, 0.0230, 0.0230,0.023, 0.0229, 0.0229, 0.0230,0.0229,-0.43478260869564966
MultiSource/Applications/obsequi/Obsequi, 0.9460, 0.9530, 0.9593,0.953, 0.9579, 0.9485, 0.9487,0.9487,-0.45120671563483317
MultiSource/Applications/hbd/hbd, 1.1683, 1.1715, 1.1674,1.1683, 1.1625, 1.1595, 1.1676,1.1625,-0.4964478301805908
MultiSource/Benchmarks/Olden/tsp/tsp, 0.1229, 0.1225, 0.1226,0.1226, 0.1219, 0.1218, 0.1220,0.1219,-0.5709624796084833
SingleSource/Benchmarks/CoyoteBench/lpbench, 0.1494, 0.1492, 0.1488,0.1492, 0.1482, 0.1484, 0.1483,0.1483,-0.6032171581769497
MultiSource/Benchmarks/MiBench/security-rijndael/security-rijndael, 0.3923, 0.3929, 0.3929,0.3929, 0.3901, 0.3907, 0.3903,0.3903,-0.6617459913464074
SingleSource/Benchmarks/Shootout-C++/lists, 0.1610, 0.1609, 0.1604,0.1609, 0.1598, 0.1596, 0.1600,0.1598,-0.6836544437538783
SingleSource/Benchmarks/Misc-C++/bigfib, 0.4414, 0.4424, 0.4552,0.4424, 0.4381, 0.4395, 0.4393,0.4393,-0.7007233273056079
MultiSource/Benchmarks/MiBench/automotive-susan/automotive-susan, 0.6331, 0.6383, 0.6404,0.6383, 0.6366, 0.6337, 0.6319,0.6337,-0.7206642644524419
MultiSource/Benchmarks/ASC_Sequoia/AMGmk/AMGmk, 0.5833, 0.5811, 0.5775,0.5811, 0.5801, 0.5764, 0.5759,0.5764,-0.808810875924959
MultiSource/Benchmarks/VersaBench/dbms/dbms, 0.9203, 0.9415, 0.9315,0.9315, 0.9427, 0.9234, 0.9211,0.9234,-0.8695652173912993
MultiSource/Benchmarks/VersaBench/beamformer/beamformer, 0.3020, 0.3081, 0.3100,0.3081, 0.3121, 0.3047, 0.3051,0.3051,-0.9737098344693274
SingleSource/Benchmarks/Misc-C++-EH/spirit, 3.5765, 3.6039, 3.5727,3.5765, 3.5508, 3.5222, 3.5400,3.54,-1.0205508178386613
SingleSource/Benchmarks/Misc-C++/oopack_v1p8, 0.1268, 0.1295, 0.1259,0.1268, 0.1246, 0.1260, 0.1255,0.1255,-1.0252365930599305
MultiSource/Benchmarks/FreeBench/pcompress2/pcompress2, 0.2466, 0.2438, 0.2465,0.2465, 0.2435, 0.2504, 0.2430,0.2435,-1.2170385395537497
SingleSource/Benchmarks/Shootout-C++/hash, 0.2694, 0.2697, 0.2686,0.2694, 0.2665, 0.2657, 0.2659,0.2659,-1.2991833704528388
SingleSource/Benchmarks/CoyoteBench/huffbench, 0.0837, 0.0836, 0.0837,0.0837, 0.0826, 0.0825, 0.0826,0.0826,-1.3142174432496878
SingleSource/Benchmarks/Adobe-C++/functionobjects, 0.4526, 0.4520, 0.4519,0.452, 0.4455, 0.4463, 0.4457,0.4457,-1.3938053097345193
MultiSource/Benchmarks/McCat/09-vor/vor, 0.2651, 0.2647, 0.2649,0.2649, 0.2613, 0.2609, 0.2612,0.2612,-1.3967534918837399
SingleSource/Benchmarks/Misc-C++/stepanov_v1p2, 0.1704, 0.1700, 0.1703,0.1703, 0.1672, 0.1671, 0.1672,0.1672,-1.8203170874926733
SingleSource/Benchmarks/Shootout-C++/moments, 0.2441, 0.2436, 0.2442,0.2441, 0.2360, 0.2364, 0.2370,0.2364,-3.1544448996313035
SingleSource/Benchmarks/Adobe-C++/stepanov_abstraction, 0.6047, 0.6091, 0.6049,0.6049, 0.5740, 0.5758, 0.5761,0.5758,-4.810712514465198
SingleSource/Benchmarks/Shootout-C++/hash2, 0.3288, 0.3301, 0.3370,0.3301, 0.3091, 0.3283, 0.3136,0.3136,-4.99848530748258
SingleSource/Benchmarks/Misc-C++/stepanov_container, 0.7024, 0.6892, 0.6867,0.6892, 0.6457, 0.6588, 0.6476,0.6476,-6.035983749274532
MultiSource/Benchmarks/Olden/voronoi/voronoi, 0.2349, 0.2349, 0.2349,0.2349, 0.2099, 0.2099, 0.2097,0.2099,-10.642826734780753
SingleSource/Benchmarks/Adobe-C++/stepanov_vector, 0.7304, 0.7314, 0.7294,0.7304, 0.6188, 0.6162, 0.6178,0.6178,-15.416210295728373
SingleSource/Benchmarks/Misc/mandel-2, 0.0553, 0.0527, 0.0501,0.0527, 0.0309, 0.0308, 0.0309,0.0309,-41.3662239089184
Total elapsed time,-,-,-,362.8894000000005,-,-,-,363.2386999999996,0.09625522266538677
Total failure,-,-,-,0,-,-,-,0,
Geom. avg slowdown,,,,,,,,,-0.165050704631%
