Benchmarks,/mnt/freezedisk/llvm-intptr-base-5.0-release/bin/clang,/mnt/freezedisk/llvm-intptr-base-5.0-release/bin/clang,/mnt/freezedisk/llvm-intptr-base-5.0-release/bin/clang,median,/mnt/freezedisk/llvm-intptr-insts-5.0-release/bin/clang,/mnt/freezedisk/llvm-intptr-insts-5.0-release/bin/clang,/mnt/freezedisk/llvm-intptr-insts-5.0-release/bin/clang,median
MultiSource/Applications/ALAC/decode/alacconvert-decode, 0.9340, 0.9356, 0.9337,0.934, 0.9361, 0.9354, 0.9311,0.9354
MultiSource/Applications/ALAC/encode/alacconvert-encode, 0.9229, 0.9235, 0.9222,0.9229, 0.9238, 0.9233, 0.9219,0.9233
MultiSource/Applications/ClamAV/clamscan,14.2364,14.2558,14.2457,14.2457,14.1976,14.2124,14.1923,14.1976
MultiSource/Applications/JM/ldecod/ldecod, 6.2299, 6.2295, 6.2276,6.2295, 6.2121, 6.2252, 6.2133,6.2133
MultiSource/Applications/JM/lencod/lencod,14.6309,14.6229,14.6109,14.6229,14.6149,14.6255,14.5863,14.6149
MultiSource/Applications/SIBsim4/SIBsim4, 1.1360, 1.1361, 1.1358,1.136, 1.1333, 1.1331, 1.1333,1.1333
MultiSource/Applications/SPASS/SPASS,12.0595,12.0593,12.0540,12.0593,11.9931,11.9839,11.9665,11.9839
MultiSource/Applications/aha/aha, 0.1024, 0.1016, 0.1011,0.1016, 0.1059, 0.1033, 0.0984,0.1033
MultiSource/Applications/d/make_dparser, 2.5747, 2.5765, 2.5755,2.5755, 2.5908, 2.5788, 2.5793,2.5793
MultiSource/Applications/hbd/hbd, 1.1683, 1.1715, 1.1674,1.1683, 1.1591, 1.1660, 1.1593,1.1593
MultiSource/Applications/hexxagon/hexxagon, 0.6553, 0.6579, 0.6558,0.6558, 0.6535, 0.6539, 0.6525,0.6535
MultiSource/Applications/kimwitu++/kc,10.9953,11.0139,11.0106,11.0106,10.9583,10.9617,10.9478,10.9583
MultiSource/Applications/lambda-0.1.3/lambda, 0.5712, 0.5449, 0.5439,0.5449, 0.5631, 0.5662, 0.5424,0.5631
MultiSource/Applications/lua/lua, 3.1828, 3.1866, 3.1769,3.1828, 3.1841, 3.1869, 3.1791,3.1841
MultiSource/Applications/minisat/minisat, 0.6059, 0.6097, 0.5994,0.6059, 0.6072, 0.6008, 0.6018,0.6018
MultiSource/Applications/obsequi/Obsequi, 0.9460, 0.9530, 0.9593,0.953, 0.9493, 0.9486, 0.9591,0.9493
MultiSource/Applications/oggenc/oggenc, 4.8087, 4.7926, 4.8026,4.8026, 4.7993, 4.7942, 4.7898,4.7942
MultiSource/Applications/sgefa/sgefa, 0.3836, 0.3836, 0.3830,0.3836, 0.3835, 0.3834, 0.3828,0.3834
MultiSource/Applications/siod/siod, 1.9353, 1.9376, 1.9455,1.9376, 1.9234, 1.9301, 1.9752,1.9301
MultiSource/Applications/spiff/spiff, 0.7330, 0.7287, 0.7309,0.7309, 0.7338, 0.7294, 0.7278,0.7294
MultiSource/Applications/sqlite3/sqlite3,14.5631,14.5803,14.5780,14.578,14.6761,14.6652,14.6369,14.6652
MultiSource/Applications/viterbi/viterbi, 0.1623, 0.1620, 0.1622,0.1622, 0.1626, 0.1626, 0.1625,0.1626
MultiSource/Benchmarks/7zip/7zip-benchmark,33.4213,33.4405,33.4126,33.4213,33.4627,33.4681,33.4159,33.4627
MultiSource/Benchmarks/ASCI_Purple/SMG2000/smg2000, 5.5712, 5.5506, 5.5630,5.563, 5.5874, 5.5779, 5.5652,5.5779
MultiSource/Benchmarks/ASC_Sequoia/AMGmk/AMGmk, 0.5833, 0.5811, 0.5775,0.5811, 0.5800, 0.5813, 0.5781,0.58
MultiSource/Benchmarks/ASC_Sequoia/CrystalMk/CrystalMk, 0.2137, 0.2132, 0.2131,0.2132, 0.2141, 0.2141, 0.2141,0.2141
MultiSource/Benchmarks/ASC_Sequoia/IRSmk/IRSmk, 0.0989, 0.0989, 0.0987,0.0989, 0.0989, 0.0987, 0.0986,0.0987
MultiSource/Benchmarks/BitBench/drop3/drop3, 0.0417, 0.0417, 0.0416,0.0417, 0.0416, 0.0417, 0.0415,0.0416
MultiSource/Benchmarks/BitBench/five11/five11, 0.0525, 0.0525, 0.0524,0.0525, 0.0525, 0.0524, 0.0524,0.0524
MultiSource/Benchmarks/BitBench/uudecode/uudecode, 0.0425, 0.0424, 0.0423,0.0424, 0.0423, 0.0425, 0.0423,0.0423
MultiSource/Benchmarks/BitBench/uuencode/uuencode, 0.0417, 0.0415, 0.0416,0.0416, 0.0419, 0.0418, 0.0417,0.0418
MultiSource/Benchmarks/Bullet/bullet,22.7947,22.7656,22.7647,22.7656,22.7349,22.7124,22.6961,22.7124
MultiSource/Benchmarks/DOE-ProxyApps-C++/CLAMR/CLAMR,17.8268,17.8052,17.8187,17.8187,17.7528,17.7621,17.7375,17.7528
MultiSource/Benchmarks/DOE-ProxyApps-C++/HPCCG/HPCCG, 1.3850, 1.3834, 1.3838,1.3838, 1.4068, 1.4069, 1.4050,1.4068
MultiSource/Benchmarks/DOE-ProxyApps-C++/PENNANT/PENNANT, 4.0357, 4.0390, 4.0341,4.0357, 4.0470, 4.0453, 4.0416,4.0453
MultiSource/Benchmarks/DOE-ProxyApps-C++/miniFE/miniFE, 2.5495, 2.5492, 2.5478,2.5492, 2.6626, 2.6658, 2.6612,2.6626
MultiSource/Benchmarks/DOE-ProxyApps-C/Pathfinder/PathFinder, 0.7995, 0.7965, 0.7953,0.7965, 0.8005, 0.7944, 0.7939,0.7944
MultiSource/Benchmarks/DOE-ProxyApps-C/RSBench/rsbench, 0.3929, 0.3918, 0.3912,0.3918, 0.3969, 0.3942, 0.3947,0.3947
MultiSource/Benchmarks/DOE-ProxyApps-C/SimpleMOC/SimpleMOC, 0.8434, 0.8427, 0.8431,0.8431, 0.8486, 0.8502, 0.8469,0.8486
MultiSource/Benchmarks/DOE-ProxyApps-C/XSBench/XSBench, 0.3400, 0.3392, 0.3393,0.3393, 0.3441, 0.3443, 0.3435,0.3441
MultiSource/Benchmarks/DOE-ProxyApps-C/miniAMR/miniAMR, 1.3190, 1.3192, 1.3193,1.3192, 1.3195, 1.3194, 1.3189,1.3194
MultiSource/Benchmarks/DOE-ProxyApps-C/miniGMG/miniGMG, 0.9584, 0.9580, 0.9586,0.9584, 0.9589, 0.9585, 0.9585,0.9585
MultiSource/Benchmarks/Fhourstones-3.1/fhourstones3.1, 0.1146, 0.1145, 0.1144,0.1145, 0.1151, 0.1150, 0.1147,0.115
MultiSource/Benchmarks/Fhourstones/fhourstones, 0.1558, 0.1553, 0.1555,0.1555, 0.1557, 0.1558, 0.1554,0.1557
MultiSource/Benchmarks/FreeBench/analyzer/analyzer, 0.2301, 0.2297, 0.2299,0.2299, 0.2326, 0.2324, 0.2319,0.2324
MultiSource/Benchmarks/FreeBench/distray/distray, 0.0919, 0.0918, 0.0918,0.0918, 0.0919, 0.0919, 0.0918,0.0919
MultiSource/Benchmarks/FreeBench/fourinarow/fourinarow, 0.3345, 0.3341, 0.3345,0.3345, 0.3343, 0.3329, 0.3334,0.3334
MultiSource/Benchmarks/FreeBench/mason/mason, 0.0485, 0.0483, 0.0484,0.0484, 0.0485, 0.0486, 0.0484,0.0485
MultiSource/Benchmarks/FreeBench/neural/neural, 0.1741, 0.1742, 0.1744,0.1742, 0.1744, 0.1748, 0.1739,0.1744
MultiSource/Benchmarks/FreeBench/pcompress2/pcompress2, 0.2466, 0.2438, 0.2465,0.2465, 0.2482, 0.2413, 0.2460,0.246
MultiSource/Benchmarks/FreeBench/pifft/pifft, 0.9149, 0.9150, 0.9157,0.915, 0.9171, 0.9172, 0.9160,0.9171
MultiSource/Benchmarks/MallocBench/cfrac/cfrac, 0.8411, 0.8453, 0.8361,0.8411, 0.8450, 0.8430, 0.8408,0.843
MultiSource/Benchmarks/MallocBench/espresso/espresso, 4.5032, 4.5013, 4.5052,4.5032, 4.5140, 4.5121, 4.5042,4.5121
MultiSource/Benchmarks/MallocBench/gs/gs, 3.6434, 3.6384, 3.6404,3.6404, 3.6479, 3.6411, 3.6353,3.6411
MultiSource/Benchmarks/McCat/01-qbsort/qbsort, 0.0978, 0.0954, 0.1009,0.0978, 0.1049, 0.1047, 0.0960,0.1047
MultiSource/Benchmarks/McCat/03-testtrie/testtrie, 0.0870, 0.0868, 0.0869,0.0869, 0.0872, 0.0870, 0.0870,0.087
MultiSource/Benchmarks/McCat/04-bisect/bisect, 0.1246, 0.1243, 0.1241,0.1243, 0.1248, 0.1248, 0.1246,0.1248
MultiSource/Benchmarks/McCat/05-eks/eks, 0.5082, 0.5066, 0.5075,0.5075, 0.5085, 0.5081, 0.5078,0.5081
MultiSource/Benchmarks/McCat/08-main/main, 0.2318, 0.2318, 0.2318,0.2318, 0.2322, 0.2319, 0.2318,0.2319
MultiSource/Benchmarks/McCat/09-vor/vor, 0.2651, 0.2647, 0.2649,0.2649, 0.2610, 0.2606, 0.2606,0.2606
MultiSource/Benchmarks/McCat/12-IOtest/iotest, 0.0888, 0.0889, 0.0887,0.0888, 0.0890, 0.0893, 0.0891,0.0891
MultiSource/Benchmarks/McCat/17-bintr/bintr, 0.0671, 0.0669, 0.0668,0.0669, 0.0672, 0.0671, 0.0671,0.0671
MultiSource/Benchmarks/McCat/18-imp/imp, 0.3218, 0.3221, 0.3221,0.3221, 0.3214, 0.3218, 0.3207,0.3214
MultiSource/Benchmarks/MiBench/automotive-basicmath/automotive-basicmath, 0.1392, 0.1388, 0.1390,0.139, 0.1390, 0.1388, 0.1383,0.1388
MultiSource/Benchmarks/MiBench/automotive-bitcount/automotive-bitcount, 0.2447, 0.2441, 0.2445,0.2445, 0.2456, 0.2453, 0.2447,0.2453
MultiSource/Benchmarks/MiBench/automotive-susan/automotive-susan, 0.6331, 0.6383, 0.6404,0.6383, 0.6406, 0.6315, 0.6295,0.6315
MultiSource/Benchmarks/MiBench/consumer-jpeg/consumer-jpeg, 4.3415, 4.3409, 4.3388,4.3409, 4.3358, 4.3360, 4.3389,4.336
MultiSource/Benchmarks/MiBench/consumer-lame/consumer-lame, 3.8825, 3.8817, 3.8816,3.8817, 3.8956, 3.8981, 3.8913,3.8956
MultiSource/Benchmarks/MiBench/consumer-typeset/consumer-typeset, 9.6940, 9.6975, 9.7000,9.6975, 9.6695, 9.6565, 9.6496,9.6565
MultiSource/Benchmarks/MiBench/network-dijkstra/network-dijkstra, 0.0408, 0.0406, 0.0407,0.0407, 0.0407, 0.0408, 0.0408,0.0408
MultiSource/Benchmarks/MiBench/network-patricia/network-patricia, 0.0836, 0.0864, 0.0858,0.0858, 0.0795, 0.0894, 0.0889,0.0889
MultiSource/Benchmarks/MiBench/security-rijndael/security-rijndael, 0.3923, 0.3929, 0.3929,0.3929, 0.3888, 0.3887, 0.3883,0.3887
MultiSource/Benchmarks/MiBench/security-sha/security-sha, 0.1145, 0.1144, 0.1141,0.1144, 0.1144, 0.1144, 0.1141,0.1144
MultiSource/Benchmarks/MiBench/telecomm-CRC32/telecomm-CRC32, 0.0339, 0.0338, 0.0338,0.0338, 0.0340, 0.0340, 0.0339,0.034
MultiSource/Benchmarks/MiBench/telecomm-FFT/telecomm-fft, 0.1356, 0.1355, 0.1355,0.1355, 0.1362, 0.1359, 0.1357,0.1359
MultiSource/Benchmarks/MiBench/telecomm-adpcm/telecomm-adpcm, 0.0531, 0.0530, 0.0529,0.053, 0.0532, 0.0533, 0.0531,0.0532
MultiSource/Benchmarks/MiBench/telecomm-gsm/telecomm-gsm, 1.0120, 1.0060, 1.0114,1.0114, 1.0054, 1.0093, 1.0087,1.0087
MultiSource/Benchmarks/NPB-serial/is/is, 0.0631, 0.0630, 0.0630,0.063, 0.0635, 0.0633, 0.0632,0.0633
MultiSource/Benchmarks/Olden/bh/bh, 0.2495, 0.2497, 0.2499,0.2497, 0.2499, 0.2499, 0.2491,0.2499
MultiSource/Benchmarks/Olden/bisort/bisort, 0.0609, 0.0609, 0.0608,0.0609, 0.0612, 0.0611, 0.0610,0.0611
MultiSource/Benchmarks/Olden/em3d/em3d, 0.1699, 0.1693, 0.1695,0.1695, 0.1697, 0.1695, 0.1693,0.1695
MultiSource/Benchmarks/Olden/health/health, 0.1319, 0.1314, 0.1316,0.1316, 0.1324, 0.1321, 0.1322,0.1322
MultiSource/Benchmarks/Olden/mst/mst, 0.1169, 0.1164, 0.1165,0.1165, 0.1203, 0.1201, 0.1202,0.1202
MultiSource/Benchmarks/Olden/perimeter/perimeter, 0.0742, 0.0742, 0.0741,0.0742, 0.0741, 0.0743, 0.0742,0.0742
MultiSource/Benchmarks/Olden/power/power, 0.1233, 0.1234, 0.1232,0.1233, 0.1235, 0.1235, 0.1233,0.1235
MultiSource/Benchmarks/Olden/treeadd/treeadd, 0.0521, 0.0520, 0.0520,0.052, 0.0522, 0.0520, 0.0522,0.0522
MultiSource/Benchmarks/Olden/tsp/tsp, 0.1229, 0.1225, 0.1226,0.1226, 0.1222, 0.1219, 0.1219,0.1219
MultiSource/Benchmarks/Olden/voronoi/voronoi, 0.2349, 0.2349, 0.2349,0.2349, 0.2113, 0.2112, 0.2107,0.2112
MultiSource/Benchmarks/PAQ8p/paq8p, 1.8882, 1.8919, 1.8950,1.8919, 1.8891, 1.8843, 1.8820,1.8843
MultiSource/Benchmarks/Prolangs-C++/city/city, 0.8922, 0.8920, 0.8925,0.8922, 0.8902, 0.8902, 0.8887,0.8902
MultiSource/Benchmarks/Prolangs-C++/employ/employ, 0.1975, 0.1978, 0.1973,0.1975, 0.1972, 0.1975, 0.1976,0.1975
MultiSource/Benchmarks/Prolangs-C++/life/life, 0.0581, 0.0581, 0.0581,0.0581, 0.0582, 0.0584, 0.0583,0.0583
MultiSource/Benchmarks/Prolangs-C++/ocean/ocean, 0.1064, 0.1064, 0.1064,0.1064, 0.1067, 0.1064, 0.1065,0.1065
MultiSource/Benchmarks/Prolangs-C++/primes/primes, 0.0239, 0.0238, 0.0238,0.0238, 0.0238, 0.0239, 0.0239,0.0239
MultiSource/Benchmarks/Prolangs-C++/simul/simul, 0.0514, 0.0511, 0.0516,0.0514, 0.0515, 0.0517, 0.0517,0.0517
MultiSource/Benchmarks/Prolangs-C/agrep/agrep, 1.3141, 1.3183, 1.3114,1.3141, 1.3195, 1.3187, 1.3096,1.3187
MultiSource/Benchmarks/Prolangs-C/bison/mybison, 1.5772, 1.5772, 1.5762,1.5772, 1.5803, 1.5804, 1.5778,1.5803
MultiSource/Benchmarks/Prolangs-C/gnugo/gnugo, 0.6955, 0.6939, 0.6938,0.6939, 0.6966, 0.6964, 0.6959,0.6964
MultiSource/Benchmarks/Ptrdist/anagram/anagram, 0.0981, 0.0980, 0.0979,0.098, 0.0974, 0.0976, 0.0974,0.0974
MultiSource/Benchmarks/Ptrdist/bc/bc, 0.9888, 0.9885, 0.9891,0.9888, 0.9898, 0.9897, 0.9879,0.9897
MultiSource/Benchmarks/Ptrdist/ft/ft, 0.2004, 0.2004, 0.2006,0.2004, 0.2004, 0.2002, 0.2000,0.2002
MultiSource/Benchmarks/Ptrdist/ks/ks, 0.1413, 0.1414, 0.1410,0.1413, 0.1413, 0.1412, 0.1408,0.1412
MultiSource/Benchmarks/Ptrdist/yacr2/yacr2, 0.5918, 0.5915, 0.5910,0.5915, 0.5923, 0.5916, 0.5907,0.5916
MultiSource/Benchmarks/SciMark2-C/scimark2, 0.3563, 0.3560, 0.3554,0.356, 0.3579, 0.3570, 0.3568,0.357
MultiSource/Benchmarks/TSVC/ControlFlow-dbl/ControlFlow-dbl, 2.1298, 2.1484, 2.1293,2.1298, 2.1302, 2.1282, 2.1271,2.1282
MultiSource/Benchmarks/TSVC/ControlFlow-flt/ControlFlow-flt, 1.7957, 1.8013, 1.7921,1.7957, 1.7912, 1.7925, 1.7926,1.7925
MultiSource/Benchmarks/TSVC/ControlLoops-dbl/ControlLoops-dbl, 2.0432, 2.0424, 2.0402,2.0424, 2.0432, 2.0167, 2.0455,2.0432
MultiSource/Benchmarks/TSVC/ControlLoops-flt/ControlLoops-flt, 1.7054, 1.7024, 1.7019,1.7024, 1.7030, 1.7031, 1.7053,1.7031
MultiSource/Benchmarks/TSVC/CrossingThresholds-dbl/CrossingThresholds-dbl, 1.9979, 1.9951, 1.9954,1.9954, 1.9890, 1.9901, 1.9902,1.9901
MultiSource/Benchmarks/TSVC/CrossingThresholds-flt/CrossingThresholds-flt, 1.6611, 1.6632, 1.6603,1.6611, 1.6669, 1.6581, 1.6567,1.6581
MultiSource/Benchmarks/TSVC/Equivalencing-dbl/Equivalencing-dbl, 2.0037, 2.0015, 2.0034,2.0034, 1.9983, 1.9856, 1.9986,1.9983
MultiSource/Benchmarks/TSVC/Equivalencing-flt/Equivalencing-flt, 1.6673, 1.6681, 1.6667,1.6673, 1.6699, 1.6643, 1.6686,1.6686
MultiSource/Benchmarks/TSVC/Expansion-dbl/Expansion-dbl, 2.0348, 2.0361, 2.0358,2.0358, 2.0410, 2.0382, 2.0401,2.0401
MultiSource/Benchmarks/TSVC/Expansion-flt/Expansion-flt, 1.6988, 1.7002, 1.7011,1.7002, 1.7079, 1.7084, 1.7033,1.7079
MultiSource/Benchmarks/TSVC/GlobalDataFlow-dbl/GlobalDataFlow-dbl, 2.0243, 2.0231, 2.0247,2.0243, 2.0281, 2.0270, 2.0241,2.027
MultiSource/Benchmarks/TSVC/GlobalDataFlow-flt/GlobalDataFlow-flt, 1.6937, 1.6968, 1.6931,1.6937, 1.6982, 1.7012, 1.6931,1.6982
MultiSource/Benchmarks/TSVC/IndirectAddressing-dbl/IndirectAddressing-dbl, 1.9796, 1.9766, 1.9812,1.9796, 1.9965, 1.9879, 1.9948,1.9948
MultiSource/Benchmarks/TSVC/IndirectAddressing-flt/IndirectAddressing-flt, 1.6493, 1.6465, 1.6459,1.6465, 1.6448, 1.6514, 1.6450,1.645
MultiSource/Benchmarks/TSVC/InductionVariable-dbl/InductionVariable-dbl, 2.0148, 2.0120, 2.0116,2.012, 1.9801, 2.0039, 2.0017,2.0017
MultiSource/Benchmarks/TSVC/InductionVariable-flt/InductionVariable-flt, 1.6721, 1.6716, 1.6733,1.6721, 1.6776, 1.6795, 1.6804,1.6795
MultiSource/Benchmarks/TSVC/LinearDependence-dbl/LinearDependence-dbl, 2.0478, 2.0549, 2.0516,2.0516, 2.0540, 2.0521, 2.0509,2.0521
MultiSource/Benchmarks/TSVC/LinearDependence-flt/LinearDependence-flt, 1.7305, 1.7282, 1.7243,1.7282, 1.7271, 1.7330, 1.7294,1.7294
MultiSource/Benchmarks/TSVC/LoopRerolling-dbl/LoopRerolling-dbl, 1.9593, 1.9452, 1.9558,1.9558, 1.9585, 1.9595, 1.9582,1.9585
MultiSource/Benchmarks/TSVC/LoopRerolling-flt/LoopRerolling-flt, 1.6242, 1.6263, 1.6198,1.6242, 1.6303, 1.6283, 1.6292,1.6292
MultiSource/Benchmarks/TSVC/LoopRestructuring-dbl/LoopRestructuring-dbl, 2.0043, 2.0127, 2.0058,2.0058, 2.0091, 2.0078, 2.0062,2.0078
MultiSource/Benchmarks/TSVC/LoopRestructuring-flt/LoopRestructuring-flt, 1.6725, 1.6705, 1.6781,1.6725, 1.6745, 1.6759, 1.6789,1.6759
MultiSource/Benchmarks/TSVC/NodeSplitting-dbl/NodeSplitting-dbl, 1.9784, 1.9525, 1.9796,1.9784, 1.9794, 1.9791, 1.9769,1.9791
MultiSource/Benchmarks/TSVC/NodeSplitting-flt/NodeSplitting-flt, 1.6419, 1.6352, 1.6459,1.6419, 1.6423, 1.6436, 1.6416,1.6423
MultiSource/Benchmarks/TSVC/Packing-dbl/Packing-dbl, 1.9292, 1.9505, 1.9514,1.9505, 1.9469, 1.9453, 1.9453,1.9453
MultiSource/Benchmarks/TSVC/Packing-flt/Packing-flt, 1.6237, 1.6196, 1.6140,1.6196, 1.6131, 1.6137, 1.6113,1.6131
MultiSource/Benchmarks/TSVC/Recurrences-dbl/Recurrences-dbl, 1.9472, 1.9529, 1.9489,1.9489, 1.9507, 1.9513, 1.9510,1.951
MultiSource/Benchmarks/TSVC/Recurrences-flt/Recurrences-flt, 1.6142, 1.6137, 1.6142,1.6142, 1.6116, 1.6119, 1.6148,1.6119
MultiSource/Benchmarks/TSVC/Reductions-dbl/Reductions-dbl, 2.0416, 2.0413, 2.0388,2.0413, 2.0481, 2.0444, 2.0461,2.0461
MultiSource/Benchmarks/TSVC/Reductions-flt/Reductions-flt, 1.7099, 1.7063, 1.7110,1.7099, 1.7172, 1.7170, 1.7155,1.717
MultiSource/Benchmarks/TSVC/Searching-dbl/Searching-dbl, 1.9374, 1.9364, 1.9347,1.9364, 1.9348, 1.9346, 1.9370,1.9348
MultiSource/Benchmarks/TSVC/Searching-flt/Searching-flt, 1.6016, 1.6040, 1.6013,1.6016, 1.6038, 1.6028, 1.6017,1.6028
MultiSource/Benchmarks/TSVC/StatementReordering-dbl/StatementReordering-dbl, 1.9611, 1.9493, 1.9503,1.9503, 1.9525, 1.9506, 1.9471,1.9506
MultiSource/Benchmarks/TSVC/StatementReordering-flt/StatementReordering-flt, 1.6146, 1.6241, 1.6141,1.6146, 1.6228, 1.6219, 1.6191,1.6219
MultiSource/Benchmarks/TSVC/Symbolics-dbl/Symbolics-dbl, 1.9919, 1.9862, 1.9879,1.9879, 1.9959, 1.9938, 1.9952,1.9952
MultiSource/Benchmarks/TSVC/Symbolics-flt/Symbolics-flt, 1.6556, 1.6603, 1.6529,1.6556, 1.6525, 1.6536, 1.6535,1.6535
MultiSource/Benchmarks/Trimaran/enc-3des/enc-3des, 0.2373, 0.2374, 0.2369,0.2373, 0.2362, 0.2361, 0.2357,0.2361
MultiSource/Benchmarks/Trimaran/enc-md5/enc-md5, 0.1472, 0.1471, 0.1471,0.1471, 0.1472, 0.1471, 0.1472,0.1472
MultiSource/Benchmarks/Trimaran/enc-pc1/enc-pc1, 0.0633, 0.0631, 0.0632,0.0632, 0.0634, 0.0634, 0.0631,0.0634
MultiSource/Benchmarks/Trimaran/enc-rc4/enc-rc4, 0.0484, 0.0484, 0.0483,0.0484, 0.0486, 0.0485, 0.0484,0.0485
MultiSource/Benchmarks/Trimaran/netbench-crc/netbench-crc, 0.0745, 0.0741, 0.0744,0.0744, 0.0746, 0.0746, 0.0748,0.0746
MultiSource/Benchmarks/Trimaran/netbench-url/netbench-url, 0.1999, 0.1992, 0.2000,0.1999, 0.2006, 0.1999, 0.1999,0.1999
MultiSource/Benchmarks/VersaBench/8b10b/8b10b, 0.0708, 0.0705, 0.0706,0.0706, 0.0710, 0.0710, 0.0708,0.071
MultiSource/Benchmarks/VersaBench/beamformer/beamformer, 0.3020, 0.3081, 0.3100,0.3081, 0.3117, 0.2993, 0.3078,0.3078
MultiSource/Benchmarks/VersaBench/bmm/bmm, 0.0496, 0.0495, 0.0494,0.0495, 0.0496, 0.0496, 0.0495,0.0496
MultiSource/Benchmarks/VersaBench/dbms/dbms, 0.9203, 0.9415, 0.9315,0.9315, 0.9449, 0.9043, 0.9324,0.9324
MultiSource/Benchmarks/VersaBench/ecbdes/ecbdes, 0.2053, 0.2054, 0.2052,0.2053, 0.2057, 0.2057, 0.2052,0.2057
MultiSource/Benchmarks/llubenchmark/llu, 0.0457, 0.0458, 0.0457,0.0457, 0.0461, 0.0459, 0.0459,0.0459
MultiSource/Benchmarks/mafft/pairlocalalign, 8.6469, 8.6488, 8.6447,8.6469, 8.6181, 8.6180, 8.6088,8.618
MultiSource/Benchmarks/mediabench/adpcm/rawcaudio/rawcaudio, 0.0534, 0.0533, 0.0533,0.0533, 0.0534, 0.0534, 0.0535,0.0534
MultiSource/Benchmarks/mediabench/adpcm/rawdaudio/rawdaudio, 0.0532, 0.0531, 0.0532,0.0532, 0.0534, 0.0532, 0.0533,0.0533
MultiSource/Benchmarks/mediabench/g721/g721encode/encode, 0.1883, 0.1881, 0.1881,0.1881, 0.1886, 0.1886, 0.1887,0.1886
MultiSource/Benchmarks/mediabench/gsm/toast/toast, 1.0007, 0.9998, 0.9996,0.9998, 1.0032, 1.0027, 1.0016,1.0027
MultiSource/Benchmarks/mediabench/jpeg/jpeg-6a/cjpeg, 4.3914, 4.3910, 4.3876,4.391, 4.3878, 4.3824, 4.3838,4.3838
MultiSource/Benchmarks/mediabench/mpeg2/mpeg2dec/mpeg2decode, 1.3002, 1.3075, 1.3033,1.3033, 1.3121, 1.3063, 1.3056,1.3063
MultiSource/Benchmarks/nbench/nbench, 1.1022, 1.1048, 1.1034,1.1034, 1.1042, 1.1033, 1.1037,1.1037
MultiSource/Benchmarks/sim/sim, 0.2807, 0.2811, 0.2806,0.2807, 0.2801, 0.2807, 0.2801,0.2801
MultiSource/Benchmarks/tramp3d-v4/tramp3d-v4,19.9512,19.9657,19.9427,19.9512,19.7975,19.7643,19.7638,19.7643
SingleSource/Benchmarks/Adobe-C++/functionobjects, 0.4526, 0.4520, 0.4519,0.452, 0.4456, 0.4464, 0.4446,0.4456
SingleSource/Benchmarks/Adobe-C++/loop_unroll, 4.2995, 4.3144, 4.3039,4.3039, 4.3122, 4.3074, 4.3100,4.31
SingleSource/Benchmarks/Adobe-C++/simple_types_constant_folding, 2.4279, 2.4322, 2.4298,2.4298, 2.4298, 2.4302, 2.4350,2.4302
SingleSource/Benchmarks/Adobe-C++/simple_types_loop_invariant, 1.9672, 1.9705, 1.9637,1.9672, 1.9697, 1.9713, 1.9698,1.9698
SingleSource/Benchmarks/Adobe-C++/stepanov_abstraction, 0.6047, 0.6091, 0.6049,0.6049, 0.5744, 0.5754, 0.5741,0.5744
SingleSource/Benchmarks/Adobe-C++/stepanov_vector, 0.7304, 0.7314, 0.7294,0.7304, 0.6185, 0.6176, 0.6164,0.6176
SingleSource/Benchmarks/BenchmarkGame/Large/fasta, 0.0399, 0.0398, 0.0468,0.0399, 0.0400, 0.0400, 0.0399,0.04
SingleSource/Benchmarks/BenchmarkGame/fannkuch, 0.0504, 0.0502, 0.0502,0.0502, 0.0505, 0.0505, 0.0504,0.0505
SingleSource/Benchmarks/BenchmarkGame/n-body, 0.0696, 0.0695, 0.0695,0.0695, 0.0697, 0.0697, 0.0697,0.0697
SingleSource/Benchmarks/BenchmarkGame/nsieve-bits, 0.0309, 0.0309, 0.0309,0.0309, 0.0310, 0.0310, 0.0310,0.031
SingleSource/Benchmarks/BenchmarkGame/partialsums, 0.0288, 0.0287, 0.0325,0.0288, 0.0288, 0.0287, 0.0288,0.0288
SingleSource/Benchmarks/BenchmarkGame/puzzle, 0.0544, 0.0543, 0.0542,0.0543, 0.0546, 0.0545, 0.0545,0.0545
SingleSource/Benchmarks/BenchmarkGame/recursive, 0.0253, 0.0252, 0.0299,0.0253, 0.0254, 0.0253, 0.0253,0.0253
SingleSource/Benchmarks/BenchmarkGame/spectral-norm, 0.0534, 0.0533, 0.0533,0.0533, 0.0533, 0.0534, 0.0533,0.0533
SingleSource/Benchmarks/CoyoteBench/almabench, 0.0651, 0.0650, 0.0650,0.065, 0.0672, 0.0671, 0.0672,0.0672
SingleSource/Benchmarks/CoyoteBench/fftbench, 0.5466, 0.5400, 0.5535,0.5466, 0.5794, 0.5528, 0.5548,0.5548
SingleSource/Benchmarks/CoyoteBench/huffbench, 0.0837, 0.0836, 0.0837,0.0837, 0.0823, 0.0822, 0.0821,0.0822
SingleSource/Benchmarks/CoyoteBench/lpbench, 0.1494, 0.1492, 0.1488,0.1492, 0.1487, 0.1486, 0.1483,0.1486
SingleSource/Benchmarks/Dhrystone/dry, 0.0397, 0.0397, 0.0398,0.0397, 0.0398, 0.0398, 0.0397,0.0398
SingleSource/Benchmarks/Dhrystone/fldry, 0.0428, 0.0427, 0.0428,0.0428, 0.0429, 0.0430, 0.0429,0.0429
SingleSource/Benchmarks/Linpack/linpack-pc, 0.3047, 0.3042, 0.3043,0.3043, 0.3041, 0.3044, 0.3043,0.3043
SingleSource/Benchmarks/McGill/chomp, 0.1844, 0.1847, 0.1847,0.1847, 0.1852, 0.1847, 0.1847,0.1847
SingleSource/Benchmarks/McGill/misr, 0.0520, 0.0519, 0.0520,0.052, 0.0523, 0.0523, 0.0522,0.0523
SingleSource/Benchmarks/McGill/queens, 0.0436, 0.0434, 0.0434,0.0434, 0.0437, 0.0437, 0.0437,0.0437
SingleSource/Benchmarks/Misc-C++-EH/spirit, 3.5765, 3.6039, 3.5727,3.5765, 3.4993, 3.5038, 3.5009,3.5009
SingleSource/Benchmarks/Misc-C++/Large/ray, 0.2247, 0.2260, 0.2279,0.226, 0.2289, 0.2102, 0.2266,0.2266
SingleSource/Benchmarks/Misc-C++/Large/sphereflake, 0.2193, 0.2189, 0.2191,0.2191, 0.2185, 0.2186, 0.2189,0.2186
SingleSource/Benchmarks/Misc-C++/bigfib, 0.4414, 0.4424, 0.4552,0.4424, 0.4389, 0.4377, 0.4386,0.4386
SingleSource/Benchmarks/Misc-C++/mandel-text, 0.0231, 0.0230, 0.0230,0.023, 0.0231, 0.0231, 0.0230,0.0231
SingleSource/Benchmarks/Misc-C++/oopack_v1p8, 0.1268, 0.1295, 0.1259,0.1268, 0.1262, 0.1231, 0.1266,0.1262
SingleSource/Benchmarks/Misc-C++/stepanov_container, 0.7024, 0.6892, 0.6867,0.6892, 0.6597, 0.6597, 0.6595,0.6597
SingleSource/Benchmarks/Misc-C++/stepanov_v1p2, 0.1704, 0.1700, 0.1703,0.1703, 0.1669, 0.1674, 0.1668,0.1669
SingleSource/Benchmarks/Misc/ReedSolomon, 0.1860, 0.1862, 0.1860,0.186, 0.1867, 0.1864, 0.1863,0.1864
SingleSource/Benchmarks/Misc/dt, 0.0313, 0.0312, 0.0312,0.0312, 0.0313, 0.0312, 0.0312,0.0312
SingleSource/Benchmarks/Misc/evalloop, 0.0351, 0.0351, 0.0351,0.0351, 0.0351, 0.0350, 0.0350,0.035
SingleSource/Benchmarks/Misc/fbench, 0.0525, 0.0525, 0.0524,0.0525, 0.0526, 0.0528, 0.0527,0.0527
SingleSource/Benchmarks/Misc/ffbench, 0.0659, 0.0657, 0.0658,0.0658, 0.0659, 0.0658, 0.0658,0.0658
SingleSource/Benchmarks/Misc/flops, 0.0757, 0.0756, 0.0757,0.0757, 0.0760, 0.0759, 0.0758,0.0759
SingleSource/Benchmarks/Misc/flops-1, 0.0261, 0.0260, 0.0261,0.0261, 0.0260, 0.0260, 0.0260,0.026
SingleSource/Benchmarks/Misc/flops-2, 0.0270, 0.0269, 0.0269,0.0269, 0.0270, 0.0269, 0.0269,0.0269
SingleSource/Benchmarks/Misc/flops-3, 0.0259, 0.0258, 0.0259,0.0259, 0.0259, 0.0259, 0.0258,0.0259
SingleSource/Benchmarks/Misc/flops-4, 0.0264, 0.0262, 0.0264,0.0264, 0.0264, 0.0265, 0.0265,0.0265
SingleSource/Benchmarks/Misc/flops-5, 0.0271, 0.0269, 0.0270,0.027, 0.0270, 0.0269, 0.0269,0.0269
SingleSource/Benchmarks/Misc/flops-6, 0.0270, 0.0269, 0.0269,0.0269, 0.0271, 0.0270, 0.0271,0.0271
SingleSource/Benchmarks/Misc/flops-7, 0.0258, 0.0257, 0.0258,0.0258, 0.0258, 0.0258, 0.0258,0.0258
SingleSource/Benchmarks/Misc/flops-8, 0.0271, 0.0270, 0.0270,0.027, 0.0271, 0.0270, 0.0270,0.027
SingleSource/Benchmarks/Misc/fp-convert, 0.0290, 0.0290, 0.0289,0.029, 0.0291, 0.0291, 0.0290,0.0291
SingleSource/Benchmarks/Misc/himenobmtxpa, 0.1703, 0.1699, 0.1699,0.1699, 0.1745, 0.1748, 0.1746,0.1746
SingleSource/Benchmarks/Misc/lowercase, 0.0242, 0.0241, 0.0241,0.0241, 0.0242, 0.0243, 0.0242,0.0242
SingleSource/Benchmarks/Misc/mandel, 0.0431, 0.0429, 0.0642,0.0431, 0.0429, 0.0427, 0.0428,0.0428
SingleSource/Benchmarks/Misc/mandel-2, 0.0553, 0.0527, 0.0501,0.0527, 0.0524, 0.0307, 0.0523,0.0523
SingleSource/Benchmarks/Misc/matmul_f64_4x4, 0.0272, 0.0271, 0.0272,0.0272, 0.0273, 0.0273, 0.0273,0.0273
SingleSource/Benchmarks/Misc/oourafft, 0.2198, 0.2086, 0.2090,0.209, 0.2091, 0.2085, 0.2091,0.2091
SingleSource/Benchmarks/Misc/perlin, 0.0439, 0.0439, 0.0439,0.0439, 0.0440, 0.0439, 0.0439,0.0439
SingleSource/Benchmarks/Misc/pi, 0.0199, 0.0199, 0.0199,0.0199, 0.0200, 0.0200, 0.0200,0.02
SingleSource/Benchmarks/Misc/revertBits, 0.0244, 0.0244, 0.0243,0.0244, 0.0245, 0.0245, 0.0244,0.0245
SingleSource/Benchmarks/Misc/richards_benchmark, 0.0623, 0.0621, 0.0621,0.0621, 0.0621, 0.0621, 0.0620,0.0621
SingleSource/Benchmarks/Misc/salsa20, 0.0529, 0.0529, 0.0529,0.0529, 0.0531, 0.0531, 0.0532,0.0531
SingleSource/Benchmarks/Misc/whetstone, 0.0660, 0.0660, 0.0658,0.066, 0.0661, 0.0659, 0.0658,0.0659
SingleSource/Benchmarks/Polybench/datamining/correlation/correlation, 0.0748, 0.0748, 0.0749,0.0748, 0.0750, 0.0749, 0.0747,0.0749
SingleSource/Benchmarks/Polybench/datamining/covariance/covariance, 0.0825, 0.0824, 0.0824,0.0824, 0.0826, 0.0824, 0.0822,0.0824
SingleSource/Benchmarks/Polybench/linear-algebra/kernels/atax/atax, 0.0788, 0.0786, 0.0786,0.0786, 0.0788, 0.0790, 0.0788,0.0788
SingleSource/Benchmarks/Polybench/linear-algebra/kernels/bicg/bicg, 0.0774, 0.0773, 0.0772,0.0773, 0.0772, 0.0773, 0.0773,0.0773
SingleSource/Benchmarks/Polybench/linear-algebra/kernels/cholesky/cholesky, 0.0912, 0.0910, 0.0908,0.091, 0.0910, 0.0911, 0.0908,0.091
SingleSource/Benchmarks/Polybench/linear-algebra/kernels/doitgen/doitgen, 0.0958, 0.0958, 0.0959,0.0958, 0.0964, 0.0961, 0.0960,0.0961
SingleSource/Benchmarks/Polybench/linear-algebra/kernels/gemver/gemver, 0.0894, 0.0895, 0.0893,0.0894, 0.0895, 0.0896, 0.0895,0.0895
SingleSource/Benchmarks/Polybench/linear-algebra/kernels/gesummv/gesummv, 0.0659, 0.0659, 0.0660,0.0659, 0.0659, 0.0658, 0.0657,0.0658
SingleSource/Benchmarks/Polybench/linear-algebra/kernels/mvt/mvt, 0.0800, 0.0799, 0.0800,0.08, 0.0798, 0.0798, 0.0798,0.0798
SingleSource/Benchmarks/Polybench/linear-algebra/kernels/symm/symm, 0.0756, 0.0755, 0.0757,0.0756, 0.0756, 0.0756, 0.0754,0.0756
SingleSource/Benchmarks/Polybench/linear-algebra/kernels/syr2k/syr2k, 0.0768, 0.0768, 0.0769,0.0768, 0.0768, 0.0767, 0.0768,0.0768
SingleSource/Benchmarks/Polybench/linear-algebra/kernels/syrk/syrk, 0.0753, 0.0752, 0.0751,0.0752, 0.0755, 0.0753, 0.0752,0.0753
SingleSource/Benchmarks/Polybench/linear-algebra/kernels/trisolv/trisolv, 0.0621, 0.0619, 0.0620,0.062, 0.0624, 0.0623, 0.0621,0.0623
SingleSource/Benchmarks/Polybench/linear-algebra/kernels/trmm/trmm, 0.0710, 0.0710, 0.0710,0.071, 0.0713, 0.0712, 0.0711,0.0712
SingleSource/Benchmarks/Polybench/linear-algebra/solvers/durbin/durbin, 0.0869, 0.0867, 0.0868,0.0868, 0.0866, 0.0869, 0.0865,0.0866
SingleSource/Benchmarks/Polybench/linear-algebra/solvers/dynprog/dynprog, 0.0717, 0.0718, 0.0719,0.0718, 0.0720, 0.0718, 0.0719,0.0719
SingleSource/Benchmarks/Polybench/linear-algebra/solvers/gramschmidt/gramschmidt, 0.1007, 0.1008, 0.1006,0.1007, 0.1010, 0.1008, 0.1006,0.1008
SingleSource/Benchmarks/Polybench/linear-algebra/solvers/lu/lu, 0.0884, 0.0881, 0.0880,0.0881, 0.0886, 0.0886, 0.0885,0.0886
SingleSource/Benchmarks/Polybench/medley/floyd-warshall/floyd-warshall, 0.0741, 0.0741, 0.0857,0.0741, 0.0745, 0.0744, 0.0742,0.0744
SingleSource/Benchmarks/Polybench/medley/reg_detect/reg_detect, 0.4178, 0.4181, 0.4177,0.4178, 0.4188, 0.4190, 0.4185,0.4188
SingleSource/Benchmarks/Polybench/stencils/adi/adi, 0.0889, 0.0888, 0.0886,0.0888, 0.0893, 0.0890, 0.0887,0.089
SingleSource/Benchmarks/Polybench/stencils/fdtd-2d/fdtd-2d, 0.1368, 0.1369, 0.1368,0.1368, 0.1368, 0.1362, 0.1366,0.1366
SingleSource/Benchmarks/Polybench/stencils/fdtd-apml/fdtd-apml, 0.1299, 0.1298, 0.1298,0.1298, 0.1301, 0.1300, 0.1302,0.1301
SingleSource/Benchmarks/Polybench/stencils/jacobi-1d-imper/jacobi-1d-imper, 0.0824, 0.0825, 0.0825,0.0825, 0.0829, 0.0828, 0.0827,0.0828
SingleSource/Benchmarks/Polybench/stencils/jacobi-2d-imper/jacobi-2d-imper, 0.1113, 0.1111, 0.1110,0.1111, 0.1119, 0.1119, 0.1118,0.1119
SingleSource/Benchmarks/Polybench/stencils/seidel-2d/seidel-2d, 0.0686, 0.0684, 0.0684,0.0684, 0.0688, 0.0688, 0.0687,0.0688
SingleSource/Benchmarks/Shootout-C++/EH/except, 0.1293, 0.1294, 0.1296,0.1294, 0.1292, 0.1290, 0.1288,0.129
SingleSource/Benchmarks/Shootout-C++/ackermann, 0.1161, 0.1165, 0.1161,0.1161, 0.1158, 0.1162, 0.1156,0.1158
SingleSource/Benchmarks/Shootout-C++/ary, 0.1540, 0.1546, 0.1544,0.1544, 0.1536, 0.1542, 0.1538,0.1538
SingleSource/Benchmarks/Shootout-C++/ary2, 0.1558, 0.1562, 0.1557,0.1558, 0.1556, 0.1556, 0.1553,0.1556
SingleSource/Benchmarks/Shootout-C++/ary3, 0.1576, 0.1582, 0.1576,0.1576, 0.1576, 0.1576, 0.1575,0.1576
SingleSource/Benchmarks/Shootout-C++/fibo, 0.1146, 0.1146, 0.1142,0.1146, 0.1139, 0.1144, 0.1143,0.1143
SingleSource/Benchmarks/Shootout-C++/hash, 0.2694, 0.2697, 0.2686,0.2694, 0.2664, 0.2665, 0.2652,0.2664
SingleSource/Benchmarks/Shootout-C++/hash2, 0.3288, 0.3301, 0.3370,0.3301, 0.3337, 0.3245, 0.3325,0.3325
SingleSource/Benchmarks/Shootout-C++/heapsort, 0.1311, 0.1307, 0.1307,0.1307, 0.1309, 0.1306, 0.1308,0.1308
SingleSource/Benchmarks/Shootout-C++/lists, 0.1610, 0.1609, 0.1604,0.1609, 0.1604, 0.1600, 0.1601,0.1601
SingleSource/Benchmarks/Shootout-C++/lists1, 0.2086, 0.2207, 0.2117,0.2117, 0.2085, 0.2052, 0.2190,0.2085
SingleSource/Benchmarks/Shootout-C++/matrix, 0.1832, 0.1827, 0.1827,0.1827, 0.1834, 0.1830, 0.1827,0.183
SingleSource/Benchmarks/Shootout-C++/methcall, 0.1245, 0.1246, 0.1245,0.1245, 0.1249, 0.1245, 0.1248,0.1248
SingleSource/Benchmarks/Shootout-C++/moments, 0.2441, 0.2436, 0.2442,0.2441, 0.2368, 0.2375, 0.2374,0.2374
SingleSource/Benchmarks/Shootout-C++/nestedloop, 0.1218, 0.1245, 0.1203,0.1218, 0.1225, 0.1194, 0.1260,0.1225
SingleSource/Benchmarks/Shootout-C++/objinst, 0.1530, 0.1574, 0.1535,0.1535, 0.1595, 0.1563, 0.1647,0.1595
SingleSource/Benchmarks/Shootout-C++/random, 0.1243, 0.1242, 0.1241,0.1242, 0.1244, 0.1244, 0.1242,0.1244
SingleSource/Benchmarks/Shootout-C++/sieve, 0.1840, 0.1839, 0.1843,0.184, 0.1837, 0.1837, 0.1830,0.1837
SingleSource/Benchmarks/Shootout-C++/strcat, 0.1249, 0.1253, 0.1247,0.1249, 0.1251, 0.1252, 0.1255,0.1252
SingleSource/Benchmarks/Shootout/ackermann, 0.0223, 0.0222, 0.0221,0.0222, 0.0224, 0.0223, 0.0223,0.0223
SingleSource/Benchmarks/Shootout/ary3, 0.0333, 0.0332, 0.0333,0.0333, 0.0334, 0.0334, 0.0334,0.0334
SingleSource/Benchmarks/Shootout/fib2, 0.0187, 0.0185, 0.0186,0.0186, 0.0187, 0.0187, 0.0187,0.0187
SingleSource/Benchmarks/Shootout/hash, 0.0500, 0.0499, 0.0499,0.0499, 0.0500, 0.0499, 0.0500,0.05
SingleSource/Benchmarks/Shootout/heapsort, 0.0379, 0.0377, 0.0378,0.0378, 0.0382, 0.0380, 0.0380,0.038
SingleSource/Benchmarks/Shootout/lists, 0.0657, 0.0655, 0.0656,0.0656, 0.0655, 0.0655, 0.0656,0.0655
SingleSource/Benchmarks/Shootout/matrix, 0.0810, 0.0809, 0.0810,0.081, 0.0813, 0.0814, 0.0815,0.0814
SingleSource/Benchmarks/Shootout/methcall, 0.0303, 0.0304, 0.0303,0.0303, 0.0306, 0.0305, 0.0306,0.0306
SingleSource/Benchmarks/Shootout/nestedloop, 0.0230, 0.0229, 0.0229,0.0229, 0.0231, 0.0231, 0.0231,0.0231
SingleSource/Benchmarks/Shootout/objinst, 0.0363, 0.0361, 0.0361,0.0361, 0.0365, 0.0364, 0.0364,0.0364
SingleSource/Benchmarks/Shootout/random, 0.0289, 0.0287, 0.0287,0.0287, 0.0289, 0.0289, 0.0288,0.0289
SingleSource/Benchmarks/Shootout/sieve, 0.0242, 0.0242, 0.0242,0.0242, 0.0244, 0.0243, 0.0243,0.0243
SingleSource/Benchmarks/Shootout/strcat, 0.0262, 0.0261, 0.0261,0.0261, 0.0263, 0.0263, 0.0262,0.0263
SingleSource/Benchmarks/SmallPT/smallpt, 0.0982, 0.0983, 0.0983,0.0983, 0.0983, 0.0982, 0.0981,0.0982
SingleSource/Benchmarks/Stanford/Bubblesort, 0.0327, 0.0326, 0.0326,0.0326, 0.0328, 0.0327, 0.0328,0.0328
SingleSource/Benchmarks/Stanford/FloatMM, 0.0518, 0.0518, 0.0518,0.0518, 0.0520, 0.0519, 0.0520,0.052
SingleSource/Benchmarks/Stanford/Oscar, 0.0613, 0.0611, 0.0612,0.0612, 0.0615, 0.0615, 0.0614,0.0615
SingleSource/Benchmarks/Stanford/Perm, 0.0301, 0.0301, 0.0407,0.0301, 0.0302, 0.0302, 0.0302,0.0302
SingleSource/Benchmarks/Stanford/Puzzle, 0.1087, 0.1087, 0.1086,0.1087, 0.1086, 0.1088, 0.1088,0.1088
SingleSource/Benchmarks/Stanford/Queens, 0.0434, 0.0433, 0.0434,0.0434, 0.0435, 0.0434, 0.0434,0.0434
SingleSource/Benchmarks/Stanford/Quicksort, 0.0361, 0.0361, 0.0442,0.0361, 0.0363, 0.0363, 0.0363,0.0363
SingleSource/Benchmarks/Stanford/RealMM, 0.0489, 0.0490, 0.0489,0.0489, 0.0491, 0.0490, 0.0489,0.049
SingleSource/Benchmarks/Stanford/Towers, 0.0468, 0.0468, 0.0547,0.0468, 0.0469, 0.0469, 0.0469,0.0469
SingleSource/Benchmarks/Stanford/Treesort, 0.0372, 0.0372, 0.0372,0.0372, 0.0373, 0.0372, 0.0371,0.0372
SingleSource/Regression/C/2004-08-12-InlinerAndAllocas, 0.0185, 0.0184, 0.0183,0.0184, 0.0185, 0.0185, 0.0184,0.0185
SingleSource/Regression/C/uint64_to_float, 0.0692, 0.0690, 0.0783,0.0692, 0.0576, 0.0658, 0.0749,0.0658
Total elapsed time,-,-,-,362.8894000000005,-,-,-,362.4088000000001
Total failure,-,-,-,0,-,-,-,0
