Benchmarks,base-5.0,base-5.0,base-5.0,median,insts-5.0,insts-5.0,insts-5.0,median,Slowdown(%)
MultiSource/Benchmarks/DOE-ProxyApps-C++/miniFE/miniFE, 2.3438, 2.3450, 2.3464,2.345, 2.4614, 2.4568, 2.4617,2.4614,4.96375266524518
SingleSource/Benchmarks/Misc-C++/Large/ray, 0.1979, 0.2058, 0.2034,0.2034, 0.2125, 0.2133, 0.2150,0.2133,4.867256637168138
SingleSource/Benchmarks/CoyoteBench/almabench, 0.0614, 0.0613, 0.0613,0.0613, 0.0633, 0.0635, 0.0635,0.0635,3.5889070146818858
MultiSource/Benchmarks/Olden/mst/mst, 0.1128, 0.1141, 0.1143,0.1141, 0.1169, 0.1177, 0.1177,0.1177,3.1551270815074473
SingleSource/Benchmarks/Misc/oourafft, 0.1988, 0.1998, 0.2028,0.1998, 0.2056, 0.2054, 0.2046,0.2054,2.8028028028028062
MultiSource/Benchmarks/DOE-ProxyApps-C++/HPCCG/HPCCG, 1.2896, 1.2908, 1.2958,1.2908, 1.3229, 1.3238, 1.3275,1.3238,2.5565540749922677
MultiSource/Benchmarks/DOE-ProxyApps-C/RSBench/rsbench, 0.3596, 0.3611, 0.3616,0.3611, 0.3686, 0.3701, 0.3705,0.3701,2.492384381057877
SingleSource/Benchmarks/Misc/himenobmtxpa, 0.1576, 0.1573, 0.1578,0.1576, 0.1610, 0.1612, 0.1612,0.1612,2.2842639593908753
SingleSource/Benchmarks/Misc/lowercase, 0.0238, 0.0238, 0.0240,0.0238, 0.0239, 0.0242, 0.0242,0.0242,1.680672268907557
MultiSource/Benchmarks/DOE-ProxyApps-C/XSBench/XSBench, 0.3245, 0.3214, 0.3217,0.3217, 0.3260, 0.3271, 0.3274,0.3271,1.6785825303077484
SingleSource/Benchmarks/Misc/flops-6, 0.0262, 0.0262, 0.0263,0.0262, 0.0264, 0.0266, 0.0268,0.0266,1.5267175572518887
SingleSource/Benchmarks/Misc/flops-5, 0.0264, 0.0262, 0.0263,0.0263, 0.0264, 0.0267, 0.0267,0.0267,1.5209125475285301
SingleSource/Benchmarks/Shootout/random, 0.0281, 0.0280, 0.0282,0.0281, 0.0284, 0.0285, 0.0285,0.0285,1.4234875444839812
SingleSource/Benchmarks/BenchmarkGame/spectral-norm, 0.0504, 0.0504, 0.0505,0.0504, 0.0506, 0.0511, 0.0512,0.0511,1.388888888888884
SingleSource/Benchmarks/CoyoteBench/fftbench, 0.5518, 0.5493, 0.5482,0.5493, 0.5705, 0.5564, 0.5558,0.5564,1.2925541598397983
MultiSource/Benchmarks/FreeBench/analyzer/analyzer, 0.2182, 0.2197, 0.2203,0.2197, 0.2215, 0.2225, 0.2231,0.2225,1.2744651797906181
MultiSource/Benchmarks/Olden/health/health, 0.1263, 0.1272, 0.1278,0.1272, 0.1279, 0.1288, 0.1289,0.1288,1.2578616352201255
MultiSource/Benchmarks/BitBench/uuencode/uuencode, 0.0395, 0.0399, 0.0398,0.0398, 0.0401, 0.0403, 0.0403,0.0403,1.2562814070351758
SingleSource/Benchmarks/Misc/mandel, 0.0410, 0.0410, 0.0412,0.041, 0.0414, 0.0415, 0.0416,0.0415,1.2195121951219523
MultiSource/Applications/spiff/spiff, 0.6849, 0.6892, 0.6908,0.6892, 0.6941, 0.6976, 0.6975,0.6975,1.2042948345908355
SingleSource/Benchmarks/Misc/flops-3, 0.0253, 0.0253, 0.0252,0.0253, 0.0255, 0.0257, 0.0256,0.0256,1.1857707509881577
SingleSource/Benchmarks/Misc/flops-1, 0.0255, 0.0255, 0.0255,0.0255, 0.0254, 0.0258, 0.0258,0.0258,1.17647058823529
SingleSource/Benchmarks/Misc/flops-8, 0.0263, 0.0264, 0.0263,0.0263, 0.0265, 0.0266, 0.0267,0.0266,1.1406844106463865
SingleSource/Benchmarks/Misc/flops-2, 0.0262, 0.0263, 0.0263,0.0263, 0.0264, 0.0266, 0.0268,0.0266,1.1406844106463865
MultiSource/Benchmarks/DOE-ProxyApps-C/SimpleMOC/SimpleMOC, 0.7876, 0.7897, 0.7915,0.7897, 0.7967, 0.7987, 0.7985,0.7985,1.114347220463463
SingleSource/Regression/C/2004-08-12-InlinerAndAllocas, 0.0185, 0.0186, 0.0187,0.0186, 0.0186, 0.0188, 0.0188,0.0188,1.0752688172043223
SingleSource/Benchmarks/Polybench/linear-algebra/solvers/dynprog/dynprog, 0.0669, 0.0672, 0.0673,0.0672, 0.0676, 0.0679, 0.0680,0.0679,1.041666666666674
SingleSource/Benchmarks/Polybench/medley/floyd-warshall/floyd-warshall, 0.0692, 0.0696, 0.0694,0.0694, 0.0698, 0.0701, 0.0701,0.0701,1.0086455331411948
MultiSource/Benchmarks/MiBench/telecomm-FFT/telecomm-fft, 0.1301, 0.1291, 0.1293,0.1293, 0.1297, 0.1306, 0.1307,0.1306,1.0054137664346374
SingleSource/Benchmarks/Misc/fbench, 0.0500, 0.0498, 0.0498,0.0498, 0.0500, 0.0504, 0.0503,0.0503,1.0040160642570184
SingleSource/Benchmarks/BenchmarkGame/nsieve-bits, 0.0300, 0.0302, 0.0300,0.03, 0.0300, 0.0303, 0.0304,0.0303,1.0000000000000009
MultiSource/Benchmarks/BitBench/uudecode/uudecode, 0.0404, 0.0405, 0.0407,0.0405, 0.0407, 0.0409, 0.0410,0.0409,0.9876543209876409
MultiSource/Benchmarks/Trimaran/netbench-crc/netbench-crc, 0.0710, 0.0714, 0.0718,0.0714, 0.0719, 0.0721, 0.0721,0.0721,0.9803921568627416
MultiSource/Benchmarks/MiBench/automotive-bitcount/automotive-bitcount, 0.2372, 0.2394, 0.2398,0.2394, 0.2401, 0.2416, 0.2424,0.2416,0.9189640768588081
SingleSource/Benchmarks/Polybench/stencils/jacobi-1d-imper/jacobi-1d-imper, 0.0769, 0.0771, 0.0770,0.077, 0.0775, 0.0779, 0.0777,0.0777,0.909090909090926
MultiSource/Benchmarks/McCat/12-IOtest/iotest, 0.0872, 0.0885, 0.0885,0.0885, 0.0885, 0.0894, 0.0893,0.0893,0.9039548022598876
SingleSource/Benchmarks/Polybench/linear-algebra/kernels/trmm/trmm, 0.0664, 0.0665, 0.0666,0.0665, 0.0668, 0.0671, 0.0671,0.0671,0.9022556390977599
SingleSource/Benchmarks/Misc-C++/Large/sphereflake, 0.2011, 0.2017, 0.2010,0.2011, 0.2020, 0.2029, 0.2034,0.2029,0.8950770760815407
SingleSource/Benchmarks/Shootout/nestedloop, 0.0229, 0.0229, 0.0230,0.0229, 0.0230, 0.0231, 0.0232,0.0231,0.8733624454148492
MultiSource/Benchmarks/FreeBench/mason/mason, 0.0459, 0.0460, 0.0463,0.046, 0.0463, 0.0464, 0.0466,0.0464,0.8695652173912993
MultiSource/Benchmarks/VersaBench/8b10b/8b10b, 0.0691, 0.0702, 0.0704,0.0702, 0.0700, 0.0708, 0.0709,0.0708,0.8547008547008517
SingleSource/Benchmarks/Polybench/datamining/correlation/correlation, 0.0704, 0.0703, 0.0703,0.0703, 0.0705, 0.0709, 0.0710,0.0709,0.8534850640113945
MultiSource/Benchmarks/VersaBench/bmm/bmm, 0.0469, 0.0471, 0.0471,0.0471, 0.0472, 0.0475, 0.0475,0.0475,0.849256900212314
MultiSource/Benchmarks/McCat/04-bisect/bisect, 0.1183, 0.1191, 0.1193,0.1191, 0.1194, 0.1203, 0.1201,0.1201,0.8396305625524736
MultiSource/Benchmarks/VersaBench/dbms/dbms, 0.8842, 0.8980, 0.9017,0.898, 0.8972, 0.9055, 0.9065,0.9055,0.8351893095768226
SingleSource/Benchmarks/Shootout/heapsort, 0.0365, 0.0364, 0.0366,0.0365, 0.0366, 0.0368, 0.0368,0.0368,0.8219178082191858
MultiSource/Benchmarks/McCat/08-main/main, 0.2160, 0.2192, 0.2199,0.2192, 0.2202, 0.2210, 0.2213,0.221,0.8211678832116709
MultiSource/Benchmarks/MiBench/automotive-basicmath/automotive-basicmath, 0.1334, 0.1340, 0.1346,0.134, 0.1345, 0.1351, 0.1359,0.1351,0.8208955223880432
MultiSource/Benchmarks/Olden/perimeter/perimeter, 0.0726, 0.0731, 0.0736,0.0731, 0.0730, 0.0737, 0.0739,0.0737,0.8207934336525335
MultiSource/Benchmarks/ASCI_Purple/SMG2000/smg2000, 5.1424, 5.1594, 5.1584,5.1584, 5.1928, 5.1997, 5.2087,5.1997,0.8006358560793903
SingleSource/Benchmarks/Misc/flops-7, 0.0252, 0.0251, 0.0252,0.0252, 0.0252, 0.0254, 0.0256,0.0254,0.7936507936507908
MultiSource/Benchmarks/TSVC/CrossingThresholds-flt/CrossingThresholds-flt, 1.5059, 1.5136, 1.5059,1.5059, 1.5189, 1.5178, 1.5136,1.5178,0.7902251145494477
SingleSource/Benchmarks/Shootout-C++/methcall, 0.1151, 0.1145, 0.1151,0.1151, 0.1160, 0.1152, 0.1161,0.116,0.7819287576021017
SingleSource/Benchmarks/Polybench/stencils/seidel-2d/seidel-2d, 0.0642, 0.0644, 0.0645,0.0644, 0.0646, 0.0649, 0.0649,0.0649,0.7763975155279601
SingleSource/Benchmarks/Shootout/strcat, 0.0256, 0.0258, 0.0258,0.0258, 0.0259, 0.0260, 0.0260,0.026,0.7751937984496138
SingleSource/Benchmarks/Misc/flops-4, 0.0258, 0.0257, 0.0259,0.0258, 0.0259, 0.0260, 0.0262,0.026,0.7751937984496138
MultiSource/Benchmarks/McCat/17-bintr/bintr, 0.0647, 0.0650, 0.0655,0.065, 0.0652, 0.0655, 0.0657,0.0655,0.7692307692307665
MultiSource/Benchmarks/MiBench/telecomm-adpcm/telecomm-adpcm, 0.0517, 0.0523, 0.0524,0.0523, 0.0522, 0.0527, 0.0527,0.0527,0.7648183556405286
SingleSource/Benchmarks/Shootout-C++/ary3, 0.1462, 0.1450, 0.1453,0.1453, 0.1464, 0.1461, 0.1464,0.1464,0.7570543702684063
MultiSource/Benchmarks/BitBench/drop3/drop3, 0.0397, 0.0400, 0.0401,0.04, 0.0402, 0.0403, 0.0403,0.0403,0.7500000000000062
MultiSource/Benchmarks/TSVC/Reductions-flt/Reductions-flt, 1.5546, 1.5601, 1.5570,1.557, 1.5645, 1.5685, 1.5697,1.5685,0.7385998715478514
SingleSource/Benchmarks/Dhrystone/fldry, 0.0409, 0.0411, 0.0410,0.041, 0.0412, 0.0413, 0.0413,0.0413,0.7317073170731714
SingleSource/Benchmarks/Polybench/linear-algebra/kernels/gemver/gemver, 0.0834, 0.0833, 0.0835,0.0834, 0.0838, 0.0841, 0.0840,0.084,0.7194244604316502
SingleSource/Benchmarks/Polybench/linear-algebra/kernels/cholesky/cholesky, 0.0845, 0.0845, 0.0846,0.0845, 0.0848, 0.0852, 0.0851,0.0851,0.7100591715976101
SingleSource/Benchmarks/Misc/fp-convert, 0.0283, 0.0282, 0.0283,0.0283, 0.0283, 0.0285, 0.0287,0.0285,0.7067137809187329
MultiSource/Benchmarks/McCat/03-testtrie/testtrie, 0.0839, 0.0849, 0.0852,0.0849, 0.0851, 0.0855, 0.0857,0.0855,0.7067137809187329
SingleSource/Benchmarks/Polybench/linear-algebra/kernels/trisolv/trisolv, 0.0585, 0.0585, 0.0586,0.0585, 0.0589, 0.0589, 0.0593,0.0589,0.6837606837606813
MultiSource/Applications/d/make_dparser, 2.4201, 2.3988, 2.4041,2.4041, 2.4205, 2.4455, 2.3976,2.4205,0.6821679630631072
MultiSource/Benchmarks/TSVC/CrossingThresholds-dbl/CrossingThresholds-dbl, 1.8115, 1.8134, 1.8068,1.8115, 1.8234, 1.8238, 1.8240,1.8238,0.6789953077559918
MultiSource/Benchmarks/Olden/power/power, 0.1171, 0.1180, 0.1187,0.118, 0.1187, 0.1188, 0.1193,0.1188,0.6779661016949268
SingleSource/Benchmarks/Shootout/methcall, 0.0296, 0.0296, 0.0298,0.0296, 0.0297, 0.0298, 0.0299,0.0298,0.6756756756756799
MultiSource/Benchmarks/TSVC/NodeSplitting-dbl/NodeSplitting-dbl, 1.7920, 1.8032, 1.7954,1.7954, 1.8060, 1.8074, 1.8077,1.8074,0.6683747354349956
MultiSource/Benchmarks/VersaBench/ecbdes/ecbdes, 0.1939, 0.1950, 0.1953,0.195, 0.1956, 0.1963, 0.1966,0.1963,0.6666666666666599
MultiSource/Benchmarks/MiBench/network-patricia/network-patricia, 0.0743, 0.0751, 0.0753,0.0751, 0.0752, 0.0757, 0.0756,0.0756,0.665778961384822
SingleSource/Benchmarks/Polybench/stencils/fdtd-apml/fdtd-apml, 0.1205, 0.1204, 0.1204,0.1204, 0.1209, 0.1214, 0.1212,0.1212,0.6644518272425293
SingleSource/Benchmarks/Misc/dt, 0.0303, 0.0302, 0.0304,0.0303, 0.0304, 0.0305, 0.0307,0.0305,0.6600660066006458
SingleSource/Benchmarks/Shootout-C++/nestedloop, 0.1069, 0.1064, 0.1073,0.1069, 0.1077, 0.1076, 0.1075,0.1076,0.654817586529477
MultiSource/Benchmarks/Prolangs-C++/employ/employ, 0.1844, 0.1837, 0.1845,0.1844, 0.1856, 0.1847, 0.1859,0.1856,0.6507592190889255
MultiSource/Benchmarks/Trimaran/enc-rc4/enc-rc4, 0.0459, 0.0462, 0.0464,0.0462, 0.0462, 0.0465, 0.0466,0.0465,0.6493506493506551
SingleSource/Benchmarks/Misc/whetstone, 0.0620, 0.0619, 0.0621,0.062, 0.0622, 0.0624, 0.0624,0.0624,0.6451612903225712
SingleSource/Benchmarks/Misc/ffbench, 0.0620, 0.0621, 0.0620,0.062, 0.0620, 0.0624, 0.0626,0.0624,0.6451612903225712
MultiSource/Applications/viterbi/viterbi, 0.1547, 0.1558, 0.1559,0.1558, 0.1557, 0.1568, 0.1570,0.1568,0.6418485237484006
MultiSource/Benchmarks/SciMark2-C/scimark2, 0.3411, 0.3437, 0.3449,0.3437, 0.3441, 0.3459, 0.3470,0.3459,0.6400931044515445
MultiSource/Benchmarks/MiBench/telecomm-gsm/telecomm-gsm, 0.9495, 0.9557, 0.9579,0.9557, 0.9572, 0.9618, 0.9638,0.9618,0.6382756095008935
MultiSource/Benchmarks/ASC_Sequoia/IRSmk/IRSmk, 0.0947, 0.0955, 0.0957,0.0955, 0.0957, 0.0961, 0.0962,0.0961,0.6282722513089034
MultiSource/Benchmarks/mediabench/gsm/toast/toast, 0.9497, 0.9558, 0.9584,0.9558, 0.9579, 0.9618, 0.9634,0.9618,0.6277463904582614
MultiSource/Benchmarks/MiBench/telecomm-CRC32/telecomm-CRC32, 0.0325, 0.0328, 0.0329,0.0328, 0.0329, 0.0330, 0.0332,0.033,0.6097560975609762
SingleSource/Benchmarks/Shootout-C++/random, 0.1151, 0.1151, 0.1155,0.1151, 0.1161, 0.1152, 0.1158,0.1158,0.6081668114682914
SingleSource/Benchmarks/McGill/misr, 0.0494, 0.0494, 0.0495,0.0494, 0.0495, 0.0497, 0.0497,0.0497,0.6072874493927127
MultiSource/Benchmarks/MiBench/consumer-lame/consumer-lame, 3.5940, 3.6050, 3.6079,3.605, 3.6208, 3.6268, 3.6301,3.6268,0.6047156726768366
MultiSource/Benchmarks/Olden/bh/bh, 0.2345, 0.2351, 0.2357,0.2351, 0.2358, 0.2365, 0.2370,0.2365,0.5954912803062484
MultiSource/Benchmarks/TSVC/LinearDependence-flt/LinearDependence-flt, 1.5607, 1.5641, 1.5632,1.5632, 1.5798, 1.5694, 1.5725,1.5725,0.5949334698055253
MultiSource/Benchmarks/Trimaran/enc-md5/enc-md5, 0.1353, 0.1361, 0.1364,0.1361, 0.1369, 0.1367, 0.1370,0.1369,0.5878030859661987
MultiSource/Benchmarks/TSVC/InductionVariable-dbl/InductionVariable-dbl, 1.8259, 1.8224, 1.8211,1.8224, 1.8321, 1.8331, 1.8380,1.8331,0.5871378402107164
SingleSource/Benchmarks/BenchmarkGame/puzzle, 0.0499, 0.0514, 0.0516,0.0514, 0.0515, 0.0518, 0.0517,0.0517,0.5836575875486361
MultiSource/Benchmarks/ASC_Sequoia/CrystalMk/CrystalMk, 0.2039, 0.2059, 0.2060,0.2059, 0.2058, 0.2071, 0.2078,0.2071,0.5828071879553143
MultiSource/Benchmarks/mediabench/adpcm/rawdaudio/rawdaudio, 0.0515, 0.0523, 0.0524,0.0523, 0.0522, 0.0526, 0.0528,0.0526,0.5736137667303964
MultiSource/Benchmarks/mediabench/adpcm/rawcaudio/rawcaudio, 0.0517, 0.0524, 0.0528,0.0524, 0.0527, 0.0527, 0.0530,0.0527,0.5725190839694472
MultiSource/Benchmarks/FreeBench/pcompress2/pcompress2, 0.2257, 0.2274, 0.2276,0.2274, 0.2279, 0.2287, 0.2293,0.2287,0.5716798592787953
SingleSource/Benchmarks/Shootout/objinst, 0.0349, 0.0350, 0.0351,0.035, 0.0349, 0.0352, 0.0352,0.0352,0.5714285714285783
SingleSource/Benchmarks/Polybench/linear-algebra/kernels/syrk/syrk, 0.0703, 0.0703, 0.0706,0.0703, 0.0705, 0.0707, 0.0710,0.0707,0.5689900426742556
SingleSource/Benchmarks/Polybench/linear-algebra/kernels/symm/symm, 0.0709, 0.0706, 0.0708,0.0708, 0.0711, 0.0712, 0.0713,0.0712,0.5649717514124353
SingleSource/Benchmarks/Misc/flops, 0.0709, 0.0710, 0.0709,0.0709, 0.0711, 0.0713, 0.0713,0.0713,0.5641748942172065
MultiSource/Benchmarks/Olden/treeadd/treeadd, 0.0521, 0.0532, 0.0532,0.0532, 0.0529, 0.0535, 0.0536,0.0535,0.5639097744360999
MultiSource/Benchmarks/MallocBench/espresso/espresso, 4.1616, 4.1732, 4.1778,4.1732, 4.1901, 4.1967, 4.2017,4.1967,0.5631170324930546
MultiSource/Benchmarks/TSVC/Symbolics-flt/Symbolics-flt, 1.4993, 1.5031, 1.5075,1.5031, 1.5097, 1.5135, 1.5115,1.5115,0.5588450535559897
SingleSource/Benchmarks/Stanford/Treesort, 0.0358, 0.0357, 0.0359,0.0358, 0.0357, 0.0360, 0.0361,0.036,0.5586592178770999
MultiSource/Benchmarks/DOE-ProxyApps-C++/PENNANT/PENNANT, 3.7119, 3.7072, 3.7176,3.7119, 3.7290, 3.7326, 3.7467,3.7326,0.5576658853956307
MultiSource/Benchmarks/Prolangs-C/gnugo/gnugo, 0.6774, 0.6827, 0.6842,0.6827, 0.6807, 0.6865, 0.6875,0.6865,0.5566134466090666
SingleSource/Benchmarks/Shootout-C++/ackermann, 0.1086, 0.1076, 0.1078,0.1078, 0.1079, 0.1084, 0.1088,0.1084,0.5565862708719838
SingleSource/Benchmarks/Polybench/linear-algebra/kernels/syr2k/syr2k, 0.0721, 0.0719, 0.0719,0.0719, 0.0723, 0.0723, 0.0725,0.0723,0.5563282336578546
MultiSource/Benchmarks/MiBench/security-sha/security-sha, 0.1074, 0.1081, 0.1082,0.1081, 0.1083, 0.1087, 0.1088,0.1087,0.5550416281221215
SingleSource/Benchmarks/Polybench/stencils/fdtd-2d/fdtd-2d, 0.1258, 0.1262, 0.1262,0.1262, 0.1265, 0.1271, 0.1269,0.1269,0.5546751188589605
SingleSource/Benchmarks/Polybench/linear-algebra/kernels/bicg/bicg, 0.0723, 0.0724, 0.0725,0.0724, 0.0726, 0.0728, 0.0730,0.0728,0.5524861878452914
MultiSource/Benchmarks/Olden/em3d/em3d, 0.1625, 0.1640, 0.1645,0.164, 0.1637, 0.1649, 0.1652,0.1649,0.5487804878048674
SingleSource/Benchmarks/Shootout-C++/sieve, 0.1668, 0.1659, 0.1656,0.1659, 0.1668, 0.1655, 0.1669,0.1668,0.5424954792043524
SingleSource/Benchmarks/Polybench/linear-algebra/solvers/gramschmidt/gramschmidt, 0.0936, 0.0941, 0.0938,0.0938, 0.0942, 0.0945, 0.0943,0.0943,0.5330490405117239
MultiSource/Benchmarks/TSVC/Symbolics-dbl/Symbolics-dbl, 1.8056, 1.8072, 1.8109,1.8072, 1.8213, 1.8157, 1.8168,1.8168,0.5312084993359889
SingleSource/Benchmarks/Shootout/fib2, 0.0189, 0.0188, 0.0189,0.0189, 0.0187, 0.0190, 0.0190,0.019,0.5291005291005346
MultiSource/Benchmarks/Ptrdist/ks/ks, 0.1322, 0.1328, 0.1329,0.1328, 0.1332, 0.1335, 0.1335,0.1335,0.5271084337349352
MultiSource/Benchmarks/TSVC/Reductions-dbl/Reductions-dbl, 1.8403, 1.8584, 1.8657,1.8584, 1.8680, 1.8682, 1.8681,1.8681,0.5219543693499862
SingleSource/Benchmarks/Stanford/Oscar, 0.0578, 0.0577, 0.0579,0.0578, 0.0577, 0.0581, 0.0581,0.0581,0.519031141868509
MultiSource/Benchmarks/TSVC/IndirectAddressing-dbl/IndirectAddressing-dbl, 1.8013, 1.8034, 1.8018,1.8018, 1.8110, 1.8103, 1.8131,1.811,0.5106005106005007
MultiSource/Benchmarks/NPB-serial/is/is, 0.0593, 0.0596, 0.0598,0.0596, 0.0596, 0.0599, 0.0599,0.0599,0.5033557046979942
SingleSource/Benchmarks/Misc/pi, 0.0199, 0.0200, 0.0201,0.02, 0.0200, 0.0201, 0.0202,0.0201,0.49999999999998934
SingleSource/Benchmarks/Polybench/linear-algebra/solvers/durbin/durbin, 0.0809, 0.0810, 0.0810,0.081, 0.0814, 0.0813, 0.0817,0.0814,0.49382716049382047
MultiSource/Benchmarks/MiBench/automotive-susan/automotive-susan, 0.5731, 0.5722, 0.5749,0.5731, 0.5731, 0.5769, 0.5759,0.5759,0.4885709300296526
SingleSource/Benchmarks/Polybench/linear-algebra/solvers/lu/lu, 0.0820, 0.0825, 0.0824,0.0824, 0.0826, 0.0830, 0.0828,0.0828,0.4854368932038833
SingleSource/Benchmarks/McGill/queens, 0.0415, 0.0417, 0.0417,0.0417, 0.0417, 0.0419, 0.0419,0.0419,0.47961630695443347
MultiSource/Benchmarks/Fhourstones-3.1/fhourstones3.1, 0.1070, 0.1075, 0.1071,0.1071, 0.1069, 0.1077, 0.1076,0.1076,0.46685340802987696
MultiSource/Benchmarks/Trimaran/enc-3des/enc-3des, 0.2171, 0.2175, 0.2177,0.2175, 0.2183, 0.2190, 0.2185,0.2185,0.45977011494253706
SingleSource/Benchmarks/BenchmarkGame/n-body, 0.0654, 0.0655, 0.0656,0.0655, 0.0654, 0.0659, 0.0658,0.0658,0.45801526717557106
SingleSource/Benchmarks/Shootout/ackermann, 0.0222, 0.0220, 0.0223,0.0222, 0.0221, 0.0223, 0.0224,0.0223,0.45045045045044585
SingleSource/Benchmarks/Stanford/Towers, 0.0445, 0.0447, 0.0447,0.0447, 0.0447, 0.0449, 0.0449,0.0449,0.4474272930648837
MultiSource/Benchmarks/McCat/01-qbsort/qbsort, 0.0893, 0.0901, 0.0902,0.0901, 0.0902, 0.0905, 0.0910,0.0905,0.4439511653718142
MultiSource/Benchmarks/McCat/05-eks/eks, 0.4751, 0.4770, 0.4770,0.477, 0.4776, 0.4791, 0.4801,0.4791,0.44025157232705503
SingleSource/Benchmarks/Stanford/RealMM, 0.0463, 0.0465, 0.0464,0.0464, 0.0464, 0.0466, 0.0466,0.0466,0.4310344827586299
MultiSource/Benchmarks/McCat/18-imp/imp, 0.3003, 0.3018, 0.3019,0.3018, 0.3022, 0.3031, 0.3035,0.3031,0.4307488402915727
MultiSource/Benchmarks/Prolangs-C++/primes/primes, 0.0233, 0.0236, 0.0237,0.0236, 0.0236, 0.0237, 0.0238,0.0237,0.4237288135593209
SingleSource/Benchmarks/Shootout/sieve, 0.0240, 0.0239, 0.0241,0.024, 0.0241, 0.0241, 0.0242,0.0241,0.4166666666666652
MultiSource/Benchmarks/MiBench/security-rijndael/security-rijndael, 0.3616, 0.3627, 0.3634,0.3627, 0.3642, 0.3642, 0.3639,0.3642,0.41356492969395475
MultiSource/Benchmarks/Prolangs-C++/simul/simul, 0.0487, 0.0489, 0.0492,0.0489, 0.0491, 0.0491, 0.0491,0.0491,0.4089979550102152
SingleSource/Benchmarks/Stanford/FloatMM, 0.0492, 0.0491, 0.0492,0.0492, 0.0492, 0.0494, 0.0494,0.0494,0.40650406504065817
SingleSource/Benchmarks/Misc/ReedSolomon, 0.1718, 0.1722, 0.1722,0.1722, 0.1729, 0.1731, 0.1729,0.1729,0.40650406504065817
SingleSource/Benchmarks/BenchmarkGame/recursive, 0.0249, 0.0249, 0.0249,0.0249, 0.0249, 0.0250, 0.0250,0.025,0.40160642570281624
MultiSource/Benchmarks/BitBench/five11/five11, 0.0493, 0.0498, 0.0499,0.0498, 0.0498, 0.0500, 0.0500,0.05,0.40160642570281624
SingleSource/Benchmarks/Misc/salsa20, 0.0502, 0.0503, 0.0505,0.0503, 0.0503, 0.0506, 0.0505,0.0505,0.3976143141153132
SingleSource/Benchmarks/Polybench/datamining/covariance/covariance, 0.0770, 0.0771, 0.0773,0.0771, 0.0773, 0.0774, 0.0775,0.0774,0.3891050583657574
MultiSource/Benchmarks/Prolangs-C++/city/city, 0.8318, 0.8265, 0.8285,0.8285, 0.8317, 0.8314, 0.8330,0.8317,0.38624019312010205
MultiSource/Benchmarks/mediabench/g721/g721encode/encode, 0.1812, 0.1831, 0.1835,0.1831, 0.1827, 0.1838, 0.1840,0.1838,0.382304751501894
MultiSource/Benchmarks/mediabench/mpeg2/mpeg2dec/mpeg2decode, 1.2111, 1.2165, 1.2181,1.2165, 1.2185, 1.2211, 1.2218,1.2211,0.3781339909576742
SingleSource/Benchmarks/Misc/matmul_f64_4x4, 0.0266, 0.0266, 0.0267,0.0266, 0.0266, 0.0267, 0.0268,0.0267,0.375939849624074
SingleSource/Benchmarks/Polybench/stencils/adi/adi, 0.0825, 0.0829, 0.0830,0.0829, 0.0832, 0.0831, 0.0833,0.0832,0.3618817852834688
SingleSource/Benchmarks/BenchmarkGame/partialsums, 0.0280, 0.0281, 0.0283,0.0281, 0.0282, 0.0282, 0.0283,0.0282,0.3558718861209842
MultiSource/Benchmarks/ASC_Sequoia/AMGmk/AMGmk, 0.5362, 0.5381, 0.5393,0.5381, 0.5375, 0.5400, 0.5410,0.54,0.3530942204051257
SingleSource/Benchmarks/Shootout-C++/ary, 0.1422, 0.1416, 0.1427,0.1422, 0.1427, 0.1424, 0.1440,0.1427,0.35161744022502717
MultiSource/Benchmarks/FreeBench/distray/distray, 0.0856, 0.0860, 0.0859,0.0859, 0.0862, 0.0860, 0.0863,0.0862,0.34924330616996624
MultiSource/Benchmarks/MallocBench/cfrac/cfrac, 0.8039, 0.8118, 0.8139,0.8118, 0.8085, 0.8146, 0.8156,0.8146,0.3449125400345032
MultiSource/Benchmarks/TSVC/ControlFlow-flt/ControlFlow-flt, 1.6393, 1.6355, 1.6381,1.6381, 1.6361, 1.6437, 1.6480,1.6437,0.3418594713387568
SingleSource/Benchmarks/Stanford/Perm, 0.0293, 0.0293, 0.0294,0.0293, 0.0293, 0.0294, 0.0295,0.0294,0.34129692832765013
SingleSource/Benchmarks/Polybench/medley/reg_detect/reg_detect, 0.3822, 0.3806, 0.3831,0.3822, 0.3835, 0.3824, 0.3841,0.3835,0.3401360544217802
MultiSource/Benchmarks/Trimaran/enc-pc1/enc-pc1, 0.0592, 0.0596, 0.0597,0.0596, 0.0597, 0.0598, 0.0599,0.0598,0.3355704697986628
MultiSource/Benchmarks/Olden/bisort/bisort, 0.0589, 0.0596, 0.0597,0.0596, 0.0596, 0.0598, 0.0599,0.0598,0.3355704697986628
MultiSource/Benchmarks/Ptrdist/anagram/anagram, 0.0911, 0.0913, 0.0914,0.0913, 0.0916, 0.0913, 0.0917,0.0916,0.3285870755750153
SingleSource/Benchmarks/Adobe-C++/simple_types_constant_folding, 2.2188, 2.2284, 2.2159,2.2188, 2.2260, 2.2202, 2.2261,2.226,0.32449972958357165
SingleSource/Benchmarks/Polybench/linear-algebra/kernels/gesummv/gesummv, 0.0620, 0.0619, 0.0620,0.062, 0.0619, 0.0622, 0.0625,0.0622,0.3225806451612856
SingleSource/Benchmarks/Stanford/Bubblesort, 0.0317, 0.0317, 0.0318,0.0317, 0.0316, 0.0318, 0.0321,0.0318,0.3154574132492094
SingleSource/Benchmarks/Shootout/ary3, 0.0323, 0.0324, 0.0324,0.0324, 0.0323, 0.0326, 0.0325,0.0325,0.30864197530864335
SingleSource/Benchmarks/Shootout-C++/objinst, 0.1302, 0.1299, 0.1309,0.1302, 0.1307, 0.1306, 0.1303,0.1306,0.3072196620583556
MultiSource/Benchmarks/TSVC/IndirectAddressing-flt/IndirectAddressing-flt, 1.4967, 1.5061, 1.5032,1.5032, 1.5023, 1.5077, 1.5083,1.5077,0.2993613624268088
MultiSource/Applications/hexxagon/hexxagon, 0.6056, 0.6061, 0.6086,0.6061, 0.6078, 0.6076, 0.6083,0.6078,0.28048176868504804
MultiSource/Benchmarks/Prolangs-C/agrep/agrep, 1.2145, 1.2178, 1.2200,1.2178, 1.2175, 1.2212, 1.2241,1.2212,0.27919198554771096
SingleSource/Benchmarks/Polybench/linear-algebra/kernels/atax/atax, 0.0740, 0.0739, 0.0739,0.0739, 0.0738, 0.0741, 0.0741,0.0741,0.27063599458729826
MultiSource/Benchmarks/DOE-ProxyApps-C/Pathfinder/PathFinder, 0.7359, 0.7424, 0.7433,0.7424, 0.7423, 0.7444, 0.7457,0.7444,0.26939655172413257
SingleSource/Benchmarks/Polybench/linear-algebra/kernels/mvt/mvt, 0.0745, 0.0744, 0.0746,0.0745, 0.0746, 0.0747, 0.0749,0.0747,0.26845637583894355
MultiSource/Benchmarks/7zip/7zip-benchmark,30.9758,31.0142,31.0473,31.0142,31.0368,31.0969,31.1423,31.0969,0.2666520497062619
MultiSource/Benchmarks/TSVC/StatementReordering-flt/StatementReordering-flt, 1.4855, 1.4726, 1.4668,1.4726, 1.4765, 1.4775, 1.4747,1.4765,0.26483770202363477
MultiSource/Benchmarks/Trimaran/netbench-url/netbench-url, 0.1884, 0.1902, 0.1906,0.1902, 0.1902, 0.1907, 0.1912,0.1907,0.2628811777076745
MultiSource/Benchmarks/MiBench/network-dijkstra/network-dijkstra, 0.0388, 0.0390, 0.0390,0.039, 0.0389, 0.0391, 0.0391,0.0391,0.2564102564102555
SingleSource/Benchmarks/Stanford/Queens, 0.0415, 0.0415, 0.0415,0.0415, 0.0414, 0.0417, 0.0416,0.0416,0.24096385542167198
SingleSource/Benchmarks/Adobe-C++/simple_types_loop_invariant, 1.7957, 1.8046, 1.7937,1.7957, 1.8000, 1.7941, 1.8015,1.8,0.23946093445452732
MultiSource/Applications/ALAC/encode/alacconvert-encode, 0.8619, 0.8657, 0.8684,0.8657, 0.8661, 0.8677, 0.8698,0.8677,0.23102691463554592
MultiSource/Benchmarks/Prolangs-C/bison/mybison, 1.4695, 1.4748, 1.4762,1.4748, 1.4768, 1.4782, 1.4797,1.4782,0.23053973420124052
MultiSource/Benchmarks/llubenchmark/llu, 0.0435, 0.0440, 0.0438,0.0438, 0.0438, 0.0439, 0.0440,0.0439,0.22831050228311334
MultiSource/Applications/SIBsim4/SIBsim4, 1.0602, 1.0561, 1.0560,1.0561, 1.0611, 1.0551, 1.0585,1.0585,0.22725120727202786
SingleSource/Benchmarks/Polybench/linear-algebra/kernels/doitgen/doitgen, 0.0898, 0.0897, 0.0896,0.0897, 0.0897, 0.0901, 0.0899,0.0899,0.22296544035673715
MultiSource/Applications/JM/lencod/lencod,13.4048,13.4307,13.4304,13.4304,13.4481,13.4598,13.4601,13.4598,0.21890636168691024
MultiSource/Benchmarks/TSVC/Searching-flt/Searching-flt, 1.4630, 1.4624, 1.4591,1.4624, 1.4596, 1.4922, 1.4655,1.4655,0.21198030634574927
MultiSource/Benchmarks/DOE-ProxyApps-C/miniAMR/miniAMR, 1.2259, 1.2315, 1.2312,1.2312, 1.2320, 1.2338, 1.2350,1.2338,0.21117608836906943
SingleSource/Benchmarks/BenchmarkGame/fannkuch, 0.0479, 0.0478, 0.0479,0.0479, 0.0477, 0.0481, 0.0480,0.048,0.20876826722338038
MultiSource/Benchmarks/TSVC/LoopRestructuring-dbl/LoopRestructuring-dbl, 1.8211, 1.8259, 1.8117,1.8211, 1.8248, 1.8312, 1.8210,1.8248,0.2031739058810711
MultiSource/Benchmarks/Prolangs-C++/ocean/ocean, 0.1001, 0.1001, 0.1002,0.1001, 0.1001, 0.1005, 0.1003,0.1003,0.19980019980021524
SingleSource/Benchmarks/Stanford/Puzzle, 0.1013, 0.1012, 0.1016,0.1013, 0.1012, 0.1019, 0.1015,0.1015,0.19743336623889718
SingleSource/Benchmarks/Polybench/stencils/jacobi-2d-imper/jacobi-2d-imper, 0.1029, 0.1035, 0.1034,0.1034, 0.1035, 0.1036, 0.1038,0.1036,0.19342359767891004
MultiSource/Applications/ALAC/decode/alacconvert-decode, 0.8621, 0.8664, 0.8671,0.8664, 0.8654, 0.8680, 0.8685,0.868,0.1846722068328699
MultiSource/Benchmarks/TSVC/StatementReordering-dbl/StatementReordering-dbl, 1.7687, 1.7761, 1.7711,1.7711, 1.7693, 1.7750, 1.7743,1.7743,0.18067867427022932
SingleSource/Benchmarks/Shootout-C++/strcat, 0.1158, 0.1161, 0.1163,0.1161, 0.1163, 0.1161, 0.1163,0.1163,0.17226528854437095
SingleSource/Benchmarks/Shootout/lists, 0.0618, 0.0618, 0.0620,0.0618, 0.0619, 0.0619, 0.0623,0.0619,0.16181229773462036
MultiSource/Benchmarks/TSVC/LinearDependence-dbl/LinearDependence-dbl, 1.8684, 1.8625, 1.8684,1.8684, 1.8630, 1.8714, 1.8728,1.8714,0.16056518946692133
MultiSource/Benchmarks/TSVC/Packing-flt/Packing-flt, 1.4746, 1.4627, 1.4713,1.4713, 1.4736, 1.4743, 1.4710,1.4736,0.15632433901990872
MultiSource/Benchmarks/MallocBench/gs/gs, 3.4231, 3.4376, 3.4416,3.4376, 3.4319, 3.4429, 3.4481,3.4429,0.15417733302303116
SingleSource/Benchmarks/Linpack/linpack-pc, 0.2792, 0.2798, 0.2796,0.2796, 0.2800, 0.2802, 0.2795,0.28,0.14306151645206988
MultiSource/Benchmarks/TSVC/ControlFlow-dbl/ControlFlow-dbl, 1.9357, 1.9371, 1.9442,1.9371, 1.9363, 1.9449, 1.9396,1.9396,0.12905890248309237
MultiSource/Benchmarks/FreeBench/neural/neural, 0.1606, 0.1609, 0.1616,0.1609, 0.1613, 0.1610, 0.1611,0.1611,0.12430080795524656
MultiSource/Applications/aha/aha, 0.0902, 0.0909, 0.0909,0.0909, 0.0907, 0.0913, 0.0910,0.091,0.11001100110010764
SingleSource/Benchmarks/SmallPT/smallpt, 0.0912, 0.0918, 0.0919,0.0918, 0.0914, 0.0920, 0.0919,0.0919,0.10893246187362315
MultiSource/Benchmarks/Bullet/bullet,21.0329,21.0321,21.0602,21.0329,21.0616,21.0309,21.0526,21.0526,0.09366278544566953
MultiSource/Benchmarks/Ptrdist/yacr2/yacr2, 0.5511, 0.5549, 0.5548,0.5548, 0.5535, 0.5553, 0.5556,0.5553,0.09012256669072016
MultiSource/Applications/sgefa/sgefa, 0.3565, 0.3581, 0.3573,0.3573, 0.3570, 0.3576, 0.3577,0.3576,0.08396305625524292
MultiSource/Applications/lambda-0.1.3/lambda, 0.5055, 0.5071, 0.5064,0.5064, 0.5047, 0.5068, 0.5073,0.5068,0.07898894154818592
MultiSource/Benchmarks/DOE-ProxyApps-C/miniGMG/miniGMG, 0.8858, 0.8874, 0.8903,0.8874, 0.8865, 0.8881, 0.8901,0.8881,0.07888212756366197
MultiSource/Benchmarks/TSVC/InductionVariable-flt/InductionVariable-flt, 1.5243, 1.5260, 1.5263,1.526, 1.5271, 1.5241, 1.5312,1.5271,0.07208387942332362
SingleSource/Benchmarks/Shootout-C++/ary2, 0.1442, 0.1430, 0.1441,0.1441, 0.1442, 0.1439, 0.1451,0.1442,0.0693962526023606
SingleSource/Benchmarks/Adobe-C++/loop_unroll, 3.9142, 3.9276, 3.9205,3.9205, 3.9232, 3.9139, 3.9273,3.9232,0.06886876673892761
MultiSource/Applications/sqlite3/sqlite3,13.3309,13.2865,13.3353,13.3309,13.3300,13.3394,13.3388,13.3388,0.05926081509877168
MultiSource/Applications/JM/ldecod/ldecod, 5.7891, 5.7903, 5.7894,5.7894, 5.7809, 5.7976, 5.7923,5.7923,0.050091546619679406
MultiSource/Benchmarks/mafft/pairlocalalign, 7.9351, 7.9492, 7.9329,7.9351, 7.9278, 7.9389, 7.9401,7.9389,0.04788849541907947
MultiSource/Benchmarks/mediabench/jpeg/jpeg-6a/cjpeg, 4.0908, 4.1092, 4.1136,4.1092, 4.1032, 4.1106, 4.1152,4.1106,0.03406989194976173
MultiSource/Benchmarks/TSVC/Recurrences-flt/Recurrences-flt, 1.4737, 1.4757, 1.4695,1.4737, 1.4677, 1.4742, 1.4755,1.4742,0.03392820791205953
MultiSource/Benchmarks/MiBench/consumer-jpeg/consumer-jpeg, 4.0519, 4.0725, 4.0751,4.0725, 4.0592, 4.0739, 4.0738,4.0738,0.031921424186620584
MultiSource/Benchmarks/PAQ8p/paq8p, 1.7176, 1.7222, 1.7304,1.7222, 1.7226, 1.7216, 1.7285,1.7226,0.02322610614329257
MultiSource/Benchmarks/nbench/nbench, 1.0190, 1.0162, 1.0177,1.0177, 1.0163, 1.0189, 1.0179,1.0179,0.019652156824201406
MultiSource/Benchmarks/TSVC/Packing-dbl/Packing-dbl, 1.7749, 1.7733, 1.7727,1.7733, 1.7711, 1.7736, 1.7801,1.7736,0.016917611233302488
MultiSource/Benchmarks/Ptrdist/bc/bc, 0.9206, 0.9239, 0.9235,0.9235, 0.9227, 0.9236, 0.9266,0.9236,0.010828370330262516
MultiSource/Benchmarks/TSVC/Expansion-dbl/Expansion-dbl, 1.8540, 1.8592, 1.8586,1.8586, 1.8587, 1.8535, 1.8601,1.8587,0.005380393844833797
SingleSource/Benchmarks/Stanford/Quicksort, 0.0349, 0.0348, 0.0350,0.0349, 0.0349, 0.0348, 0.0351,0.0349,0.0
SingleSource/Benchmarks/Shootout/matrix, 0.0758, 0.0761, 0.0761,0.0761, 0.0760, 0.0762, 0.0761,0.0761,0.0
SingleSource/Benchmarks/Shootout/hash, 0.0476, 0.0476, 0.0478,0.0476, 0.0475, 0.0476, 0.0478,0.0476,0.0
SingleSource/Benchmarks/Misc/revertBits, 0.0240, 0.0241, 0.0241,0.0241, 0.0239, 0.0241, 0.0242,0.0241,0.0
SingleSource/Benchmarks/Misc/perlin, 0.0423, 0.0421, 0.0421,0.0421, 0.0419, 0.0421, 0.0422,0.0421,0.0
SingleSource/Benchmarks/Misc/evalloop, 0.0337, 0.0339, 0.0339,0.0339, 0.0338, 0.0339, 0.0340,0.0339,0.0
SingleSource/Benchmarks/Misc-C++/mandel-text, 0.0227, 0.0229, 0.0230,0.0229, 0.0227, 0.0229, 0.0230,0.0229,0.0
SingleSource/Benchmarks/McGill/chomp, 0.1709, 0.1711, 0.1704,0.1709, 0.1706, 0.1709, 0.1711,0.1709,0.0
MultiSource/Benchmarks/FreeBench/pifft/pifft, 0.8389, 0.8396, 0.8400,0.8396, 0.8397, 0.8393, 0.8396,0.8396,0.0
MultiSource/Applications/ClamAV/clamscan,13.2189,13.2482,13.2493,13.2482,13.2403,13.2457,13.2528,13.2457,-0.01887048806631375
MultiSource/Applications/lua/lua, 2.9478, 2.9605, 2.9592,2.9592, 2.9510, 2.9596, 2.9581,2.9581,-0.03717220870506077
MultiSource/Benchmarks/sim/sim, 0.2600, 0.2587, 0.2589,0.2589, 0.2591, 0.2587, 0.2588,0.2588,-0.038624951718824185
MultiSource/Benchmarks/TSVC/Equivalencing-flt/Equivalencing-flt, 1.5173, 1.5132, 1.5186,1.5173, 1.5165, 1.5173, 1.5130,1.5165,-0.05272523561590248
MultiSource/Applications/siod/siod, 1.8207, 1.8186, 1.8235,1.8207, 1.8110, 1.8195, 1.8203,1.8195,-0.06590871642775387
MultiSource/Benchmarks/Fhourstones/fhourstones, 0.1485, 0.1497, 0.1507,0.1497, 0.1496, 0.1483, 0.1508,0.1496,-0.06680026720106147
MultiSource/Benchmarks/VersaBench/beamformer/beamformer, 0.2737, 0.2751, 0.2750,0.275, 0.2748, 0.2747, 0.2760,0.2748,-0.07272727272727986
MultiSource/Benchmarks/Olden/tsp/tsp, 0.1185, 0.1191, 0.1198,0.1191, 0.1182, 0.1190, 0.1196,0.119,-0.08396305625525402
SingleSource/Benchmarks/Shootout-C++/fibo, 0.1067, 0.1064, 0.1068,0.1067, 0.1062, 0.1067, 0.1066,0.1066,-0.09372071227741197
MultiSource/Benchmarks/DOE-ProxyApps-C++/CLAMR/CLAMR,16.3805,16.3797,16.3919,16.3805,16.3643,16.3500,16.3851,16.3643,-0.0988980800341932
MultiSource/Applications/hbd/hbd, 1.0978, 1.1027, 1.1057,1.1027, 1.0983, 1.1013, 1.1030,1.1013,-0.12696109549288348
MultiSource/Applications/oggenc/oggenc, 4.3657, 4.3721, 4.3712,4.3712, 4.3494, 4.3681, 4.3643,4.3643,-0.1578513909224033
SingleSource/Benchmarks/Shootout-C++/heapsort, 0.1217, 0.1218, 0.1217,0.1217, 0.1215, 0.1214, 0.1225,0.1215,-0.16433853738702098
SingleSource/Benchmarks/Shootout-C++/lists1, 0.1792, 0.1787, 0.1780,0.1787, 0.1784, 0.1772, 0.1786,0.1784,-0.16787912702853625
MultiSource/Applications/minisat/minisat, 0.5643, 0.5682, 0.5633,0.5643, 0.5599, 0.5646, 0.5633,0.5633,-0.17721070352649804
MultiSource/Benchmarks/TSVC/Equivalencing-dbl/Equivalencing-dbl, 1.8182, 1.8263, 1.8236,1.8236, 1.8172, 1.8203, 1.8266,1.8203,-0.1809607370037325
MultiSource/Benchmarks/Prolangs-C++/life/life, 0.0549, 0.0551, 0.0552,0.0551, 0.0549, 0.0550, 0.0552,0.055,-0.1814882032667886
MultiSource/Benchmarks/TSVC/LoopRerolling-flt/LoopRerolling-flt, 1.4862, 1.4877, 1.4832,1.4862, 1.4825, 1.4839, 1.4833,1.4833,-0.19512851567755618
MultiSource/Benchmarks/TSVC/ControlLoops-flt/ControlLoops-flt, 1.5539, 1.5622, 1.5558,1.5558, 1.5525, 1.5527, 1.5544,1.5527,-0.1992544028795562
MultiSource/Benchmarks/TSVC/LoopRestructuring-flt/LoopRestructuring-flt, 1.5435, 1.5201, 1.5270,1.527, 1.5213, 1.5239, 1.5289,1.5239,-0.2030124426980917
MultiSource/Benchmarks/TSVC/ControlLoops-dbl/ControlLoops-dbl, 1.8577, 1.8668, 1.8640,1.864, 1.8489, 1.8620, 1.8602,1.8602,-0.20386266094420957
MultiSource/Benchmarks/Ptrdist/ft/ft, 0.1916, 0.1928, 0.1935,0.1928, 0.1918, 0.1924, 0.1929,0.1924,-0.20746887966806016
MultiSource/Benchmarks/TSVC/NodeSplitting-flt/NodeSplitting-flt, 1.4991, 1.5031, 1.4961,1.4991, 1.4930, 1.5017, 1.4959,1.4959,-0.21346141017944964
MultiSource/Benchmarks/TSVC/GlobalDataFlow-dbl/GlobalDataFlow-dbl, 1.8488, 1.8517, 1.8562,1.8517, 1.8476, 1.8438, 1.8498,1.8476,-0.22141815628881067
MultiSource/Benchmarks/MiBench/consumer-typeset/consumer-typeset, 8.9228, 8.9414, 8.9531,8.9414, 8.9150, 8.9198, 8.9375,8.9198,-0.2415729080457174
MultiSource/Applications/SPASS/SPASS,11.1334,11.1427,11.1505,11.1427,11.1084,11.1139,11.1166,11.1139,-0.25846518348335845
MultiSource/Benchmarks/TSVC/Expansion-flt/Expansion-flt, 1.5455, 1.5556, 1.5528,1.5528, 1.5474, 1.5487, 1.5521,1.5487,-0.2640391550747023
MultiSource/Benchmarks/TSVC/Recurrences-dbl/Recurrences-dbl, 1.7760, 1.7784, 1.7771,1.7771, 1.7706, 1.7723, 1.7779,1.7723,-0.2701029767598895
MultiSource/Benchmarks/TSVC/Searching-dbl/Searching-dbl, 1.7675, 1.7655, 1.7665,1.7665, 1.7647, 1.7588, 1.7617,1.7617,-0.2717237475233447
SingleSource/Benchmarks/Shootout-C++/matrix, 0.1698, 0.1685, 0.1696,0.1696, 0.1691, 0.1689, 0.1692,0.1691,-0.2948113207547176
SingleSource/Benchmarks/Misc/richards_benchmark, 0.0590, 0.0589, 0.0589,0.0589, 0.0586, 0.0587, 0.0587,0.0587,-0.339558573853993
SingleSource/Benchmarks/CoyoteBench/lpbench, 0.1383, 0.1380, 0.1378,0.138, 0.1375, 0.1377, 0.1375,0.1375,-0.36231884057971175
MultiSource/Benchmarks/TSVC/GlobalDataFlow-flt/GlobalDataFlow-flt, 1.5509, 1.5523, 1.5449,1.5509, 1.5450, 1.5420, 1.5453,1.545,-0.38042426977883403
MultiSource/Applications/kimwitu++/kc,10.1029,10.0443,10.0818,10.0818,10.0247,10.0419,10.0415,10.0415,-0.3997302069075004
MultiSource/Benchmarks/TSVC/LoopRerolling-dbl/LoopRerolling-dbl, 1.7901, 1.7925, 1.7919,1.7919, 1.7867, 1.7820, 1.7841,1.7841,-0.43529214799933325
SingleSource/Benchmarks/Shootout-C++/lists, 0.1578, 0.1549, 0.1562,0.1562, 0.1567, 0.1553, 0.1546,0.1553,-0.5761843790012877
MultiSource/Applications/obsequi/Obsequi, 0.9071, 0.9040, 0.9062,0.9062, 0.9003, 0.9065, 0.9004,0.9004,-0.6400353122930968
MultiSource/Benchmarks/FreeBench/fourinarow/fourinarow, 0.3072, 0.3074, 0.3063,0.3072, 0.3045, 0.3051, 0.3063,0.3051,-0.68359375
SingleSource/Benchmarks/Shootout-C++/hash, 0.2480, 0.2474, 0.2477,0.2477, 0.2455, 0.2449, 0.2456,0.2455,-0.8881711748082388
MultiSource/Benchmarks/McCat/09-vor/vor, 0.2517, 0.2529, 0.2535,0.2529, 0.2494, 0.2505, 0.2507,0.2505,-0.9489916963226652
SingleSource/Benchmarks/CoyoteBench/huffbench, 0.0786, 0.0786, 0.0783,0.0786, 0.0776, 0.0777, 0.0778,0.0777,-1.1450381679389277
MultiSource/Benchmarks/tramp3d-v4/tramp3d-v4,18.3736,18.3727,18.3616,18.3727,18.1496,18.1534,18.1891,18.1534,-1.1936187931006148
SingleSource/Benchmarks/Misc-C++/bigfib, 0.4227, 0.4285, 0.4321,0.4285, 0.4265, 0.4227, 0.4168,0.4227,-1.3535589264877412
SingleSource/Benchmarks/Adobe-C++/functionobjects, 0.4184, 0.4164, 0.4161,0.4164, 0.4107, 0.4107, 0.4109,0.4107,-1.368876080691639
SingleSource/Benchmarks/Shootout-C++/hash2, 0.3125, 0.3246, 0.3159,0.3159, 0.3190, 0.3104, 0.3106,0.3106,-1.677746122190571
SingleSource/Benchmarks/Shootout-C++/moments, 0.3470, 0.3522, 0.3501,0.3501, 0.3446, 0.3396, 0.3427,0.3427,-2.1136818051985196
SingleSource/Benchmarks/Misc-C++/stepanov_v1p2, 0.1586, 0.1584, 0.1577,0.1584, 0.1544, 0.1547, 0.1554,0.1547,-2.3358585858585967
SingleSource/Benchmarks/Misc-C++/stepanov_container, 0.6657, 0.6605, 0.6571,0.6605, 0.6380, 0.6457, 0.6448,0.6448,-2.3769871309613833
SingleSource/Benchmarks/Misc-C++-EH/spirit, 3.3897, 3.3677, 3.3799,3.3799, 3.3020, 3.2985, 3.2970,3.2985,-2.408355276783336
SingleSource/Benchmarks/Shootout-C++/EH/except, 0.1354, 0.1427, 0.1417,0.1417, 0.1407, 0.1370, 0.1355,0.137,-3.3168666196188967
SingleSource/Benchmarks/BenchmarkGame/Large/fasta, 0.0526, 0.0496, 0.0513,0.0513, 0.0506, 0.0487, 0.0485,0.0487,-5.0682261208577
SingleSource/Benchmarks/Adobe-C++/stepanov_abstraction, 0.5579, 0.5579, 0.5576,0.5579, 0.5255, 0.5280, 0.5257,0.5257,-5.771643663739024
MultiSource/Benchmarks/Olden/voronoi/voronoi, 0.2252, 0.2221, 0.2232,0.2232, 0.1999, 0.2007, 0.2009,0.2007,-10.080645161290336
SingleSource/Benchmarks/Adobe-C++/stepanov_vector, 0.6856, 0.6797, 0.6791,0.6797, 0.5711, 0.5788, 0.5828,0.5788,-14.844784463733996
Total elapsed time,-,-,-,335.23669999999964,-,-,-,335.31549999999993,0.023505779647714498
Total failure,-,-,-,0,-,-,-,0,
Geom. avg slowdown,,,,,,,,,0.264862548904%
