Benchmarks,/mnt/freezedisk/llvm-intptr-base-5.0-release/bin/clang,/mnt/freezedisk/llvm-intptr-base-5.0-release/bin/clang,/mnt/freezedisk/llvm-intptr-base-5.0-release/bin/clang,median,/mnt/freezedisk/llvm-intptr-insts-5.0-release/bin/clang,/mnt/freezedisk/llvm-intptr-insts-5.0-release/bin/clang,/mnt/freezedisk/llvm-intptr-insts-5.0-release/bin/clang,median
MultiSource/Applications/ALAC/decode/alacconvert-decode, 0.8543, 0.8553, 0.8557,0.8553, 0.8592, 0.8571, 0.8561,0.8571
MultiSource/Applications/ALAC/encode/alacconvert-encode, 0.8541, 0.8558, 0.8559,0.8558, 0.8550, 0.8569, 0.8560,0.856
MultiSource/Applications/ClamAV/clamscan,12.9855,12.9886,12.9998,12.9886,12.9693,12.9794,12.9813,12.9794
MultiSource/Applications/JM/ldecod/ldecod, 5.6670, 5.6770, 5.6731,5.6731, 5.6628, 5.6616, 5.6664,5.6628
MultiSource/Applications/JM/lencod/lencod,13.2939,13.2927,13.2988,13.2939,13.3000,13.2979,13.2990,13.299
MultiSource/Applications/SIBsim4/SIBsim4, 1.0344, 1.0326, 1.0350,1.0344, 1.0319, 1.0320, 1.0315,1.0319
MultiSource/Applications/SPASS/SPASS,11.0302,11.0224,11.0354,11.0302,10.9793,10.9891,10.9880,10.988
MultiSource/Applications/aha/aha, 0.0896, 0.0898, 0.0900,0.0898, 0.0900, 0.0900, 0.0901,0.09
MultiSource/Applications/d/make_dparser, 2.3310, 2.3310, 2.3343,2.331, 2.3404, 2.3406, 2.3412,2.3406
MultiSource/Applications/hbd/hbd, 1.0916, 1.0944, 1.0900,1.0916, 1.0848, 1.0865, 1.0858,1.0858
MultiSource/Applications/hexxagon/hexxagon, 0.6034, 0.6058, 0.6053,0.6053, 0.6040, 0.6055, 0.6042,0.6042
MultiSource/Applications/kimwitu++/kc,10.0899,10.0829,10.0900,10.0899,10.0288,10.0337,10.0283,10.0288
MultiSource/Applications/lambda-0.1.3/lambda, 0.5038, 0.5043, 0.5039,0.5039, 0.5023, 0.5033, 0.5033,0.5033
MultiSource/Applications/lua/lua, 2.9250, 2.9251, 2.9312,2.9251, 2.9215, 2.9279, 2.9250,2.925
MultiSource/Applications/minisat/minisat, 0.5504, 0.5485, 0.5483,0.5485, 0.5473, 0.5475, 0.5474,0.5474
MultiSource/Applications/obsequi/Obsequi, 0.8759, 0.8766, 0.8771,0.8766, 0.8788, 0.8784, 0.8792,0.8788
MultiSource/Applications/oggenc/oggenc, 4.4049, 4.4055, 4.4059,4.4055, 4.3960, 4.3937, 4.3919,4.3937
MultiSource/Applications/sgefa/sgefa, 0.3522, 0.3519, 0.3521,0.3521, 0.3518, 0.3521, 0.3522,0.3521
MultiSource/Applications/siod/siod, 1.7715, 1.7728, 1.7743,1.7728, 1.7637, 1.7654, 1.7643,1.7643
MultiSource/Applications/spiff/spiff, 0.6820, 0.6826, 0.6833,0.6826, 0.6872, 0.6891, 0.6886,0.6886
MultiSource/Applications/sqlite3/sqlite3,13.6118,13.5791,13.6090,13.609,13.6461,13.6626,13.6435,13.6461
MultiSource/Applications/viterbi/viterbi, 0.1531, 0.1550, 0.1535,0.1535, 0.1537, 0.1541, 0.1540,0.154
MultiSource/Benchmarks/7zip/7zip-benchmark,30.7740,30.7948,30.7911,30.7911,30.7707,30.7963,30.7819,30.7819
MultiSource/Benchmarks/ASCI_Purple/SMG2000/smg2000, 5.0853, 5.0865, 5.0923,5.0865, 5.1182, 5.1237, 5.1202,5.1202
MultiSource/Benchmarks/ASC_Sequoia/AMGmk/AMGmk, 0.5301, 0.5323, 0.5302,0.5302, 0.5310, 0.5313, 0.5311,0.5311
MultiSource/Benchmarks/ASC_Sequoia/CrystalMk/CrystalMk, 0.2023, 0.2029, 0.2023,0.2023, 0.2030, 0.2033, 0.2035,0.2033
MultiSource/Benchmarks/ASC_Sequoia/IRSmk/IRSmk, 0.0941, 0.0943, 0.0953,0.0943, 0.0945, 0.0945, 0.0947,0.0945
MultiSource/Benchmarks/BitBench/drop3/drop3, 0.0396, 0.0395, 0.0395,0.0395, 0.0396, 0.0397, 0.0396,0.0396
MultiSource/Benchmarks/BitBench/five11/five11, 0.0493, 0.0492, 0.0494,0.0493, 0.0495, 0.0511, 0.0495,0.0495
MultiSource/Benchmarks/BitBench/uudecode/uudecode, 0.0401, 0.0402, 0.0401,0.0401, 0.0403, 0.0403, 0.0402,0.0403
MultiSource/Benchmarks/BitBench/uuencode/uuencode, 0.0395, 0.0396, 0.0394,0.0395, 0.0397, 0.0397, 0.0398,0.0397
MultiSource/Benchmarks/Bullet/bullet,20.9038,20.9442,20.9293,20.9293,20.8791,20.9109,20.8958,20.8958
MultiSource/Benchmarks/DOE-ProxyApps-C++/CLAMR/CLAMR,16.4173,16.4206,16.4269,16.4206,16.3630,16.3799,16.3803,16.3799
MultiSource/Benchmarks/DOE-ProxyApps-C++/HPCCG/HPCCG, 1.2879, 1.2903, 1.2885,1.2885, 1.3116, 1.3128, 1.3125,1.3125
MultiSource/Benchmarks/DOE-ProxyApps-C++/PENNANT/PENNANT, 3.6937, 3.6961, 3.6969,3.6961, 3.7060, 3.7080, 3.7080,3.708
MultiSource/Benchmarks/DOE-ProxyApps-C++/miniFE/miniFE, 2.3448, 2.3480, 2.3475,2.3475, 2.4531, 2.4595, 2.4524,2.4531
MultiSource/Benchmarks/DOE-ProxyApps-C/Pathfinder/PathFinder, 0.7350, 0.7356, 0.7345,0.735, 0.7352, 0.7365, 0.7361,0.7361
MultiSource/Benchmarks/DOE-ProxyApps-C/RSBench/rsbench, 0.3567, 0.3578, 0.3572,0.3572, 0.3648, 0.3654, 0.3657,0.3654
MultiSource/Benchmarks/DOE-ProxyApps-C/SimpleMOC/SimpleMOC, 0.7787, 0.7798, 0.7790,0.779, 0.7868, 0.7865, 0.7865,0.7865
MultiSource/Benchmarks/DOE-ProxyApps-C/XSBench/XSBench, 0.3176, 0.3185, 0.3176,0.3176, 0.3225, 0.3230, 0.3229,0.3229
MultiSource/Benchmarks/DOE-ProxyApps-C/miniAMR/miniAMR, 1.2071, 1.2092, 1.2085,1.2085, 1.2104, 1.2106, 1.2102,1.2104
MultiSource/Benchmarks/DOE-ProxyApps-C/miniGMG/miniGMG, 0.8737, 0.8736, 0.8730,0.8736, 0.8736, 0.8750, 0.8744,0.8744
MultiSource/Benchmarks/Fhourstones-3.1/fhourstones3.1, 0.1061, 0.1061, 0.1064,0.1061, 0.1065, 0.1063, 0.1061,0.1063
MultiSource/Benchmarks/Fhourstones/fhourstones, 0.1487, 0.1490, 0.1491,0.149, 0.1491, 0.1489, 0.1508,0.1491
MultiSource/Benchmarks/FreeBench/analyzer/analyzer, 0.2169, 0.2170, 0.2169,0.2169, 0.2189, 0.2195, 0.2191,0.2191
MultiSource/Benchmarks/FreeBench/distray/distray, 0.0844, 0.0847, 0.0846,0.0846, 0.0847, 0.0850, 0.0850,0.085
MultiSource/Benchmarks/FreeBench/fourinarow/fourinarow, 0.3017, 0.3016, 0.3025,0.3017, 0.3003, 0.3004, 0.3002,0.3003
MultiSource/Benchmarks/FreeBench/mason/mason, 0.0456, 0.0456, 0.0457,0.0456, 0.0458, 0.0457, 0.0458,0.0458
MultiSource/Benchmarks/FreeBench/neural/neural, 0.1580, 0.1583, 0.1582,0.1582, 0.1582, 0.1578, 0.1579,0.1579
MultiSource/Benchmarks/FreeBench/pcompress2/pcompress2, 0.2243, 0.2242, 0.2240,0.2242, 0.2250, 0.2251, 0.2250,0.225
MultiSource/Benchmarks/FreeBench/pifft/pifft, 0.8332, 0.8324, 0.8339,0.8332, 0.8342, 0.8336, 0.8339,0.8339
MultiSource/Benchmarks/MallocBench/cfrac/cfrac, 0.8039, 0.8057, 0.8039,0.8039, 0.8034, 0.8067, 0.8057,0.8057
MultiSource/Benchmarks/MallocBench/espresso/espresso, 4.1243, 4.1281, 4.1261,4.1261, 4.1413, 4.1438, 4.1411,4.1413
MultiSource/Benchmarks/MallocBench/gs/gs, 3.4163, 3.4164, 3.4211,3.4164, 3.4137, 3.4202, 3.4163,3.4163
MultiSource/Benchmarks/McCat/01-qbsort/qbsort, 0.0896, 0.0894, 0.0895,0.0895, 0.0898, 0.0897, 0.0896,0.0897
MultiSource/Benchmarks/McCat/03-testtrie/testtrie, 0.0859, 0.0846, 0.0847,0.0847, 0.0851, 0.0849, 0.0862,0.0851
MultiSource/Benchmarks/McCat/04-bisect/bisect, 0.1178, 0.1177, 0.1176,0.1177, 0.1185, 0.1187, 0.1184,0.1185
MultiSource/Benchmarks/McCat/05-eks/eks, 0.4704, 0.4694, 0.4717,0.4704, 0.4710, 0.4710, 0.4712,0.471
MultiSource/Benchmarks/McCat/08-main/main, 0.2184, 0.2180, 0.2183,0.2183, 0.2189, 0.2189, 0.2193,0.2189
MultiSource/Benchmarks/McCat/09-vor/vor, 0.2518, 0.2510, 0.2516,0.2516, 0.2491, 0.2485, 0.2483,0.2485
MultiSource/Benchmarks/McCat/12-IOtest/iotest, 0.0880, 0.0880, 0.0880,0.088, 0.0883, 0.0882, 0.0885,0.0883
MultiSource/Benchmarks/McCat/17-bintr/bintr, 0.0651, 0.0649, 0.0654,0.0651, 0.0652, 0.0652, 0.0652,0.0652
MultiSource/Benchmarks/McCat/18-imp/imp, 0.2995, 0.2991, 0.2994,0.2994, 0.3002, 0.3001, 0.3000,0.3001
MultiSource/Benchmarks/MiBench/automotive-basicmath/automotive-basicmath, 0.1325, 0.1326, 0.1326,0.1326, 0.1329, 0.1335, 0.1344,0.1335
MultiSource/Benchmarks/MiBench/automotive-bitcount/automotive-bitcount, 0.2378, 0.2378, 0.2379,0.2378, 0.2384, 0.2398, 0.2394,0.2394
MultiSource/Benchmarks/MiBench/automotive-susan/automotive-susan, 0.5560, 0.5548, 0.5552,0.5552, 0.5566, 0.5566, 0.5559,0.5566
MultiSource/Benchmarks/MiBench/consumer-jpeg/consumer-jpeg, 4.0191, 4.0212, 4.0226,4.0212, 4.0096, 4.0146, 4.0118,4.0118
MultiSource/Benchmarks/MiBench/consumer-lame/consumer-lame, 3.5566, 3.5585, 3.5614,3.5585, 3.5768, 3.5800, 3.5757,3.5768
MultiSource/Benchmarks/MiBench/consumer-typeset/consumer-typeset, 8.9020, 8.9058, 8.9081,8.9058, 8.8615, 8.8658, 8.8762,8.8658
MultiSource/Benchmarks/MiBench/network-dijkstra/network-dijkstra, 0.0387, 0.0387, 0.0387,0.0387, 0.0386, 0.0386, 0.0387,0.0386
MultiSource/Benchmarks/MiBench/network-patricia/network-patricia, 0.0742, 0.0743, 0.0743,0.0743, 0.0745, 0.0746, 0.0746,0.0746
MultiSource/Benchmarks/MiBench/security-rijndael/security-rijndael, 0.3565, 0.3556, 0.3560,0.356, 0.3558, 0.3559, 0.3561,0.3559
MultiSource/Benchmarks/MiBench/security-sha/security-sha, 0.1084, 0.1069, 0.1069,0.1069, 0.1072, 0.1073, 0.1074,0.1073
MultiSource/Benchmarks/MiBench/telecomm-CRC32/telecomm-CRC32, 0.0325, 0.0327, 0.0326,0.0326, 0.0327, 0.0326, 0.0326,0.0326
MultiSource/Benchmarks/MiBench/telecomm-FFT/telecomm-fft, 0.1277, 0.1292, 0.1273,0.1277, 0.1283, 0.1285, 0.1285,0.1285
MultiSource/Benchmarks/MiBench/telecomm-adpcm/telecomm-adpcm, 0.0519, 0.0519, 0.0518,0.0519, 0.0519, 0.0520, 0.0521,0.052
MultiSource/Benchmarks/MiBench/telecomm-gsm/telecomm-gsm, 0.9453, 0.9442, 0.9447,0.9447, 0.9470, 0.9484, 0.9473,0.9473
MultiSource/Benchmarks/NPB-serial/is/is, 0.0591, 0.0591, 0.0590,0.0591, 0.0593, 0.0593, 0.0594,0.0593
MultiSource/Benchmarks/Olden/bh/bh, 0.2353, 0.2351, 0.2358,0.2353, 0.2356, 0.2360, 0.2359,0.2359
MultiSource/Benchmarks/Olden/bisort/bisort, 0.0595, 0.0596, 0.0594,0.0595, 0.0594, 0.0596, 0.0596,0.0596
MultiSource/Benchmarks/Olden/em3d/em3d, 0.1627, 0.1629, 0.1641,0.1629, 0.1631, 0.1631, 0.1631,0.1631
MultiSource/Benchmarks/Olden/health/health, 0.1262, 0.1268, 0.1264,0.1264, 0.1271, 0.1277, 0.1271,0.1271
MultiSource/Benchmarks/Olden/mst/mst, 0.1131, 0.1133, 0.1134,0.1133, 0.1164, 0.1167, 0.1166,0.1166
MultiSource/Benchmarks/Olden/perimeter/perimeter, 0.0728, 0.0728, 0.0727,0.0728, 0.0728, 0.0733, 0.0730,0.073
MultiSource/Benchmarks/Olden/power/power, 0.1172, 0.1176, 0.1174,0.1174, 0.1180, 0.1182, 0.1181,0.1181
MultiSource/Benchmarks/Olden/treeadd/treeadd, 0.0529, 0.0527, 0.0529,0.0529, 0.0528, 0.0533, 0.0544,0.0533
MultiSource/Benchmarks/Olden/tsp/tsp, 0.1181, 0.1181, 0.1182,0.1181, 0.1190, 0.1177, 0.1180,0.118
MultiSource/Benchmarks/Olden/voronoi/voronoi, 0.2203, 0.2207, 0.2205,0.2205, 0.1987, 0.1999, 0.1994,0.1994
MultiSource/Benchmarks/PAQ8p/paq8p, 1.7184, 1.7215, 1.7212,1.7212, 1.7169, 1.7221, 1.7191,1.7191
MultiSource/Benchmarks/Prolangs-C++/city/city, 0.8270, 0.8288, 0.8261,0.827, 0.8287, 0.8298, 0.8294,0.8294
MultiSource/Benchmarks/Prolangs-C++/employ/employ, 0.1847, 0.1849, 0.1843,0.1847, 0.1845, 0.1851, 0.1850,0.185
MultiSource/Benchmarks/Prolangs-C++/life/life, 0.0547, 0.0547, 0.0548,0.0547, 0.0546, 0.0547, 0.0545,0.0546
MultiSource/Benchmarks/Prolangs-C++/ocean/ocean, 0.0999, 0.1001, 0.1000,0.1, 0.0995, 0.1002, 0.0996,0.0996
MultiSource/Benchmarks/Prolangs-C++/primes/primes, 0.0235, 0.0236, 0.0235,0.0235, 0.0235, 0.0235, 0.0235,0.0235
MultiSource/Benchmarks/Prolangs-C++/simul/simul, 0.0486, 0.0487, 0.0484,0.0486, 0.0484, 0.0487, 0.0487,0.0487
MultiSource/Benchmarks/Prolangs-C/agrep/agrep, 1.2018, 1.1998, 1.1998,1.1998, 1.2020, 1.2022, 1.2030,1.2022
MultiSource/Benchmarks/Prolangs-C/bison/mybison, 1.4589, 1.4574, 1.4601,1.4589, 1.4584, 1.4592, 1.4621,1.4592
MultiSource/Benchmarks/Prolangs-C/gnugo/gnugo, 0.6767, 0.6738, 0.6732,0.6738, 0.6746, 0.6785, 0.6757,0.6757
MultiSource/Benchmarks/Ptrdist/anagram/anagram, 0.0908, 0.0908, 0.0910,0.0908, 0.0907, 0.0909, 0.0907,0.0907
MultiSource/Benchmarks/Ptrdist/bc/bc, 0.9118, 0.9122, 0.9115,0.9118, 0.9103, 0.9119, 0.9111,0.9111
MultiSource/Benchmarks/Ptrdist/ft/ft, 0.1913, 0.1914, 0.1916,0.1914, 0.1902, 0.1912, 0.1927,0.1912
MultiSource/Benchmarks/Ptrdist/ks/ks, 0.1313, 0.1316, 0.1315,0.1315, 0.1316, 0.1317, 0.1317,0.1317
MultiSource/Benchmarks/Ptrdist/yacr2/yacr2, 0.5482, 0.5474, 0.5475,0.5475, 0.5470, 0.5480, 0.5473,0.5473
MultiSource/Benchmarks/SciMark2-C/scimark2, 0.3411, 0.3416, 0.3412,0.3412, 0.3422, 0.3438, 0.3426,0.3426
MultiSource/Benchmarks/TSVC/ControlFlow-dbl/ControlFlow-dbl, 1.9655, 1.9402, 1.9656,1.9655, 1.9712, 1.9681, 1.9687,1.9687
MultiSource/Benchmarks/TSVC/ControlFlow-flt/ControlFlow-flt, 1.6592, 1.6559, 1.6574,1.6574, 1.6668, 1.6600, 1.6617,1.6617
MultiSource/Benchmarks/TSVC/ControlLoops-dbl/ControlLoops-dbl, 1.8703, 1.8777, 1.8822,1.8777, 1.8780, 1.8774, 1.8791,1.878
MultiSource/Benchmarks/TSVC/ControlLoops-flt/ControlLoops-flt, 1.5688, 1.5673, 1.5741,1.5688, 1.5748, 1.5731, 1.5711,1.5731
MultiSource/Benchmarks/TSVC/CrossingThresholds-dbl/CrossingThresholds-dbl, 1.8300, 1.8304, 1.8327,1.8304, 1.8418, 1.8409, 1.8378,1.8409
MultiSource/Benchmarks/TSVC/CrossingThresholds-flt/CrossingThresholds-flt, 1.5248, 1.5248, 1.5257,1.5248, 1.5305, 1.5282, 1.5303,1.5303
MultiSource/Benchmarks/TSVC/Equivalencing-dbl/Equivalencing-dbl, 1.8435, 1.8376, 1.8397,1.8397, 1.8408, 1.8410, 1.8442,1.841
MultiSource/Benchmarks/TSVC/Equivalencing-flt/Equivalencing-flt, 1.5268, 1.5267, 1.5280,1.5268, 1.5274, 1.5293, 1.5272,1.5274
MultiSource/Benchmarks/TSVC/Expansion-dbl/Expansion-dbl, 1.8796, 1.8862, 1.8772,1.8796, 1.8794, 1.8812, 1.8799,1.8799
MultiSource/Benchmarks/TSVC/Expansion-flt/Expansion-flt, 1.5667, 1.5655, 1.5669,1.5667, 1.5693, 1.5699, 1.5693,1.5693
MultiSource/Benchmarks/TSVC/GlobalDataFlow-dbl/GlobalDataFlow-dbl, 1.8653, 1.8677, 1.8692,1.8677, 1.8710, 1.8698, 1.8690,1.8698
MultiSource/Benchmarks/TSVC/GlobalDataFlow-flt/GlobalDataFlow-flt, 1.5622, 1.5607, 1.5609,1.5609, 1.5604, 1.5621, 1.5607,1.5607
MultiSource/Benchmarks/TSVC/IndirectAddressing-dbl/IndirectAddressing-dbl, 1.8264, 1.8278, 1.8281,1.8278, 1.8300, 1.8288, 1.8303,1.83
MultiSource/Benchmarks/TSVC/IndirectAddressing-flt/IndirectAddressing-flt, 1.5180, 1.5181, 1.5191,1.5181, 1.5214, 1.5193, 1.5217,1.5214
MultiSource/Benchmarks/TSVC/InductionVariable-dbl/InductionVariable-dbl, 1.8483, 1.8282, 1.8468,1.8468, 1.8526, 1.8482, 1.8511,1.8511
MultiSource/Benchmarks/TSVC/InductionVariable-flt/InductionVariable-flt, 1.5403, 1.5406, 1.5403,1.5403, 1.5463, 1.5424, 1.5459,1.5459
MultiSource/Benchmarks/TSVC/LinearDependence-dbl/LinearDependence-dbl, 1.8904, 1.8938, 1.8931,1.8931, 1.8896, 1.8879, 1.8912,1.8896
MultiSource/Benchmarks/TSVC/LinearDependence-flt/LinearDependence-flt, 1.5816, 1.5866, 1.5828,1.5828, 1.5889, 1.5874, 1.5940,1.5889
MultiSource/Benchmarks/TSVC/LoopRerolling-dbl/LoopRerolling-dbl, 1.8055, 1.8091, 1.8050,1.8055, 1.8066, 1.8088, 1.8046,1.8066
MultiSource/Benchmarks/TSVC/LoopRerolling-flt/LoopRerolling-flt, 1.4951, 1.4961, 1.4990,1.4961, 1.4950, 1.4946, 1.4937,1.4946
MultiSource/Benchmarks/TSVC/LoopRestructuring-dbl/LoopRestructuring-dbl, 1.8436, 1.8511, 1.8454,1.8454, 1.8486, 1.8459, 1.8465,1.8465
MultiSource/Benchmarks/TSVC/LoopRestructuring-flt/LoopRestructuring-flt, 1.5424, 1.5389, 1.5404,1.5404, 1.5409, 1.5414, 1.5417,1.5414
MultiSource/Benchmarks/TSVC/NodeSplitting-dbl/NodeSplitting-dbl, 1.8154, 1.8168, 1.8139,1.8154, 1.8261, 1.8233, 1.8254,1.8254
MultiSource/Benchmarks/TSVC/NodeSplitting-flt/NodeSplitting-flt, 1.5105, 1.5088, 1.5164,1.5105, 1.5125, 1.5121, 1.5126,1.5125
MultiSource/Benchmarks/TSVC/Packing-dbl/Packing-dbl, 1.7929, 1.7905, 1.7936,1.7929, 1.7964, 1.7949, 1.7757,1.7949
MultiSource/Benchmarks/TSVC/Packing-flt/Packing-flt, 1.4842, 1.4863, 1.4865,1.4863, 1.4866, 1.4867, 1.4865,1.4866
MultiSource/Benchmarks/TSVC/Recurrences-dbl/Recurrences-dbl, 1.7919, 1.7935, 1.7970,1.7935, 1.7949, 1.7946, 1.7778,1.7946
MultiSource/Benchmarks/TSVC/Recurrences-flt/Recurrences-flt, 1.4847, 1.4817, 1.4822,1.4822, 1.4882, 1.4887, 1.4840,1.4882
MultiSource/Benchmarks/TSVC/Reductions-dbl/Reductions-dbl, 1.8838, 1.8825, 1.8847,1.8838, 1.8671, 1.8901, 1.8886,1.8886
MultiSource/Benchmarks/TSVC/Reductions-flt/Reductions-flt, 1.5777, 1.5743, 1.5767,1.5767, 1.5841, 1.5816, 1.5831,1.5831
MultiSource/Benchmarks/TSVC/Searching-dbl/Searching-dbl, 1.7806, 1.7782, 1.7802,1.7802, 1.7822, 1.7629, 1.7823,1.7822
MultiSource/Benchmarks/TSVC/Searching-flt/Searching-flt, 1.4728, 1.4720, 1.4742,1.4728, 1.4762, 1.4740, 1.4744,1.4744
MultiSource/Benchmarks/TSVC/StatementReordering-dbl/StatementReordering-dbl, 1.7918, 1.7906, 1.7941,1.7918, 1.7899, 1.7885, 1.7909,1.7899
MultiSource/Benchmarks/TSVC/StatementReordering-flt/StatementReordering-flt, 1.4822, 1.4832, 1.4832,1.4832, 1.4860, 1.4883, 1.4880,1.488
MultiSource/Benchmarks/TSVC/Symbolics-dbl/Symbolics-dbl, 1.8294, 1.8273, 1.8319,1.8294, 1.8375, 1.8366, 1.8357,1.8366
MultiSource/Benchmarks/TSVC/Symbolics-flt/Symbolics-flt, 1.5181, 1.5186, 1.5194,1.5186, 1.5235, 1.5235, 1.5219,1.5235
MultiSource/Benchmarks/Trimaran/enc-3des/enc-3des, 0.2140, 0.2141, 0.2143,0.2141, 0.2145, 0.2162, 0.2151,0.2151
MultiSource/Benchmarks/Trimaran/enc-md5/enc-md5, 0.1339, 0.1336, 0.1337,0.1337, 0.1343, 0.1347, 0.1346,0.1346
MultiSource/Benchmarks/Trimaran/enc-pc1/enc-pc1, 0.0588, 0.0589, 0.0587,0.0588, 0.0589, 0.0590, 0.0588,0.0589
MultiSource/Benchmarks/Trimaran/enc-rc4/enc-rc4, 0.0459, 0.0459, 0.0457,0.0459, 0.0461, 0.0460, 0.0460,0.046
MultiSource/Benchmarks/Trimaran/netbench-crc/netbench-crc, 0.0712, 0.0710, 0.0707,0.071, 0.0713, 0.0716, 0.0712,0.0713
MultiSource/Benchmarks/Trimaran/netbench-url/netbench-url, 0.1886, 0.1885, 0.1883,0.1885, 0.1890, 0.1892, 0.1889,0.189
MultiSource/Benchmarks/VersaBench/8b10b/8b10b, 0.0697, 0.0696, 0.0696,0.0696, 0.0698, 0.0702, 0.0698,0.0698
MultiSource/Benchmarks/VersaBench/beamformer/beamformer, 0.2713, 0.2710, 0.2713,0.2713, 0.2720, 0.2718, 0.2717,0.2718
MultiSource/Benchmarks/VersaBench/bmm/bmm, 0.0466, 0.0466, 0.0466,0.0466, 0.0468, 0.0468, 0.0467,0.0468
MultiSource/Benchmarks/VersaBench/dbms/dbms, 0.8971, 0.8921, 0.8904,0.8921, 0.8928, 0.8947, 0.8943,0.8943
MultiSource/Benchmarks/VersaBench/ecbdes/ecbdes, 0.1923, 0.1929, 0.1925,0.1925, 0.1934, 0.1938, 0.1937,0.1937
MultiSource/Benchmarks/llubenchmark/llu, 0.0431, 0.0431, 0.0430,0.0431, 0.0431, 0.0433, 0.0432,0.0432
MultiSource/Benchmarks/mafft/pairlocalalign, 7.8541, 7.8476, 7.8645,7.8541, 7.8399, 7.8469, 7.8462,7.8462
MultiSource/Benchmarks/mediabench/adpcm/rawcaudio/rawcaudio, 0.0521, 0.0523, 0.0519,0.0521, 0.0523, 0.0524, 0.0523,0.0523
MultiSource/Benchmarks/mediabench/adpcm/rawdaudio/rawdaudio, 0.0519, 0.0521, 0.0519,0.0519, 0.0521, 0.0522, 0.0523,0.0522
MultiSource/Benchmarks/mediabench/g721/g721encode/encode, 0.1817, 0.1820, 0.1818,0.1818, 0.1820, 0.1824, 0.1840,0.1824
MultiSource/Benchmarks/mediabench/gsm/toast/toast, 0.9463, 0.9453, 0.9443,0.9453, 0.9474, 0.9468, 0.9479,0.9474
MultiSource/Benchmarks/mediabench/jpeg/jpeg-6a/cjpeg, 4.0574, 4.0587, 4.0603,4.0587, 4.0485, 4.0515, 4.0520,4.0515
MultiSource/Benchmarks/mediabench/mpeg2/mpeg2dec/mpeg2decode, 1.1995, 1.1996, 1.1991,1.1995, 1.2006, 1.2017, 1.2020,1.2017
MultiSource/Benchmarks/nbench/nbench, 1.0068, 1.0061, 1.0066,1.0066, 1.0082, 1.0073, 1.0070,1.0073
MultiSource/Benchmarks/sim/sim, 0.2555, 0.2552, 0.2554,0.2554, 0.2550, 0.2551, 0.2550,0.255
MultiSource/Benchmarks/tramp3d-v4/tramp3d-v4,18.6084,18.5813,18.6422,18.6084,18.4203,18.3852,18.3928,18.3928
SingleSource/Benchmarks/Adobe-C++/functionobjects, 0.4144, 0.4136, 0.4132,0.4136, 0.4060, 0.4056, 0.4049,0.4056
SingleSource/Benchmarks/Adobe-C++/loop_unroll, 3.9933, 3.9884, 3.9968,3.9933, 3.9942, 3.9878, 3.9886,3.9886
SingleSource/Benchmarks/Adobe-C++/simple_types_constant_folding, 2.2695, 2.2672, 2.2650,2.2672, 2.2708, 2.2616, 2.2682,2.2682
SingleSource/Benchmarks/Adobe-C++/simple_types_loop_invariant, 1.8278, 1.8344, 1.8315,1.8315, 1.8250, 1.8301, 1.8325,1.8301
SingleSource/Benchmarks/Adobe-C++/stepanov_abstraction, 0.5532, 0.5511, 0.5536,0.5532, 0.5235, 0.5228, 0.5239,0.5235
SingleSource/Benchmarks/Adobe-C++/stepanov_vector, 0.6667, 0.6682, 0.6693,0.6682, 0.5616, 0.5632, 0.5633,0.5632
SingleSource/Benchmarks/BenchmarkGame/Large/fasta, 0.0374, 0.0376, 0.0374,0.0374, 0.0376, 0.0377, 0.0377,0.0377
SingleSource/Benchmarks/BenchmarkGame/fannkuch, 0.0469, 0.0471, 0.0469,0.0469, 0.0471, 0.0472, 0.0471,0.0471
SingleSource/Benchmarks/BenchmarkGame/n-body, 0.0645, 0.0646, 0.0644,0.0645, 0.0647, 0.0648, 0.0648,0.0648
SingleSource/Benchmarks/BenchmarkGame/nsieve-bits, 0.0296, 0.0296, 0.0295,0.0296, 0.0298, 0.0299, 0.0298,0.0298
SingleSource/Benchmarks/BenchmarkGame/partialsums, 0.0277, 0.0278, 0.0276,0.0277, 0.0279, 0.0281, 0.0280,0.028
SingleSource/Benchmarks/BenchmarkGame/puzzle, 0.0511, 0.0511, 0.0511,0.0511, 0.0512, 0.0513, 0.0513,0.0513
SingleSource/Benchmarks/BenchmarkGame/recursive, 0.0247, 0.0249, 0.0247,0.0247, 0.0249, 0.0249, 0.0249,0.0249
SingleSource/Benchmarks/BenchmarkGame/spectral-norm, 0.0498, 0.0499, 0.0496,0.0498, 0.0503, 0.0502, 0.0501,0.0502
SingleSource/Benchmarks/CoyoteBench/almabench, 0.0606, 0.0607, 0.0592,0.0606, 0.0643, 0.0627, 0.0626,0.0627
SingleSource/Benchmarks/CoyoteBench/fftbench, 0.2927, 0.2910, 0.2922,0.2922, 0.2913, 0.2939, 0.2932,0.2932
SingleSource/Benchmarks/CoyoteBench/huffbench, 0.0770, 0.0774, 0.0773,0.0773, 0.0763, 0.0763, 0.0762,0.0763
SingleSource/Benchmarks/CoyoteBench/lpbench, 0.1359, 0.1361, 0.1360,0.136, 0.1353, 0.1352, 0.1352,0.1352
SingleSource/Benchmarks/Dhrystone/dry, 0.0381, 0.0364, 0.0380,0.038, 0.0365, 0.0382, 0.0381,0.0381
SingleSource/Benchmarks/Dhrystone/fldry, 0.0409, 0.0395, 0.0395,0.0395, 0.0396, 0.0410, 0.0411,0.041
SingleSource/Benchmarks/Linpack/linpack-pc, 0.2763, 0.2756, 0.2759,0.2759, 0.2755, 0.2755, 0.2761,0.2755
SingleSource/Benchmarks/McGill/chomp, 0.1684, 0.1685, 0.1685,0.1685, 0.1686, 0.1686, 0.1687,0.1686
SingleSource/Benchmarks/McGill/misr, 0.0491, 0.0491, 0.0490,0.0491, 0.0491, 0.0493, 0.0492,0.0492
SingleSource/Benchmarks/McGill/queens, 0.0413, 0.0413, 0.0414,0.0413, 0.0414, 0.0415, 0.0416,0.0415
SingleSource/Benchmarks/Misc-C++-EH/spirit, 3.2982, 3.3047, 3.3070,3.3047, 3.2341, 3.2257, 3.2321,3.2321
SingleSource/Benchmarks/Misc-C++/Large/ray, 0.1931, 0.1938, 0.1935,0.1935, 0.1942, 0.1942, 0.1939,0.1942
SingleSource/Benchmarks/Misc-C++/Large/sphereflake, 0.2010, 0.2005, 0.2005,0.2005, 0.2004, 0.2010, 0.2005,0.2005
SingleSource/Benchmarks/Misc-C++/bigfib, 0.4020, 0.4025, 0.4044,0.4025, 0.3990, 0.4007, 0.4005,0.4005
SingleSource/Benchmarks/Misc-C++/mandel-text, 0.0227, 0.0227, 0.0227,0.0227, 0.0227, 0.0228, 0.0227,0.0227
SingleSource/Benchmarks/Misc-C++/oopack_v1p8, 0.1019, 0.1022, 0.1020,0.102, 0.1020, 0.1021, 0.1022,0.1021
SingleSource/Benchmarks/Misc-C++/stepanov_container, 0.6070, 0.6080, 0.6076,0.6076, 0.5843, 0.5847, 0.5841,0.5843
SingleSource/Benchmarks/Misc-C++/stepanov_v1p2, 0.1564, 0.1567, 0.1573,0.1567, 0.1534, 0.1530, 0.1537,0.1534
SingleSource/Benchmarks/Misc/ReedSolomon, 0.1689, 0.1692, 0.1698,0.1692, 0.1698, 0.1694, 0.1697,0.1697
SingleSource/Benchmarks/Misc/dt, 0.0299, 0.0300, 0.0298,0.0299, 0.0301, 0.0302, 0.0303,0.0302
SingleSource/Benchmarks/Misc/evalloop, 0.0335, 0.0335, 0.0335,0.0335, 0.0336, 0.0336, 0.0337,0.0336
SingleSource/Benchmarks/Misc/fbench, 0.0492, 0.0492, 0.0491,0.0492, 0.0495, 0.0497, 0.0496,0.0496
SingleSource/Benchmarks/Misc/ffbench, 0.0609, 0.0611, 0.0608,0.0609, 0.0612, 0.0613, 0.0612,0.0612
SingleSource/Benchmarks/Misc/flops, 0.0697, 0.0698, 0.0696,0.0697, 0.0701, 0.0700, 0.0699,0.07
SingleSource/Benchmarks/Misc/flops-1, 0.0251, 0.0254, 0.0251,0.0251, 0.0254, 0.0254, 0.0255,0.0254
SingleSource/Benchmarks/Misc/flops-2, 0.0261, 0.0260, 0.0260,0.026, 0.0262, 0.0264, 0.0264,0.0264
SingleSource/Benchmarks/Misc/flops-3, 0.0250, 0.0252, 0.0250,0.025, 0.0253, 0.0253, 0.0253,0.0253
SingleSource/Benchmarks/Misc/flops-4, 0.0253, 0.0256, 0.0255,0.0255, 0.0257, 0.0258, 0.0257,0.0257
SingleSource/Benchmarks/Misc/flops-5, 0.0259, 0.0261, 0.0260,0.026, 0.0262, 0.0264, 0.0264,0.0264
SingleSource/Benchmarks/Misc/flops-6, 0.0260, 0.0262, 0.0260,0.026, 0.0261, 0.0263, 0.0263,0.0263
SingleSource/Benchmarks/Misc/flops-7, 0.0249, 0.0251, 0.0250,0.025, 0.0252, 0.0253, 0.0253,0.0253
SingleSource/Benchmarks/Misc/flops-8, 0.0260, 0.0262, 0.0261,0.0261, 0.0262, 0.0263, 0.0263,0.0263
SingleSource/Benchmarks/Misc/fp-convert, 0.0280, 0.0282, 0.0280,0.028, 0.0282, 0.0283, 0.0281,0.0282
SingleSource/Benchmarks/Misc/himenobmtxpa, 0.1546, 0.1548, 0.1546,0.1546, 0.1581, 0.1582, 0.1582,0.1582
SingleSource/Benchmarks/Misc/lowercase, 0.0237, 0.0238, 0.0237,0.0237, 0.0238, 0.0238, 0.0238,0.0238
SingleSource/Benchmarks/Misc/mandel, 0.0404, 0.0407, 0.0405,0.0405, 0.0410, 0.0410, 0.0409,0.041
SingleSource/Benchmarks/Misc/mandel-2, 0.0293, 0.0293, 0.0290,0.0293, 0.0294, 0.0294, 0.0293,0.0294
SingleSource/Benchmarks/Misc/matmul_f64_4x4, 0.0265, 0.0265, 0.0263,0.0265, 0.0266, 0.0265, 0.0266,0.0266
SingleSource/Benchmarks/Misc/oourafft, 0.1891, 0.1894, 0.1894,0.1894, 0.1896, 0.1895, 0.1912,0.1896
SingleSource/Benchmarks/Misc/perlin, 0.0414, 0.0414, 0.0429,0.0414, 0.0414, 0.0414, 0.0414,0.0414
SingleSource/Benchmarks/Misc/pi, 0.0200, 0.0200, 0.0198,0.02, 0.0200, 0.0200, 0.0201,0.02
SingleSource/Benchmarks/Misc/revertBits, 0.0239, 0.0240, 0.0239,0.0239, 0.0239, 0.0240, 0.0240,0.024
SingleSource/Benchmarks/Misc/richards_benchmark, 0.0584, 0.0585, 0.0584,0.0584, 0.0583, 0.0583, 0.0583,0.0583
SingleSource/Benchmarks/Misc/salsa20, 0.0497, 0.0498, 0.0498,0.0498, 0.0499, 0.0499, 0.0498,0.0499
SingleSource/Benchmarks/Misc/whetstone, 0.0610, 0.0612, 0.0610,0.061, 0.0612, 0.0615, 0.0614,0.0614
SingleSource/Benchmarks/Polybench/datamining/correlation/correlation, 0.0697, 0.0696, 0.0697,0.0697, 0.0700, 0.0699, 0.0701,0.07
SingleSource/Benchmarks/Polybench/datamining/covariance/covariance, 0.0760, 0.0758, 0.0760,0.076, 0.0761, 0.0761, 0.0762,0.0761
SingleSource/Benchmarks/Polybench/linear-algebra/kernels/atax/atax, 0.0726, 0.0728, 0.0726,0.0726, 0.0729, 0.0728, 0.0747,0.0729
SingleSource/Benchmarks/Polybench/linear-algebra/kernels/bicg/bicg, 0.0711, 0.0714, 0.0713,0.0713, 0.0716, 0.0715, 0.0715,0.0715
SingleSource/Benchmarks/Polybench/linear-algebra/kernels/cholesky/cholesky, 0.0831, 0.0834, 0.0831,0.0831, 0.0835, 0.0834, 0.0837,0.0835
SingleSource/Benchmarks/Polybench/linear-algebra/kernels/doitgen/doitgen, 0.0881, 0.0898, 0.0880,0.0881, 0.0882, 0.0885, 0.0884,0.0884
SingleSource/Benchmarks/Polybench/linear-algebra/kernels/gemver/gemver, 0.0819, 0.0820, 0.0819,0.0819, 0.0824, 0.0825, 0.0824,0.0824
SingleSource/Benchmarks/Polybench/linear-algebra/kernels/gesummv/gesummv, 0.0611, 0.0611, 0.0610,0.0611, 0.0614, 0.0613, 0.0615,0.0614
SingleSource/Benchmarks/Polybench/linear-algebra/kernels/mvt/mvt, 0.0732, 0.0734, 0.0733,0.0733, 0.0737, 0.0736, 0.0735,0.0736
SingleSource/Benchmarks/Polybench/linear-algebra/kernels/symm/symm, 0.0694, 0.0695, 0.0696,0.0695, 0.0700, 0.0700, 0.0700,0.07
SingleSource/Benchmarks/Polybench/linear-algebra/kernels/syr2k/syr2k, 0.0709, 0.0710, 0.0707,0.0709, 0.0712, 0.0711, 0.0711,0.0711
SingleSource/Benchmarks/Polybench/linear-algebra/kernels/syrk/syrk, 0.0694, 0.0693, 0.0692,0.0693, 0.0696, 0.0696, 0.0695,0.0696
SingleSource/Benchmarks/Polybench/linear-algebra/kernels/trisolv/trisolv, 0.0578, 0.0578, 0.0578,0.0578, 0.0581, 0.0583, 0.0582,0.0582
SingleSource/Benchmarks/Polybench/linear-algebra/kernels/trmm/trmm, 0.0657, 0.0658, 0.0656,0.0657, 0.0662, 0.0663, 0.0662,0.0662
SingleSource/Benchmarks/Polybench/linear-algebra/solvers/durbin/durbin, 0.0795, 0.0795, 0.0798,0.0795, 0.0801, 0.0800, 0.0800,0.08
SingleSource/Benchmarks/Polybench/linear-algebra/solvers/dynprog/dynprog, 0.0673, 0.0663, 0.0662,0.0663, 0.0666, 0.0667, 0.0666,0.0666
SingleSource/Benchmarks/Polybench/linear-algebra/solvers/gramschmidt/gramschmidt, 0.0921, 0.0923, 0.0922,0.0922, 0.0924, 0.0922, 0.0926,0.0924
SingleSource/Benchmarks/Polybench/linear-algebra/solvers/lu/lu, 0.0809, 0.0809, 0.0808,0.0809, 0.0819, 0.0812, 0.0812,0.0812
SingleSource/Benchmarks/Polybench/medley/floyd-warshall/floyd-warshall, 0.0685, 0.0684, 0.0685,0.0685, 0.0689, 0.0690, 0.0688,0.0689
SingleSource/Benchmarks/Polybench/medley/reg_detect/reg_detect, 0.3891, 0.3890, 0.3896,0.3891, 0.3919, 0.3911, 0.3912,0.3912
SingleSource/Benchmarks/Polybench/stencils/adi/adi, 0.0815, 0.0815, 0.0815,0.0815, 0.0817, 0.0819, 0.0820,0.0819
SingleSource/Benchmarks/Polybench/stencils/fdtd-2d/fdtd-2d, 0.1241, 0.1240, 0.1240,0.124, 0.1248, 0.1245, 0.1247,0.1247
SingleSource/Benchmarks/Polybench/stencils/fdtd-apml/fdtd-apml, 0.1184, 0.1186, 0.1183,0.1184, 0.1191, 0.1190, 0.1192,0.1191
SingleSource/Benchmarks/Polybench/stencils/jacobi-1d-imper/jacobi-1d-imper, 0.0758, 0.0760, 0.0760,0.076, 0.0763, 0.0764, 0.0765,0.0764
SingleSource/Benchmarks/Polybench/stencils/jacobi-2d-imper/jacobi-2d-imper, 0.1017, 0.1018, 0.1014,0.1017, 0.1019, 0.1020, 0.1019,0.1019
SingleSource/Benchmarks/Polybench/stencils/seidel-2d/seidel-2d, 0.0634, 0.0635, 0.0636,0.0635, 0.0640, 0.0640, 0.0641,0.064
SingleSource/Benchmarks/Shootout-C++/EH/except, 0.1200, 0.1197, 0.1201,0.12, 0.1195, 0.1195, 0.1198,0.1195
SingleSource/Benchmarks/Shootout-C++/ackermann, 0.1077, 0.1079, 0.1082,0.1079, 0.1081, 0.1077, 0.1081,0.1081
SingleSource/Benchmarks/Shootout-C++/ary, 0.1421, 0.1417, 0.1417,0.1417, 0.1423, 0.1420, 0.1419,0.142
SingleSource/Benchmarks/Shootout-C++/ary2, 0.1428, 0.1432, 0.1434,0.1432, 0.1431, 0.1434, 0.1438,0.1434
SingleSource/Benchmarks/Shootout-C++/ary3, 0.1448, 0.1452, 0.1455,0.1452, 0.1458, 0.1460, 0.1456,0.1458
SingleSource/Benchmarks/Shootout-C++/fibo, 0.1064, 0.1067, 0.1062,0.1064, 0.1064, 0.1063, 0.1061,0.1063
SingleSource/Benchmarks/Shootout-C++/hash, 0.2453, 0.2461, 0.2452,0.2453, 0.2434, 0.2436, 0.2443,0.2436
SingleSource/Benchmarks/Shootout-C++/hash2, 0.2774, 0.2782, 0.2779,0.2779, 0.2748, 0.2752, 0.2747,0.2748
SingleSource/Benchmarks/Shootout-C++/heapsort, 0.1211, 0.1228, 0.1209,0.1211, 0.1209, 0.1217, 0.1210,0.121
SingleSource/Benchmarks/Shootout-C++/lists, 0.1475, 0.1479, 0.1477,0.1477, 0.1467, 0.1468, 0.1468,0.1468
SingleSource/Benchmarks/Shootout-C++/lists1, 0.1807, 0.1818, 0.1817,0.1817, 0.1802, 0.1799, 0.1807,0.1802
SingleSource/Benchmarks/Shootout-C++/matrix, 0.1681, 0.1680, 0.1684,0.1681, 0.1691, 0.1679, 0.1677,0.1679
SingleSource/Benchmarks/Shootout-C++/methcall, 0.1150, 0.1154, 0.1151,0.1151, 0.1152, 0.1148, 0.1155,0.1152
SingleSource/Benchmarks/Shootout-C++/moments, 0.2239, 0.2246, 0.2241,0.2241, 0.2179, 0.2185, 0.2178,0.2179
SingleSource/Benchmarks/Shootout-C++/nestedloop, 0.1066, 0.1073, 0.1070,0.107, 0.1070, 0.1069, 0.1070,0.107
SingleSource/Benchmarks/Shootout-C++/objinst, 0.1292, 0.1301, 0.1299,0.1299, 0.1292, 0.1292, 0.1295,0.1292
SingleSource/Benchmarks/Shootout-C++/random, 0.1145, 0.1149, 0.1150,0.1149, 0.1154, 0.1153, 0.1154,0.1154
SingleSource/Benchmarks/Shootout-C++/sieve, 0.1670, 0.1678, 0.1677,0.1677, 0.1670, 0.1671, 0.1671,0.1671
SingleSource/Benchmarks/Shootout-C++/strcat, 0.1157, 0.1163, 0.1157,0.1157, 0.1155, 0.1155, 0.1157,0.1155
SingleSource/Benchmarks/Shootout/ackermann, 0.0221, 0.0221, 0.0221,0.0221, 0.0221, 0.0221, 0.0222,0.0221
SingleSource/Benchmarks/Shootout/ary3, 0.0319, 0.0319, 0.0318,0.0319, 0.0320, 0.0318, 0.0319,0.0319
SingleSource/Benchmarks/Shootout/fib2, 0.0188, 0.0187, 0.0188,0.0188, 0.0188, 0.0188, 0.0188,0.0188
SingleSource/Benchmarks/Shootout/hash, 0.0483, 0.0472, 0.0471,0.0472, 0.0472, 0.0471, 0.0472,0.0472
SingleSource/Benchmarks/Shootout/heapsort, 0.0360, 0.0362, 0.0361,0.0361, 0.0363, 0.0363, 0.0363,0.0363
SingleSource/Benchmarks/Shootout/lists, 0.0612, 0.0614, 0.0615,0.0614, 0.0613, 0.0613, 0.0613,0.0613
SingleSource/Benchmarks/Shootout/matrix, 0.0749, 0.0749, 0.0748,0.0749, 0.0749, 0.0749, 0.0748,0.0749
SingleSource/Benchmarks/Shootout/methcall, 0.0294, 0.0294, 0.0295,0.0294, 0.0295, 0.0295, 0.0296,0.0295
SingleSource/Benchmarks/Shootout/nestedloop, 0.0227, 0.0228, 0.0228,0.0228, 0.0229, 0.0228, 0.0229,0.0229
SingleSource/Benchmarks/Shootout/objinst, 0.0346, 0.0345, 0.0346,0.0346, 0.0346, 0.0347, 0.0347,0.0347
SingleSource/Benchmarks/Shootout/random, 0.0277, 0.0278, 0.0277,0.0277, 0.0280, 0.0281, 0.0281,0.0281
SingleSource/Benchmarks/Shootout/sieve, 0.0239, 0.0238, 0.0238,0.0238, 0.0239, 0.0238, 0.0240,0.0239
SingleSource/Benchmarks/Shootout/strcat, 0.0255, 0.0255, 0.0254,0.0255, 0.0255, 0.0256, 0.0256,0.0256
SingleSource/Benchmarks/SmallPT/smallpt, 0.0902, 0.0905, 0.0903,0.0903, 0.0904, 0.0905, 0.0906,0.0905
SingleSource/Benchmarks/Stanford/Bubblesort, 0.0315, 0.0316, 0.0330,0.0316, 0.0314, 0.0316, 0.0316,0.0316
SingleSource/Benchmarks/Stanford/FloatMM, 0.0487, 0.0501, 0.0487,0.0487, 0.0487, 0.0489, 0.0488,0.0488
SingleSource/Benchmarks/Stanford/Oscar, 0.0573, 0.0573, 0.0572,0.0573, 0.0576, 0.0575, 0.0574,0.0575
SingleSource/Benchmarks/Stanford/Perm, 0.0292, 0.0292, 0.0291,0.0292, 0.0293, 0.0294, 0.0294,0.0294
SingleSource/Benchmarks/Stanford/Puzzle, 0.0999, 0.1000, 0.0998,0.0999, 0.0996, 0.0999, 0.0996,0.0996
SingleSource/Benchmarks/Stanford/Queens, 0.0412, 0.0411, 0.0412,0.0412, 0.0412, 0.0413, 0.0413,0.0413
SingleSource/Benchmarks/Stanford/Quicksort, 0.0347, 0.0346, 0.0347,0.0347, 0.0348, 0.0348, 0.0349,0.0348
SingleSource/Benchmarks/Stanford/RealMM, 0.0460, 0.0460, 0.0460,0.046, 0.0459, 0.0461, 0.0461,0.0461
SingleSource/Benchmarks/Stanford/Towers, 0.0442, 0.0444, 0.0444,0.0444, 0.0443, 0.0445, 0.0445,0.0445
SingleSource/Benchmarks/Stanford/Treesort, 0.0358, 0.0357, 0.0356,0.0357, 0.0359, 0.0360, 0.0358,0.0359
SingleSource/Regression/C/2004-08-12-InlinerAndAllocas, 0.0187, 0.0171, 0.0186,0.0186, 0.0171, 0.0199, 0.0186,0.0186
SingleSource/Regression/C/uint64_to_float, 0.0336, 0.0321, 0.0336,0.0336, 0.0321, 0.0335, 0.0336,0.0335
Total elapsed time,-,-,-,333.8447,-,-,-,333.5138000000002
Total failure,-,-,-,0,-,-,-,0
