Benchmarks,base-5.0,base-5.0,base-5.0,median,insts-5.0,insts-5.0,insts-5.0,median,Slowdown(%)
SingleSource/Benchmarks/Shootout-C++/moments, 0.0441, 0.0441, 0.0441,0.0441, 0.0506, 0.0506, 0.0506,0.0506,14.739229024943313
MultiSource/Benchmarks/TSVC/LoopRestructuring-flt/LoopRestructuring-flt, 2.8297, 2.8890, 2.9380,2.889, 3.0017, 2.9529, 3.0247,3.0017,3.9010038075458775
MultiSource/Benchmarks/mediabench/jpeg/jpeg-6a/cjpeg, 0.0032, 0.0032, 0.0032,0.0032, 0.0033, 0.0034, 0.0033,0.0033,3.125
MultiSource/Benchmarks/BitBench/drop3/drop3, 0.1784, 0.1856, 0.1818,0.1818, 0.1820, 0.1862, 0.1883,0.1862,2.4202420242024347
SingleSource/Benchmarks/Polybench/linear-algebra/solvers/durbin/durbin, 0.3969, 0.3975, 0.4070,0.3975, 0.4071, 0.4068, 0.4076,0.4071,2.4150943396226365
MultiSource/Applications/minisat/minisat, 4.1172, 3.9614, 4.1554,4.1172, 4.2027, 4.2032, 4.2398,4.2032,2.0887982123773297
SingleSource/Benchmarks/Misc/flops-4, 2.2797, 2.2796, 2.3271,2.2797, 2.3271, 2.3271, 2.2796,2.3271,2.079220950125027
MultiSource/Benchmarks/Olden/voronoi/voronoi, 0.2137, 0.2136, 0.2133,0.2136, 0.2181, 0.2179, 0.2179,0.2179,2.0131086142322063
MultiSource/Applications/lambda-0.1.3/lambda, 2.6398, 2.6485, 2.6596,2.6485, 2.6957, 2.6986, 2.7006,2.6986,1.891636775533323
MultiSource/Benchmarks/McCat/03-testtrie/testtrie, 0.0063, 0.0061, 0.0062,0.0062, 0.0063, 0.0061, 0.0063,0.0063,1.6129032258064502
MultiSource/Benchmarks/llubenchmark/llu, 4.1436, 4.1147, 4.0668,4.1147, 4.1670, 4.1962, 4.1804,4.1804,1.596714219748696
SingleSource/Benchmarks/Stanford/Queens, 0.0071, 0.0072, 0.0072,0.0072, 0.0073, 0.0074, 0.0073,0.0073,1.388888888888884
MultiSource/Applications/sqlite3/sqlite3, 1.7780, 1.7811, 1.7754,1.778, 1.7986, 1.7854, 1.7988,1.7986,1.1586051743532
SingleSource/Benchmarks/Misc/flops-5, 4.2758, 4.2756, 4.2756,4.2756, 4.2757, 4.3231, 4.3231,4.3231,1.1109551875760237
SingleSource/Benchmarks/Polybench/linear-algebra/kernels/cholesky/cholesky, 0.4549, 0.4554, 0.4568,0.4554, 0.4601, 0.4563, 0.4616,0.4601,1.0320597277118981
MultiSource/Benchmarks/BitBench/uuencode/uuencode, 0.0104, 0.0105, 0.0104,0.0104, 0.0105, 0.0105, 0.0104,0.0105,0.9615384615384803
SingleSource/Benchmarks/CoyoteBench/fftbench, 0.6358, 0.6382, 0.6352,0.6358, 0.6420, 0.6394, 0.6419,0.6419,0.959421201635724
SingleSource/Benchmarks/Misc/himenobmtxpa, 0.5156, 0.5241, 0.5168,0.5168, 0.5216, 0.5210, 0.5200,0.521,0.8126934984520107
MultiSource/Benchmarks/TSVC/Symbolics-flt/Symbolics-flt, 1.3884, 1.3954, 1.3875,1.3884, 1.4037, 1.3911, 1.3993,1.3993,0.7850763468741029
SingleSource/Benchmarks/Shootout-C++/hash2, 1.7154, 1.7131, 1.7155,1.7154, 1.7286, 1.7277, 1.7257,1.7277,0.7170339279468418
MultiSource/Benchmarks/Fhourstones/fhourstones, 0.5836, 0.5675, 0.5610,0.5675, 0.5714, 0.5695, 0.5853,0.5714,0.6872246696035367
MultiSource/Benchmarks/MallocBench/cfrac/cfrac, 0.7592, 0.7591, 0.7593,0.7592, 0.7646, 0.7644, 0.7642,0.7644,0.6849315068493178
MultiSource/Benchmarks/Ptrdist/ks/ks, 0.6496, 0.6531, 0.6505,0.6505, 0.6497, 0.6544, 0.6556,0.6544,0.5995388162951532
MultiSource/Benchmarks/VersaBench/dbms/dbms, 0.8882, 0.8969, 0.8906,0.8906, 0.8955, 0.8962, 0.8923,0.8955,0.5501908825510826
MultiSource/Benchmarks/TSVC/ControlFlow-flt/ControlFlow-flt, 3.5461, 3.5591, 3.5630,3.5591, 3.5589, 3.5757, 3.5906,3.5757,0.4664100474839117
MultiSource/Benchmarks/McCat/12-IOtest/iotest, 0.2143, 0.2145, 0.2146,0.2145, 0.2147, 0.2155, 0.2154,0.2154,0.41958041958043424
SingleSource/Benchmarks/Shootout/ary3, 0.5999, 0.5969, 0.5970,0.597, 0.5928, 0.5994, 0.6017,0.5994,0.4020100502512669
SingleSource/Benchmarks/Polybench/linear-algebra/kernels/doitgen/doitgen, 0.7805, 0.7865, 0.7803,0.7805, 0.7805, 0.7836, 0.8189,0.7836,0.3971812940422703
SingleSource/Benchmarks/BenchmarkGame/Large/fasta, 0.6449, 0.6504, 0.6458,0.6458, 0.6495, 0.6482, 0.6449,0.6482,0.3716320842366061
SingleSource/Benchmarks/Linpack/linpack-pc, 1.2417, 1.2405, 1.2404,1.2405, 1.2445, 1.2394, 1.2451,1.2445,0.32245062474809405
SingleSource/Benchmarks/Polybench/datamining/covariance/covariance, 1.6562, 1.6562, 1.6534,1.6562, 1.6557, 1.6613, 1.6614,1.6613,0.3079338244173391
MultiSource/Benchmarks/FreeBench/pifft/pifft, 0.0650, 0.0652, 0.0650,0.065, 0.0652, 0.0652, 0.0657,0.0652,0.3076923076922977
MultiSource/Benchmarks/DOE-ProxyApps-C++/PENNANT/PENNANT, 0.3697, 0.3698, 0.3696,0.3697, 0.3708, 0.3708, 0.3704,0.3708,0.2975385447660406
MultiSource/Applications/JM/ldecod/ldecod, 0.0361, 0.0363, 0.0361,0.0361, 0.0360, 0.0362, 0.0362,0.0362,0.27700831024930483
SingleSource/Benchmarks/Misc/evalloop, 0.3683, 0.3680, 0.3690,0.3683, 0.3693, 0.3683, 0.3692,0.3692,0.2443660059733732
SingleSource/Benchmarks/Polybench/stencils/fdtd-2d/fdtd-2d, 0.4109, 0.4094, 0.4069,0.4094, 0.4104, 0.4063, 0.4127,0.4104,0.2442598925256556
MultiSource/Applications/lua/lua,11.1149,11.0874,11.1027,11.1027,11.1289,11.1310,11.0996,11.1289,0.23597863582731637
SingleSource/Benchmarks/Shootout-C++/lists, 2.9699, 2.9636, 2.9686,2.9686, 2.9616, 2.9755, 2.9819,2.9755,0.2324327966044537
SingleSource/Benchmarks/BenchmarkGame/puzzle, 0.1291, 0.1292, 0.1290,0.1291, 0.1294, 0.1289, 0.1295,0.1294,0.23237800154918276
MultiSource/Benchmarks/mafft/pairlocalalign,24.6627,24.6616,24.6617,24.6617,24.7171,24.7186,24.7187,24.7186,0.23072213188870538
SingleSource/Benchmarks/Shootout-C++/lists1, 0.1312, 0.1336, 0.1322,0.1322, 0.1325, 0.1295, 0.1329,0.1325,0.22692889561271024
MultiSource/Benchmarks/ASC_Sequoia/IRSmk/IRSmk, 2.9897, 2.9978, 3.0031,2.9978, 3.0042, 2.9976, 3.0048,3.0042,0.21348989258791473
MultiSource/Benchmarks/TSVC/LinearDependence-flt/LinearDependence-flt, 4.9821, 4.9762, 4.9843,4.9821, 4.9923, 4.9930, 4.9871,4.9923,0.20473294393930086
SingleSource/Benchmarks/Stanford/Treesort, 0.0545, 0.0544, 0.0544,0.0544, 0.0546, 0.0545, 0.0544,0.0545,0.18382352941177516
SingleSource/Benchmarks/Adobe-C++/functionobjects, 3.0294, 3.0298, 3.0288,3.0294, 3.0366, 3.0341, 3.0349,3.0349,0.18155410312272746
SingleSource/Benchmarks/Shootout-C++/fibo, 1.4769, 1.4778, 1.4762,1.4769, 1.4795, 1.4792, 1.4796,1.4795,0.17604441736067677
MultiSource/Applications/viterbi/viterbi, 1.2781, 1.2776, 1.2783,1.2781, 1.2832, 1.2775, 1.2803,1.2803,0.17213050622015835
MultiSource/Benchmarks/MallocBench/espresso/espresso, 0.3012, 0.2986, 0.2983,0.2986, 0.2992, 0.2991, 0.2986,0.2991,0.16744809109177083
MultiSource/Benchmarks/Ptrdist/bc/bc, 0.3640, 0.3634, 0.3636,0.3636, 0.3642, 0.3642, 0.3641,0.3642,0.16501650165017256
MultiSource/Benchmarks/Olden/perimeter/perimeter, 0.1217, 0.1220, 0.1219,0.1219, 0.1221, 0.1221, 0.1219,0.1221,0.1640689089417613
MultiSource/Benchmarks/TSVC/StatementReordering-flt/StatementReordering-flt, 1.8292, 1.8265, 1.8263,1.8265, 1.8282, 1.8295, 1.8293,1.8293,0.15329865863673575
MultiSource/Benchmarks/Prolangs-C++/primes/primes, 0.2125, 0.2125, 0.2144,0.2125, 0.2128, 0.2125, 0.2140,0.2128,0.14117647058822236
SingleSource/Benchmarks/McGill/chomp, 1.3040, 1.2363, 1.2999,1.2999, 1.3017, 1.2999, 1.3026,1.3017,0.13847219016847045
SingleSource/Benchmarks/Shootout-C++/hash, 0.3073, 0.3064, 0.3085,0.3073, 0.3075, 0.3077, 0.3081,0.3077,0.13016596160102534
MultiSource/Benchmarks/Bullet/bullet, 3.2502, 3.2491, 3.2454,3.2491, 3.2533, 3.2542, 3.2465,3.2533,0.12926656612599619
SingleSource/Benchmarks/Shootout/hash, 2.7600, 2.7509, 2.7540,2.754, 2.7546, 2.7595, 2.7573,2.7573,0.11982570806099435
SingleSource/Benchmarks/Misc-C++/bigfib, 0.1912, 0.1906, 0.1906,0.1906, 0.1908, 0.1910, 0.1907,0.1908,0.10493179433368471
MultiSource/Benchmarks/DOE-ProxyApps-C++/miniFE/miniFE, 2.4659, 2.4619, 2.4673,2.4659, 2.4713, 2.4669, 2.4684,2.4684,0.10138286224097293
MultiSource/Benchmarks/7zip/7zip-benchmark, 6.3323, 6.3313, 6.3309,6.3313, 6.3372, 6.3376, 6.3382,6.3376,0.09950563075513674
SingleSource/Benchmarks/Shootout/strcat, 0.1051, 0.1050, 0.1050,0.105, 0.1051, 0.1051, 0.1051,0.1051,0.09523809523810378
SingleSource/Benchmarks/CoyoteBench/lpbench, 1.8173, 1.8191, 1.8137,1.8173, 1.8189, 1.8177, 1.8199,1.8189,0.08804270070985609
MultiSource/Benchmarks/ASCI_Purple/SMG2000/smg2000, 1.1664, 1.1696, 1.1669,1.1669, 1.1677, 1.1679, 1.1683,1.1679,0.08569714628501313
SingleSource/Benchmarks/Shootout-C++/EH/except, 0.1201, 0.1204, 0.1204,0.1204, 0.1204, 0.1208, 0.1205,0.1205,0.08305647840531893
MultiSource/Applications/SIBsim4/SIBsim4, 2.1090, 2.1011, 2.0918,2.1011, 2.1028, 2.0967, 2.1312,2.1028,0.08090999952403699
MultiSource/Benchmarks/Olden/treeadd/treeadd, 0.1264, 0.1266, 0.1264,0.1264, 0.1265, 0.1266, 0.1264,0.1265,0.07911392405062223
MultiSource/Benchmarks/Olden/health/health, 0.1434, 0.1435, 0.1435,0.1435, 0.1436, 0.1437, 0.1435,0.1436,0.06968641114983853
SingleSource/Benchmarks/Polybench/stencils/fdtd-apml/fdtd-apml, 0.7208, 0.7213, 0.7260,0.7213, 0.7238, 0.7218, 0.7215,0.7218,0.06931928462496906
MultiSource/Benchmarks/SciMark2-C/scimark2,42.0700,42.0691,42.0903,42.07,42.0919,42.1150,42.0989,42.0989,0.068695032089372
MultiSource/Benchmarks/TSVC/Equivalencing-dbl/Equivalencing-dbl, 1.3880, 1.3857, 1.3856,1.3857, 1.3866, 1.3866, 1.3847,1.3866,0.06494912318684154
MultiSource/Benchmarks/TSVC/Searching-flt/Searching-flt, 2.4315, 2.4327, 2.4343,2.4327, 2.4342, 2.4346, 2.4333,2.4342,0.06165988407942358
SingleSource/Benchmarks/Shootout/fib2, 1.4775, 1.4785, 1.4770,1.4775, 1.4784, 1.4781, 1.4785,1.4784,0.06091370558374276
MultiSource/Benchmarks/TSVC/LinearDependence-dbl/LinearDependence-dbl, 5.7071, 5.7067, 5.7073,5.7071, 5.7103, 5.7115, 5.7084,5.7103,0.0560705086646518
MultiSource/Benchmarks/DOE-ProxyApps-C++/HPCCG/HPCCG, 0.9021, 0.9005, 0.8995,0.9005, 0.9006, 0.9010, 0.9011,0.901,0.05552470849528035
SingleSource/Benchmarks/Polybench/stencils/adi/adi, 2.8039, 2.8038, 2.8040,2.8039, 2.8049, 2.8053, 2.8052,2.8052,0.04636399300974592
SingleSource/Benchmarks/Misc-C++/mandel-text, 1.6139, 1.6079, 1.6126,1.6126, 1.6132, 1.6106, 1.6132,1.6132,0.03720699491502888
SingleSource/Benchmarks/Shootout/lists, 4.0791, 4.0819, 4.0799,4.0799, 4.0813, 4.0811, 4.0815,4.0813,0.034314566533488744
MultiSource/Benchmarks/Olden/tsp/tsp, 1.1718, 1.1719, 1.1720,1.1719, 1.1722, 1.1722, 1.1723,1.1722,0.025599453878322187
SingleSource/Benchmarks/Polybench/medley/floyd-warshall/floyd-warshall, 5.9776, 5.9743, 5.9739,5.9743, 5.9791, 5.9757, 5.9743,5.9757,0.023433707714692886
SingleSource/Benchmarks/Polybench/linear-algebra/kernels/syr2k/syr2k, 9.1846, 9.1862, 8.9501,9.1846, 9.1866, 9.1862, 9.1867,9.1866,0.02177558086362552
MultiSource/Applications/aha/aha, 1.0373, 1.0371, 1.0377,1.0373, 1.0379, 1.0375, 1.0371,1.0375,0.0192808252193144
SingleSource/Benchmarks/BenchmarkGame/fannkuch, 2.0901, 2.0888, 2.0896,2.0896, 2.0911, 2.0891, 2.0900,2.09,0.01914241960183638
MultiSource/Applications/JM/lencod/lencod, 3.1663, 3.1622, 3.1617,3.1622, 3.1630, 3.1628, 3.1626,3.1628,0.018974131933457983
MultiSource/Benchmarks/TSVC/ControlFlow-dbl/ControlFlow-dbl, 3.7408, 3.7433, 3.7446,3.7433, 3.7440, 3.7445, 3.7419,3.744,0.01870007747175606
MultiSource/Benchmarks/TSVC/StatementReordering-dbl/StatementReordering-dbl, 2.2453, 2.2455, 2.2457,2.2455, 2.2459, 2.2434, 2.2481,2.2459,0.017813404586952686
SingleSource/Benchmarks/Misc/ffbench, 0.5850, 0.5853, 0.5843,0.585, 0.5869, 0.5851, 0.5848,0.5851,0.017094017094021474
MultiSource/Benchmarks/Ptrdist/anagram/anagram, 0.6001, 0.6001, 0.6002,0.6001, 0.6001, 0.6003, 0.6002,0.6002,0.01666388935177565
MultiSource/Benchmarks/Trimaran/enc-3des/enc-3des, 1.2894, 1.2895, 1.2893,1.2894, 1.2894, 1.2896, 1.2898,1.2896,0.01551109042965404
MultiSource/Benchmarks/Olden/em3d/em3d, 1.7024, 1.7018, 1.7019,1.7019, 1.7021, 1.7016, 1.7027,1.7021,0.011751571772733449
MultiSource/Applications/obsequi/Obsequi, 1.0943, 1.0935, 1.0935,1.0935, 1.0939, 1.0932, 1.0936,1.0936,0.009144947416550586
MultiSource/Benchmarks/TSVC/Packing-dbl/Packing-dbl, 2.3235, 2.3243, 2.3244,2.3243, 2.3245, 2.3256, 2.3241,2.3245,0.00860474121240351
MultiSource/Benchmarks/TSVC/LoopRerolling-dbl/LoopRerolling-dbl, 4.6104, 4.6104, 4.6112,4.6104, 4.6110, 4.6107, 4.6106,4.6107,0.00650702758977495
SingleSource/Benchmarks/Shootout/methcall, 3.2758, 3.2757, 3.2761,3.2758, 3.2760, 3.2757, 3.2761,3.276,0.006105378838761055
MultiSource/Benchmarks/VersaBench/ecbdes/ecbdes, 1.6932, 1.6931, 1.6931,1.6931, 1.6932, 1.6932, 1.6932,1.6932,0.005906325674787105
MultiSource/Benchmarks/DOE-ProxyApps-C/miniGMG/miniGMG, 5.2020, 5.2021, 5.2014,5.202, 5.2023, 5.2012, 5.2023,5.2023,0.005767012687440953
MultiSource/Benchmarks/TSVC/LoopRestructuring-dbl/LoopRestructuring-dbl, 3.6397, 3.6377, 3.6432,3.6397, 3.6494, 3.6374, 3.6399,3.6399,0.005494958375695802
MultiSource/Benchmarks/TSVC/InductionVariable-flt/InductionVariable-flt, 2.5598, 2.5539, 2.5578,2.5578, 2.5579, 2.5546, 2.5657,2.5579,0.003909609820951232
SingleSource/Benchmarks/Misc-C++/Large/ray, 3.1396, 3.1392, 3.1393,3.1393, 3.1394, 3.1393, 3.1394,3.1394,0.003185423502061191
SingleSource/Benchmarks/Misc/ReedSolomon, 3.1536, 3.1536, 3.1537,3.1536, 3.1537, 3.1538, 3.1535,3.1537,0.0031709791983747238
SingleSource/Benchmarks/Misc/flops-3, 5.4133, 5.4130, 5.4130,5.413, 5.4132, 5.4131, 5.4130,5.4131,0.0018474043968152998
SingleSource/Benchmarks/Misc-C++/Large/sphereflake, 5.6077, 5.6075, 5.6075,5.6075, 5.6077, 5.6076, 5.6075,5.6076,0.0017833259028154913
MultiSource/Applications/hexxagon/hexxagon, 7.0582, 7.0583, 7.0585,7.0583, 7.0585, 7.0584, 7.0581,7.0584,0.0014167717439006466
SingleSource/Regression/C/uint64_to_float, 0.2465, 0.2465, 0.2464,0.2465, 0.2465, 0.2465, 0.2465,0.2465,0.0
SingleSource/Regression/C/2004-08-12-InlinerAndAllocas, 0.0013, 0.0013, 0.0013,0.0013, 0.0013, 0.0013, 0.0013,0.0013,0.0
SingleSource/Benchmarks/Stanford/Towers, 0.0083, 0.0083, 0.0083,0.0083, 0.0083, 0.0083, 0.0083,0.0083,0.0
SingleSource/Benchmarks/Stanford/RealMM, 0.0014, 0.0014, 0.0014,0.0014, 0.0014, 0.0014, 0.0014,0.0014,0.0
SingleSource/Benchmarks/Stanford/Quicksort, 0.0303, 0.0302, 0.0302,0.0302, 0.0302, 0.0302, 0.0302,0.0302,0.0
SingleSource/Benchmarks/Stanford/Puzzle, 0.0794, 0.0794, 0.0794,0.0794, 0.0795, 0.0794, 0.0793,0.0794,0.0
SingleSource/Benchmarks/Stanford/Perm, 0.0145, 0.0145, 0.0145,0.0145, 0.0146, 0.0145, 0.0145,0.0145,0.0
SingleSource/Benchmarks/Stanford/Oscar, 0.0032, 0.0032, 0.0032,0.0032, 0.0032, 0.0032, 0.0032,0.0032,0.0
SingleSource/Benchmarks/Stanford/FloatMM, 0.2012, 0.2011, 0.2011,0.2011, 0.2012, 0.2011, 0.2011,0.2011,0.0
SingleSource/Benchmarks/Stanford/Bubblesort, 0.0158, 0.0157, 0.0157,0.0157, 0.0157, 0.0157, 0.0157,0.0157,0.0
SingleSource/Benchmarks/Shootout/random, 1.7448, 1.7447, 1.7447,1.7447, 1.7448, 1.7447, 1.7447,1.7447,0.0
SingleSource/Benchmarks/Shootout/objinst, 0.0007, 0.0007, 0.0007,0.0007, 0.0007, 0.0007, 0.0007,0.0007,0.0
SingleSource/Benchmarks/Shootout/nestedloop, 0.0007, 0.0007, 0.0007,0.0007, 0.0007, 0.0007, 0.0007,0.0007,0.0
SingleSource/Benchmarks/Shootout/ackermann, 0.0033, 0.0033, 0.0033,0.0033, 0.0033, 0.0033, 0.0033,0.0033,0.0
SingleSource/Benchmarks/Shootout-C++/strcat, 0.0405, 0.0404, 0.0405,0.0405, 0.0405, 0.0405, 0.0405,0.0405,0.0
SingleSource/Benchmarks/Shootout-C++/random, 1.7449, 1.7448, 1.7448,1.7448, 1.7448, 1.7448, 1.7448,1.7448,0.0
SingleSource/Benchmarks/Shootout-C++/objinst, 0.0008, 0.0008, 0.0008,0.0008, 0.0008, 0.0008, 0.0008,0.0008,0.0
SingleSource/Benchmarks/Shootout-C++/nestedloop, 0.0008, 0.0008, 0.0008,0.0008, 0.0008, 0.0008, 0.0008,0.0008,0.0
SingleSource/Benchmarks/Shootout-C++/matrix, 1.1247, 1.1247, 1.1246,1.1247, 1.1249, 1.1247, 1.1246,1.1247,0.0
SingleSource/Benchmarks/Shootout-C++/heapsort, 2.0270, 2.0258, 2.0281,2.027, 2.0240, 2.0288, 2.0270,2.027,0.0
SingleSource/Benchmarks/Shootout-C++/ary2, 0.0149, 0.0149, 0.0149,0.0149, 0.0148, 0.0149, 0.0149,0.0149,0.0
SingleSource/Benchmarks/Shootout-C++/ary, 0.0141, 0.0141, 0.0141,0.0141, 0.0141, 0.0141, 0.0141,0.0141,0.0
SingleSource/Benchmarks/Shootout-C++/ackermann, 0.6572, 0.6571, 0.6572,0.6572, 0.6572, 0.6573, 0.6572,0.6572,0.0
SingleSource/Benchmarks/Polybench/stencils/seidel-2d/seidel-2d, 0.6593, 0.6593, 0.6593,0.6593, 0.6593, 0.6593, 0.6593,0.6593,0.0
SingleSource/Benchmarks/Polybench/stencils/jacobi-1d-imper/jacobi-1d-imper, 0.0036, 0.0036, 0.0036,0.0036, 0.0036, 0.0036, 0.0035,0.0036,0.0
SingleSource/Benchmarks/Polybench/medley/reg_detect/reg_detect, 0.0155, 0.0155, 0.0155,0.0155, 0.0155, 0.0155, 0.0155,0.0155,0.0
SingleSource/Benchmarks/Polybench/linear-algebra/solvers/lu/lu, 0.0021, 0.0021, 0.0021,0.0021, 0.0021, 0.0021, 0.0021,0.0021,0.0
SingleSource/Benchmarks/Misc/whetstone, 1.0274, 1.0263, 1.0274,1.0274, 1.0274, 1.0274, 1.0197,1.0274,0.0
SingleSource/Benchmarks/Misc/revertBits, 0.3294, 0.3294, 0.3297,0.3294, 0.3294, 0.3294, 0.3294,0.3294,0.0
SingleSource/Benchmarks/Misc/pi, 0.6942, 0.6941, 0.6942,0.6942, 0.6942, 0.6941, 0.6942,0.6942,0.0
SingleSource/Benchmarks/Misc/matmul_f64_4x4, 1.2952, 1.2951, 1.2951,1.2951, 1.2951, 1.2951, 1.2951,1.2951,0.0
SingleSource/Benchmarks/Misc/mandel-2, 1.2780, 1.2779, 1.2779,1.2779, 1.2779, 1.2779, 1.2779,1.2779,0.0
SingleSource/Benchmarks/Misc/mandel, 0.8336, 0.8336, 0.8335,0.8336, 0.8336, 0.8336, 0.8335,0.8336,0.0
SingleSource/Benchmarks/Misc/lowercase, 0.0007, 0.0007, 0.0007,0.0007, 0.0007, 0.0007, 0.0007,0.0007,0.0
SingleSource/Benchmarks/Misc/fp-convert, 2.6303, 2.6302, 2.6302,2.6302, 2.6302, 2.6302, 2.6302,2.6302,0.0
SingleSource/Benchmarks/Misc/flops-8, 2.8969, 2.8968, 2.8968,2.8968, 2.8969, 2.8968, 2.8968,2.8968,0.0
SingleSource/Benchmarks/Misc/flops-7, 1.5901, 1.5900, 1.5900,1.59, 1.5900, 1.5900, 1.5900,1.59,0.0
SingleSource/Benchmarks/Misc/flops-6, 3.3721, 3.4194, 3.4194,3.4194, 3.3944, 3.4418, 3.4194,3.4194,0.0
SingleSource/Benchmarks/Misc/flops-2, 0.8625, 0.8625, 0.8625,0.8625, 0.8625, 0.8625, 0.8625,0.8625,0.0
SingleSource/Benchmarks/Misc/fbench, 1.7140, 1.7139, 1.7139,1.7139, 1.7140, 1.7139, 1.7139,1.7139,0.0
SingleSource/Benchmarks/Misc/dt, 0.6669, 0.6668, 0.6668,0.6668, 0.6668, 0.6668, 0.6668,0.6668,0.0
SingleSource/Benchmarks/Misc-C++/oopack_v1p8, 0.1619, 0.1619, 0.1619,0.1619, 0.1619, 0.1619, 0.1619,0.1619,0.0
SingleSource/Benchmarks/McGill/queens, 1.7518, 1.7509, 1.7525,1.7518, 1.7518, 1.7510, 1.7520,1.7518,0.0
SingleSource/Benchmarks/McGill/misr, 0.1013, 0.1013, 0.1013,0.1013, 0.1013, 0.1013, 0.1013,0.1013,0.0
SingleSource/Benchmarks/Dhrystone/fldry, 0.3654, 0.3654, 0.3654,0.3654, 0.3654, 0.3654, 0.3654,0.3654,0.0
SingleSource/Benchmarks/Dhrystone/dry, 0.3046, 0.3046, 0.3046,0.3046, 0.3046, 0.3046, 0.3046,0.3046,0.0
SingleSource/Benchmarks/BenchmarkGame/spectral-norm, 0.9768, 0.9768, 0.9768,0.9768, 0.9768, 0.9768, 0.9768,0.9768,0.0
SingleSource/Benchmarks/BenchmarkGame/n-body, 1.3733, 1.3732, 1.3732,1.3732, 1.3732, 1.3732, 1.3732,1.3732,0.0
SingleSource/Benchmarks/Adobe-C++/simple_types_constant_folding, 0.6645, 0.6645, 0.6645,0.6645, 0.6646, 0.6645, 0.6645,0.6645,0.0
MultiSource/Benchmarks/mediabench/mpeg2/mpeg2dec/mpeg2decode, 0.0130, 0.0130, 0.0130,0.013, 0.0130, 0.0129, 0.0130,0.013,0.0
MultiSource/Benchmarks/mediabench/gsm/toast/toast, 0.0133, 0.0132, 0.0133,0.0133, 0.0133, 0.0133, 0.0132,0.0133,0.0
MultiSource/Benchmarks/mediabench/g721/g721encode/encode, 0.0296, 0.0296, 0.0296,0.0296, 0.0297, 0.0296, 0.0296,0.0296,0.0
MultiSource/Benchmarks/Trimaran/netbench-url/netbench-url, 2.9798, 2.9796, 2.9815,2.9798, 2.9798, 2.9797, 2.9799,2.9798,0.0
MultiSource/Benchmarks/Trimaran/netbench-crc/netbench-crc, 0.6214, 0.6210, 0.6209,0.621, 0.6214, 0.6210, 0.6209,0.621,0.0
MultiSource/Benchmarks/Trimaran/enc-pc1/enc-pc1, 0.3440, 0.3440, 0.3440,0.344, 0.3440, 0.3440, 0.3440,0.344,0.0
MultiSource/Benchmarks/Trimaran/enc-md5/enc-md5, 1.2243, 1.2242, 1.2243,1.2243, 1.2243, 1.2243, 1.2244,1.2243,0.0
MultiSource/Benchmarks/TSVC/Reductions-flt/Reductions-flt, 5.9350, 5.9349, 5.9349,5.9349, 5.9351, 5.9349, 5.9349,5.9349,0.0
MultiSource/Benchmarks/TSVC/Reductions-dbl/Reductions-dbl, 3.4400, 3.4399, 3.4399,3.4399, 3.4401, 3.4399, 3.4399,3.4399,0.0
MultiSource/Benchmarks/TSVC/Recurrences-dbl/Recurrences-dbl, 3.5012, 3.5011, 3.5010,3.5011, 3.5012, 3.5011, 3.5011,3.5011,0.0
MultiSource/Benchmarks/TSVC/IndirectAddressing-flt/IndirectAddressing-flt, 2.2425, 2.2463, 2.2442,2.2442, 2.2442, 2.2442, 2.2477,2.2442,0.0
MultiSource/Benchmarks/TSVC/CrossingThresholds-dbl/CrossingThresholds-dbl, 2.1488, 2.1494, 2.1491,2.1491, 2.1491, 2.1494, 2.1486,2.1491,0.0
MultiSource/Benchmarks/Ptrdist/yacr2/yacr2, 0.5304, 0.5300, 0.5299,0.53, 0.5303, 0.5298, 0.5300,0.53,0.0
MultiSource/Benchmarks/Prolangs-C++/simul/simul, 0.0038, 0.0038, 0.0038,0.0038, 0.0038, 0.0038, 0.0038,0.0038,0.0
MultiSource/Benchmarks/Prolangs-C++/employ/employ, 0.0048, 0.0048, 0.0048,0.0048, 0.0048, 0.0048, 0.0048,0.0048,0.0
MultiSource/Benchmarks/Prolangs-C++/city/city, 0.0050, 0.0050, 0.0050,0.005, 0.0050, 0.0050, 0.0050,0.005,0.0
MultiSource/Benchmarks/Olden/power/power, 1.0535, 1.0534, 1.0532,1.0534, 1.0534, 1.0534, 1.0535,1.0534,0.0
MultiSource/Benchmarks/MiBench/telecomm-FFT/telecomm-fft, 0.0382, 0.0381, 0.0381,0.0381, 0.0381, 0.0381, 0.0381,0.0381,0.0
MultiSource/Benchmarks/MiBench/security-rijndael/security-rijndael, 0.0219, 0.0219, 0.0219,0.0219, 0.0218, 0.0221, 0.0219,0.0219,0.0
MultiSource/Benchmarks/MiBench/network-patricia/network-patricia, 0.0710, 0.0709, 0.0710,0.071, 0.0710, 0.0711, 0.0709,0.071,0.0
MultiSource/Benchmarks/MiBench/network-dijkstra/network-dijkstra, 0.0245, 0.0245, 0.0246,0.0245, 0.0245, 0.0245, 0.0245,0.0245,0.0
MultiSource/Benchmarks/MiBench/consumer-lame/consumer-lame, 0.1168, 0.1169, 0.1172,0.1169, 0.1170, 0.1169, 0.1167,0.1169,0.0
MultiSource/Benchmarks/MiBench/consumer-jpeg/consumer-jpeg, 0.0030, 0.0030, 0.0030,0.003, 0.0030, 0.0030, 0.0029,0.003,0.0
MultiSource/Benchmarks/McCat/18-imp/imp, 0.0554, 0.0555, 0.0555,0.0555, 0.0554, 0.0555, 0.0555,0.0555,0.0
MultiSource/Benchmarks/McCat/17-bintr/bintr, 0.0817, 0.0794, 0.0809,0.0809, 0.0808, 0.0809, 0.0811,0.0809,0.0
MultiSource/Benchmarks/McCat/09-vor/vor, 0.0828, 0.0828, 0.0830,0.0828, 0.0828, 0.0830, 0.0827,0.0828,0.0
MultiSource/Benchmarks/McCat/08-main/main, 0.0426, 0.0427, 0.0427,0.0427, 0.0428, 0.0426, 0.0427,0.0427,0.0
MultiSource/Benchmarks/McCat/05-eks/eks, 0.0034, 0.0034, 0.0034,0.0034, 0.0034, 0.0034, 0.0034,0.0034,0.0
MultiSource/Benchmarks/McCat/04-bisect/bisect, 0.0748, 0.0749, 0.0749,0.0749, 0.0748, 0.0749, 0.0749,0.0749,0.0
MultiSource/Benchmarks/McCat/01-qbsort/qbsort, 0.0391, 0.0391, 0.0391,0.0391, 0.0390, 0.0391, 0.0391,0.0391,0.0
MultiSource/Benchmarks/FreeBench/pcompress2/pcompress2, 0.1052, 0.1052, 0.1052,0.1052, 0.1051, 0.1052, 0.1052,0.1052,0.0
MultiSource/Benchmarks/FreeBench/neural/neural, 0.1153, 0.1153, 0.1153,0.1153, 0.1153, 0.1154, 0.1153,0.1153,0.0
MultiSource/Benchmarks/FreeBench/fourinarow/fourinarow, 0.1756, 0.1756, 0.1756,0.1756, 0.1756, 0.1757, 0.1756,0.1756,0.0
MultiSource/Applications/sgefa/sgefa, 0.1526, 0.1526, 0.1526,0.1526, 0.1526, 0.1526, 0.1526,0.1526,0.0
MultiSource/Applications/kimwitu++/kc, 0.0282, 0.0281, 0.0281,0.0281, 0.0280, 0.0281, 0.0281,0.0281,0.0
MultiSource/Applications/d/make_dparser, 0.0158, 0.0158, 0.0158,0.0158, 0.0158, 0.0158, 0.0157,0.0158,0.0
MultiSource/Applications/ALAC/encode/alacconvert-encode, 0.0265, 0.0265, 0.0265,0.0265, 0.0265, 0.0265, 0.0265,0.0265,0.0
MultiSource/Applications/ALAC/decode/alacconvert-decode, 0.0130, 0.0130, 0.0130,0.013, 0.0130, 0.0129, 0.0130,0.013,0.0
MultiSource/Benchmarks/ASC_Sequoia/CrystalMk/CrystalMk, 7.2733, 7.2732, 7.2731,7.2732, 7.2732, 7.2730, 7.2731,7.2731,-0.0013749106308025283
SingleSource/Benchmarks/Misc/flops-1, 3.5821, 3.5820, 3.5821,3.5821, 3.5820, 3.5818, 3.5824,3.582,-0.0027916585243370484
MultiSource/Benchmarks/TSVC/Recurrences-flt/Recurrences-flt, 3.5009, 3.5009, 3.5006,3.5009, 3.5008, 3.5007, 3.5009,3.5008,-0.0028564083521476213
MultiSource/Benchmarks/TSVC/Searching-dbl/Searching-dbl, 2.2752, 2.2751, 2.2753,2.2752, 2.2754, 2.2750, 2.2751,2.2751,-0.004395218002806178
MultiSource/Benchmarks/TSVC/Packing-flt/Packing-flt, 2.1436, 2.1274, 2.1036,2.1274, 2.1273, 2.1464, 2.1151,2.1273,-0.004700573469973435
SingleSource/Benchmarks/Misc-C++/stepanov_v1p2, 7.9041, 7.9036, 7.9036,7.9036, 7.9034, 7.9031, 7.9032,7.9032,-0.0050609848676552716
SingleSource/Benchmarks/Shootout-C++/methcall, 3.4498, 3.4547, 3.4496,3.4498, 3.4497, 3.4496, 3.4496,3.4496,-0.00579743753260642
MultiSource/Benchmarks/NPB-serial/is/is, 5.0305, 5.0635, 5.0634,5.0634, 5.0632, 5.0224, 5.0631,5.0631,-0.005924872615226118
MultiSource/Benchmarks/VersaBench/bmm/bmm, 1.6459, 1.6459, 1.6460,1.6459, 1.6461, 1.6458, 1.6458,1.6458,-0.006075703262653498
SingleSource/Benchmarks/Misc/perlin, 3.8809, 3.8799, 3.8807,3.8807, 3.8802, 3.8808, 3.8804,3.8804,-0.0077305640734937064
MultiSource/Benchmarks/nbench/nbench, 1.2713, 1.2717, 1.2722,1.2717, 1.2712, 1.2716, 1.2717,1.2716,-0.007863489816783975
MultiSource/Benchmarks/TSVC/ControlLoops-dbl/ControlLoops-dbl, 2.5416, 2.5407, 2.5405,2.5407, 2.5405, 2.5416, 2.5403,2.5405,-0.007871846341556132
MultiSource/Benchmarks/TSVC/Symbolics-dbl/Symbolics-dbl, 2.4549, 2.4550, 2.4550,2.455, 2.4549, 2.4548, 2.4544,2.4548,-0.008146639511197318
MultiSource/Benchmarks/DOE-ProxyApps-C++/CLAMR/CLAMR, 1.1202, 1.1202, 1.1201,1.1202, 1.1200, 1.1201, 1.1201,1.1201,-0.008926977325474095
SingleSource/Benchmarks/Shootout/matrix, 1.0577, 1.0575, 1.0575,1.0575, 1.0577, 1.0574, 1.0571,1.0574,-0.009456264775431489
SingleSource/Benchmarks/CoyoteBench/almabench,12.6328,12.6257,12.6337,12.6328,12.6316,12.6323,12.6314,12.6316,-0.009499081755426353
MultiSource/Benchmarks/TSVC/GlobalDataFlow-dbl/GlobalDataFlow-dbl, 2.8519, 2.8510, 2.8505,2.851, 2.8521, 2.8507, 2.8501,2.8507,-0.010522623640829565
SingleSource/Benchmarks/Adobe-C++/simple_types_loop_invariant, 1.5935, 1.5944, 1.5941,1.5941, 1.5936, 1.5939, 1.5942,1.5939,-0.012546264349788672
MultiSource/Benchmarks/DOE-ProxyApps-C/miniAMR/miniAMR, 0.7731, 0.7720, 0.7710,0.772, 0.7719, 0.7725, 0.7711,0.7719,-0.012953367875645494
MultiSource/Benchmarks/VersaBench/beamformer/beamformer, 0.7488, 0.7487, 0.7488,0.7488, 0.7488, 0.7487, 0.7486,0.7487,-0.013354700854695256
SingleSource/Benchmarks/Shootout/heapsort, 2.0368, 2.0389, 2.0372,2.0372, 2.0358, 2.0382, 2.0369,2.0369,-0.01472609463969432
MultiSource/Benchmarks/sim/sim, 2.6894, 2.6875, 2.6903,2.6894, 2.6890, 2.6913, 2.6887,2.689,-0.014873205919530008
SingleSource/Benchmarks/BenchmarkGame/partialsums, 0.5686, 0.5686, 0.5686,0.5686, 0.5686, 0.5685, 0.5685,0.5685,-0.017587055926837625
SingleSource/Benchmarks/Misc/richards_benchmark, 0.4974, 0.4971, 0.4972,0.4972, 0.4969, 0.4975, 0.4971,0.4971,-0.02011263073209424
MultiSource/Benchmarks/DOE-ProxyApps-C/SimpleMOC/SimpleMOC, 3.7957, 3.7806, 3.7866,3.7866, 3.7825, 3.7913, 3.7857,3.7857,-0.023768024084935835
MultiSource/Benchmarks/Fhourstones-3.1/fhourstones3.1, 0.7712, 0.7713, 0.7714,0.7713, 0.7711, 0.7720, 0.7710,0.7711,-0.0259302476338652
MultiSource/Benchmarks/TSVC/InductionVariable-dbl/InductionVariable-dbl, 3.0478, 3.0493, 3.0492,3.0492, 3.0495, 3.0480, 3.0481,3.0481,-0.03607503607503393
SingleSource/Benchmarks/Polybench/linear-algebra/kernels/mvt/mvt, 0.2483, 0.2482, 0.2435,0.2482, 0.2481, 0.2481, 0.2433,0.2481,-0.04029008863820627
MultiSource/Benchmarks/PAQ8p/paq8p,42.6637,42.6306,42.6766,42.6637,42.6459,42.6392,42.6491,42.6459,-0.041721650958548295
MultiSource/Benchmarks/MiBench/automotive-basicmath/automotive-basicmath, 0.2227, 0.2224, 0.2226,0.2226, 0.2225, 0.2226, 0.2224,0.2225,-0.04492362982928544
SingleSource/Benchmarks/Polybench/linear-algebra/kernels/bicg/bicg, 0.2125, 0.2125, 0.2125,0.2125, 0.2124, 0.2124, 0.2125,0.2124,-0.04705882352941115
SingleSource/Benchmarks/Misc/oourafft, 6.0226, 6.0210, 6.0170,6.021, 6.0179, 6.0169, 6.0198,6.0179,-0.05148646404251611
SingleSource/Benchmarks/Shootout/sieve, 3.4709, 3.4702, 3.4685,3.4702, 3.4670, 3.4683, 3.4701,3.4683,-0.0547518874992825
MultiSource/Benchmarks/TSVC/NodeSplitting-dbl/NodeSplitting-dbl, 5.0289, 5.0261, 5.0289,5.0289, 5.0261, 5.0259, 5.0261,5.0261,-0.055678180118923226
SingleSource/Benchmarks/Polybench/datamining/correlation/correlation, 1.6684, 1.6735, 1.6659,1.6684, 1.6702, 1.6647, 1.6674,1.6674,-0.05993766482857987
MultiSource/Benchmarks/TSVC/IndirectAddressing-dbl/IndirectAddressing-dbl, 2.4798, 2.4752, 2.4756,2.4756, 2.4741, 2.4698, 2.4793,2.4741,-0.06059137178865415
MultiSource/Benchmarks/TSVC/Expansion-dbl/Expansion-dbl, 1.9862, 1.9844, 1.9893,1.9862, 1.9842, 1.9866, 1.9849,1.9849,-0.06545161615143513
MultiSource/Benchmarks/Olden/bh/bh, 1.2799, 1.2789, 1.2771,1.2789, 1.2780, 1.2766, 1.2785,1.278,-0.07037297677691123
SingleSource/Benchmarks/Polybench/linear-algebra/solvers/dynprog/dynprog, 0.2818, 0.2811, 0.2814,0.2814, 0.2817, 0.2812, 0.2811,0.2812,-0.0710732054015506
SingleSource/Benchmarks/Misc-C++-EH/spirit, 2.6175, 2.6167, 2.6210,2.6175, 2.6199, 2.6146, 2.6156,2.6156,-0.07258834765998534
MultiSource/Benchmarks/FreeBench/distray/distray, 0.1346, 0.1346, 0.1345,0.1346, 0.1345, 0.1345, 0.1346,0.1345,-0.07429420505199458
MultiSource/Benchmarks/FreeBench/mason/mason, 0.1305, 0.1305, 0.1304,0.1305, 0.1304, 0.1303, 0.1305,0.1304,-0.07662835249043765
MultiSource/Benchmarks/TSVC/ControlLoops-flt/ControlLoops-flt, 2.3515, 2.3463, 2.3487,2.3487, 2.3461, 2.3468, 2.3493,2.3468,-0.08089581470600571
MultiSource/Benchmarks/Prolangs-C++/life/life, 0.7136, 0.7145, 0.7148,0.7145, 0.7139, 0.7136, 0.7139,0.7139,-0.08397480755774067
MultiSource/Benchmarks/TSVC/Equivalencing-flt/Equivalencing-flt, 0.9709, 0.9692, 0.9674,0.9692, 0.9673, 0.9683, 0.9684,0.9683,-0.09286009079652047
SingleSource/Benchmarks/Adobe-C++/loop_unroll, 1.7723, 1.7734, 1.7752,1.7734, 1.7717, 1.7714, 1.7749,1.7717,-0.09586105785497345
SingleSource/Benchmarks/SmallPT/smallpt, 7.5461, 7.5423, 7.5470,7.5461, 7.5459, 7.5344, 7.5383,7.5383,-0.10336465193941935
MultiSource/Benchmarks/DOE-ProxyApps-C/Pathfinder/PathFinder, 2.0973, 2.1028, 2.0949,2.0973, 2.0949, 2.0935, 2.1110,2.0949,-0.11443284222573125
MultiSource/Benchmarks/BitBench/five11/five11, 1.1100, 1.1100, 1.1110,1.11, 1.1140, 1.1075, 1.1087,1.1087,-0.11711711711712702
SingleSource/Benchmarks/Polybench/linear-algebra/kernels/atax/atax, 0.1703, 0.1703, 0.1704,0.1703, 0.1702, 0.1701, 0.1701,0.1701,-0.11743981209630938
SingleSource/Benchmarks/BenchmarkGame/recursive, 0.7052, 0.7041, 0.7069,0.7052, 0.7043, 0.7120, 0.7041,0.7043,-0.12762336925694617
MultiSource/Applications/oggenc/oggenc, 0.0764, 0.0764, 0.0764,0.0764, 0.0763, 0.0763, 0.0763,0.0763,-0.13089005235600304
MultiSource/Benchmarks/Olden/bisort/bisort, 0.3626, 0.3620, 0.3616,0.362, 0.3620, 0.3613, 0.3615,0.3615,-0.13812154696132284
MultiSource/Benchmarks/VersaBench/8b10b/8b10b, 3.6024, 3.6152, 3.6037,3.6037, 3.6094, 3.5982, 3.5984,3.5984,-0.14707106584899154
MultiSource/Benchmarks/TSVC/NodeSplitting-flt/NodeSplitting-flt, 4.6537, 4.6590, 4.6560,4.656, 4.6470, 4.6510, 4.6491,4.6491,-0.14819587628865927
MultiSource/Benchmarks/tramp3d-v4/tramp3d-v4, 0.2395, 0.2397, 0.2396,0.2396, 0.2392, 0.2392, 0.2392,0.2392,-0.16694490818029983
MultiSource/Benchmarks/BitBench/uudecode/uudecode, 0.0595, 0.0596, 0.0596,0.0596, 0.0595, 0.0596, 0.0595,0.0595,-0.1677852348993314
MultiSource/Benchmarks/TSVC/LoopRerolling-flt/LoopRerolling-flt, 3.8328, 3.8259, 3.8352,3.8328, 3.8145, 3.8303, 3.8257,3.8257,-0.18524316426634657
SingleSource/Benchmarks/Polybench/stencils/jacobi-2d-imper/jacobi-2d-imper, 0.1494, 0.1495, 0.1495,0.1495, 0.1497, 0.1492, 0.1492,0.1492,-0.20066889632106566
MultiSource/Benchmarks/TSVC/Expansion-flt/Expansion-flt, 1.1878, 1.1751, 1.1832,1.1832, 1.1806, 1.1807, 1.1854,1.1807,-0.2112914131169652
SingleSource/Benchmarks/Polybench/linear-algebra/kernels/trmm/trmm, 2.3572, 2.3519, 2.3510,2.3519, 2.3447, 2.3622, 2.3469,2.3469,-0.21259407287724796
SingleSource/Benchmarks/Polybench/linear-algebra/kernels/gemver/gemver, 0.3211, 0.3215, 0.3222,0.3215, 0.3214, 0.3207, 0.3173,0.3207,-0.2488335925350027
MultiSource/Benchmarks/Prolangs-C++/ocean/ocean, 0.0361, 0.0360, 0.0360,0.036, 0.0359, 0.0360, 0.0359,0.0359,-0.2777777777777657
MultiSource/Benchmarks/DOE-ProxyApps-C/XSBench/XSBench, 2.4328, 2.4420, 2.4411,2.4411, 2.4369, 2.4339, 2.4310,2.4339,-0.29494899840236677
SingleSource/Benchmarks/Adobe-C++/stepanov_abstraction, 4.2661, 4.2649, 4.2663,4.2661, 4.2524, 4.2530, 4.2520,4.2524,-0.3211364009282458
SingleSource/Benchmarks/Misc/flops,10.6464,10.6776,10.6820,10.6776,10.6421,10.6790,10.6382,10.6421,-0.33247171649060103
MultiSource/Benchmarks/MiBench/automotive-susan/automotive-susan, 0.0284, 0.0290, 0.0285,0.0285, 0.0284, 0.0285, 0.0284,0.0284,-0.35087719298245723
MultiSource/Benchmarks/TSVC/CrossingThresholds-flt/CrossingThresholds-flt, 1.6260, 1.6366, 1.6295,1.6295, 1.6307, 1.6185, 1.6236,1.6236,-0.36207425590671916
MultiSource/Benchmarks/TSVC/GlobalDataFlow-flt/GlobalDataFlow-flt, 1.5012, 1.5077, 1.5047,1.5047, 1.5027, 1.4960, 1.4990,1.499,-0.3788130524356892
MultiSource/Benchmarks/MiBench/telecomm-CRC32/telecomm-CRC32, 0.2068, 0.2045, 0.2040,0.2045, 0.1993, 0.2037, 0.2087,0.2037,-0.3911980440097773
MultiSource/Benchmarks/Prolangs-C/gnugo/gnugo, 0.0251, 0.0252, 0.0252,0.0252, 0.0251, 0.0251, 0.0251,0.0251,-0.3968253968253954
SingleSource/Benchmarks/CoyoteBench/huffbench, 9.0378, 9.0431, 9.0476,9.0431, 9.0063, 9.0096, 9.0066,9.0066,-0.40362265152437127
MultiSource/Benchmarks/ASC_Sequoia/AMGmk/AMGmk, 4.9884, 5.0004, 4.9982,4.9982, 4.9775, 4.9790, 4.9743,4.9775,-0.4141490936737213
MultiSource/Benchmarks/MiBench/telecomm-gsm/telecomm-gsm, 0.1048, 0.0999, 0.0999,0.0999, 0.0993, 0.0994, 0.1019,0.0994,-0.5005005005005003
SingleSource/Benchmarks/Misc-C++/stepanov_container, 3.1100, 3.1034, 3.0955,3.1034, 3.0857, 3.0910, 3.0802,3.0857,-0.5703422053231932
MultiSource/Applications/spiff/spiff, 1.2845, 1.2805, 1.2817,1.2817, 1.2727, 1.2746, 1.2715,1.2727,-0.7021924007178049
SingleSource/Benchmarks/Shootout-C++/ary3, 0.5360, 0.5383, 0.5367,0.5367, 0.5329, 0.5447, 0.5323,0.5329,-0.7080305571082413
MultiSource/Benchmarks/MallocBench/gs/gs, 0.0275, 0.0274, 0.0276,0.0275, 0.0273, 0.0273, 0.0271,0.0273,-0.7272727272727209
MultiSource/Benchmarks/FreeBench/analyzer/analyzer, 0.0404, 0.0401, 0.0403,0.0403, 0.0400, 0.0406, 0.0398,0.04,-0.7444168734491385
SingleSource/Benchmarks/BenchmarkGame/nsieve-bits, 0.4920, 0.4805, 0.4846,0.4846, 0.4862, 0.4802, 0.4772,0.4802,-0.907965332232763
MultiSource/Benchmarks/Olden/mst/mst, 0.0522, 0.0520, 0.0522,0.0522, 0.0517, 0.0516, 0.0515,0.0516,-1.1494252873563315
SingleSource/Benchmarks/Adobe-C++/stepanov_vector, 2.3071, 2.3074, 2.3082,2.3074, 2.2789, 2.2785, 2.2803,2.2789,-1.2351564531507209
MultiSource/Benchmarks/MiBench/consumer-typeset/consumer-typeset, 0.0843, 0.0839, 0.0840,0.084, 0.0828, 0.0828, 0.0827,0.0828,-1.4285714285714346
SingleSource/Benchmarks/Polybench/linear-algebra/kernels/gesummv/gesummv, 0.3015, 0.3064, 0.3064,0.3064, 0.3016, 0.3064, 0.3015,0.3016,-1.5665796344647598
MultiSource/Applications/siod/siod, 1.1307, 1.1325, 1.1321,1.1321, 1.0951, 1.0952, 1.0949,1.0951,-3.2682625209787264
Total elapsed time,-,-,-,587.6976000000003,-,-,-,588.3524000000002,0.1114178448235803
Total failure,-,-,-,0,-,-,-,0,
Geom. avg slowdown,,,,,,,,,0.1310327054%
