Benchmarks,base-5.0,base-5.0,base-5.0,median,nocapture-5.0,nocapture-5.0,nocapture-5.0,median,Slowdown(%)
MultiSource/Benchmarks/mediabench/jpeg/jpeg-6a/cjpeg, 0.0043, 0.0043, 0.0043,0.0043, 0.0045, 0.0045, 0.0045,0.0045,4.6511627906976605
MultiSource/Benchmarks/TSVC/ControlFlow-flt/ControlFlow-flt, 3.1123, 3.1361, 3.1105,3.1123, 3.1909, 3.1972, 3.1711,3.1909,2.5254634835973455
MultiSource/Applications/minisat/minisat, 4.3307, 4.3411, 4.3312,4.3312, 4.4011, 4.3863, 4.4127,4.4011,1.613871444403392
MultiSource/Applications/SIBsim4/SIBsim4, 1.8668, 1.8608, 1.8706,1.8668, 1.8780, 1.9073, 1.8929,1.8929,1.398114420398544
MultiSource/Benchmarks/TSVC/Packing-flt/Packing-flt, 1.8584, 1.8527, 1.8536,1.8536, 1.8754, 1.8693, 1.8763,1.8754,1.1760897712559393
SingleSource/Benchmarks/Shootout-C++/hash2, 1.5322, 1.5343, 1.5337,1.5337, 1.5505, 1.5493, 1.5507,1.5505,1.0953902327704101
MultiSource/Benchmarks/Olden/voronoi/voronoi, 0.1949, 0.1951, 0.1950,0.195, 0.1970, 0.1973, 0.1971,0.1971,1.0769230769230642
MultiSource/Applications/sqlite3/sqlite3, 1.5762, 1.5712, 1.5718,1.5718, 1.5869, 1.5819, 1.5860,1.586,0.9034228273317124
MultiSource/Benchmarks/mediabench/mpeg2/mpeg2dec/mpeg2decode, 0.0131, 0.0130, 0.0130,0.013, 0.0131, 0.0131, 0.0130,0.0131,0.7692307692307887
MultiSource/Applications/ALAC/decode/alacconvert-decode, 0.0132, 0.0131, 0.0131,0.0131, 0.0132, 0.0132, 0.0131,0.0132,0.7633587786259444
SingleSource/Benchmarks/Misc/himenobmtxpa, 0.4918, 0.4970, 0.4939,0.4939, 0.4975, 0.4975, 0.5001,0.4975,0.7288924883579684
SingleSource/Benchmarks/Misc-C++-EH/spirit, 2.3143, 2.3139, 2.3141,2.3141, 2.3303, 2.3307, 2.3310,2.3307,0.7173415150598661
SingleSource/Benchmarks/Stanford/Bubblesort, 0.0140, 0.0140, 0.0140,0.014, 0.0141, 0.0140, 0.0141,0.0141,0.7142857142857117
MultiSource/Benchmarks/NPB-serial/is/is, 4.4914, 4.4855, 4.5197,4.4914, 4.5212, 4.5212, 4.4927,4.5212,0.6634902257648179
MultiSource/Benchmarks/Ptrdist/bc/bc, 0.3261, 0.3261, 0.3261,0.3261, 0.3283, 0.3282, 0.3281,0.3282,0.6439742410303539
MultiSource/Benchmarks/MallocBench/espresso/espresso, 0.2672, 0.2672, 0.2670,0.2672, 0.2686, 0.2685, 0.2682,0.2685,0.48652694610780145
MultiSource/Benchmarks/DOE-ProxyApps-C++/PENNANT/PENNANT, 0.3659, 0.3652, 0.3642,0.3652, 0.3668, 0.3667, 0.3675,0.3668,0.4381161007666945
SingleSource/Benchmarks/Stanford/Treesort, 0.0483, 0.0483, 0.0483,0.0483, 0.0483, 0.0485, 0.0485,0.0485,0.41407867494824835
SingleSource/Benchmarks/Linpack/linpack-pc, 1.1126, 1.1048, 1.1042,1.1048, 1.1092, 1.1064, 1.1099,1.1092,0.3982621288921129
MultiSource/Benchmarks/Fhourstones/fhourstones, 0.7169, 0.7190, 0.7162,0.7169, 0.7200, 0.7179, 0.7192,0.7192,0.32082577765377707
MultiSource/Applications/spiff/spiff, 1.1487, 1.1461, 1.1505,1.1487, 1.1523, 1.1523, 1.1509,1.1523,0.31339775398275815
SingleSource/Benchmarks/Polybench/linear-algebra/kernels/doitgen/doitgen, 0.6962, 0.6952, 0.6985,0.6962, 0.6988, 0.6983, 0.6954,0.6983,0.3016374604998484
SingleSource/Benchmarks/BenchmarkGame/nsieve-bits, 0.5228, 0.5235, 0.5216,0.5228, 0.5221, 0.5243, 0.5245,0.5243,0.2869166029074055
MultiSource/Benchmarks/Ptrdist/ks/ks, 0.5817, 0.5824, 0.5866,0.5824, 0.5839, 0.5872, 0.5839,0.5839,0.2575549450549275
SingleSource/Benchmarks/Misc/ffbench, 0.5095, 0.5105, 0.5108,0.5105, 0.5153, 0.5118, 0.5112,0.5118,0.25465230166505926
SingleSource/Benchmarks/Misc/whetstone, 0.9131, 0.9108, 0.9063,0.9108, 0.9131, 0.9131, 0.9051,0.9131,0.2525252525252597
MultiSource/Benchmarks/Olden/bh/bh, 1.1613, 1.1638, 1.1587,1.1613, 1.1644, 1.1640, 1.1639,1.164,0.2324980625161288
MultiSource/Benchmarks/mafft/pairlocalalign,21.9295,21.9301,21.9299,21.9299,21.9787,21.9789,21.9784,21.9787,0.22252723450630896
MultiSource/Benchmarks/TSVC/ControlLoops-flt/ControlLoops-flt, 2.0834, 2.0922, 2.0837,2.0837, 2.0919, 2.0882, 2.0836,2.0882,0.21596199068965038
SingleSource/Benchmarks/Adobe-C++/functionobjects, 2.6860, 2.6898, 2.6851,2.686, 2.6914, 2.6905, 2.6920,2.6914,0.20104244229337542
MultiSource/Benchmarks/ASC_Sequoia/IRSmk/IRSmk, 3.0209, 3.0434, 3.0167,3.0209, 3.0269, 3.0433, 3.0199,3.0269,0.19861630639874672
MultiSource/Benchmarks/TSVC/LinearDependence-flt/LinearDependence-flt, 4.4254, 4.4291, 4.4250,4.4254, 4.4427, 4.4333, 4.4339,4.4339,0.19207303294619393
SingleSource/Benchmarks/Polybench/datamining/covariance/covariance, 1.7008, 1.7026, 1.7014,1.7014, 1.7044, 1.7106, 1.6992,1.7044,0.17632537909955115
MultiSource/Benchmarks/TSVC/Equivalencing-flt/Equivalencing-flt, 0.8599, 0.8593, 0.8613,0.8599, 0.8614, 0.8620, 0.8611,0.8614,0.17443888824282272
MultiSource/Benchmarks/TSVC/ControlFlow-dbl/ControlFlow-dbl, 3.3093, 3.3105, 3.3149,3.3105, 3.3096, 3.3158, 3.3168,3.3158,0.16009666213561147
MultiSource/Benchmarks/Prolangs-C++/primes/primes, 0.1895, 0.1877, 0.1883,0.1883, 0.1885, 0.1895, 0.1886,0.1886,0.15932023366966863
SingleSource/Benchmarks/Shootout-C++/methcall, 3.0692, 3.0721, 3.0690,3.0692, 3.0737, 3.0690, 3.0738,3.0737,0.14661801120814388
MultiSource/Benchmarks/VersaBench/8b10b/8b10b, 3.2058, 3.1985, 3.2126,3.2058, 3.1986, 3.2104, 3.2181,3.2104,0.1434899245118304
SingleSource/Benchmarks/Shootout-C++/hash, 0.2799, 0.2792, 0.2800,0.2799, 0.2798, 0.2810, 0.2803,0.2803,0.14290818149338413
SingleSource/Benchmarks/Stanford/Puzzle, 0.0706, 0.0706, 0.0706,0.0706, 0.0707, 0.0707, 0.0707,0.0707,0.14164305949009304
MultiSource/Benchmarks/DOE-ProxyApps-C/Pathfinder/PathFinder, 1.8658, 1.8669, 1.8690,1.8669, 1.8706, 1.8694, 1.8679,1.8694,0.133911832449507
SingleSource/Benchmarks/Polybench/linear-algebra/solvers/dynprog/dynprog, 0.2499, 0.2500, 0.2499,0.2499, 0.2502, 0.2498, 0.2504,0.2502,0.12004801920766361
MultiSource/Benchmarks/DOE-ProxyApps-C++/CLAMR/CLAMR, 0.9969, 0.9965, 0.9965,0.9965, 0.9976, 0.9974, 0.9976,0.9976,0.11038635223281634
SingleSource/Benchmarks/Shootout-C++/lists, 2.5684, 2.5716, 2.5701,2.5701, 2.5729, 2.5730, 2.5720,2.5729,0.10894517723045727
MultiSource/Benchmarks/TSVC/InductionVariable-flt/InductionVariable-flt, 2.2708, 2.2712, 2.2709,2.2709, 2.2736, 2.2733, 2.2695,2.2733,0.10568497071643534
MultiSource/Benchmarks/TSVC/IndirectAddressing-flt/IndirectAddressing-flt, 1.9911, 1.9912, 1.9934,1.9912, 1.9933, 1.9930, 1.9934,1.9933,0.10546404178384261
MultiSource/Benchmarks/MallocBench/cfrac/cfrac, 0.6779, 0.6778, 0.6775,0.6778, 0.6786, 0.6785, 0.6782,0.6785,0.10327530244911287
MultiSource/Benchmarks/PAQ8p/paq8p,39.0826,39.0852,39.1003,39.0852,39.0950,39.1353,39.1208,39.1208,0.09108306980647463
MultiSource/Benchmarks/Olden/perimeter/perimeter, 0.1108, 0.1107, 0.1107,0.1107, 0.1106, 0.1108, 0.1108,0.1108,0.09033423667568208
MultiSource/Benchmarks/7zip/7zip-benchmark, 5.8506, 5.8513, 5.8495,5.8506, 5.8554, 5.8558, 5.8544,5.8554,0.0820428673982132
SingleSource/Benchmarks/Shootout/lists, 3.6624, 3.6579, 3.6620,3.662, 3.6640, 3.6676, 3.6650,3.665,0.08192244675040428
MultiSource/Benchmarks/TSVC/IndirectAddressing-dbl/IndirectAddressing-dbl, 2.1872, 2.1872, 2.1787,2.1872, 2.1928, 2.1876, 2.1889,2.1889,0.0777249451353379
MultiSource/Benchmarks/TSVC/LoopRestructuring-dbl/LoopRestructuring-dbl, 3.1556, 3.1545, 3.1548,3.1548, 3.1614, 3.1541, 3.1572,3.1572,0.07607455306199995
MultiSource/Benchmarks/DOE-ProxyApps-C++/HPCCG/HPCCG, 0.8129, 0.8121, 0.8120,0.8121, 0.8124, 0.8133, 0.8127,0.8127,0.07388252678239837
SingleSource/Benchmarks/Polybench/linear-algebra/kernels/trisolv/trisolv, 0.1589, 0.1588, 0.1585,0.1588, 0.1589, 0.1589, 0.1588,0.1589,0.0629722921914544
SingleSource/Benchmarks/CoyoteBench/almabench,11.2317,11.2324,11.2310,11.2317,11.2387,11.2378,11.2383,11.2383,0.058762253265309816
MultiSource/Benchmarks/DOE-ProxyApps-C++/miniFE/miniFE, 2.4574, 2.4582, 2.4539,2.4574, 2.4548, 2.4588, 2.4594,2.4588,0.05697078212747453
MultiSource/Benchmarks/Olden/tsp/tsp, 1.0552, 1.0551, 1.0559,1.0552, 1.0565, 1.0552, 1.0558,1.0558,0.05686125852919499
MultiSource/Benchmarks/SciMark2-C/scimark2,37.4309,37.4323,37.4289,37.4309,37.4519,37.4500,37.4682,37.4519,0.0561033798278876
SingleSource/Benchmarks/Polybench/linear-algebra/kernels/bicg/bicg, 0.1937, 0.1936, 0.1933,0.1936, 0.1937, 0.1936, 0.1937,0.1937,0.051652892561993013
SingleSource/Benchmarks/Misc/flops, 9.3876, 9.4579, 9.4755,9.4579, 9.4611, 9.4554, 9.4729,9.4611,0.03383414922975003
SingleSource/Benchmarks/Misc/evalloop, 0.3260, 0.3270, 0.3253,0.326, 0.3267, 0.3255, 0.3261,0.3261,0.030674846625755592
SingleSource/Benchmarks/Shootout/fib2, 1.3244, 1.3149, 1.3127,1.3149, 1.3153, 1.3151, 1.3188,1.3153,0.030420564301469888
MultiSource/Benchmarks/DOE-ProxyApps-C/miniAMR/miniAMR, 0.6882, 0.6878, 0.6912,0.6882, 0.6884, 0.6881, 0.6889,0.6884,0.029061319383894002
SingleSource/Benchmarks/Adobe-C++/simple_types_loop_invariant, 1.4178, 1.4183, 1.4176,1.4178, 1.4183, 1.4178, 1.4182,1.4182,0.028212723938492168
MultiSource/Benchmarks/Trimaran/enc-3des/enc-3des, 1.1469, 1.1466, 1.1466,1.1466, 1.1471, 1.1469, 1.1467,1.1469,0.02616431187858481
SingleSource/Benchmarks/Misc/richards_benchmark, 0.4421, 0.4423, 0.4422,0.4422, 0.4427, 0.4423, 0.4423,0.4423,0.02261420171869588
MultiSource/Benchmarks/sim/sim, 2.2894, 2.2891, 2.2900,2.2894, 2.2864, 2.2898, 2.2913,2.2898,0.01747182667948266
MultiSource/Benchmarks/TSVC/Equivalencing-dbl/Equivalencing-dbl, 1.2232, 1.2252, 1.2260,1.2252, 1.2254, 1.2240, 1.2274,1.2254,0.01632386549135223
SingleSource/Benchmarks/BenchmarkGame/recursive, 0.6267, 0.6282, 0.6266,0.6267, 0.6267, 0.6291, 0.6268,0.6268,0.015956598053290527
SingleSource/Benchmarks/Misc-C++/mandel-text, 1.4325, 1.4301, 1.4333,1.4325, 1.4305, 1.4337, 1.4327,1.4327,0.013961605584644765
SingleSource/Benchmarks/Misc/oourafft, 5.3530, 5.3534, 5.3527,5.353, 5.3553, 5.3528, 5.3537,5.3537,0.013076779376053338
MultiSource/Applications/aha/aha, 0.9171, 0.9167, 0.9176,0.9171, 0.9176, 0.9169, 0.9172,0.9172,0.010903936321016161
MultiSource/Benchmarks/Olden/power/power, 0.9371, 0.9371, 0.9373,0.9371, 0.9372, 0.9371, 0.9372,0.9372,0.010671219720403968
MultiSource/Benchmarks/TSVC/CrossingThresholds-dbl/CrossingThresholds-dbl, 1.8840, 1.8838, 1.8842,1.884, 1.8842, 1.8842, 1.8840,1.8842,0.010615711252670579
MultiSource/Benchmarks/TSVC/ControlLoops-dbl/ControlLoops-dbl, 2.2487, 2.2494, 2.2488,2.2488, 2.2496, 2.2483, 2.2490,2.249,0.008893632159368003
MultiSource/Benchmarks/TSVC/LoopRerolling-dbl/LoopRerolling-dbl, 4.0812, 4.0817, 4.0814,4.0814, 4.0818, 4.0815, 4.0817,4.0817,0.007350418973861572
SingleSource/Benchmarks/Misc-C++/Large/ray, 2.7917, 2.7918, 2.7917,2.7917, 2.7919, 2.7918, 2.7920,2.7919,0.0071640935630501446
MultiSource/Benchmarks/VersaBench/bmm/bmm, 1.4728, 1.4727, 1.4727,1.4727, 1.4727, 1.4728, 1.4728,1.4728,0.00679024920215987
MultiSource/Benchmarks/VersaBench/ecbdes/ecbdes, 1.5065, 1.5064, 1.5064,1.5064, 1.5065, 1.5064, 1.5065,1.5065,0.006638343069576003
SingleSource/Benchmarks/Shootout/random, 1.5523, 1.5523, 1.5523,1.5523, 1.5523, 1.5524, 1.5524,1.5524,0.0064420537267295686
MultiSource/Benchmarks/TSVC/Recurrences-flt/Recurrences-flt, 3.1146, 3.1146, 3.1145,3.1146, 3.1148, 3.1147, 3.1148,3.1148,0.006421370320430775
MultiSource/Benchmarks/TSVC/Packing-dbl/Packing-dbl, 2.0191, 2.0193, 2.0190,2.0191, 2.0199, 2.0192, 2.0190,2.0192,0.0049527016987793715
MultiSource/Benchmarks/TSVC/Searching-dbl/Searching-dbl, 2.0243, 2.0246, 2.0241,2.0243, 2.0242, 2.0245, 2.0244,2.0244,0.004939979252083226
MultiSource/Benchmarks/Trimaran/netbench-url/netbench-url, 2.6522, 2.6522, 2.6522,2.6522, 2.6523, 2.6527, 2.6523,2.6523,0.003770454716822691
MultiSource/Benchmarks/TSVC/Reductions-dbl/Reductions-dbl, 3.0606, 3.0605, 3.0605,3.0605, 3.0606, 3.0605, 3.0607,3.0606,0.0032674399607746096
MultiSource/Benchmarks/ASC_Sequoia/CrystalMk/CrystalMk, 6.4711, 6.4712, 6.4709,6.4711, 6.4712, 6.4710, 6.4712,6.4712,0.0015453323237046845
SingleSource/Regression/C/uint64_to_float, 0.2193, 0.2193, 0.2193,0.2193, 0.2193, 0.2193, 0.2193,0.2193,0.0
SingleSource/Regression/C/2004-08-12-InlinerAndAllocas, 0.0012, 0.0012, 0.0012,0.0012, 0.0012, 0.0012, 0.0012,0.0012,0.0
SingleSource/Benchmarks/Stanford/Towers, 0.0074, 0.0074, 0.0074,0.0074, 0.0074, 0.0074, 0.0074,0.0074,0.0
SingleSource/Benchmarks/Stanford/RealMM, 0.0013, 0.0013, 0.0013,0.0013, 0.0013, 0.0013, 0.0013,0.0013,0.0
SingleSource/Benchmarks/Stanford/Quicksort, 0.0269, 0.0269, 0.0269,0.0269, 0.0270, 0.0269, 0.0269,0.0269,0.0
SingleSource/Benchmarks/Stanford/Perm, 0.0130, 0.0130, 0.0130,0.013, 0.0130, 0.0130, 0.0130,0.013,0.0
SingleSource/Benchmarks/Stanford/Oscar, 0.0029, 0.0029, 0.0029,0.0029, 0.0029, 0.0029, 0.0029,0.0029,0.0
SingleSource/Benchmarks/Stanford/FloatMM, 0.1790, 0.1790, 0.1789,0.179, 0.1790, 0.1789, 0.1790,0.179,0.0
SingleSource/Benchmarks/Shootout/objinst, 0.0007, 0.0007, 0.0007,0.0007, 0.0007, 0.0007, 0.0007,0.0007,0.0
SingleSource/Benchmarks/Shootout/nestedloop, 0.0007, 0.0007, 0.0007,0.0007, 0.0007, 0.0007, 0.0007,0.0007,0.0
SingleSource/Benchmarks/Shootout/ackermann, 0.0030, 0.0030, 0.0030,0.003, 0.0030, 0.0030, 0.0030,0.003,0.0
SingleSource/Benchmarks/Shootout-C++/random, 1.5524, 1.5524, 1.5523,1.5524, 1.5524, 1.5524, 1.5524,1.5524,0.0
SingleSource/Benchmarks/Shootout-C++/objinst, 0.0007, 0.0007, 0.0007,0.0007, 0.0007, 0.0007, 0.0007,0.0007,0.0
SingleSource/Benchmarks/Shootout-C++/nestedloop, 0.0007, 0.0007, 0.0007,0.0007, 0.0007, 0.0007, 0.0007,0.0007,0.0
SingleSource/Benchmarks/Shootout-C++/matrix, 1.0008, 1.0009, 1.0007,1.0008, 1.0008, 1.0008, 1.0005,1.0008,0.0
SingleSource/Benchmarks/Shootout-C++/ackermann, 0.5847, 0.5846, 0.5846,0.5846, 0.5847, 0.5846, 0.5846,0.5846,0.0
SingleSource/Benchmarks/Polybench/stencils/seidel-2d/seidel-2d, 0.5867, 0.5867, 0.5867,0.5867, 0.5867, 0.5867, 0.5867,0.5867,0.0
SingleSource/Benchmarks/Polybench/stencils/jacobi-1d-imper/jacobi-1d-imper, 0.0032, 0.0032, 0.0032,0.0032, 0.0032, 0.0032, 0.0032,0.0032,0.0
SingleSource/Benchmarks/Polybench/medley/reg_detect/reg_detect, 0.0138, 0.0138, 0.0138,0.0138, 0.0138, 0.0138, 0.0138,0.0138,0.0
SingleSource/Benchmarks/Polybench/linear-algebra/solvers/lu/lu, 0.0019, 0.0019, 0.0019,0.0019, 0.0019, 0.0019, 0.0019,0.0019,0.0
SingleSource/Benchmarks/Polybench/linear-algebra/kernels/syr2k/syr2k, 8.2004, 8.2007, 8.1992,8.2004, 8.2003, 8.2004, 8.2010,8.2004,0.0
SingleSource/Benchmarks/Polybench/linear-algebra/kernels/atax/atax, 0.1556, 0.1557, 0.1552,0.1556, 0.1556, 0.1556, 0.1555,0.1556,0.0
SingleSource/Benchmarks/Misc/revertBits, 0.2932, 0.2931, 0.2931,0.2931, 0.2931, 0.2931, 0.2931,0.2931,0.0
SingleSource/Benchmarks/Misc/pi, 0.6176, 0.6176, 0.6176,0.6176, 0.6176, 0.6176, 0.6176,0.6176,0.0
SingleSource/Benchmarks/Misc/perlin, 3.4525, 3.4529, 3.4527,3.4527, 3.4527, 3.4523, 3.4530,3.4527,0.0
SingleSource/Benchmarks/Misc/matmul_f64_4x4, 1.1523, 1.1523, 1.1522,1.1523, 1.1523, 1.1522, 1.1523,1.1523,0.0
SingleSource/Benchmarks/Misc/mandel-2, 1.1369, 1.1370, 1.1369,1.1369, 1.1369, 1.1369, 1.1371,1.1369,0.0
SingleSource/Benchmarks/Misc/mandel, 0.7417, 0.7417, 0.7417,0.7417, 0.7417, 0.7417, 0.7417,0.7417,0.0
SingleSource/Benchmarks/Misc/lowercase, 0.0007, 0.0007, 0.0007,0.0007, 0.0007, 0.0007, 0.0007,0.0007,0.0
SingleSource/Benchmarks/Misc/fp-convert, 2.3401, 2.3401, 2.3400,2.3401, 2.3401, 2.3400, 2.3402,2.3401,0.0
SingleSource/Benchmarks/Misc/flops-7, 1.4146, 1.4147, 1.4146,1.4146, 1.4146, 1.4146, 1.4147,1.4146,0.0
SingleSource/Benchmarks/Misc/flops-5, 3.8040, 3.8040, 3.8038,3.804, 3.8040, 3.8038, 3.8042,3.804,0.0
SingleSource/Benchmarks/Misc/flops-3, 4.8160, 4.8160, 4.8158,4.816, 4.8160, 4.8158, 4.8162,4.816,0.0
SingleSource/Benchmarks/Misc/flops-2, 0.7674, 0.7674, 0.7673,0.7674, 0.7674, 0.7673, 0.7674,0.7674,0.0
SingleSource/Benchmarks/Misc/fbench, 1.5246, 1.5246, 1.5245,1.5246, 1.5246, 1.5245, 1.5246,1.5246,0.0
SingleSource/Benchmarks/Misc/dt, 0.5933, 0.5933, 0.5933,0.5933, 0.5933, 0.5933, 0.5933,0.5933,0.0
SingleSource/Benchmarks/Misc-C++/oopack_v1p8, 0.1441, 0.1441, 0.1441,0.1441, 0.1441, 0.1441, 0.1441,0.1441,0.0
SingleSource/Benchmarks/Misc-C++/Large/sphereflake, 4.9901, 4.9899, 4.9896,4.9899, 4.9899, 4.9896, 4.9901,4.9899,0.0
SingleSource/Benchmarks/McGill/misr, 0.0902, 0.0902, 0.0902,0.0902, 0.0902, 0.0902, 0.0902,0.0902,0.0
SingleSource/Benchmarks/Dhrystone/fldry, 0.3251, 0.3251, 0.3251,0.3251, 0.3251, 0.3251, 0.3251,0.3251,0.0
SingleSource/Benchmarks/BenchmarkGame/spectral-norm, 0.8691, 0.8691, 0.8690,0.8691, 0.8691, 0.8690, 0.8691,0.8691,0.0
SingleSource/Benchmarks/BenchmarkGame/partialsums, 0.5059, 0.5060, 0.5059,0.5059, 0.5059, 0.5059, 0.5059,0.5059,0.0
SingleSource/Benchmarks/BenchmarkGame/n-body, 1.2217, 1.2218, 1.2217,1.2217, 1.2217, 1.2217, 1.2218,1.2217,0.0
SingleSource/Benchmarks/Adobe-C++/simple_types_constant_folding, 0.5917, 0.5913, 0.5913,0.5913, 0.5916, 0.5913, 0.5913,0.5913,0.0
MultiSource/Benchmarks/tramp3d-v4/tramp3d-v4, 0.2186, 0.2186, 0.2182,0.2186, 0.2186, 0.2185, 0.2186,0.2186,0.0
MultiSource/Benchmarks/Trimaran/enc-pc1/enc-pc1, 0.3061, 0.3061, 0.3061,0.3061, 0.3061, 0.3060, 0.3061,0.3061,0.0
MultiSource/Benchmarks/Trimaran/enc-md5/enc-md5, 1.0892, 1.0893, 1.0893,1.0893, 1.0893, 1.0893, 1.0894,1.0893,0.0
MultiSource/Benchmarks/TSVC/Reductions-flt/Reductions-flt, 5.2804, 5.2804, 5.2802,5.2804, 5.2804, 5.2803, 5.2805,5.2804,0.0
MultiSource/Benchmarks/Ptrdist/anagram/anagram, 0.5360, 0.5360, 0.5362,0.536, 0.5360, 0.5361, 0.5360,0.536,0.0
MultiSource/Benchmarks/Prolangs-C++/simul/simul, 0.0034, 0.0034, 0.0034,0.0034, 0.0034, 0.0034, 0.0034,0.0034,0.0
MultiSource/Benchmarks/Prolangs-C++/ocean/ocean, 0.0360, 0.0361, 0.0360,0.036, 0.0360, 0.0359, 0.0360,0.036,0.0
MultiSource/Benchmarks/Prolangs-C++/city/city, 0.0045, 0.0045, 0.0045,0.0045, 0.0045, 0.0045, 0.0045,0.0045,0.0
MultiSource/Benchmarks/Olden/treeadd/treeadd, 0.1139, 0.1139, 0.1140,0.1139, 0.1139, 0.1138, 0.1139,0.1139,0.0
MultiSource/Benchmarks/MiBench/telecomm-adpcm/telecomm-adpcm, 0.0621, 0.0621, 0.0622,0.0621, 0.0621, 0.0621, 0.0621,0.0621,0.0
MultiSource/Benchmarks/MiBench/telecomm-FFT/telecomm-fft, 0.0343, 0.0344, 0.0343,0.0343, 0.0343, 0.0343, 0.0343,0.0343,0.0
MultiSource/Benchmarks/MiBench/security-rijndael/security-rijndael, 0.0210, 0.0211, 0.0212,0.0211, 0.0211, 0.0211, 0.0211,0.0211,0.0
MultiSource/Benchmarks/MiBench/automotive-susan/automotive-susan, 0.0267, 0.0268, 0.0268,0.0268, 0.0268, 0.0268, 0.0268,0.0268,0.0
MultiSource/Benchmarks/McCat/18-imp/imp, 0.0512, 0.0512, 0.0513,0.0512, 0.0514, 0.0512, 0.0511,0.0512,0.0
MultiSource/Benchmarks/McCat/05-eks/eks, 0.0031, 0.0031, 0.0031,0.0031, 0.0031, 0.0031, 0.0031,0.0031,0.0
MultiSource/Benchmarks/McCat/04-bisect/bisect, 0.0682, 0.0682, 0.0682,0.0682, 0.0682, 0.0682, 0.0682,0.0682,0.0
MultiSource/Benchmarks/McCat/01-qbsort/qbsort, 0.0358, 0.0358, 0.0358,0.0358, 0.0358, 0.0358, 0.0359,0.0358,0.0
MultiSource/Benchmarks/FreeBench/pifft/pifft, 0.0596, 0.0597, 0.0596,0.0596, 0.0596, 0.0595, 0.0597,0.0596,0.0
MultiSource/Benchmarks/FreeBench/pcompress2/pcompress2, 0.0921, 0.0921, 0.0920,0.0921, 0.0920, 0.0921, 0.0921,0.0921,0.0
MultiSource/Benchmarks/FreeBench/mason/mason, 0.1173, 0.1173, 0.1173,0.1173, 0.1173, 0.1173, 0.1173,0.1173,0.0
MultiSource/Benchmarks/FreeBench/fourinarow/fourinarow, 0.1579, 0.1579, 0.1579,0.1579, 0.1578, 0.1579, 0.1580,0.1579,0.0
MultiSource/Benchmarks/FreeBench/distray/distray, 0.1213, 0.1213, 0.1214,0.1213, 0.1213, 0.1213, 0.1214,0.1213,0.0
MultiSource/Benchmarks/BitBench/uudecode/uudecode, 0.0549, 0.0549, 0.0549,0.0549, 0.0548, 0.0549, 0.0550,0.0549,0.0
MultiSource/Applications/viterbi/viterbi, 1.1388, 1.1385, 1.1388,1.1388, 1.1388, 1.1400, 1.1385,1.1388,0.0
MultiSource/Applications/sgefa/sgefa, 0.1358, 0.1358, 0.1358,0.1358, 0.1358, 0.1359, 0.1357,0.1358,0.0
MultiSource/Applications/oggenc/oggenc, 0.0686, 0.0687, 0.0687,0.0687, 0.0685, 0.0689, 0.0687,0.0687,0.0
MultiSource/Applications/kimwitu++/kc, 0.0270, 0.0271, 0.0270,0.027, 0.0269, 0.0270, 0.0270,0.027,0.0
MultiSource/Applications/hbd/hbd, 0.0031, 0.0031, 0.0031,0.0031, 0.0031, 0.0031, 0.0031,0.0031,0.0
MultiSource/Applications/ALAC/encode/alacconvert-encode, 0.0253, 0.0253, 0.0253,0.0253, 0.0253, 0.0253, 0.0253,0.0253,0.0
MultiSource/Applications/hexxagon/hexxagon, 6.3006, 6.2992, 6.2987,6.2992, 6.2990, 6.2992, 6.2988,6.299,-0.003175006350009113
MultiSource/Benchmarks/TSVC/Recurrences-dbl/Recurrences-dbl, 3.1150, 3.1150, 3.1148,3.115, 3.1149, 3.1149, 3.1150,3.1149,-0.0032102728731997487
SingleSource/Benchmarks/Misc/flops-6, 3.0423, 3.0423, 3.0422,3.0423, 3.0194, 3.0422, 3.0424,3.0422,-0.0032869868191842677
SingleSource/Benchmarks/Shootout/methcall, 2.9149, 2.9147, 2.9145,2.9147, 2.9148, 2.9146, 2.9146,2.9146,-0.003430884825184055
SingleSource/Benchmarks/Misc/ReedSolomon, 2.7858, 2.7858, 2.7859,2.7858, 2.7858, 2.7854, 2.7857,2.7857,-0.0035896331395002257
SingleSource/Benchmarks/Misc-C++/stepanov_v1p2, 7.0320, 7.0319, 7.0316,7.0319, 7.0316, 7.0312, 7.0318,7.0316,-0.0042662722735009595
SingleSource/Benchmarks/SmallPT/smallpt, 6.7150, 6.7178, 6.7178,6.7178, 6.7190, 6.7174, 6.7174,6.7174,-0.005954330286717102
MultiSource/Benchmarks/Olden/em3d/em3d, 1.5188, 1.5187, 1.5187,1.5187, 1.5184, 1.5186, 1.5186,1.5186,-0.006584578916180028
MultiSource/Benchmarks/nbench/nbench, 1.1320, 1.1316, 1.1319,1.1319, 1.1317, 1.1318, 1.1331,1.1318,-0.008834702712257059
MultiSource/Applications/obsequi/Obsequi, 1.0154, 1.0157, 1.0146,1.0154, 1.0154, 1.0150, 1.0153,1.0153,-0.009848335631279515
MultiSource/Benchmarks/VersaBench/beamformer/beamformer, 0.6672, 0.6675, 0.6675,0.6675, 0.6676, 0.6673, 0.6674,0.6674,-0.01498127340824329
SingleSource/Benchmarks/BenchmarkGame/fannkuch, 1.8612, 1.8601, 1.8592,1.8601, 1.8604, 1.8592, 1.8598,1.8598,-0.016128165152418106
MultiSource/Benchmarks/DOE-ProxyApps-C/miniGMG/miniGMG, 4.7916, 4.7922, 4.7774,4.7916, 4.7908, 4.7945, 4.7884,4.7908,-0.016695884464479338
SingleSource/Benchmarks/BenchmarkGame/Large/fasta, 0.5744, 0.5743, 0.5750,0.5744, 0.5743, 0.5743, 0.5752,0.5743,-0.017409470752083323
MultiSource/Benchmarks/Trimaran/netbench-crc/netbench-crc, 0.5538, 0.5539, 0.5539,0.5539, 0.5538, 0.5538, 0.5538,0.5538,-0.018053800324968616
SingleSource/Benchmarks/Polybench/medley/floyd-warshall/floyd-warshall, 5.3723, 5.3727, 5.3769,5.3727, 5.3714, 5.3717, 5.3729,5.3717,-0.018612615630886342
SingleSource/Benchmarks/McGill/queens, 1.5580, 1.5580, 1.5588,1.558, 1.5590, 1.5577, 1.5576,1.5577,-0.019255455712452463
MultiSource/Benchmarks/TSVC/LinearDependence-dbl/LinearDependence-dbl, 5.0645, 5.0665, 5.0696,5.0665, 5.0655, 5.0641, 5.0654,5.0654,-0.021711240501320894
SingleSource/Benchmarks/Shootout-C++/fibo, 1.3168, 1.3147, 1.3151,1.3151, 1.3147, 1.3151, 1.3148,1.3148,-0.022811953463608425
MultiSource/Benchmarks/TSVC/Symbolics-dbl/Symbolics-dbl, 2.1659, 2.1654, 2.1655,2.1655, 2.1660, 2.1649, 2.1650,2.165,-0.023089355806982237
MultiSource/Benchmarks/TSVC/Searching-flt/Searching-flt, 2.1644, 2.1651, 2.1653,2.1651, 2.1646, 2.1631, 2.1652,2.1646,-0.02309362154171435
MultiSource/Benchmarks/Olden/bisort/bisort, 0.3737, 0.3741, 0.3745,0.3741, 0.3740, 0.3747, 0.3739,0.374,-0.026730820636189367
MultiSource/Benchmarks/TSVC/NodeSplitting-dbl/NodeSplitting-dbl, 4.4581, 4.4598, 4.4602,4.4598, 4.4586, 4.4602, 4.4585,4.4586,-0.02690703618998258
SingleSource/Benchmarks/Shootout/matrix, 0.9419, 0.9416, 0.9409,0.9416, 0.9410, 0.9413, 0.9414,0.9413,-0.03186066270177701
SingleSource/Benchmarks/Dhrystone/dry, 0.2711, 0.2711, 0.2710,0.2711, 0.2710, 0.2710, 0.2710,0.271,-0.03688675765399774
SingleSource/Benchmarks/Misc-C++/stepanov_container, 3.5665, 3.5723, 3.5694,3.5694, 3.5571, 3.5684, 3.5680,3.568,-0.03922227825404745
SingleSource/Benchmarks/Polybench/stencils/adi/adi, 2.5232, 2.5204, 2.5290,2.5232, 2.5221, 2.5217, 2.5221,2.5221,-0.043595434369059216
MultiSource/Benchmarks/TSVC/GlobalDataFlow-dbl/GlobalDataFlow-dbl, 2.5201, 2.5212, 2.5208,2.5208, 2.5182, 2.5208, 2.5195,2.5195,-0.0515709298635425
MultiSource/Applications/JM/lencod/lencod, 2.8141, 2.8304, 2.8289,2.8289, 2.8261, 2.8273, 2.8274,2.8273,-0.05655908657075104
MultiSource/Benchmarks/Olden/health/health, 0.1361, 0.1361, 0.1358,0.1361, 0.1362, 0.1357, 0.1360,0.136,-0.07347538574576928
MultiSource/Benchmarks/DOE-ProxyApps-C/XSBench/XSBench, 2.3505, 2.3540, 2.3598,2.354, 2.3440, 2.3561, 2.3520,2.352,-0.084961767204772
MultiSource/Benchmarks/TSVC/Expansion-flt/Expansion-flt, 1.0426, 1.0337, 1.0470,1.0426, 1.0417, 1.0410, 1.0424,1.0417,-0.08632265490119417
MultiSource/Benchmarks/MiBench/consumer-lame/consumer-lame, 0.1055, 0.1055, 0.1056,0.1055, 0.1054, 0.1054, 0.1055,0.1054,-0.09478672985782088
MultiSource/Benchmarks/FreeBench/neural/neural, 0.1043, 0.1042, 0.1043,0.1043, 0.1042, 0.1042, 0.1042,0.1042,-0.09587727708533222
SingleSource/Benchmarks/Shootout/sieve, 3.0872, 3.0875, 3.0873,3.0873, 3.0843, 3.0853, 3.0823,3.0843,-0.09717228646390907
SingleSource/Benchmarks/Shootout/strcat, 0.0982, 0.0981, 0.0979,0.0981, 0.0980, 0.0982, 0.0980,0.098,-0.10193679918450993
MultiSource/Benchmarks/Ptrdist/yacr2/yacr2, 0.4742, 0.4745, 0.4738,0.4742, 0.4741, 0.4737, 0.4736,0.4737,-0.1054407423028314
MultiSource/Benchmarks/TSVC/InductionVariable-dbl/InductionVariable-dbl, 2.6958, 2.6950, 2.6936,2.695, 2.6918, 2.6912, 2.6933,2.6918,-0.11873840445267847
SingleSource/Benchmarks/Shootout/hash, 2.5617, 2.5576, 2.5642,2.5617, 2.5624, 2.5584, 2.5556,2.5584,-0.1288207050005985
MultiSource/Benchmarks/Fhourstones-3.1/fhourstones3.1, 0.7273, 0.7269, 0.7282,0.7273, 0.7267, 0.7257, 0.7263,0.7263,-0.1374948439433532
SingleSource/Benchmarks/Polybench/stencils/fdtd-apml/fdtd-apml, 0.6490, 0.6482, 0.6510,0.649, 0.6504, 0.6468, 0.6481,0.6481,-0.13867488443759513
MultiSource/Benchmarks/BitBench/drop3/drop3, 0.1429, 0.1432, 0.1430,0.143, 0.1428, 0.1426, 0.1430,0.1428,-0.13986013986012624
MultiSource/Benchmarks/MiBench/network-patricia/network-patricia, 0.0654, 0.0652, 0.0654,0.0654, 0.0652, 0.0653, 0.0653,0.0653,-0.1529051987767649
MultiSource/Benchmarks/TSVC/StatementReordering-flt/StatementReordering-flt, 1.6221, 1.6236, 1.6202,1.6221, 1.6196, 1.6230, 1.6189,1.6196,-0.1541212009124049
MultiSource/Benchmarks/TSVC/Expansion-dbl/Expansion-dbl, 1.7374, 1.7389, 1.7337,1.7374, 1.7345, 1.7355, 1.7347,1.7347,-0.15540462760447182
SingleSource/Benchmarks/Shootout-C++/heapsort, 2.3329, 2.3263, 2.3291,2.3291, 2.3339, 2.3253, 2.3237,2.3253,-0.16315314928513347
SingleSource/Benchmarks/Adobe-C++/stepanov_abstraction, 3.7945, 3.7950, 3.7951,3.795, 3.7885, 3.7877, 3.7886,3.7885,-0.1712779973649492
SingleSource/Benchmarks/Misc-C++/bigfib, 0.1721, 0.1725, 0.1722,0.1722, 0.1718, 0.1720, 0.1719,0.1719,-0.17421602787456303
SingleSource/Benchmarks/Adobe-C++/loop_unroll, 1.5799, 1.5843, 1.5817,1.5817, 1.5787, 1.5768, 1.5807,1.5787,-0.18966934311185346
MultiSource/Applications/lambda-0.1.3/lambda, 2.3848, 2.3843, 2.3824,2.3843, 2.3797, 2.3815, 2.3794,2.3797,-0.19292874218848066
MultiSource/Benchmarks/TSVC/LoopRerolling-flt/LoopRerolling-flt, 3.4023, 3.4087, 3.4057,3.4057, 3.3991, 3.3989, 3.3992,3.3991,-0.19379275919781946
SingleSource/Benchmarks/Shootout/heapsort, 2.3296, 2.3283, 2.3257,2.3283, 2.3294, 2.3237, 2.3210,2.3237,-0.19756904179014656
MultiSource/Benchmarks/MiBench/automotive-basicmath/automotive-basicmath, 0.2002, 0.2004, 0.2002,0.2002, 0.1998, 0.2000, 0.1998,0.1998,-0.19980019980019303
MultiSource/Benchmarks/TSVC/GlobalDataFlow-flt/GlobalDataFlow-flt, 1.3318, 1.3379, 1.3290,1.3318, 1.3278, 1.3290, 1.3368,1.329,-0.21024177804476185
SingleSource/Benchmarks/Polybench/datamining/correlation/correlation, 1.7178, 1.7117, 1.7098,1.7117, 1.7080, 1.7060, 1.7150,1.708,-0.21615937372203575
MultiSource/Benchmarks/TSVC/StatementReordering-dbl/StatementReordering-dbl, 1.9871, 1.9840, 1.9875,1.9871, 1.9823, 1.9828, 1.9884,1.9828,-0.21639575260430366
MultiSource/Benchmarks/TSVC/NodeSplitting-flt/NodeSplitting-flt, 4.1380, 4.1390, 4.1380,4.138, 4.1282, 4.1319, 4.1285,4.1285,-0.22957950700821517
SingleSource/Benchmarks/McGill/chomp, 1.1065, 1.1047, 1.1099,1.1065, 1.1010, 1.1038, 1.1083,1.1038,-0.24401265250791893
MultiSource/Benchmarks/McCat/08-main/main, 0.0381, 0.0380, 0.0381,0.0381, 0.0380, 0.0380, 0.0381,0.038,-0.2624671916010568
MultiSource/Benchmarks/VersaBench/dbms/dbms, 0.8802, 0.8821, 0.8822,0.8821, 0.8797, 0.8839, 0.8766,0.8797,-0.27207799569208824
MultiSource/Benchmarks/TSVC/Symbolics-flt/Symbolics-flt, 1.2422, 1.2374, 1.2452,1.2422, 1.2396, 1.2353, 1.2384,1.2384,-0.3059088713572744
SingleSource/Benchmarks/CoyoteBench/huffbench, 8.0678, 8.0589, 8.0562,8.0589, 8.0317, 8.0402, 8.0335,8.0335,-0.3151794909975192
MultiSource/Benchmarks/mediabench/g721/g721encode/encode, 0.0281, 0.0282, 0.0282,0.0282, 0.0281, 0.0281, 0.0281,0.0281,-0.35460992907800915
MultiSource/Benchmarks/TSVC/CrossingThresholds-flt/CrossingThresholds-flt, 1.4436, 1.4359, 1.4417,1.4417, 1.4364, 1.4330, 1.4398,1.4364,-0.3676215578830577
MultiSource/Benchmarks/DOE-ProxyApps-C/SimpleMOC/SimpleMOC, 3.3941, 3.3702, 3.3769,3.3769, 3.3621, 3.3746, 3.3644,3.3644,-0.37016198288370994
MultiSource/Benchmarks/MallocBench/gs/gs, 0.0265, 0.0266, 0.0264,0.0265, 0.0263, 0.0265, 0.0264,0.0264,-0.37735849056603765
MultiSource/Benchmarks/Bullet/bullet, 3.1101, 3.1009, 3.1057,3.1057, 3.0884, 3.0923, 3.0941,3.0923,-0.43146472614870035
MultiSource/Benchmarks/MiBench/telecomm-gsm/telecomm-gsm, 0.0903, 0.0904, 0.0904,0.0904, 0.0899, 0.0899, 0.0901,0.0899,-0.553097345132747
MultiSource/Applications/d/make_dparser, 0.0158, 0.0158, 0.0159,0.0158, 0.0157, 0.0156, 0.0157,0.0157,-0.6329113924050778
MultiSource/Applications/lua/lua,10.2144,10.2134,10.2557,10.2144,10.1491,10.1930,10.1482,10.1491,-0.6392935463659044
MultiSource/Applications/ClamAV/clamscan, 0.0914, 0.0911, 0.0909,0.0911, 0.0905, 0.0908, 0.0905,0.0905,-0.658616904500553
MultiSource/Benchmarks/mediabench/gsm/toast/toast, 0.0134, 0.0134, 0.0133,0.0134, 0.0133, 0.0133, 0.0133,0.0133,-0.7462686567164312
MultiSource/Benchmarks/BitBench/five11/five11, 1.0026, 0.9935, 1.0030,1.0026, 0.9940, 1.0020, 0.9930,0.994,-0.8577697985238331
MultiSource/Benchmarks/BitBench/uuencode/uuencode, 0.0108, 0.0109, 0.0109,0.0109, 0.0108, 0.0108, 0.0108,0.0108,-0.917431192660545
MultiSource/Benchmarks/Olden/mst/mst, 0.0546, 0.0544, 0.0544,0.0544, 0.0537, 0.0537, 0.0540,0.0537,-1.2867647058823484
MultiSource/Benchmarks/MiBench/consumer-typeset/consumer-typeset, 0.0790, 0.0791, 0.0791,0.0791, 0.0780, 0.0781, 0.0780,0.078,-1.390644753476622
SingleSource/Benchmarks/Adobe-C++/stepanov_vector, 2.0524, 2.0526, 2.0526,2.0526, 2.0212, 2.0214, 2.0229,2.0214,-1.5200233849751554
MultiSource/Applications/siod/siod, 1.0269, 1.0242, 1.0247,1.0247, 0.9938, 0.9981, 0.9940,0.994,-2.995998828925539
Total elapsed time,-,-,-,544.4181999999998,-,-,-,544.879,0.0846408147266553
Total failure,-,-,-,0,-,-,-,0,
Geom. avg slowdown,,,,,,,,,0.0300260589009%
