Benchmarks,/mnt/freezedisk/llvm-intptr-base-release/bin/clang,/mnt/freezedisk/llvm-intptr-base-release/bin/clang,/mnt/freezedisk/llvm-intptr-base-release/bin/clang,median
MultiSource/Applications/ALAC/decode/alacconvert-decode, 0.9790, 0.9785, 0.9786,0.9786
MultiSource/Applications/ALAC/encode/alacconvert-encode, 0.9785, 0.9781, 0.9790,0.9785
MultiSource/Applications/ClamAV/clamscan,12.5869,12.5848,12.5912,12.5869
MultiSource/Applications/JM/ldecod/ldecod, 6.4451, 6.4369, 6.4401,6.4401
MultiSource/Applications/JM/lencod/lencod,15.0072,15.0148,14.9976,15.0072
MultiSource/Applications/SIBsim4/SIBsim4, 1.2542, 1.2539, 1.2555,1.2542
MultiSource/Applications/SPASS/SPASS,11.7739,11.7694,11.7705,11.7705
MultiSource/Applications/aha/aha, 0.0955, 0.0954, 0.0954,0.0954
MultiSource/Applications/d/make_dparser, 2.4976, 2.4936, 2.5002,2.4976
MultiSource/Applications/hbd/hbd, 1.1486, 1.1489, 1.1493,1.1489
MultiSource/Applications/hexxagon/hexxagon, 0.6971, 0.6969, 0.6977,0.6971
MultiSource/Applications/kimwitu++/kc,10.3023,10.2942,10.2879,10.2942
MultiSource/Applications/lambda-0.1.3/lambda, 0.5110, 0.5104, 0.5109,0.5109
MultiSource/Applications/lua/lua, 3.0628, 3.0659, 3.0644,3.0644
MultiSource/Applications/minisat/minisat, 0.5990, 0.5993, 0.5988,0.599
MultiSource/Applications/obsequi/Obsequi, 0.9923, 0.9916, 0.9918,0.9918
MultiSource/Applications/oggenc/oggenc, 4.8582, 4.8386, 4.8503,4.8503
MultiSource/Applications/sgefa/sgefa, 0.3950, 0.3954, 0.3956,0.3954
MultiSource/Applications/siod/siod, 1.8319, 1.8316, 1.8300,1.8316
MultiSource/Applications/spiff/spiff, 0.7037, 0.7044, 0.7040,0.704
MultiSource/Applications/sqlite3/sqlite3,12.6506,12.5909,12.5980,12.598
MultiSource/Applications/viterbi/viterbi, 0.1570, 0.1568, 0.1567,0.1568
MultiSource/Benchmarks/7zip/7zip-benchmark,33.4695,33.4838,33.4596,33.4695
MultiSource/Benchmarks/ASCI_Purple/SMG2000/smg2000, 6.0480, 6.0505, 6.0500,6.05
MultiSource/Benchmarks/ASC_Sequoia/AMGmk/AMGmk, 0.5804, 0.5804, 0.5797,0.5804
MultiSource/Benchmarks/ASC_Sequoia/CrystalMk/CrystalMk, 0.2313, 0.2312, 0.2313,0.2313
MultiSource/Benchmarks/ASC_Sequoia/IRSmk/IRSmk, 0.0965, 0.0965, 0.0960,0.0965
MultiSource/Benchmarks/BitBench/drop3/drop3, 0.0412, 0.0413, 0.0412,0.0412
MultiSource/Benchmarks/BitBench/five11/five11, 0.0534, 0.0533, 0.0534,0.0534
MultiSource/Benchmarks/BitBench/uudecode/uudecode, 0.0429, 0.0428, 0.0428,0.0428
MultiSource/Benchmarks/BitBench/uuencode/uuencode, 0.0417, 0.0420, 0.0419,0.0419
MultiSource/Benchmarks/Bullet/bullet,22.4739,22.4752,22.4824,22.4752
MultiSource/Benchmarks/DOE-ProxyApps-C/XSBench/XSBench, 0.3396, 0.3395, 0.3401,0.3396
MultiSource/Benchmarks/Fhourstones-3.1/fhourstones3.1, 0.1288, 0.1289, 0.1294,0.1289
MultiSource/Benchmarks/Fhourstones/fhourstones, 0.1588, 0.1590, 0.1594,0.159
MultiSource/Benchmarks/FreeBench/analyzer/analyzer, 0.2387, 0.2386, 0.2389,0.2387
MultiSource/Benchmarks/FreeBench/distray/distray, 0.0934, 0.0931, 0.0930,0.0931
MultiSource/Benchmarks/FreeBench/fourinarow/fourinarow, 0.3736, 0.3745, 0.3747,0.3745
MultiSource/Benchmarks/FreeBench/mason/mason, 0.0466, 0.0466, 0.0465,0.0466
MultiSource/Benchmarks/FreeBench/neural/neural, 0.1790, 0.1795, 0.1795,0.1795
MultiSource/Benchmarks/FreeBench/pcompress2/pcompress2, 0.2376, 0.2378, 0.2374,0.2376
MultiSource/Benchmarks/FreeBench/pifft/pifft, 1.0875, 1.0880, 1.0866,1.0875
MultiSource/Benchmarks/MallocBench/cfrac/cfrac, 0.8065, 0.8076, 0.8071,0.8071
MultiSource/Benchmarks/MallocBench/espresso/espresso, 4.8301, 4.8317, 4.8295,4.8301
MultiSource/Benchmarks/MallocBench/gs/gs, 3.5319, 3.5352, 3.5349,3.5349
MultiSource/Benchmarks/McCat/01-qbsort/qbsort, 0.0902, 0.0902, 0.0900,0.0902
MultiSource/Benchmarks/McCat/03-testtrie/testtrie, 0.0841, 0.0847, 0.0844,0.0844
MultiSource/Benchmarks/McCat/04-bisect/bisect, 0.1246, 0.1246, 0.1248,0.1246
MultiSource/Benchmarks/McCat/05-eks/eks, 0.5899, 0.5897, 0.5899,0.5899
MultiSource/Benchmarks/McCat/08-main/main, 0.2209, 0.2212, 0.2216,0.2212
MultiSource/Benchmarks/McCat/09-vor/vor, 0.2556, 0.2557, 0.2560,0.2557
MultiSource/Benchmarks/McCat/12-IOtest/iotest, 0.0853, 0.0852, 0.0853,0.0853
MultiSource/Benchmarks/McCat/17-bintr/bintr, 0.0649, 0.0648, 0.0648,0.0648
MultiSource/Benchmarks/McCat/18-imp/imp, 0.3313, 0.3313, 0.3317,0.3313
MultiSource/Benchmarks/MiBench/automotive-basicmath/automotive-basicmath, 0.1354, 0.1353, 0.1352,0.1353
MultiSource/Benchmarks/MiBench/automotive-bitcount/automotive-bitcount, 0.2410, 0.2407, 0.2404,0.2407
MultiSource/Benchmarks/MiBench/automotive-susan/automotive-susan, 0.8513, 0.8529, 0.8532,0.8529
MultiSource/Benchmarks/MiBench/consumer-jpeg/consumer-jpeg, 4.2527, 4.2523, 4.2558,4.2527
MultiSource/Benchmarks/MiBench/consumer-lame/consumer-lame, 4.2102, 4.2095, 4.2095,4.2095
MultiSource/Benchmarks/MiBench/consumer-typeset/consumer-typeset, 9.6282, 9.6328, 9.6365,9.6328
MultiSource/Benchmarks/MiBench/network-dijkstra/network-dijkstra, 0.0407, 0.0411, 0.0410,0.041
MultiSource/Benchmarks/MiBench/network-patricia/network-patricia, 0.0764, 0.0762, 0.0767,0.0764
MultiSource/Benchmarks/MiBench/security-rijndael/security-rijndael, 0.3997, 0.3993, 0.4002,0.3997
MultiSource/Benchmarks/MiBench/security-sha/security-sha, 0.1298, 0.1299, 0.1300,0.1299
MultiSource/Benchmarks/MiBench/telecomm-CRC32/telecomm-CRC32, 0.0327, 0.0326, 0.0328,0.0327
MultiSource/Benchmarks/MiBench/telecomm-FFT/telecomm-fft, 0.1381, 0.1384, 0.1383,0.1383
MultiSource/Benchmarks/MiBench/telecomm-adpcm/telecomm-adpcm, 0.0539, 0.0539, 0.0538,0.0539
MultiSource/Benchmarks/MiBench/telecomm-gsm/telecomm-gsm, 1.0621, 1.0625, 1.0621,1.0621
MultiSource/Benchmarks/NPB-serial/is/is, 0.0698, 0.0696, 0.0698,0.0698
MultiSource/Benchmarks/Olden/bh/bh, 0.2498, 0.2496, 0.2492,0.2496
MultiSource/Benchmarks/Olden/bisort/bisort, 0.0590, 0.0591, 0.0590,0.059
MultiSource/Benchmarks/Olden/em3d/em3d, 0.1723, 0.1722, 0.1721,0.1722
MultiSource/Benchmarks/Olden/health/health, 0.1275, 0.1278, 0.1281,0.1278
MultiSource/Benchmarks/Olden/mst/mst, 0.1244, 0.1243, 0.1239,0.1243
MultiSource/Benchmarks/Olden/perimeter/perimeter, 0.0713, 0.0710, 0.0713,0.0713
MultiSource/Benchmarks/Olden/power/power, 0.1207, 0.1206, 0.1206,0.1206
MultiSource/Benchmarks/Olden/treeadd/treeadd, 0.0499, 0.0501, 0.0497,0.0499
MultiSource/Benchmarks/Olden/tsp/tsp, 0.1140, 0.1138, 0.1141,0.114
MultiSource/Benchmarks/Olden/voronoi/voronoi, 0.2246, 0.2246, 0.2244,0.2246
MultiSource/Benchmarks/PAQ8p/paq8p, 2.0572, 2.0543, 2.0568,2.0568
MultiSource/Benchmarks/Prolangs-C++/city/city, 0.8794, 0.8805, 0.8797,0.8797
MultiSource/Benchmarks/Prolangs-C++/employ/employ, 0.1917, 0.1923, 0.1911,0.1917
MultiSource/Benchmarks/Prolangs-C++/life/life, 0.0629, 0.0630, 0.0632,0.063
MultiSource/Benchmarks/Prolangs-C++/ocean/ocean, 0.1016, 0.1015, 0.1011,0.1015
MultiSource/Benchmarks/Prolangs-C++/primes/primes, 0.0227, 0.0227, 0.0227,0.0227
MultiSource/Benchmarks/Prolangs-C++/simul/simul, 0.0486, 0.0488, 0.0489,0.0488
MultiSource/Benchmarks/Prolangs-C/agrep/agrep, 1.3114, 1.3108, 1.3104,1.3108
MultiSource/Benchmarks/Prolangs-C/bison/mybison, 1.5700, 1.5711, 1.5709,1.5709
MultiSource/Benchmarks/Prolangs-C/gnugo/gnugo, 0.6962, 0.6953, 0.6952,0.6953
MultiSource/Benchmarks/Ptrdist/anagram/anagram, 0.0954, 0.0955, 0.0950,0.0954
MultiSource/Benchmarks/Ptrdist/bc/bc, 0.9925, 0.9935, 0.9933,0.9933
MultiSource/Benchmarks/Ptrdist/ft/ft, 0.1929, 0.1928, 0.1926,0.1928
MultiSource/Benchmarks/Ptrdist/ks/ks, 0.1355, 0.1357, 0.1355,0.1355
MultiSource/Benchmarks/Ptrdist/yacr2/yacr2, 0.6101, 0.6099, 0.6099,0.6099
MultiSource/Benchmarks/SciMark2-C/scimark2, 0.3706, 0.3709, 0.3705,0.3706
MultiSource/Benchmarks/TSVC/ControlFlow-dbl/ControlFlow-dbl, 2.6340, 2.6323, 2.6114,2.6323
MultiSource/Benchmarks/TSVC/ControlFlow-flt/ControlFlow-flt, 2.3646, 2.3448, 2.3627,2.3627
MultiSource/Benchmarks/TSVC/ControlLoops-dbl/ControlLoops-dbl, 2.5174, 2.5128, 2.5092,2.5128
MultiSource/Benchmarks/TSVC/ControlLoops-flt/ControlLoops-flt, 2.2613, 2.2718, 2.2522,2.2613
MultiSource/Benchmarks/TSVC/CrossingThresholds-dbl/CrossingThresholds-dbl, 2.4618, 2.4461, 2.4568,2.4568
MultiSource/Benchmarks/TSVC/CrossingThresholds-flt/CrossingThresholds-flt, 2.1746, 2.1667, 2.1955,2.1746
MultiSource/Benchmarks/TSVC/Equivalencing-dbl/Equivalencing-dbl, 2.4578, 2.4595, 2.4648,2.4595
MultiSource/Benchmarks/TSVC/Equivalencing-flt/Equivalencing-flt, 2.2042, 2.2065, 2.2035,2.2042
MultiSource/Benchmarks/TSVC/Expansion-dbl/Expansion-dbl, 2.5140, 2.5110, 2.5002,2.511
MultiSource/Benchmarks/TSVC/Expansion-flt/Expansion-flt, 2.2556, 2.2500, 2.2616,2.2556
MultiSource/Benchmarks/TSVC/GlobalDataFlow-dbl/GlobalDataFlow-dbl, 2.5055, 2.5039, 2.4985,2.5039
MultiSource/Benchmarks/TSVC/GlobalDataFlow-flt/GlobalDataFlow-flt, 2.2378, 2.2455, 2.2375,2.2378
MultiSource/Benchmarks/TSVC/IndirectAddressing-dbl/IndirectAddressing-dbl, 2.4439, 2.4483, 2.4430,2.4439
MultiSource/Benchmarks/TSVC/IndirectAddressing-flt/IndirectAddressing-flt, 2.1800, 2.1745, 2.1782,2.1782
MultiSource/Benchmarks/TSVC/InductionVariable-dbl/InductionVariable-dbl, 2.4704, 2.4726, 2.4699,2.4704
MultiSource/Benchmarks/TSVC/InductionVariable-flt/InductionVariable-flt, 2.2223, 2.2210, 2.2329,2.2223
MultiSource/Benchmarks/TSVC/LinearDependence-dbl/LinearDependence-dbl, 2.5503, 2.5606, 2.5598,2.5598
MultiSource/Benchmarks/TSVC/LinearDependence-flt/LinearDependence-flt, 2.2866, 2.2799, 2.2734,2.2799
MultiSource/Benchmarks/TSVC/LoopRerolling-dbl/LoopRerolling-dbl, 2.4094, 2.4058, 2.4112,2.4094
MultiSource/Benchmarks/TSVC/LoopRerolling-flt/LoopRerolling-flt, 2.1537, 2.1436, 2.1458,2.1458
MultiSource/Benchmarks/TSVC/LoopRestructuring-dbl/LoopRestructuring-dbl, 2.4789, 2.4716, 2.4697,2.4716
MultiSource/Benchmarks/TSVC/LoopRestructuring-flt/LoopRestructuring-flt, 2.2260, 2.2250, 2.2124,2.225
MultiSource/Benchmarks/TSVC/NodeSplitting-dbl/NodeSplitting-dbl, 2.4379, 2.4398, 2.4298,2.4379
MultiSource/Benchmarks/TSVC/NodeSplitting-flt/NodeSplitting-flt, 2.1527, 2.1664, 2.1740,2.1664
MultiSource/Benchmarks/TSVC/Packing-dbl/Packing-dbl, 2.3958, 2.3933, 2.3981,2.3958
MultiSource/Benchmarks/TSVC/Packing-flt/Packing-flt, 2.1398, 2.1596, 2.1301,2.1398
MultiSource/Benchmarks/TSVC/Recurrences-dbl/Recurrences-dbl, 2.3952, 2.3720, 2.3994,2.3952
MultiSource/Benchmarks/TSVC/Recurrences-flt/Recurrences-flt, 2.1362, 2.1408, 2.1354,2.1362
MultiSource/Benchmarks/TSVC/Reductions-dbl/Reductions-dbl, 2.5238, 2.5161, 2.5046,2.5161
MultiSource/Benchmarks/TSVC/Reductions-flt/Reductions-flt, 2.2605, 2.2615, 2.2603,2.2605
MultiSource/Benchmarks/TSVC/Searching-dbl/Searching-dbl, 2.3750, 2.3744, 2.3823,2.375
MultiSource/Benchmarks/TSVC/Searching-flt/Searching-flt, 2.1175, 2.1204, 2.1208,2.1204
MultiSource/Benchmarks/TSVC/StatementReordering-dbl/StatementReordering-dbl, 2.3970, 2.3912, 2.3960,2.396
MultiSource/Benchmarks/TSVC/StatementReordering-flt/StatementReordering-flt, 2.1394, 2.1181, 2.1418,2.1394
MultiSource/Benchmarks/TSVC/Symbolics-dbl/Symbolics-dbl, 2.4567, 2.4506, 2.4502,2.4506
MultiSource/Benchmarks/TSVC/Symbolics-flt/Symbolics-flt, 2.1894, 2.1940, 2.1946,2.194
MultiSource/Benchmarks/Trimaran/enc-3des/enc-3des, 0.2629, 0.2628, 0.2628,0.2628
MultiSource/Benchmarks/Trimaran/enc-md5/enc-md5, 0.1674, 0.1669, 0.1672,0.1672
MultiSource/Benchmarks/Trimaran/enc-pc1/enc-pc1, 0.0656, 0.0654, 0.0654,0.0654
MultiSource/Benchmarks/Trimaran/enc-rc4/enc-rc4, 0.0499, 0.0497, 0.0497,0.0497
MultiSource/Benchmarks/Trimaran/netbench-crc/netbench-crc, 0.0768, 0.0769, 0.0769,0.0769
MultiSource/Benchmarks/Trimaran/netbench-url/netbench-url, 0.1997, 0.2001, 0.1994,0.1997
MultiSource/Benchmarks/VersaBench/8b10b/8b10b, 0.0690, 0.0691, 0.0693,0.0691
MultiSource/Benchmarks/VersaBench/beamformer/beamformer, 0.3771, 0.3784, 0.3780,0.378
MultiSource/Benchmarks/VersaBench/bmm/bmm, 0.0552, 0.0550, 0.0551,0.0551
MultiSource/Benchmarks/VersaBench/dbms/dbms, 0.8706, 0.8707, 0.8708,0.8707
MultiSource/Benchmarks/VersaBench/ecbdes/ecbdes, 0.2160, 0.2159, 0.2154,0.2159
MultiSource/Benchmarks/llubenchmark/llu, 0.0492, 0.0493, 0.0494,0.0493
MultiSource/Benchmarks/mafft/pairlocalalign, 9.4231, 9.4238, 9.4184,9.4231
MultiSource/Benchmarks/mediabench/adpcm/rawcaudio/rawcaudio, 0.0541, 0.0541, 0.0541,0.0541
MultiSource/Benchmarks/mediabench/adpcm/rawdaudio/rawdaudio, 0.0538, 0.0541, 0.0541,0.0541
MultiSource/Benchmarks/mediabench/g721/g721encode/encode, 0.1886, 0.1883, 0.1886,0.1886
MultiSource/Benchmarks/mediabench/gsm/toast/toast, 1.0597, 1.0596, 1.0605,1.0597
MultiSource/Benchmarks/mediabench/jpeg/jpeg-6a/cjpeg, 4.2817, 4.2851, 4.2807,4.2817
MultiSource/Benchmarks/mediabench/mpeg2/mpeg2dec/mpeg2decode, 1.3169, 1.3171, 1.3180,1.3171
MultiSource/Benchmarks/nbench/nbench, 1.2053, 1.2089, 1.2071,1.2071
MultiSource/Benchmarks/sim/sim, 0.2961, 0.2954, 0.2960,0.296
MultiSource/Benchmarks/tramp3d-v4/tramp3d-v4,18.6094,18.6904,18.7018,18.6904
SingleSource/Benchmarks/Adobe-C++/functionobjects, 0.4604, 0.4602, 0.4595,0.4602
SingleSource/Benchmarks/Adobe-C++/loop_unroll, 4.8355, 4.8256, 4.8021,4.8256
SingleSource/Benchmarks/Adobe-C++/simple_types_constant_folding, 2.2518, 2.2659, 2.2715,2.2659
SingleSource/Benchmarks/Adobe-C++/simple_types_loop_invariant, 1.8359, 1.8451, 1.8384,1.8384
SingleSource/Benchmarks/Adobe-C++/stepanov_abstraction, 0.6114, 0.6104, 0.6093,0.6104
SingleSource/Benchmarks/Adobe-C++/stepanov_vector, 0.7600, 0.7601, 0.7614,0.7601
SingleSource/Benchmarks/BenchmarkGame/Large/fasta, 0.0413, 0.0414, 0.0415,0.0414
SingleSource/Benchmarks/BenchmarkGame/fannkuch, 0.0479, 0.0479, 0.0479,0.0479
SingleSource/Benchmarks/BenchmarkGame/n-body, 0.0757, 0.0759, 0.0759,0.0759
SingleSource/Benchmarks/BenchmarkGame/nsieve-bits, 0.0311, 0.0311, 0.0313,0.0311
SingleSource/Benchmarks/BenchmarkGame/partialsums, 0.0281, 0.0281, 0.0282,0.0281
SingleSource/Benchmarks/BenchmarkGame/puzzle, 0.0552, 0.0554, 0.0552,0.0552
SingleSource/Benchmarks/BenchmarkGame/recursive, 0.0247, 0.0248, 0.0247,0.0247
SingleSource/Benchmarks/BenchmarkGame/spectral-norm, 0.0563, 0.0561, 0.0558,0.0561
SingleSource/Benchmarks/CoyoteBench/almabench, 0.0622, 0.0620, 0.0622,0.0622
SingleSource/Benchmarks/CoyoteBench/fftbench, 0.3060, 0.3068, 0.3071,0.3068
SingleSource/Benchmarks/CoyoteBench/huffbench, 0.0873, 0.0876, 0.0876,0.0876
SingleSource/Benchmarks/CoyoteBench/lpbench, 0.1944, 0.1944, 0.1945,0.1944
SingleSource/Benchmarks/Dhrystone/dry, 0.0381, 0.0380, 0.0379,0.038
SingleSource/Benchmarks/Dhrystone/fldry, 0.0409, 0.0410, 0.0409,0.0409
SingleSource/Benchmarks/Linpack/linpack-pc, 0.3960, 0.3958, 0.3963,0.396
SingleSource/Benchmarks/McGill/chomp, 0.1756, 0.1757, 0.1756,0.1756
SingleSource/Benchmarks/McGill/misr, 0.0522, 0.0521, 0.0522,0.0522
SingleSource/Benchmarks/McGill/queens, 0.0448, 0.0450, 0.0449,0.0449
SingleSource/Benchmarks/Misc-C++-EH/spirit, 3.1356, 3.1387, 3.1237,3.1356
SingleSource/Benchmarks/Misc-C++/Large/ray, 0.2048, 0.2049, 0.2048,0.2048
SingleSource/Benchmarks/Misc-C++/Large/sphereflake, 0.2124, 0.2131, 0.2123,0.2124
SingleSource/Benchmarks/Misc-C++/bigfib, 0.4282, 0.4269, 0.4280,0.428
SingleSource/Benchmarks/Misc-C++/mandel-text, 0.0226, 0.0225, 0.0226,0.0226
SingleSource/Benchmarks/Misc-C++/oopack_v1p8, 0.1233, 0.1234, 0.1229,0.1233
SingleSource/Benchmarks/Misc-C++/stepanov_container, 0.6357, 0.6314, 0.6311,0.6314
SingleSource/Benchmarks/Misc-C++/stepanov_v1p2, 0.1703, 0.1715, 0.1709,0.1709
SingleSource/Benchmarks/Misc/ReedSolomon, 0.2207, 0.2203, 0.2203,0.2203
SingleSource/Benchmarks/Misc/dt, 0.0321, 0.0322, 0.0322,0.0322
SingleSource/Benchmarks/Misc/fbench, 0.0523, 0.0523, 0.0526,0.0523
SingleSource/Benchmarks/Misc/ffbench, 0.0790, 0.0791, 0.0789,0.079
SingleSource/Benchmarks/Misc/flops, 0.0732, 0.0732, 0.0734,0.0732
SingleSource/Benchmarks/Misc/flops-1, 0.0255, 0.0254, 0.0255,0.0255
SingleSource/Benchmarks/Misc/flops-2, 0.0271, 0.0272, 0.0273,0.0272
SingleSource/Benchmarks/Misc/flops-3, 0.0254, 0.0255, 0.0254,0.0254
SingleSource/Benchmarks/Misc/flops-4, 0.0257, 0.0259, 0.0259,0.0259
SingleSource/Benchmarks/Misc/flops-5, 0.0265, 0.0267, 0.0266,0.0266
SingleSource/Benchmarks/Misc/flops-6, 0.0267, 0.0265, 0.0265,0.0265
SingleSource/Benchmarks/Misc/flops-7, 0.0251, 0.0251, 0.0251,0.0251
SingleSource/Benchmarks/Misc/flops-8, 0.0261, 0.0261, 0.0260,0.0261
SingleSource/Benchmarks/Misc/fp-convert, 0.0308, 0.0306, 0.0307,0.0307
SingleSource/Benchmarks/Misc/himenobmtxpa, 0.2366, 0.2361, 0.2368,0.2366
SingleSource/Benchmarks/Misc/lowercase, 0.0247, 0.0247, 0.0246,0.0247
SingleSource/Benchmarks/Misc/mandel, 0.0413, 0.0414, 0.0414,0.0414
SingleSource/Benchmarks/Misc/mandel-2, 0.0290, 0.0290, 0.0289,0.029
SingleSource/Benchmarks/Misc/matmul_f64_4x4, 0.0288, 0.0288, 0.0289,0.0288
SingleSource/Benchmarks/Misc/oourafft, 0.2370, 0.2364, 0.2369,0.2369
SingleSource/Benchmarks/Misc/perlin, 0.0442, 0.0443, 0.0443,0.0443
SingleSource/Benchmarks/Misc/pi, 0.0198, 0.0197, 0.0197,0.0197
SingleSource/Benchmarks/Misc/richards_benchmark, 0.0586, 0.0583, 0.0585,0.0585
SingleSource/Benchmarks/Misc/salsa20, 0.0548, 0.0547, 0.0547,0.0547
SingleSource/Benchmarks/Misc/whetstone, 0.0684, 0.0686, 0.0688,0.0686
SingleSource/Benchmarks/Polybench/datamining/correlation/correlation, 0.0837, 0.0834, 0.0834,0.0834
SingleSource/Benchmarks/Polybench/datamining/covariance/covariance, 0.0991, 0.0987, 0.0991,0.0991
SingleSource/Benchmarks/Polybench/linear-algebra/kernels/atax/atax, 0.0877, 0.0877, 0.0880,0.0877
SingleSource/Benchmarks/Polybench/linear-algebra/kernels/bicg/bicg, 0.0838, 0.0836, 0.0838,0.0838
SingleSource/Benchmarks/Polybench/linear-algebra/kernels/cholesky/cholesky, 0.1146, 0.1145, 0.1149,0.1146
SingleSource/Benchmarks/Polybench/linear-algebra/kernels/doitgen/doitgen, 0.1119, 0.1123, 0.1123,0.1123
SingleSource/Benchmarks/Polybench/linear-algebra/kernels/gemver/gemver, 0.1069, 0.1069, 0.1066,0.1069
SingleSource/Benchmarks/Polybench/linear-algebra/kernels/gesummv/gesummv, 0.0701, 0.0702, 0.0701,0.0701
SingleSource/Benchmarks/Polybench/linear-algebra/kernels/mvt/mvt, 0.0896, 0.0893, 0.0895,0.0895
SingleSource/Benchmarks/Polybench/linear-algebra/kernels/symm/symm, 0.0851, 0.0848, 0.0851,0.0851
SingleSource/Benchmarks/Polybench/linear-algebra/kernels/syr2k/syr2k, 0.0873, 0.0874, 0.0871,0.0873
SingleSource/Benchmarks/Polybench/linear-algebra/kernels/syrk/syrk, 0.0865, 0.0863, 0.0864,0.0864
SingleSource/Benchmarks/Polybench/linear-algebra/kernels/trisolv/trisolv, 0.0677, 0.0678, 0.0676,0.0677
SingleSource/Benchmarks/Polybench/linear-algebra/kernels/trmm/trmm, 0.0825, 0.0827, 0.0828,0.0827
SingleSource/Benchmarks/Polybench/linear-algebra/solvers/durbin/durbin, 0.1073, 0.1073, 0.1071,0.1073
SingleSource/Benchmarks/Polybench/linear-algebra/solvers/dynprog/dynprog, 0.0856, 0.0857, 0.0860,0.0857
SingleSource/Benchmarks/Polybench/linear-algebra/solvers/gramschmidt/gramschmidt, 0.1253, 0.1254, 0.1255,0.1254
SingleSource/Benchmarks/Polybench/linear-algebra/solvers/lu/lu, 0.1044, 0.1043, 0.1041,0.1043
SingleSource/Benchmarks/Polybench/medley/floyd-warshall/floyd-warshall, 0.0855, 0.0850, 0.0850,0.085
SingleSource/Benchmarks/Polybench/medley/reg_detect/reg_detect, 1.2815, 1.2908, 1.2816,1.2816
SingleSource/Benchmarks/Polybench/stencils/adi/adi, 0.1037, 0.1037, 0.1035,0.1037
SingleSource/Benchmarks/Polybench/stencils/fdtd-2d/fdtd-2d, 0.1627, 0.1631, 0.1626,0.1627
SingleSource/Benchmarks/Polybench/stencils/fdtd-apml/fdtd-apml, 0.1498, 0.1493, 0.1492,0.1493
SingleSource/Benchmarks/Polybench/stencils/jacobi-1d-imper/jacobi-1d-imper, 0.0906, 0.0907, 0.0905,0.0906
SingleSource/Benchmarks/Polybench/stencils/jacobi-2d-imper/jacobi-2d-imper, 0.1293, 0.1290, 0.1289,0.129
SingleSource/Benchmarks/Polybench/stencils/seidel-2d/seidel-2d, 0.0759, 0.0763, 0.0761,0.0761
SingleSource/Benchmarks/Shootout-C++/EH/except, 0.1254, 0.1260, 0.1261,0.126
SingleSource/Benchmarks/Shootout-C++/ackermann, 0.1148, 0.1144, 0.1151,0.1148
SingleSource/Benchmarks/Shootout-C++/ary, 0.1543, 0.1551, 0.1551,0.1551
SingleSource/Benchmarks/Shootout-C++/ary2, 0.1610, 0.1613, 0.1622,0.1613
SingleSource/Benchmarks/Shootout-C++/ary3, 0.1595, 0.1587, 0.1584,0.1587
SingleSource/Benchmarks/Shootout-C++/fibo, 0.1132, 0.1128, 0.1138,0.1132
SingleSource/Benchmarks/Shootout-C++/hash, 0.2629, 0.2614, 0.2628,0.2628
SingleSource/Benchmarks/Shootout-C++/hash2, 0.2970, 0.2969, 0.2976,0.297
SingleSource/Benchmarks/Shootout-C++/heapsort, 0.1309, 0.1306, 0.1313,0.1309
SingleSource/Benchmarks/Shootout-C++/lists, 0.1576, 0.1583, 0.1578,0.1578
SingleSource/Benchmarks/Shootout-C++/lists1, 0.1866, 0.1875, 0.1880,0.1875
SingleSource/Benchmarks/Shootout-C++/matrix, 0.1943, 0.1956, 0.1951,0.1951
SingleSource/Benchmarks/Shootout-C++/methcall, 0.1228, 0.1234, 0.1229,0.1229
SingleSource/Benchmarks/Shootout-C++/moments, 0.2388, 0.2384, 0.2395,0.2388
SingleSource/Benchmarks/Shootout-C++/nestedloop, 0.1140, 0.1147, 0.1146,0.1146
SingleSource/Benchmarks/Shootout-C++/objinst, 0.1380, 0.1379, 0.1384,0.138
SingleSource/Benchmarks/Shootout-C++/random, 0.1230, 0.1231, 0.1227,0.123
SingleSource/Benchmarks/Shootout-C++/sieve, 0.1750, 0.1755, 0.1749,0.175
SingleSource/Benchmarks/Shootout-C++/strcat, 0.1235, 0.1229, 0.1230,0.123
SingleSource/Benchmarks/Shootout/ackermann, 0.0218, 0.0217, 0.0218,0.0218
SingleSource/Benchmarks/Shootout/ary3, 0.0330, 0.0331, 0.0329,0.033
SingleSource/Benchmarks/Shootout/fib2, 0.0182, 0.0184, 0.0183,0.0183
SingleSource/Benchmarks/Shootout/hash, 0.0481, 0.0481, 0.0482,0.0481
SingleSource/Benchmarks/Shootout/heapsort, 0.0386, 0.0387, 0.0386,0.0386
SingleSource/Benchmarks/Shootout/lists, 0.0717, 0.0716, 0.0718,0.0717
SingleSource/Benchmarks/Shootout/matrix, 0.0822, 0.0820, 0.0823,0.0822
SingleSource/Benchmarks/Shootout/methcall, 0.0294, 0.0294, 0.0295,0.0294
SingleSource/Benchmarks/Shootout/nestedloop, 0.0226, 0.0226, 0.0224,0.0226
SingleSource/Benchmarks/Shootout/objinst, 0.0344, 0.0343, 0.0345,0.0344
SingleSource/Benchmarks/Shootout/random, 0.0282, 0.0283, 0.0283,0.0283
SingleSource/Benchmarks/Shootout/sieve, 0.0242, 0.0242, 0.0242,0.0242
SingleSource/Benchmarks/Shootout/strcat, 0.0254, 0.0253, 0.0255,0.0254
SingleSource/Benchmarks/SmallPT/smallpt, 0.0996, 0.0999, 0.0997,0.0997
SingleSource/Benchmarks/Stanford/Bubblesort, 0.0341, 0.0343, 0.0341,0.0341
SingleSource/Benchmarks/Stanford/FloatMM, 0.0594, 0.0594, 0.0595,0.0594
SingleSource/Benchmarks/Stanford/Oscar, 0.0655, 0.0658, 0.0657,0.0657
SingleSource/Benchmarks/Stanford/Perm, 0.0300, 0.0300, 0.0301,0.03
SingleSource/Benchmarks/Stanford/Puzzle, 0.1168, 0.1169, 0.1169,0.1169
SingleSource/Benchmarks/Stanford/Queens, 0.0456, 0.0456, 0.0457,0.0456
SingleSource/Benchmarks/Stanford/Quicksort, 0.0357, 0.0357, 0.0357,0.0357
SingleSource/Benchmarks/Stanford/RealMM, 0.0558, 0.0559, 0.0559,0.0559
SingleSource/Benchmarks/Stanford/Towers, 0.0447, 0.0448, 0.0447,0.0447
SingleSource/Benchmarks/Stanford/Treesort, 0.0364, 0.0363, 0.0362,0.0363
SingleSource/Regression/C/2004-08-12-InlinerAndAllocas, 0.0179, 0.0180, 0.0179,0.0179
SingleSource/Regression/C/uint64_to_float, 0.0373, 0.0370, 0.0372,0.0372
Total elapsed time,-,-,-,348.5492999999999
Total failure,-,-,-,0
