Benchmarks,base-4.0,base-4.0,base-4.0,median,intptr-4.0-nocapture,intptr-4.0-nocapture,intptr-4.0-nocapture,median,Slowdown(%)
SingleSource/Regression/C/uint64_to_float, 0.0843, 0.0866, 0.0836,0.0843, 0.0925, 0.0884, 0.0894,0.0894,6.049822064056931
MultiSource/Benchmarks/ASC_Sequoia/IRSmk/IRSmk, 0.1056, 0.1072, 0.1057,0.1057, 0.1107, 0.1083, 0.1056,0.1083,2.4597918637653704
MultiSource/Benchmarks/McCat/18-imp/imp, 0.3328, 0.3263, 0.3247,0.3263, 0.3330, 0.3328, 0.3289,0.3328,1.9920318725099584
SingleSource/Benchmarks/Misc/flops-6, 0.0286, 0.0284, 0.0284,0.0284, 0.0286, 0.0289, 0.0291,0.0289,1.7605633802816767
MultiSource/Applications/spiff/spiff, 0.7453, 0.7451, 0.7488,0.7453, 0.7803, 0.7583, 0.7511,0.7583,1.744264054743061
SingleSource/Benchmarks/Shootout/random, 0.0301, 0.0302, 0.0301,0.0301, 0.0302, 0.0306, 0.0306,0.0306,1.661129568106312
MultiSource/Benchmarks/McCat/08-main/main, 0.2388, 0.2419, 0.2361,0.2388, 0.2391, 0.2426, 0.2488,0.2426,1.5912897822445649
SingleSource/Benchmarks/Misc/fbench, 0.0539, 0.0539, 0.0544,0.0539, 0.0545, 0.0548, 0.0547,0.0547,1.4842300556586085
SingleSource/Benchmarks/Misc/dt, 0.0339, 0.0338, 0.0340,0.0339, 0.0342, 0.0344, 0.0344,0.0344,1.4749262536873253
SingleSource/Benchmarks/CoyoteBench/fftbench, 0.5830, 0.5965, 0.5792,0.583, 0.5912, 0.5958, 0.5835,0.5912,1.4065180102915908
SingleSource/Benchmarks/Misc/flops-5, 0.0285, 0.0284, 0.0285,0.0285, 0.0287, 0.0289, 0.0289,0.0289,1.4035087719298067
MultiSource/Benchmarks/ASC_Sequoia/AMGmk/AMGmk, 0.6081, 0.6226, 0.6054,0.6081, 0.6050, 0.6188, 0.6163,0.6163,1.3484624239434195
MultiSource/Applications/minisat/minisat, 0.6128, 0.6216, 0.6021,0.6128, 0.6092, 0.6218, 0.6210,0.621,1.3381201044386337
MultiSource/Benchmarks/MiBench/automotive-basicmath/automotive-basicmath, 0.1356, 0.1353, 0.1354,0.1354, 0.1361, 0.1372, 0.1372,0.1372,1.3293943870014813
MultiSource/Benchmarks/Ptrdist/ft/ft, 0.2096, 0.2069, 0.2060,0.2069, 0.2067, 0.2096, 0.2130,0.2096,1.3049782503624874
MultiSource/Benchmarks/Prolangs-C++/primes/primes, 0.0245, 0.0245, 0.0247,0.0245, 0.0245, 0.0248, 0.0249,0.0248,1.2244897959183598
SingleSource/Benchmarks/Shootout-C++/nestedloop, 0.1159, 0.1145, 0.1149,0.1149, 0.1163, 0.1158, 0.1166,0.1163,1.2184508268059169
SingleSource/Benchmarks/Shootout-C++/lists, 0.1582, 0.1575, 0.1577,0.1577, 0.1596, 0.1597, 0.1595,0.1596,1.2048192771084265
SingleSource/Benchmarks/Misc/flops-3, 0.0273, 0.0273, 0.0273,0.0273, 0.0275, 0.0276, 0.0276,0.0276,1.098901098901095
SingleSource/Benchmarks/Misc/flops-1, 0.0275, 0.0275, 0.0275,0.0275, 0.0275, 0.0279, 0.0278,0.0278,1.0909090909090757
SingleSource/Benchmarks/Misc/flops-4, 0.0277, 0.0276, 0.0278,0.0277, 0.0276, 0.0280, 0.0281,0.028,1.0830324909747446
SingleSource/Benchmarks/BenchmarkGame/partialsums, 0.0298, 0.0299, 0.0299,0.0299, 0.0299, 0.0302, 0.0302,0.0302,1.0033444816053505
SingleSource/Benchmarks/Shootout/heapsort, 0.0403, 0.0403, 0.0404,0.0403, 0.0405, 0.0407, 0.0410,0.0407,0.9925558312654958
MultiSource/Applications/hbd/hbd, 1.1945, 1.1938, 1.1924,1.1938, 1.2054, 1.1965, 1.2135,1.2054,0.9716870497570751
MultiSource/Applications/lambda-0.1.3/lambda, 0.5090, 0.5082, 0.5092,0.509, 0.5130, 0.5145, 0.5137,0.5137,0.9233791748526565
MultiSource/Benchmarks/mediabench/g721/g721encode/encode, 0.2088, 0.2086, 0.2146,0.2088, 0.2119, 0.2107, 0.2048,0.2107,0.9099616858237569
SingleSource/Benchmarks/Shootout-C++/matrix, 0.1718, 0.1711, 0.1714,0.1714, 0.1729, 0.1717, 0.1733,0.1729,0.875145857642945
SingleSource/Benchmarks/Shootout-C++/EH/except, 0.1274, 0.1272, 0.1266,0.1272, 0.1283, 0.1276, 0.1283,0.1283,0.864779874213828
MultiSource/Benchmarks/Olden/bh/bh, 0.2546, 0.2545, 0.2552,0.2546, 0.2562, 0.2567, 0.2571,0.2567,0.824823252160245
SingleSource/Benchmarks/Stanford/Quicksort, 0.0373, 0.0373, 0.0376,0.0373, 0.0375, 0.0376, 0.0376,0.0376,0.8042895442359255
SingleSource/Benchmarks/Shootout-C++/fibo, 0.1141, 0.1142, 0.1139,0.1141, 0.1145, 0.1152, 0.1150,0.115,0.7887817703768674
MultiSource/Benchmarks/MiBench/network-patricia/network-patricia, 0.0768, 0.0772, 0.0768,0.0768, 0.0770, 0.0776, 0.0774,0.0774,0.78125
MultiSource/Benchmarks/Olden/voronoi/voronoi, 0.2296, 0.2305, 0.2299,0.2299, 0.2311, 0.2316, 0.2324,0.2316,0.7394519356241913
SingleSource/Benchmarks/Misc/flops-7, 0.0272, 0.0271, 0.0273,0.0272, 0.0273, 0.0274, 0.0275,0.0274,0.7352941176470562
SingleSource/Benchmarks/Stanford/Towers, 0.0411, 0.0413, 0.0412,0.0412, 0.0411, 0.0415, 0.0415,0.0415,0.728155339805836
SingleSource/Benchmarks/Misc-C++/Large/sphereflake, 0.2127, 0.2122, 0.2118,0.2122, 0.2129, 0.2137, 0.2141,0.2137,0.706880301602264
MultiSource/Benchmarks/DOE-ProxyApps-C/XSBench/XSBench, 0.3300, 0.3306, 0.3297,0.33, 0.3307, 0.3323, 0.3330,0.3323,0.6969696969696848
SingleSource/Benchmarks/Misc/flops-2, 0.0293, 0.0291, 0.0292,0.0292, 0.0292, 0.0294, 0.0296,0.0294,0.6849315068493178
SingleSource/Benchmarks/Misc/perlin, 0.0460, 0.0459, 0.0460,0.046, 0.0461, 0.0463, 0.0465,0.0463,0.6521739130434856
SingleSource/Benchmarks/Shootout-C++/strcat, 0.1232, 0.1232, 0.1236,0.1232, 0.1240, 0.1243, 0.1239,0.124,0.6493506493506551
MultiSource/Benchmarks/FreeBench/analyzer/analyzer, 0.2411, 0.2413, 0.2426,0.2413, 0.2416, 0.2428, 0.2435,0.2428,0.6216328222130141
SingleSource/Benchmarks/Misc/himenobmtxpa, 0.2364, 0.2358, 0.2361,0.2361, 0.2372, 0.2375, 0.2381,0.2375,0.5929690808979204
SingleSource/Benchmarks/Shootout-C++/ary3, 0.1589, 0.1584, 0.1586,0.1586, 0.1589, 0.1598, 0.1595,0.1595,0.5674653215636871
MultiSource/Benchmarks/MiBench/telecomm-FFT/telecomm-fft, 0.1433, 0.1436, 0.1432,0.1433, 0.1432, 0.1441, 0.1446,0.1441,0.5582693649685888
MultiSource/Benchmarks/MiBench/automotive-susan/automotive-susan, 0.7814, 0.7697, 0.7759,0.7759, 0.7805, 0.7802, 0.7766,0.7802,0.5541951282381774
MultiSource/Benchmarks/MallocBench/gs/gs, 3.6256, 3.6320, 3.6367,3.632, 3.6375, 3.6517, 3.6570,3.6517,0.5424008810572589
MultiSource/Benchmarks/Prolangs-C/gnugo/gnugo, 0.6876, 0.6866, 0.6934,0.6876, 0.6906, 0.6975, 0.6913,0.6913,0.5381035485747532
MultiSource/Benchmarks/MallocBench/espresso/espresso, 4.7768, 4.7635, 4.7696,4.7696, 4.7945, 4.7959, 4.7881,4.7945,0.5220563569272141
MultiSource/Applications/lua/lua, 3.1108, 3.0999, 3.0995,3.0999, 3.1169, 3.1154, 3.1100,3.1154,0.5000161295525718
SingleSource/Benchmarks/Dhrystone/dry, 0.0399, 0.0400, 0.0402,0.04, 0.0400, 0.0402, 0.0404,0.0402,0.49999999999998934
MultiSource/Benchmarks/mediabench/gsm/toast/toast, 1.2200, 1.2101, 1.2182,1.2182, 1.2242, 1.2137, 1.2302,1.2242,0.4925299622393631
SingleSource/Benchmarks/Shootout-C++/random, 0.1245, 0.1233, 0.1237,0.1237, 0.1242, 0.1243, 0.1248,0.1243,0.48504446240904553
SingleSource/Benchmarks/Shootout-C++/objinst, 0.1278, 0.1270, 0.1275,0.1275, 0.1281, 0.1288, 0.1281,0.1281,0.47058823529411153
SingleSource/Benchmarks/Misc/pi, 0.0216, 0.0217, 0.0218,0.0217, 0.0216, 0.0218, 0.0218,0.0218,0.4608294930875445
MultiSource/Benchmarks/McCat/04-bisect/bisect, 0.1307, 0.1304, 0.1309,0.1307, 0.1308, 0.1313, 0.1314,0.1313,0.45906656465186657
MultiSource/Applications/siod/siod, 1.8247, 1.8116, 1.8142,1.8142, 1.8241, 1.8225, 1.8189,1.8225,0.45750192922500155
SingleSource/Benchmarks/Shootout-C++/heapsort, 0.1326, 0.1319, 0.1323,0.1323, 0.1329, 0.1326, 0.1329,0.1329,0.45351473922901064
MultiSource/Benchmarks/7zip/7zip-benchmark,33.2331,33.1805,33.1790,33.1805,33.3299,33.3236,33.3460,33.3299,0.4502644625608454
MultiSource/Benchmarks/McCat/17-bintr/bintr, 0.0689, 0.0687, 0.0686,0.0687, 0.0685, 0.0690, 0.0692,0.069,0.4366812227074357
MultiSource/Benchmarks/Ptrdist/ks/ks, 0.1387, 0.1390, 0.1391,0.139, 0.1390, 0.1396, 0.1398,0.1396,0.4316546762589857
SingleSource/Benchmarks/Shootout/ackermann, 0.0235, 0.0236, 0.0237,0.0236, 0.0236, 0.0238, 0.0237,0.0237,0.4237288135593209
MultiSource/Applications/d/make_dparser, 2.5492, 2.5429, 2.5474,2.5474, 2.5527, 2.5581, 2.5596,2.5581,0.4200361152547627
MultiSource/Benchmarks/FreeBench/mason/mason, 0.0480, 0.0480, 0.0481,0.048, 0.0481, 0.0482, 0.0484,0.0482,0.4166666666666652
SingleSource/Benchmarks/Shootout/nestedloop, 0.0245, 0.0246, 0.0248,0.0246, 0.0244, 0.0247, 0.0248,0.0247,0.40650406504065817
SingleSource/Benchmarks/Misc-C++/mandel-text, 0.0246, 0.0245, 0.0247,0.0246, 0.0244, 0.0247, 0.0249,0.0247,0.40650406504065817
MultiSource/Benchmarks/TSVC/Packing-flt/Packing-flt, 2.2666, 2.2676, 2.2675,2.2675, 2.2668, 2.2932, 2.2766,2.2766,0.4013230429988912
SingleSource/Benchmarks/Misc/flops, 0.0757, 0.0755, 0.0760,0.0757, 0.0756, 0.0760, 0.0761,0.076,0.39630118890356947
MultiSource/Benchmarks/Olden/perimeter/perimeter, 0.0765, 0.0769, 0.0770,0.0769, 0.0770, 0.0772, 0.0775,0.0772,0.39011703511053764
MultiSource/Applications/aha/aha, 0.1054, 0.1006, 0.1104,0.1054, 0.1014, 0.1058, 0.1106,0.1058,0.379506641366234
SingleSource/Benchmarks/Polybench/linear-algebra/kernels/doitgen/doitgen, 0.1066, 0.1062, 0.1061,0.1062, 0.1068, 0.1065, 0.1066,0.1066,0.37664783427495685
MultiSource/Benchmarks/FreeBench/pcompress2/pcompress2, 0.2428, 0.2445, 0.2432,0.2432, 0.2425, 0.2441, 0.2442,0.2441,0.37006578947369473
MultiSource/Applications/hexxagon/hexxagon, 0.7042, 0.7025, 0.7028,0.7028, 0.7040, 0.7054, 0.7067,0.7054,0.36994877632328116
SingleSource/Benchmarks/Shootout/strcat, 0.0272, 0.0271, 0.0272,0.0272, 0.0271, 0.0273, 0.0274,0.0273,0.3676470588235503
SingleSource/Benchmarks/Polybench/linear-algebra/solvers/dynprog/dynprog, 0.0853, 0.0852, 0.0853,0.0853, 0.0851, 0.0857, 0.0856,0.0856,0.3516998827667095
MultiSource/Benchmarks/TSVC/IndirectAddressing-flt/IndirectAddressing-flt, 2.3042, 2.2923, 2.3158,2.3042, 2.3040, 2.3152, 2.3123,2.3123,0.351531985070741
SingleSource/Benchmarks/CoyoteBench/almabench, 0.0576, 0.0575, 0.0574,0.0575, 0.0574, 0.0578, 0.0577,0.0577,0.3478260869565153
SingleSource/Benchmarks/BenchmarkGame/spectral-norm, 0.0580, 0.0579, 0.0583,0.058, 0.0578, 0.0582, 0.0582,0.0582,0.34482758620688614
SingleSource/Benchmarks/CoyoteBench/huffbench, 0.0887, 0.0889, 0.0887,0.0887, 0.0887, 0.0890, 0.0890,0.089,0.33821871476886756
MultiSource/Benchmarks/ASCI_Purple/SMG2000/smg2000, 6.2152, 6.2150, 6.2117,6.215, 6.2360, 6.2235, 6.2370,6.236,0.33789219629927203
SingleSource/Benchmarks/Polybench/linear-algebra/kernels/syr2k/syr2k, 0.0895, 0.0891, 0.0891,0.0891, 0.0888, 0.0894, 0.0895,0.0894,0.33670033670032407
MultiSource/Benchmarks/McCat/03-testtrie/testtrie, 0.0902, 0.0903, 0.0904,0.0903, 0.0901, 0.0906, 0.0906,0.0906,0.33222591362125353
SingleSource/Benchmarks/Polybench/stencils/jacobi-1d-imper/jacobi-1d-imper, 0.0916, 0.0915, 0.0917,0.0916, 0.0917, 0.0921, 0.0919,0.0919,0.3275109170305601
SingleSource/Benchmarks/Stanford/Perm, 0.0308, 0.0308, 0.0308,0.0308, 0.0308, 0.0309, 0.0309,0.0309,0.32467532467532756
SingleSource/Benchmarks/Shootout-C++/methcall, 0.1234, 0.1228, 0.1234,0.1234, 0.1234, 0.1238, 0.1239,0.1238,0.32414910858995505
MultiSource/Benchmarks/Olden/bisort/bisort, 0.0629, 0.0627, 0.0627,0.0627, 0.0625, 0.0629, 0.0634,0.0629,0.31897926634767426
SingleSource/Benchmarks/Shootout/methcall, 0.0314, 0.0313, 0.0314,0.0314, 0.0312, 0.0315, 0.0315,0.0315,0.31847133757962887
SingleSource/Benchmarks/SmallPT/smallpt, 0.0959, 0.0955, 0.0952,0.0955, 0.0952, 0.0959, 0.0958,0.0958,0.3141361256544517
SingleSource/Benchmarks/Shootout-C++/ary2, 0.1618, 0.1611, 0.1619,0.1618, 0.1616, 0.1631, 0.1623,0.1623,0.30902348578492056
SingleSource/Benchmarks/BenchmarkGame/nsieve-bits, 0.0330, 0.0332, 0.0333,0.0332, 0.0331, 0.0333, 0.0333,0.0333,0.3012048192771122
SingleSource/Benchmarks/Misc/whetstone, 0.0683, 0.0677, 0.0679,0.0679, 0.0681, 0.0681, 0.0681,0.0681,0.2945508100147265
SingleSource/Benchmarks/Linpack/linpack-pc, 0.3764, 0.3870, 0.3802,0.3802, 0.3696, 0.3813, 0.3920,0.3813,0.28932140978432663
MultiSource/Benchmarks/Trimaran/netbench-url/netbench-url, 0.2074, 0.2074, 0.2074,0.2074, 0.2067, 0.2080, 0.2081,0.208,0.2892960462873573
SingleSource/Benchmarks/Polybench/linear-algebra/kernels/trisolv/trisolv, 0.0700, 0.0696, 0.0697,0.0697, 0.0698, 0.0699, 0.0702,0.0699,0.2869440459110528
SingleSource/Benchmarks/Shootout/ary3, 0.0349, 0.0351, 0.0352,0.0351, 0.0348, 0.0352, 0.0352,0.0352,0.2849002849002913
SingleSource/Benchmarks/Shootout/objinst, 0.0361, 0.0361, 0.0363,0.0361, 0.0361, 0.0362, 0.0363,0.0362,0.27700831024930483
SingleSource/Benchmarks/Stanford/Treesort, 0.0377, 0.0378, 0.0380,0.0378, 0.0377, 0.0380, 0.0379,0.0379,0.2645502645502784
SingleSource/Benchmarks/Polybench/stencils/seidel-2d/seidel-2d, 0.0771, 0.0776, 0.0773,0.0773, 0.0775, 0.0777, 0.0775,0.0775,0.2587322121604174
SingleSource/Benchmarks/Shootout-C++/ary, 0.1555, 0.1543, 0.1547,0.1547, 0.1549, 0.1551, 0.1559,0.1551,0.25856496444731647
MultiSource/Benchmarks/TSVC/ControlLoops-flt/ControlLoops-flt, 2.3803, 2.3832, 2.3566,2.3803, 2.3786, 2.3868, 2.3860,2.386,0.239465613578127
MultiSource/Benchmarks/BitBench/drop3/drop3, 0.0422, 0.0423, 0.0422,0.0422, 0.0420, 0.0423, 0.0424,0.0423,0.23696682464453556
SingleSource/Benchmarks/Dhrystone/fldry, 0.0423, 0.0424, 0.0425,0.0424, 0.0423, 0.0425, 0.0425,0.0425,0.2358490566037874
SingleSource/Benchmarks/Polybench/medley/floyd-warshall/floyd-warshall, 0.0864, 0.0861, 0.0858,0.0861, 0.0858, 0.0863, 0.0865,0.0863,0.23228803716608404
SingleSource/Benchmarks/Polybench/linear-algebra/kernels/symm/symm, 0.0869, 0.0866, 0.0865,0.0866, 0.0867, 0.0870, 0.0868,0.0868,0.23094688221709792
SingleSource/Benchmarks/Stanford/FloatMM, 0.0443, 0.0445, 0.0443,0.0443, 0.0441, 0.0444, 0.0445,0.0444,0.22573363431150906
MultiSource/Benchmarks/Ptrdist/bc/bc, 1.0201, 1.0193, 1.0203,1.0201, 1.0182, 1.0228, 1.0224,1.0224,0.2254680913635898
MultiSource/Benchmarks/Prolangs-C/agrep/agrep, 1.3369, 1.3376, 1.3386,1.3376, 1.3429, 1.3389, 1.3406,1.3406,0.22428229665072408
MultiSource/Benchmarks/VersaBench/dbms/dbms, 1.0251, 1.0228, 1.0141,1.0228, 1.0413, 1.0250, 1.0206,1.025,0.2150958154086835
SingleSource/Benchmarks/Stanford/Queens, 0.0468, 0.0469, 0.0471,0.0469, 0.0468, 0.0470, 0.0471,0.047,0.2132196162047073
MultiSource/Benchmarks/MiBench/security-rijndael/security-rijndael, 0.4088, 0.4049, 0.4082,0.4082, 0.4068, 0.4090, 0.4199,0.409,0.19598236158744342
MultiSource/Benchmarks/Prolangs-C++/city/city, 0.9390, 0.9170, 0.9419,0.939, 0.9402, 0.9407, 0.9485,0.9407,0.18104366347178047
SingleSource/Benchmarks/CoyoteBench/lpbench, 0.1891, 0.1890, 0.1895,0.1891, 0.1890, 0.1897, 0.1894,0.1894,0.15864621893180164
MultiSource/Applications/kimwitu++/kc,10.2176,10.1915,10.1861,10.1915,10.1885,10.3103,10.2072,10.2072,0.15404994358043655
SingleSource/Benchmarks/BenchmarkGame/n-body, 0.0663, 0.0661, 0.0664,0.0663, 0.0662, 0.0664, 0.0665,0.0664,0.15082956259426794
SingleSource/Benchmarks/Shootout/lists, 0.0732, 0.0734, 0.0735,0.0734, 0.0734, 0.0735, 0.0737,0.0735,0.13623978201633413
MultiSource/Benchmarks/nbench/nbench, 1.1792, 1.1766, 1.1744,1.1766, 1.1636, 1.1803, 1.1782,1.1782,0.13598504164540337
MultiSource/Benchmarks/SciMark2-C/scimark2, 0.3787, 0.3797, 0.3806,0.3797, 0.3781, 0.3802, 0.3809,0.3802,0.13168290755860568
MultiSource/Benchmarks/TSVC/Searching-flt/Searching-flt, 2.2509, 2.2486, 2.2544,2.2509, 2.2260, 2.2536, 2.2569,2.2536,0.11995201919232645
SingleSource/Benchmarks/Polybench/linear-algebra/kernels/bicg/bicg, 0.0855, 0.0860, 0.0857,0.0857, 0.0858, 0.0858, 0.0859,0.0858,0.1166861143524045
MultiSource/Benchmarks/Ptrdist/anagram/anagram, 0.0857, 0.0858, 0.0857,0.0857, 0.0857, 0.0859, 0.0858,0.0858,0.1166861143524045
SingleSource/Benchmarks/Polybench/linear-algebra/kernels/mvt/mvt, 0.0908, 0.0907, 0.0907,0.0907, 0.0905, 0.0908, 0.0911,0.0908,0.11025358324145973
MultiSource/Benchmarks/Bullet/bullet,22.3196,22.2687,22.3116,22.3116,22.3354,22.3495,22.3278,22.3354,0.10667096936123333
SingleSource/Benchmarks/Polybench/datamining/covariance/covariance, 0.1009, 0.1008, 0.1007,0.1008, 0.1004, 0.1011, 0.1009,0.1009,0.09920634920634885
SingleSource/Benchmarks/Polybench/medley/reg_detect/reg_detect, 0.4054, 0.4043, 0.4046,0.4046, 0.4050, 0.4039, 0.4053,0.405,0.0988630746416197
SingleSource/Benchmarks/Adobe-C++/simple_types_constant_folding, 2.3607, 2.3540, 2.3553,2.3553, 2.3527, 2.3634, 2.3575,2.3575,0.09340636012395986
SingleSource/Benchmarks/Polybench/linear-algebra/solvers/durbin/durbin, 0.1082, 0.1081, 0.1081,0.1081, 0.1079, 0.1082, 0.1088,0.1082,0.09250693802036469
SingleSource/Benchmarks/Shootout-C++/ackermann, 0.1168, 0.1151, 0.1165,0.1165, 0.1166, 0.1166, 0.1162,0.1166,0.0858369098712286
MultiSource/Benchmarks/ASC_Sequoia/CrystalMk/CrystalMk, 0.2367, 0.2374, 0.2374,0.2374, 0.2356, 0.2376, 0.2380,0.2376,0.08424599831509116
SingleSource/Benchmarks/Polybench/linear-algebra/solvers/gramschmidt/gramschmidt, 0.1283, 0.1282, 0.1285,0.1283, 0.1280, 0.1284, 0.1285,0.1284,0.0779423226812126
MultiSource/Benchmarks/TSVC/Symbolics-dbl/Symbolics-dbl, 2.0795, 2.0772, 2.0774,2.0774, 2.0695, 2.0796, 2.0790,2.079,0.07701935111197322
MultiSource/Applications/ALAC/decode/alacconvert-decode, 1.0060, 1.0060, 1.0091,1.006, 1.0095, 1.0062, 1.0067,1.0067,0.06958250497017815
MultiSource/Benchmarks/Fhourstones/fhourstones, 0.1635, 0.1643, 0.1640,0.164, 0.1629, 0.1641, 0.1642,0.1641,0.06097560975608651
MultiSource/Benchmarks/FreeBench/neural/neural, 0.1763, 0.1765, 0.1765,0.1765, 0.1766, 0.1769, 0.1766,0.1766,0.056657223796041656
SingleSource/Benchmarks/Misc/ReedSolomon, 0.2008, 0.2008, 0.2008,0.2008, 0.2002, 0.2009, 0.2015,0.2009,0.04980079681273786
MultiSource/Applications/SPASS/SPASS,11.7588,11.7326,11.7633,11.7588,11.7745,11.7642,11.7559,11.7642,0.04592305337278724
MultiSource/Applications/ClamAV/clamscan,12.5274,12.5172,12.5322,12.5274,12.5537,12.5286,12.5305,12.5305,0.02474575730000428
MultiSource/Benchmarks/TSVC/Recurrences-flt/Recurrences-flt, 2.2461, 2.2690, 2.2650,2.265, 2.2727, 2.2636, 2.2654,2.2654,0.017660044150114018
MultiSource/Benchmarks/mediabench/mpeg2/mpeg2dec/mpeg2decode, 1.3035, 1.3024, 1.3046,1.3035, 1.3403, 1.3036, 1.3008,1.3036,0.007671653241270171
SingleSource/Regression/C/2004-08-12-InlinerAndAllocas, 0.0200, 0.0201, 0.0201,0.0201, 0.0198, 0.0201, 0.0201,0.0201,0.0
SingleSource/Benchmarks/Stanford/RealMM, 0.0436, 0.0439, 0.0441,0.0439, 0.0436, 0.0439, 0.0439,0.0439,0.0
SingleSource/Benchmarks/Stanford/Bubblesort, 0.0360, 0.0360, 0.0360,0.036, 0.0358, 0.0360, 0.0362,0.036,0.0
SingleSource/Benchmarks/Shootout/sieve, 0.0259, 0.0261, 0.0262,0.0261, 0.0258, 0.0261, 0.0261,0.0261,0.0
SingleSource/Benchmarks/Shootout/fib2, 0.0203, 0.0204, 0.0205,0.0204, 0.0202, 0.0204, 0.0204,0.0204,0.0
SingleSource/Benchmarks/Polybench/stencils/adi/adi, 0.1053, 0.1047, 0.1050,0.105, 0.1048, 0.1050, 0.1054,0.105,0.0
SingleSource/Benchmarks/Polybench/linear-algebra/solvers/lu/lu, 0.1048, 0.1049, 0.1052,0.1049, 0.1049, 0.1049, 0.1055,0.1049,0.0
SingleSource/Benchmarks/Misc/mandel-2, 0.0316, 0.0314, 0.0318,0.0316, 0.0315, 0.0316, 0.0319,0.0316,0.0
SingleSource/Benchmarks/Misc/lowercase, 0.0257, 0.0256, 0.0258,0.0257, 0.0254, 0.0257, 0.0257,0.0257,0.0
SingleSource/Benchmarks/BenchmarkGame/recursive, 0.0265, 0.0267, 0.0267,0.0267, 0.0264, 0.0267, 0.0268,0.0267,0.0
MultiSource/Benchmarks/llubenchmark/llu, 0.0509, 0.0510, 0.0509,0.0509, 0.0507, 0.0509, 0.0511,0.0509,0.0
MultiSource/Benchmarks/Olden/treeadd/treeadd, 0.0558, 0.0564, 0.0565,0.0564, 0.0560, 0.0564, 0.0565,0.0564,0.0
MultiSource/Benchmarks/MiBench/telecomm-CRC32/telecomm-CRC32, 0.0341, 0.0347, 0.0345,0.0345, 0.0344, 0.0345, 0.0349,0.0345,0.0
MultiSource/Benchmarks/FreeBench/distray/distray, 0.0947, 0.0947, 0.0943,0.0947, 0.0945, 0.0949, 0.0947,0.0947,0.0
MultiSource/Benchmarks/BitBench/uuencode/uuencode, 0.0436, 0.0435, 0.0436,0.0436, 0.0434, 0.0436, 0.0439,0.0436,0.0
MultiSource/Benchmarks/BitBench/uudecode/uudecode, 0.0449, 0.0449, 0.0449,0.0449, 0.0446, 0.0449, 0.0451,0.0449,0.0
MultiSource/Applications/JM/ldecod/ldecod, 6.0236, 6.0202, 6.0476,6.0236, 6.0225, 6.0298, 6.0181,6.0225,-0.01826150474799615
MultiSource/Benchmarks/MiBench/consumer-jpeg/consumer-jpeg, 4.1517, 4.1424, 4.1467,4.1467, 4.1339, 4.1441, 4.1472,4.1441,-0.06270046060723455
SingleSource/Benchmarks/Polybench/stencils/fdtd-apml/fdtd-apml, 0.1498, 0.1499, 0.1506,0.1499, 0.1496, 0.1498, 0.1500,0.1498,-0.06671114076052254
SingleSource/Benchmarks/Misc-C++/bigfib, 0.4226, 0.4210, 0.4222,0.4222, 0.4322, 0.4188, 0.4219,0.4219,-0.0710563713879786
SingleSource/Benchmarks/Polybench/stencils/jacobi-2d-imper/jacobi-2d-imper, 0.1270, 0.1276, 0.1271,0.1271, 0.1268, 0.1273, 0.1270,0.127,-0.07867820613689513
MultiSource/Applications/ALAC/encode/alacconvert-encode, 1.0061, 1.0063, 1.0077,1.0063, 1.0039, 1.0055, 1.0067,1.0055,-0.07949915532146079
MultiSource/Benchmarks/mediabench/jpeg/jpeg-6a/cjpeg, 4.1973, 4.1910, 4.1929,4.1929, 4.2070, 4.1893, 4.1814,4.1893,-0.08585942903478472
SingleSource/Benchmarks/Polybench/linear-algebra/kernels/cholesky/cholesky, 0.1103, 0.1107, 0.1107,0.1107, 0.1103, 0.1106, 0.1107,0.1106,-0.09033423667570428
MultiSource/Benchmarks/TSVC/Equivalencing-dbl/Equivalencing-dbl, 2.0759, 2.0859, 2.0808,2.0808, 2.0777, 2.0785, 2.0785,2.0785,-0.11053440984236662
SingleSource/Benchmarks/Polybench/linear-algebra/kernels/atax/atax, 0.0899, 0.0902, 0.0896,0.0899, 0.0896, 0.0898, 0.0898,0.0898,-0.11123470522801382
MultiSource/Benchmarks/McCat/09-vor/vor, 0.2685, 0.2683, 0.2691,0.2685, 0.2668, 0.2682, 0.2690,0.2682,-0.11173184357542443
SingleSource/Benchmarks/Polybench/linear-algebra/kernels/syrk/syrk, 0.0885, 0.0883, 0.0887,0.0885, 0.0884, 0.0884, 0.0885,0.0884,-0.11299435028246929
SingleSource/Benchmarks/Polybench/stencils/fdtd-2d/fdtd-2d, 0.1701, 0.1701, 0.1704,0.1701, 0.1696, 0.1699, 0.1704,0.1699,-0.11757789535568053
SingleSource/Benchmarks/Polybench/datamining/correlation/correlation, 0.0849, 0.0849, 0.0848,0.0849, 0.0846, 0.0848, 0.0849,0.0848,-0.11778563015312216
MultiSource/Benchmarks/TSVC/ControlLoops-dbl/ControlLoops-dbl, 2.1421, 2.1353, 2.1357,2.1357, 2.1363, 2.1331, 2.1319,2.1331,-0.1217399447487777
MultiSource/Benchmarks/TSVC/Expansion-dbl/Expansion-dbl, 2.1316, 2.1320, 2.1335,2.132, 2.1265, 2.1293, 2.1306,2.1293,-0.12664165103188907
SingleSource/Benchmarks/Shootout/matrix, 0.0757, 0.0758, 0.0760,0.0758, 0.0754, 0.0757, 0.0759,0.0757,-0.13192612137203907
MultiSource/Benchmarks/sim/sim, 0.2945, 0.2932, 0.2933,0.2933, 0.2929, 0.2930, 0.2928,0.2929,-0.13637913399250357
SingleSource/Benchmarks/Misc/ffbench, 0.0718, 0.0716, 0.0718,0.0718, 0.0715, 0.0718, 0.0717,0.0717,-0.1392757660167221
SingleSource/Benchmarks/Polybench/linear-algebra/kernels/gesummv/gesummv, 0.0713, 0.0713, 0.0711,0.0713, 0.0712, 0.0712, 0.0716,0.0712,-0.14025245441795509
MultiSource/Benchmarks/FreeBench/fourinarow/fourinarow, 0.2846, 0.2847, 0.2838,0.2846, 0.2842, 0.2839, 0.2844,0.2842,-0.14054813773718422
MultiSource/Benchmarks/MiBench/consumer-lame/consumer-lame, 3.8721, 3.8788, 3.8733,3.8733, 3.8676, 3.8671, 3.8680,3.8676,-0.14716133529548703
MultiSource/Benchmarks/TSVC/LinearDependence-dbl/LinearDependence-dbl, 2.1684, 2.1495, 2.1724,2.1684, 2.1734, 2.1650, 2.1636,2.165,-0.156797638812034
MultiSource/Benchmarks/MiBench/telecomm-gsm/telecomm-gsm, 1.1695, 1.1723, 1.1731,1.1723, 1.1648, 1.1704, 1.1721,1.1704,-0.16207455429495532
MultiSource/Benchmarks/VersaBench/bmm/bmm, 0.0568, 0.0571, 0.0571,0.0571, 0.0568, 0.0570, 0.0570,0.057,-0.17513134851138146
SingleSource/Benchmarks/BenchmarkGame/puzzle, 0.0567, 0.0569, 0.0570,0.0569, 0.0567, 0.0568, 0.0568,0.0568,-0.17574692442881013
MultiSource/Benchmarks/BitBench/five11/five11, 0.0554, 0.0557, 0.0558,0.0557, 0.0554, 0.0557, 0.0556,0.0556,-0.17953321364453378
MultiSource/Benchmarks/TSVC/Symbolics-flt/Symbolics-flt, 2.3286, 2.3226, 2.3352,2.3286, 2.3167, 2.3257, 2.3244,2.3244,-0.18036588508116846
SingleSource/Benchmarks/Adobe-C++/simple_types_loop_invariant, 1.8039, 1.8090, 1.8096,1.809, 1.8039, 1.8056, 1.8071,1.8056,-0.18794914317301625
MultiSource/Benchmarks/Trimaran/enc-rc4/enc-rc4, 0.0514, 0.0516, 0.0516,0.0516, 0.0512, 0.0515, 0.0515,0.0515,-0.19379844961240345
SingleSource/Benchmarks/BenchmarkGame/fannkuch, 0.0512, 0.0515, 0.0514,0.0514, 0.0510, 0.0513, 0.0514,0.0513,-0.1945525291828898
MultiSource/Applications/oggenc/oggenc, 4.7542, 4.7585, 4.7708,4.7585, 4.7676, 4.7476, 4.7490,4.749,-0.1996427445623672
SingleSource/Benchmarks/Misc/salsa20, 0.0487, 0.0488, 0.0489,0.0488, 0.0485, 0.0487, 0.0488,0.0487,-0.2049180327868938
MultiSource/Benchmarks/TSVC/Equivalencing-flt/Equivalencing-flt, 2.3306, 2.3385, 2.2942,2.3306, 2.3216, 2.3272, 2.3258,2.3258,-0.2059555479275721
MultiSource/Applications/sgefa/sgefa, 0.4272, 0.4267, 0.4268,0.4268, 0.4247, 0.4259, 0.4259,0.4259,-0.21087160262418525
SingleSource/Benchmarks/Shootout-C++/sieve, 0.1795, 0.1801, 0.1802,0.1801, 0.1797, 0.1802, 0.1797,0.1797,-0.2220988339811325
MultiSource/Benchmarks/TSVC/CrossingThresholds-flt/CrossingThresholds-flt, 2.3342, 2.3312, 2.3249,2.3312, 2.3313, 2.3134, 2.3260,2.326,-0.2230610844200398
MultiSource/Benchmarks/Olden/mst/mst, 0.1311, 0.1317, 0.1317,0.1317, 0.1344, 0.1309, 0.1314,0.1314,-0.2277904328018443
SingleSource/Benchmarks/McGill/queens, 0.0437, 0.0437, 0.0440,0.0437, 0.0435, 0.0436, 0.0438,0.0436,-0.22883295194509046
SingleSource/Benchmarks/BenchmarkGame/Large/fasta, 0.0436, 0.0436, 0.0436,0.0436, 0.0434, 0.0435, 0.0437,0.0435,-0.2293577981651418
MultiSource/Benchmarks/MiBench/network-dijkstra/network-dijkstra, 0.0430, 0.0431, 0.0432,0.0431, 0.0428, 0.0430, 0.0430,0.043,-0.23201856148492572
MultiSource/Benchmarks/MallocBench/cfrac/cfrac, 0.8601, 0.8612, 0.8600,0.8601, 0.8517, 0.8600, 0.8581,0.8581,-0.23253110103476082
MultiSource/Benchmarks/TSVC/Reductions-flt/Reductions-flt, 2.3823, 2.3842, 2.3850,2.3842, 2.3696, 2.3786, 2.3799,2.3786,-0.23487962419259656
SingleSource/Benchmarks/Polybench/linear-algebra/kernels/trmm/trmm, 0.0847, 0.0846, 0.0849,0.0847, 0.0844, 0.0845, 0.0847,0.0845,-0.23612750885476652
SingleSource/Benchmarks/Shootout-C++/hash, 0.2575, 0.2576, 0.2579,0.2576, 0.2559, 0.2569, 0.2576,0.2569,-0.27173913043477826
SingleSource/Benchmarks/Polybench/linear-algebra/kernels/gemver/gemver, 0.1078, 0.1081, 0.1084,0.1081, 0.1076, 0.1080, 0.1078,0.1078,-0.27752081406104967
MultiSource/Benchmarks/NPB-serial/is/is, 0.0715, 0.0719, 0.0720,0.0719, 0.0714, 0.0717, 0.0717,0.0717,-0.2781641168289384
MultiSource/Benchmarks/TSVC/StatementReordering-flt/StatementReordering-flt, 2.2701, 2.2707, 2.2578,2.2701, 2.2634, 2.2623, 2.2675,2.2634,-0.29514118320778104
MultiSource/Benchmarks/PAQ8p/paq8p, 2.0626, 2.0618, 2.0662,2.0626, 2.0388, 2.0583, 2.0564,2.0564,-0.3005914864733894
SingleSource/Benchmarks/Stanford/Oscar, 0.0662, 0.0666, 0.0664,0.0664, 0.0660, 0.0662, 0.0663,0.0662,-0.3012048192771122
MultiSource/Applications/JM/lencod/lencod,13.3861,13.3722,13.3890,13.3861,13.3396,13.3441,13.3446,13.3441,-0.3137583015217382
SingleSource/Benchmarks/Adobe-C++/loop_unroll, 4.6947, 4.6767, 4.7009,4.6947, 4.6762, 4.6797, 4.6799,4.6797,-0.31950923381685037
SingleSource/Benchmarks/Misc/matmul_f64_4x4, 0.0305, 0.0306, 0.0306,0.0306, 0.0304, 0.0305, 0.0307,0.0305,-0.32679738562091387
MultiSource/Benchmarks/mafft/pairlocalalign, 9.4553, 9.4446, 9.4475,9.4475, 9.4163, 9.4240, 9.4038,9.4163,-0.3302460968510168
SingleSource/Benchmarks/Misc/richards_benchmark, 0.0598, 0.0599, 0.0600,0.0599, 0.0597, 0.0597, 0.0599,0.0597,-0.33388981636059967
MultiSource/Benchmarks/TSVC/LoopRestructuring-flt/LoopRestructuring-flt, 2.3580, 2.3205, 2.3592,2.358, 2.3453, 2.3501, 2.3552,2.3501,-0.33502968617473705
MultiSource/Benchmarks/TSVC/InductionVariable-flt/InductionVariable-flt, 2.3595, 2.3478, 2.3499,2.3499, 2.3456, 2.3420, 2.3413,2.342,-0.33618451849013464
MultiSource/Benchmarks/TSVC/GlobalDataFlow-dbl/GlobalDataFlow-dbl, 2.1265, 2.1245, 2.1330,2.1265, 2.1193, 2.1214, 2.1190,2.1193,-0.3385845285680755
MultiSource/Benchmarks/TSVC/Searching-dbl/Searching-dbl, 2.0018, 2.0051, 2.0095,2.0051, 1.9982, 1.9986, 1.9975,1.9982,-0.3441224876564841
MultiSource/Benchmarks/TSVC/GlobalDataFlow-flt/GlobalDataFlow-flt, 2.3739, 2.3766, 2.3753,2.3753, 2.3636, 2.3677, 2.3670,2.367,-0.34942954574159746
MultiSource/Benchmarks/TSVC/LoopRestructuring-dbl/LoopRestructuring-dbl, 2.1044, 2.0976, 2.1035,2.1035, 2.0916, 2.0959, 2.0966,2.0959,-0.3613025909198986
MultiSource/Benchmarks/TSVC/NodeSplitting-flt/NodeSplitting-flt, 2.3123, 2.3122, 2.2897,2.3122, 2.3002, 2.3055, 2.3037,2.3037,-0.36761525819564156
SingleSource/Benchmarks/McGill/misr, 0.0538, 0.0540, 0.0540,0.054, 0.0537, 0.0538, 0.0542,0.0538,-0.37037037037036535
MultiSource/Benchmarks/TSVC/ControlFlow-flt/ControlFlow-flt, 2.4857, 2.4906, 2.4911,2.4906, 2.4813, 2.4849, 2.4471,2.4813,-0.37340399903638133
SingleSource/Benchmarks/Misc/oourafft, 0.2368, 0.2365, 0.2368,0.2368, 0.2359, 0.2356, 0.2363,0.2359,-0.38006756756757687
MultiSource/Benchmarks/TSVC/CrossingThresholds-dbl/CrossingThresholds-dbl, 2.0805, 2.0792, 2.0843,2.0805, 2.0756, 2.0700, 2.0724,2.0724,-0.38932948810380674
MultiSource/Benchmarks/FreeBench/pifft/pifft, 1.0537, 1.0545, 1.0537,1.0537, 1.0492, 1.0528, 1.0494,1.0494,-0.40808579292018754
MultiSource/Benchmarks/TSVC/StatementReordering-dbl/StatementReordering-dbl, 2.0142, 2.0231, 2.0192,2.0192, 2.0104, 2.0114, 2.0102,2.0104,-0.4358161648177483
SingleSource/Benchmarks/McGill/chomp, 0.1905, 0.1914, 0.1916,0.1914, 0.1900, 0.1904, 0.1907,0.1904,-0.5224660397074032
MultiSource/Benchmarks/TSVC/ControlFlow-dbl/ControlFlow-dbl, 2.2393, 2.2352, 2.2480,2.2393, 2.2317, 2.2271, 2.2272,2.2272,-0.540347430000454
MultiSource/Benchmarks/TSVC/LoopRerolling-dbl/LoopRerolling-dbl, 2.0352, 2.0358, 2.0361,2.0358, 2.0242, 2.0241, 2.0029,2.0241,-0.5747126436781769
MultiSource/Benchmarks/TSVC/LinearDependence-flt/LinearDependence-flt, 2.4302, 2.4277, 2.4320,2.4302, 2.4161, 2.4218, 2.4133,2.4161,-0.580199160562922
MultiSource/Benchmarks/TSVC/LoopRerolling-flt/LoopRerolling-flt, 2.2869, 2.2851, 2.2787,2.2851, 2.2718, 2.2556, 2.2806,2.2718,-0.5820314209443844
MultiSource/Benchmarks/TSVC/InductionVariable-dbl/InductionVariable-dbl, 2.0991, 2.0969, 2.1016,2.0991, 2.0865, 2.0584, 2.0931,2.0865,-0.6002572531084716
MultiSource/Benchmarks/TSVC/Recurrences-dbl/Recurrences-dbl, 2.0282, 2.0262, 2.0253,2.0262, 1.9934, 2.0139, 2.0159,2.0139,-0.6070476754515775
MultiSource/Applications/obsequi/Obsequi, 1.0223, 1.0200, 1.0093,1.02, 1.0046, 1.0194, 1.0138,1.0138,-0.6078431372549042
SingleSource/Benchmarks/Misc/fp-convert, 0.0324, 0.0328, 0.0328,0.0328, 0.0324, 0.0326, 0.0327,0.0326,-0.6097560975609984
MultiSource/Benchmarks/Prolangs-C++/life/life, 0.0651, 0.0654, 0.0655,0.0654, 0.0649, 0.0650, 0.0650,0.065,-0.6116207951070263
SingleSource/Benchmarks/Misc-C++-EH/spirit, 3.1159, 3.1205, 3.1083,3.1159, 3.0966, 3.1145, 3.0886,3.0966,-0.619403703584831
MultiSource/Benchmarks/Ptrdist/yacr2/yacr2, 0.6211, 0.6227, 0.6234,0.6227, 0.6171, 0.6188, 0.6202,0.6188,-0.6263048016701522
MultiSource/Benchmarks/TSVC/Reductions-dbl/Reductions-dbl, 2.1364, 2.1438, 2.1403,2.1403, 2.1262, 2.1381, 2.1259,2.1262,-0.6587861514740889
SingleSource/Benchmarks/Misc-C++/oopack_v1p8, 0.1363, 0.1360, 0.1344,0.136, 0.1365, 0.1317, 0.1351,0.1351,-0.6617647058823617
MultiSource/Benchmarks/TSVC/IndirectAddressing-dbl/IndirectAddressing-dbl, 2.0643, 2.0799, 2.0415,2.0643, 2.0572, 2.0497, 2.0486,2.0497,-0.7072615414426053
MultiSource/Benchmarks/VersaBench/ecbdes/ecbdes, 0.2337, 0.2339, 0.2411,0.2339, 0.2339, 0.2322, 0.2306,0.2322,-0.7268063274903813
MultiSource/Benchmarks/TSVC/Expansion-flt/Expansion-flt, 2.3874, 2.3956, 2.3918,2.3918, 2.3744, 2.3854, 2.3624,2.3744,-0.727485575717024
MultiSource/Benchmarks/MiBench/consumer-typeset/consumer-typeset, 9.8438, 9.8290, 9.8371,9.8371, 9.7669, 9.7652, 9.7632,9.7652,-0.7309064663366227
SingleSource/Benchmarks/Stanford/Puzzle, 0.1195, 0.1197, 0.1197,0.1197, 0.1188, 0.1188, 0.1190,0.1188,-0.7518796992481147
MultiSource/Benchmarks/TSVC/NodeSplitting-dbl/NodeSplitting-dbl, 2.0650, 2.0594, 2.0598,2.0598, 2.0428, 2.0442, 2.0450,2.0442,-0.7573550830177744
MultiSource/Benchmarks/TSVC/Packing-dbl/Packing-dbl, 2.0299, 2.0293, 2.0222,2.0293, 2.0090, 2.0128, 2.0133,2.0128,-0.8130882570344555
MultiSource/Applications/SIBsim4/SIBsim4, 1.2745, 1.2831, 1.2764,1.2764, 1.2581, 1.2831, 1.2656,1.2656,-0.846129739893442
MultiSource/Applications/sqlite3/sqlite3,12.7342,12.6397,12.6837,12.6837,12.5145,12.5738,12.6095,12.5738,-0.8664664096438734
MultiSource/Benchmarks/McCat/01-qbsort/qbsort, 0.0987, 0.1053, 0.1026,0.1026, 0.0984, 0.1017, 0.1033,0.1017,-0.8771929824561431
MultiSource/Benchmarks/McCat/05-eks/eks, 0.5656, 0.5584, 0.5658,0.5656, 0.5599, 0.5609, 0.5604,0.5604,-0.9193776520509123
MultiSource/Benchmarks/VersaBench/beamformer/beamformer, 0.2120, 0.2129, 0.2140,0.2129, 0.2127, 0.2106, 0.2092,0.2106,-1.080319398778773
MultiSource/Benchmarks/MiBench/automotive-bitcount/automotive-bitcount, 0.2548, 0.2517, 0.2565,0.2548, 0.2497, 0.2564, 0.2511,0.2511,-1.4521193092621787
MultiSource/Benchmarks/Fhourstones-3.1/fhourstones3.1, 0.1343, 0.1370, 0.1396,0.137, 0.1339, 0.1416, 0.1350,0.135,-1.4598540145985384
MultiSource/Benchmarks/Trimaran/enc-md5/enc-md5, 0.1632, 0.1627, 0.1631,0.1631, 0.1605, 0.1607, 0.1607,0.1607,-1.4714898835070378
MultiSource/Benchmarks/Prolangs-C/bison/mybison, 1.6130, 1.6146, 1.6174,1.6146, 1.5667, 1.5705, 1.5714,1.5705,-2.7313266443701245
SingleSource/Benchmarks/Adobe-C++/functionobjects, 0.4379, 0.4389, 0.4377,0.4379, 0.4264, 0.4253, 0.4244,0.4253,-2.8773692623886737
MultiSource/Benchmarks/McCat/12-IOtest/iotest, 0.1104, 0.1081, 0.1072,0.1081, 0.1039, 0.1066, 0.1048,0.1048,-3.052728954671602
MultiSource/Benchmarks/Trimaran/enc-3des/enc-3des, 0.2729, 0.2707, 0.2755,0.2729, 0.2641, 0.2586, 0.2751,0.2641,-3.2246244045437744
SingleSource/Benchmarks/Shootout-C++/moments, 0.2388, 0.2400, 0.2392,0.2392, 0.2321, 0.2306, 0.2306,0.2306,-3.5953177257525115
SingleSource/Benchmarks/Misc-C++/stepanov_container, 0.6558, 0.6280, 0.6690,0.6558, 0.6295, 0.6194, 0.6055,0.6194,-5.550472705093035
MultiSource/Benchmarks/tramp3d-v4/tramp3d-v4,18.1178,18.0813,18.0878,18.0878,16.9858,17.0046,16.9514,16.9858,-6.09250433994184
SingleSource/Benchmarks/Misc-C++/stepanov_v1p2, 0.1709, 0.1702, 0.1703,0.1703, 0.1307, 0.1305, 0.1304,0.1305,-23.370522607163824
SingleSource/Benchmarks/Adobe-C++/stepanov_vector, 0.7870, 0.7861, 0.7910,0.787, 0.5386, 0.5487, 0.5403,0.5403,-31.34688691232529
SingleSource/Benchmarks/Adobe-C++/stepanov_abstraction, 0.6044, 0.6009, 0.6022,0.6022, 0.3541, 0.3547, 0.3549,0.3547,-41.09930255728993
Total elapsed time,-,-,-,341.1488000000003,-,-,-,339.2094000000005,-0.5684909341612032
Total failure,-,-,-,0,-,-,-,0,
Geom. avg slowdown,,,,,,,,,-0.400415058931%
