Benchmarks,base-4.0,base-4.0,base-4.0,median,intptr-4.0-nocapture,intptr-4.0-nocapture,intptr-4.0-nocapture,median,Slowdown(%)
MultiSource/Benchmarks/Ptrdist/anagram/anagram, 0.9978, 0.9914, 0.9916,0.9916, 1.0198, 1.0188, 1.0233,1.0198,2.8438886647841777
MultiSource/Benchmarks/MallocBench/gs/gs, 0.0401, 0.0403, 0.0401,0.0401, 0.0407, 0.0410, 0.0410,0.041,2.244389027431426
MultiSource/Benchmarks/TSVC/GlobalDataFlow-flt/GlobalDataFlow-flt, 1.6155, 1.6342, 1.6220,1.622, 1.6518, 1.6515, 1.6538,1.6518,1.8372379778051728
SingleSource/Benchmarks/Shootout-C++/moments, 0.0750, 0.0746, 0.0750,0.075, 0.0762, 0.0762, 0.0761,0.0762,1.6000000000000014
SingleSource/Benchmarks/Misc-C++/stepanov_v1p2, 6.5979, 6.5973, 6.5975,6.5975, 6.6837, 6.6808, 6.6805,6.6808,1.2625994694960063
SingleSource/Benchmarks/Adobe-C++/stepanov_abstraction, 4.3911, 4.3905, 4.3896,4.3905, 4.4376, 4.4356, 4.4367,4.4367,1.0522719508028633
SingleSource/Benchmarks/CoyoteBench/lpbench, 3.4011, 3.3972, 3.4121,3.4011, 3.4318, 3.4657, 3.4169,3.4318,0.90264914292435
MultiSource/Applications/lua/lua,22.1371,22.1366,22.1333,22.1366,22.2931,22.3324,22.3463,22.3324,0.8845080093600632
MultiSource/Benchmarks/TSVC/LoopRerolling-flt/LoopRerolling-flt, 2.7675, 2.7597, 2.7534,2.7597, 2.7614, 2.7779, 2.7769,2.7769,0.6232561510309154
SingleSource/Benchmarks/Polybench/linear-algebra/kernels/symm/symm,18.4775,18.4166,18.3457,18.4166,18.5942,18.5184,18.3842,18.5184,0.552762181944555
SingleSource/Benchmarks/Misc-C++-EH/spirit, 4.3197, 4.3226, 4.3218,4.3218, 4.3452, 4.3464, 4.3454,4.3454,0.5460687676431153
SingleSource/Benchmarks/Stanford/Perm, 0.0209, 0.0209, 0.0208,0.0209, 0.0210, 0.0210, 0.0209,0.021,0.4784688995215447
MultiSource/Applications/JM/ldecod/ldecod, 0.0630, 0.0626, 0.0633,0.063, 0.0633, 0.0631, 0.0639,0.0633,0.4761904761904745
SingleSource/Benchmarks/Misc-C++/Large/ray, 2.7275, 2.7270, 2.7275,2.7275, 2.7403, 2.7394, 2.7396,2.7396,0.4436296975252052
MultiSource/Benchmarks/TSVC/Packing-flt/Packing-flt, 3.1997, 3.1953, 3.2120,3.1997, 3.2123, 3.2114, 3.1923,3.2114,0.3656592805575398
MultiSource/Benchmarks/McCat/12-IOtest/iotest, 0.2661, 0.2663, 0.2676,0.2663, 0.2670, 0.2672, 0.2676,0.2672,0.3379647014645215
MultiSource/Benchmarks/Olden/power/power, 1.7419, 1.7457, 1.7414,1.7419, 1.7415, 1.7470, 1.7616,1.747,0.29278374189103396
MultiSource/Applications/sqlite3/sqlite3, 3.3233, 3.3225, 3.3238,3.3233, 3.3310, 3.3328, 3.3341,3.3328,0.2858604399241793
MultiSource/Benchmarks/MiBench/security-rijndael/security-rijndael, 0.0377, 0.0378, 0.0378,0.0378, 0.0379, 0.0379, 0.0378,0.0379,0.2645502645502784
MultiSource/Benchmarks/MiBench/consumer-typeset/consumer-typeset, 0.1528, 0.1524, 0.1519,0.1524, 0.1518, 0.1528, 0.1537,0.1528,0.2624671916010346
MultiSource/Applications/kimwitu++/kc, 0.0447, 0.0449, 0.0447,0.0447, 0.0450, 0.0448, 0.0448,0.0448,0.22371364653244186
MultiSource/Benchmarks/ASCI_Purple/SMG2000/smg2000, 2.3912, 2.3942, 2.3959,2.3942, 2.3954, 2.3993, 2.3995,2.3993,0.21301478573219068
MultiSource/Benchmarks/Fhourstones/fhourstones, 0.8907, 0.8908, 0.8928,0.8908, 0.8926, 0.8899, 0.8951,0.8926,0.2020655590480258
MultiSource/Applications/aha/aha, 2.3806, 2.3765, 2.3858,2.3806, 2.3956, 2.3742, 2.3853,2.3853,0.1974292195245031
MultiSource/Benchmarks/MiBench/network-patricia/network-patricia, 0.1098, 0.1095, 0.1095,0.1095, 0.1097, 0.1093, 0.1099,0.1097,0.18264840182649067
MultiSource/Benchmarks/Bullet/bullet, 4.9059, 4.9033, 4.9037,4.9037, 4.9124, 4.9166, 4.9121,4.9124,0.17741705242979577
SingleSource/Benchmarks/Misc/himenobmtxpa, 0.8841, 0.8843, 0.8849,0.8843, 0.8851, 0.8861, 0.8857,0.8857,0.15831731312903052
MultiSource/Applications/sgefa/sgefa, 0.2602, 0.2600, 0.2600,0.26, 0.2602, 0.2604, 0.2606,0.2604,0.15384615384614886
MultiSource/Benchmarks/MallocBench/espresso/espresso, 0.4552, 0.4556, 0.4562,0.4556, 0.4561, 0.4564, 0.4563,0.4563,0.15364354697102733
SingleSource/Benchmarks/Polybench/linear-algebra/kernels/cholesky/cholesky, 0.3961, 0.3958, 0.3966,0.3961, 0.3964, 0.3967, 0.3971,0.3967,0.15147689977277334
MultiSource/Benchmarks/FreeBench/distray/distray, 0.1507, 0.1508, 0.1507,0.1507, 0.1510, 0.1508, 0.1509,0.1509,0.13271400132714994
SingleSource/Benchmarks/Shootout/heapsort, 2.1416, 2.1467, 2.1463,2.1463, 2.1491, 2.1363, 2.1506,2.1491,0.13045706564784876
MultiSource/Benchmarks/FreeBench/mason/mason, 0.1732, 0.1731, 0.1730,0.1731, 0.1730, 0.1734, 0.1733,0.1733,0.11554015020220909
SingleSource/Benchmarks/Misc/flops-4, 0.9016, 0.9039, 0.9010,0.9016, 0.9033, 0.9026, 0.9015,0.9026,0.11091393078970224
MultiSource/Applications/SIBsim4/SIBsim4, 3.5562, 3.5551, 3.5538,3.5551, 3.5587, 3.5589, 3.5592,3.5589,0.10688869511406018
SingleSource/Benchmarks/Shootout/fib2, 2.7192, 2.7171, 2.7168,2.7171, 2.7180, 2.7226, 2.7200,2.72,0.10673144161055248
MultiSource/Benchmarks/FreeBench/neural/neural, 0.0983, 0.0984, 0.0984,0.0984, 0.0985, 0.0985, 0.0983,0.0985,0.10162601626015899
MultiSource/Benchmarks/tramp3d-v4/tramp3d-v4, 0.4043, 0.4037, 0.4051,0.4043, 0.4047, 0.4048, 0.4045,0.4047,0.09893643334157876
MultiSource/Applications/minisat/minisat, 7.2293, 7.2190, 7.2224,7.2224, 7.2291, 7.2219, 7.2379,7.2291,0.09276694727513579
SingleSource/Benchmarks/Misc-C++/oopack_v1p8, 0.1209, 0.1210, 0.1210,0.121, 0.1211, 0.1211, 0.1210,0.1211,0.08264462809917106
SingleSource/Benchmarks/Polybench/linear-algebra/kernels/gemver/gemver, 0.3645, 0.3637, 0.3629,0.3637, 0.3640, 0.3633, 0.3645,0.364,0.08248556502610249
SingleSource/Benchmarks/Polybench/linear-algebra/kernels/gesummv/gesummv, 0.2649, 0.2652, 0.2647,0.2649, 0.2652, 0.2651, 0.2651,0.2651,0.07550018875046582
MultiSource/Benchmarks/ASC_Sequoia/AMGmk/AMGmk, 7.8502, 7.8433, 7.8633,7.8502, 7.8561, 7.8672, 7.8485,7.8561,0.0751573208325862
SingleSource/Benchmarks/Polybench/stencils/fdtd-apml/fdtd-apml, 1.1045, 1.1095, 1.0997,1.1045, 1.1053, 1.1039, 1.1072,1.1053,0.0724309642372134
MultiSource/Benchmarks/Ptrdist/yacr2/yacr2, 0.7062, 0.7063, 0.7066,0.7063, 0.7068, 0.7075, 0.7068,0.7068,0.07079144839303719
MultiSource/Benchmarks/TSVC/ControlLoops-flt/ControlLoops-flt, 3.0712, 3.0592, 3.0622,3.0622, 3.0793, 3.0642, 3.0576,3.0642,0.06531252041017677
SingleSource/Benchmarks/Polybench/linear-algebra/kernels/trisolv/trisolv, 0.1560, 0.1563, 0.1562,0.1562, 0.1563, 0.1563, 0.1563,0.1563,0.0640204865556937
SingleSource/Benchmarks/BenchmarkGame/fannkuch, 2.5119, 2.5190, 2.5148,2.5148, 2.5213, 2.5160, 2.5163,2.5163,0.05964689040878213
SingleSource/Benchmarks/Adobe-C++/simple_types_loop_invariant, 2.2301, 2.2283, 2.2288,2.2288, 2.2303, 2.2301, 2.2290,2.2301,0.058327351040921016
SingleSource/Benchmarks/Polybench/linear-algebra/kernels/doitgen/doitgen, 0.8781, 0.8789, 0.8832,0.8789, 0.8794, 0.8769, 0.8796,0.8794,0.05688929343496962
MultiSource/Benchmarks/TSVC/IndirectAddressing-flt/IndirectAddressing-flt, 4.4310, 4.4114, 4.4148,4.4148, 4.4210, 4.4149, 4.4172,4.4172,0.054362598532220474
MultiSource/Benchmarks/Trimaran/enc-rc4/enc-rc4, 1.0500, 1.0500, 1.0503,1.05, 1.0506, 1.0505, 1.0499,1.0505,0.04761904761905189
SingleSource/Benchmarks/Misc/flops-1, 2.3534, 2.3538, 2.3534,2.3534, 2.3545, 2.3548, 2.3532,2.3545,0.046740885527296605
MultiSource/Benchmarks/Prolangs-C++/life/life, 1.0954, 1.0950, 1.0952,1.0952, 1.0959, 1.0947, 1.0957,1.0957,0.04565376186997927
SingleSource/Benchmarks/Polybench/linear-algebra/solvers/dynprog/dynprog, 0.6726, 0.6710, 0.6743,0.6726, 0.6729, 0.6748, 0.6721,0.6729,0.044603033006263004
MultiSource/Benchmarks/PAQ8p/paq8p,49.5929,49.5693,49.5754,49.5754,49.6455,49.5915,49.5967,49.5967,0.04296485757047108
SingleSource/Benchmarks/Shootout-C++/lists, 4.9635, 4.9645, 4.9662,4.9645, 4.9663, 4.9714, 4.9653,4.9663,0.03625742773694096
MultiSource/Benchmarks/ASC_Sequoia/IRSmk/IRSmk, 4.1955, 4.1898, 4.1909,4.1909, 4.1905, 4.1923, 4.2266,4.1923,0.03340571237682166
SingleSource/Benchmarks/Shootout-C++/matrix, 2.7820, 2.7825, 2.7816,2.782, 2.7828, 2.7830, 2.7827,2.7828,0.028756290438525234
MultiSource/Benchmarks/TSVC/NodeSplitting-dbl/NodeSplitting-dbl, 4.0763, 4.0746, 4.0764,4.0763, 4.0774, 4.0744, 4.0805,4.0774,0.026985256237277433
SingleSource/Benchmarks/Adobe-C++/simple_types_constant_folding, 0.7685, 0.7684, 0.7685,0.7685, 0.7687, 0.7687, 0.7686,0.7687,0.02602472348731677
SingleSource/Benchmarks/Polybench/datamining/covariance/covariance, 3.0859, 3.0810, 3.0834,3.0834, 3.0829, 3.0842, 3.0868,3.0842,0.02594538496465404
SingleSource/Benchmarks/Shootout/methcall, 4.1060, 4.1060, 4.1063,4.106, 4.1070, 4.1078, 4.1062,4.107,0.0243546030199715
MultiSource/Benchmarks/TSVC/Searching-dbl/Searching-dbl, 2.9759, 2.9733, 2.9734,2.9734, 2.9751, 2.9741, 2.9735,2.9741,0.02354207304768874
SingleSource/Benchmarks/Shootout-C++/ackermann, 0.9981, 0.9987, 0.9973,0.9981, 0.9983, 0.9981, 0.9986,0.9983,0.02003807233743604
SingleSource/Benchmarks/Shootout/matrix, 2.5281, 2.5285, 2.5280,2.5281, 2.5286, 2.5290, 2.5281,2.5286,0.01977769866698953
SingleSource/Benchmarks/BenchmarkGame/n-body, 1.1306, 1.1307, 1.1305,1.1306, 1.1310, 1.1304, 1.1308,1.1308,0.01768972227136345
MultiSource/Benchmarks/TSVC/GlobalDataFlow-dbl/GlobalDataFlow-dbl, 4.0314, 4.0309, 4.0338,4.0314, 4.0323, 4.0307, 4.0321,4.0321,0.017363694994299017
SingleSource/Benchmarks/Polybench/stencils/seidel-2d/seidel-2d, 0.5902, 0.5907, 0.5903,0.5903, 0.5904, 0.5902, 0.5907,0.5904,0.01694053870913148
SingleSource/Benchmarks/Polybench/datamining/correlation/correlation, 3.0909, 3.0973, 3.0999,3.0973, 3.1035, 3.0909, 3.0978,3.0978,0.016143092370768386
SingleSource/Benchmarks/Polybench/stencils/adi/adi, 3.7303, 3.7313, 3.7327,3.7313, 3.7337, 3.7284, 3.7319,3.7319,0.016080186530165186
MultiSource/Benchmarks/TSVC/Packing-dbl/Packing-dbl, 3.7889, 3.7896, 3.7920,3.7896, 3.7909, 3.7902, 3.7899,3.7902,0.015832805573134934
SingleSource/Benchmarks/Misc-C++/Large/sphereflake, 5.6434, 5.6402, 5.6410,5.641, 5.6432, 5.6410, 5.6418,5.6418,0.014181882644925814
SingleSource/Benchmarks/Shootout-C++/random, 3.0343, 3.0343, 3.0347,3.0343, 3.0347, 3.0352, 3.0344,3.0347,0.013182612134587934
SingleSource/Benchmarks/Misc/oourafft, 4.0111, 4.0102, 4.0105,4.0105, 4.0133, 4.0110, 4.0097,4.011,0.012467273407290591
SingleSource/Benchmarks/Shootout-C++/fibo, 2.6215, 2.6206, 2.6202,2.6206, 2.6207, 2.6225, 2.6209,2.6209,0.011447760054950074
SingleSource/Benchmarks/CoyoteBench/almabench,13.6782,13.6776,13.6807,13.6782,13.6797,13.6839,13.6789,13.6797,0.01096635522217504
MultiSource/Benchmarks/TSVC/StatementReordering-flt/StatementReordering-flt, 2.7603, 2.7612, 2.7618,2.7612, 2.7615, 2.7615, 2.7602,2.7615,0.010864841373314782
MultiSource/Benchmarks/Ptrdist/ks/ks, 1.9842, 1.9827, 1.9777,1.9827, 1.9774, 1.9829, 1.9831,1.9829,0.010087254753621266
MultiSource/Benchmarks/MallocBench/cfrac/cfrac, 1.1441, 1.1440, 1.1439,1.144, 1.1439, 1.1445, 1.1441,1.1441,0.008741258741262747
SingleSource/Benchmarks/Adobe-C++/loop_unroll, 1.1456, 1.1456, 1.1457,1.1456, 1.1457, 1.1460, 1.1455,1.1457,0.008729050279332462
MultiSource/Benchmarks/VersaBench/dbms/dbms, 1.2394, 1.2361, 1.2394,1.2394, 1.2410, 1.2358, 1.2395,1.2395,0.008068420203333204
SingleSource/Benchmarks/Misc/flops-2, 1.3382, 1.3382, 1.3380,1.3382, 1.3383, 1.3383, 1.3377,1.3383,0.007472724555368515
MultiSource/Benchmarks/TSVC/Expansion-dbl/Expansion-dbl, 3.8613, 3.8640, 3.8658,3.864, 3.8662, 3.8623, 3.8642,3.8642,0.00517598343685588
SingleSource/Benchmarks/McGill/queens, 2.2124, 2.2126, 2.2130,2.2126, 2.2123, 2.2135, 2.2127,2.2127,0.004519569736949336
SingleSource/Benchmarks/Misc/flops-7, 2.3532, 2.3535, 2.3528,2.3532, 2.3533, 2.3530, 2.3533,2.3533,0.00424953255140359
MultiSource/Benchmarks/TSVC/InductionVariable-dbl/InductionVariable-dbl, 4.4557, 4.4539, 4.4546,4.4546, 4.4564, 4.4547, 4.4539,4.4547,0.0022448704709576717
MultiSource/Benchmarks/VersaBench/8b10b/8b10b, 4.9003, 4.9450, 4.9463,4.945, 4.9488, 4.9446, 4.9451,4.9451,0.00202224469161294
SingleSource/Benchmarks/Misc/flops, 7.9158, 7.9166, 7.9158,7.9158, 7.9159, 7.9144, 7.9178,7.9159,0.0012632961924330388
SingleSource/Benchmarks/Stanford/Treesort, 0.0695, 0.0695, 0.0697,0.0695, 0.0695, 0.0694, 0.0695,0.0695,0.0
SingleSource/Benchmarks/Shootout/strcat, 0.1351, 0.1349, 0.1349,0.1349, 0.1350, 0.1349, 0.1349,0.1349,0.0
SingleSource/Benchmarks/Shootout-C++/nestedloop, 0.0015, 0.0015, 0.0015,0.0015, 0.0015, 0.0015, 0.0015,0.0015,0.0
SingleSource/Benchmarks/Polybench/medley/reg_detect/reg_detect, 0.0172, 0.0171, 0.0171,0.0171, 0.0171, 0.0170, 0.0172,0.0171,0.0
SingleSource/Benchmarks/Polybench/linear-algebra/solvers/lu/lu, 0.0028, 0.0028, 0.0028,0.0028, 0.0028, 0.0028, 0.0028,0.0028,0.0
SingleSource/Benchmarks/Polybench/linear-algebra/solvers/durbin/durbin, 0.4575, 0.4573, 0.4574,0.4574, 0.4574, 0.4575, 0.4572,0.4574,0.0
SingleSource/Benchmarks/Polybench/linear-algebra/kernels/mvt/mvt, 0.2789, 0.2788, 0.2790,0.2789, 0.2789, 0.2791, 0.2788,0.2789,0.0
SingleSource/Benchmarks/Misc/mandel, 0.8816, 0.8817, 0.8810,0.8816, 0.8822, 0.8816, 0.8814,0.8816,0.0
SingleSource/Benchmarks/Misc/fp-convert, 1.4977, 1.4983, 1.4981,1.4981, 1.4988, 1.4981, 1.4977,1.4981,0.0
SingleSource/Benchmarks/Misc-C++/mandel-text, 1.6623, 1.6619, 1.6621,1.6621, 1.6630, 1.6621, 1.6618,1.6621,0.0
SingleSource/Benchmarks/Linpack/linpack-pc, 2.2746, 2.2754, 2.2755,2.2754, 2.2754, 2.2754, 2.2767,2.2754,0.0
MultiSource/Benchmarks/mediabench/gsm/toast/toast, 0.0251, 0.0252, 0.0250,0.0251, 0.0251, 0.0250, 0.0252,0.0251,0.0
MultiSource/Benchmarks/Prolangs-C++/primes/primes, 0.3036, 0.3027, 0.3029,0.3029, 0.3029, 0.3034, 0.3018,0.3029,0.0
MultiSource/Benchmarks/Olden/bh/bh, 1.5124, 1.5117, 1.5134,1.5124, 1.5124, 1.5128, 1.5120,1.5124,0.0
MultiSource/Benchmarks/FreeBench/pcompress2/pcompress2, 0.1383, 0.1386, 0.1382,0.1383, 0.1385, 0.1383, 0.1382,0.1383,0.0
MultiSource/Benchmarks/BitBench/uuencode/uuencode, 0.0171, 0.0170, 0.0171,0.0171, 0.0171, 0.0171, 0.0171,0.0171,0.0
MultiSource/Applications/d/make_dparser, 0.0270, 0.0268, 0.0266,0.0268, 0.0268, 0.0269, 0.0268,0.0268,0.0
SingleSource/Benchmarks/Misc/salsa20, 6.6483, 6.6487, 6.6480,6.6483, 6.6483, 6.6476, 6.6482,6.6482,-0.0015041439164864556
SingleSource/Benchmarks/Misc/ReedSolomon, 5.6619, 5.6617, 5.6619,5.6619, 5.6618, 5.6613, 5.6649,5.6618,-0.0017661915611366652
MultiSource/Benchmarks/sim/sim, 4.9829, 4.9818, 4.9841,4.9829, 4.9827, 4.9827, 4.9815,4.9827,-0.004013726946150431
SingleSource/Benchmarks/SmallPT/smallpt, 9.8909, 9.8884, 9.8878,9.8884, 9.8894, 9.8878, 9.8880,9.888,-0.0040451438048760835
MultiSource/Applications/obsequi/Obsequi, 1.6855, 1.6842, 1.6856,1.6855, 1.6858, 1.6844, 1.6854,1.6854,-0.005932957579357634
SingleSource/Benchmarks/Shootout-C++/methcall, 4.7144, 4.7145, 4.7151,4.7145, 4.7142, 4.7156, 4.7138,4.7142,-0.006363347120585949
SingleSource/Benchmarks/Misc/whetstone, 1.3211, 1.3216, 1.3206,1.3211, 1.3210, 1.3209, 1.3212,1.321,-0.007569449701005926
SingleSource/Benchmarks/BenchmarkGame/partialsums, 1.1254, 1.1256, 1.1256,1.1256, 1.1259, 1.1252, 1.1255,1.1255,-0.008884150675192437
SingleSource/Benchmarks/Misc/dt, 1.0120, 1.0126, 1.0123,1.0123, 1.0130, 1.0120, 1.0122,1.0122,-0.00987849451743461
MultiSource/Benchmarks/TSVC/ControlFlow-flt/ControlFlow-flt, 3.8039, 3.7898, 3.7950,3.795, 3.8057, 3.7946, 3.7859,3.7946,-0.01054018445322269
SingleSource/Benchmarks/Misc/matmul_f64_4x4, 0.7800, 0.7801, 0.7805,0.7801, 0.7800, 0.7798, 0.7801,0.78,-0.012818869375719188
SingleSource/Benchmarks/Shootout/lists, 6.1995, 6.1981, 6.1999,6.1995, 6.2009, 6.1987, 6.1971,6.1987,-0.012904266473101611
MultiSource/Benchmarks/TSVC/ControlLoops-dbl/ControlLoops-dbl, 3.8303, 3.8297, 3.8314,3.8303, 3.8313, 3.8290, 3.8298,3.8298,-0.013053807795726513
SingleSource/Benchmarks/BenchmarkGame/spectral-norm, 1.2609, 1.2608, 1.2608,1.2608, 1.2608, 1.2606, 1.2605,1.2606,-0.015862944162436943
SingleSource/Benchmarks/Shootout/random, 3.0475, 3.0480, 3.0482,3.048, 3.0475, 3.0488, 3.0468,3.0475,-0.01640419947507299
SingleSource/Benchmarks/Misc/flops-3, 1.8192, 1.8194, 1.8191,1.8192, 1.8191, 1.8188, 1.8189,1.8189,-0.016490765171506272
MultiSource/Benchmarks/VersaBench/bmm/bmm, 1.7447, 1.7448, 1.7452,1.7448, 1.7445, 1.7432, 1.7446,1.7445,-0.017193947730398396
MultiSource/Benchmarks/TSVC/ControlFlow-dbl/ControlFlow-dbl, 4.4530, 4.4515, 4.4532,4.453, 4.4530, 4.4522, 4.4500,4.4522,-0.017965416573095805
MultiSource/Benchmarks/TSVC/CrossingThresholds-dbl/CrossingThresholds-dbl, 3.6554, 3.6548, 3.6561,3.6554, 3.6557, 3.6537, 3.6547,3.6547,-0.019149751053237907
SingleSource/Benchmarks/Misc/flops-5, 1.3912, 1.3916, 1.3917,1.3916, 1.3912, 1.3913, 1.3917,1.3913,-0.021557918942227694
SingleSource/Benchmarks/Misc/mandel-2, 0.9140, 0.9144, 0.9142,0.9142, 0.9141, 0.9139, 0.9140,0.914,-0.021877050973528878
MultiSource/Benchmarks/Olden/em3d/em3d, 2.7288, 2.7294, 2.7305,2.7294, 2.7294, 2.7279, 2.7288,2.7288,-0.021982853374369338
MultiSource/Benchmarks/TSVC/Recurrences-flt/Recurrences-flt, 3.2948, 3.2934, 3.2943,3.2943, 3.2952, 3.2927, 3.2935,3.2935,-0.0242843699723716
SingleSource/Benchmarks/Shootout/hash, 4.0908, 4.0789, 4.0845,4.0845, 4.0968, 4.0835, 4.0825,4.0835,-0.024482800832426044
SingleSource/Benchmarks/Misc/flops-8, 1.7658, 1.7660, 1.7662,1.766, 1.7658, 1.7652, 1.7655,1.7655,-0.028312570781419133
MultiSource/Benchmarks/TSVC/Equivalencing-dbl/Equivalencing-dbl, 2.3096, 2.3063, 2.3070,2.307, 2.3083, 2.3063, 2.2949,2.3063,-0.030342436064156875
MultiSource/Benchmarks/BitBench/drop3/drop3, 0.3298, 0.3294, 0.3294,0.3294, 0.3293, 0.3293, 0.3293,0.3293,-0.030358227079552158
SingleSource/Benchmarks/BenchmarkGame/Large/fasta, 0.9001, 0.9002, 0.8994,0.9001, 0.8998, 0.9000, 0.8996,0.8998,-0.03332963004110123
SingleSource/Benchmarks/Misc/pi, 0.5936, 0.5938, 0.5938,0.5938, 0.5938, 0.5936, 0.5935,0.5936,-0.03368137420006745
MultiSource/Benchmarks/Olden/voronoi/voronoi, 0.2925, 0.2922, 0.2929,0.2925, 0.2924, 0.2922, 0.2926,0.2924,-0.034188034188031846
MultiSource/Benchmarks/BitBench/five11/five11, 2.0362, 2.0317, 2.0338,2.0338, 2.0331, 2.0399, 2.0320,2.0331,-0.03441833021927687
MultiSource/Benchmarks/TSVC/IndirectAddressing-dbl/IndirectAddressing-dbl, 4.6084, 4.6051, 4.6106,4.6084, 4.6116, 4.6068, 4.6068,4.6068,-0.03471920840204534
MultiSource/Benchmarks/SciMark2-C/scimark2,41.1880,41.1698,41.1883,41.188,41.1731,41.1652,41.1822,41.1731,-0.03617558512188923
MultiSource/Benchmarks/TSVC/Recurrences-dbl/Recurrences-dbl, 3.8332, 3.8303, 3.8314,3.8314, 3.8339, 3.8300, 3.8299,3.83,-0.036540168084764346
MultiSource/Benchmarks/Trimaran/netbench-url/netbench-url, 2.9452, 2.9446, 2.9470,2.9452, 2.9462, 2.9441, 2.9440,2.9441,-0.0373489066956334
MultiSource/Benchmarks/TSVC/StatementReordering-dbl/StatementReordering-dbl, 3.8536, 3.8524, 3.8546,3.8536, 3.8548, 3.8517, 3.8521,3.8521,-0.038924641893300915
MultiSource/Benchmarks/7zip/7zip-benchmark, 8.1014, 8.0972, 8.1019,8.1014, 8.1007, 8.0982, 8.0960,8.0982,-0.03949934579208225
SingleSource/Benchmarks/Polybench/linear-algebra/kernels/bicg/bicg, 0.2494, 0.2501, 0.2494,0.2494, 0.2497, 0.2493, 0.2493,0.2493,-0.040096230954300704
MultiSource/Benchmarks/TSVC/Searching-flt/Searching-flt, 2.6453, 2.6447, 2.6455,2.6453, 2.6462, 2.6442, 2.6442,2.6442,-0.041583185271998335
MultiSource/Benchmarks/VersaBench/ecbdes/ecbdes, 2.6329, 2.6321, 2.6325,2.6325, 2.6325, 2.6309, 2.6314,2.6314,-0.041785375118696955
MultiSource/Benchmarks/Trimaran/netbench-crc/netbench-crc, 0.7067, 0.7026, 0.7029,0.7029, 0.7029, 0.7026, 0.7024,0.7026,-0.042680324370458766
MultiSource/Benchmarks/TSVC/Reductions-flt/Reductions-flt, 6.6803, 6.6857, 6.6892,6.6857, 6.6828, 6.6855, 6.6798,6.6828,-0.04337616106016018
MultiSource/Benchmarks/ASC_Sequoia/CrystalMk/CrystalMk, 5.5213, 5.5209, 5.5215,5.5213, 5.5233, 5.5160, 5.5189,5.5189,-0.04346802383495829
SingleSource/Benchmarks/Misc/flops-6, 1.3786, 1.3818, 1.3779,1.3786, 1.3785, 1.3780, 1.3778,1.378,-0.043522414043239976
MultiSource/Benchmarks/Trimaran/enc-md5/enc-md5, 1.5699, 1.5690, 1.5699,1.5699, 1.5702, 1.5692, 1.5688,1.5692,-0.04458882731385172
MultiSource/Benchmarks/TSVC/Reductions-dbl/Reductions-dbl, 3.5648, 3.5634, 3.5646,3.5646, 3.5643, 3.5628, 3.5630,3.563,-0.04488582169106525
MultiSource/Benchmarks/Olden/treeadd/treeadd, 0.2180, 0.2182, 0.2184,0.2182, 0.2184, 0.2181, 0.2181,0.2181,-0.04582951420715187
MultiSource/Benchmarks/Trimaran/enc-pc1/enc-pc1, 0.6508, 0.6500, 0.6507,0.6507, 0.6508, 0.6504, 0.6502,0.6504,-0.04610419548178868
MultiSource/Benchmarks/NPB-serial/is/is, 7.3170, 7.3146, 7.3161,7.3161, 7.3160, 7.3126, 7.3127,7.3127,-0.04647284755537884
MultiSource/Benchmarks/Fhourstones-3.1/fhourstones3.1, 1.0694, 1.0697, 1.0698,1.0697, 1.0698, 1.0691, 1.0692,1.0692,-0.046742077217931666
MultiSource/Applications/hexxagon/hexxagon,10.9265,10.9220,10.9268,10.9265,10.9251,10.9207,10.9211,10.9211,-0.049421132110027965
SingleSource/Regression/C/uint64_to_float, 0.3997, 0.3995, 0.3993,0.3995, 0.3990, 0.3997, 0.3993,0.3993,-0.050062578222787035
MultiSource/Benchmarks/TSVC/Symbolics-dbl/Symbolics-dbl, 3.3044, 3.3005, 3.3009,3.3009, 3.3045, 3.2992, 3.2952,3.2992,-0.051501105759033106
MultiSource/Benchmarks/VersaBench/beamformer/beamformer, 1.1567, 1.1560, 1.1563,1.1563, 1.1558, 1.1555, 1.1557,1.1557,-0.05188964801523532
SingleSource/Benchmarks/McGill/misr, 0.1882, 0.1879, 0.1879,0.1879, 0.1878, 0.1877, 0.1878,0.1878,-0.05321979776478081
MultiSource/Benchmarks/MiBench/telecomm-gsm/telecomm-gsm, 0.1774, 0.1772, 0.1777,0.1774, 0.1774, 0.1771, 0.1773,0.1773,-0.05636978579480756
MultiSource/Applications/viterbi/viterbi, 1.9268, 1.9255, 1.9256,1.9256, 1.9242, 1.9246, 1.9245,1.9245,-0.057125051931861126
MultiSource/Benchmarks/Olden/tsp/tsp, 1.1636, 1.1641, 1.1642,1.1641, 1.1623, 1.1635, 1.1634,1.1634,-0.06013229104028239
MultiSource/Benchmarks/TSVC/LoopRestructuring-dbl/LoopRestructuring-dbl, 4.4919, 4.4793, 4.4872,4.4872, 4.4845, 4.4871, 4.4834,4.4845,-0.060171153503296715
SingleSource/Benchmarks/BenchmarkGame/nsieve-bits, 0.7071, 0.7075, 0.7052,0.7071, 0.7070, 0.7066, 0.7025,0.7066,-0.0707113562438022
SingleSource/Benchmarks/Misc/perlin, 4.5140, 4.5146, 4.5172,4.5146, 4.5129, 4.5110, 4.5113,4.5113,-0.07309617684843062
MultiSource/Benchmarks/nbench/nbench, 1.7779, 1.7773, 1.7779,1.7779, 1.7770, 1.7766, 1.7764,1.7766,-0.07311997300185613
MultiSource/Benchmarks/TSVC/LoopRerolling-dbl/LoopRerolling-dbl, 4.2135, 4.2085, 4.2126,4.2126, 4.2110, 4.2092, 4.2089,4.2092,-0.08071025020177647
MultiSource/Benchmarks/Trimaran/enc-3des/enc-3des, 1.9472, 1.9464, 1.9470,1.947, 1.9475, 1.9454, 1.9451,1.9454,-0.08217770929636048
SingleSource/Benchmarks/Stanford/Puzzle, 0.1207, 0.1208, 0.1210,0.1208, 0.1207, 0.1214, 0.1207,0.1207,-0.08278145695364003
SingleSource/Benchmarks/Shootout-C++/EH/except, 0.2212, 0.2219, 0.2241,0.2219, 0.2216, 0.2234, 0.2217,0.2217,-0.09013068949976777
MultiSource/Benchmarks/TSVC/InductionVariable-flt/InductionVariable-flt, 3.3154, 3.3087, 3.3330,3.3154, 3.3297, 3.3033, 3.3124,3.3124,-0.0904868190866881
SingleSource/Benchmarks/Shootout-C++/lists1, 0.2190, 0.2193, 0.2193,0.2193, 0.2189, 0.2191, 0.2193,0.2191,-0.09119927040583953
SingleSource/Benchmarks/Misc/fbench, 1.6318, 1.6411, 1.6348,1.6348, 1.6333, 1.6291, 1.6416,1.6333,-0.09175434303890784
MultiSource/Benchmarks/McCat/04-bisect/bisect, 0.1066, 0.1066, 0.1065,0.1066, 0.1065, 0.1068, 0.1064,0.1065,-0.09380863039399889
SingleSource/Benchmarks/Adobe-C++/functionobjects, 3.5382, 3.5380, 3.5339,3.538, 3.5432, 3.5336, 3.5345,3.5345,-0.0989259468626269
SingleSource/Benchmarks/Polybench/linear-algebra/kernels/atax/atax, 0.1971, 0.1968, 0.1971,0.1971, 0.1969, 0.1965, 0.1975,0.1969,-0.10147133434804667
MultiSource/Benchmarks/mafft/pairlocalalign,24.2193,24.2109,24.2143,24.2143,24.2095,24.1897,24.1897,24.1897,-0.10159286041719895
MultiSource/Benchmarks/DOE-ProxyApps-C/XSBench/XSBench, 3.0650, 3.0693, 3.0693,3.0693, 3.0660, 3.0658, 3.0670,3.066,-0.10751637181116713
MultiSource/Benchmarks/FreeBench/fourinarow/fourinarow, 0.2650, 0.2644, 0.2646,0.2646, 0.2643, 0.2641, 0.2643,0.2643,-0.11337868480726376
MultiSource/Applications/spiff/spiff, 2.1181, 2.1179, 2.1183,2.1181, 2.1110, 2.1158, 2.1156,2.1156,-0.11803031018364774
SingleSource/Benchmarks/Stanford/FloatMM, 0.3379, 0.3374, 0.3378,0.3378, 0.3374, 0.3378, 0.3374,0.3374,-0.1184132622853773
MultiSource/Benchmarks/TSVC/NodeSplitting-flt/NodeSplitting-flt, 3.0381, 3.0313, 3.0330,3.033, 3.0343, 3.0176, 3.0294,3.0294,-0.11869436201780159
SingleSource/Benchmarks/Misc/richards_benchmark, 0.9898, 0.9892, 0.9884,0.9892, 0.9878, 0.9880, 0.9888,0.988,-0.12131014961584974
MultiSource/Benchmarks/TSVC/LinearDependence-dbl/LinearDependence-dbl, 3.6854, 3.6825, 3.6881,3.6854, 3.6835, 3.6809, 3.6805,3.6809,-0.1221034351766459
SingleSource/Benchmarks/Polybench/linear-algebra/solvers/gramschmidt/gramschmidt, 5.2271, 5.2244, 5.2268,5.2268, 5.2272, 5.2203, 5.2189,5.2203,-0.12435907247263511
MultiSource/Benchmarks/Olden/bisort/bisort, 0.4756, 0.4767, 0.4769,0.4767, 0.4761, 0.4766, 0.4757,0.4761,-0.1258653241032026
SingleSource/Benchmarks/Shootout-C++/heapsort, 2.1417, 2.1474, 2.1463,2.1463, 2.1496, 2.1425, 2.1434,2.1434,-0.1351162465638489
MultiSource/Applications/JM/lencod/lencod, 5.3130, 5.3204, 5.3214,5.3204, 5.3168, 5.3128, 5.2980,5.3128,-0.14284640252613112
MultiSource/Benchmarks/McCat/01-qbsort/qbsort, 0.0688, 0.0689, 0.0689,0.0689, 0.0684, 0.0691, 0.0688,0.0688,-0.14513788098694524
SingleSource/Benchmarks/BenchmarkGame/puzzle, 0.1340, 0.1339, 0.1341,0.134, 0.1338, 0.1338, 0.1336,0.1338,-0.14925373134329067
SingleSource/Benchmarks/Polybench/linear-algebra/kernels/syrk/syrk, 2.3698, 2.3760, 2.3804,2.376, 2.3816, 2.3724, 2.3706,2.3724,-0.15151515151515804
MultiSource/Benchmarks/McCat/09-vor/vor, 0.1174, 0.1174, 0.1169,0.1174, 0.1172, 0.1171, 0.1174,0.1172,-0.17035775127768327
MultiSource/Benchmarks/Prolangs-C++/ocean/ocean, 0.0561, 0.0559, 0.0561,0.0561, 0.0558, 0.0563, 0.0560,0.056,-0.17825311942958333
SingleSource/Benchmarks/Shootout-C++/hash, 0.5376, 0.5384, 0.5396,0.5384, 0.5368, 0.5374, 0.5374,0.5374,-0.1857355126300142
SingleSource/Benchmarks/CoyoteBench/huffbench,18.8298,18.8066,18.8175,18.8175,18.8038,18.7662,18.7817,18.7817,-0.19024843895308896
MultiSource/Benchmarks/McCat/17-bintr/bintr, 0.1053, 0.1045, 0.1051,0.1051, 0.1047, 0.1050, 0.1049,0.1049,-0.19029495718364542
SingleSource/Benchmarks/Polybench/medley/floyd-warshall/floyd-warshall, 2.6204, 2.6175, 2.6247,2.6204, 2.6154, 2.6179, 2.6109,2.6154,-0.1908105632727808
MultiSource/Benchmarks/TSVC/CrossingThresholds-flt/CrossingThresholds-flt, 2.5640, 2.5510, 2.5674,2.564, 2.5638, 2.5580, 2.5591,2.5591,-0.19110764430577687
MultiSource/Benchmarks/FreeBench/pifft/pifft, 0.0979, 0.0979, 0.0979,0.0979, 0.0979, 0.0977, 0.0976,0.0977,-0.20429009193054792
SingleSource/Benchmarks/Shootout/sieve, 5.6383, 5.6411, 5.6368,5.6383, 5.6405, 5.6265, 5.6252,5.6265,-0.20928293989322944
MultiSource/Benchmarks/Olden/health/health, 0.2780, 0.2780, 0.2787,0.278, 0.2774, 0.2777, 0.2770,0.2774,-0.21582733812951505
MultiSource/Benchmarks/Olden/perimeter/perimeter, 0.2177, 0.2185, 0.2184,0.2184, 0.2179, 0.2178, 0.2181,0.2179,-0.22893772893772812
MultiSource/Benchmarks/Prolangs-C/gnugo/gnugo, 0.0435, 0.0435, 0.0437,0.0435, 0.0432, 0.0434, 0.0434,0.0434,-0.22988505747125743
MultiSource/Benchmarks/MiBench/automotive-bitcount/automotive-bitcount, 0.0850, 0.0850, 0.0845,0.085, 0.0845, 0.0848, 0.0848,0.0848,-0.23529411764706687
MultiSource/Applications/oggenc/oggenc, 0.1251, 0.1251, 0.1251,0.1251, 0.1248, 0.1246, 0.1251,0.1248,-0.23980815347721673
MultiSource/Benchmarks/TSVC/Equivalencing-flt/Equivalencing-flt, 1.4801, 1.4789, 1.4695,1.4789, 1.4811, 1.4702, 1.4753,1.4753,-0.24342416661031763
MultiSource/Benchmarks/MiBench/telecomm-FFT/telecomm-fft, 0.0410, 0.0409, 0.0406,0.0409, 0.0406, 0.0408, 0.0409,0.0408,-0.24449877750610804
MultiSource/Benchmarks/McCat/08-main/main, 0.0403, 0.0404, 0.0402,0.0403, 0.0402, 0.0402, 0.0405,0.0402,-0.2481389578163795
SingleSource/Benchmarks/Stanford/Bubblesort, 0.0394, 0.0392, 0.0390,0.0392, 0.0391, 0.0391, 0.0392,0.0391,-0.25510204081631294
SingleSource/Benchmarks/Misc-C++/bigfib, 0.3352, 0.3359, 0.3363,0.3359, 0.3350, 0.3348, 0.3354,0.335,-0.2679368859779596
MultiSource/Benchmarks/BitBench/uudecode/uudecode, 0.1007, 0.1005, 0.1003,0.1005, 0.1000, 0.1005, 0.1002,0.1002,-0.29850746268657025
MultiSource/Benchmarks/McCat/18-imp/imp, 0.0629, 0.0625, 0.0628,0.0628, 0.0628, 0.0626, 0.0626,0.0626,-0.31847133757960666
MultiSource/Benchmarks/MiBench/automotive-basicmath/automotive-basicmath, 0.3043, 0.3040, 0.3047,0.3043, 0.3033, 0.3033, 0.3032,0.3033,-0.32862306933947316
SingleSource/Benchmarks/Adobe-C++/stepanov_vector, 2.5962, 2.5971, 2.5977,2.5971, 2.5868, 2.5859, 2.5868,2.5868,-0.39659620345769975
MultiSource/Benchmarks/MiBench/consumer-lame/consumer-lame, 0.2146, 0.2147, 0.2145,0.2146, 0.2137, 0.2139, 0.2134,0.2137,-0.41938490214352697
MultiSource/Applications/lambda-0.1.3/lambda, 4.3146, 4.3144, 4.3133,4.3144, 4.2987, 4.2958, 4.2947,4.2958,-0.43111440756536945
MultiSource/Benchmarks/MiBench/telecomm-CRC32/telecomm-CRC32, 0.2693, 0.2673, 0.2689,0.2689, 0.2674, 0.2687, 0.2674,0.2674,-0.5578281889177972
MultiSource/Benchmarks/TSVC/Expansion-flt/Expansion-flt, 2.1497, 2.1694, 2.1786,2.1694, 2.1666, 2.1559, 2.1506,2.1559,-0.6222918779386077
MultiSource/Benchmarks/mediabench/g721/g721encode/encode, 0.0420, 0.0424, 0.0424,0.0424, 0.0420, 0.0421, 0.0421,0.0421,-0.7075471698113289
MultiSource/Benchmarks/MiBench/network-dijkstra/network-dijkstra, 0.0394, 0.0395, 0.0394,0.0394, 0.0391, 0.0390, 0.0391,0.0391,-0.7614213197969399
SingleSource/Benchmarks/Shootout-C++/hash2, 2.7732, 2.7752, 2.7737,2.7737, 2.7524, 2.7548, 2.7521,2.7524,-0.7679273173017864
MultiSource/Benchmarks/Olden/mst/mst, 0.0800, 0.0803, 0.0807,0.0803, 0.0796, 0.0794, 0.0802,0.0796,-0.8717310087173025
MultiSource/Benchmarks/Ptrdist/bc/bc, 0.5792, 0.5794, 0.5788,0.5792, 0.5726, 0.5737, 0.5728,0.5728,-1.104972375690616
MultiSource/Applications/siod/siod, 2.8147, 2.8145, 2.8144,2.8145, 2.7627, 2.7629, 2.7635,2.7629,-1.8333629419079678
SingleSource/Benchmarks/Stanford/Quicksort, 0.0382, 0.0382, 0.0384,0.0382, 0.0370, 0.0368, 0.0366,0.0368,-3.6649214659685847
Total elapsed time,-,-,-,687.0946,-,-,-,687.3048000000007,0.030592585067723554
Total failure,-,-,-,0,-,-,-,0,
Geom. avg slowdown,,,,,,,,,-0.00166833963655%
