Benchmarks,base-4.0,base-4.0,base-4.0,median,intptr-4.0-nocapture,intptr-4.0-nocapture,intptr-4.0-nocapture,median,Slowdown(%)
MultiSource/Benchmarks/Ptrdist/anagram/anagram, 0.6870, 0.6836, 0.6828,0.6836, 0.7106, 0.7144, 0.7087,0.7106,3.949678174370974
MultiSource/Applications/ALAC/encode/alacconvert-encode, 0.0283, 0.0282, 0.0283,0.0283, 0.0289, 0.0290, 0.0292,0.029,2.4734982332155653
SingleSource/Benchmarks/Misc-C++-EH/spirit, 2.6113, 2.6147, 2.6114,2.6114, 2.6563, 2.6554, 2.6603,2.6563,1.7193842383395719
MultiSource/Benchmarks/TSVC/Packing-flt/Packing-flt, 2.0893, 2.0948, 2.0917,2.0917, 2.1184, 2.1169, 2.1220,2.1184,1.2764736816943234
MultiSource/Benchmarks/BitBench/uuencode/uuencode, 0.0111, 0.0111, 0.0110,0.0111, 0.0111, 0.0112, 0.0112,0.0112,0.9009009009008917
SingleSource/Benchmarks/Shootout/ary3, 0.5888, 0.5866, 0.5929,0.5888, 0.5923, 0.5941, 0.5986,0.5941,0.9001358695652106
MultiSource/Applications/d/make_dparser, 0.0160, 0.0159, 0.0159,0.0159, 0.0160, 0.0160, 0.0161,0.016,0.6289308176100628
SingleSource/Benchmarks/Shootout-C++/moments, 0.0507, 0.0505, 0.0506,0.0506, 0.0509, 0.0509, 0.0508,0.0509,0.5928853754940677
MultiSource/Benchmarks/Olden/mst/mst, 0.0520, 0.0520, 0.0523,0.052, 0.0519, 0.0523, 0.0525,0.0523,0.5769230769230749
MultiSource/Benchmarks/ASCI_Purple/SMG2000/smg2000, 1.1733, 1.1742, 1.1731,1.1733, 1.1711, 1.1800, 1.1808,1.18,0.5710389499701707
MultiSource/Benchmarks/Prolangs-C/gnugo/gnugo, 0.0240, 0.0240, 0.0241,0.024, 0.0241, 0.0241, 0.0241,0.0241,0.4166666666666652
MultiSource/Benchmarks/TSVC/Symbolics-flt/Symbolics-flt, 1.3923, 1.3926, 1.3889,1.3923, 1.4000, 1.3980, 1.3877,1.398,0.4093945270415622
MultiSource/Benchmarks/PAQ8p/paq8p,43.9233,43.9134,43.9448,43.9233,44.0866,44.0843,44.0540,44.0843,0.3665480508067587
MultiSource/Applications/kimwitu++/kc, 0.0281, 0.0280, 0.0279,0.028, 0.0283, 0.0281, 0.0279,0.0281,0.3571428571428559
MultiSource/Benchmarks/Olden/bisort/bisort, 0.3658, 0.3654, 0.3668,0.3658, 0.3671, 0.3657, 0.3684,0.3671,0.35538545653361897
SingleSource/Benchmarks/Shootout-C++/EH/except, 0.1208, 0.1203, 0.1205,0.1205, 0.1207, 0.1210, 0.1209,0.1209,0.3319502074688785
SingleSource/Benchmarks/Shootout-C++/lists, 2.9684, 2.9728, 2.9754,2.9728, 2.9896, 2.9781, 2.9825,2.9825,0.3262917115177677
MultiSource/Benchmarks/7zip/7zip-benchmark, 6.4124, 6.4029, 6.4066,6.4066, 6.4245, 6.4259, 6.4325,6.4259,0.30125183404614564
MultiSource/Benchmarks/ASC_Sequoia/AMGmk/AMGmk, 5.0486, 5.0512, 5.0469,5.0486, 5.0645, 5.0635, 5.0553,5.0635,0.29513132353522487
MultiSource/Benchmarks/Ptrdist/ks/ks, 0.6636, 0.6635, 0.6575,0.6635, 0.6695, 0.6597, 0.6653,0.6653,0.2712886209495169
MultiSource/Benchmarks/Ptrdist/bc/bc, 0.3579, 0.3580, 0.3583,0.358, 0.3591, 0.3589, 0.3588,0.3589,0.2513966480446994
MultiSource/Benchmarks/TSVC/ControlLoops-dbl/ControlLoops-dbl, 2.5382, 2.5303, 2.5317,2.5317, 2.5385, 2.5294, 2.5380,2.538,0.24884464984002985
MultiSource/Benchmarks/mafft/pairlocalalign,26.2184,26.2209,26.2179,26.2184,26.2772,26.2778,26.2775,26.2775,0.22541421291917274
MultiSource/Benchmarks/Fhourstones-3.1/fhourstones3.1, 0.7937, 0.7968, 0.7952,0.7952, 0.7937, 0.7970, 0.7969,0.7969,0.21378269617706724
SingleSource/Benchmarks/Shootout/heapsort, 2.0289, 2.0340, 2.0275,2.0289, 2.0185, 2.0333, 2.0331,2.0331,0.20700872393908387
SingleSource/Benchmarks/Polybench/stencils/jacobi-2d-imper/jacobi-2d-imper, 0.1460, 0.1456, 0.1463,0.146, 0.1464, 0.1459, 0.1463,0.1463,0.205479452054802
MultiSource/Benchmarks/TSVC/GlobalDataFlow-flt/GlobalDataFlow-flt, 1.5026, 1.5017, 1.4986,1.5017, 1.5009, 1.5045, 1.5095,1.5045,0.1864553506026434
MultiSource/Benchmarks/Olden/tsp/tsp, 1.0827, 1.0828, 1.0829,1.0828, 1.0844, 1.0836, 1.0845,1.0844,0.14776505356484115
MultiSource/Benchmarks/TSVC/CrossingThresholds-flt/CrossingThresholds-flt, 1.6209, 1.6216, 1.6231,1.6216, 1.6155, 1.6339, 1.6239,1.6239,0.14183522446966634
SingleSource/Benchmarks/Shootout-C++/methcall, 3.5508, 3.5460, 3.5459,3.546, 3.5459, 3.5508, 3.5509,3.5508,0.1353637901861271
SingleSource/Benchmarks/Polybench/linear-algebra/kernels/mvt/mvt, 0.2473, 0.2481, 0.2472,0.2473, 0.2490, 0.2475, 0.2476,0.2476,0.12131014961584974
MultiSource/Benchmarks/Olden/em3d/em3d, 1.7028, 1.7031, 1.7031,1.7031, 1.7051, 1.7051, 1.7052,1.7051,0.11743291644648046
MultiSource/Benchmarks/TSVC/ControlFlow-dbl/ControlFlow-dbl, 3.6936, 3.6743, 3.6779,3.6779, 3.6819, 3.6902, 3.6755,3.6819,0.1087577150004071
MultiSource/Benchmarks/sim/sim, 2.6023, 2.6006, 2.6012,2.6012, 2.6038, 2.6040, 2.5999,2.6038,0.09995386744579005
MultiSource/Benchmarks/FreeBench/pcompress2/pcompress2, 0.1031, 0.1030, 0.1029,0.103, 0.1031, 0.1031, 0.1030,0.1031,0.0970873786407811
MultiSource/Benchmarks/MiBench/telecomm-gsm/telecomm-gsm, 0.1179, 0.1178, 0.1178,0.1178, 0.1180, 0.1179, 0.1179,0.1179,0.0848896434634927
MultiSource/Benchmarks/BitBench/five11/five11, 1.1169, 1.1156, 1.1141,1.1156, 1.1169, 1.1144, 1.1165,1.1165,0.08067407673002513
SingleSource/Benchmarks/Shootout/lists, 4.0556, 4.0555, 4.0572,4.0556, 4.0567, 4.0585, 4.0611,4.0585,0.07150606568695483
SingleSource/Benchmarks/Shootout-C++/fibo, 1.4719, 1.4730, 1.4731,1.473, 1.4742, 1.4739, 1.4733,1.4739,0.06109979633399654
MultiSource/Benchmarks/FreeBench/fourinarow/fourinarow, 0.1755, 0.1754, 0.1754,0.1754, 0.1755, 0.1756, 0.1755,0.1755,0.057012542759404816
MultiSource/Benchmarks/NPB-serial/is/is, 5.2069, 5.2061, 5.2070,5.2069, 5.2122, 5.2096, 5.2098,5.2098,0.05569532735409943
MultiSource/Applications/lua/lua,11.5305,11.5521,11.5230,11.5305,11.5317,11.5503,11.5358,11.5358,0.04596504921730027
MultiSource/Benchmarks/MiBench/automotive-basicmath/automotive-basicmath, 0.2226, 0.2228, 0.2227,0.2227, 0.2226, 0.2228, 0.2230,0.2228,0.04490345756622549
MultiSource/Benchmarks/nbench/nbench, 1.1945, 1.1967, 1.1947,1.1947, 1.1965, 1.1946, 1.1952,1.1952,0.04185151083953009
MultiSource/Benchmarks/Trimaran/enc-rc4/enc-rc4, 0.7258, 0.7265, 0.7261,0.7261, 0.7264, 0.7262, 0.7264,0.7264,0.04131662305468797
SingleSource/Benchmarks/Shootout/sieve, 3.4704, 3.4693, 3.4710,3.4704, 3.4735, 3.4717, 3.4718,3.4718,0.040341171046565094
MultiSource/Applications/spiff/spiff, 1.2742, 1.2747, 1.2750,1.2747, 1.2752, 1.2743, 1.2818,1.2752,0.03922491566643593
SingleSource/Benchmarks/Shootout/matrix, 1.0671, 1.0666, 1.0665,1.0666, 1.0664, 1.0670, 1.0673,1.067,0.03750234389647833
SingleSource/Benchmarks/Polybench/datamining/covariance/covariance, 1.6526, 1.6410, 1.6498,1.6498, 1.6504, 1.6452, 1.6518,1.6504,0.03636804461146781
MultiSource/Benchmarks/Trimaran/enc-3des/enc-3des, 1.2817, 1.2817, 1.2818,1.2817, 1.2820, 1.2820, 1.2819,1.282,0.02340641335725202
SingleSource/Benchmarks/Misc-C++/Large/ray, 2.8172, 2.8173, 2.8173,2.8173, 2.8179, 2.8176, 2.8179,2.8179,0.021296986476415647
SingleSource/Benchmarks/Misc/richards_benchmark, 0.5317, 0.5317, 0.5319,0.5317, 0.5315, 0.5319, 0.5318,0.5318,0.018807598269710013
SingleSource/Benchmarks/BenchmarkGame/partialsums, 0.5687, 0.5688, 0.5687,0.5687, 0.5688, 0.5687, 0.5692,0.5688,0.017583963425349403
MultiSource/Benchmarks/TSVC/ControlLoops-flt/ControlLoops-flt, 2.3433, 2.3424, 2.3487,2.3433, 2.3437, 2.3425, 2.3472,2.3437,0.01706994409593765
SingleSource/Benchmarks/Shootout-C++/matrix, 1.3225, 1.3225, 1.3226,1.3225, 1.3227, 1.3227, 1.3266,1.3227,0.015122873345929655
SingleSource/Benchmarks/McGill/queens, 1.5486, 1.5493, 1.5489,1.5489, 1.5491, 1.5488, 1.5491,1.5491,0.012912389437658156
SingleSource/Benchmarks/BenchmarkGame/spectral-norm, 0.9732, 0.9732, 0.9733,0.9732, 0.9733, 0.9733, 0.9733,0.9733,0.010275380189073147
MultiSource/Applications/aha/aha, 1.0710, 1.0712, 1.0709,1.071, 1.0714, 1.0709, 1.0711,1.0711,0.00933706816059754
MultiSource/Applications/obsequi/Obsequi, 1.0775, 1.0785, 1.0764,1.0775, 1.0764, 1.0785, 1.0776,1.0776,0.009280742459405467
MultiSource/Benchmarks/TSVC/Symbolics-dbl/Symbolics-dbl, 2.4574, 2.4419, 2.4421,2.4421, 2.4416, 2.4423, 2.4429,2.4423,0.008189672822567218
MultiSource/Benchmarks/TSVC/Searching-flt/Searching-flt, 2.4438, 2.4446, 2.4440,2.444, 2.4422, 2.4450, 2.4442,2.4442,0.008183306055653539
MultiSource/Benchmarks/TSVC/InductionVariable-dbl/InductionVariable-dbl, 3.0343, 3.0356, 3.0395,3.0356, 3.0531, 3.0327, 3.0358,3.0358,0.0065884833311269375
SingleSource/Benchmarks/Shootout-C++/random, 1.7449, 1.7450, 1.7449,1.7449, 1.7451, 1.7449, 1.7450,1.745,0.005730987449159564
SingleSource/Benchmarks/CoyoteBench/lpbench, 1.8190, 1.8239, 1.8202,1.8202, 1.8164, 1.8203, 1.8262,1.8203,0.0054939017690269765
MultiSource/Benchmarks/TSVC/StatementReordering-flt/StatementReordering-flt, 1.8265, 1.8244, 1.8222,1.8244, 1.8245, 1.8257, 1.8211,1.8245,0.005481254110950573
SingleSource/Benchmarks/Misc/perlin, 3.9904, 3.9905, 3.9903,3.9904, 3.9905, 3.9907, 3.9906,3.9906,0.005012028869288976
MultiSource/Benchmarks/ASC_Sequoia/CrystalMk/CrystalMk, 6.7182, 6.7168, 6.7174,6.7174, 6.7191, 6.7168, 6.7177,6.7177,0.004466013636239552
SingleSource/Benchmarks/Misc/fp-convert, 3.0626, 3.0626, 3.0626,3.0626, 3.0627, 3.0626, 3.0627,3.0627,0.0032651995036880876
SingleSource/Benchmarks/Shootout/methcall, 3.2760, 3.2761, 3.2762,3.2761, 3.2768, 3.2762, 3.2761,3.2762,0.0030524098775908115
SingleSource/Benchmarks/Misc/flops-6, 3.4395, 3.4199, 3.4395,3.4395, 3.4396, 3.4395, 3.4396,3.4396,0.002907399331308902
MultiSource/Benchmarks/TSVC/Recurrences-flt/Recurrences-flt, 3.5009, 3.5008, 3.5008,3.5008, 3.5008, 3.5009, 3.5010,3.5009,0.0028564899451577475
SingleSource/Regression/C/uint64_to_float, 0.2608, 0.2608, 0.2608,0.2608, 0.2612, 0.2608, 0.2608,0.2608,0.0
SingleSource/Regression/C/2004-08-12-InlinerAndAllocas, 0.0015, 0.0015, 0.0015,0.0015, 0.0015, 0.0015, 0.0015,0.0015,0.0
SingleSource/Benchmarks/Stanford/RealMM, 0.0020, 0.0020, 0.0020,0.002, 0.0020, 0.0020, 0.0020,0.002,0.0
SingleSource/Benchmarks/Stanford/FloatMM, 0.5467, 0.5466, 0.5466,0.5466, 0.5466, 0.5465, 0.5466,0.5466,0.0
SingleSource/Benchmarks/Stanford/Bubblesort, 0.0161, 0.0162, 0.0161,0.0161, 0.0162, 0.0161, 0.0161,0.0161,0.0
SingleSource/Benchmarks/SmallPT/smallpt, 7.3925, 7.3969, 7.3919,7.3925, 7.3925, 7.3932, 7.3920,7.3925,0.0
SingleSource/Benchmarks/Shootout/strcat, 0.1053, 0.1051, 0.1052,0.1052, 0.1050, 0.1052, 0.1052,0.1052,0.0
SingleSource/Benchmarks/Shootout/random, 1.7449, 1.7449, 1.7449,1.7449, 1.7450, 1.7449, 1.7449,1.7449,0.0
SingleSource/Benchmarks/Shootout-C++/strcat, 0.0406, 0.0406, 0.0406,0.0406, 0.0406, 0.0405, 0.0406,0.0406,0.0
SingleSource/Benchmarks/Shootout-C++/ary2, 0.0150, 0.0150, 0.0151,0.015, 0.0151, 0.0150, 0.0150,0.015,0.0
SingleSource/Benchmarks/Shootout-C++/ary, 0.0142, 0.0142, 0.0142,0.0142, 0.0141, 0.0143, 0.0142,0.0142,0.0
SingleSource/Benchmarks/Shootout-C++/ackermann, 0.6573, 0.6573, 0.6573,0.6573, 0.6573, 0.6574, 0.6573,0.6573,0.0
SingleSource/Benchmarks/Polybench/stencils/seidel-2d/seidel-2d, 0.6465, 0.6465, 0.6465,0.6465, 0.6465, 0.6464, 0.6466,0.6465,0.0
SingleSource/Benchmarks/Polybench/stencils/jacobi-1d-imper/jacobi-1d-imper, 0.0037, 0.0037, 0.0037,0.0037, 0.0037, 0.0037, 0.0037,0.0037,0.0
SingleSource/Benchmarks/Polybench/medley/reg_detect/reg_detect, 0.0144, 0.0145, 0.0145,0.0145, 0.0145, 0.0144, 0.0145,0.0145,0.0
SingleSource/Benchmarks/Polybench/linear-algebra/solvers/lu/lu, 0.0023, 0.0023, 0.0023,0.0023, 0.0023, 0.0023, 0.0023,0.0023,0.0
SingleSource/Benchmarks/Polybench/linear-algebra/kernels/bicg/bicg, 0.2121, 0.2122, 0.2121,0.2121, 0.2121, 0.2121, 0.2121,0.2121,0.0
SingleSource/Benchmarks/Polybench/linear-algebra/kernels/atax/atax, 0.1702, 0.1704, 0.1702,0.1702, 0.1702, 0.1702, 0.1704,0.1702,0.0
SingleSource/Benchmarks/Misc/pi, 0.6943, 0.6943, 0.6943,0.6943, 0.6943, 0.6943, 0.6944,0.6943,0.0
SingleSource/Benchmarks/Misc/matmul_f64_4x4, 1.2952, 1.2952, 1.2953,1.2952, 1.2952, 1.2952, 1.2953,1.2952,0.0
SingleSource/Benchmarks/Misc/mandel-2, 1.2781, 1.2781, 1.2781,1.2781, 1.2781, 1.2779, 1.2781,1.2781,0.0
SingleSource/Benchmarks/Misc/mandel, 0.8022, 0.8022, 0.8023,0.8022, 0.8022, 0.8022, 0.8023,0.8022,0.0
SingleSource/Benchmarks/Misc/lowercase, 0.0009, 0.0009, 0.0009,0.0009, 0.0009, 0.0009, 0.0009,0.0009,0.0
SingleSource/Benchmarks/Misc/flops-7, 1.5901, 1.5902, 1.5902,1.5902, 1.5903, 1.5902, 1.5902,1.5902,0.0
SingleSource/Benchmarks/Misc/flops-5, 4.2775, 4.2777, 4.2776,4.2776, 4.2775, 4.2776, 4.2776,4.2776,0.0
SingleSource/Benchmarks/Misc/fbench, 1.7531, 1.7531, 1.7531,1.7531, 1.7531, 1.7531, 1.7531,1.7531,0.0
SingleSource/Benchmarks/Misc/dt, 0.6919, 0.6919, 0.6919,0.6919, 0.6920, 0.6919, 0.6919,0.6919,0.0
SingleSource/Benchmarks/McGill/misr, 0.1016, 0.1016, 0.1016,0.1016, 0.1016, 0.1014, 0.1016,0.1016,0.0
SingleSource/Benchmarks/Dhrystone/fldry, 0.3655, 0.3654, 0.3655,0.3655, 0.3657, 0.3654, 0.3655,0.3655,0.0
SingleSource/Benchmarks/Dhrystone/dry, 0.3351, 0.3351, 0.3351,0.3351, 0.3353, 0.3351, 0.3351,0.3351,0.0
SingleSource/Benchmarks/CoyoteBench/huffbench, 9.3788, 9.3802, 9.3785,9.3788, 9.3784, 9.3788, 9.3796,9.3788,0.0
SingleSource/Benchmarks/CoyoteBench/almabench,12.5857,12.5858,12.5857,12.5857,12.5897,12.5851,12.5857,12.5857,0.0
SingleSource/Benchmarks/BenchmarkGame/puzzle, 0.1140, 0.1141, 0.1141,0.1141, 0.1141, 0.1141, 0.1142,0.1141,0.0
SingleSource/Benchmarks/BenchmarkGame/n-body, 1.3713, 1.3713, 1.3713,1.3713, 1.3713, 1.3713, 1.3713,1.3713,0.0
SingleSource/Benchmarks/Adobe-C++/simple_types_constant_folding, 0.6684, 0.6684, 0.6685,0.6684, 0.6684, 0.6684, 0.6684,0.6684,0.0
MultiSource/Benchmarks/mediabench/mpeg2/mpeg2dec/mpeg2decode, 0.0154, 0.0152, 0.0153,0.0153, 0.0152, 0.0153, 0.0153,0.0153,0.0
MultiSource/Benchmarks/mediabench/adpcm/rawcaudio/rawcaudio, 0.0029, 0.0029, 0.0029,0.0029, 0.0029, 0.0029, 0.0029,0.0029,0.0
MultiSource/Benchmarks/VersaBench/ecbdes/ecbdes, 1.6837, 1.6837, 1.6837,1.6837, 1.6837, 1.6837, 1.6837,1.6837,0.0
MultiSource/Benchmarks/VersaBench/bmm/bmm, 1.6829, 1.6826, 1.6827,1.6827, 1.6828, 1.6827, 1.6827,1.6827,0.0
MultiSource/Benchmarks/VersaBench/beamformer/beamformer, 0.6732, 0.6732, 0.6732,0.6732, 0.6732, 0.6733, 0.6732,0.6732,0.0
MultiSource/Benchmarks/Trimaran/netbench-crc/netbench-crc, 0.6202, 0.6204, 0.6205,0.6204, 0.6203, 0.6204, 0.6204,0.6204,0.0
MultiSource/Benchmarks/Trimaran/enc-md5/enc-md5, 1.3941, 1.3938, 1.3938,1.3938, 1.3938, 1.3939, 1.3938,1.3938,0.0
MultiSource/Benchmarks/TSVC/Searching-dbl/Searching-dbl, 2.2840, 2.2843, 2.2845,2.2843, 2.2842, 2.2844, 2.2843,2.2843,0.0
MultiSource/Benchmarks/TSVC/Reductions-flt/Reductions-flt, 5.9694, 5.9694, 5.9694,5.9694, 5.9697, 5.9693, 5.9694,5.9694,0.0
MultiSource/Benchmarks/TSVC/Reductions-dbl/Reductions-dbl, 3.4748, 3.4748, 3.4749,3.4748, 3.4748, 3.4749, 3.4748,3.4748,0.0
MultiSource/Benchmarks/TSVC/Recurrences-dbl/Recurrences-dbl, 3.5013, 3.5011, 3.5012,3.5012, 3.5011, 3.5014, 3.5012,3.5012,0.0
MultiSource/Benchmarks/TSVC/NodeSplitting-flt/NodeSplitting-flt, 4.6524, 4.6512, 4.6475,4.6512, 4.6461, 4.6512, 4.6515,4.6512,0.0
MultiSource/Benchmarks/TSVC/LinearDependence-flt/LinearDependence-flt, 4.6178, 4.6196, 4.6240,4.6196, 4.6214, 4.6195, 4.6196,4.6196,0.0
MultiSource/Benchmarks/TSVC/LinearDependence-dbl/LinearDependence-dbl, 5.1474, 5.1470, 5.1471,5.1471, 5.1471, 5.1452, 5.1547,5.1471,0.0
MultiSource/Benchmarks/Olden/treeadd/treeadd, 0.1262, 0.1266, 0.1264,0.1264, 0.1262, 0.1264, 0.1266,0.1264,0.0
MultiSource/Benchmarks/Olden/health/health, 0.1453, 0.1448, 0.1450,0.145, 0.1447, 0.1450, 0.1454,0.145,0.0
MultiSource/Benchmarks/MiBench/telecomm-FFT/telecomm-fft, 0.0386, 0.0386, 0.0386,0.0386, 0.0386, 0.0386, 0.0386,0.0386,0.0
MultiSource/Benchmarks/MiBench/network-dijkstra/network-dijkstra, 0.0239, 0.0238, 0.0238,0.0238, 0.0237, 0.0239, 0.0238,0.0238,0.0
MultiSource/Benchmarks/McCat/08-main/main, 0.0429, 0.0429, 0.0429,0.0429, 0.0429, 0.0429, 0.0429,0.0429,0.0
MultiSource/Benchmarks/McCat/05-eks/eks, 0.0036, 0.0036, 0.0036,0.0036, 0.0036, 0.0036, 0.0036,0.0036,0.0
MultiSource/Benchmarks/FreeBench/pifft/pifft, 0.0640, 0.0640, 0.0639,0.064, 0.0641, 0.0640, 0.0639,0.064,0.0
MultiSource/Benchmarks/FreeBench/neural/neural, 0.1644, 0.1644, 0.1645,0.1644, 0.1644, 0.1644, 0.1644,0.1644,0.0
MultiSource/Benchmarks/FreeBench/mason/mason, 0.1319, 0.1319, 0.1318,0.1319, 0.1320, 0.1319, 0.1319,0.1319,0.0
MultiSource/Applications/sgefa/sgefa, 0.1155, 0.1152, 0.1153,0.1153, 0.1155, 0.1153, 0.1153,0.1153,0.0
MultiSource/Applications/hexxagon/hexxagon, 6.8364, 6.8361, 6.8360,6.8361, 6.8360, 6.8364, 6.8361,6.8361,0.0
SingleSource/Benchmarks/Misc/flops-1, 3.6289, 3.6290, 3.6290,3.629, 3.6291, 3.6288, 3.6289,3.6289,-0.002755580049607076
SingleSource/Benchmarks/Misc-C++/stepanov_v1p2, 7.9032, 7.9034, 7.9033,7.9033, 7.9029, 7.9027, 7.9030,7.9029,-0.005061176976706161
SingleSource/Benchmarks/Misc-C++/Large/sphereflake, 5.5020, 5.5021, 5.5019,5.502, 5.5017, 5.5017, 5.5019,5.5017,-0.0054525627044776925
SingleSource/Benchmarks/Polybench/linear-algebra/kernels/trmm/trmm, 2.2372, 2.2428, 2.2392,2.2392, 2.2278, 2.2390, 2.2483,2.239,-0.008931761343333733
MultiSource/Benchmarks/TSVC/StatementReordering-dbl/StatementReordering-dbl, 2.2335, 2.2345, 2.2352,2.2345, 2.2388, 2.2343, 2.2321,2.2343,-0.008950548221076104
MultiSource/Benchmarks/Olden/power/power, 0.9765, 0.9765, 0.9765,0.9765, 0.9764, 0.9764, 0.9764,0.9764,-0.010240655401949628
MultiSource/Benchmarks/SciMark2-C/scimark2,43.0533,43.0224,42.9517,43.0224,43.0175,43.1498,42.9960,43.0175,-0.011389415746210219
SingleSource/Benchmarks/Misc/flops-2, 0.8627, 0.8628, 0.8628,0.8628, 0.8627, 0.8627, 0.8628,0.8627,-0.011590171534536786
SingleSource/Benchmarks/Misc/ReedSolomon, 3.1972, 3.1974, 3.1977,3.1974, 3.1966, 3.1970, 3.1973,3.197,-0.012510164508661159
SingleSource/Benchmarks/Adobe-C++/simple_types_loop_invariant, 1.5956, 1.5940, 1.5953,1.5953, 1.5955, 1.5951, 1.5950,1.5951,-0.012536826929099298
MultiSource/Benchmarks/Trimaran/netbench-url/netbench-url, 2.9796, 2.9791, 2.9796,2.9796, 2.9919, 2.9789, 2.9792,2.9792,-0.013424620754465266
MultiSource/Applications/JM/lencod/lencod, 3.2614, 3.2628, 3.2624,3.2624, 3.2600, 3.2622, 3.2619,3.2619,-0.015326140264837473
SingleSource/Benchmarks/BenchmarkGame/Large/fasta, 0.6494, 0.6493, 0.6494,0.6494, 0.6495, 0.6489, 0.6493,0.6493,-0.015398829688939575
SingleSource/Benchmarks/Polybench/linear-algebra/kernels/doitgen/doitgen, 0.7909, 0.7858, 0.7856,0.7858, 0.7857, 0.7853, 0.7856,0.7856,-0.025451768897954974
SingleSource/Benchmarks/Polybench/medley/floyd-warshall/floyd-warshall, 3.4326, 3.4368, 3.4400,3.4368, 3.4424, 3.4347, 3.4359,3.4359,-0.02618715083797518
MultiSource/Benchmarks/Trimaran/enc-pc1/enc-pc1, 0.3529, 0.3529, 0.3529,0.3529, 0.3527, 0.3528, 0.3528,0.3528,-0.028336639274584297
MultiSource/Benchmarks/TSVC/IndirectAddressing-flt/IndirectAddressing-flt, 2.3053, 2.3020, 2.3025,2.3025, 2.3031, 2.2998, 2.3018,2.3018,-0.03040173724213613
MultiSource/Benchmarks/TSVC/LoopRerolling-dbl/LoopRerolling-dbl, 4.5949, 4.5911, 4.6039,4.5949, 4.5927, 4.5935, 4.5943,4.5935,-0.03046856297199696
MultiSource/Benchmarks/VersaBench/8b10b/8b10b, 3.7663, 3.7608, 3.7718,3.7663, 3.7650, 3.7623, 3.7708,3.765,-0.034516634362635745
SingleSource/Benchmarks/Misc-C++/mandel-text, 1.6050, 1.6063, 1.6063,1.6063, 1.6042, 1.6058, 1.6056,1.6056,-0.04357841001059182
MultiSource/Benchmarks/TSVC/Equivalencing-flt/Equivalencing-flt, 0.9652, 0.9667, 0.9675,0.9667, 0.9655, 0.9662, 0.9696,0.9662,-0.051722354401573245
SingleSource/Benchmarks/Polybench/stencils/adi/adi, 2.8102, 2.8094, 2.8100,2.81, 2.8083, 2.8085, 2.8096,2.8085,-0.0533807829181554
SingleSource/Benchmarks/Misc/oourafft, 6.0659, 6.0725, 6.0596,6.0659, 6.0624, 6.0591, 6.0653,6.0624,-0.05769959939991853
MultiSource/Benchmarks/ASC_Sequoia/IRSmk/IRSmk, 3.0062, 3.0049, 2.9871,3.0049, 3.0031, 3.0030, 3.0033,3.0031,-0.05990215980565816
MultiSource/Benchmarks/TSVC/IndirectAddressing-dbl/IndirectAddressing-dbl, 2.4754, 2.4756, 2.4905,2.4756, 2.4741, 2.4882, 2.4740,2.4741,-0.06059137178865415
SingleSource/Benchmarks/Misc-C++/oopack_v1p8, 0.1640, 0.1637, 0.1643,0.164, 0.1639, 0.1635, 0.1642,0.1639,-0.06097560975610872
SingleSource/Benchmarks/Shootout/fib2, 1.4735, 1.4750, 1.4744,1.4744, 1.4729, 1.4735, 1.4737,1.4735,-0.06104177970699398
SingleSource/Benchmarks/Misc/flops,10.6844,10.6988,10.6826,10.6844,10.6835,10.6633,10.6773,10.6773,-0.06645202351091006
SingleSource/Benchmarks/Polybench/linear-algebra/solvers/dynprog/dynprog, 0.2685, 0.2679, 0.2682,0.2682, 0.2680, 0.2680, 0.2679,0.268,-0.07457121551079915
MultiSource/Benchmarks/FreeBench/distray/distray, 0.1332, 0.1331, 0.1332,0.1332, 0.1331, 0.1331, 0.1332,0.1331,-0.07507507507509281
SingleSource/Benchmarks/Shootout-C++/heapsort, 2.0393, 2.0407, 2.0382,2.0393, 2.0377, 2.0354, 2.0402,2.0377,-0.0784582945128176
MultiSource/Benchmarks/Olden/perimeter/perimeter, 0.1227, 0.1227, 0.1230,0.1227, 0.1225, 0.1226, 0.1226,0.1226,-0.08149959250204342
SingleSource/Benchmarks/Shootout-C++/hash, 0.3210, 0.3213, 0.3229,0.3213, 0.3235, 0.3210, 0.3203,0.321,-0.09337068160596429
SingleSource/Benchmarks/Linpack/linpack-pc, 1.2907, 1.2856, 1.2891,1.2891, 1.2878, 1.2872, 1.2885,1.2878,-0.10084555115971172
MultiSource/Benchmarks/TSVC/NodeSplitting-dbl/NodeSplitting-dbl, 5.0298, 5.0230, 5.0296,5.0296, 5.0330, 5.0233, 5.0239,5.0239,-0.1133290917766816
SingleSource/Benchmarks/Stanford/Puzzle, 0.0873, 0.0877, 0.0876,0.0876, 0.0873, 0.0875, 0.0877,0.0875,-0.11415525114155667
MultiSource/Benchmarks/TSVC/Equivalencing-dbl/Equivalencing-dbl, 1.3806, 1.3789, 1.3803,1.3803, 1.3782, 1.3786, 1.3810,1.3786,-0.1231616315293782
SingleSource/Benchmarks/Adobe-C++/stepanov_abstraction, 4.2304, 4.2298, 4.2305,4.2304, 4.2251, 4.2261, 4.2251,4.2251,-0.12528366111951295
SingleSource/Benchmarks/Shootout/hash, 2.7520, 2.7582, 2.7682,2.7582, 2.7542, 2.7440, 2.7608,2.7542,-0.14502211587267277
SingleSource/Benchmarks/Adobe-C++/loop_unroll, 1.8919, 1.8929, 1.8939,1.8929, 1.8901, 1.8874, 1.8947,1.8901,-0.14792117914311786
MultiSource/Benchmarks/DOE-ProxyApps-C/XSBench/XSBench, 2.4452, 2.4553, 2.4442,2.4452, 2.4396, 2.4414, 2.4457,2.4414,-0.15540651071487277
MultiSource/Benchmarks/Ptrdist/yacr2/yacr2, 0.5096, 0.5097, 0.5096,0.5096, 0.5086, 0.5088, 0.5087,0.5087,-0.1766091051805363
SingleSource/Benchmarks/BenchmarkGame/fannkuch, 2.2556, 2.2551, 2.2508,2.2551, 2.2514, 2.2510, 2.2511,2.2511,-0.17737572613187869
SingleSource/Benchmarks/Misc/salsa20, 4.8261, 4.8175, 4.8286,4.8261, 4.8288, 4.8173, 4.8175,4.8175,-0.17819771658275085
SingleSource/Benchmarks/Polybench/stencils/fdtd-apml/fdtd-apml, 0.7235, 0.7221, 0.7251,0.7235, 0.7229, 0.7222, 0.7214,0.7222,-0.17968210089842618
SingleSource/Benchmarks/Stanford/Treesort, 0.0545, 0.0545, 0.0547,0.0545, 0.0544, 0.0543, 0.0546,0.0544,-0.18348623853211565
MultiSource/Benchmarks/Prolangs-C++/life/life, 0.7097, 0.7058, 0.7047,0.7058, 0.7041, 0.7045, 0.7065,0.7045,-0.18418815528478127
MultiSource/Benchmarks/tramp3d-v4/tramp3d-v4, 0.2665, 0.2666, 0.2665,0.2665, 0.2661, 0.2658, 0.2659,0.2659,-0.2251407129455818
MultiSource/Benchmarks/Prolangs-C++/primes/primes, 0.2143, 0.2131, 0.2121,0.2131, 0.2122, 0.2126, 0.2131,0.2126,-0.2346316283434957
MultiSource/Benchmarks/Olden/voronoi/voronoi, 0.2045, 0.2047, 0.2049,0.2047, 0.2042, 0.2042, 0.2045,0.2042,-0.2442598925256445
MultiSource/Benchmarks/TSVC/Expansion-flt/Expansion-flt, 1.1609, 1.1651, 1.1626,1.1626, 1.1545, 1.1685, 1.1595,1.1595,-0.2666437295716584
SingleSource/Benchmarks/Adobe-C++/functionobjects, 3.0276, 3.0270, 3.0276,3.0276, 3.0170, 3.0195, 3.0200,3.0195,-0.26753864447087716
MultiSource/Applications/JM/ldecod/ldecod, 0.0363, 0.0366, 0.0366,0.0366, 0.0365, 0.0367, 0.0365,0.0365,-0.2732240437158584
MultiSource/Benchmarks/TSVC/InductionVariable-flt/InductionVariable-flt, 2.5774, 2.5786, 2.5793,2.5786, 2.5660, 2.5869, 2.5715,2.5715,-0.2753432094935171
MultiSource/Benchmarks/Prolangs-C++/ocean/ocean, 0.0360, 0.0362, 0.0362,0.0362, 0.0360, 0.0362, 0.0361,0.0361,-0.2762430939226568
MultiSource/Benchmarks/TSVC/LoopRerolling-flt/LoopRerolling-flt, 3.8289, 3.8291, 3.8154,3.8289, 3.8305, 3.8124, 3.8183,3.8183,-0.2768419128209243
SingleSource/Benchmarks/Adobe-C++/stepanov_vector, 2.2684, 2.2684, 2.2685,2.2684, 2.2611, 2.2617, 2.2624,2.2617,-0.29536236995240106
MultiSource/Benchmarks/mediabench/g721/g721encode/encode, 0.0290, 0.0291, 0.0291,0.0291, 0.0290, 0.0290, 0.0290,0.029,-0.3436426116838476
MultiSource/Applications/sqlite3/sqlite3, 1.8066, 1.8160, 1.8142,1.8142, 1.7997, 1.8170, 1.8078,1.8078,-0.35277257193252476
SingleSource/Benchmarks/Misc-C++/bigfib, 0.1909, 0.1911, 0.1912,0.1911, 0.1901, 0.1904, 0.1910,0.1904,-0.3663003663003539
SingleSource/Benchmarks/Polybench/datamining/correlation/correlation, 1.6830, 1.6859, 1.6781,1.683, 1.6768, 1.6774, 1.6751,1.6768,-0.36838978015448776
MultiSource/Benchmarks/Bullet/bullet, 3.2738, 3.2631, 3.2788,3.2738, 3.2578, 3.2613, 3.2654,3.2613,-0.38181929256522196
MultiSource/Benchmarks/Olden/bh/bh, 1.2725, 1.2717, 1.2688,1.2717, 1.2661, 1.2664, 1.2689,1.2664,-0.41676496028938415
MultiSource/Benchmarks/MallocBench/espresso/espresso, 0.3061, 0.3065, 0.3064,0.3064, 0.3048, 0.3051, 0.3051,0.3051,-0.42428198433420716
MultiSource/Benchmarks/TSVC/GlobalDataFlow-dbl/GlobalDataFlow-dbl, 2.8530, 2.8525, 2.8382,2.8525, 2.8397, 2.8391, 2.8525,2.8397,-0.4487291849255004
SingleSource/Benchmarks/Polybench/stencils/fdtd-2d/fdtd-2d, 0.3963, 0.3960, 0.3937,0.396, 0.3926, 0.3942, 0.3950,0.3942,-0.454545454545463
SingleSource/Benchmarks/Misc/whetstone, 1.0198, 1.0275, 1.0249,1.0249, 1.0198, 1.0198, 1.0275,1.0198,-0.49760952288027127
SingleSource/Benchmarks/Misc-C++/stepanov_container, 3.1240, 3.0745, 3.1010,3.101, 3.0722, 3.0848, 3.0843,3.0843,-0.5385359561431824
MultiSource/Benchmarks/TSVC/ControlFlow-flt/ControlFlow-flt, 3.5050, 3.5179, 3.4764,3.505, 3.4827, 3.4877, 3.4758,3.4827,-0.6362339514978554
MultiSource/Applications/SIBsim4/SIBsim4, 2.1119, 2.1167, 2.1239,2.1167, 2.0999, 2.1141, 2.0856,2.0999,-0.7936882883734064
MultiSource/Benchmarks/MallocBench/cfrac/cfrac, 0.7704, 0.7705, 0.7706,0.7705, 0.7643, 0.7642, 0.7643,0.7643,-0.8046722907203097
SingleSource/Benchmarks/Shootout-C++/hash2, 1.7851, 1.7886, 1.7885,1.7885, 1.7715, 1.7709, 1.7718,1.7715,-0.9505171931786349
SingleSource/Benchmarks/Stanford/Quicksort, 0.0303, 0.0303, 0.0302,0.0303, 0.0300, 0.0300, 0.0300,0.03,-0.990099009900991
MultiSource/Applications/lambda-0.1.3/lambda, 2.6424, 2.6479, 2.6490,2.6479, 2.5776, 2.5788, 2.5791,2.5788,-2.6096151667358902
Total elapsed time,-,-,-,571.7864999999997,-,-,-,572.4067999999999,0.10848454799128326
Total failure,-,-,-,0,-,-,-,0,
Geom. avg slowdown,,,,,,,,,0.0142343924613%
