Benchmarks,base-5.0,base-5.0,base-5.0,median,insts-5.0,insts-5.0,insts-5.0,median,Slowdown(%)
MultiSource/Benchmarks/DOE-ProxyApps-C++/miniFE/miniFE, 2.3438, 2.3450, 2.3464,2.345, 2.4549, 2.4535, 2.4572,2.4549,4.686567164179101
SingleSource/Benchmarks/CoyoteBench/almabench, 0.0614, 0.0613, 0.0613,0.0613, 0.0633, 0.0636, 0.0634,0.0634,3.4257748776509
MultiSource/Benchmarks/DOE-ProxyApps-C++/HPCCG/HPCCG, 1.2896, 1.2908, 1.2958,1.2908, 1.3222, 1.3262, 1.3255,1.3255,2.6882553455221503
MultiSource/Benchmarks/DOE-ProxyApps-C/RSBench/rsbench, 0.3596, 0.3611, 0.3616,0.3611, 0.3679, 0.3692, 0.3693,0.3692,2.243145942952096
SingleSource/Benchmarks/Misc/himenobmtxpa, 0.1576, 0.1573, 0.1578,0.1576, 0.1611, 0.1606, 0.1609,0.1609,2.093908629441632
SingleSource/Benchmarks/Misc/flops-6, 0.0262, 0.0262, 0.0263,0.0262, 0.0266, 0.0266, 0.0264,0.0266,1.5267175572518887
MultiSource/Benchmarks/DOE-ProxyApps-C/XSBench/XSBench, 0.3245, 0.3214, 0.3217,0.3217, 0.3258, 0.3269, 0.3266,0.3266,1.5231582219459083
SingleSource/Benchmarks/Shootout/random, 0.0281, 0.0280, 0.0282,0.0281, 0.0284, 0.0285, 0.0285,0.0285,1.4234875444839812
SingleSource/Benchmarks/Misc/flops-3, 0.0253, 0.0253, 0.0252,0.0253, 0.0256, 0.0256, 0.0256,0.0256,1.1857707509881577
SingleSource/Benchmarks/Misc/flops-5, 0.0264, 0.0262, 0.0263,0.0263, 0.0265, 0.0267, 0.0266,0.0266,1.1406844106463865
SingleSource/Benchmarks/Misc/flops-2, 0.0262, 0.0263, 0.0263,0.0263, 0.0265, 0.0267, 0.0266,0.0266,1.1406844106463865
MultiSource/Benchmarks/Trimaran/netbench-crc/netbench-crc, 0.0710, 0.0714, 0.0718,0.0714, 0.0720, 0.0723, 0.0722,0.0722,1.1204481792717047
SingleSource/Benchmarks/CoyoteBench/fftbench, 0.5518, 0.5493, 0.5482,0.5493, 0.5564, 0.5551, 0.5530,0.5551,1.0558893136719538
SingleSource/Benchmarks/Polybench/linear-algebra/kernels/trmm/trmm, 0.0664, 0.0665, 0.0666,0.0665, 0.0670, 0.0672, 0.0672,0.0672,1.0526315789473495
MultiSource/Benchmarks/FreeBench/analyzer/analyzer, 0.2182, 0.2197, 0.2203,0.2197, 0.2219, 0.2220, 0.2220,0.222,1.0468821119708593
SingleSource/Benchmarks/Shootout-C++/methcall, 0.1151, 0.1145, 0.1151,0.1151, 0.1163, 0.1158, 0.1165,0.1163,1.0425716768027948
SingleSource/Benchmarks/BenchmarkGame/nsieve-bits, 0.0300, 0.0302, 0.0300,0.03, 0.0303, 0.0303, 0.0304,0.0303,1.0000000000000009
SingleSource/Benchmarks/BenchmarkGame/spectral-norm, 0.0504, 0.0504, 0.0505,0.0504, 0.0509, 0.0509, 0.0509,0.0509,0.9920634920634885
SingleSource/Benchmarks/Misc/dt, 0.0303, 0.0302, 0.0304,0.0303, 0.0304, 0.0306, 0.0306,0.0306,0.990099009900991
MultiSource/Applications/spiff/spiff, 0.6849, 0.6892, 0.6908,0.6892, 0.6959, 0.6962, 0.6960,0.696,0.9866511897852481
MultiSource/Benchmarks/Olden/health/health, 0.1263, 0.1272, 0.1278,0.1272, 0.1284, 0.1289, 0.1282,0.1284,0.943396226415083
SingleSource/Benchmarks/Shootout-C++/nestedloop, 0.1069, 0.1064, 0.1073,0.1069, 0.1070, 0.1081, 0.1079,0.1079,0.9354536950420878
SingleSource/Benchmarks/Shootout/nestedloop, 0.0229, 0.0229, 0.0230,0.0229, 0.0231, 0.0232, 0.0230,0.0231,0.8733624454148492
MultiSource/Benchmarks/FreeBench/mason/mason, 0.0459, 0.0460, 0.0463,0.046, 0.0463, 0.0464, 0.0464,0.0464,0.8695652173912993
SingleSource/Benchmarks/Shootout-C++/ary, 0.1422, 0.1416, 0.1427,0.1422, 0.1434, 0.1429, 0.1434,0.1434,0.8438818565400963
SingleSource/Benchmarks/Misc/lowercase, 0.0238, 0.0238, 0.0240,0.0238, 0.0239, 0.0241, 0.0240,0.024,0.8403361344537785
MultiSource/Benchmarks/DOE-ProxyApps-C/SimpleMOC/SimpleMOC, 0.7876, 0.7897, 0.7915,0.7897, 0.7953, 0.7963, 0.7968,0.7963,0.8357604153476084
SingleSource/Benchmarks/Shootout-C++/ackermann, 0.1086, 0.1076, 0.1078,0.1078, 0.1079, 0.1088, 0.1087,0.1087,0.8348794063079756
SingleSource/Benchmarks/Misc/whetstone, 0.0620, 0.0619, 0.0621,0.062, 0.0622, 0.0625, 0.0626,0.0625,0.8064516129032251
SingleSource/Benchmarks/Misc/fbench, 0.0500, 0.0498, 0.0498,0.0498, 0.0502, 0.0502, 0.0504,0.0502,0.8032128514056325
SingleSource/Benchmarks/Misc/flops-7, 0.0252, 0.0251, 0.0252,0.0252, 0.0253, 0.0255, 0.0254,0.0254,0.7936507936507908
MultiSource/Benchmarks/MiBench/automotive-bitcount/automotive-bitcount, 0.2372, 0.2394, 0.2398,0.2394, 0.2413, 0.2421, 0.2411,0.2413,0.7936507936507908
SingleSource/Benchmarks/Misc/flops-1, 0.0255, 0.0255, 0.0255,0.0255, 0.0257, 0.0257, 0.0256,0.0257,0.7843137254902155
SingleSource/Benchmarks/Misc/flops-8, 0.0263, 0.0264, 0.0263,0.0263, 0.0265, 0.0267, 0.0265,0.0265,0.7604562737642429
SingleSource/Benchmarks/Misc/matmul_f64_4x4, 0.0266, 0.0266, 0.0267,0.0266, 0.0267, 0.0268, 0.0268,0.0268,0.7518796992481258
MultiSource/Benchmarks/BitBench/drop3/drop3, 0.0397, 0.0400, 0.0401,0.04, 0.0401, 0.0403, 0.0403,0.0403,0.7500000000000062
MultiSource/Benchmarks/BitBench/uudecode/uudecode, 0.0404, 0.0405, 0.0407,0.0405, 0.0408, 0.0408, 0.0407,0.0408,0.7407407407407529
SingleSource/Benchmarks/Misc/mandel, 0.0410, 0.0410, 0.0412,0.041, 0.0414, 0.0413, 0.0413,0.0413,0.7317073170731714
SingleSource/Benchmarks/Dhrystone/fldry, 0.0409, 0.0411, 0.0410,0.041, 0.0414, 0.0412, 0.0413,0.0413,0.7317073170731714
SingleSource/Benchmarks/Polybench/linear-algebra/kernels/gemver/gemver, 0.0834, 0.0833, 0.0835,0.0834, 0.0839, 0.0840, 0.0841,0.084,0.7194244604316502
SingleSource/Benchmarks/BenchmarkGame/partialsums, 0.0280, 0.0281, 0.0283,0.0281, 0.0282, 0.0283, 0.0283,0.0283,0.7117437722419906
SingleSource/Benchmarks/Misc/fp-convert, 0.0283, 0.0282, 0.0283,0.0283, 0.0284, 0.0285, 0.0285,0.0285,0.7067137809187329
SingleSource/Benchmarks/Shootout-C++/random, 0.1151, 0.1151, 0.1155,0.1151, 0.1162, 0.1159, 0.1157,0.1159,0.6950477845351966
MultiSource/Benchmarks/Olden/perimeter/perimeter, 0.0726, 0.0731, 0.0736,0.0731, 0.0734, 0.0737, 0.0736,0.0736,0.6839945280437743
SingleSource/Benchmarks/Polybench/linear-algebra/kernels/trisolv/trisolv, 0.0585, 0.0585, 0.0586,0.0585, 0.0586, 0.0590, 0.0589,0.0589,0.6837606837606813
SingleSource/Benchmarks/Stanford/Perm, 0.0293, 0.0293, 0.0294,0.0293, 0.0295, 0.0295, 0.0294,0.0295,0.682593856655278
MultiSource/Benchmarks/Olden/power/power, 0.1171, 0.1180, 0.1187,0.118, 0.1189, 0.1187, 0.1188,0.1188,0.6779661016949268
SingleSource/Benchmarks/Shootout/methcall, 0.0296, 0.0296, 0.0298,0.0296, 0.0297, 0.0298, 0.0298,0.0298,0.6756756756756799
MultiSource/Benchmarks/SciMark2-C/scimark2, 0.3411, 0.3437, 0.3449,0.3437, 0.3455, 0.3460, 0.3465,0.346,0.6691882455629905
SingleSource/Benchmarks/Polybench/stencils/jacobi-1d-imper/jacobi-1d-imper, 0.0769, 0.0771, 0.0770,0.077, 0.0775, 0.0775, 0.0775,0.0775,0.6493506493506551
MultiSource/Benchmarks/Trimaran/enc-rc4/enc-rc4, 0.0459, 0.0462, 0.0464,0.0462, 0.0466, 0.0465, 0.0463,0.0465,0.6493506493506551
MultiSource/Benchmarks/Trimaran/enc-3des/enc-3des, 0.2171, 0.2175, 0.2177,0.2175, 0.2189, 0.2188, 0.2192,0.2189,0.6436781609195474
MultiSource/Benchmarks/mediabench/gsm/toast/toast, 0.9497, 0.9558, 0.9584,0.9558, 0.9603, 0.9621, 0.9619,0.9619,0.6382088302992361
SingleSource/Benchmarks/Stanford/Bubblesort, 0.0317, 0.0317, 0.0318,0.0317, 0.0319, 0.0320, 0.0319,0.0319,0.6309148264984188
SingleSource/Benchmarks/Polybench/stencils/seidel-2d/seidel-2d, 0.0642, 0.0644, 0.0645,0.0644, 0.0646, 0.0648, 0.0648,0.0648,0.6211180124223503
MultiSource/Benchmarks/MiBench/telecomm-FFT/telecomm-fft, 0.1301, 0.1291, 0.1293,0.1293, 0.1301, 0.1306, 0.1301,0.1301,0.6187161639597871
MultiSource/Benchmarks/McCat/17-bintr/bintr, 0.0647, 0.0650, 0.0655,0.065, 0.0653, 0.0656, 0.0654,0.0654,0.6153846153846176
MultiSource/Benchmarks/MiBench/telecomm-CRC32/telecomm-CRC32, 0.0325, 0.0328, 0.0329,0.0328, 0.0329, 0.0330, 0.0331,0.033,0.6097560975609762
MultiSource/Benchmarks/MiBench/automotive-basicmath/automotive-basicmath, 0.1334, 0.1340, 0.1346,0.134, 0.1347, 0.1348, 0.1352,0.1348,0.5970149253731405
SingleSource/Benchmarks/Polybench/linear-algebra/kernels/cholesky/cholesky, 0.0845, 0.0845, 0.0846,0.0845, 0.0848, 0.0850, 0.0850,0.085,0.591715976331364
MultiSource/Benchmarks/McCat/04-bisect/bisect, 0.1183, 0.1191, 0.1193,0.1191, 0.1197, 0.1202, 0.1198,0.1198,0.5877413937867448
SingleSource/Benchmarks/Polybench/medley/floyd-warshall/floyd-warshall, 0.0692, 0.0696, 0.0694,0.0694, 0.0697, 0.0698, 0.0700,0.0698,0.5763688760806795
SingleSource/Benchmarks/Stanford/Quicksort, 0.0349, 0.0348, 0.0350,0.0349, 0.0350, 0.0352, 0.0351,0.0351,0.5730659025787954
SingleSource/Benchmarks/Shootout/objinst, 0.0349, 0.0350, 0.0351,0.035, 0.0352, 0.0352, 0.0353,0.0352,0.5714285714285783
SingleSource/Benchmarks/Polybench/datamining/correlation/correlation, 0.0704, 0.0703, 0.0703,0.0703, 0.0707, 0.0706, 0.0707,0.0707,0.5689900426742556
MultiSource/Benchmarks/MiBench/telecomm-gsm/telecomm-gsm, 0.9495, 0.9557, 0.9579,0.9557, 0.9606, 0.9611, 0.9615,0.9611,0.5650308674270077
MultiSource/Benchmarks/VersaBench/ecbdes/ecbdes, 0.1939, 0.1950, 0.1953,0.195, 0.1960, 0.1963, 0.1961,0.1961,0.5641025641025532
SingleSource/Benchmarks/Polybench/linear-algebra/kernels/syr2k/syr2k, 0.0721, 0.0719, 0.0719,0.0719, 0.0722, 0.0723, 0.0723,0.0723,0.5563282336578546
MultiSource/Benchmarks/McCat/01-qbsort/qbsort, 0.0893, 0.0901, 0.0902,0.0901, 0.0904, 0.0908, 0.0906,0.0906,0.5549389567147678
MultiSource/Benchmarks/Olden/bh/bh, 0.2345, 0.2351, 0.2357,0.2351, 0.2364, 0.2363, 0.2370,0.2364,0.5529561888558021
SingleSource/Benchmarks/Shootout-C++/ary3, 0.1462, 0.1450, 0.1453,0.1453, 0.1460, 0.1463, 0.1461,0.1461,0.550584996558845
SingleSource/Benchmarks/Misc-C++/Large/sphereflake, 0.2011, 0.2017, 0.2010,0.2011, 0.2029, 0.2022, 0.2021,0.2022,0.5469915464942687
SingleSource/Regression/C/2004-08-12-InlinerAndAllocas, 0.0185, 0.0186, 0.0187,0.0186, 0.0187, 0.0187, 0.0187,0.0187,0.5376344086021723
MultiSource/Benchmarks/TSVC/Symbolics-dbl/Symbolics-dbl, 1.8056, 1.8072, 1.8109,1.8072, 1.8188, 1.8152, 1.8168,1.8168,0.5312084993359889
MultiSource/Benchmarks/DOE-ProxyApps-C++/PENNANT/PENNANT, 3.7119, 3.7072, 3.7176,3.7119, 3.7324, 3.7316, 3.7263,3.7316,0.530725504458629
MultiSource/Benchmarks/ASC_Sequoia/IRSmk/IRSmk, 0.0947, 0.0955, 0.0957,0.0955, 0.0960, 0.0960, 0.0959,0.096,0.5235602094240788
MultiSource/Benchmarks/Trimaran/enc-pc1/enc-pc1, 0.0592, 0.0596, 0.0597,0.0596, 0.0599, 0.0599, 0.0602,0.0599,0.5033557046979942
MultiSource/Benchmarks/BitBench/uuencode/uuencode, 0.0395, 0.0399, 0.0398,0.0398, 0.0401, 0.0400, 0.0400,0.04,0.5025125628140614
MultiSource/Applications/hexxagon/hexxagon, 0.6056, 0.6061, 0.6086,0.6061, 0.6077, 0.6093, 0.6091,0.6091,0.49496782709124165
MultiSource/Benchmarks/TSVC/LinearDependence-flt/LinearDependence-flt, 1.5607, 1.5641, 1.5632,1.5632, 1.5709, 1.5702, 1.5722,1.5709,0.49257932446264974
MultiSource/Benchmarks/MiBench/consumer-lame/consumer-lame, 3.5940, 3.6050, 3.6079,3.605, 3.6212, 3.6243, 3.6227,3.6227,0.49098474341193743
SingleSource/Benchmarks/Shootout-C++/ary2, 0.1442, 0.1430, 0.1441,0.1441, 0.1448, 0.1450, 0.1442,0.1448,0.4857737682165242
SingleSource/Benchmarks/Misc/ffbench, 0.0620, 0.0621, 0.0620,0.062, 0.0622, 0.0623, 0.0623,0.0623,0.4838709677419395
SingleSource/Benchmarks/McGill/queens, 0.0415, 0.0417, 0.0417,0.0417, 0.0419, 0.0419, 0.0419,0.0419,0.47961630695443347
SingleSource/Benchmarks/Polybench/stencils/fdtd-2d/fdtd-2d, 0.1258, 0.1262, 0.1262,0.1262, 0.1268, 0.1269, 0.1268,0.1268,0.47543581616480424
MultiSource/Benchmarks/llubenchmark/llu, 0.0435, 0.0440, 0.0438,0.0438, 0.0438, 0.0440, 0.0440,0.044,0.45662100456620447
MultiSource/Benchmarks/ASCI_Purple/SMG2000/smg2000, 5.1424, 5.1594, 5.1584,5.1584, 5.1818, 5.1857, 5.1811,5.1818,0.4536290322580516
SingleSource/Benchmarks/Shootout/ackermann, 0.0222, 0.0220, 0.0223,0.0222, 0.0224, 0.0223, 0.0223,0.0223,0.45045045045044585
MultiSource/Applications/viterbi/viterbi, 0.1547, 0.1558, 0.1559,0.1558, 0.1565, 0.1566, 0.1564,0.1565,0.449293966623876
SingleSource/Benchmarks/Polybench/linear-algebra/solvers/dynprog/dynprog, 0.0669, 0.0672, 0.0673,0.0672, 0.0676, 0.0675, 0.0675,0.0675,0.44642857142858094
SingleSource/Benchmarks/Misc-C++/mandel-text, 0.0227, 0.0229, 0.0230,0.0229, 0.0230, 0.0230, 0.0230,0.023,0.4366812227074135
MultiSource/Benchmarks/MiBench/automotive-susan/automotive-susan, 0.5731, 0.5722, 0.5749,0.5731, 0.5708, 0.5761, 0.5756,0.5756,0.43622404466934217
SingleSource/Benchmarks/Stanford/RealMM, 0.0463, 0.0465, 0.0464,0.0464, 0.0466, 0.0465, 0.0466,0.0466,0.4310344827586299
SingleSource/Benchmarks/Polybench/linear-algebra/kernels/syrk/syrk, 0.0703, 0.0703, 0.0706,0.0703, 0.0706, 0.0706, 0.0708,0.0706,0.426742532005675
MultiSource/Benchmarks/VersaBench/bmm/bmm, 0.0469, 0.0471, 0.0471,0.0471, 0.0473, 0.0473, 0.0476,0.0473,0.424628450106157
SingleSource/Benchmarks/Shootout/sieve, 0.0240, 0.0239, 0.0241,0.024, 0.0241, 0.0241, 0.0241,0.0241,0.4166666666666652
SingleSource/Benchmarks/Polybench/linear-algebra/kernels/bicg/bicg, 0.0723, 0.0724, 0.0725,0.0724, 0.0727, 0.0726, 0.0727,0.0727,0.4143646408839796
MultiSource/Benchmarks/Prolangs-C++/city/city, 0.8318, 0.8265, 0.8285,0.8285, 0.8319, 0.8343, 0.8315,0.8319,0.4103802051901084
MultiSource/Benchmarks/Prolangs-C++/simul/simul, 0.0487, 0.0489, 0.0492,0.0489, 0.0493, 0.0491, 0.0491,0.0491,0.4089979550102152
SingleSource/Benchmarks/McGill/misr, 0.0494, 0.0494, 0.0495,0.0494, 0.0497, 0.0496, 0.0496,0.0496,0.4048582995951344
SingleSource/Benchmarks/BenchmarkGame/recursive, 0.0249, 0.0249, 0.0249,0.0249, 0.0251, 0.0250, 0.0250,0.025,0.40160642570281624
MultiSource/Benchmarks/Prolangs-C/gnugo/gnugo, 0.6774, 0.6827, 0.6842,0.6827, 0.6854, 0.6862, 0.6854,0.6854,0.3954885015380105
SingleSource/Benchmarks/Polybench/datamining/covariance/covariance, 0.0770, 0.0771, 0.0773,0.0771, 0.0771, 0.0776, 0.0774,0.0774,0.3891050583657574
MultiSource/Benchmarks/ASC_Sequoia/CrystalMk/CrystalMk, 0.2039, 0.2059, 0.2060,0.2059, 0.2068, 0.2067, 0.2066,0.2067,0.38853812530355025
SingleSource/Benchmarks/Shootout/strcat, 0.0256, 0.0258, 0.0258,0.0258, 0.0259, 0.0259, 0.0259,0.0259,0.3875968992248069
SingleSource/Benchmarks/Misc/flops-4, 0.0258, 0.0257, 0.0259,0.0258, 0.0259, 0.0261, 0.0259,0.0259,0.3875968992248069
MultiSource/Benchmarks/MallocBench/espresso/espresso, 4.1616, 4.1732, 4.1778,4.1732, 4.1838, 4.1895, 4.1893,4.1893,0.3857950733250348
MultiSource/Benchmarks/Olden/em3d/em3d, 0.1625, 0.1640, 0.1645,0.164, 0.1643, 0.1646, 0.1648,0.1646,0.3658536585365857
SingleSource/Benchmarks/Shootout-C++/sieve, 0.1668, 0.1659, 0.1656,0.1659, 0.1665, 0.1669, 0.1657,0.1665,0.3616636528029016
MultiSource/Benchmarks/NPB-serial/is/is, 0.0593, 0.0596, 0.0598,0.0596, 0.0597, 0.0598, 0.0599,0.0598,0.3355704697986628
SingleSource/Benchmarks/Polybench/stencils/fdtd-apml/fdtd-apml, 0.1205, 0.1204, 0.1204,0.1204, 0.1210, 0.1208, 0.1208,0.1208,0.33222591362127574
MultiSource/Applications/aha/aha, 0.0902, 0.0909, 0.0909,0.0909, 0.0912, 0.0912, 0.0912,0.0912,0.33003300330034513
SingleSource/Benchmarks/Polybench/linear-algebra/kernels/gesummv/gesummv, 0.0620, 0.0619, 0.0620,0.062, 0.0620, 0.0623, 0.0622,0.0622,0.3225806451612856
MultiSource/Benchmarks/Ptrdist/ks/ks, 0.1322, 0.1328, 0.1329,0.1328, 0.1333, 0.1332, 0.1332,0.1332,0.3012048192771122
MultiSource/Benchmarks/TSVC/Reductions-flt/Reductions-flt, 1.5546, 1.5601, 1.5570,1.557, 1.5614, 1.5601, 1.5677,1.5614,0.282594733461794
MultiSource/Benchmarks/Fhourstones-3.1/fhourstones3.1, 0.1070, 0.1075, 0.1071,0.1071, 0.1075, 0.1074, 0.1072,0.1074,0.2801120448179262
SingleSource/Benchmarks/Stanford/Treesort, 0.0358, 0.0357, 0.0359,0.0358, 0.0359, 0.0359, 0.0360,0.0359,0.27932960893854997
MultiSource/Benchmarks/TSVC/CrossingThresholds-flt/CrossingThresholds-flt, 1.5059, 1.5136, 1.5059,1.5059, 1.5101, 1.5149, 1.5094,1.5101,0.2789029816056887
MultiSource/Benchmarks/MiBench/security-sha/security-sha, 0.1074, 0.1081, 0.1082,0.1081, 0.1084, 0.1083, 0.1084,0.1084,0.27752081406104967
MultiSource/Applications/ALAC/encode/alacconvert-encode, 0.8619, 0.8657, 0.8684,0.8657, 0.8669, 0.8681, 0.8682,0.8681,0.27723229756266843
SingleSource/Benchmarks/Shootout/heapsort, 0.0365, 0.0364, 0.0366,0.0365, 0.0366, 0.0366, 0.0366,0.0366,0.273972602739736
MultiSource/Benchmarks/TSVC/IndirectAddressing-dbl/IndirectAddressing-dbl, 1.8013, 1.8034, 1.8018,1.8018, 1.8065, 1.8066, 1.8090,1.8066,0.2664002664002574
MultiSource/Benchmarks/TSVC/Symbolics-flt/Symbolics-flt, 1.4993, 1.5031, 1.5075,1.5031, 1.5034, 1.5070, 1.5094,1.507,0.25946377486525396
SingleSource/Benchmarks/Polybench/linear-algebra/solvers/durbin/durbin, 0.0809, 0.0810, 0.0810,0.081, 0.0812, 0.0812, 0.0813,0.0812,0.24691358024691024
MultiSource/Benchmarks/TSVC/ControlFlow-flt/ControlFlow-flt, 1.6393, 1.6355, 1.6381,1.6381, 1.6415, 1.6421, 1.6425,1.6421,0.24418533667054376
SingleSource/Benchmarks/Polybench/stencils/adi/adi, 0.0825, 0.0829, 0.0830,0.0829, 0.0828, 0.0834, 0.0831,0.0831,0.24125452352230514
MultiSource/Benchmarks/MallocBench/cfrac/cfrac, 0.8039, 0.8118, 0.8139,0.8118, 0.8120, 0.8137, 0.8138,0.8137,0.23404779502340656
MultiSource/Benchmarks/FreeBench/distray/distray, 0.0856, 0.0860, 0.0859,0.0859, 0.0861, 0.0861, 0.0858,0.0861,0.2328288707799775
SingleSource/Benchmarks/Stanford/Towers, 0.0445, 0.0447, 0.0447,0.0447, 0.0446, 0.0448, 0.0449,0.0448,0.22371364653244186
MultiSource/Benchmarks/FreeBench/pcompress2/pcompress2, 0.2257, 0.2274, 0.2276,0.2274, 0.2279, 0.2287, 0.2279,0.2279,0.21987686895339476
SingleSource/Benchmarks/SmallPT/smallpt, 0.0912, 0.0918, 0.0919,0.0918, 0.0919, 0.0920, 0.0921,0.092,0.2178649237472685
MultiSource/Benchmarks/Prolangs-C++/employ/employ, 0.1844, 0.1837, 0.1845,0.1844, 0.1848, 0.1856, 0.1847,0.1848,0.2169197396963085
MultiSource/Benchmarks/McCat/05-eks/eks, 0.4751, 0.4770, 0.4770,0.477, 0.4778, 0.4792, 0.4780,0.478,0.20964360587001352
SingleSource/Benchmarks/BenchmarkGame/fannkuch, 0.0479, 0.0478, 0.0479,0.0479, 0.0479, 0.0480, 0.0481,0.048,0.20876826722338038
SingleSource/Benchmarks/Stanford/FloatMM, 0.0492, 0.0491, 0.0492,0.0492, 0.0492, 0.0494, 0.0493,0.0493,0.20325203252031798
MultiSource/Benchmarks/TSVC/InductionVariable-dbl/InductionVariable-dbl, 1.8259, 1.8224, 1.8211,1.8224, 1.8221, 1.8261, 1.8291,1.8261,0.20302897278314802
MultiSource/Benchmarks/Fhourstones/fhourstones, 0.1485, 0.1497, 0.1507,0.1497, 0.1499, 0.1500, 0.1503,0.15,0.2004008016031955
MultiSource/Benchmarks/TSVC/Reductions-dbl/Reductions-dbl, 1.8403, 1.8584, 1.8657,1.8584, 1.8584, 1.8621, 1.8639,1.8621,0.1990959965561867
MultiSource/Benchmarks/McCat/18-imp/imp, 0.3003, 0.3018, 0.3019,0.3018, 0.3029, 0.3024, 0.3022,0.3024,0.1988071570576455
SingleSource/Benchmarks/Adobe-C++/simple_types_loop_invariant, 1.7957, 1.8046, 1.7937,1.7957, 1.7991, 1.7977, 1.8000,1.7991,0.18934120398730325
MultiSource/Benchmarks/mediabench/mpeg2/mpeg2dec/mpeg2decode, 1.2111, 1.2165, 1.2181,1.2165, 1.2188, 1.2183, 1.2188,1.2188,0.1890669954788482
SingleSource/Benchmarks/Shootout-C++/matrix, 0.1698, 0.1685, 0.1696,0.1696, 0.1692, 0.1700, 0.1699,0.1699,0.1768867924528239
SingleSource/Benchmarks/Stanford/Oscar, 0.0578, 0.0577, 0.0579,0.0578, 0.0579, 0.0582, 0.0579,0.0579,0.17301038062285112
MultiSource/Applications/SIBsim4/SIBsim4, 1.0602, 1.0561, 1.0560,1.0561, 1.0545, 1.0626, 1.0579,1.0579,0.170438405454032
MultiSource/Benchmarks/Olden/tsp/tsp, 0.1185, 0.1191, 0.1198,0.1191, 0.1190, 0.1195, 0.1193,0.1193,0.16792611251050804
SingleSource/Benchmarks/Shootout-C++/heapsort, 0.1217, 0.1218, 0.1217,0.1217, 0.1220, 0.1219, 0.1216,0.1219,0.16433853738702098
MultiSource/Benchmarks/Trimaran/netbench-url/netbench-url, 0.1884, 0.1902, 0.1906,0.1902, 0.1905, 0.1908, 0.1905,0.1905,0.1577287066246047
MultiSource/Benchmarks/TSVC/StatementReordering-flt/StatementReordering-flt, 1.4855, 1.4726, 1.4668,1.4726, 1.4749, 1.4737, 1.4756,1.4749,0.15618633709086893
SingleSource/Benchmarks/BenchmarkGame/n-body, 0.0654, 0.0655, 0.0656,0.0655, 0.0655, 0.0658, 0.0656,0.0656,0.15267175572519776
MultiSource/Benchmarks/ASC_Sequoia/AMGmk/AMGmk, 0.5362, 0.5381, 0.5393,0.5381, 0.5395, 0.5388, 0.5389,0.5389,0.1486712506969079
MultiSource/Benchmarks/Prolangs-C/agrep/agrep, 1.2145, 1.2178, 1.2200,1.2178, 1.2176, 1.2196, 1.2198,1.2196,0.14780752176055678
SingleSource/Benchmarks/Misc/flops, 0.0709, 0.0710, 0.0709,0.0709, 0.0709, 0.0710, 0.0711,0.071,0.1410437235542794
MultiSource/Applications/ALAC/decode/alacconvert-decode, 0.8621, 0.8664, 0.8671,0.8664, 0.8667, 0.8677, 0.8676,0.8676,0.13850415512466352
SingleSource/Benchmarks/Polybench/linear-algebra/kernels/atax/atax, 0.0740, 0.0739, 0.0739,0.0739, 0.0740, 0.0741, 0.0738,0.074,0.13531799729364913
SingleSource/Benchmarks/Adobe-C++/simple_types_constant_folding, 2.2188, 2.2284, 2.2159,2.2188, 2.2102, 2.2220, 2.2218,2.2218,0.13520822065982152
SingleSource/Benchmarks/Polybench/linear-algebra/kernels/mvt/mvt, 0.0745, 0.0744, 0.0746,0.0745, 0.0746, 0.0746, 0.0745,0.0746,0.13422818791946067
SingleSource/Benchmarks/Polybench/linear-algebra/solvers/lu/lu, 0.0820, 0.0825, 0.0824,0.0824, 0.0826, 0.0825, 0.0824,0.0825,0.12135922330096527
MultiSource/Benchmarks/7zip/7zip-benchmark,30.9758,31.0142,31.0473,31.0142,31.0499,31.0616,31.0401,31.0499,0.11510856317429319
MultiSource/Benchmarks/Ptrdist/anagram/anagram, 0.0911, 0.0913, 0.0914,0.0913, 0.0913, 0.0916, 0.0914,0.0914,0.10952902519165697
SingleSource/Benchmarks/Polybench/linear-algebra/solvers/gramschmidt/gramschmidt, 0.0936, 0.0941, 0.0938,0.0938, 0.0939, 0.0939, 0.0942,0.0939,0.10660980810235365
SingleSource/Benchmarks/Polybench/stencils/jacobi-2d-imper/jacobi-2d-imper, 0.1029, 0.1035, 0.1034,0.1034, 0.1034, 0.1035, 0.1036,0.1035,0.09671179883945502
MultiSource/Benchmarks/DOE-ProxyApps-C/Pathfinder/PathFinder, 0.7359, 0.7424, 0.7433,0.7424, 0.7421, 0.7442, 0.7431,0.7431,0.09428879310344751
MultiSource/Benchmarks/Prolangs-C/bison/mybison, 1.4695, 1.4748, 1.4762,1.4748, 1.4761, 1.4761, 1.4778,1.4761,0.08814754542987302
SingleSource/Benchmarks/Shootout-C++/strcat, 0.1158, 0.1161, 0.1163,0.1161, 0.1162, 0.1165, 0.1162,0.1162,0.08613264427217437
MultiSource/Applications/sgefa/sgefa, 0.3565, 0.3581, 0.3573,0.3573, 0.3571, 0.3577, 0.3576,0.3576,0.08396305625524292
MultiSource/Benchmarks/Trimaran/enc-md5/enc-md5, 0.1353, 0.1361, 0.1364,0.1361, 0.1361, 0.1363, 0.1362,0.1362,0.07347538574575818
MultiSource/Benchmarks/MallocBench/gs/gs, 3.4231, 3.4376, 3.4416,3.4376, 3.4367, 3.4423, 3.4400,3.44,0.06981615080288162
MultiSource/Benchmarks/TSVC/NodeSplitting-dbl/NodeSplitting-dbl, 1.7920, 1.8032, 1.7954,1.7954, 1.8030, 1.7943, 1.7965,1.7965,0.06126768408154515
MultiSource/Benchmarks/TSVC/CrossingThresholds-dbl/CrossingThresholds-dbl, 1.8115, 1.8134, 1.8068,1.8115, 1.8123, 1.8120, 1.8135,1.8123,0.0441622964394206
MultiSource/Benchmarks/TSVC/LoopRestructuring-dbl/LoopRestructuring-dbl, 1.8211, 1.8259, 1.8117,1.8211, 1.8164, 1.8216, 1.8249,1.8216,0.02745593322717177
MultiSource/Benchmarks/TSVC/Packing-flt/Packing-flt, 1.4746, 1.4627, 1.4713,1.4713, 1.4717, 1.4668, 1.4719,1.4717,0.027186841568682674
SingleSource/Benchmarks/Polybench/medley/reg_detect/reg_detect, 0.3822, 0.3806, 0.3831,0.3822, 0.3835, 0.3823, 0.3823,0.3823,0.02616431187858481
MultiSource/Benchmarks/TSVC/Packing-dbl/Packing-dbl, 1.7749, 1.7733, 1.7727,1.7733, 1.7677, 1.7737, 1.7766,1.7737,0.022556814977714446
MultiSource/Applications/sqlite3/sqlite3,13.3309,13.2865,13.3353,13.3309,13.3530,13.2830,13.3322,13.3322,0.009751779699795904
SingleSource/Benchmarks/Stanford/Queens, 0.0415, 0.0415, 0.0415,0.0415, 0.0414, 0.0415, 0.0416,0.0415,0.0
SingleSource/Benchmarks/Stanford/Puzzle, 0.1013, 0.1012, 0.1016,0.1013, 0.1010, 0.1013, 0.1013,0.1013,0.0
SingleSource/Benchmarks/Shootout/matrix, 0.0758, 0.0761, 0.0761,0.0761, 0.0759, 0.0761, 0.0761,0.0761,0.0
SingleSource/Benchmarks/Shootout/lists, 0.0618, 0.0618, 0.0620,0.0618, 0.0618, 0.0621, 0.0618,0.0618,0.0
SingleSource/Benchmarks/Shootout/hash, 0.0476, 0.0476, 0.0478,0.0476, 0.0475, 0.0478, 0.0476,0.0476,0.0
SingleSource/Benchmarks/Shootout/ary3, 0.0323, 0.0324, 0.0324,0.0324, 0.0323, 0.0324, 0.0325,0.0324,0.0
SingleSource/Benchmarks/Shootout-C++/objinst, 0.1302, 0.1299, 0.1309,0.1302, 0.1302, 0.1304, 0.1302,0.1302,0.0
SingleSource/Benchmarks/Polybench/linear-algebra/kernels/symm/symm, 0.0709, 0.0706, 0.0708,0.0708, 0.0708, 0.0708, 0.0711,0.0708,0.0
SingleSource/Benchmarks/Polybench/linear-algebra/kernels/doitgen/doitgen, 0.0898, 0.0897, 0.0896,0.0897, 0.0897, 0.0899, 0.0896,0.0897,0.0
SingleSource/Benchmarks/Misc/salsa20, 0.0502, 0.0503, 0.0505,0.0503, 0.0503, 0.0503, 0.0504,0.0503,0.0
SingleSource/Benchmarks/Misc/revertBits, 0.0240, 0.0241, 0.0241,0.0241, 0.0241, 0.0242, 0.0241,0.0241,0.0
SingleSource/Benchmarks/Misc/perlin, 0.0423, 0.0421, 0.0421,0.0421, 0.0419, 0.0422, 0.0421,0.0421,0.0
SingleSource/Benchmarks/Misc/evalloop, 0.0337, 0.0339, 0.0339,0.0339, 0.0339, 0.0339, 0.0339,0.0339,0.0
SingleSource/Benchmarks/Misc/ReedSolomon, 0.1718, 0.1722, 0.1722,0.1722, 0.1726, 0.1720, 0.1722,0.1722,0.0
MultiSource/Benchmarks/TSVC/Searching-flt/Searching-flt, 1.4630, 1.4624, 1.4591,1.4624, 1.4624, 1.4610, 1.4634,1.4624,0.0
MultiSource/Benchmarks/TSVC/InductionVariable-flt/InductionVariable-flt, 1.5243, 1.5260, 1.5263,1.526, 1.5265, 1.5195, 1.5260,1.526,0.0
MultiSource/Benchmarks/Prolangs-C++/ocean/ocean, 0.1001, 0.1001, 0.1002,0.1001, 0.1000, 0.1001, 0.1001,0.1001,0.0
MultiSource/Benchmarks/Prolangs-C++/life/life, 0.0549, 0.0551, 0.0552,0.0551, 0.0552, 0.0551, 0.0550,0.0551,0.0
MultiSource/Benchmarks/MiBench/network-dijkstra/network-dijkstra, 0.0388, 0.0390, 0.0390,0.039, 0.0389, 0.0390, 0.0390,0.039,0.0
MultiSource/Benchmarks/Bullet/bullet,21.0329,21.0321,21.0602,21.0329,21.0279,21.0283,21.0419,21.0283,-0.02187049812436559
SingleSource/Benchmarks/Adobe-C++/loop_unroll, 3.9142, 3.9276, 3.9205,3.9205, 3.9193, 3.9043, 3.9240,3.9193,-0.030608340772864118
MultiSource/Applications/obsequi/Obsequi, 0.9071, 0.9040, 0.9062,0.9062, 0.9059, 0.9051, 0.9118,0.9059,-0.033105274773781446
MultiSource/Benchmarks/DOE-ProxyApps-C/miniGMG/miniGMG, 0.8858, 0.8874, 0.8903,0.8874, 0.8873, 0.8870, 0.8869,0.887,-0.04507550146495287
SingleSource/Benchmarks/Shootout-C++/lists1, 0.1792, 0.1787, 0.1780,0.1787, 0.1784, 0.1788, 0.1786,0.1786,-0.05595970900951208
MultiSource/Benchmarks/FreeBench/pifft/pifft, 0.8389, 0.8396, 0.8400,0.8396, 0.8382, 0.8391, 0.8404,0.8391,-0.059552167698906366
MultiSource/Benchmarks/TSVC/NodeSplitting-flt/NodeSplitting-flt, 1.4991, 1.5031, 1.4961,1.4991, 1.4981, 1.4907, 1.4998,1.4981,-0.06670669068108426
MultiSource/Benchmarks/TSVC/StatementReordering-dbl/StatementReordering-dbl, 1.7687, 1.7761, 1.7711,1.7711, 1.7753, 1.7691, 1.7699,1.7699,-0.0677545028513249
MultiSource/Applications/JM/lencod/lencod,13.4048,13.4307,13.4304,13.4304,13.4152,13.4206,13.4268,13.4206,-0.07296878722897748
MultiSource/Benchmarks/DOE-ProxyApps-C/miniAMR/miniAMR, 1.2259, 1.2315, 1.2312,1.2312, 1.2300, 1.2303, 1.2313,1.2303,-0.07309941520469154
MultiSource/Benchmarks/TSVC/LinearDependence-dbl/LinearDependence-dbl, 1.8684, 1.8625, 1.8684,1.8684, 1.8671, 1.8650, 1.8669,1.8669,-0.08028259473346067
MultiSource/Applications/hbd/hbd, 1.0978, 1.1027, 1.1057,1.1027, 1.1018, 1.1027, 1.1015,1.1018,-0.08161784710257747
MultiSource/Benchmarks/TSVC/Recurrences-flt/Recurrences-flt, 1.4737, 1.4757, 1.4695,1.4737, 1.4724, 1.4709, 1.4752,1.4724,-0.08821334057135255
MultiSource/Applications/lambda-0.1.3/lambda, 0.5055, 0.5071, 0.5064,0.5064, 0.5059, 0.5063, 0.5045,0.5059,-0.0987361769352213
MultiSource/Benchmarks/TSVC/IndirectAddressing-flt/IndirectAddressing-flt, 1.4967, 1.5061, 1.5032,1.5032, 1.5006, 1.5058, 1.5017,1.5017,-0.09978712080894736
MultiSource/Benchmarks/FreeBench/fourinarow/fourinarow, 0.3072, 0.3074, 0.3063,0.3072, 0.3068, 0.3054, 0.3069,0.3068,-0.13020833333331483
MultiSource/Benchmarks/mediabench/jpeg/jpeg-6a/cjpeg, 4.0908, 4.1092, 4.1136,4.1092, 4.1012, 4.1047, 4.1034,4.1034,-0.1411466952204954
MultiSource/Benchmarks/nbench/nbench, 1.0190, 1.0162, 1.0177,1.0177, 1.0152, 1.0182, 1.0162,1.0162,-0.14739117618158826
MultiSource/Applications/JM/ldecod/ldecod, 5.7891, 5.7903, 5.7894,5.7894, 5.7793, 5.7802, 5.7855,5.7802,-0.15891111341417297
MultiSource/Benchmarks/Ptrdist/yacr2/yacr2, 0.5511, 0.5549, 0.5548,0.5548, 0.5535, 0.5539, 0.5539,0.5539,-0.162220620043263
MultiSource/Benchmarks/TSVC/ControlFlow-dbl/ControlFlow-dbl, 1.9357, 1.9371, 1.9442,1.9371, 1.9329, 1.9382, 1.9338,1.9338,-0.17035775127768327
MultiSource/Benchmarks/MiBench/consumer-jpeg/consumer-jpeg, 4.0519, 4.0725, 4.0751,4.0725, 4.0630, 4.0656, 4.0654,4.0654,-0.17434008594228168
MultiSource/Benchmarks/PAQ8p/paq8p, 1.7176, 1.7222, 1.7304,1.7222, 1.7191, 1.7173, 1.7262,1.7191,-0.18000232261060622
MultiSource/Benchmarks/FreeBench/neural/neural, 0.1606, 0.1609, 0.1616,0.1609, 0.1605, 0.1606, 0.1611,0.1606,-0.18645121193286984
SingleSource/Benchmarks/Shootout-C++/fibo, 0.1067, 0.1064, 0.1068,0.1067, 0.1062, 0.1065, 0.1070,0.1065,-0.18744142455483503
MultiSource/Benchmarks/Ptrdist/ft/ft, 0.1916, 0.1928, 0.1935,0.1928, 0.1919, 0.1924, 0.1928,0.1924,-0.20746887966806016
MultiSource/Benchmarks/Ptrdist/bc/bc, 0.9206, 0.9239, 0.9235,0.9235, 0.9213, 0.9214, 0.9228,0.9214,-0.22739577693556834
MultiSource/Benchmarks/TSVC/Equivalencing-flt/Equivalencing-flt, 1.5173, 1.5132, 1.5186,1.5173, 1.5099, 1.5162, 1.5138,1.5138,-0.23067290581955113
MultiSource/Benchmarks/sim/sim, 0.2600, 0.2587, 0.2589,0.2589, 0.2583, 0.2582, 0.2584,0.2583,-0.2317497103128785
MultiSource/Benchmarks/TSVC/LoopRerolling-flt/LoopRerolling-flt, 1.4862, 1.4877, 1.4832,1.4862, 1.4868, 1.4820, 1.4826,1.4826,-0.2422285022204318
SingleSource/Benchmarks/Linpack/linpack-pc, 0.2792, 0.2798, 0.2796,0.2796, 0.2806, 0.2788, 0.2789,0.2789,-0.2503576537911445
MultiSource/Benchmarks/VersaBench/beamformer/beamformer, 0.2737, 0.2751, 0.2750,0.275, 0.2751, 0.2742, 0.2743,0.2743,-0.25454545454546285
MultiSource/Benchmarks/mafft/pairlocalalign, 7.9351, 7.9492, 7.9329,7.9351, 7.9153, 7.9059, 7.9140,7.914,-0.2659071719323114
MultiSource/Applications/lua/lua, 2.9478, 2.9605, 2.9592,2.9592, 2.9490, 2.9555, 2.9510,2.951,-0.27710191943768336
MultiSource/Applications/minisat/minisat, 0.5643, 0.5682, 0.5633,0.5643, 0.5653, 0.5606, 0.5627,0.5627,-0.28353712564239686
SingleSource/Benchmarks/McGill/chomp, 0.1709, 0.1711, 0.1704,0.1709, 0.1704, 0.1706, 0.1700,0.1704,-0.29256875365710755
MultiSource/Benchmarks/TSVC/Recurrences-dbl/Recurrences-dbl, 1.7760, 1.7784, 1.7771,1.7771, 1.7663, 1.7717, 1.7747,1.7717,-0.30386584885486734
MultiSource/Benchmarks/TSVC/Expansion-flt/Expansion-flt, 1.5455, 1.5556, 1.5528,1.5528, 1.5478, 1.5593, 1.5479,1.5479,-0.3155589902112288
MultiSource/Benchmarks/TSVC/Searching-dbl/Searching-dbl, 1.7675, 1.7655, 1.7665,1.7665, 1.7613, 1.7528, 1.7606,1.7606,-0.33399377299745403
MultiSource/Applications/ClamAV/clamscan,13.2189,13.2482,13.2493,13.2482,13.2037,13.2170,13.1993,13.2037,-0.33589468758020713
SingleSource/Benchmarks/Misc/richards_benchmark, 0.0590, 0.0589, 0.0589,0.0589, 0.0588, 0.0586, 0.0587,0.0587,-0.339558573853993
MultiSource/Benchmarks/MiBench/security-rijndael/security-rijndael, 0.3616, 0.3627, 0.3634,0.3627, 0.3614, 0.3613, 0.3621,0.3614,-0.35842293906810374
MultiSource/Benchmarks/TSVC/ControlLoops-flt/ControlLoops-flt, 1.5539, 1.5622, 1.5558,1.5558, 1.5572, 1.5497, 1.5499,1.5499,-0.3792261216094661
MultiSource/Applications/siod/siod, 1.8207, 1.8186, 1.8235,1.8207, 1.8135, 1.8134, 1.8063,1.8134,-0.4009446916021342
MultiSource/Applications/oggenc/oggenc, 4.3657, 4.3721, 4.3712,4.3712, 4.3448, 4.3535, 4.3597,4.3535,-0.40492313323571283
MultiSource/Benchmarks/TSVC/Equivalencing-dbl/Equivalencing-dbl, 1.8182, 1.8263, 1.8236,1.8236, 1.8154, 1.8236, 1.8162,1.8162,-0.40579074358412237
MultiSource/Benchmarks/TSVC/GlobalDataFlow-dbl/GlobalDataFlow-dbl, 1.8488, 1.8517, 1.8562,1.8517, 1.8376, 1.8437, 1.8448,1.8437,-0.4320354269050086
SingleSource/Benchmarks/CoyoteBench/lpbench, 0.1383, 0.1380, 0.1378,0.138, 0.1371, 0.1381, 0.1374,0.1374,-0.43478260869566077
MultiSource/Benchmarks/DOE-ProxyApps-C++/CLAMR/CLAMR,16.3805,16.3797,16.3919,16.3805,16.2981,16.3264,16.3026,16.3026,-0.4755654589298275
MultiSource/Applications/kimwitu++/kc,10.1029,10.0443,10.0818,10.0818,10.0221,10.0416,10.0261,10.0261,-0.5524807078101102
MultiSource/Benchmarks/MiBench/consumer-typeset/consumer-typeset, 8.9228, 8.9414, 8.9531,8.9414, 8.8892, 8.9011, 8.8913,8.8913,-0.5603149394949436
MultiSource/Benchmarks/TSVC/ControlLoops-dbl/ControlLoops-dbl, 1.8577, 1.8668, 1.8640,1.864, 1.8475, 1.8534, 1.8562,1.8534,-0.5686695278970033
MultiSource/Applications/SPASS/SPASS,11.1334,11.1427,11.1505,11.1427,11.0723,11.0774,11.0854,11.0774,-0.5860339056063535
MultiSource/Benchmarks/TSVC/GlobalDataFlow-flt/GlobalDataFlow-flt, 1.5509, 1.5523, 1.5449,1.5509, 1.5400, 1.5409, 1.5448,1.5409,-0.6447868979302385
MultiSource/Benchmarks/TSVC/LoopRerolling-dbl/LoopRerolling-dbl, 1.7901, 1.7925, 1.7919,1.7919, 1.7784, 1.7813, 1.7770,1.7784,-0.7533902561526862
MultiSource/Applications/d/make_dparser, 2.4201, 2.3988, 2.4041,2.4041, 2.3821, 2.3899, 2.3797,2.3821,-0.9151033650846574
SingleSource/Benchmarks/Shootout-C++/hash, 0.2480, 0.2474, 0.2477,0.2477, 0.2452, 0.2455, 0.2454,0.2454,-0.9285425918449719
MultiSource/Benchmarks/McCat/09-vor/vor, 0.2517, 0.2529, 0.2535,0.2529, 0.2501, 0.2507, 0.2504,0.2504,-0.9885330170027684
SingleSource/Benchmarks/CoyoteBench/huffbench, 0.0786, 0.0786, 0.0783,0.0786, 0.0775, 0.0775, 0.0776,0.0775,-1.3994910941475869
MultiSource/Benchmarks/tramp3d-v4/tramp3d-v4,18.3736,18.3727,18.3616,18.3727,18.0320,18.1144,18.1558,18.1144,-1.4058902610939006
SingleSource/Benchmarks/Adobe-C++/functionobjects, 0.4184, 0.4164, 0.4161,0.4164, 0.4103, 0.4085, 0.4103,0.4103,-1.4649375600384262
SingleSource/Benchmarks/Misc-C++/stepanov_v1p2, 0.1586, 0.1584, 0.1577,0.1584, 0.1554, 0.1552, 0.1556,0.1554,-1.8939393939393923
SingleSource/Benchmarks/Misc-C++-EH/spirit, 3.3897, 3.3677, 3.3799,3.3799, 3.2793, 3.2966, 3.3016,3.2966,-2.464569957691054
SingleSource/Benchmarks/Adobe-C++/stepanov_abstraction, 0.5579, 0.5579, 0.5576,0.5579, 0.5249, 0.5244, 0.5272,0.5249,-5.915038537372275
MultiSource/Benchmarks/Olden/voronoi/voronoi, 0.2252, 0.2221, 0.2232,0.2232, 0.2010, 0.2006, 0.2008,0.2008,-10.035842293906816
SingleSource/Benchmarks/Adobe-C++/stepanov_vector, 0.6856, 0.6797, 0.6791,0.6797, 0.5769, 0.5756, 0.5783,0.5769,-15.12431955274386
Total elapsed time,-,-,-,335.23669999999964,-,-,-,334.6356999999997,-0.17927631431760016
Total failure,-,-,-,0,-,-,-,0,
Geom. avg slowdown,,,,,,,,,0.143709287476%
