Benchmarks,base-5.0,base-5.0,base-5.0,median,nocapture-opt-5.0,nocapture-opt-5.0,nocapture-opt-5.0,median,Slowdown(%)
MultiSource/Benchmarks/BitBench/drop3/drop3, 0.1784, 0.1856, 0.1818,0.1818, 0.1798, 0.1893, 0.1884,0.1884,3.630363036303641
MultiSource/Benchmarks/Olden/bh/bh, 1.2799, 1.2789, 1.2771,1.2789, 1.3190, 1.3177, 1.3193,1.319,3.1355070763937842
SingleSource/Benchmarks/Misc/flops-4, 2.2797, 2.2796, 2.3271,2.2797, 2.3271, 2.2796, 2.3271,2.3271,2.079220950125027
MultiSource/Applications/lambda-0.1.3/lambda, 2.6398, 2.6485, 2.6596,2.6485, 2.7043, 2.7020, 2.7014,2.702,2.0200113271663156
MultiSource/Benchmarks/Prolangs-C++/city/city, 0.0050, 0.0050, 0.0050,0.005, 0.0051, 0.0051, 0.0051,0.0051,2.0000000000000018
MultiSource/Applications/minisat/minisat, 4.1172, 3.9614, 4.1554,4.1172, 4.2065, 4.1978, 4.1949,4.1978,1.9576411153210849
MultiSource/Benchmarks/TSVC/LoopRestructuring-flt/LoopRestructuring-flt, 2.8297, 2.8890, 2.9380,2.889, 2.9595, 2.9397, 2.9443,2.9443,1.9141571478020092
MultiSource/Benchmarks/Fhourstones/fhourstones, 0.5836, 0.5675, 0.5610,0.5675, 0.5781, 0.5737, 0.5788,0.5781,1.8678414096916285
MultiSource/Benchmarks/McCat/03-testtrie/testtrie, 0.0063, 0.0061, 0.0062,0.0062, 0.0062, 0.0063, 0.0063,0.0063,1.6129032258064502
MultiSource/Benchmarks/NPB-serial/is/is, 5.0305, 5.0635, 5.0634,5.0634, 5.1590, 5.1448, 5.1449,5.1449,1.609590393806526
SingleSource/Benchmarks/Misc-C++-EH/spirit, 2.6175, 2.6167, 2.6210,2.6175, 2.6546, 2.6594, 2.6545,2.6546,1.4173829990448805
MultiSource/Benchmarks/McCat/17-bintr/bintr, 0.0817, 0.0794, 0.0809,0.0809, 0.0811, 0.0819, 0.0825,0.0819,1.2360939431396822
SingleSource/Benchmarks/BenchmarkGame/recursive, 0.7052, 0.7041, 0.7069,0.7052, 0.7130, 0.7154, 0.7128,0.713,1.1060692002268668
SingleSource/Benchmarks/Misc/himenobmtxpa, 0.5156, 0.5241, 0.5168,0.5168, 0.5186, 0.5249, 0.5224,0.5224,1.0835913312693402
MultiSource/Benchmarks/BitBench/uuencode/uuencode, 0.0104, 0.0105, 0.0104,0.0104, 0.0105, 0.0105, 0.0105,0.0105,0.9615384615384803
SingleSource/Benchmarks/Shootout-C++/ary, 0.0141, 0.0141, 0.0141,0.0141, 0.0142, 0.0141, 0.0142,0.0142,0.7092198581560405
SingleSource/Benchmarks/BenchmarkGame/Large/fasta, 0.6449, 0.6504, 0.6458,0.6458, 0.6481, 0.6514, 0.6501,0.6501,0.6658408175905794
SingleSource/Benchmarks/BenchmarkGame/nsieve-bits, 0.4920, 0.4805, 0.4846,0.4846, 0.4878, 0.4819, 0.4899,0.4878,0.6603384234420195
MultiSource/Benchmarks/7zip/7zip-benchmark, 6.3323, 6.3313, 6.3309,6.3313, 6.3707, 6.3711, 6.3711,6.3711,0.6286228736594568
SingleSource/Benchmarks/Shootout-C++/hash2, 1.7154, 1.7131, 1.7155,1.7154, 1.7257, 1.7260, 1.7271,1.726,0.6179316777428001
MultiSource/Benchmarks/MallocBench/cfrac/cfrac, 0.7592, 0.7591, 0.7593,0.7592, 0.7635, 0.7636, 0.7638,0.7636,0.5795574288725014
SingleSource/Benchmarks/Shootout/ary3, 0.5999, 0.5969, 0.5970,0.597, 0.6034, 0.6002, 0.5987,0.6002,0.5360134003350003
MultiSource/Benchmarks/Prolangs-C++/primes/primes, 0.2125, 0.2125, 0.2144,0.2125, 0.2136, 0.2148, 0.2128,0.2136,0.5176470588235338
MultiSource/Benchmarks/Olden/voronoi/voronoi, 0.2137, 0.2136, 0.2133,0.2136, 0.2147, 0.2146, 0.2147,0.2147,0.5149812734082326
MultiSource/Applications/sqlite3/sqlite3, 1.7780, 1.7811, 1.7754,1.778, 1.7904, 1.7864, 1.7871,1.7871,0.511811023622033
MultiSource/Applications/viterbi/viterbi, 1.2781, 1.2776, 1.2783,1.2781, 1.2828, 1.2845, 1.2856,1.2845,0.5007432908223031
MultiSource/Benchmarks/MiBench/telecomm-CRC32/telecomm-CRC32, 0.2068, 0.2045, 0.2040,0.2045, 0.2061, 0.2043, 0.2055,0.2055,0.4889975550122161
MultiSource/Benchmarks/TSVC/Symbolics-flt/Symbolics-flt, 1.3884, 1.3954, 1.3875,1.3884, 1.3967, 1.3950, 1.3917,1.395,0.4753673292999139
SingleSource/Benchmarks/Shootout-C++/hash, 0.3073, 0.3064, 0.3085,0.3073, 0.3091, 0.3079, 0.3086,0.3086,0.4230393752033823
MultiSource/Benchmarks/Bullet/bullet, 3.2502, 3.2491, 3.2454,3.2491, 3.2600, 3.2615, 3.2631,3.2615,0.3816441476101051
SingleSource/Benchmarks/Misc-C++/bigfib, 0.1912, 0.1906, 0.1906,0.1906, 0.1913, 0.1916, 0.1912,0.1913,0.3672612801678854
MultiSource/Benchmarks/McCat/09-vor/vor, 0.0828, 0.0828, 0.0830,0.0828, 0.0830, 0.0833, 0.0831,0.0831,0.36231884057971175
MultiSource/Applications/kimwitu++/kc, 0.0282, 0.0281, 0.0281,0.0281, 0.0280, 0.0282, 0.0282,0.0282,0.3558718861209842
MultiSource/Benchmarks/Ptrdist/ks/ks, 0.6496, 0.6531, 0.6505,0.6505, 0.6527, 0.6549, 0.6511,0.6527,0.33820138355111773
MultiSource/Benchmarks/MiBench/telecomm-gsm/telecomm-gsm, 0.1048, 0.0999, 0.0999,0.0999, 0.1002, 0.1015, 0.0992,0.1002,0.30030030030030463
MultiSource/Benchmarks/DOE-ProxyApps-C/miniAMR/miniAMR, 0.7731, 0.7720, 0.7710,0.772, 0.7743, 0.7745, 0.7723,0.7743,0.2979274611399019
MultiSource/Benchmarks/Prolangs-C++/ocean/ocean, 0.0361, 0.0360, 0.0360,0.036, 0.0360, 0.0361, 0.0361,0.0361,0.2777777777777768
MultiSource/Benchmarks/MiBench/automotive-basicmath/automotive-basicmath, 0.2227, 0.2224, 0.2226,0.2226, 0.2228, 0.2232, 0.2235,0.2232,0.26954177897575704
SingleSource/Benchmarks/McGill/chomp, 1.3040, 1.2363, 1.2999,1.2999, 1.3011, 1.3047, 1.3034,1.3034,0.2692514808831259
SingleSource/Benchmarks/Adobe-C++/functionobjects, 3.0294, 3.0298, 3.0288,3.0294, 3.0373, 3.0367, 3.0383,3.0373,0.26077771175812003
MultiSource/Benchmarks/Prolangs-C++/life/life, 0.7136, 0.7145, 0.7148,0.7145, 0.7143, 0.7163, 0.7182,0.7163,0.2519244226732109
MultiSource/Benchmarks/VersaBench/dbms/dbms, 0.8882, 0.8969, 0.8906,0.8906, 0.8988, 0.8928, 0.8908,0.8928,0.24702447788009785
MultiSource/Benchmarks/TSVC/ControlFlow-flt/ControlFlow-flt, 3.5461, 3.5591, 3.5630,3.5591, 3.5584, 3.5674, 3.5703,3.5674,0.23320502374195584
MultiSource/Benchmarks/mafft/pairlocalalign,24.6627,24.6616,24.6617,24.6617,24.7180,24.7192,24.7197,24.7192,0.2331550541933458
MultiSource/Benchmarks/McCat/12-IOtest/iotest, 0.2143, 0.2145, 0.2146,0.2145, 0.2150, 0.2155, 0.2148,0.215,0.2331002331002363
SingleSource/Benchmarks/CoyoteBench/lpbench, 1.8173, 1.8191, 1.8137,1.8173, 1.8212, 1.8211, 1.8171,1.8211,0.20910141418588601
MultiSource/Benchmarks/TSVC/ControlLoops-flt/ControlLoops-flt, 2.3515, 2.3463, 2.3487,2.3487, 2.3543, 2.3533, 2.3516,2.3533,0.19585302507769686
SingleSource/Benchmarks/Polybench/stencils/fdtd-2d/fdtd-2d, 0.4109, 0.4094, 0.4069,0.4094, 0.4107, 0.4102, 0.4094,0.4102,0.19540791402052893
MultiSource/Benchmarks/Ptrdist/bc/bc, 0.3640, 0.3634, 0.3636,0.3636, 0.3643, 0.3641, 0.3643,0.3643,0.19251925192520503
MultiSource/Benchmarks/McCat/18-imp/imp, 0.0554, 0.0555, 0.0555,0.0555, 0.0556, 0.0554, 0.0556,0.0556,0.18018018018017834
MultiSource/Benchmarks/VersaBench/8b10b/8b10b, 3.6024, 3.6152, 3.6037,3.6037, 3.6100, 3.5954, 3.6109,3.61,0.17482032355633503
SingleSource/Benchmarks/Adobe-C++/loop_unroll, 1.7723, 1.7734, 1.7752,1.7734, 1.7683, 1.7788, 1.7764,1.7764,0.16916657268524204
SingleSource/Benchmarks/Shootout-C++/EH/except, 0.1201, 0.1204, 0.1204,0.1204, 0.1205, 0.1207, 0.1206,0.1206,0.16611295681063787
MultiSource/Benchmarks/TSVC/LinearDependence-flt/LinearDependence-flt, 4.9821, 4.9762, 4.9843,4.9821, 4.9900, 4.9919, 4.9834,4.99,0.15856767226671842
MultiSource/Benchmarks/FreeBench/pifft/pifft, 0.0650, 0.0652, 0.0650,0.065, 0.0652, 0.0651, 0.0651,0.0651,0.15384615384614886
SingleSource/Benchmarks/Polybench/linear-algebra/kernels/cholesky/cholesky, 0.4549, 0.4554, 0.4568,0.4554, 0.4625, 0.4559, 0.4561,0.4561,0.1537110232762373
SingleSource/Benchmarks/Shootout-C++/ary3, 0.5360, 0.5383, 0.5367,0.5367, 0.5366, 0.5375, 0.5378,0.5375,0.14905906465436658
SingleSource/Benchmarks/Shootout/heapsort, 2.0368, 2.0389, 2.0372,2.0372, 2.0379, 2.0404, 2.0401,2.0401,0.14235224818377468
SingleSource/Benchmarks/Shootout-C++/methcall, 3.4498, 3.4547, 3.4496,3.4498, 3.4548, 3.4496, 3.4547,3.4547,0.14203721954895165
MultiSource/Benchmarks/TSVC/StatementReordering-flt/StatementReordering-flt, 1.8292, 1.8265, 1.8263,1.8265, 1.8291, 1.8241, 1.8288,1.8288,0.12592389816588057
SingleSource/Benchmarks/Polybench/stencils/fdtd-apml/fdtd-apml, 0.7208, 0.7213, 0.7260,0.7213, 0.7222, 0.7224, 0.7216,0.7222,0.12477471232494874
SingleSource/Benchmarks/Polybench/linear-algebra/kernels/mvt/mvt, 0.2483, 0.2482, 0.2435,0.2482, 0.2486, 0.2485, 0.2437,0.2485,0.1208702659145855
SingleSource/Benchmarks/SmallPT/smallpt, 7.5461, 7.5423, 7.5470,7.5461, 7.5549, 7.5471, 7.5608,7.5549,0.11661653039318765
SingleSource/Benchmarks/Shootout/strcat, 0.1051, 0.1050, 0.1050,0.105, 0.1051, 0.1051, 0.1051,0.1051,0.09523809523810378
MultiSource/Benchmarks/tramp3d-v4/tramp3d-v4, 0.2395, 0.2397, 0.2396,0.2396, 0.2400, 0.2397, 0.2398,0.2398,0.08347245409014992
MultiSource/Benchmarks/Olden/perimeter/perimeter, 0.1217, 0.1220, 0.1219,0.1219, 0.1221, 0.1220, 0.1218,0.122,0.08203445447088065
SingleSource/Benchmarks/Misc/evalloop, 0.3683, 0.3680, 0.3690,0.3683, 0.3686, 0.3685, 0.3686,0.3686,0.08145533532446514
SingleSource/Benchmarks/Linpack/linpack-pc, 1.2417, 1.2405, 1.2404,1.2405, 1.2415, 1.2416, 1.2410,1.2415,0.08061265618704017
MultiSource/Benchmarks/TSVC/CrossingThresholds-flt/CrossingThresholds-flt, 1.6260, 1.6366, 1.6295,1.6295, 1.6311, 1.6275, 1.6308,1.6308,0.07977907333538425
MultiSource/Benchmarks/Olden/treeadd/treeadd, 0.1264, 0.1266, 0.1264,0.1264, 0.1265, 0.1265, 0.1264,0.1265,0.07911392405062223
SingleSource/Benchmarks/BenchmarkGame/puzzle, 0.1291, 0.1292, 0.1290,0.1291, 0.1292, 0.1294, 0.1292,0.1292,0.07745933384974979
MultiSource/Benchmarks/DOE-ProxyApps-C++/CLAMR/CLAMR, 1.1202, 1.1202, 1.1201,1.1202, 1.1210, 1.1211, 1.1208,1.121,0.07141581860381496
MultiSource/Benchmarks/TSVC/IndirectAddressing-flt/IndirectAddressing-flt, 2.2425, 2.2463, 2.2442,2.2442, 2.2445, 2.2482, 2.2458,2.2458,0.07129489350323759
MultiSource/Applications/JM/lencod/lencod, 3.1663, 3.1622, 3.1617,3.1622, 3.1643, 3.1581, 3.1648,3.1643,0.06640946176712514
SingleSource/Benchmarks/Polybench/linear-algebra/kernels/gemver/gemver, 0.3211, 0.3215, 0.3222,0.3215, 0.3217, 0.3217, 0.3222,0.3217,0.06220839813373402
MultiSource/Benchmarks/TSVC/LinearDependence-dbl/LinearDependence-dbl, 5.7071, 5.7067, 5.7073,5.7071, 5.7076, 5.7103, 5.7123,5.7103,0.0560705086646518
MultiSource/Benchmarks/DOE-ProxyApps-C++/HPCCG/HPCCG, 0.9021, 0.9005, 0.8995,0.9005, 0.9010, 0.9003, 0.9010,0.901,0.05552470849528035
MultiSource/Benchmarks/SciMark2-C/scimark2,42.0700,42.0691,42.0903,42.07,42.0937,42.0907,42.0930,42.093,0.05467078678393911
MultiSource/Benchmarks/Fhourstones-3.1/fhourstones3.1, 0.7712, 0.7713, 0.7714,0.7713, 0.7719, 0.7717, 0.7717,0.7717,0.0518604952677304
SingleSource/Benchmarks/Shootout/lists, 4.0791, 4.0819, 4.0799,4.0799, 4.0820, 4.0783, 4.0827,4.082,0.051471849800233116
MultiSource/Benchmarks/Ptrdist/anagram/anagram, 0.6001, 0.6001, 0.6002,0.6001, 0.6002, 0.6004, 0.6004,0.6004,0.049991668055326954
MultiSource/Benchmarks/Trimaran/netbench-crc/netbench-crc, 0.6214, 0.6210, 0.6209,0.621, 0.6214, 0.6213, 0.6212,0.6213,0.04830917874396601
MultiSource/Benchmarks/nbench/nbench, 1.2713, 1.2717, 1.2722,1.2717, 1.2722, 1.2731, 1.2717,1.2722,0.03931744908389767
MultiSource/Benchmarks/TSVC/CrossingThresholds-dbl/CrossingThresholds-dbl, 2.1488, 2.1494, 2.1491,2.1491, 2.1499, 2.1488, 2.1498,2.1498,0.032571774231082706
SingleSource/Benchmarks/Polybench/stencils/adi/adi, 2.8039, 2.8038, 2.8040,2.8039, 2.8039, 2.8048, 2.8060,2.8048,0.032098149006754007
MultiSource/Benchmarks/Trimaran/enc-3des/enc-3des, 1.2894, 1.2895, 1.2893,1.2894, 1.2899, 1.2897, 1.2898,1.2898,0.03102218085930808
MultiSource/Benchmarks/Olden/tsp/tsp, 1.1718, 1.1719, 1.1720,1.1719, 1.1723, 1.1721, 1.1722,1.1722,0.025599453878322187
SingleSource/Benchmarks/Polybench/linear-algebra/solvers/durbin/durbin, 0.3969, 0.3975, 0.4070,0.3975, 0.4068, 0.3974, 0.3976,0.3976,0.02515723270439807
MultiSource/Benchmarks/TSVC/Searching-flt/Searching-flt, 2.4315, 2.4327, 2.4343,2.4327, 2.4337, 2.4333, 2.4332,2.4333,0.02466395363176499
SingleSource/Benchmarks/BenchmarkGame/fannkuch, 2.0901, 2.0888, 2.0896,2.0896, 2.0897, 2.0901, 2.0918,2.0901,0.023928024502306577
MultiSource/Benchmarks/Olden/em3d/em3d, 1.7024, 1.7018, 1.7019,1.7019, 1.7017, 1.7023, 1.7028,1.7023,0.023503143545444694
MultiSource/Benchmarks/TSVC/Equivalencing-dbl/Equivalencing-dbl, 1.3880, 1.3857, 1.3856,1.3857, 1.3883, 1.3849, 1.3860,1.386,0.021649707728932377
SingleSource/Benchmarks/Shootout-C++/fibo, 1.4769, 1.4778, 1.4762,1.4769, 1.4772, 1.4778, 1.4765,1.4772,0.02031281738776869
SingleSource/Benchmarks/Misc-C++/Large/ray, 3.1396, 3.1392, 3.1393,3.1393, 3.1399, 3.1399, 3.1399,3.1399,0.019112541012322737
MultiSource/Benchmarks/Ptrdist/yacr2/yacr2, 0.5304, 0.5300, 0.5299,0.53, 0.5303, 0.5300, 0.5301,0.5301,0.018867924528298552
SingleSource/Benchmarks/Adobe-C++/simple_types_constant_folding, 0.6645, 0.6645, 0.6645,0.6645, 0.6646, 0.6646, 0.6645,0.6646,0.015048908954096163
MultiSource/Benchmarks/DOE-ProxyApps-C/miniGMG/miniGMG, 5.2020, 5.2021, 5.2014,5.202, 5.2033, 5.2027, 5.2024,5.2027,0.013456362937325217
SingleSource/Benchmarks/Misc/ReedSolomon, 3.1536, 3.1536, 3.1537,3.1536, 3.1540, 3.1542, 3.1536,3.154,0.012683916793498895
MultiSource/Benchmarks/TSVC/ControlLoops-dbl/ControlLoops-dbl, 2.5416, 2.5407, 2.5405,2.5407, 2.5403, 2.5419, 2.5410,2.541,0.011807769512328647
SingleSource/Benchmarks/Shootout/sieve, 3.4709, 3.4702, 3.4685,3.4702, 3.4682, 3.4708, 3.4706,3.4706,0.01152671315773901
MultiSource/Benchmarks/BitBench/five11/five11, 1.1100, 1.1100, 1.1110,1.11, 1.1066, 1.1132, 1.1101,1.1101,0.009009009008997815
MultiSource/Benchmarks/TSVC/Searching-dbl/Searching-dbl, 2.2752, 2.2751, 2.2753,2.2752, 2.2750, 2.2760, 2.2754,2.2754,0.008790436005634561
MultiSource/Benchmarks/VersaBench/ecbdes/ecbdes, 1.6932, 1.6931, 1.6931,1.6931, 1.6932, 1.6932, 1.6931,1.6932,0.005906325674787105
SingleSource/Benchmarks/Shootout/random, 1.7448, 1.7447, 1.7447,1.7447, 1.7448, 1.7448, 1.7447,1.7448,0.0057316444087796015
SingleSource/Benchmarks/McGill/queens, 1.7518, 1.7509, 1.7525,1.7518, 1.7520, 1.7518, 1.7519,1.7519,0.005708414202532097
MultiSource/Applications/hexxagon/hexxagon, 7.0582, 7.0583, 7.0585,7.0583, 7.0586, 7.0583, 7.0586,7.0586,0.004250315231724144
MultiSource/Benchmarks/TSVC/GlobalDataFlow-dbl/GlobalDataFlow-dbl, 2.8519, 2.8510, 2.8505,2.851, 2.8511, 2.8529, 2.8500,2.8511,0.003507541213609855
SingleSource/Benchmarks/Misc/flops-6, 3.3721, 3.4194, 3.4194,3.4194, 3.4418, 3.4195, 3.3943,3.4195,0.0029244896765590056
MultiSource/Benchmarks/TSVC/LoopRerolling-dbl/LoopRerolling-dbl, 4.6104, 4.6104, 4.6112,4.6104, 4.6105, 4.6106, 4.6104,4.6105,0.0021690091965842484
SingleSource/Benchmarks/Misc/flops-3, 5.4133, 5.4130, 5.4130,5.413, 5.4131, 5.5080, 5.4130,5.4131,0.0018474043968152998
SingleSource/Benchmarks/Misc-C++/stepanov_v1p2, 7.9041, 7.9036, 7.9036,7.9036, 7.9037, 7.9037, 7.9035,7.9037,0.0012652462169082668
SingleSource/Regression/C/uint64_to_float, 0.2465, 0.2465, 0.2464,0.2465, 0.2465, 0.2465, 0.2464,0.2465,0.0
SingleSource/Regression/C/2004-08-12-InlinerAndAllocas, 0.0013, 0.0013, 0.0013,0.0013, 0.0013, 0.0013, 0.0013,0.0013,0.0
SingleSource/Benchmarks/Stanford/Treesort, 0.0545, 0.0544, 0.0544,0.0544, 0.0543, 0.0544, 0.0545,0.0544,0.0
SingleSource/Benchmarks/Stanford/Towers, 0.0083, 0.0083, 0.0083,0.0083, 0.0083, 0.0083, 0.0083,0.0083,0.0
SingleSource/Benchmarks/Stanford/RealMM, 0.0014, 0.0014, 0.0014,0.0014, 0.0014, 0.0014, 0.0014,0.0014,0.0
SingleSource/Benchmarks/Stanford/Quicksort, 0.0303, 0.0302, 0.0302,0.0302, 0.0302, 0.0302, 0.0302,0.0302,0.0
SingleSource/Benchmarks/Stanford/Puzzle, 0.0794, 0.0794, 0.0794,0.0794, 0.0794, 0.0793, 0.0794,0.0794,0.0
SingleSource/Benchmarks/Stanford/Perm, 0.0145, 0.0145, 0.0145,0.0145, 0.0145, 0.0146, 0.0145,0.0145,0.0
SingleSource/Benchmarks/Stanford/Oscar, 0.0032, 0.0032, 0.0032,0.0032, 0.0032, 0.0032, 0.0032,0.0032,0.0
SingleSource/Benchmarks/Stanford/FloatMM, 0.2012, 0.2011, 0.2011,0.2011, 0.2011, 0.2011, 0.2011,0.2011,0.0
SingleSource/Benchmarks/Stanford/Bubblesort, 0.0158, 0.0157, 0.0157,0.0157, 0.0158, 0.0157, 0.0157,0.0157,0.0
SingleSource/Benchmarks/Shootout/objinst, 0.0007, 0.0007, 0.0007,0.0007, 0.0007, 0.0007, 0.0007,0.0007,0.0
SingleSource/Benchmarks/Shootout/nestedloop, 0.0007, 0.0007, 0.0007,0.0007, 0.0007, 0.0007, 0.0007,0.0007,0.0
SingleSource/Benchmarks/Shootout/methcall, 3.2758, 3.2757, 3.2761,3.2758, 3.2758, 3.2761, 3.2757,3.2758,0.0
SingleSource/Benchmarks/Shootout/fib2, 1.4775, 1.4785, 1.4770,1.4775, 1.4782, 1.4775, 1.4772,1.4775,0.0
SingleSource/Benchmarks/Shootout/ackermann, 0.0033, 0.0033, 0.0033,0.0033, 0.0033, 0.0033, 0.0033,0.0033,0.0
SingleSource/Benchmarks/Shootout-C++/random, 1.7449, 1.7448, 1.7448,1.7448, 1.7448, 1.7448, 1.7448,1.7448,0.0
SingleSource/Benchmarks/Shootout-C++/objinst, 0.0008, 0.0008, 0.0008,0.0008, 0.0008, 0.0008, 0.0008,0.0008,0.0
SingleSource/Benchmarks/Shootout-C++/nestedloop, 0.0008, 0.0008, 0.0008,0.0008, 0.0008, 0.0008, 0.0008,0.0008,0.0
SingleSource/Benchmarks/Shootout-C++/moments, 0.0441, 0.0441, 0.0441,0.0441, 0.0440, 0.0441, 0.0441,0.0441,0.0
SingleSource/Benchmarks/Shootout-C++/ary2, 0.0149, 0.0149, 0.0149,0.0149, 0.0149, 0.0149, 0.0149,0.0149,0.0
SingleSource/Benchmarks/Polybench/stencils/seidel-2d/seidel-2d, 0.6593, 0.6593, 0.6593,0.6593, 0.6593, 0.6587, 0.6593,0.6593,0.0
SingleSource/Benchmarks/Polybench/stencils/jacobi-1d-imper/jacobi-1d-imper, 0.0036, 0.0036, 0.0036,0.0036, 0.0036, 0.0036, 0.0036,0.0036,0.0
SingleSource/Benchmarks/Polybench/medley/reg_detect/reg_detect, 0.0155, 0.0155, 0.0155,0.0155, 0.0155, 0.0155, 0.0155,0.0155,0.0
SingleSource/Benchmarks/Polybench/linear-algebra/solvers/lu/lu, 0.0021, 0.0021, 0.0021,0.0021, 0.0021, 0.0021, 0.0021,0.0021,0.0
SingleSource/Benchmarks/Polybench/linear-algebra/kernels/bicg/bicg, 0.2125, 0.2125, 0.2125,0.2125, 0.2125, 0.2125, 0.2125,0.2125,0.0
SingleSource/Benchmarks/Polybench/linear-algebra/kernels/atax/atax, 0.1703, 0.1703, 0.1704,0.1703, 0.1703, 0.1703, 0.1702,0.1703,0.0
SingleSource/Benchmarks/Misc/whetstone, 1.0274, 1.0263, 1.0274,1.0274, 1.0248, 1.0275, 1.0274,1.0274,0.0
SingleSource/Benchmarks/Misc/revertBits, 0.3294, 0.3294, 0.3297,0.3294, 0.3294, 0.3294, 0.3294,0.3294,0.0
SingleSource/Benchmarks/Misc/pi, 0.6942, 0.6941, 0.6942,0.6942, 0.6942, 0.6942, 0.6941,0.6942,0.0
SingleSource/Benchmarks/Misc/matmul_f64_4x4, 1.2952, 1.2951, 1.2951,1.2951, 1.2951, 1.2951, 1.2951,1.2951,0.0
SingleSource/Benchmarks/Misc/mandel-2, 1.2780, 1.2779, 1.2779,1.2779, 1.2779, 1.2779, 1.2778,1.2779,0.0
SingleSource/Benchmarks/Misc/mandel, 0.8336, 0.8336, 0.8335,0.8336, 0.8336, 0.8336, 0.8336,0.8336,0.0
SingleSource/Benchmarks/Misc/lowercase, 0.0007, 0.0007, 0.0007,0.0007, 0.0007, 0.0007, 0.0007,0.0007,0.0
SingleSource/Benchmarks/Misc/fp-convert, 2.6303, 2.6302, 2.6302,2.6302, 2.6302, 2.6302, 2.6301,2.6302,0.0
SingleSource/Benchmarks/Misc/flops-8, 2.8969, 2.8968, 2.8968,2.8968, 2.8968, 2.8968, 2.8968,2.8968,0.0
SingleSource/Benchmarks/Misc/flops-7, 1.5901, 1.5900, 1.5900,1.59, 1.5900, 1.5900, 1.5900,1.59,0.0
SingleSource/Benchmarks/Misc/flops-5, 4.2758, 4.2756, 4.2756,4.2756, 4.2756, 4.2756, 4.2745,4.2756,0.0
SingleSource/Benchmarks/Misc/flops-2, 0.8625, 0.8625, 0.8625,0.8625, 0.8625, 0.8625, 0.8625,0.8625,0.0
SingleSource/Benchmarks/Misc/flops-1, 3.5821, 3.5820, 3.5821,3.5821, 3.5817, 3.5821, 3.5825,3.5821,0.0
SingleSource/Benchmarks/Misc/dt, 0.6669, 0.6668, 0.6668,0.6668, 0.6668, 0.6668, 0.6668,0.6668,0.0
SingleSource/Benchmarks/Misc-C++/oopack_v1p8, 0.1619, 0.1619, 0.1619,0.1619, 0.1619, 0.1619, 0.1619,0.1619,0.0
SingleSource/Benchmarks/McGill/misr, 0.1013, 0.1013, 0.1013,0.1013, 0.1013, 0.1013, 0.1013,0.1013,0.0
SingleSource/Benchmarks/Dhrystone/fldry, 0.3654, 0.3654, 0.3654,0.3654, 0.3654, 0.3654, 0.3654,0.3654,0.0
SingleSource/Benchmarks/Dhrystone/dry, 0.3046, 0.3046, 0.3046,0.3046, 0.3046, 0.3046, 0.3046,0.3046,0.0
SingleSource/Benchmarks/CoyoteBench/fftbench, 0.6358, 0.6382, 0.6352,0.6358, 0.6493, 0.6358, 0.6281,0.6358,0.0
SingleSource/Benchmarks/BenchmarkGame/spectral-norm, 0.9768, 0.9768, 0.9768,0.9768, 0.9768, 0.9768, 0.9768,0.9768,0.0
SingleSource/Benchmarks/BenchmarkGame/n-body, 1.3733, 1.3732, 1.3732,1.3732, 1.3732, 1.3732, 1.3732,1.3732,0.0
MultiSource/Benchmarks/mediabench/mpeg2/mpeg2dec/mpeg2decode, 0.0130, 0.0130, 0.0130,0.013, 0.0129, 0.0130, 0.0130,0.013,0.0
MultiSource/Benchmarks/mediabench/gsm/toast/toast, 0.0133, 0.0132, 0.0133,0.0133, 0.0133, 0.0133, 0.0131,0.0133,0.0
MultiSource/Benchmarks/mediabench/g721/g721encode/encode, 0.0296, 0.0296, 0.0296,0.0296, 0.0296, 0.0296, 0.0296,0.0296,0.0
MultiSource/Benchmarks/VersaBench/bmm/bmm, 1.6459, 1.6459, 1.6460,1.6459, 1.6459, 1.6461, 1.6459,1.6459,0.0
MultiSource/Benchmarks/Trimaran/enc-pc1/enc-pc1, 0.3440, 0.3440, 0.3440,0.344, 0.3440, 0.3440, 0.3440,0.344,0.0
MultiSource/Benchmarks/Trimaran/enc-md5/enc-md5, 1.2243, 1.2242, 1.2243,1.2243, 1.2244, 1.2243, 1.2243,1.2243,0.0
MultiSource/Benchmarks/TSVC/Reductions-flt/Reductions-flt, 5.9350, 5.9349, 5.9349,5.9349, 5.9349, 5.9349, 5.9349,5.9349,0.0
MultiSource/Benchmarks/TSVC/Reductions-dbl/Reductions-dbl, 3.4400, 3.4399, 3.4399,3.4399, 3.4399, 3.4400, 3.4399,3.4399,0.0
MultiSource/Benchmarks/TSVC/Recurrences-dbl/Recurrences-dbl, 3.5012, 3.5011, 3.5010,3.5011, 3.5011, 3.5010, 3.5011,3.5011,0.0
MultiSource/Benchmarks/TSVC/InductionVariable-flt/InductionVariable-flt, 2.5598, 2.5539, 2.5578,2.5578, 2.5576, 2.5599, 2.5578,2.5578,0.0
MultiSource/Benchmarks/TSVC/Expansion-dbl/Expansion-dbl, 1.9862, 1.9844, 1.9893,1.9862, 1.9838, 1.9862, 1.9873,1.9862,0.0
MultiSource/Benchmarks/Prolangs-C/gnugo/gnugo, 0.0251, 0.0252, 0.0252,0.0252, 0.0253, 0.0252, 0.0252,0.0252,0.0
MultiSource/Benchmarks/Prolangs-C++/simul/simul, 0.0038, 0.0038, 0.0038,0.0038, 0.0038, 0.0038, 0.0038,0.0038,0.0
MultiSource/Benchmarks/Prolangs-C++/employ/employ, 0.0048, 0.0048, 0.0048,0.0048, 0.0048, 0.0048, 0.0048,0.0048,0.0
MultiSource/Benchmarks/Olden/health/health, 0.1434, 0.1435, 0.1435,0.1435, 0.1435, 0.1435, 0.1436,0.1435,0.0
MultiSource/Benchmarks/MiBench/telecomm-FFT/telecomm-fft, 0.0382, 0.0381, 0.0381,0.0381, 0.0381, 0.0381, 0.0382,0.0381,0.0
MultiSource/Benchmarks/MiBench/security-rijndael/security-rijndael, 0.0219, 0.0219, 0.0219,0.0219, 0.0219, 0.0218, 0.0219,0.0219,0.0
MultiSource/Benchmarks/MiBench/network-patricia/network-patricia, 0.0710, 0.0709, 0.0710,0.071, 0.0710, 0.0709, 0.0710,0.071,0.0
MultiSource/Benchmarks/MiBench/network-dijkstra/network-dijkstra, 0.0245, 0.0245, 0.0246,0.0245, 0.0245, 0.0245, 0.0245,0.0245,0.0
MultiSource/Benchmarks/MiBench/automotive-susan/automotive-susan, 0.0284, 0.0290, 0.0285,0.0285, 0.0285, 0.0289, 0.0284,0.0285,0.0
MultiSource/Benchmarks/McCat/08-main/main, 0.0426, 0.0427, 0.0427,0.0427, 0.0426, 0.0427, 0.0427,0.0427,0.0
MultiSource/Benchmarks/McCat/05-eks/eks, 0.0034, 0.0034, 0.0034,0.0034, 0.0034, 0.0034, 0.0034,0.0034,0.0
MultiSource/Benchmarks/McCat/01-qbsort/qbsort, 0.0391, 0.0391, 0.0391,0.0391, 0.0391, 0.0391, 0.0389,0.0391,0.0
MultiSource/Benchmarks/FreeBench/pcompress2/pcompress2, 0.1052, 0.1052, 0.1052,0.1052, 0.1052, 0.1053, 0.1052,0.1052,0.0
MultiSource/Benchmarks/FreeBench/neural/neural, 0.1153, 0.1153, 0.1153,0.1153, 0.1153, 0.1153, 0.1153,0.1153,0.0
MultiSource/Benchmarks/FreeBench/fourinarow/fourinarow, 0.1756, 0.1756, 0.1756,0.1756, 0.1756, 0.1756, 0.1756,0.1756,0.0
MultiSource/Benchmarks/FreeBench/analyzer/analyzer, 0.0404, 0.0401, 0.0403,0.0403, 0.0396, 0.0404, 0.0403,0.0403,0.0
MultiSource/Benchmarks/DOE-ProxyApps-C++/PENNANT/PENNANT, 0.3697, 0.3698, 0.3696,0.3697, 0.3698, 0.3697, 0.3696,0.3697,0.0
MultiSource/Benchmarks/BitBench/uudecode/uudecode, 0.0595, 0.0596, 0.0596,0.0596, 0.0596, 0.0596, 0.0596,0.0596,0.0
MultiSource/Applications/sgefa/sgefa, 0.1526, 0.1526, 0.1526,0.1526, 0.1526, 0.1527, 0.1526,0.1526,0.0
MultiSource/Applications/oggenc/oggenc, 0.0764, 0.0764, 0.0764,0.0764, 0.0764, 0.0766, 0.0764,0.0764,0.0
MultiSource/Applications/d/make_dparser, 0.0158, 0.0158, 0.0158,0.0158, 0.0158, 0.0158, 0.0159,0.0158,0.0
MultiSource/Applications/JM/ldecod/ldecod, 0.0361, 0.0363, 0.0361,0.0361, 0.0360, 0.0361, 0.0361,0.0361,0.0
MultiSource/Applications/ALAC/encode/alacconvert-encode, 0.0265, 0.0265, 0.0265,0.0265, 0.0265, 0.0265, 0.0265,0.0265,0.0
MultiSource/Applications/ALAC/decode/alacconvert-decode, 0.0130, 0.0130, 0.0130,0.013, 0.0130, 0.0131, 0.0130,0.013,0.0
MultiSource/Benchmarks/ASC_Sequoia/CrystalMk/CrystalMk, 7.2733, 7.2732, 7.2731,7.2732, 7.2733, 7.2731, 7.2730,7.2731,-0.0013749106308025283
SingleSource/Benchmarks/CoyoteBench/almabench,12.6328,12.6257,12.6337,12.6328,12.6326,12.6328,12.6318,12.6326,-0.0015831802925636573
MultiSource/Benchmarks/TSVC/Recurrences-flt/Recurrences-flt, 3.5009, 3.5009, 3.5006,3.5009, 3.5009, 3.5007, 3.5008,3.5008,-0.0028564083521476213
SingleSource/Benchmarks/Polybench/medley/floyd-warshall/floyd-warshall, 5.9776, 5.9743, 5.9739,5.9743, 5.9740, 5.9750, 5.9727,5.974,-0.005021508796010377
SingleSource/Benchmarks/Misc/perlin, 3.8809, 3.8799, 3.8807,3.8807, 3.8805, 3.8803, 3.8807,3.8805,-0.005153709382332838
SingleSource/Benchmarks/Misc-C++/Large/sphereflake, 5.6077, 5.6075, 5.6075,5.6075, 5.6072, 5.6072, 5.6073,5.6072,-0.0053499777084242695
MultiSource/Benchmarks/TSVC/StatementReordering-dbl/StatementReordering-dbl, 2.2453, 2.2455, 2.2457,2.2455, 2.2421, 2.2484, 2.2453,2.2453,-0.008906702293476343
SingleSource/Benchmarks/Shootout/matrix, 1.0577, 1.0575, 1.0575,1.0575, 1.0574, 1.0575, 1.0574,1.0574,-0.009456264775431489
MultiSource/Benchmarks/VersaBench/beamformer/beamformer, 0.7488, 0.7487, 0.7488,0.7488, 0.7487, 0.7486, 0.7488,0.7487,-0.013354700854695256
MultiSource/Benchmarks/Trimaran/netbench-url/netbench-url, 2.9798, 2.9796, 2.9815,2.9798, 2.9794, 2.9801, 2.9794,2.9794,-0.01342371971273515
SingleSource/Benchmarks/Shootout-C++/ackermann, 0.6572, 0.6571, 0.6572,0.6572, 0.6571, 0.6572, 0.6571,0.6571,-0.01521606816798915
MultiSource/Benchmarks/TSVC/Symbolics-dbl/Symbolics-dbl, 2.4549, 2.4550, 2.4550,2.455, 2.4549, 2.4546, 2.4546,2.4546,-0.016293279022405738
MultiSource/Benchmarks/TSVC/InductionVariable-dbl/InductionVariable-dbl, 3.0478, 3.0493, 3.0492,3.0492, 3.0501, 3.0487, 3.0484,3.0487,-0.016397743670459874
SingleSource/Benchmarks/Misc/ffbench, 0.5850, 0.5853, 0.5843,0.585, 0.5879, 0.5849, 0.5838,0.5849,-0.017094017094010372
SingleSource/Benchmarks/Misc/fbench, 1.7140, 1.7139, 1.7139,1.7139, 1.7136, 1.7136, 1.7135,1.7136,-0.017503938386131956
SingleSource/Benchmarks/BenchmarkGame/partialsums, 0.5686, 0.5686, 0.5686,0.5686, 0.5685, 0.5685, 0.5685,0.5685,-0.017587055926837625
SingleSource/Benchmarks/Shootout-C++/matrix, 1.1247, 1.1247, 1.1246,1.1247, 1.1245, 1.1243, 1.1246,1.1245,-0.017782519783049455
MultiSource/Benchmarks/Olden/power/power, 1.0535, 1.0534, 1.0532,1.0534, 1.0533, 1.0532, 1.0532,1.0532,-0.018986140117716044
MultiSource/Applications/aha/aha, 1.0373, 1.0371, 1.0377,1.0373, 1.0372, 1.0371, 1.0368,1.0371,-0.019280825219336606
MultiSource/Benchmarks/TSVC/GlobalDataFlow-flt/GlobalDataFlow-flt, 1.5012, 1.5077, 1.5047,1.5047, 1.5054, 1.4959, 1.5044,1.5044,-0.019937529075564342
SingleSource/Benchmarks/Misc/richards_benchmark, 0.4974, 0.4971, 0.4972,0.4972, 0.4971, 0.4978, 0.4969,0.4971,-0.02011263073209424
MultiSource/Benchmarks/TSVC/Packing-dbl/Packing-dbl, 2.3235, 2.3243, 2.3244,2.3243, 2.3248, 2.3237, 2.3238,2.3238,-0.02151185303103098
MultiSource/Benchmarks/TSVC/LoopRestructuring-dbl/LoopRestructuring-dbl, 3.6397, 3.6377, 3.6432,3.6397, 3.6387, 3.6377, 3.6406,3.6387,-0.027474791878445703
MultiSource/Benchmarks/Olden/bisort/bisort, 0.3626, 0.3620, 0.3616,0.362, 0.3616, 0.3619, 0.3627,0.3619,-0.027624309392260127
MultiSource/Benchmarks/TSVC/NodeSplitting-dbl/NodeSplitting-dbl, 5.0289, 5.0261, 5.0289,5.0289, 5.0287, 5.0275, 5.0258,5.0275,-0.027839090059467164
SingleSource/Benchmarks/Shootout-C++/heapsort, 2.0270, 2.0258, 2.0281,2.027, 2.0263, 2.0286, 2.0249,2.0263,-0.03453379378391963
SingleSource/Benchmarks/Shootout/hash, 2.7600, 2.7509, 2.7540,2.754, 2.7676, 2.7509, 2.7530,2.753,-0.03631082062454105
SingleSource/Benchmarks/Adobe-C++/simple_types_loop_invariant, 1.5935, 1.5944, 1.5941,1.5941, 1.5934, 1.5940, 1.5935,1.5935,-0.03763879304937712
SingleSource/Benchmarks/Polybench/linear-algebra/kernels/doitgen/doitgen, 0.7805, 0.7865, 0.7803,0.7805, 0.7801, 0.7802, 0.7804,0.7802,-0.03843689942344408
MultiSource/Benchmarks/ASC_Sequoia/AMGmk/AMGmk, 4.9884, 5.0004, 4.9982,4.9982, 4.9973, 4.9860, 4.9962,4.9962,-0.04001440518586197
MultiSource/Benchmarks/TSVC/ControlFlow-dbl/ControlFlow-dbl, 3.7408, 3.7433, 3.7446,3.7433, 3.7416, 3.7418, 3.7445,3.7418,-0.0400715945823249
MultiSource/Benchmarks/TSVC/IndirectAddressing-dbl/IndirectAddressing-dbl, 2.4798, 2.4752, 2.4756,2.4756, 2.4745, 2.4796, 2.4702,2.4745,-0.04443367264501674
MultiSource/Benchmarks/PAQ8p/paq8p,42.6637,42.6306,42.6766,42.6637,42.6374,42.6502,42.6176,42.6374,-0.061644911247737966
SingleSource/Benchmarks/Misc-C++/mandel-text, 1.6139, 1.6079, 1.6126,1.6126, 1.6094, 1.6116, 1.6160,1.6116,-0.062011658191751806
SingleSource/Benchmarks/Misc/oourafft, 6.0226, 6.0210, 6.0170,6.021, 6.0185, 6.0170, 6.0169,6.017,-0.06643414715162832
MultiSource/Benchmarks/FreeBench/distray/distray, 0.1346, 0.1346, 0.1345,0.1346, 0.1345, 0.1345, 0.1345,0.1345,-0.07429420505199458
MultiSource/Applications/obsequi/Obsequi, 1.0943, 1.0935, 1.0935,1.0935, 1.0930, 1.0926, 1.0925,1.0926,-0.08230452674896638
MultiSource/Benchmarks/ASC_Sequoia/IRSmk/IRSmk, 2.9897, 2.9978, 3.0031,2.9978, 2.9974, 2.9948, 2.9895,2.9948,-0.10007338715056768
SingleSource/Benchmarks/Polybench/linear-algebra/solvers/dynprog/dynprog, 0.2818, 0.2811, 0.2814,0.2814, 0.2811, 0.2810, 0.2811,0.2811,-0.10660980810233145
SingleSource/Benchmarks/Polybench/datamining/covariance/covariance, 1.6562, 1.6562, 1.6534,1.6562, 1.6535, 1.6543, 1.6613,1.6543,-0.11472044439075901
MultiSource/Benchmarks/DOE-ProxyApps-C/SimpleMOC/SimpleMOC, 3.7957, 3.7806, 3.7866,3.7866, 3.7816, 3.7839, 3.7815,3.7816,-0.1320445782496127
MultiSource/Benchmarks/McCat/04-bisect/bisect, 0.0748, 0.0749, 0.0749,0.0749, 0.0748, 0.0748, 0.0748,0.0748,-0.13351134846461
SingleSource/Benchmarks/Misc/flops,10.6464,10.6776,10.6820,10.6776,10.6265,10.6690,10.6615,10.6615,-0.15078294747883358
MultiSource/Benchmarks/TSVC/Equivalencing-flt/Equivalencing-flt, 0.9709, 0.9692, 0.9674,0.9692, 0.9676, 0.9665, 0.9680,0.9676,-0.16508460586049933
MultiSource/Benchmarks/MallocBench/espresso/espresso, 0.3012, 0.2986, 0.2983,0.2986, 0.2981, 0.2986, 0.2980,0.2981,-0.16744809109175973
MultiSource/Benchmarks/DOE-ProxyApps-C/XSBench/XSBench, 2.4328, 2.4420, 2.4411,2.4411, 2.4369, 2.4425, 2.4342,2.4369,-0.17205358240137691
MultiSource/Benchmarks/TSVC/NodeSplitting-flt/NodeSplitting-flt, 4.6537, 4.6590, 4.6560,4.656, 4.6490, 4.6479, 4.6475,4.6479,-0.17396907216494784
MultiSource/Benchmarks/DOE-ProxyApps-C++/miniFE/miniFE, 2.4659, 2.4619, 2.4673,2.4659, 2.4587, 2.4609, 2.4648,2.4609,-0.20276572448193475
MultiSource/Benchmarks/ASCI_Purple/SMG2000/smg2000, 1.1664, 1.1696, 1.1669,1.1669, 1.1690, 1.1632, 1.1645,1.1645,-0.2056731510840626
MultiSource/Applications/SIBsim4/SIBsim4, 2.1090, 2.1011, 2.0918,2.1011, 2.0967, 2.1125, 2.0602,2.0967,-0.20941411641522967
MultiSource/Benchmarks/FreeBench/mason/mason, 0.1305, 0.1305, 0.1304,0.1305, 0.1302, 0.1302, 0.1302,0.1302,-0.22988505747125743
SingleSource/Benchmarks/Shootout-C++/lists, 2.9699, 2.9636, 2.9686,2.9686, 2.9591, 2.9645, 2.9613,2.9613,-0.24590716162500303
SingleSource/Benchmarks/Shootout-C++/strcat, 0.0405, 0.0404, 0.0405,0.0405, 0.0404, 0.0405, 0.0404,0.0404,-0.24691358024692134
MultiSource/Benchmarks/MiBench/consumer-lame/consumer-lame, 0.1168, 0.1169, 0.1172,0.1169, 0.1166, 0.1165, 0.1166,0.1166,-0.2566295979469668
MultiSource/Applications/lua/lua,11.1149,11.0874,11.1027,11.1027,11.0742,11.0887,11.0639,11.0742,-0.2566943175984271
SingleSource/Benchmarks/Polybench/stencils/jacobi-2d-imper/jacobi-2d-imper, 0.1494, 0.1495, 0.1495,0.1495, 0.1496, 0.1489, 0.1491,0.1491,-0.26755852842808014
SingleSource/Benchmarks/Adobe-C++/stepanov_abstraction, 4.2661, 4.2649, 4.2663,4.2661, 4.2540, 4.2545, 4.2538,4.254,-0.28363141979794726
MultiSource/Benchmarks/TSVC/Expansion-flt/Expansion-flt, 1.1878, 1.1751, 1.1832,1.1832, 1.1794, 1.1791, 1.1863,1.1794,-0.3211629479378031
MultiSource/Benchmarks/TSVC/LoopRerolling-flt/LoopRerolling-flt, 3.8328, 3.8259, 3.8352,3.8328, 3.8196, 3.8194, 3.8233,3.8196,-0.3443957420162902
MultiSource/Benchmarks/MallocBench/gs/gs, 0.0275, 0.0274, 0.0276,0.0275, 0.0270, 0.0274, 0.0274,0.0274,-0.363636363636366
SingleSource/Benchmarks/Polybench/linear-algebra/kernels/trmm/trmm, 2.3572, 2.3519, 2.3510,2.3519, 2.3430, 2.3565, 2.2507,2.343,-0.37841744972150204
SingleSource/Benchmarks/CoyoteBench/huffbench, 9.0378, 9.0431, 9.0476,9.0431, 9.0085, 9.0085, 9.0100,9.0085,-0.38261215733543796
SingleSource/Benchmarks/Polybench/linear-algebra/kernels/syr2k/syr2k, 9.1846, 9.1862, 8.9501,9.1846, 9.1862, 8.9408, 9.1351,9.1351,-0.5389456263745873
SingleSource/Benchmarks/Polybench/datamining/correlation/correlation, 1.6684, 1.6735, 1.6659,1.6684, 1.6563, 1.6594, 1.6627,1.6594,-0.5394389834572078
MultiSource/Benchmarks/Olden/mst/mst, 0.0522, 0.0520, 0.0522,0.0522, 0.0519, 0.0518, 0.0520,0.0519,-0.5747126436781658
SingleSource/Benchmarks/Shootout-C++/lists1, 0.1312, 0.1336, 0.1322,0.1322, 0.1312, 0.1336, 0.1313,0.1313,-0.6807866868381307
SingleSource/Benchmarks/Misc-C++/stepanov_container, 3.1100, 3.1034, 3.0955,3.1034, 3.0767, 3.0842, 3.0803,3.0803,-0.74434491203198
MultiSource/Benchmarks/llubenchmark/llu, 4.1436, 4.1147, 4.0668,4.1147, 4.0824, 4.0797, 4.1462,4.0824,-0.7849904002722008
MultiSource/Applications/spiff/spiff, 1.2845, 1.2805, 1.2817,1.2817, 1.2725, 1.2711, 1.2715,1.2715,-0.7958180541468352
MultiSource/Benchmarks/TSVC/Packing-flt/Packing-flt, 2.1436, 2.1274, 2.1036,2.1274, 2.1090, 2.0850, 2.1215,2.109,-0.8649055184732579
MultiSource/Benchmarks/MiBench/consumer-typeset/consumer-typeset, 0.0843, 0.0839, 0.0840,0.084, 0.0829, 0.0829, 0.0829,0.0829,-1.309523809523816
SingleSource/Benchmarks/Stanford/Queens, 0.0071, 0.0072, 0.0072,0.0072, 0.0071, 0.0071, 0.0073,0.0071,-1.388888888888884
MultiSource/Benchmarks/DOE-ProxyApps-C/Pathfinder/PathFinder, 2.0973, 2.1028, 2.0949,2.0973, 2.0631, 2.0677, 2.0694,2.0677,-1.4113383874505447
SingleSource/Benchmarks/Adobe-C++/stepanov_vector, 2.3071, 2.3074, 2.3082,2.3074, 2.2720, 2.2717, 2.2715,2.2717,-1.547195978157223
SingleSource/Benchmarks/Polybench/linear-algebra/kernels/gesummv/gesummv, 0.3015, 0.3064, 0.3064,0.3064, 0.3016, 0.3064, 0.3016,0.3016,-1.5665796344647598
MultiSource/Benchmarks/sim/sim, 2.6894, 2.6875, 2.6903,2.6894, 2.6355, 2.6285, 2.6319,2.6319,-2.1380233509332935
MultiSource/Benchmarks/MiBench/consumer-jpeg/consumer-jpeg, 0.0030, 0.0030, 0.0030,0.003, 0.0030, 0.0029, 0.0029,0.0029,-3.3333333333333437
Total elapsed time,-,-,-,587.6976000000003,-,-,-,587.4736000000005,-0.03811484001292609
Total failure,-,-,-,0,-,-,-,0,
Geom. avg slowdown,,,,,,,,,0.0718652846871%
