Benchmarks,/mnt/freezedisk/llvm-intptr-insts-5.0-release/bin/clang,/mnt/freezedisk/llvm-intptr-insts-5.0-release/bin/clang,/mnt/freezedisk/llvm-intptr-insts-5.0-release/bin/clang,median,/mnt/freezedisk/llvm-intptr-insts-opt-5.0-release/bin/clang,/mnt/freezedisk/llvm-intptr-insts-opt-5.0-release/bin/clang,/mnt/freezedisk/llvm-intptr-insts-opt-5.0-release/bin/clang,median,/mnt/freezedisk/llvm-intptr-nocapture-5.0-release/bin/clang,/mnt/freezedisk/llvm-intptr-nocapture-5.0-release/bin/clang,/mnt/freezedisk/llvm-intptr-nocapture-5.0-release/bin/clang,median,/mnt/freezedisk/llvm-intptr-nocapture-opt-5.0-release/bin/clang,/mnt/freezedisk/llvm-intptr-nocapture-opt-5.0-release/bin/clang,/mnt/freezedisk/llvm-intptr-nocapture-opt-5.0-release/bin/clang,median
MultiSource/Applications/ALAC/decode/alacconvert-decode, 0.0131, 0.0132, 0.0131,0.0131, 0.0132, 0.0132, 0.0132,0.0132, 0.0132, 0.0132, 0.0132,0.0132, 0.0131, 0.0132, 0.0132,0.0132
MultiSource/Applications/ALAC/encode/alacconvert-encode, 0.0253, 0.0254, 0.0254,0.0254, 0.0253, 0.0253, 0.0253,0.0253, 0.0253, 0.0254, 0.0253,0.0253, 0.0253, 0.0253, 0.0254,0.0253
MultiSource/Applications/ClamAV/clamscan, 0.0905, 0.0909, 0.0907,0.0907, 0.0913, 0.0912, 0.0907,0.0912, 0.0907, 0.0911, 0.0910,0.091, 0.0911, 0.0911, 0.0908,0.0911
MultiSource/Applications/JM/ldecod/ldecod, 0.0401, 0.0397, 0.0395,0.0397, 0.0395, 0.0396, 0.0396,0.0396, 0.0395, 0.0395, 0.0395,0.0395, 0.0397, 0.0397, 0.0398,0.0397
MultiSource/Applications/JM/lencod/lencod, 2.8369, 2.8295, 2.8325,2.8325, 2.8307, 2.8283, 2.8339,2.8307, 2.8331, 2.8339, 2.8290,2.8331, 2.8308, 2.8263, 2.8295,2.8295
MultiSource/Applications/SIBsim4/SIBsim4, 1.9250, 1.8760, 1.8752,1.876, 1.9435, 1.9150, 1.9007,1.915, 1.8971, 1.8953, 1.8732,1.8953, 1.8920, 1.9091, 1.8726,1.892
MultiSource/Applications/SPASS/SPASS, 5.7308, 6.2651, 6.2845,6.2651, 6.1672, 6.1946, 5.9379,6.1672, 6.2678, 6.2503, 6.2729,6.2678, 6.2180, 6.2912, 6.2491,6.2491
MultiSource/Applications/aha/aha, 0.9181, 0.9165, 0.9170,0.917, 0.9184, 0.9183, 0.9174,0.9183, 0.9168, 0.9167, 0.9165,0.9167, 0.9181, 0.9196, 0.9174,0.9181
MultiSource/Applications/d/make_dparser, 0.0158, 0.0158, 0.0171,0.0158, 0.0159, 0.0157, 0.0157,0.0157, 0.0156, 0.0157, 0.0157,0.0157, 0.0159, 0.0160, 0.0158,0.0159
MultiSource/Applications/hbd/hbd, 0.0031, 0.0031, 0.0031,0.0031, 0.0031, 0.0031, 0.0031,0.0031, 0.0031, 0.0032, 0.0031,0.0031, 0.0031, 0.0032, 0.0031,0.0031
MultiSource/Applications/hexxagon/hexxagon, 6.2997, 6.3001, 6.2996,6.2997, 6.2991, 6.2993, 6.2997,6.2993, 6.2997, 6.2990, 6.2989,6.299, 6.2989, 6.3000, 6.3028,6.3
MultiSource/Applications/kimwitu++/kc, 0.0269, 0.0270, 0.0270,0.027, 0.0269, 0.0270, 0.0274,0.027, 0.0271, 0.0270, 0.0271,0.0271, 0.0270, 0.0270, 0.0269,0.027
MultiSource/Applications/lambda-0.1.3/lambda, 2.3796, 2.3797, 2.3795,2.3796, 2.3784, 2.3785, 2.3801,2.3785, 2.3783, 2.3781, 2.3795,2.3783, 2.3801, 2.3785, 2.3798,2.3798
MultiSource/Applications/lua/lua,10.1996,10.2113,10.2692,10.2113,10.2654,10.2863,10.2804,10.2804,10.1780,10.1845,10.1583,10.178,10.2041,10.1681,10.2229,10.2041
MultiSource/Applications/minisat/minisat, 4.4033, 4.3915, 4.4218,4.4033, 4.3939, 4.4121, 4.3836,4.3939, 4.4110, 4.3893, 4.3860,4.3893, 4.4215, 4.2375, 4.3920,4.392
MultiSource/Applications/obsequi/Obsequi, 1.0156, 1.0150, 1.0147,1.015, 1.0147, 1.0147, 1.0146,1.0147, 1.0155, 1.0147, 1.0155,1.0155, 1.0154, 1.0146, 1.0149,1.0149
MultiSource/Applications/oggenc/oggenc, 0.0684, 0.0683, 0.0684,0.0684, 0.0685, 0.0686, 0.0687,0.0686, 0.0684, 0.0684, 0.0685,0.0684, 0.0687, 0.0687, 0.0687,0.0687
MultiSource/Applications/sgefa/sgefa, 0.1358, 0.1357, 0.1358,0.1358, 0.1358, 0.1358, 0.1358,0.1358, 0.1358, 0.1358, 0.1357,0.1358, 0.1357, 0.1358, 0.1360,0.1358
MultiSource/Applications/siod/siod, 0.9958, 0.9942, 0.9932,0.9942, 0.9967, 0.9947, 0.9992,0.9967, 0.9982, 0.9971, 1.0000,0.9982, 0.9958, 0.9959, 0.9962,0.9959
MultiSource/Applications/spiff/spiff, 1.1592, 1.1559, 1.1555,1.1559, 1.1549, 1.1537, 1.1530,1.1537, 1.1553, 1.1531, 1.1544,1.1544, 1.1540, 1.1543, 1.1517,1.154
MultiSource/Applications/sqlite3/sqlite3, 1.5893, 1.5887, 1.5939,1.5893, 1.5921, 1.5919, 1.5935,1.5921, 1.5875, 1.5866, 1.5889,1.5875, 1.5940, 1.5875, 1.5923,1.5923
MultiSource/Applications/viterbi/viterbi, 1.1404, 1.1402, 1.1400,1.1402, 1.1401, 1.1397, 1.1400,1.14, 1.1413, 1.1406, 1.1396,1.1406, 1.1398, 1.1408, 1.1389,1.1398
MultiSource/Benchmarks/7zip/7zip-benchmark, 5.8559, 5.8567, 5.8556,5.8559, 5.8882, 5.8890, 5.8886,5.8886, 5.8567, 5.8563, 5.8548,5.8563, 5.8898, 5.8902, 5.8909,5.8902
MultiSource/Benchmarks/ASCI_Purple/SMG2000/smg2000, 1.5060, 1.5079, 1.5075,1.5075, 1.5082, 1.5099, 1.5085,1.5085, 1.5083, 1.5103, 1.5101,1.5101, 1.5126, 1.5121, 1.5069,1.5121
MultiSource/Benchmarks/ASC_Sequoia/AMGmk/AMGmk, 4.8602, 4.8607, 4.8421,4.8602, 4.8609, 4.8837, 4.8455,4.8609, 4.9307, 4.7960, 4.8138,4.8138, 4.8957, 4.8341, 4.8451,4.8451
MultiSource/Benchmarks/ASC_Sequoia/CrystalMk/CrystalMk, 6.4712, 6.4712, 6.4711,6.4712, 6.4711, 6.4709, 6.4711,6.4711, 6.4711, 6.4713, 6.4712,6.4712, 6.4711, 6.4711, 6.4711,6.4711
MultiSource/Benchmarks/ASC_Sequoia/IRSmk/IRSmk, 3.0347, 3.0325, 3.0520,3.0347, 3.0306, 3.0346, 3.0402,3.0346, 3.0493, 3.0686, 3.0510,3.051, 3.0113, 3.0300, 3.0381,3.03
MultiSource/Benchmarks/BitBench/drop3/drop3, 0.1429, 0.1429, 0.1428,0.1429, 0.1428, 0.1429, 0.1427,0.1428, 0.1430, 0.1428, 0.1431,0.143, 0.1429, 0.1429, 0.1429,0.1429
MultiSource/Benchmarks/BitBench/five11/five11, 1.0010, 1.0262, 1.0177,1.0177, 1.0163, 1.0190, 1.0136,1.0163, 1.0115, 1.0007, 1.0111,1.0111, 0.9915, 0.9964, 0.9927,0.9927
MultiSource/Benchmarks/BitBench/uudecode/uudecode, 0.0549, 0.0550, 0.0549,0.0549, 0.0549, 0.0549, 0.0549,0.0549, 0.0549, 0.0549, 0.0549,0.0549, 0.0549, 0.0549, 0.0550,0.0549
MultiSource/Benchmarks/BitBench/uuencode/uuencode, 0.0109, 0.0109, 0.0108,0.0109, 0.0108, 0.0108, 0.0109,0.0108, 0.0108, 0.0108, 0.0108,0.0108, 0.0109, 0.0109, 0.0108,0.0109
MultiSource/Benchmarks/Bullet/bullet, 3.1076, 3.1048, 3.1000,3.1048, 3.0932, 3.1083, 3.1011,3.1011, 3.1003, 3.1086, 3.0928,3.1003, 3.1017, 3.1086, 3.1021,3.1021
MultiSource/Benchmarks/DOE-ProxyApps-C++/CLAMR/CLAMR, 0.9967, 0.9963, 0.9964,0.9964, 0.9972, 0.9971, 0.9973,0.9972, 0.9975, 0.9974, 0.9977,0.9975, 0.9969, 0.9970, 0.9968,0.9969
MultiSource/Benchmarks/DOE-ProxyApps-C++/HPCCG/HPCCG, 0.8118, 0.8118, 0.8118,0.8118, 0.8145, 0.8113, 0.8124,0.8124, 0.8112, 0.8143, 0.8123,0.8123, 0.8124, 0.8123, 0.8143,0.8124
MultiSource/Benchmarks/DOE-ProxyApps-C++/PENNANT/PENNANT, 0.3697, 0.3677, 0.3677,0.3677, 0.3678, 0.3674, 0.3680,0.3678, 0.3671, 0.3673, 0.3674,0.3673, 0.3679, 0.3673, 0.3669,0.3673
MultiSource/Benchmarks/DOE-ProxyApps-C++/miniFE/miniFE, 2.4533, 2.4615, 2.4522,2.4533, 2.4611, 2.4526, 2.4589,2.4589, 2.4501, 2.4559, 2.4539,2.4539, 2.4579, 2.4506, 2.4500,2.4506
MultiSource/Benchmarks/DOE-ProxyApps-C/Pathfinder/PathFinder, 1.8693, 1.8706, 1.9364,1.8706, 1.8331, 1.8351, 1.8387,1.8351, 1.8673, 1.8662, 1.8641,1.8662, 1.8321, 1.8351, 1.8348,1.8348
MultiSource/Benchmarks/DOE-ProxyApps-C/RSBench/rsbench, 0.5114, 0.4574, 0.5167,0.5114, 0.5180, 0.5173, 0.5270,0.518, 0.5150, 0.5213, 0.5158,0.5158, 0.5170, 0.5119, 0.5133,0.5133
MultiSource/Benchmarks/DOE-ProxyApps-C/SimpleMOC/SimpleMOC, 3.3821, 3.3829, 3.3738,3.3821, 3.3846, 3.3776, 3.3742,3.3776, 3.3739, 3.3839, 3.3745,3.3745, 3.3840, 3.3828, 3.3744,3.3828
MultiSource/Benchmarks/DOE-ProxyApps-C/XSBench/XSBench, 2.3545, 2.3432, 2.3498,2.3498, 2.3496, 2.3474, 2.3459,2.3474, 2.3530, 2.3532, 2.3486,2.353, 2.3514, 2.3527, 2.3531,2.3527
MultiSource/Benchmarks/DOE-ProxyApps-C/miniAMR/miniAMR, 0.6881, 0.6897, 0.6889,0.6889, 0.6886, 0.6888, 0.6893,0.6888, 0.6892, 0.6893, 0.6893,0.6893, 0.6900, 0.6887, 0.6882,0.6887
MultiSource/Benchmarks/DOE-ProxyApps-C/miniGMG/miniGMG, 4.7952, 4.7949, 4.7920,4.7949, 4.7948, 4.7924, 4.7922,4.7924, 4.7935, 4.7938, 4.7924,4.7935, 4.7960, 4.7960, 4.7897,4.796
MultiSource/Benchmarks/Fhourstones-3.1/fhourstones3.1, 0.7275, 0.7262, 0.7272,0.7272, 0.7260, 0.7267, 0.7262,0.7262, 0.7261, 0.7263, 0.7268,0.7263, 0.7262, 0.7260, 0.7257,0.726
MultiSource/Benchmarks/Fhourstones/fhourstones, 0.7185, 0.7170, 0.7235,0.7185, 0.7208, 0.7170, 0.7168,0.717, 0.7259, 0.7214, 0.7187,0.7214, 0.7204, 0.7161, 0.7184,0.7184
MultiSource/Benchmarks/FreeBench/analyzer/analyzer, 0.0371, 0.0367, 0.0372,0.0371, 0.0375, 0.0374, 0.0371,0.0374, 0.0373, 0.0372, 0.0364,0.0372, 0.0371, 0.0366, 0.0375,0.0371
MultiSource/Benchmarks/FreeBench/distray/distray, 0.1213, 0.1213, 0.1214,0.1213, 0.1213, 0.1213, 0.1213,0.1213, 0.1213, 0.1213, 0.1213,0.1213, 0.1213, 0.1213, 0.1213,0.1213
MultiSource/Benchmarks/FreeBench/fourinarow/fourinarow, 0.1578, 0.1578, 0.1578,0.1578, 0.1579, 0.1578, 0.1579,0.1579, 0.1579, 0.1579, 0.1579,0.1579, 0.1579, 0.1579, 0.1579,0.1579
MultiSource/Benchmarks/FreeBench/mason/mason, 0.1169, 0.1169, 0.1171,0.1169, 0.1169, 0.1169, 0.1170,0.1169, 0.1169, 0.1170, 0.1169,0.1169, 0.1170, 0.1171, 0.1173,0.1171
MultiSource/Benchmarks/FreeBench/neural/neural, 0.1042, 0.1042, 0.1042,0.1042, 0.1042, 0.1042, 0.1043,0.1042, 0.1042, 0.1042, 0.1044,0.1042, 0.1044, 0.1042, 0.1043,0.1043
MultiSource/Benchmarks/FreeBench/pcompress2/pcompress2, 0.0921, 0.0921, 0.0921,0.0921, 0.0922, 0.0921, 0.0922,0.0922, 0.0921, 0.0921, 0.0921,0.0921, 0.0921, 0.0921, 0.0921,0.0921
MultiSource/Benchmarks/FreeBench/pifft/pifft, 0.0596, 0.0596, 0.0596,0.0596, 0.0595, 0.0597, 0.0597,0.0597, 0.0595, 0.0596, 0.0596,0.0596, 0.0599, 0.0597, 0.0595,0.0597
MultiSource/Benchmarks/MallocBench/cfrac/cfrac, 0.6782, 0.6785, 0.6784,0.6784, 0.6782, 0.6784, 0.6784,0.6784, 0.6784, 0.6801, 0.6803,0.6801, 0.6783, 0.6781, 0.6781,0.6781
MultiSource/Benchmarks/MallocBench/espresso/espresso, 0.2694, 0.2682, 0.2683,0.2683, 0.2672, 0.2675, 0.2673,0.2673, 0.2681, 0.2680, 0.2681,0.2681, 0.2673, 0.2671, 0.2673,0.2673
MultiSource/Benchmarks/MallocBench/gs/gs, 0.0264, 0.0263, 0.0264,0.0264, 0.0265, 0.0265, 0.0265,0.0265, 0.0263, 0.0263, 0.0263,0.0263, 0.0264, 0.0264, 0.0265,0.0264
MultiSource/Benchmarks/McCat/01-qbsort/qbsort, 0.0358, 0.0357, 0.0359,0.0358, 0.0358, 0.0359, 0.0359,0.0359, 0.0358, 0.0360, 0.0359,0.0359, 0.0359, 0.0358, 0.0358,0.0358
MultiSource/Benchmarks/McCat/03-testtrie/testtrie, 0.0070, 0.0070, 0.0070,0.007, 0.0071, 0.0070, 0.0071,0.0071, 0.0070, 0.0071, 0.0071,0.0071, 0.0070, 0.0070, 0.0071,0.007
MultiSource/Benchmarks/McCat/04-bisect/bisect, 0.0682, 0.0681, 0.0681,0.0681, 0.0682, 0.0682, 0.0682,0.0682, 0.0682, 0.0683, 0.0682,0.0682, 0.0682, 0.0682, 0.0682,0.0682
MultiSource/Benchmarks/McCat/05-eks/eks, 0.0031, 0.0031, 0.0031,0.0031, 0.0031, 0.0031, 0.0031,0.0031, 0.0031, 0.0031, 0.0031,0.0031, 0.0031, 0.0031, 0.0031,0.0031
MultiSource/Benchmarks/McCat/08-main/main, 0.0384, 0.0384, 0.0385,0.0384, 0.0384, 0.0384, 0.0384,0.0384, 0.0384, 0.0385, 0.0384,0.0384, 0.0384, 0.0384, 0.0380,0.0384
MultiSource/Benchmarks/McCat/09-vor/vor, 0.0802, 0.0799, 0.0801,0.0801, 0.0805, 0.0802, 0.0808,0.0805, 0.0802, 0.0810, 0.0801,0.0802, 0.0805, 0.0804, 0.0800,0.0804
MultiSource/Benchmarks/McCat/12-IOtest/iotest, 0.2059, 0.2065, 0.2089,0.2065, 0.2085, 0.2078, 0.2060,0.2078, 0.2102, 0.2100, 0.2083,0.21, 0.2061, 0.2106, 0.2067,0.2067
MultiSource/Benchmarks/McCat/17-bintr/bintr, 0.0731, 0.0724, 0.0722,0.0724, 0.0727, 0.0730, 0.0720,0.0727, 0.0725, 0.0738, 0.0742,0.0738, 0.0731, 0.0733, 0.0734,0.0733
MultiSource/Benchmarks/McCat/18-imp/imp, 0.0512, 0.0513, 0.0512,0.0512, 0.0513, 0.0513, 0.0511,0.0513, 0.0511, 0.0513, 0.0512,0.0512, 0.0512, 0.0512, 0.0511,0.0512
MultiSource/Benchmarks/MiBench/automotive-basicmath/automotive-basicmath, 0.2002, 0.1998, 0.2001,0.2001, 0.1998, 0.2002, 0.1999,0.1999, 0.2001, 0.2000, 0.2003,0.2001, 0.1999, 0.1997, 0.1999,0.1999
MultiSource/Benchmarks/MiBench/automotive-bitcount/automotive-bitcount, 0.0498, 0.0488, 0.0486,0.0488, 0.0489, 0.0531, 0.0486,0.0489, 0.0486, 0.0486, 0.0486,0.0486, 0.0519, 0.0488, 0.0486,0.0488
MultiSource/Benchmarks/MiBench/automotive-susan/automotive-susan, 0.0269, 0.0269, 0.0268,0.0269, 0.0267, 0.0268, 0.0267,0.0267, 0.0268, 0.0269, 0.0269,0.0269, 0.0268, 0.0267, 0.0268,0.0268
MultiSource/Benchmarks/MiBench/consumer-jpeg/consumer-jpeg, 0.0042, 0.0043, 0.0043,0.0043, 0.0042, 0.0043, 0.0042,0.0042, 0.0043, 0.0042, 0.0042,0.0042, 0.0043, 0.0043, 0.0043,0.0043
MultiSource/Benchmarks/MiBench/consumer-lame/consumer-lame, 0.1056, 0.1054, 0.1058,0.1056, 0.1055, 0.1054, 0.1054,0.1054, 0.1056, 0.1054, 0.1054,0.1054, 0.1054, 0.1054, 0.1055,0.1054
MultiSource/Benchmarks/MiBench/consumer-typeset/consumer-typeset, 0.0781, 0.0779, 0.0781,0.0781, 0.0777, 0.0777, 0.0778,0.0777, 0.0780, 0.0782, 0.0780,0.078, 0.0781, 0.0783, 0.0782,0.0782
MultiSource/Benchmarks/MiBench/network-dijkstra/network-dijkstra, 0.0234, 0.0234, 0.0234,0.0234, 0.0234, 0.0234, 0.0234,0.0234, 0.0234, 0.0234, 0.0234,0.0234, 0.0234, 0.0234, 0.0234,0.0234
MultiSource/Benchmarks/MiBench/network-patricia/network-patricia, 0.0654, 0.0652, 0.0653,0.0653, 0.0654, 0.0654, 0.0654,0.0654, 0.0654, 0.0653, 0.0653,0.0653, 0.0653, 0.0653, 0.0652,0.0653
MultiSource/Benchmarks/MiBench/security-rijndael/security-rijndael, 0.0211, 0.0210, 0.0211,0.0211, 0.0210, 0.0210, 0.0211,0.021, 0.0211, 0.0211, 0.0211,0.0211, 0.0212, 0.0211, 0.0211,0.0211
MultiSource/Benchmarks/MiBench/security-sha/security-sha, 0.0141, 0.0141, 0.0141,0.0141, 0.0141, 0.0142, 0.0141,0.0141, 0.0141, 0.0142, 0.0141,0.0141, 0.0141, 0.0141, 0.0140,0.0141
MultiSource/Benchmarks/MiBench/telecomm-CRC32/telecomm-CRC32, 0.1336, 0.1372, 0.1343,0.1343, 0.1328, 0.1351, 0.1349,0.1349, 0.1368, 0.1346, 0.1381,0.1368, 0.1325, 0.1365, 0.1335,0.1335
MultiSource/Benchmarks/MiBench/telecomm-FFT/telecomm-fft, 0.0343, 0.0343, 0.0343,0.0343, 0.0343, 0.0343, 0.0343,0.0343, 0.0344, 0.0343, 0.0343,0.0343, 0.0343, 0.0343, 0.0343,0.0343
MultiSource/Benchmarks/MiBench/telecomm-adpcm/telecomm-adpcm, 0.0620, 0.0620, 0.0621,0.062, 0.0621, 0.0622, 0.0622,0.0622, 0.0622, 0.0621, 0.0621,0.0621, 0.0621, 0.0622, 0.0622,0.0622
MultiSource/Benchmarks/MiBench/telecomm-gsm/telecomm-gsm, 0.0901, 0.0900, 0.0900,0.09, 0.0900, 0.0900, 0.0899,0.09, 0.0901, 0.0899, 0.0901,0.0901, 0.0900, 0.0900, 0.0900,0.09
MultiSource/Benchmarks/NPB-serial/is/is, 4.4849, 4.5279, 4.4856,4.4856, 4.5942, 4.4845, 4.5988,4.5942, 4.5220, 4.5217, 4.5286,4.522, 4.4847, 4.5214, 4.5211,4.5211
MultiSource/Benchmarks/Olden/bh/bh, 1.1537, 1.1537, 1.1533,1.1537, 1.1539, 1.1535, 1.1535,1.1535, 1.1533, 1.1534, 1.1538,1.1534, 1.1533, 1.1530, 1.1636,1.1533
MultiSource/Benchmarks/Olden/bisort/bisort, 0.3738, 0.3738, 0.3734,0.3738, 0.3738, 0.3734, 0.3730,0.3734, 0.3742, 0.3735, 0.3746,0.3742, 0.3744, 0.3744, 0.3748,0.3744
MultiSource/Benchmarks/Olden/em3d/em3d, 1.5190, 1.5187, 1.5191,1.519, 1.5188, 1.5187, 1.5192,1.5188, 1.5191, 1.5185, 1.5190,1.519, 1.5188, 1.5192, 1.5190,1.519
MultiSource/Benchmarks/Olden/health/health, 0.1364, 0.1361, 0.1361,0.1361, 0.1365, 0.1360, 0.1359,0.136, 0.1365, 0.1361, 0.1361,0.1361, 0.1362, 0.1360, 0.1362,0.1362
MultiSource/Benchmarks/Olden/mst/mst, 0.0538, 0.0539, 0.0538,0.0538, 0.0542, 0.0544, 0.0542,0.0542, 0.0542, 0.0538, 0.0539,0.0539, 0.0542, 0.0542, 0.0540,0.0542
MultiSource/Benchmarks/Olden/perimeter/perimeter, 0.1110, 0.1110, 0.1107,0.111, 0.1108, 0.1108, 0.1110,0.1108, 0.1111, 0.1109, 0.1109,0.1109, 0.1107, 0.1108, 0.1108,0.1108
MultiSource/Benchmarks/Olden/power/power, 0.9373, 0.9372, 0.9373,0.9373, 0.9373, 0.9373, 0.9371,0.9373, 0.9372, 0.9373, 0.9374,0.9373, 0.9373, 0.9371, 0.9375,0.9373
MultiSource/Benchmarks/Olden/treeadd/treeadd, 0.1142, 0.1147, 0.1141,0.1142, 0.1142, 0.1146, 0.1141,0.1142, 0.1143, 0.1143, 0.1142,0.1143, 0.1142, 0.1142, 0.1139,0.1142
MultiSource/Benchmarks/Olden/tsp/tsp, 1.0556, 1.0559, 1.0555,1.0556, 1.0558, 1.0556, 1.0557,1.0557, 1.0559, 1.0556, 1.0554,1.0556, 1.0556, 1.0555, 1.0555,1.0555
MultiSource/Benchmarks/Olden/voronoi/voronoi, 0.1994, 0.1995, 0.2024,0.1995, 0.1971, 0.1971, 0.1972,0.1971, 0.1977, 0.1977, 0.1977,0.1977, 0.1965, 0.1964, 0.1960,0.1964
MultiSource/Benchmarks/PAQ8p/paq8p,39.1120,39.1368,39.1060,39.112,39.0730,39.1192,39.0679,39.073,39.0879,39.1125,39.1135,39.1125,39.0772,39.0706,39.0835,39.0772
MultiSource/Benchmarks/Prolangs-C++/city/city, 0.0045, 0.0045, 0.0045,0.0045, 0.0045, 0.0045, 0.0045,0.0045, 0.0045, 0.0045, 0.0045,0.0045, 0.0045, 0.0045, 0.0045,0.0045
MultiSource/Benchmarks/Prolangs-C++/employ/employ, 0.0059, 0.0058, 0.0059,0.0059, 0.0058, 0.0058, 0.0059,0.0058, 0.0059, 0.0058, 0.0058,0.0058, 0.0058, 0.0058, 0.0058,0.0058
MultiSource/Benchmarks/Prolangs-C++/life/life, 0.6440, 0.6384, 0.6431,0.6431, 0.6482, 0.6421, 0.6404,0.6421, 0.6419, 0.6529, 0.6549,0.6529, 0.6389, 0.6422, 0.6452,0.6422
MultiSource/Benchmarks/Prolangs-C++/ocean/ocean, 0.0361, 0.0361, 0.0359,0.0361, 0.0361, 0.0361, 0.0361,0.0361, 0.0361, 0.0360, 0.0360,0.036, 0.0361, 0.0361, 0.0360,0.0361
MultiSource/Benchmarks/Prolangs-C++/primes/primes, 0.1885, 0.1888, 0.1898,0.1888, 0.1886, 0.1887, 0.1890,0.1887, 0.1887, 0.1890, 0.1893,0.189, 0.1895, 0.1883, 0.1898,0.1895
MultiSource/Benchmarks/Prolangs-C++/simul/simul, 0.0034, 0.0034, 0.0034,0.0034, 0.0034, 0.0034, 0.0034,0.0034, 0.0034, 0.0034, 0.0034,0.0034, 0.0034, 0.0034, 0.0034,0.0034
MultiSource/Benchmarks/Prolangs-C/agrep/agrep, 0.0042, 0.0042, 0.0042,0.0042, 0.0042, 0.0042, 0.0043,0.0042, 0.0042, 0.0042, 0.0043,0.0042, 0.0042, 0.0042, 0.0043,0.0042
MultiSource/Benchmarks/Prolangs-C/bison/mybison, 0.0033, 0.0034, 0.0034,0.0034, 0.0033, 0.0033, 0.0033,0.0033, 0.0034, 0.0033, 0.0033,0.0033, 0.0034, 0.0034, 0.0035,0.0034
MultiSource/Benchmarks/Prolangs-C/gnugo/gnugo, 0.0241, 0.0241, 0.0240,0.0241, 0.0241, 0.0242, 0.0242,0.0242, 0.0241, 0.0241, 0.0242,0.0241, 0.0242, 0.0242, 0.0241,0.0242
MultiSource/Benchmarks/Ptrdist/anagram/anagram, 0.5375, 0.5374, 0.5373,0.5374, 0.5377, 0.5374, 0.5376,0.5376, 0.5374, 0.5375, 0.5374,0.5374, 0.5374, 0.5374, 0.5361,0.5374
MultiSource/Benchmarks/Ptrdist/bc/bc, 0.3302, 0.3284, 0.3283,0.3284, 0.3282, 0.3281, 0.3283,0.3282, 0.3283, 0.3282, 0.3282,0.3282, 0.3282, 0.3282, 0.3282,0.3282
MultiSource/Benchmarks/Ptrdist/ft/ft, 0.7040, 0.6852, 0.7562,0.704, 0.7081, 0.7599, 0.6934,0.7081, 0.7473, 0.7182, 0.6983,0.7182, 0.7204, 0.7442, 0.7076,0.7204
MultiSource/Benchmarks/Ptrdist/ks/ks, 0.5829, 0.5866, 0.5818,0.5829, 0.5843, 0.5835, 0.5829,0.5835, 0.5873, 0.5843, 0.5830,0.5843, 0.5852, 0.5826, 0.5831,0.5831
MultiSource/Benchmarks/Ptrdist/yacr2/yacr2, 0.4736, 0.4737, 0.4736,0.4736, 0.4738, 0.4740, 0.4736,0.4738, 0.4733, 0.4737, 0.4739,0.4737, 0.4739, 0.4737, 0.4746,0.4739
MultiSource/Benchmarks/SciMark2-C/scimark2,37.4536,37.4563,37.4539,37.4539,37.4505,37.4511,38.2390,37.4511,37.4504,37.4526,37.4501,37.4504,37.4523,37.4495,37.4545,37.4523
MultiSource/Benchmarks/TSVC/ControlFlow-dbl/ControlFlow-dbl, 3.3181, 3.3156, 3.3098,3.3156, 3.3132, 3.3142, 3.3141,3.3141, 3.3099, 3.3137, 3.3179,3.3137, 3.3199, 3.3107, 3.3174,3.3174
MultiSource/Benchmarks/TSVC/ControlFlow-flt/ControlFlow-flt, 3.1830, 3.1947, 3.1729,3.183, 3.2120, 3.1692, 3.1895,3.1895, 3.1756, 3.1945, 3.1893,3.1893, 3.1933, 3.1837, 3.2152,3.1933
MultiSource/Benchmarks/TSVC/ControlLoops-dbl/ControlLoops-dbl, 2.2511, 2.2472, 2.2476,2.2476, 2.2485, 2.2483, 2.2486,2.2485, 2.2497, 2.2486, 2.2491,2.2491, 2.2486, 2.2500, 2.2507,2.25
MultiSource/Benchmarks/TSVC/ControlLoops-flt/ControlLoops-flt, 2.0906, 2.0921, 2.0857,2.0906, 2.0919, 2.0959, 2.0918,2.0919, 2.0907, 2.0925, 2.0936,2.0925, 2.0889, 2.0881, 2.0873,2.0881
MultiSource/Benchmarks/TSVC/CrossingThresholds-dbl/CrossingThresholds-dbl, 1.8837, 1.8833, 1.8839,1.8837, 1.8837, 1.8841, 1.8832,1.8837, 1.8843, 1.8832, 1.8833,1.8833, 1.8835, 1.8840, 1.8842,1.884
MultiSource/Benchmarks/TSVC/CrossingThresholds-flt/CrossingThresholds-flt, 1.4417, 1.4442, 1.4549,1.4442, 1.4282, 1.4438, 1.4408,1.4408, 1.4425, 1.4277, 1.4386,1.4386, 1.4372, 1.4317, 1.4359,1.4359
MultiSource/Benchmarks/TSVC/Equivalencing-dbl/Equivalencing-dbl, 1.2263, 1.2236, 1.2256,1.2256, 1.2257, 1.2247, 1.2257,1.2257, 1.2256, 1.2249, 1.2225,1.2249, 1.2251, 1.2256, 1.2235,1.2251
MultiSource/Benchmarks/TSVC/Equivalencing-flt/Equivalencing-flt, 0.8616, 0.8618, 0.8581,0.8616, 0.8598, 0.8613, 0.8595,0.8598, 0.8598, 0.8595, 0.8611,0.8598, 0.8608, 0.8640, 0.8630,0.863
MultiSource/Benchmarks/TSVC/Expansion-dbl/Expansion-dbl, 1.7354, 1.7351, 1.7351,1.7351, 1.7351, 1.7331, 1.7365,1.7351, 1.7359, 1.7358, 1.7371,1.7359, 1.7370, 1.7352, 1.7332,1.7352
MultiSource/Benchmarks/TSVC/Expansion-flt/Expansion-flt, 1.0397, 1.0359, 1.0364,1.0364, 1.0451, 1.0410, 1.0350,1.041, 1.0398, 1.0426, 1.0386,1.0398, 1.0424, 1.0375, 1.0317,1.0375
MultiSource/Benchmarks/TSVC/GlobalDataFlow-dbl/GlobalDataFlow-dbl, 2.5207, 2.5192, 2.5201,2.5201, 2.5220, 2.5206, 2.5194,2.5206, 2.5214, 2.5202, 2.5204,2.5204, 2.5205, 2.5209, 2.5189,2.5205
MultiSource/Benchmarks/TSVC/GlobalDataFlow-flt/GlobalDataFlow-flt, 1.3342, 1.3307, 1.3262,1.3307, 1.3329, 1.3358, 1.3315,1.3329, 1.3287, 1.3289, 1.3267,1.3287, 1.3266, 1.3316, 1.3294,1.3294
MultiSource/Benchmarks/TSVC/IndirectAddressing-dbl/IndirectAddressing-dbl, 2.1828, 2.1827, 2.1830,2.1828, 2.1800, 2.1804, 2.1793,2.18, 2.1811, 2.1867, 2.1835,2.1835, 2.1812, 2.1807, 2.1805,2.1807
MultiSource/Benchmarks/TSVC/IndirectAddressing-flt/IndirectAddressing-flt, 1.9935, 1.9942, 1.9941,1.9941, 1.9940, 1.9928, 1.9933,1.9933, 1.9932, 1.9939, 1.9936,1.9936, 1.9921, 1.9940, 1.9948,1.994
MultiSource/Benchmarks/TSVC/InductionVariable-dbl/InductionVariable-dbl, 2.6899, 2.6911, 2.6927,2.6911, 2.6961, 2.6986, 2.6943,2.6961, 2.6931, 2.6907, 2.6951,2.6931, 2.6968, 2.6948, 2.6970,2.6968
MultiSource/Benchmarks/TSVC/InductionVariable-flt/InductionVariable-flt, 2.2688, 2.2681, 2.2684,2.2684, 2.2708, 2.2705, 2.2655,2.2705, 2.2705, 2.2695, 2.2707,2.2705, 2.2662, 2.2716, 2.2742,2.2716
MultiSource/Benchmarks/TSVC/LinearDependence-dbl/LinearDependence-dbl, 5.0630, 5.0636, 5.0634,5.0634, 5.0672, 5.0665, 5.0657,5.0665, 5.0672, 5.0659, 5.0627,5.0659, 5.0666, 5.0652, 5.0659,5.0659
MultiSource/Benchmarks/TSVC/LinearDependence-flt/LinearDependence-flt, 4.4337, 4.4351, 4.4363,4.4351, 4.4325, 4.4336, 4.4363,4.4336, 4.4370, 4.4342, 4.4342,4.4342, 4.4301, 4.4312, 4.4315,4.4312
MultiSource/Benchmarks/TSVC/LoopRerolling-dbl/LoopRerolling-dbl, 4.0818, 4.0816, 4.0817,4.0817, 4.0814, 4.0814, 4.0820,4.0814, 4.0817, 4.0818, 4.0817,4.0817, 4.0817, 4.0818, 4.0816,4.0817
MultiSource/Benchmarks/TSVC/LoopRerolling-flt/LoopRerolling-flt, 3.3998, 3.3963, 3.3997,3.3997, 3.4016, 3.3953, 3.3971,3.3971, 3.3977, 3.3948, 3.3944,3.3948, 3.3963, 3.3953, 3.4013,3.3963
MultiSource/Benchmarks/TSVC/LoopRestructuring-dbl/LoopRestructuring-dbl, 3.1495, 3.1576, 3.1602,3.1576, 3.1642, 3.1506, 3.1523,3.1523, 3.1505, 3.1466, 3.1662,3.1505, 3.1628, 3.1628, 3.1554,3.1628
MultiSource/Benchmarks/TSVC/LoopRestructuring-flt/LoopRestructuring-flt, 2.4979, 2.5458, 2.5412,2.5412, 2.5472, 2.5645, 2.5143,2.5472, 2.5618, 2.5020, 2.5437,2.5437, 2.4470, 2.5819, 2.5022,2.5022
MultiSource/Benchmarks/TSVC/NodeSplitting-dbl/NodeSplitting-dbl, 4.4606, 4.4607, 4.4584,4.4606, 4.4592, 4.4604, 4.4584,4.4592, 4.4595, 4.4590, 4.4581,4.459, 4.4610, 4.4606, 4.4580,4.4606
MultiSource/Benchmarks/TSVC/NodeSplitting-flt/NodeSplitting-flt, 4.1289, 4.1318, 4.1329,4.1318, 4.1316, 4.1302, 4.1318,4.1316, 4.1325, 4.1335, 4.1326,4.1326, 4.1326, 4.1291, 4.1317,4.1317
MultiSource/Benchmarks/TSVC/Packing-dbl/Packing-dbl, 2.0185, 2.0195, 2.0199,2.0195, 2.0180, 2.0194, 2.0187,2.0187, 2.0198, 2.0182, 2.0198,2.0198, 2.0194, 2.0175, 2.0196,2.0194
MultiSource/Benchmarks/TSVC/Packing-flt/Packing-flt, 1.8711, 1.8581, 1.8746,1.8711, 1.8662, 1.8659, 1.8865,1.8662, 1.8748, 1.8825, 1.8728,1.8748, 1.8605, 1.8562, 1.8720,1.8605
MultiSource/Benchmarks/TSVC/Recurrences-dbl/Recurrences-dbl, 3.1149, 3.1149, 3.1150,3.1149, 3.1150, 3.1149, 3.1149,3.1149, 3.1150, 3.1151, 3.1150,3.115, 3.1150, 3.1149, 3.1149,3.1149
MultiSource/Benchmarks/TSVC/Recurrences-flt/Recurrences-flt, 3.1147, 3.1148, 3.1147,3.1147, 3.1147, 3.1145, 3.1147,3.1147, 3.1146, 3.1148, 3.1146,3.1146, 3.1146, 3.1147, 3.1147,3.1147
MultiSource/Benchmarks/TSVC/Reductions-dbl/Reductions-dbl, 3.0605, 3.0606, 3.0606,3.0606, 3.0606, 3.0605, 3.0606,3.0606, 3.0606, 3.0608, 3.0606,3.0606, 3.0606, 3.0605, 3.0606,3.0606
MultiSource/Benchmarks/TSVC/Reductions-flt/Reductions-flt, 5.2804, 5.2804, 5.2804,5.2804, 5.2804, 5.2803, 5.2804,5.2804, 5.2804, 5.2806, 5.2806,5.2806, 5.2804, 5.2804, 5.2804,5.2804
MultiSource/Benchmarks/TSVC/Searching-dbl/Searching-dbl, 2.0247, 2.0244, 2.0245,2.0245, 2.0243, 2.0246, 2.0241,2.0243, 2.0244, 2.0244, 2.0243,2.0244, 2.0243, 2.0242, 2.0242,2.0242
MultiSource/Benchmarks/TSVC/Searching-flt/Searching-flt, 2.1640, 2.1665, 2.1647,2.1647, 2.1636, 2.1632, 2.1661,2.1636, 2.1645, 2.1623, 2.1667,2.1645, 2.1658, 2.1635, 2.1644,2.1644
MultiSource/Benchmarks/TSVC/StatementReordering-dbl/StatementReordering-dbl, 1.9884, 1.9868, 1.9847,1.9868, 1.9843, 1.9815, 1.9880,1.9843, 1.9823, 1.9897, 1.9854,1.9854, 1.9878, 1.9908, 1.9875,1.9878
MultiSource/Benchmarks/TSVC/StatementReordering-flt/StatementReordering-flt, 1.6235, 1.6203, 1.6202,1.6203, 1.6192, 1.6209, 1.6209,1.6209, 1.6220, 1.6243, 1.6219,1.622, 1.6181, 1.6222, 1.6236,1.6222
MultiSource/Benchmarks/TSVC/Symbolics-dbl/Symbolics-dbl, 2.1648, 2.1654, 2.1647,2.1648, 2.1654, 2.1651, 2.1657,2.1654, 2.1658, 2.1650, 2.1657,2.1657, 2.1654, 2.1655, 2.1643,2.1654
MultiSource/Benchmarks/TSVC/Symbolics-flt/Symbolics-flt, 1.2385, 1.2345, 1.2353,1.2353, 1.2342, 1.2345, 1.2396,1.2345, 1.2358, 1.2351, 1.2363,1.2358, 1.2358, 1.2334, 1.2394,1.2358
MultiSource/Benchmarks/Trimaran/enc-3des/enc-3des, 1.1467, 1.1467, 1.1470,1.1467, 1.1473, 1.1468, 1.1467,1.1468, 1.1472, 1.1471, 1.1472,1.1472, 1.1466, 1.1471, 1.1468,1.1468
MultiSource/Benchmarks/Trimaran/enc-md5/enc-md5, 1.0893, 1.0892, 1.0892,1.0892, 1.0893, 1.0892, 1.0893,1.0893, 1.0892, 1.0893, 1.0893,1.0893, 1.0894, 1.0892, 1.0893,1.0893
MultiSource/Benchmarks/Trimaran/enc-pc1/enc-pc1, 0.3061, 0.3061, 0.3061,0.3061, 0.3061, 0.3061, 0.3061,0.3061, 0.3060, 0.3061, 0.3061,0.3061, 0.3061, 0.3061, 0.3061,0.3061
MultiSource/Benchmarks/Trimaran/enc-rc4/enc-rc4, 0.6413, 0.6406, 0.7632,0.6413, 0.6411, 0.7727, 0.6408,0.6411, 0.6410, 0.6404, 0.6405,0.6405, 0.6410, 0.6413, 0.6400,0.641
MultiSource/Benchmarks/Trimaran/netbench-crc/netbench-crc, 0.5542, 0.5543, 0.5541,0.5542, 0.5547, 0.5544, 0.5544,0.5544, 0.5545, 0.5543, 0.5541,0.5543, 0.5545, 0.5543, 0.5541,0.5543
MultiSource/Benchmarks/Trimaran/netbench-url/netbench-url, 2.6522, 2.6523, 2.6522,2.6522, 2.6523, 2.6521, 2.6524,2.6523, 2.6523, 2.6527, 2.6522,2.6523, 2.6522, 2.6522, 2.6528,2.6522
MultiSource/Benchmarks/VersaBench/8b10b/8b10b, 3.2170, 3.1980, 3.2022,3.2022, 3.1987, 3.2117, 3.2020,3.202, 3.2080, 3.1980, 3.2007,3.2007, 3.2129, 3.2075, 3.2038,3.2075
MultiSource/Benchmarks/VersaBench/beamformer/beamformer, 0.6673, 0.6675, 0.6673,0.6673, 0.6676, 0.6673, 0.6674,0.6674, 0.6674, 0.6674, 0.6674,0.6674, 0.6674, 0.6674, 0.6675,0.6674
MultiSource/Benchmarks/VersaBench/bmm/bmm, 1.4728, 1.4730, 1.4728,1.4728, 1.4727, 1.4726, 1.4728,1.4727, 1.4728, 1.4730, 1.4727,1.4728, 1.4728, 1.4728, 1.4728,1.4728
MultiSource/Benchmarks/VersaBench/dbms/dbms, 0.8804, 0.8800, 0.8779,0.88, 0.8810, 0.8842, 0.8818,0.8818, 0.8836, 0.8832, 0.8826,0.8832, 0.8818, 0.8817, 0.8792,0.8817
MultiSource/Benchmarks/VersaBench/ecbdes/ecbdes, 1.5064, 1.5064, 1.5065,1.5064, 1.5064, 1.5064, 1.5064,1.5064, 1.5065, 1.5065, 1.5064,1.5065, 1.5065, 1.5065, 1.5064,1.5065
MultiSource/Benchmarks/llubenchmark/llu, 4.8731, 5.2527, 5.1222,5.1222, 5.1401, 5.1718, 5.2536,5.1718, 5.1830, 5.1326, 5.0790,5.1326, 5.1998, 5.2122, 5.1937,5.1998
MultiSource/Benchmarks/mafft/pairlocalalign,21.9795,21.9782,21.9789,21.9789,21.9791,21.9776,21.9788,21.9788,21.9789,21.9791,21.9787,21.9789,21.9784,21.9792,21.9797,21.9792
MultiSource/Benchmarks/mediabench/adpcm/rawcaudio/rawcaudio, 0.0047, 0.0046, 0.0047,0.0047, 0.0046, 0.0046, 0.0047,0.0046, 0.0046, 0.0046, 0.0047,0.0046, 0.0046, 0.0047, 0.0047,0.0047
MultiSource/Benchmarks/mediabench/adpcm/rawdaudio/rawdaudio, 0.0032, 0.0032, 0.0031,0.0032, 0.0031, 0.0031, 0.0031,0.0031, 0.0031, 0.0031, 0.0031,0.0031, 0.0031, 0.0031, 0.0031,0.0031
MultiSource/Benchmarks/mediabench/g721/g721encode/encode, 0.0281, 0.0281, 0.0282,0.0281, 0.0282, 0.0282, 0.0282,0.0282, 0.0281, 0.0282, 0.0281,0.0281, 0.0282, 0.0283, 0.0282,0.0282
MultiSource/Benchmarks/mediabench/gsm/toast/toast, 0.0134, 0.0133, 0.0134,0.0134, 0.0133, 0.0133, 0.0134,0.0133, 0.0134, 0.0134, 0.0134,0.0134, 0.0133, 0.0134, 0.0133,0.0133
MultiSource/Benchmarks/mediabench/jpeg/jpeg-6a/cjpeg, 0.0045, 0.0044, 0.0045,0.0045, 0.0045, 0.0045, 0.0044,0.0045, 0.0045, 0.0045, 0.0045,0.0045, 0.0044, 0.0044, 0.0044,0.0044
MultiSource/Benchmarks/mediabench/mpeg2/mpeg2dec/mpeg2decode, 0.0130, 0.0131, 0.0142,0.0131, 0.0131, 0.0131, 0.0130,0.0131, 0.0131, 0.0131, 0.0131,0.0131, 0.0130, 0.0131, 0.0131,0.0131
MultiSource/Benchmarks/nbench/nbench, 1.1319, 1.1315, 1.1322,1.1319, 1.1323, 1.1329, 1.1319,1.1323, 1.1319, 1.1315, 1.1316,1.1316, 1.1325, 1.1316, 1.1323,1.1323
MultiSource/Benchmarks/sim/sim, 2.2887, 2.2878, 2.2901,2.2887, 2.2900, 2.2884, 2.2900,2.29, 2.2906, 2.2885, 2.2876,2.2885, 2.2873, 2.2907, 2.2899,2.2899
MultiSource/Benchmarks/tramp3d-v4/tramp3d-v4, 0.2183, 0.2180, 0.2181,0.2181, 0.2188, 0.2184, 0.2184,0.2184, 0.2188, 0.2186, 0.2184,0.2186, 0.2184, 0.2187, 0.2188,0.2187
SingleSource/Benchmarks/Adobe-C++/functionobjects, 2.6903, 2.6917, 2.6926,2.6917, 2.6920, 2.6920, 2.6918,2.692, 2.6914, 2.6914, 2.6933,2.6914, 2.6916, 2.6949, 2.6915,2.6916
SingleSource/Benchmarks/Adobe-C++/loop_unroll, 1.5830, 1.5818, 1.5827,1.5827, 1.5837, 1.5837, 1.5826,1.5837, 1.5831, 1.5817, 1.5824,1.5824, 1.5801, 1.5803, 1.5787,1.5801
SingleSource/Benchmarks/Adobe-C++/simple_types_constant_folding, 0.5912, 0.5913, 0.5913,0.5913, 0.5913, 0.5913, 0.5913,0.5913, 0.5918, 0.5913, 0.5913,0.5913, 0.5913, 0.5913, 0.5913,0.5913
SingleSource/Benchmarks/Adobe-C++/simple_types_loop_invariant, 1.4180, 1.4185, 1.4183,1.4183, 1.4186, 1.4178, 1.4183,1.4183, 1.4185, 1.4182, 1.4187,1.4185, 1.4187, 1.4183, 1.4185,1.4185
SingleSource/Benchmarks/Adobe-C++/stepanov_abstraction, 3.7830, 3.7833, 3.7841,3.7833, 3.7934, 3.7930, 3.7927,3.793, 3.7882, 3.7881, 3.7877,3.7881, 3.7854, 3.7847, 3.7847,3.7847
SingleSource/Benchmarks/Adobe-C++/stepanov_vector, 2.0268, 2.0281, 2.0274,2.0274, 2.0292, 2.0301, 2.0307,2.0301, 2.0211, 2.0210, 2.0211,2.0211, 2.0211, 2.0216, 2.0219,2.0216
SingleSource/Benchmarks/BenchmarkGame/Large/fasta, 0.5747, 0.5751, 0.5743,0.5747, 0.5744, 0.5745, 0.5748,0.5745, 0.5748, 0.5744, 0.5742,0.5744, 0.5742, 0.5743, 0.5745,0.5743
SingleSource/Benchmarks/BenchmarkGame/fannkuch, 1.8610, 1.8596, 1.8615,1.861, 1.8606, 1.8602, 1.8601,1.8602, 1.8596, 1.8591, 1.8590,1.8591, 1.8594, 1.8603, 1.8597,1.8597
SingleSource/Benchmarks/BenchmarkGame/n-body, 1.2217, 1.2217, 1.2218,1.2217, 1.2218, 1.2217, 1.2218,1.2218, 1.2218, 1.2218, 1.2217,1.2218, 1.2218, 1.2218, 1.2217,1.2218
SingleSource/Benchmarks/BenchmarkGame/nsieve-bits, 0.5233, 0.5204, 0.5201,0.5204, 0.5209, 0.5202, 0.5218,0.5209, 0.5194, 0.5201, 0.5225,0.5201, 0.5205, 0.5241, 0.5248,0.5241
SingleSource/Benchmarks/BenchmarkGame/partialsums, 0.5059, 0.5058, 0.5060,0.5059, 0.5058, 0.5059, 0.5059,0.5059, 0.5060, 0.5059, 0.5059,0.5059, 0.5062, 0.5059, 0.5059,0.5059
SingleSource/Benchmarks/BenchmarkGame/puzzle, 0.1161, 0.1176, 0.1187,0.1176, 0.1161, 0.1178, 0.1180,0.1178, 0.1169, 0.1162, 0.1151,0.1162, 0.1180, 0.1172, 0.1191,0.118
SingleSource/Benchmarks/BenchmarkGame/recursive, 0.6267, 0.6267, 0.6293,0.6267, 0.6292, 0.6266, 0.6267,0.6267, 0.6345, 0.6365, 0.6345,0.6345, 0.6337, 0.6267, 0.6345,0.6337
SingleSource/Benchmarks/BenchmarkGame/spectral-norm, 0.8690, 0.8691, 0.8691,0.8691, 0.8690, 0.8691, 0.8691,0.8691, 0.8691, 0.8691, 0.8691,0.8691, 0.8691, 0.8691, 0.8691,0.8691
SingleSource/Benchmarks/CoyoteBench/almabench,11.2369,11.2384,11.2375,11.2375,11.2386,11.2382,11.2383,11.2383,11.2374,11.2375,11.2385,11.2375,11.2375,11.2375,11.2381,11.2375
SingleSource/Benchmarks/CoyoteBench/fftbench, 0.7240, 0.7244, 0.7210,0.724, 0.7138, 0.7179, 0.7221,0.7179, 0.7195, 0.7164, 0.7168,0.7168, 0.7145, 0.7163, 0.7166,0.7163
SingleSource/Benchmarks/CoyoteBench/huffbench, 8.0310, 8.0261, 8.0441,8.031, 8.0491, 8.0406, 8.0243,8.0406, 8.0337, 8.0285, 8.0324,8.0324, 8.0263, 8.0381, 8.0395,8.0381
SingleSource/Benchmarks/CoyoteBench/lpbench, 2.8689, 2.8576, 2.8550,2.8576, 2.8587, 2.8723, 2.8597,2.8597, 2.8561, 2.8476, 2.8692,2.8561, 2.8584, 2.8617, 2.8548,2.8584
SingleSource/Benchmarks/Dhrystone/dry, 0.2710, 0.2711, 0.2710,0.271, 0.2710, 0.2710, 0.2710,0.271, 0.2711, 0.2710, 0.2710,0.271, 0.2710, 0.2710, 0.2710,0.271
SingleSource/Benchmarks/Dhrystone/fldry, 0.3251, 0.3251, 0.3251,0.3251, 0.3251, 0.3251, 0.3251,0.3251, 0.3251, 0.3251, 0.3251,0.3251, 0.3251, 0.3251, 0.3251,0.3251
SingleSource/Benchmarks/Linpack/linpack-pc, 1.1056, 1.1091, 1.1063,1.1063, 1.1183, 1.1079, 1.1037,1.1079, 1.1157, 1.1052, 1.1100,1.11, 1.1092, 1.1052, 1.1095,1.1092
SingleSource/Benchmarks/McGill/chomp, 1.1079, 1.1013, 1.1052,1.1052, 1.1062, 1.1084, 1.1083,1.1083, 1.1048, 1.1038, 1.1029,1.1038, 1.1068, 1.1021, 1.1047,1.1047
SingleSource/Benchmarks/McGill/misr, 0.0902, 0.0902, 0.0902,0.0902, 0.0902, 0.0902, 0.0902,0.0902, 0.0902, 0.0902, 0.0902,0.0902, 0.0902, 0.0902, 0.0902,0.0902
SingleSource/Benchmarks/McGill/queens, 1.5579, 1.5576, 1.5580,1.5579, 1.5583, 1.5573, 1.5573,1.5573, 1.5580, 1.5592, 1.5575,1.558, 1.5577, 1.5571, 1.5577,1.5577
SingleSource/Benchmarks/Misc-C++-EH/spirit, 2.3248, 2.3250, 2.3252,2.325, 2.3689, 2.3678, 2.3690,2.3689, 2.3307, 2.3351, 2.3310,2.331, 2.3675, 2.3668, 2.3669,2.3669
SingleSource/Benchmarks/Misc-C++/Large/ray, 2.7947, 2.7947, 2.7948,2.7947, 2.7948, 2.7948, 2.7948,2.7948, 2.7948, 2.7947, 2.7949,2.7948, 2.7948, 2.7948, 2.7919,2.7948
SingleSource/Benchmarks/Misc-C++/Large/sphereflake, 4.9901, 4.9899, 4.9900,4.99, 4.9901, 4.9899, 4.9900,4.99, 4.9899, 4.9900, 4.9899,4.9899, 4.9900, 4.9899, 4.9897,4.9899
SingleSource/Benchmarks/Misc-C++/bigfib, 0.1728, 0.1724, 0.1722,0.1724, 0.1726, 0.1725, 0.1724,0.1725, 0.1725, 0.1726, 0.1721,0.1725, 0.1727, 0.1725, 0.1724,0.1725
SingleSource/Benchmarks/Misc-C++/mandel-text, 1.4299, 1.4305, 1.4328,1.4305, 1.4314, 1.4323, 1.4300,1.4314, 1.4319, 1.4302, 1.4301,1.4302, 1.4318, 1.4326, 1.4306,1.4318
SingleSource/Benchmarks/Misc-C++/oopack_v1p8, 0.1441, 0.1441, 0.1438,0.1441, 0.1441, 0.1441, 0.1441,0.1441, 0.1441, 0.1441, 0.1441,0.1441, 0.1441, 0.1441, 0.1441,0.1441
SingleSource/Benchmarks/Misc-C++/stepanov_container, 3.5739, 3.5625, 3.5732,3.5732, 3.5800, 3.5620, 3.5619,3.562, 3.5738, 3.5659, 3.5741,3.5738, 3.5669, 3.5671, 3.5731,3.5671
SingleSource/Benchmarks/Misc-C++/stepanov_v1p2, 7.0315, 7.0316, 7.0316,7.0316, 7.0319, 7.0319, 7.0320,7.0319, 7.0316, 7.0315, 7.0316,7.0316, 7.0320, 7.0320, 7.0319,7.032
SingleSource/Benchmarks/Misc/ReedSolomon, 2.7858, 2.7860, 2.7861,2.786, 2.7859, 2.7859, 2.8100,2.7859, 2.7859, 2.7857, 2.7855,2.7857, 2.7860, 2.7858, 2.7858,2.7858
SingleSource/Benchmarks/Misc/dt, 0.5933, 0.5933, 0.5933,0.5933, 0.5933, 0.5933, 0.5933,0.5933, 0.5933, 0.5934, 0.5933,0.5933, 0.5933, 0.5933, 0.5933,0.5933
SingleSource/Benchmarks/Misc/evalloop, 0.3261, 0.3245, 0.3263,0.3261, 0.3272, 0.3261, 0.3262,0.3262, 0.3254, 0.3254, 0.3249,0.3254, 0.3248, 0.3252, 0.3254,0.3252
SingleSource/Benchmarks/Misc/fbench, 1.5244, 1.5244, 1.5243,1.5244, 1.5244, 1.5244, 1.5244,1.5244, 1.5243, 1.5243, 1.5244,1.5243, 1.5243, 1.5243, 1.5246,1.5243
SingleSource/Benchmarks/Misc/ffbench, 0.5101, 0.5085, 0.5125,0.5101, 0.5090, 0.5127, 0.5098,0.5098, 0.5121, 0.5130, 0.5100,0.5121, 0.5125, 0.5117, 0.5113,0.5117
SingleSource/Benchmarks/Misc/flops, 9.4734, 9.4736, 9.4058,9.4734, 9.4746, 9.5100, 9.4186,9.4746, 9.4380, 9.4573, 9.4589,9.4573, 9.4606, 9.4592, 9.4727,9.4606
SingleSource/Benchmarks/Misc/flops-1, 3.1887, 3.1878, 3.1882,3.1882, 3.1882, 3.1892, 3.1885,3.1885, 3.1885, 3.1880, 3.1889,3.1885, 3.1881, 3.1879, 3.1886,3.1881
SingleSource/Benchmarks/Misc/flops-2, 0.7674, 0.7252, 0.7674,0.7674, 0.7674, 0.7674, 0.7674,0.7674, 0.7674, 0.7674, 0.7674,0.7674, 0.7674, 0.7674, 0.7674,0.7674
SingleSource/Benchmarks/Misc/flops-3, 4.8159, 4.8160, 4.7316,4.8159, 4.8160, 4.8160, 4.8160,4.816, 4.8160, 4.8159, 4.8160,4.816, 4.8160, 4.8161, 4.8160,4.816
SingleSource/Benchmarks/Misc/flops-4, 2.0704, 2.0705, 2.0282,2.0704, 2.0704, 2.0705, 2.0705,2.0705, 2.0704, 2.0704, 2.0704,2.0704, 2.0705, 2.0705, 2.0704,2.0705
SingleSource/Benchmarks/Misc/flops-5, 3.8041, 3.8040, 3.8041,3.8041, 3.8040, 3.8040, 3.8040,3.804, 3.8040, 3.8040, 3.8040,3.804, 3.8041, 3.8041, 3.8040,3.8041
SingleSource/Benchmarks/Misc/flops-6, 3.0423, 3.0423, 3.0423,3.0423, 3.0424, 3.0423, 3.0423,3.0423, 3.0423, 3.0423, 3.0194,3.0423, 2.9576, 3.0424, 3.0622,3.0424
SingleSource/Benchmarks/Misc/flops-7, 1.4146, 1.4146, 1.4147,1.4146, 1.4147, 1.4146, 1.4147,1.4147, 1.4147, 1.4146, 1.4147,1.4147, 1.4147, 1.4147, 1.4146,1.4147
SingleSource/Benchmarks/Misc/flops-8, 2.5773, 2.5351, 2.5352,2.5352, 2.5774, 2.5774, 2.5774,2.5774, 2.6196, 2.5350, 2.5773,2.5773, 2.5351, 2.5774, 2.6195,2.5774
SingleSource/Benchmarks/Misc/fp-convert, 2.3401, 2.3401, 2.3401,2.3401, 2.3401, 2.3401, 2.3402,2.3401, 2.3401, 2.3401, 2.3401,2.3401, 2.3401, 2.3401, 2.3401,2.3401
SingleSource/Benchmarks/Misc/himenobmtxpa, 0.4995, 0.4926, 0.5011,0.4995, 0.4972, 0.5038, 0.5031,0.5031, 0.4973, 0.5001, 0.5025,0.5001, 0.4968, 0.5002, 0.5065,0.5002
SingleSource/Benchmarks/Misc/lowercase, 0.0007, 0.0007, 0.0007,0.0007, 0.0007, 0.0007, 0.0007,0.0007, 0.0007, 0.0007, 0.0007,0.0007, 0.0007, 0.0007, 0.0007,0.0007
SingleSource/Benchmarks/Misc/mandel, 0.7417, 0.7417, 0.7417,0.7417, 0.7417, 0.7417, 0.7417,0.7417, 0.7417, 0.7417, 0.7417,0.7417, 0.7417, 0.7417, 0.7416,0.7417
SingleSource/Benchmarks/Misc/mandel-2, 1.1370, 1.1370, 1.1370,1.137, 1.1369, 1.1370, 1.1370,1.137, 1.1369, 1.1369, 1.1370,1.1369, 1.1370, 1.1370, 1.1369,1.137
SingleSource/Benchmarks/Misc/matmul_f64_4x4, 1.1523, 1.1523, 1.1523,1.1523, 1.1523, 1.1523, 1.1523,1.1523, 1.1523, 1.1522, 1.1523,1.1523, 1.1523, 1.1523, 1.1523,1.1523
SingleSource/Benchmarks/Misc/oourafft, 5.3535, 5.3535, 5.3536,5.3535, 5.3535, 5.3569, 5.3532,5.3535, 5.3530, 5.3540, 5.3531,5.3531, 5.3533, 5.3535, 5.3533,5.3533
SingleSource/Benchmarks/Misc/perlin, 3.4523, 3.4525, 3.4524,3.4524, 3.4528, 3.4531, 3.4528,3.4528, 3.4533, 3.4531, 3.4523,3.4531, 3.4525, 3.4525, 3.4527,3.4525
SingleSource/Benchmarks/Misc/pi, 0.6176, 0.6176, 0.6176,0.6176, 0.6176, 0.6176, 0.6176,0.6176, 0.6177, 0.6176, 0.6176,0.6176, 0.6176, 0.6176, 0.6176,0.6176
SingleSource/Benchmarks/Misc/revertBits, 0.2931, 0.2931, 0.2931,0.2931, 0.2931, 0.2932, 0.2931,0.2931, 0.2931, 0.2931, 0.2932,0.2931, 0.2931, 0.2931, 0.2931,0.2931
SingleSource/Benchmarks/Misc/richards_benchmark, 0.4421, 0.4422, 0.4425,0.4422, 0.4423, 0.4425, 0.4424,0.4424, 0.4424, 0.4430, 0.4424,0.4424, 0.4423, 0.4423, 0.4425,0.4423
SingleSource/Benchmarks/Misc/salsa20, 4.1087, 4.1089, 4.1086,4.1087, 4.1087, 4.1087, 4.1085,4.1087, 4.1087, 4.1088, 4.1087,4.1087, 4.1088, 4.1088, 4.1088,4.1088
SingleSource/Benchmarks/Misc/whetstone, 0.9131, 0.9131, 0.9132,0.9131, 0.9040, 0.9141, 0.9131,0.9131, 0.9131, 0.9063, 0.9108,0.9108, 0.9132, 0.9141, 0.9132,0.9132
SingleSource/Benchmarks/Polybench/datamining/correlation/correlation, 1.7119, 1.7108, 1.7132,1.7119, 1.7089, 1.7111, 1.7082,1.7089, 1.7109, 1.7091, 1.7123,1.7109, 1.7105, 1.7077, 1.7088,1.7088
SingleSource/Benchmarks/Polybench/datamining/covariance/covariance, 1.7059, 1.7045, 1.7024,1.7045, 1.7055, 1.7005, 1.7051,1.7051, 1.7010, 1.6980, 1.7062,1.701, 1.7011, 1.6973, 1.7048,1.7011
SingleSource/Benchmarks/Polybench/linear-algebra/kernels/atax/atax, 0.1556, 0.1555, 0.1555,0.1555, 0.1556, 0.1557, 0.1556,0.1556, 0.1556, 0.1556, 0.1556,0.1556, 0.1556, 0.1556, 0.1556,0.1556
SingleSource/Benchmarks/Polybench/linear-algebra/kernels/bicg/bicg, 0.1937, 0.1937, 0.1937,0.1937, 0.1937, 0.1937, 0.1937,0.1937, 0.1934, 0.1937, 0.1937,0.1937, 0.1937, 0.1937, 0.1937,0.1937
SingleSource/Benchmarks/Polybench/linear-algebra/kernels/cholesky/cholesky, 0.4275, 0.4233, 0.4264,0.4264, 0.4259, 0.4272, 0.4257,0.4259, 0.4262, 0.4235, 0.4315,0.4262, 0.4256, 0.4250, 0.4329,0.4256
SingleSource/Benchmarks/Polybench/linear-algebra/kernels/doitgen/doitgen, 0.6957, 0.6952, 0.6953,0.6953, 0.6975, 0.6966, 0.6969,0.6969, 0.6984, 0.6959, 0.6959,0.6959, 0.6964, 0.6960, 0.6953,0.696
SingleSource/Benchmarks/Polybench/linear-algebra/kernels/gemver/gemver, 0.3170, 0.3152, 0.3158,0.3158, 0.3137, 0.3153, 0.3175,0.3153, 0.3152, 0.3136, 0.3172,0.3152, 0.3149, 0.3175, 0.3146,0.3149
SingleSource/Benchmarks/Polybench/linear-algebra/kernels/gesummv/gesummv, 0.2811, 0.2770, 0.2812,0.2811, 0.2812, 0.2809, 0.2812,0.2812, 0.2813, 0.2812, 0.2812,0.2812, 0.2769, 0.2812, 0.2812,0.2812
SingleSource/Benchmarks/Polybench/linear-algebra/kernels/mvt/mvt, 0.2300, 0.2304, 0.2299,0.23, 0.2301, 0.2304, 0.2302,0.2302, 0.2303, 0.2303, 0.2302,0.2303, 0.2306, 0.2305, 0.2264,0.2305
SingleSource/Benchmarks/Polybench/linear-algebra/kernels/symm/symm,24.0846,24.0341,24.1068,24.0846,23.9739,24.1276,23.8899,23.9739,23.9666,23.3196,24.3038,23.9666,24.0024,24.0543,23.9246,24.0024
SingleSource/Benchmarks/Polybench/linear-algebra/kernels/syr2k/syr2k, 8.2005, 8.2009, 8.2007,8.2007, 7.9058, 8.2010, 8.2009,8.2009, 8.2003, 8.2004, 8.2006,8.2004, 8.2011, 8.2002, 8.1996,8.2002
SingleSource/Benchmarks/Polybench/linear-algebra/kernels/syrk/syrk, 4.1173, 4.1178, 4.1178,4.1178, 3.9023, 4.1172, 4.1171,4.1171, 4.1174, 4.1178, 3.9013,4.1174, 4.1179, 4.1174, 4.1174,4.1174
SingleSource/Benchmarks/Polybench/linear-algebra/kernels/trisolv/trisolv, 0.1502, 0.1588, 0.1589,0.1588, 0.1589, 0.1588, 0.1589,0.1589, 0.1588, 0.1588, 0.1588,0.1588, 0.1502, 0.1589, 0.1589,0.1589
SingleSource/Benchmarks/Polybench/linear-algebra/kernels/trmm/trmm, 2.0435, 2.1399, 2.1339,2.1339, 2.1394, 2.1308, 2.0369,2.1308, 2.0336, 2.1379, 2.1399,2.1379, 2.0379, 2.1314, 2.0326,2.0379
SingleSource/Benchmarks/Polybench/linear-algebra/solvers/durbin/durbin, 0.3888, 0.3962, 0.3975,0.3962, 0.3980, 0.3989, 0.3914,0.398, 0.3972, 0.3965, 0.3894,0.3965, 0.3988, 0.3980, 0.3964,0.398
SingleSource/Benchmarks/Polybench/linear-algebra/solvers/dynprog/dynprog, 0.2500, 0.2498, 0.2498,0.2498, 0.2501, 0.2503, 0.2498,0.2501, 0.2505, 0.2498, 0.2502,0.2502, 0.2499, 0.2505, 0.2500,0.25
SingleSource/Benchmarks/Polybench/linear-algebra/solvers/gramschmidt/gramschmidt, 1.5176, 2.1547, 2.0620,2.062, 1.8343, 1.6304, 2.2587,1.8343, 2.0013, 1.8315, 1.8378,1.8378, 2.3567, 1.6885, 1.9290,1.929
SingleSource/Benchmarks/Polybench/linear-algebra/solvers/lu/lu, 0.0019, 0.0019, 0.0019,0.0019, 0.0019, 0.0019, 0.0019,0.0019, 0.0019, 0.0019, 0.0019,0.0019, 0.0019, 0.0019, 0.0019,0.0019
SingleSource/Benchmarks/Polybench/medley/floyd-warshall/floyd-warshall, 5.3746, 5.3734, 5.3723,5.3734, 5.3727, 5.3734, 5.3738,5.3734, 5.3719, 5.3705, 5.3720,5.3719, 5.3731, 5.3711, 5.3711,5.3711
SingleSource/Benchmarks/Polybench/medley/reg_detect/reg_detect, 0.0138, 0.0138, 0.0138,0.0138, 0.0138, 0.0138, 0.0138,0.0138, 0.0138, 0.0138, 0.0138,0.0138, 0.0138, 0.0138, 0.0138,0.0138
SingleSource/Benchmarks/Polybench/stencils/adi/adi, 2.5198, 2.5149, 2.5174,2.5174, 2.5260, 2.5169, 2.5158,2.5169, 2.5229, 2.5187, 2.5212,2.5212, 2.5208, 2.5180, 2.5170,2.518
SingleSource/Benchmarks/Polybench/stencils/fdtd-2d/fdtd-2d, 0.5641, 0.5652, 0.5690,0.5652, 0.5637, 0.5649, 0.5670,0.5649, 0.5653, 0.5649, 0.5648,0.5649, 0.5659, 0.5648, 0.5645,0.5648
SingleSource/Benchmarks/Polybench/stencils/fdtd-apml/fdtd-apml, 0.6485, 0.6504, 0.6503,0.6503, 0.6469, 0.6501, 0.6504,0.6501, 0.6474, 0.6484, 0.6481,0.6481, 0.6467, 0.6484, 0.6468,0.6468
SingleSource/Benchmarks/Polybench/stencils/jacobi-1d-imper/jacobi-1d-imper, 0.0032, 0.0032, 0.0032,0.0032, 0.0032, 0.0032, 0.0032,0.0032, 0.0032, 0.0032, 0.0032,0.0032, 0.0032, 0.0032, 0.0032,0.0032
SingleSource/Benchmarks/Polybench/stencils/jacobi-2d-imper/jacobi-2d-imper, 0.1669, 0.1666, 0.1668,0.1668, 0.1671, 0.1672, 0.1668,0.1671, 0.1671, 0.1669, 0.1658,0.1669, 0.1672, 0.1670, 0.1667,0.167
SingleSource/Benchmarks/Polybench/stencils/seidel-2d/seidel-2d, 0.5867, 0.5868, 0.5868,0.5868, 0.5868, 0.5867, 0.5867,0.5867, 0.5867, 0.5867, 0.5867,0.5867, 0.5867, 0.5867, 0.5867,0.5867
SingleSource/Benchmarks/Shootout-C++/EH/except, 0.1086, 0.1084, 0.1089,0.1086, 0.1091, 0.1080, 0.1091,0.1091, 0.1088, 0.1091, 0.1089,0.1089, 0.1070, 0.1070, 0.1080,0.107
SingleSource/Benchmarks/Shootout-C++/ackermann, 0.5846, 0.5847, 0.5847,0.5847, 0.5846, 0.5847, 0.5847,0.5847, 0.5847, 0.5846, 0.5847,0.5847, 0.5847, 0.5847, 0.5846,0.5847
SingleSource/Benchmarks/Shootout-C++/ary, 0.0207, 0.0207, 0.0207,0.0207, 0.0206, 0.0207, 0.0207,0.0207, 0.0207, 0.0207, 0.0206,0.0207, 0.0206, 0.0207, 0.0207,0.0207
SingleSource/Benchmarks/Shootout-C++/ary2, 0.0205, 0.0205, 0.0206,0.0205, 0.0206, 0.0206, 0.0205,0.0206, 0.0205, 0.0205, 0.0205,0.0205, 0.0205, 0.0205, 0.0206,0.0205
SingleSource/Benchmarks/Shootout-C++/ary3, 0.9644, 0.9654, 0.9773,0.9654, 0.9636, 0.9764, 0.9666,0.9666, 0.9666, 0.9701, 0.9772,0.9701, 0.9644, 0.9662, 0.9646,0.9646
SingleSource/Benchmarks/Shootout-C++/fibo, 1.3153, 1.3145, 1.3157,1.3153, 1.3159, 1.3172, 1.3140,1.3159, 1.3153, 1.3164, 1.3158,1.3158, 1.3148, 1.3153, 1.3161,1.3153
SingleSource/Benchmarks/Shootout-C++/hash, 0.2808, 0.2809, 0.2805,0.2808, 0.2808, 0.2825, 0.2820,0.282, 0.2808, 0.2829, 0.2816,0.2816, 0.2808, 0.2810, 0.2809,0.2809
SingleSource/Benchmarks/Shootout-C++/hash2, 1.5506, 1.5485, 1.5485,1.5485, 1.5486, 1.5490, 1.5503,1.549, 1.5486, 1.5499, 1.5496,1.5496, 1.5499, 1.5505, 1.5509,1.5505
SingleSource/Benchmarks/Shootout-C++/heapsort, 2.3349, 2.3229, 2.3291,2.3291, 2.3264, 2.3321, 2.3282,2.3282, 2.3350, 2.3198, 2.3372,2.335, 2.3201, 2.3311, 2.3361,2.3311
SingleSource/Benchmarks/Shootout-C++/lists, 2.5689, 2.5635, 2.5779,2.5689, 2.5621, 2.5631, 2.5666,2.5631, 2.5642, 2.5737, 2.5660,2.566, 2.5733, 2.5693, 2.5687,2.5693
SingleSource/Benchmarks/Shootout-C++/lists1, 0.1212, 0.1196, 0.1211,0.1211, 0.1209, 0.1208, 0.1199,0.1208, 0.1199, 0.1203, 0.1214,0.1203, 0.1203, 0.1224, 0.1197,0.1203
SingleSource/Benchmarks/Shootout-C++/matrix, 1.0007, 1.0247, 1.0007,1.0007, 1.0005, 1.0009, 1.0009,1.0009, 1.0010, 1.0006, 1.0008,1.0008, 1.0907, 1.0003, 1.0003,1.0003
SingleSource/Benchmarks/Shootout-C++/methcall, 3.0691, 3.0738, 3.0692,3.0692, 3.0738, 3.0738, 3.0692,3.0738, 3.0738, 3.0691, 3.0691,3.0691, 3.0692, 3.0737, 3.0692,3.0692
SingleSource/Benchmarks/Shootout-C++/moments, 0.0546, 0.0546, 0.0546,0.0546, 0.0489, 0.0488, 0.0488,0.0488, 0.0545, 0.0546, 0.0546,0.0546, 0.0488, 0.0489, 0.0489,0.0489
SingleSource/Benchmarks/Shootout-C++/nestedloop, 0.0007, 0.0007, 0.0007,0.0007, 0.0007, 0.0007, 0.0007,0.0007, 0.0007, 0.0007, 0.0007,0.0007, 0.0007, 0.0007, 0.0007,0.0007
SingleSource/Benchmarks/Shootout-C++/objinst, 0.0007, 0.0007, 0.0007,0.0007, 0.0007, 0.0007, 0.0007,0.0007, 0.0007, 0.0007, 0.0007,0.0007, 0.0007, 0.0007, 0.0007,0.0007
SingleSource/Benchmarks/Shootout-C++/random, 1.5524, 1.5524, 1.5525,1.5524, 1.5524, 1.5524, 1.5525,1.5524, 1.5524, 1.5524, 1.5524,1.5524, 1.5523, 1.5524, 1.5523,1.5523
SingleSource/Benchmarks/Shootout-C++/sieve, 1.1707, 1.1232, 1.1728,1.1707, 1.1786, 1.1356, 1.1402,1.1402, 1.2206, 1.1631, 1.1307,1.1631, 1.1613, 1.2436, 1.1367,1.1613
SingleSource/Benchmarks/Shootout-C++/strcat, 0.0387, 0.0387, 0.0387,0.0387, 0.0387, 0.0387, 0.0387,0.0387, 0.0387, 0.0387, 0.0386,0.0387, 0.0387, 0.0387, 0.0387,0.0387
SingleSource/Benchmarks/Shootout/ackermann, 0.0030, 0.0030, 0.0030,0.003, 0.0030, 0.0030, 0.0030,0.003, 0.0030, 0.0030, 0.0030,0.003, 0.0030, 0.0030, 0.0030,0.003
SingleSource/Benchmarks/Shootout/ary3, 0.9734, 0.9661, 0.9881,0.9734, 0.9782, 0.9658, 0.9800,0.9782, 0.9849, 0.9795, 0.9738,0.9795, 0.9812, 0.9785, 0.9654,0.9785
SingleSource/Benchmarks/Shootout/fib2, 1.3121, 1.3140, 1.3209,1.314, 1.3227, 1.3181, 1.3171,1.3181, 1.3195, 1.3173, 1.3152,1.3173, 1.3216, 1.3172, 1.3157,1.3172
SingleSource/Benchmarks/Shootout/hash, 2.6327, 2.6138, 2.6079,2.6138, 2.6106, 2.6133, 2.6110,2.611, 2.6208, 2.6110, 2.6099,2.611, 2.6107, 2.6274, 2.5620,2.6107
SingleSource/Benchmarks/Shootout/heapsort, 2.3242, 2.3229, 2.3313,2.3242, 2.3214, 2.3323, 2.3225,2.3225, 2.3239, 2.3250, 2.3301,2.325, 2.3303, 2.3223, 2.3307,2.3303
SingleSource/Benchmarks/Shootout/lists, 3.6641, 3.6560, 3.6626,3.6626, 3.6656, 3.6669, 3.6648,3.6656, 3.6703, 3.6581, 3.6642,3.6642, 3.6648, 3.6609, 3.6634,3.6634
SingleSource/Benchmarks/Shootout/matrix, 0.9508, 0.9509, 0.9501,0.9508, 0.9506, 0.9496, 0.9500,0.95, 0.9503, 0.9503, 0.9502,0.9503, 0.9502, 0.9502, 0.9411,0.9502
SingleSource/Benchmarks/Shootout/methcall, 2.9145, 2.9145, 2.9145,2.9145, 2.9147, 2.9150, 2.9148,2.9148, 2.9146, 2.9145, 2.9147,2.9146, 2.9145, 2.9148, 2.9149,2.9148
SingleSource/Benchmarks/Shootout/nestedloop, 0.0007, 0.0007, 0.0007,0.0007, 0.0007, 0.0007, 0.0007,0.0007, 0.0007, 0.0007, 0.0007,0.0007, 0.0007, 0.0007, 0.0007,0.0007
SingleSource/Benchmarks/Shootout/objinst, 0.0007, 0.0007, 0.0007,0.0007, 0.0007, 0.0007, 0.0007,0.0007, 0.0007, 0.0007, 0.0007,0.0007, 0.0007, 0.0007, 0.0007,0.0007
SingleSource/Benchmarks/Shootout/random, 1.5523, 1.5523, 1.5524,1.5523, 1.5523, 1.5523, 1.5524,1.5523, 1.5523, 1.5523, 1.5524,1.5523, 1.5523, 1.5524, 1.5523,1.5523
SingleSource/Benchmarks/Shootout/sieve, 3.0836, 3.0876, 3.0841,3.0841, 3.0854, 3.0886, 3.0843,3.0854, 3.0862, 3.0868, 3.0869,3.0868, 3.0846, 3.0860, 3.0908,3.086
SingleSource/Benchmarks/Shootout/strcat, 0.0982, 0.0981, 0.0982,0.0982, 0.0981, 0.0981, 0.0980,0.0981, 0.0981, 0.0981, 0.0979,0.0981, 0.0981, 0.0982, 0.0981,0.0981
SingleSource/Benchmarks/SmallPT/smallpt, 6.7136, 6.7013, 6.7148,6.7136, 6.7052, 6.7027, 6.7052,6.7052, 6.7063, 6.7010, 6.7145,6.7063, 6.7004, 6.7034, 6.7107,6.7034
SingleSource/Benchmarks/Stanford/Bubblesort, 0.0140, 0.0141, 0.0141,0.0141, 0.0140, 0.0141, 0.0141,0.0141, 0.0141, 0.0140, 0.0140,0.014, 0.0141, 0.0140, 0.0140,0.014
SingleSource/Benchmarks/Stanford/FloatMM, 0.1789, 0.1789, 0.1790,0.1789, 0.1789, 0.1789, 0.1791,0.1789, 0.1790, 0.1790, 0.1790,0.179, 0.1789, 0.1789, 0.1788,0.1789
SingleSource/Benchmarks/Stanford/Oscar, 0.0029, 0.0029, 0.0029,0.0029, 0.0029, 0.0029, 0.0029,0.0029, 0.0029, 0.0029, 0.0029,0.0029, 0.0029, 0.0029, 0.0029,0.0029
SingleSource/Benchmarks/Stanford/Perm, 0.0130, 0.0130, 0.0130,0.013, 0.0130, 0.0130, 0.0130,0.013, 0.0130, 0.0130, 0.0130,0.013, 0.0130, 0.0130, 0.0130,0.013
SingleSource/Benchmarks/Stanford/Puzzle, 0.0707, 0.0706, 0.0706,0.0706, 0.0706, 0.0707, 0.0707,0.0707, 0.0707, 0.0707, 0.0707,0.0707, 0.0707, 0.0707, 0.0706,0.0707
SingleSource/Benchmarks/Stanford/Queens, 0.0065, 0.0065, 0.0067,0.0065, 0.0065, 0.0065, 0.0064,0.0065, 0.0065, 0.0064, 0.0065,0.0065, 0.0066, 0.0066, 0.0065,0.0066
SingleSource/Benchmarks/Stanford/Quicksort, 0.0269, 0.0270, 0.0270,0.027, 0.0269, 0.0269, 0.0269,0.0269, 0.0269, 0.0270, 0.0269,0.0269, 0.0269, 0.0269, 0.0269,0.0269
SingleSource/Benchmarks/Stanford/RealMM, 0.0013, 0.0013, 0.0013,0.0013, 0.0013, 0.0013, 0.0013,0.0013, 0.0013, 0.0013, 0.0013,0.0013, 0.0013, 0.0013, 0.0013,0.0013
SingleSource/Benchmarks/Stanford/Towers, 0.0074, 0.0074, 0.0074,0.0074, 0.0074, 0.0074, 0.0074,0.0074, 0.0074, 0.0074, 0.0074,0.0074, 0.0074, 0.0074, 0.0074,0.0074
SingleSource/Benchmarks/Stanford/Treesort, 0.0493, 0.0493, 0.0492,0.0493, 0.0493, 0.0492, 0.0492,0.0492, 0.0492, 0.0492, 0.0491,0.0492, 0.0492, 0.0492, 0.0484,0.0492
SingleSource/Regression/C/2004-08-12-InlinerAndAllocas, 0.0012, 0.0012, 0.0012,0.0012, 0.0012, 0.0012, 0.0012,0.0012, 0.0012, 0.0012, 0.0012,0.0012, 0.0012, 0.0012, 0.0012,0.0012
SingleSource/Regression/C/uint64_to_float, 0.2193, 0.2193, 0.2193,0.2193, 0.2193, 0.2193, 0.2193,0.2193, 0.2194, 0.2193, 0.2193,0.2193, 0.2193, 0.2193, 0.2194,0.2193
Total elapsed time,-,-,-,545.0821000000003,-,-,-,544.9324000000003,-,-,-,544.7909000000003,-,-,-,544.8297999999996
Total failure,-,-,-,0,-,-,-,0,-,-,-,0,-,-,-,0
