Benchmarks,/mnt/freezedisk/llvm-intptr-nocapture-5.0-release/bin/clang,/mnt/freezedisk/llvm-intptr-nocapture-5.0-release/bin/clang,/mnt/freezedisk/llvm-intptr-nocapture-5.0-release/bin/clang,median
MultiSource/Applications/ALAC/decode/alacconvert-decode, 0.9446, 0.9452, 0.9320,0.9446
MultiSource/Applications/ALAC/encode/alacconvert-encode, 0.9278, 0.9260, 0.9272,0.9272
MultiSource/Applications/ClamAV/clamscan,14.2748,14.2500,14.2435,14.25
MultiSource/Applications/JM/ldecod/ldecod, 6.2299, 6.2286, 6.2374,6.2299
MultiSource/Applications/JM/lencod/lencod,14.6426,14.6470,14.6506,14.647
MultiSource/Applications/SIBsim4/SIBsim4, 1.1354, 1.1320, 1.1370,1.1354
MultiSource/Applications/SPASS/SPASS,12.0266,12.0069,12.0120,12.012
MultiSource/Applications/aha/aha, 0.1045, 0.1021, 0.1026,0.1026
MultiSource/Applications/d/make_dparser, 2.5884, 2.5939, 2.5812,2.5884
MultiSource/Applications/hbd/hbd, 1.1744, 1.1703, 1.1691,1.1703
MultiSource/Applications/hexxagon/hexxagon, 0.6548, 0.6568, 0.6548,0.6548
MultiSource/Applications/kimwitu++/kc,10.9431,10.9878,10.9405,10.9431
MultiSource/Applications/lambda-0.1.3/lambda, 0.5447, 0.5445, 0.5444,0.5445
MultiSource/Applications/lua/lua, 3.1774, 3.1851, 3.1850,3.185
MultiSource/Applications/minisat/minisat, 0.6090, 0.6007, 0.6059,0.6059
MultiSource/Applications/obsequi/Obsequi, 0.9537, 0.9527, 0.9517,0.9527
MultiSource/Applications/oggenc/oggenc, 4.7823, 4.7839, 4.7805,4.7823
MultiSource/Applications/sgefa/sgefa, 0.3838, 0.3838, 0.3844,0.3838
MultiSource/Applications/siod/siod, 1.9314, 1.9332, 1.9350,1.9332
MultiSource/Applications/spiff/spiff, 0.7367, 0.7423, 0.7424,0.7423
MultiSource/Applications/sqlite3/sqlite3,14.6988,14.6789,14.6634,14.6789
MultiSource/Applications/viterbi/viterbi, 0.1640, 0.1637, 0.1639,0.1639
MultiSource/Benchmarks/7zip/7zip-benchmark,33.5996,33.5951,33.5733,33.5951
MultiSource/Benchmarks/ASCI_Purple/SMG2000/smg2000, 5.6050, 5.5983, 5.5979,5.5983
MultiSource/Benchmarks/ASC_Sequoia/AMGmk/AMGmk, 0.5776, 0.5810, 0.5798,0.5798
MultiSource/Benchmarks/ASC_Sequoia/CrystalMk/CrystalMk, 0.2182, 0.2155, 0.2164,0.2164
MultiSource/Benchmarks/ASC_Sequoia/IRSmk/IRSmk, 0.1000, 0.0998, 0.0999,0.0999
MultiSource/Benchmarks/BitBench/drop3/drop3, 0.0420, 0.0420, 0.0418,0.042
MultiSource/Benchmarks/BitBench/five11/five11, 0.0530, 0.0527, 0.0527,0.0527
MultiSource/Benchmarks/BitBench/uudecode/uudecode, 0.0427, 0.0426, 0.0429,0.0427
MultiSource/Benchmarks/BitBench/uuencode/uuencode, 0.0421, 0.0420, 0.0421,0.0421
MultiSource/Benchmarks/Bullet/bullet,22.8013,22.8141,22.7744,22.8013
MultiSource/Benchmarks/DOE-ProxyApps-C++/CLAMR/CLAMR,17.7761,17.7878,17.7594,17.7761
MultiSource/Benchmarks/DOE-ProxyApps-C++/HPCCG/HPCCG, 1.4095, 1.4116, 1.4090,1.4095
MultiSource/Benchmarks/DOE-ProxyApps-C++/PENNANT/PENNANT, 4.0388, 4.0495, 4.0416,4.0416
MultiSource/Benchmarks/DOE-ProxyApps-C++/miniFE/miniFE, 2.6584, 2.6598, 2.6623,2.6598
MultiSource/Benchmarks/DOE-ProxyApps-C/Pathfinder/PathFinder, 0.8069, 0.8073, 0.8066,0.8069
MultiSource/Benchmarks/DOE-ProxyApps-C/RSBench/rsbench, 0.4039, 0.3995, 0.4046,0.4039
MultiSource/Benchmarks/DOE-ProxyApps-C/SimpleMOC/SimpleMOC, 0.8530, 0.8542, 0.8518,0.853
MultiSource/Benchmarks/DOE-ProxyApps-C/XSBench/XSBench, 0.3463, 0.3456, 0.3451,0.3456
MultiSource/Benchmarks/DOE-ProxyApps-C/miniAMR/miniAMR, 1.3235, 1.3230, 1.3227,1.323
MultiSource/Benchmarks/DOE-ProxyApps-C/miniGMG/miniGMG, 0.9613, 0.9593, 0.9602,0.9602
MultiSource/Benchmarks/Fhourstones-3.1/fhourstones3.1, 0.1158, 0.1150, 0.1149,0.115
MultiSource/Benchmarks/Fhourstones/fhourstones, 0.1574, 0.1573, 0.1569,0.1573
MultiSource/Benchmarks/FreeBench/analyzer/analyzer, 0.2338, 0.2334, 0.2347,0.2338
MultiSource/Benchmarks/FreeBench/distray/distray, 0.0926, 0.0922, 0.0921,0.0922
MultiSource/Benchmarks/FreeBench/fourinarow/fourinarow, 0.3333, 0.3330, 0.3343,0.3333
MultiSource/Benchmarks/FreeBench/mason/mason, 0.0489, 0.0488, 0.0487,0.0488
MultiSource/Benchmarks/FreeBench/neural/neural, 0.1747, 0.1745, 0.1754,0.1747
MultiSource/Benchmarks/FreeBench/pcompress2/pcompress2, 0.2470, 0.2484, 0.2530,0.2484
MultiSource/Benchmarks/FreeBench/pifft/pifft, 0.9161, 0.9168, 0.9167,0.9167
MultiSource/Benchmarks/MallocBench/cfrac/cfrac, 0.8564, 0.8505, 0.8456,0.8505
MultiSource/Benchmarks/MallocBench/espresso/espresso, 4.5378, 4.5320, 4.5180,4.532
MultiSource/Benchmarks/MallocBench/gs/gs, 3.6678, 3.6644, 3.6629,3.6644
MultiSource/Benchmarks/McCat/01-qbsort/qbsort, 0.0974, 0.1021, 0.0980,0.098
MultiSource/Benchmarks/McCat/03-testtrie/testtrie, 0.0883, 0.0880, 0.0878,0.088
MultiSource/Benchmarks/McCat/04-bisect/bisect, 0.1260, 0.1258, 0.1253,0.1258
MultiSource/Benchmarks/McCat/05-eks/eks, 0.5108, 0.5108, 0.5106,0.5108
MultiSource/Benchmarks/McCat/08-main/main, 0.2337, 0.2335, 0.2333,0.2335
MultiSource/Benchmarks/McCat/09-vor/vor, 0.2631, 0.2633, 0.2627,0.2631
MultiSource/Benchmarks/McCat/12-IOtest/iotest, 0.0904, 0.0904, 0.0900,0.0904
MultiSource/Benchmarks/McCat/17-bintr/bintr, 0.0677, 0.0679, 0.0677,0.0677
MultiSource/Benchmarks/McCat/18-imp/imp, 0.3231, 0.3235, 0.3240,0.3235
MultiSource/Benchmarks/MiBench/automotive-basicmath/automotive-basicmath, 0.1410, 0.1405, 0.1408,0.1408
MultiSource/Benchmarks/MiBench/automotive-bitcount/automotive-bitcount, 0.2488, 0.2479, 0.2480,0.248
MultiSource/Benchmarks/MiBench/automotive-susan/automotive-susan, 0.6466, 0.6465, 0.6413,0.6465
MultiSource/Benchmarks/MiBench/consumer-jpeg/consumer-jpeg, 4.3568, 4.3531, 4.3539,4.3539
MultiSource/Benchmarks/MiBench/consumer-lame/consumer-lame, 3.9134, 3.9117, 3.9137,3.9134
MultiSource/Benchmarks/MiBench/consumer-typeset/consumer-typeset, 9.6867, 9.6624, 9.6718,9.6718
MultiSource/Benchmarks/MiBench/network-dijkstra/network-dijkstra, 0.0412, 0.0410, 0.0410,0.041
MultiSource/Benchmarks/MiBench/network-patricia/network-patricia, 0.0805, 0.0891, 0.0875,0.0875
MultiSource/Benchmarks/MiBench/security-rijndael/security-rijndael, 0.3919, 0.3912, 0.3911,0.3912
MultiSource/Benchmarks/MiBench/security-sha/security-sha, 0.1154, 0.1157, 0.1156,0.1156
MultiSource/Benchmarks/MiBench/telecomm-CRC32/telecomm-CRC32, 0.0344, 0.0344, 0.0343,0.0344
MultiSource/Benchmarks/MiBench/telecomm-FFT/telecomm-fft, 0.1375, 0.1373, 0.1374,0.1374
MultiSource/Benchmarks/MiBench/telecomm-adpcm/telecomm-adpcm, 0.0539, 0.0540, 0.0537,0.0539
MultiSource/Benchmarks/MiBench/telecomm-gsm/telecomm-gsm, 1.0161, 1.0198, 1.0184,1.0184
MultiSource/Benchmarks/NPB-serial/is/is, 0.0637, 0.0636, 0.0636,0.0636
MultiSource/Benchmarks/Olden/bh/bh, 0.2514, 0.2512, 0.2522,0.2514
MultiSource/Benchmarks/Olden/bisort/bisort, 0.0618, 0.0615, 0.0615,0.0615
MultiSource/Benchmarks/Olden/em3d/em3d, 0.1713, 0.1705, 0.1711,0.1711
MultiSource/Benchmarks/Olden/health/health, 0.1334, 0.1334, 0.1334,0.1334
MultiSource/Benchmarks/Olden/mst/mst, 0.1216, 0.1214, 0.1214,0.1214
MultiSource/Benchmarks/Olden/perimeter/perimeter, 0.0753, 0.0754, 0.0752,0.0753
MultiSource/Benchmarks/Olden/power/power, 0.1249, 0.1248, 0.1246,0.1248
MultiSource/Benchmarks/Olden/treeadd/treeadd, 0.0534, 0.0530, 0.0531,0.0531
MultiSource/Benchmarks/Olden/tsp/tsp, 0.1235, 0.1231, 0.1235,0.1235
MultiSource/Benchmarks/Olden/voronoi/voronoi, 0.2113, 0.2109, 0.2111,0.2111
MultiSource/Benchmarks/PAQ8p/paq8p, 1.8995, 1.8942, 1.8970,1.897
MultiSource/Benchmarks/Prolangs-C++/city/city, 0.8897, 0.8922, 0.8888,0.8897
MultiSource/Benchmarks/Prolangs-C++/employ/employ, 0.1973, 0.1972, 0.1965,0.1972
MultiSource/Benchmarks/Prolangs-C++/life/life, 0.0589, 0.0586, 0.0588,0.0588
MultiSource/Benchmarks/Prolangs-C++/ocean/ocean, 0.1075, 0.1078, 0.1072,0.1075
MultiSource/Benchmarks/Prolangs-C++/primes/primes, 0.0242, 0.0242, 0.0243,0.0242
MultiSource/Benchmarks/Prolangs-C++/simul/simul, 0.0513, 0.0513, 0.0515,0.0513
MultiSource/Benchmarks/Prolangs-C/agrep/agrep, 1.3196, 1.3248, 1.3207,1.3207
MultiSource/Benchmarks/Prolangs-C/bison/mybison, 1.5877, 1.5853, 1.5846,1.5853
MultiSource/Benchmarks/Prolangs-C/gnugo/gnugo, 0.7067, 0.7037, 0.7053,0.7053
MultiSource/Benchmarks/Ptrdist/anagram/anagram, 0.0987, 0.0983, 0.0982,0.0983
MultiSource/Benchmarks/Ptrdist/bc/bc, 0.9918, 0.9933, 0.9911,0.9918
MultiSource/Benchmarks/Ptrdist/ft/ft, 0.2014, 0.2014, 0.2019,0.2014
MultiSource/Benchmarks/Ptrdist/ks/ks, 0.1416, 0.1415, 0.1421,0.1416
MultiSource/Benchmarks/Ptrdist/yacr2/yacr2, 0.5935, 0.5929, 0.5942,0.5935
MultiSource/Benchmarks/SciMark2-C/scimark2, 0.3612, 0.3602, 0.3606,0.3606
MultiSource/Benchmarks/TSVC/ControlFlow-dbl/ControlFlow-dbl, 2.1329, 2.1250, 2.1285,2.1285
MultiSource/Benchmarks/TSVC/ControlFlow-flt/ControlFlow-flt, 1.7907, 1.7891, 1.7891,1.7891
MultiSource/Benchmarks/TSVC/ControlLoops-dbl/ControlLoops-dbl, 2.0365, 2.0428, 2.0426,2.0426
MultiSource/Benchmarks/TSVC/ControlLoops-flt/ControlLoops-flt, 1.6994, 1.6991, 1.7057,1.6994
MultiSource/Benchmarks/TSVC/CrossingThresholds-dbl/CrossingThresholds-dbl, 1.9920, 1.9918, 1.9927,1.992
MultiSource/Benchmarks/TSVC/CrossingThresholds-flt/CrossingThresholds-flt, 1.6633, 1.6326, 1.6607,1.6607
MultiSource/Benchmarks/TSVC/Equivalencing-dbl/Equivalencing-dbl, 2.0059, 1.9974, 1.9975,1.9975
MultiSource/Benchmarks/TSVC/Equivalencing-flt/Equivalencing-flt, 1.6606, 1.6570, 1.6573,1.6573
MultiSource/Benchmarks/TSVC/Expansion-dbl/Expansion-dbl, 2.0315, 2.0372, 2.0296,2.0315
MultiSource/Benchmarks/TSVC/Expansion-flt/Expansion-flt, 1.6993, 1.6938, 1.6975,1.6975
MultiSource/Benchmarks/TSVC/GlobalDataFlow-dbl/GlobalDataFlow-dbl, 2.0279, 2.0280, 2.0281,2.028
MultiSource/Benchmarks/TSVC/GlobalDataFlow-flt/GlobalDataFlow-flt, 1.6959, 1.6885, 1.6932,1.6932
MultiSource/Benchmarks/TSVC/IndirectAddressing-dbl/IndirectAddressing-dbl, 1.9840, 1.9887, 1.9816,1.984
MultiSource/Benchmarks/TSVC/IndirectAddressing-flt/IndirectAddressing-flt, 1.6407, 1.6417, 1.6457,1.6417
MultiSource/Benchmarks/TSVC/InductionVariable-dbl/InductionVariable-dbl, 2.0038, 2.0045, 2.0046,2.0045
MultiSource/Benchmarks/TSVC/InductionVariable-flt/InductionVariable-flt, 1.6672, 1.6717, 1.6668,1.6672
MultiSource/Benchmarks/TSVC/LinearDependence-dbl/LinearDependence-dbl, 2.0501, 2.0508, 2.0528,2.0508
MultiSource/Benchmarks/TSVC/LinearDependence-flt/LinearDependence-flt, 1.7172, 1.7291, 1.7268,1.7268
MultiSource/Benchmarks/TSVC/LoopRerolling-dbl/LoopRerolling-dbl, 1.9616, 1.9462, 1.9654,1.9616
MultiSource/Benchmarks/TSVC/LoopRerolling-flt/LoopRerolling-flt, 1.6235, 1.6303, 1.6351,1.6303
MultiSource/Benchmarks/TSVC/LoopRestructuring-dbl/LoopRestructuring-dbl, 2.0223, 2.0124, 2.0085,2.0124
MultiSource/Benchmarks/TSVC/LoopRestructuring-flt/LoopRestructuring-flt, 1.6683, 1.6706, 1.6748,1.6706
MultiSource/Benchmarks/TSVC/NodeSplitting-dbl/NodeSplitting-dbl, 1.9726, 1.9740, 1.9737,1.9737
MultiSource/Benchmarks/TSVC/NodeSplitting-flt/NodeSplitting-flt, 1.6510, 1.6267, 1.6498,1.6498
MultiSource/Benchmarks/TSVC/Packing-dbl/Packing-dbl, 1.9480, 1.9542, 1.9574,1.9542
MultiSource/Benchmarks/TSVC/Packing-flt/Packing-flt, 1.6132, 1.6152, 1.6076,1.6132
MultiSource/Benchmarks/TSVC/Recurrences-dbl/Recurrences-dbl, 1.9421, 1.9417, 1.9436,1.9421
MultiSource/Benchmarks/TSVC/Recurrences-flt/Recurrences-flt, 1.6082, 1.6082, 1.6103,1.6082
MultiSource/Benchmarks/TSVC/Reductions-dbl/Reductions-dbl, 2.0425, 2.0472, 2.0450,2.045
MultiSource/Benchmarks/TSVC/Reductions-flt/Reductions-flt, 1.7095, 1.7057, 1.7085,1.7085
MultiSource/Benchmarks/TSVC/Searching-dbl/Searching-dbl, 1.9345, 1.9367, 1.9378,1.9367
MultiSource/Benchmarks/TSVC/Searching-flt/Searching-flt, 1.5968, 1.5962, 1.6178,1.5968
MultiSource/Benchmarks/TSVC/StatementReordering-dbl/StatementReordering-dbl, 1.9489, 1.9500, 1.9455,1.9489
MultiSource/Benchmarks/TSVC/StatementReordering-flt/StatementReordering-flt, 1.6094, 1.6054, 1.6084,1.6084
MultiSource/Benchmarks/TSVC/Symbolics-dbl/Symbolics-dbl, 1.9923, 1.9896, 1.9868,1.9896
MultiSource/Benchmarks/TSVC/Symbolics-flt/Symbolics-flt, 1.6464, 1.6520, 1.6576,1.652
MultiSource/Benchmarks/Trimaran/enc-3des/enc-3des, 0.2375, 0.2367, 0.2370,0.237
MultiSource/Benchmarks/Trimaran/enc-md5/enc-md5, 0.1482, 0.1479, 0.1476,0.1479
MultiSource/Benchmarks/Trimaran/enc-pc1/enc-pc1, 0.0639, 0.0640, 0.0637,0.0639
MultiSource/Benchmarks/Trimaran/enc-rc4/enc-rc4, 0.0490, 0.0488, 0.0489,0.0489
MultiSource/Benchmarks/Trimaran/netbench-crc/netbench-crc, 0.0752, 0.0752, 0.0752,0.0752
MultiSource/Benchmarks/Trimaran/netbench-url/netbench-url, 0.2012, 0.2013, 0.2015,0.2013
MultiSource/Benchmarks/VersaBench/8b10b/8b10b, 0.0721, 0.0717, 0.0718,0.0718
MultiSource/Benchmarks/VersaBench/beamformer/beamformer, 0.3067, 0.3113, 0.3115,0.3113
MultiSource/Benchmarks/VersaBench/bmm/bmm, 0.0499, 0.0498, 0.0499,0.0499
MultiSource/Benchmarks/VersaBench/dbms/dbms, 0.9450, 0.9401, 0.9462,0.945
MultiSource/Benchmarks/VersaBench/ecbdes/ecbdes, 0.2070, 0.2075, 0.2075,0.2075
MultiSource/Benchmarks/llubenchmark/llu, 0.0462, 0.0462, 0.0462,0.0462
MultiSource/Benchmarks/mafft/pairlocalalign, 8.6197, 8.6164, 8.6188,8.6188
MultiSource/Benchmarks/mediabench/adpcm/rawcaudio/rawcaudio, 0.0542, 0.0539, 0.0541,0.0541
MultiSource/Benchmarks/mediabench/adpcm/rawdaudio/rawdaudio, 0.0541, 0.0537, 0.0539,0.0539
MultiSource/Benchmarks/mediabench/g721/g721encode/encode, 0.1913, 0.1903, 0.1904,0.1904
MultiSource/Benchmarks/mediabench/gsm/toast/toast, 1.0142, 1.0105, 1.0115,1.0115
MultiSource/Benchmarks/mediabench/jpeg/jpeg-6a/cjpeg, 4.4115, 4.4131, 4.4020,4.4115
MultiSource/Benchmarks/mediabench/mpeg2/mpeg2dec/mpeg2decode, 1.3167, 1.3165, 1.3089,1.3165
MultiSource/Benchmarks/nbench/nbench, 1.1083, 1.1063, 1.1065,1.1065
MultiSource/Benchmarks/sim/sim, 0.2802, 0.2803, 0.2804,0.2803
MultiSource/Benchmarks/tramp3d-v4/tramp3d-v4,19.8338,19.8022,19.8174,19.8174
SingleSource/Benchmarks/Adobe-C++/functionobjects, 0.4445, 0.4461, 0.4439,0.4445
SingleSource/Benchmarks/Adobe-C++/loop_unroll, 4.2792, 4.2951, 4.3025,4.2951
SingleSource/Benchmarks/Adobe-C++/simple_types_constant_folding, 2.4283, 2.4290, 2.4298,2.429
SingleSource/Benchmarks/Adobe-C++/simple_types_loop_invariant, 1.9671, 1.9683, 1.9642,1.9671
SingleSource/Benchmarks/Adobe-C++/stepanov_abstraction, 0.5743, 0.5737, 0.5726,0.5737
SingleSource/Benchmarks/Adobe-C++/stepanov_vector, 0.6154, 0.6156, 0.6159,0.6156
SingleSource/Benchmarks/BenchmarkGame/Large/fasta, 0.0404, 0.0402, 0.0403,0.0403
SingleSource/Benchmarks/BenchmarkGame/fannkuch, 0.0511, 0.0508, 0.0508,0.0508
SingleSource/Benchmarks/BenchmarkGame/n-body, 0.0701, 0.0701, 0.0700,0.0701
SingleSource/Benchmarks/BenchmarkGame/nsieve-bits, 0.0314, 0.0315, 0.0313,0.0314
SingleSource/Benchmarks/BenchmarkGame/partialsums, 0.0314, 0.0291, 0.0292,0.0292
SingleSource/Benchmarks/BenchmarkGame/puzzle, 0.0549, 0.0547, 0.0547,0.0547
SingleSource/Benchmarks/BenchmarkGame/recursive, 0.0394, 0.0256, 0.0255,0.0256
SingleSource/Benchmarks/BenchmarkGame/spectral-norm, 0.0538, 0.0538, 0.0537,0.0538
SingleSource/Benchmarks/CoyoteBench/almabench, 0.0676, 0.0678, 0.0675,0.0676
SingleSource/Benchmarks/CoyoteBench/fftbench, 0.5557, 0.5408, 0.5787,0.5557
SingleSource/Benchmarks/CoyoteBench/huffbench, 0.0832, 0.0826, 0.0830,0.083
SingleSource/Benchmarks/CoyoteBench/lpbench, 0.1574, 0.1482, 0.1488,0.1488
SingleSource/Benchmarks/Dhrystone/dry, 0.0405, 0.0402, 0.0404,0.0404
SingleSource/Benchmarks/Dhrystone/fldry, 0.0431, 0.0433, 0.0431,0.0431
SingleSource/Benchmarks/Linpack/linpack-pc, 0.3048, 0.3043, 0.3055,0.3048
SingleSource/Benchmarks/McGill/chomp, 0.1849, 0.1852, 0.1856,0.1852
SingleSource/Benchmarks/McGill/misr, 0.0526, 0.0523, 0.0526,0.0526
SingleSource/Benchmarks/McGill/queens, 0.0441, 0.0441, 0.0441,0.0441
SingleSource/Benchmarks/Misc-C++-EH/spirit, 3.4960, 3.5001, 3.5083,3.5001
SingleSource/Benchmarks/Misc-C++/Large/ray, 0.2307, 0.2114, 0.2102,0.2114
SingleSource/Benchmarks/Misc-C++/Large/sphereflake, 0.2198, 0.2188, 0.2184,0.2188
SingleSource/Benchmarks/Misc-C++/bigfib, 0.4895, 0.4371, 0.4376,0.4376
SingleSource/Benchmarks/Misc-C++/mandel-text, 0.0234, 0.0234, 0.0233,0.0234
SingleSource/Benchmarks/Misc-C++/oopack_v1p8, 0.1258, 0.1293, 0.1266,0.1266
SingleSource/Benchmarks/Misc-C++/stepanov_container, 0.6849, 0.6580, 0.6620,0.662
SingleSource/Benchmarks/Misc-C++/stepanov_v1p2, 0.1672, 0.1672, 0.1679,0.1672
SingleSource/Benchmarks/Misc/ReedSolomon, 0.1874, 0.1872, 0.1871,0.1872
SingleSource/Benchmarks/Misc/dt, 0.0316, 0.0316, 0.0315,0.0316
SingleSource/Benchmarks/Misc/evalloop, 0.0355, 0.0354, 0.0354,0.0354
SingleSource/Benchmarks/Misc/fbench, 0.0531, 0.0532, 0.0529,0.0531
SingleSource/Benchmarks/Misc/ffbench, 0.0665, 0.0662, 0.0661,0.0662
SingleSource/Benchmarks/Misc/flops, 0.0764, 0.0764, 0.0760,0.0764
SingleSource/Benchmarks/Misc/flops-1, 0.0264, 0.0265, 0.0265,0.0265
SingleSource/Benchmarks/Misc/flops-2, 0.0274, 0.0273, 0.0274,0.0274
SingleSource/Benchmarks/Misc/flops-3, 0.0263, 0.0263, 0.0262,0.0263
SingleSource/Benchmarks/Misc/flops-4, 0.0268, 0.0268, 0.0268,0.0268
SingleSource/Benchmarks/Misc/flops-5, 0.0275, 0.0274, 0.0274,0.0274
SingleSource/Benchmarks/Misc/flops-6, 0.0275, 0.0273, 0.0274,0.0274
SingleSource/Benchmarks/Misc/flops-7, 0.0262, 0.0261, 0.0261,0.0261
SingleSource/Benchmarks/Misc/flops-8, 0.0274, 0.0275, 0.0274,0.0274
SingleSource/Benchmarks/Misc/fp-convert, 0.0293, 0.0293, 0.0293,0.0293
SingleSource/Benchmarks/Misc/himenobmtxpa, 0.1745, 0.1741, 0.1742,0.1742
SingleSource/Benchmarks/Misc/lowercase, 0.0246, 0.0245, 0.0246,0.0246
SingleSource/Benchmarks/Misc/mandel, 0.0654, 0.0434, 0.0433,0.0434
SingleSource/Benchmarks/Misc/mandel-2, 0.0467, 0.0311, 0.0311,0.0311
SingleSource/Benchmarks/Misc/matmul_f64_4x4, 0.0276, 0.0276, 0.0276,0.0276
SingleSource/Benchmarks/Misc/oourafft, 0.2212, 0.2090, 0.2092,0.2092
SingleSource/Benchmarks/Misc/perlin, 0.0445, 0.0445, 0.0445,0.0445
SingleSource/Benchmarks/Misc/pi, 0.0203, 0.0203, 0.0205,0.0203
SingleSource/Benchmarks/Misc/revertBits, 0.0248, 0.0247, 0.0248,0.0248
SingleSource/Benchmarks/Misc/richards_benchmark, 0.0623, 0.0623, 0.0623,0.0623
SingleSource/Benchmarks/Misc/salsa20, 0.0537, 0.0536, 0.0535,0.0536
SingleSource/Benchmarks/Misc/whetstone, 0.0663, 0.0663, 0.0662,0.0663
SingleSource/Benchmarks/Polybench/datamining/correlation/correlation, 0.0754, 0.0752, 0.0755,0.0754
SingleSource/Benchmarks/Polybench/datamining/covariance/covariance, 0.0827, 0.0828, 0.0827,0.0827
SingleSource/Benchmarks/Polybench/linear-algebra/kernels/atax/atax, 0.0790, 0.0789, 0.0789,0.0789
SingleSource/Benchmarks/Polybench/linear-algebra/kernels/bicg/bicg, 0.0777, 0.0777, 0.0776,0.0777
SingleSource/Benchmarks/Polybench/linear-algebra/kernels/cholesky/cholesky, 0.0917, 0.0912, 0.0912,0.0912
SingleSource/Benchmarks/Polybench/linear-algebra/kernels/doitgen/doitgen, 0.0966, 0.0968, 0.0961,0.0966
SingleSource/Benchmarks/Polybench/linear-algebra/kernels/gemver/gemver, 0.0899, 0.0902, 0.0900,0.09
SingleSource/Benchmarks/Polybench/linear-algebra/kernels/gesummv/gesummv, 0.0662, 0.0662, 0.0661,0.0662
SingleSource/Benchmarks/Polybench/linear-algebra/kernels/mvt/mvt, 0.0800, 0.0804, 0.0804,0.0804
SingleSource/Benchmarks/Polybench/linear-algebra/kernels/symm/symm, 0.0761, 0.0762, 0.0759,0.0761
SingleSource/Benchmarks/Polybench/linear-algebra/kernels/syr2k/syr2k, 0.0772, 0.0770, 0.0772,0.0772
SingleSource/Benchmarks/Polybench/linear-algebra/kernels/syrk/syrk, 0.0754, 0.0756, 0.0754,0.0754
SingleSource/Benchmarks/Polybench/linear-algebra/kernels/trisolv/trisolv, 0.0625, 0.0624, 0.0623,0.0624
SingleSource/Benchmarks/Polybench/linear-algebra/kernels/trmm/trmm, 0.0718, 0.0717, 0.0714,0.0717
SingleSource/Benchmarks/Polybench/linear-algebra/solvers/durbin/durbin, 0.0869, 0.0869, 0.0870,0.0869
SingleSource/Benchmarks/Polybench/linear-algebra/solvers/dynprog/dynprog, 0.0722, 0.0720, 0.0722,0.0722
SingleSource/Benchmarks/Polybench/linear-algebra/solvers/gramschmidt/gramschmidt, 0.1007, 0.1009, 0.1007,0.1007
SingleSource/Benchmarks/Polybench/linear-algebra/solvers/lu/lu, 0.0886, 0.0889, 0.0887,0.0887
SingleSource/Benchmarks/Polybench/medley/floyd-warshall/floyd-warshall, 0.0884, 0.0745, 0.0749,0.0749
SingleSource/Benchmarks/Polybench/medley/reg_detect/reg_detect, 0.4183, 0.4186, 0.4178,0.4183
SingleSource/Benchmarks/Polybench/stencils/adi/adi, 0.0891, 0.0891, 0.0890,0.0891
SingleSource/Benchmarks/Polybench/stencils/fdtd-2d/fdtd-2d, 0.1370, 0.1366, 0.1367,0.1367
SingleSource/Benchmarks/Polybench/stencils/fdtd-apml/fdtd-apml, 0.1302, 0.1305, 0.1303,0.1303
SingleSource/Benchmarks/Polybench/stencils/jacobi-1d-imper/jacobi-1d-imper, 0.0830, 0.0828, 0.0831,0.083
SingleSource/Benchmarks/Polybench/stencils/jacobi-2d-imper/jacobi-2d-imper, 0.1119, 0.1118, 0.1121,0.1119
SingleSource/Benchmarks/Polybench/stencils/seidel-2d/seidel-2d, 0.0693, 0.0689, 0.0690,0.069
SingleSource/Benchmarks/Shootout-C++/EH/except, 0.1288, 0.1294, 0.1288,0.1288
SingleSource/Benchmarks/Shootout-C++/ackermann, 0.1165, 0.1170, 0.1169,0.1169
SingleSource/Benchmarks/Shootout-C++/ary, 0.1534, 0.1539, 0.1548,0.1539
SingleSource/Benchmarks/Shootout-C++/ary2, 0.1546, 0.1556, 0.1559,0.1556
SingleSource/Benchmarks/Shootout-C++/ary3, 0.1578, 0.1589, 0.1579,0.1579
SingleSource/Benchmarks/Shootout-C++/fibo, 0.1144, 0.1149, 0.1146,0.1146
SingleSource/Benchmarks/Shootout-C++/hash, 0.2658, 0.2664, 0.2660,0.266
SingleSource/Benchmarks/Shootout-C++/hash2, 0.3165, 0.3255, 0.3305,0.3255
SingleSource/Benchmarks/Shootout-C++/heapsort, 0.1308, 0.1320, 0.1305,0.1308
SingleSource/Benchmarks/Shootout-C++/lists, 0.1608, 0.1605, 0.1614,0.1608
SingleSource/Benchmarks/Shootout-C++/lists1, 0.2466, 0.2063, 0.2134,0.2134
SingleSource/Benchmarks/Shootout-C++/matrix, 0.1836, 0.1846, 0.1832,0.1836
SingleSource/Benchmarks/Shootout-C++/methcall, 0.1236, 0.1240, 0.1237,0.1237
SingleSource/Benchmarks/Shootout-C++/moments, 0.2355, 0.2361, 0.2366,0.2361
SingleSource/Benchmarks/Shootout-C++/nestedloop, 0.1147, 0.1248, 0.1200,0.12
SingleSource/Benchmarks/Shootout-C++/objinst, 0.1407, 0.1484, 0.1591,0.1484
SingleSource/Benchmarks/Shootout-C++/random, 0.1246, 0.1251, 0.1241,0.1246
SingleSource/Benchmarks/Shootout-C++/sieve, 0.1827, 0.1836, 0.1831,0.1831
SingleSource/Benchmarks/Shootout-C++/strcat, 0.1257, 0.1262, 0.1254,0.1257
SingleSource/Benchmarks/Shootout/ackermann, 0.0228, 0.0227, 0.0226,0.0227
SingleSource/Benchmarks/Shootout/ary3, 0.0338, 0.0337, 0.0338,0.0338
SingleSource/Benchmarks/Shootout/fib2, 0.0190, 0.0189, 0.0190,0.019
SingleSource/Benchmarks/Shootout/hash, 0.0504, 0.0502, 0.0502,0.0502
SingleSource/Benchmarks/Shootout/heapsort, 0.0383, 0.0382, 0.0383,0.0383
SingleSource/Benchmarks/Shootout/lists, 0.0659, 0.0658, 0.0659,0.0659
SingleSource/Benchmarks/Shootout/matrix, 0.0817, 0.0816, 0.0815,0.0816
SingleSource/Benchmarks/Shootout/methcall, 0.0307, 0.0307, 0.0308,0.0307
SingleSource/Benchmarks/Shootout/nestedloop, 0.0234, 0.0234, 0.0234,0.0234
SingleSource/Benchmarks/Shootout/objinst, 0.0367, 0.0366, 0.0367,0.0367
SingleSource/Benchmarks/Shootout/random, 0.0292, 0.0293, 0.0293,0.0293
SingleSource/Benchmarks/Shootout/sieve, 0.0246, 0.0246, 0.0246,0.0246
SingleSource/Benchmarks/Shootout/strcat, 0.0265, 0.0265, 0.0266,0.0265
SingleSource/Benchmarks/SmallPT/smallpt, 0.0989, 0.0994, 0.0987,0.0989
SingleSource/Benchmarks/Stanford/Bubblesort, 0.0331, 0.0330, 0.0331,0.0331
SingleSource/Benchmarks/Stanford/FloatMM, 0.0520, 0.0521, 0.0522,0.0521
SingleSource/Benchmarks/Stanford/Oscar, 0.0617, 0.0618, 0.0616,0.0617
SingleSource/Benchmarks/Stanford/Perm, 0.0334, 0.0304, 0.0304,0.0304
SingleSource/Benchmarks/Stanford/Puzzle, 0.1095, 0.1092, 0.1094,0.1094
SingleSource/Benchmarks/Stanford/Queens, 0.0438, 0.0437, 0.0439,0.0438
SingleSource/Benchmarks/Stanford/Quicksort, 0.0458, 0.0364, 0.0366,0.0366
SingleSource/Benchmarks/Stanford/RealMM, 0.0492, 0.0493, 0.0492,0.0492
SingleSource/Benchmarks/Stanford/Towers, 0.0512, 0.0475, 0.0472,0.0475
SingleSource/Benchmarks/Stanford/Treesort, 0.0376, 0.0376, 0.0375,0.0376
SingleSource/Regression/C/2004-08-12-InlinerAndAllocas, 0.0188, 0.0187, 0.0188,0.0188
SingleSource/Regression/C/uint64_to_float, 0.0698, 0.0697, 0.0673,0.0697
Total elapsed time,-,-,-,363.05909999999983
Total failure,-,-,-,0
