Benchmarks,/mnt/freezedisk/llvm-intptr-insts-5.0-release/bin/clang,/mnt/freezedisk/llvm-intptr-insts-5.0-release/bin/clang,/mnt/freezedisk/llvm-intptr-insts-5.0-release/bin/clang,median
MultiSource/Applications/ALAC/decode/alacconvert-decode, 0.0132, 0.0132, 0.0131,0.0132
MultiSource/Applications/ALAC/encode/alacconvert-encode, 0.0266, 0.0266, 0.0268,0.0266
MultiSource/Applications/ClamAV/clamscan, 0.1652, 0.2055, 0.1728,0.1728
MultiSource/Applications/JM/ldecod/ldecod, 0.0363, 0.0359, 0.0358,0.0359
MultiSource/Applications/JM/lencod/lencod, 3.1581, 3.1518, 3.1546,3.1546
MultiSource/Applications/SIBsim4/SIBsim4, 2.1257, 2.0802, 2.0914,2.0914
MultiSource/Applications/SPASS/SPASS, 6.0679, 6.7302, 5.9873,6.0679
MultiSource/Applications/aha/aha, 1.0316, 1.0314, 1.0301,1.0314
MultiSource/Applications/d/make_dparser, 0.0160, 0.0159, 0.0160,0.016
MultiSource/Applications/hbd/hbd, 0.0019, 0.0018, 0.0019,0.0019
MultiSource/Applications/hexxagon/hexxagon, 7.0601, 7.0594, 7.0597,7.0597
MultiSource/Applications/kimwitu++/kc, 0.0281, 0.0280, 0.0283,0.0281
MultiSource/Applications/lambda-0.1.3/lambda, 2.7066, 2.7066, 2.7058,2.7066
MultiSource/Applications/lua/lua,11.0993,11.1211,11.1175,11.1175
MultiSource/Applications/minisat/minisat, 4.2071, 4.1631, 4.1792,4.1792
MultiSource/Applications/obsequi/Obsequi, 1.0946, 1.0945, 1.0947,1.0946
MultiSource/Applications/oggenc/oggenc, 0.0886, 0.0764, 0.0762,0.0764
MultiSource/Applications/sgefa/sgefa, 0.1527, 0.1527, 0.1528,0.1527
MultiSource/Applications/siod/siod, 1.0987, 1.0981, 1.0985,1.0985
MultiSource/Applications/spiff/spiff, 1.2755, 1.2775, 1.2748,1.2755
MultiSource/Applications/sqlite3/sqlite3, 1.7996, 1.7885, 1.7873,1.7885
MultiSource/Applications/viterbi/viterbi, 1.2754, 1.2774, 1.2783,1.2774
MultiSource/Benchmarks/7zip/7zip-benchmark, 6.3429, 6.3436, 6.3367,6.3429
MultiSource/Benchmarks/ASCI_Purple/SMG2000/smg2000, 1.1615, 1.1623, 1.1614,1.1615
MultiSource/Benchmarks/ASC_Sequoia/AMGmk/AMGmk, 4.9727, 4.9931, 4.9699,4.9727
MultiSource/Benchmarks/ASC_Sequoia/CrystalMk/CrystalMk, 7.2734, 7.2733, 7.2736,7.2734
MultiSource/Benchmarks/ASC_Sequoia/IRSmk/IRSmk, 2.9924, 2.9917, 3.0007,2.9924
MultiSource/Benchmarks/BitBench/drop3/drop3, 0.1850, 0.1849, 0.1850,0.185
MultiSource/Benchmarks/BitBench/five11/five11, 1.1071, 1.1239, 1.1090,1.109
MultiSource/Benchmarks/BitBench/uudecode/uudecode, 0.0596, 0.0596, 0.0596,0.0596
MultiSource/Benchmarks/BitBench/uuencode/uuencode, 0.0106, 0.0106, 0.0107,0.0106
MultiSource/Benchmarks/Bullet/bullet, 3.2461, 3.2384, 3.2417,3.2417
MultiSource/Benchmarks/DOE-ProxyApps-C++/CLAMR/CLAMR, 1.1201, 1.1200, 1.1203,1.1201
MultiSource/Benchmarks/DOE-ProxyApps-C++/HPCCG/HPCCG, 0.9007, 0.9014, 0.9018,0.9014
MultiSource/Benchmarks/DOE-ProxyApps-C++/PENNANT/PENNANT, 0.3763, 0.3754, 0.3758,0.3758
MultiSource/Benchmarks/DOE-ProxyApps-C++/miniFE/miniFE, 2.4719, 2.4704, 2.4639,2.4704
MultiSource/Benchmarks/DOE-ProxyApps-C/Pathfinder/PathFinder, 2.0954, 2.0978, 2.0899,2.0954
MultiSource/Benchmarks/DOE-ProxyApps-C/RSBench/rsbench, 0.5774, 0.5736, 0.5750,0.575
MultiSource/Benchmarks/DOE-ProxyApps-C/SimpleMOC/SimpleMOC, 3.7898, 3.7889, 3.8020,3.7898
MultiSource/Benchmarks/DOE-ProxyApps-C/XSBench/XSBench, 2.4371, 2.4329, 2.4315,2.4329
MultiSource/Benchmarks/DOE-ProxyApps-C/miniAMR/miniAMR, 0.7714, 0.7721, 0.7717,0.7717
MultiSource/Benchmarks/DOE-ProxyApps-C/miniGMG/miniGMG, 5.2042, 5.2031, 5.2029,5.2031
MultiSource/Benchmarks/Fhourstones-3.1/fhourstones3.1, 0.7723, 0.7707, 0.7738,0.7723
MultiSource/Benchmarks/Fhourstones/fhourstones, 0.5823, 0.5626, 0.5752,0.5752
MultiSource/Benchmarks/FreeBench/analyzer/analyzer, 0.0404, 0.0402, 0.0403,0.0403
MultiSource/Benchmarks/FreeBench/distray/distray, 0.1347, 0.1347, 0.1346,0.1347
MultiSource/Benchmarks/FreeBench/fourinarow/fourinarow, 0.1759, 0.1757, 0.1759,0.1759
MultiSource/Benchmarks/FreeBench/mason/mason, 0.1300, 0.1300, 0.1300,0.13
MultiSource/Benchmarks/FreeBench/neural/neural, 0.1155, 0.1154, 0.1154,0.1154
MultiSource/Benchmarks/FreeBench/pcompress2/pcompress2, 0.1053, 0.1054, 0.1053,0.1053
MultiSource/Benchmarks/FreeBench/pifft/pifft, 0.0653, 0.0653, 0.0654,0.0653
MultiSource/Benchmarks/MallocBench/cfrac/cfrac, 0.7632, 0.7632, 0.7636,0.7632
MultiSource/Benchmarks/MallocBench/espresso/espresso, 0.2988, 0.2989, 0.2987,0.2988
MultiSource/Benchmarks/MallocBench/gs/gs, 0.0274, 0.0275, 0.0276,0.0275
MultiSource/Benchmarks/McCat/01-qbsort/qbsort, 0.0421, 0.0393, 0.0391,0.0393
MultiSource/Benchmarks/McCat/03-testtrie/testtrie, 0.0065, 0.0063, 0.0064,0.0064
MultiSource/Benchmarks/McCat/04-bisect/bisect, 0.0750, 0.0750, 0.0751,0.075
MultiSource/Benchmarks/McCat/05-eks/eks, 0.0036, 0.0036, 0.0036,0.0036
MultiSource/Benchmarks/McCat/08-main/main, 0.0428, 0.0428, 0.0428,0.0428
MultiSource/Benchmarks/McCat/09-vor/vor, 0.0828, 0.0832, 0.0829,0.0829
MultiSource/Benchmarks/McCat/12-IOtest/iotest, 0.2169, 0.2163, 0.2143,0.2163
MultiSource/Benchmarks/McCat/17-bintr/bintr, 0.0815, 0.0797, 0.0812,0.0812
MultiSource/Benchmarks/McCat/18-imp/imp, 0.0556, 0.0557, 0.0557,0.0557
MultiSource/Benchmarks/MiBench/automotive-basicmath/automotive-basicmath, 0.2228, 0.2224, 0.2225,0.2225
MultiSource/Benchmarks/MiBench/automotive-bitcount/automotive-bitcount, 0.0626, 0.0548, 0.0548,0.0548
MultiSource/Benchmarks/MiBench/automotive-susan/automotive-susan, 0.0290, 0.0285, 0.0286,0.0286
MultiSource/Benchmarks/MiBench/consumer-jpeg/consumer-jpeg, 0.0032, 0.0032, 0.0032,0.0032
MultiSource/Benchmarks/MiBench/consumer-lame/consumer-lame, 0.1175, 0.1174, 0.1177,0.1175
MultiSource/Benchmarks/MiBench/consumer-typeset/consumer-typeset, 0.0822, 0.0818, 0.0821,0.0821
MultiSource/Benchmarks/MiBench/network-dijkstra/network-dijkstra, 0.0247, 0.0247, 0.0247,0.0247
MultiSource/Benchmarks/MiBench/network-patricia/network-patricia, 0.0849, 0.0713, 0.0713,0.0713
MultiSource/Benchmarks/MiBench/security-rijndael/security-rijndael, 0.0222, 0.0222, 0.0221,0.0222
MultiSource/Benchmarks/MiBench/security-sha/security-sha, 0.0293, 0.0249, 0.0296,0.0293
MultiSource/Benchmarks/MiBench/telecomm-CRC32/telecomm-CRC32, 0.2089, 0.2045, 0.2021,0.2045
MultiSource/Benchmarks/MiBench/telecomm-FFT/telecomm-fft, 0.0383, 0.0383, 0.0383,0.0383
MultiSource/Benchmarks/MiBench/telecomm-adpcm/telecomm-adpcm, 0.0774, 0.0813, 0.0823,0.0813
MultiSource/Benchmarks/MiBench/telecomm-gsm/telecomm-gsm, 0.1148, 0.0994, 0.0996,0.0996
MultiSource/Benchmarks/NPB-serial/is/is, 5.0258, 5.0644, 5.0702,5.0644
MultiSource/Benchmarks/Olden/bh/bh, 1.3360, 1.3324, 1.3326,1.3326
MultiSource/Benchmarks/Olden/bisort/bisort, 0.3624, 0.3613, 0.3618,0.3618
MultiSource/Benchmarks/Olden/em3d/em3d, 1.7021, 1.7018, 1.7015,1.7018
MultiSource/Benchmarks/Olden/health/health, 0.1443, 0.1439, 0.1440,0.144
MultiSource/Benchmarks/Olden/mst/mst, 0.0524, 0.0521, 0.0522,0.0522
MultiSource/Benchmarks/Olden/perimeter/perimeter, 0.1223, 0.1222, 0.1223,0.1223
MultiSource/Benchmarks/Olden/power/power, 1.0536, 1.0534, 1.0534,1.0534
MultiSource/Benchmarks/Olden/treeadd/treeadd, 0.1268, 0.1268, 0.1269,0.1268
MultiSource/Benchmarks/Olden/tsp/tsp, 1.1726, 1.1731, 1.1733,1.1731
MultiSource/Benchmarks/Olden/voronoi/voronoi, 0.2183, 0.2185, 0.2182,0.2183
MultiSource/Benchmarks/PAQ8p/paq8p,42.7120,42.6468,42.6807,42.6807
MultiSource/Benchmarks/Prolangs-C++/city/city, 0.0052, 0.0052, 0.0052,0.0052
MultiSource/Benchmarks/Prolangs-C++/employ/employ, 0.0050, 0.0051, 0.0050,0.005
MultiSource/Benchmarks/Prolangs-C++/life/life, 0.7150, 0.7188, 0.7147,0.715
MultiSource/Benchmarks/Prolangs-C++/ocean/ocean, 0.0361, 0.0361, 0.0361,0.0361
MultiSource/Benchmarks/Prolangs-C++/primes/primes, 0.2118, 0.2135, 0.2129,0.2129
MultiSource/Benchmarks/Prolangs-C++/simul/simul, 0.0040, 0.0040, 0.0039,0.004
MultiSource/Benchmarks/Prolangs-C/agrep/agrep, 0.0032, 0.0032, 0.0030,0.0032
MultiSource/Benchmarks/Prolangs-C/bison/mybison, 0.0022, 0.0022, 0.0021,0.0022
MultiSource/Benchmarks/Prolangs-C/gnugo/gnugo, 0.0251, 0.0253, 0.0252,0.0252
MultiSource/Benchmarks/Ptrdist/anagram/anagram, 0.6004, 0.6001, 0.6003,0.6003
MultiSource/Benchmarks/Ptrdist/bc/bc, 0.3644, 0.3644, 0.3645,0.3644
MultiSource/Benchmarks/Ptrdist/ft/ft, 0.6478, 0.6667, 0.6565,0.6565
MultiSource/Benchmarks/Ptrdist/ks/ks, 0.6572, 0.6549, 0.6528,0.6549
MultiSource/Benchmarks/Ptrdist/yacr2/yacr2, 0.5303, 0.5298, 0.5305,0.5303
MultiSource/Benchmarks/SciMark2-C/scimark2,42.0926,42.0943,42.1178,42.0943
MultiSource/Benchmarks/TSVC/ControlFlow-dbl/ControlFlow-dbl, 3.7257, 3.7235, 3.7266,3.7257
MultiSource/Benchmarks/TSVC/ControlFlow-flt/ControlFlow-flt, 3.5772, 3.6044, 3.5945,3.5945
MultiSource/Benchmarks/TSVC/ControlLoops-dbl/ControlLoops-dbl, 2.5335, 2.5433, 2.5342,2.5342
MultiSource/Benchmarks/TSVC/ControlLoops-flt/ControlLoops-flt, 2.3493, 2.3554, 2.3513,2.3513
MultiSource/Benchmarks/TSVC/CrossingThresholds-dbl/CrossingThresholds-dbl, 2.1247, 2.1263, 2.1259,2.1259
MultiSource/Benchmarks/TSVC/CrossingThresholds-flt/CrossingThresholds-flt, 1.6279, 1.6355, 1.6253,1.6279
MultiSource/Benchmarks/TSVC/Equivalencing-dbl/Equivalencing-dbl, 1.3813, 1.3811, 1.3807,1.3811
MultiSource/Benchmarks/TSVC/Equivalencing-flt/Equivalencing-flt, 0.9674, 0.9675, 0.9668,0.9674
MultiSource/Benchmarks/TSVC/Expansion-dbl/Expansion-dbl, 1.9622, 1.9601, 1.9612,1.9612
MultiSource/Benchmarks/TSVC/Expansion-flt/Expansion-flt, 1.1801, 1.1711, 1.1709,1.1711
MultiSource/Benchmarks/TSVC/GlobalDataFlow-dbl/GlobalDataFlow-dbl, 2.8393, 2.8385, 2.8514,2.8393
MultiSource/Benchmarks/TSVC/GlobalDataFlow-flt/GlobalDataFlow-flt, 1.5018, 1.4891, 1.4965,1.4965
MultiSource/Benchmarks/TSVC/IndirectAddressing-dbl/IndirectAddressing-dbl, 2.4620, 2.4588, 2.4770,2.462
MultiSource/Benchmarks/TSVC/IndirectAddressing-flt/IndirectAddressing-flt, 2.2423, 2.2477, 2.2457,2.2457
MultiSource/Benchmarks/TSVC/InductionVariable-dbl/InductionVariable-dbl, 3.0319, 3.0482, 3.0481,3.0481
MultiSource/Benchmarks/TSVC/InductionVariable-flt/InductionVariable-flt, 2.5550, 2.5651, 2.5528,2.555
MultiSource/Benchmarks/TSVC/LinearDependence-dbl/LinearDependence-dbl, 5.6963, 5.6948, 5.7062,5.6963
MultiSource/Benchmarks/TSVC/LinearDependence-flt/LinearDependence-flt, 4.9905, 4.9897, 4.9927,4.9905
MultiSource/Benchmarks/TSVC/LoopRerolling-dbl/LoopRerolling-dbl, 4.6107, 4.5942, 4.6109,4.6107
MultiSource/Benchmarks/TSVC/LoopRerolling-flt/LoopRerolling-flt, 3.8199, 3.8180, 3.8235,3.8199
MultiSource/Benchmarks/TSVC/LoopRestructuring-dbl/LoopRestructuring-dbl, 3.5760, 3.5724, 3.6349,3.576
MultiSource/Benchmarks/TSVC/LoopRestructuring-flt/LoopRestructuring-flt, 2.9550, 2.8546, 2.8159,2.8546
MultiSource/Benchmarks/TSVC/NodeSplitting-dbl/NodeSplitting-dbl, 5.0268, 5.0174, 5.0183,5.0183
MultiSource/Benchmarks/TSVC/NodeSplitting-flt/NodeSplitting-flt, 4.6420, 4.6453, 4.6470,4.6453
MultiSource/Benchmarks/TSVC/Packing-dbl/Packing-dbl, 2.3256, 2.2786, 2.2774,2.2786
MultiSource/Benchmarks/TSVC/Packing-flt/Packing-flt, 2.0961, 2.1141, 2.1113,2.1113
MultiSource/Benchmarks/TSVC/Recurrences-dbl/Recurrences-dbl, 3.5013, 3.5012, 3.5013,3.5013
MultiSource/Benchmarks/TSVC/Recurrences-flt/Recurrences-flt, 3.5010, 3.5009, 3.5010,3.501
MultiSource/Benchmarks/TSVC/Reductions-dbl/Reductions-dbl, 3.4401, 3.4401, 3.4400,3.4401
MultiSource/Benchmarks/TSVC/Reductions-flt/Reductions-flt, 5.9351, 5.9351, 5.9352,5.9351
MultiSource/Benchmarks/TSVC/Searching-dbl/Searching-dbl, 2.2759, 2.2751, 2.2750,2.2751
MultiSource/Benchmarks/TSVC/Searching-flt/Searching-flt, 2.4331, 2.4343, 2.4343,2.4343
MultiSource/Benchmarks/TSVC/StatementReordering-dbl/StatementReordering-dbl, 2.2418, 2.2402, 2.2401,2.2402
MultiSource/Benchmarks/TSVC/StatementReordering-flt/StatementReordering-flt, 1.8253, 1.8240, 1.8279,1.8253
MultiSource/Benchmarks/TSVC/Symbolics-dbl/Symbolics-dbl, 2.4407, 2.4401, 2.4406,2.4406
MultiSource/Benchmarks/TSVC/Symbolics-flt/Symbolics-flt, 1.3913, 1.3895, 1.3936,1.3913
MultiSource/Benchmarks/Trimaran/enc-3des/enc-3des, 1.2898, 1.2900, 1.2900,1.29
MultiSource/Benchmarks/Trimaran/enc-md5/enc-md5, 1.2246, 1.2246, 1.2246,1.2246
MultiSource/Benchmarks/Trimaran/enc-pc1/enc-pc1, 0.3442, 0.3442, 0.3442,0.3442
MultiSource/Benchmarks/Trimaran/enc-rc4/enc-rc4, 0.7297, 0.7297, 0.7296,0.7297
MultiSource/Benchmarks/Trimaran/netbench-crc/netbench-crc, 0.6215, 0.6225, 0.6216,0.6216
MultiSource/Benchmarks/Trimaran/netbench-url/netbench-url, 2.9873, 2.9792, 2.9798,2.9798
MultiSource/Benchmarks/VersaBench/8b10b/8b10b, 3.6172, 3.6096, 3.6140,3.614
MultiSource/Benchmarks/VersaBench/beamformer/beamformer, 0.7490, 0.7487, 0.7491,0.749
MultiSource/Benchmarks/VersaBench/bmm/bmm, 1.6461, 1.6458, 1.6461,1.6461
MultiSource/Benchmarks/VersaBench/dbms/dbms, 0.8906, 0.8964, 0.8888,0.8906
MultiSource/Benchmarks/VersaBench/ecbdes/ecbdes, 1.6934, 1.6933, 1.6934,1.6934
MultiSource/Benchmarks/llubenchmark/llu, 4.2039, 4.1728, 4.1250,4.1728
MultiSource/Benchmarks/mafft/pairlocalalign,24.7194,24.7193,24.7183,24.7193
MultiSource/Benchmarks/mediabench/adpcm/rawcaudio/rawcaudio, 0.0160, 0.0124, 0.0094,0.0124
MultiSource/Benchmarks/mediabench/adpcm/rawdaudio/rawdaudio, 0.0018, 0.0019, 0.0018,0.0018
MultiSource/Benchmarks/mediabench/g721/g721encode/encode, 0.0299, 0.0299, 0.0297,0.0299
MultiSource/Benchmarks/mediabench/gsm/toast/toast, 0.0134, 0.0134, 0.0132,0.0134
MultiSource/Benchmarks/mediabench/jpeg/jpeg-6a/cjpeg, 0.0034, 0.0033, 0.0031,0.0033
MultiSource/Benchmarks/mediabench/mpeg2/mpeg2dec/mpeg2decode, 0.0132, 0.0130, 0.0130,0.013
MultiSource/Benchmarks/nbench/nbench, 1.2718, 1.2726, 1.2720,1.272
MultiSource/Benchmarks/sim/sim, 2.5879, 2.5902, 2.5933,2.5902
MultiSource/Benchmarks/tramp3d-v4/tramp3d-v4, 0.2391, 0.2391, 0.2389,0.2391
SingleSource/Benchmarks/Adobe-C++/functionobjects, 3.0357, 3.0345, 3.0375,3.0357
SingleSource/Benchmarks/Adobe-C++/loop_unroll, 1.7772, 1.7768, 1.7723,1.7768
SingleSource/Benchmarks/Adobe-C++/simple_types_constant_folding, 0.6649, 0.6647, 0.6647,0.6647
SingleSource/Benchmarks/Adobe-C++/simple_types_loop_invariant, 1.5943, 1.5942, 1.5941,1.5942
SingleSource/Benchmarks/Adobe-C++/stepanov_abstraction, 4.2535, 4.2527, 4.2522,4.2527
SingleSource/Benchmarks/Adobe-C++/stepanov_vector, 2.2784, 2.2791, 2.2787,2.2787
SingleSource/Benchmarks/BenchmarkGame/Large/fasta, 0.6453, 0.6515, 0.6510,0.651
SingleSource/Benchmarks/BenchmarkGame/fannkuch, 2.0902, 2.0894, 2.0895,2.0895
SingleSource/Benchmarks/BenchmarkGame/n-body, 1.3733, 1.3733, 1.3733,1.3733
SingleSource/Benchmarks/BenchmarkGame/nsieve-bits, 0.4699, 0.4813, 0.4789,0.4789
SingleSource/Benchmarks/BenchmarkGame/partialsums, 0.5688, 0.5687, 0.5687,0.5687
SingleSource/Benchmarks/BenchmarkGame/puzzle, 0.1294, 0.1297, 0.1294,0.1294
SingleSource/Benchmarks/BenchmarkGame/recursive, 0.7154, 0.7153, 0.7044,0.7153
SingleSource/Benchmarks/BenchmarkGame/spectral-norm, 0.9770, 0.9769, 0.9769,0.9769
SingleSource/Benchmarks/CoyoteBench/almabench,12.6322,12.6329,12.6323,12.6323
SingleSource/Benchmarks/CoyoteBench/fftbench, 0.6490, 0.6460, 0.6502,0.649
SingleSource/Benchmarks/CoyoteBench/huffbench, 9.0095, 9.0058, 9.0084,9.0084
SingleSource/Benchmarks/CoyoteBench/lpbench, 1.8239, 1.8189, 1.8314,1.8239
SingleSource/Benchmarks/Dhrystone/dry, 0.3047, 0.3048, 0.3047,0.3047
SingleSource/Benchmarks/Dhrystone/fldry, 0.3655, 0.3655, 0.3655,0.3655
SingleSource/Benchmarks/Linpack/linpack-pc, 1.2441, 1.2456, 1.2411,1.2441
SingleSource/Benchmarks/McGill/chomp, 1.1814, 1.2748, 1.2756,1.2748
SingleSource/Benchmarks/McGill/misr, 0.1015, 0.1015, 0.1014,0.1015
SingleSource/Benchmarks/McGill/queens, 1.7516, 1.7511, 1.7526,1.7516
SingleSource/Benchmarks/Misc-C++-EH/spirit, 2.6144, 2.6169, 2.6199,2.6169
SingleSource/Benchmarks/Misc-C++/Large/ray, 3.1355, 3.1355, 3.1354,3.1355
SingleSource/Benchmarks/Misc-C++/Large/sphereflake, 5.6077, 5.6072, 5.6074,5.6074
SingleSource/Benchmarks/Misc-C++/bigfib, 0.1912, 0.1909, 0.1910,0.191
SingleSource/Benchmarks/Misc-C++/mandel-text, 1.6083, 1.6100, 1.6143,1.61
SingleSource/Benchmarks/Misc-C++/oopack_v1p8, 0.1621, 0.1621, 0.1621,0.1621
SingleSource/Benchmarks/Misc-C++/stepanov_container, 3.0695, 3.0785, 3.0872,3.0785
SingleSource/Benchmarks/Misc-C++/stepanov_v1p2, 7.9035, 7.9034, 7.9034,7.9034
SingleSource/Benchmarks/Misc/ReedSolomon, 3.1533, 3.1535, 3.1533,3.1533
SingleSource/Benchmarks/Misc/dt, 0.6670, 0.6670, 0.6670,0.667
SingleSource/Benchmarks/Misc/evalloop, 0.3684, 0.3687, 0.3680,0.3684
SingleSource/Benchmarks/Misc/fbench, 1.7136, 1.7137, 1.7137,1.7137
SingleSource/Benchmarks/Misc/ffbench, 0.5774, 0.5802, 0.5849,0.5802
SingleSource/Benchmarks/Misc/flops,10.5897,10.6678,10.6672,10.6672
SingleSource/Benchmarks/Misc/flops-1, 3.5825, 3.5822, 3.5820,3.5822
SingleSource/Benchmarks/Misc/flops-2, 0.8626, 0.8627, 0.8626,0.8626
SingleSource/Benchmarks/Misc/flops-3, 5.4132, 5.4134, 5.4132,5.4132
SingleSource/Benchmarks/Misc/flops-4, 2.2798, 2.2799, 2.2798,2.2798
SingleSource/Benchmarks/Misc/flops-5, 4.2758, 4.2760, 4.2756,4.2758
SingleSource/Benchmarks/Misc/flops-6, 3.4420, 3.4421, 3.4419,3.442
SingleSource/Benchmarks/Misc/flops-7, 1.5901, 1.5902, 1.5902,1.5902
SingleSource/Benchmarks/Misc/flops-8, 2.8495, 2.8971, 2.8970,2.897
SingleSource/Benchmarks/Misc/fp-convert, 2.6303, 2.6304, 2.6303,2.6303
SingleSource/Benchmarks/Misc/himenobmtxpa, 0.5184, 0.5189, 0.5192,0.5189
SingleSource/Benchmarks/Misc/lowercase, 0.0009, 0.0009, 0.0009,0.0009
SingleSource/Benchmarks/Misc/mandel, 0.8338, 0.8338, 0.8338,0.8338
SingleSource/Benchmarks/Misc/mandel-2, 1.2781, 1.2780, 1.2780,1.278
SingleSource/Benchmarks/Misc/matmul_f64_4x4, 1.2953, 1.2953, 1.2953,1.2953
SingleSource/Benchmarks/Misc/oourafft, 6.0166, 6.0165, 6.0165,6.0165
SingleSource/Benchmarks/Misc/perlin, 3.8802, 3.8801, 3.8810,3.8802
SingleSource/Benchmarks/Misc/pi, 0.6943, 0.6943, 0.6943,0.6943
SingleSource/Benchmarks/Misc/revertBits, 0.3296, 0.3296, 0.3296,0.3296
SingleSource/Benchmarks/Misc/richards_benchmark, 0.4974, 0.4974, 0.4972,0.4974
SingleSource/Benchmarks/Misc/salsa20, 4.6182, 4.6180, 4.2667,4.618
SingleSource/Benchmarks/Misc/whetstone, 1.0214, 1.0214, 1.0291,1.0214
SingleSource/Benchmarks/Polybench/datamining/correlation/correlation, 1.6696, 1.6581, 1.6605,1.6605
SingleSource/Benchmarks/Polybench/datamining/covariance/covariance, 1.6500, 1.6465, 1.6445,1.6465
SingleSource/Benchmarks/Polybench/linear-algebra/kernels/atax/atax, 0.1704, 0.1702, 0.1705,0.1704
SingleSource/Benchmarks/Polybench/linear-algebra/kernels/bicg/bicg, 0.2126, 0.2126, 0.2127,0.2126
SingleSource/Benchmarks/Polybench/linear-algebra/kernels/cholesky/cholesky, 0.4597, 0.4549, 0.4581,0.4581
SingleSource/Benchmarks/Polybench/linear-algebra/kernels/doitgen/doitgen, 0.7806, 0.7814, 0.7796,0.7806
SingleSource/Benchmarks/Polybench/linear-algebra/kernels/gemver/gemver, 0.3168, 0.3217, 0.3267,0.3217
SingleSource/Benchmarks/Polybench/linear-algebra/kernels/gesummv/gesummv, 0.3065, 0.3065, 0.3065,0.3065
SingleSource/Benchmarks/Polybench/linear-algebra/kernels/mvt/mvt, 0.2468, 0.2472, 0.2474,0.2472
SingleSource/Benchmarks/Polybench/linear-algebra/kernels/symm/symm,16.5734,15.4209,16.3559,16.3559
SingleSource/Benchmarks/Polybench/linear-algebra/kernels/syr2k/syr2k, 9.1863, 9.1762, 8.9210,9.1762
SingleSource/Benchmarks/Polybench/linear-algebra/kernels/syrk/syrk, 4.3784, 4.6339, 4.3786,4.3786
SingleSource/Benchmarks/Polybench/linear-algebra/kernels/trisolv/trisolv, 0.1739, 0.1737, 0.1641,0.1737
SingleSource/Benchmarks/Polybench/linear-algebra/kernels/trmm/trmm, 2.3599, 2.3463, 2.3475,2.3475
SingleSource/Benchmarks/Polybench/linear-algebra/solvers/durbin/durbin, 0.4075, 0.3980, 0.4079,0.4075
SingleSource/Benchmarks/Polybench/linear-algebra/solvers/dynprog/dynprog, 0.2806, 0.2813, 0.2810,0.281
SingleSource/Benchmarks/Polybench/linear-algebra/solvers/gramschmidt/gramschmidt, 1.6102, 1.5288, 1.6718,1.6102
SingleSource/Benchmarks/Polybench/linear-algebra/solvers/lu/lu, 0.0023, 0.0023, 0.0023,0.0023
SingleSource/Benchmarks/Polybench/medley/floyd-warshall/floyd-warshall, 5.9757, 5.9742, 5.9791,5.9757
SingleSource/Benchmarks/Polybench/medley/reg_detect/reg_detect, 0.0157, 0.0157, 0.0157,0.0157
SingleSource/Benchmarks/Polybench/stencils/adi/adi, 2.8047, 2.8063, 2.8051,2.8051
SingleSource/Benchmarks/Polybench/stencils/fdtd-2d/fdtd-2d, 0.4091, 0.4091, 0.4125,0.4091
SingleSource/Benchmarks/Polybench/stencils/fdtd-apml/fdtd-apml, 0.7235, 0.7233, 0.7231,0.7233
SingleSource/Benchmarks/Polybench/stencils/jacobi-1d-imper/jacobi-1d-imper, 0.0037, 0.0038, 0.0037,0.0037
SingleSource/Benchmarks/Polybench/stencils/jacobi-2d-imper/jacobi-2d-imper, 0.1500, 0.1496, 0.1493,0.1496
SingleSource/Benchmarks/Polybench/stencils/seidel-2d/seidel-2d, 0.6595, 0.6596, 0.6596,0.6596
SingleSource/Benchmarks/Shootout-C++/EH/except, 0.1205, 0.1207, 0.1209,0.1207
SingleSource/Benchmarks/Shootout-C++/ackermann, 0.6573, 0.6574, 0.6573,0.6573
SingleSource/Benchmarks/Shootout-C++/ary, 0.0141, 0.0142, 0.0142,0.0142
SingleSource/Benchmarks/Shootout-C++/ary2, 0.0151, 0.0150, 0.0151,0.0151
SingleSource/Benchmarks/Shootout-C++/ary3, 0.5459, 0.5409, 0.5423,0.5423
SingleSource/Benchmarks/Shootout-C++/fibo, 1.4776, 1.4780, 1.4760,1.4776
SingleSource/Benchmarks/Shootout-C++/hash, 0.3112, 0.3068, 0.3064,0.3068
SingleSource/Benchmarks/Shootout-C++/hash2, 1.7270, 1.7266, 1.7265,1.7266
SingleSource/Benchmarks/Shootout-C++/heapsort, 2.0225, 2.0216, 2.0191,2.0216
SingleSource/Benchmarks/Shootout-C++/lists, 2.9839, 2.9675, 2.9647,2.9675
SingleSource/Benchmarks/Shootout-C++/lists1, 0.1340, 0.1325, 0.1327,0.1327
SingleSource/Benchmarks/Shootout-C++/matrix, 1.1248, 1.1246, 1.1247,1.1247
SingleSource/Benchmarks/Shootout-C++/methcall, 3.4549, 3.4498, 3.4497,3.4498
SingleSource/Benchmarks/Shootout-C++/moments, 0.0507, 0.0508, 0.0509,0.0508
SingleSource/Benchmarks/Shootout-C++/nestedloop, 0.0009, 0.0009, 0.0009,0.0009
SingleSource/Benchmarks/Shootout-C++/objinst, 0.0009, 0.0009, 0.0009,0.0009
SingleSource/Benchmarks/Shootout-C++/random, 1.7450, 1.7451, 1.7449,1.745
SingleSource/Benchmarks/Shootout-C++/sieve, 1.4297, 1.3533, 1.2868,1.3533
SingleSource/Benchmarks/Shootout-C++/strcat, 0.0406, 0.0407, 0.0406,0.0406
SingleSource/Benchmarks/Shootout/ackermann, 0.0035, 0.0035, 0.0035,0.0035
SingleSource/Benchmarks/Shootout/ary3, 0.5922, 0.5867, 0.5952,0.5922
SingleSource/Benchmarks/Shootout/fib2, 1.4777, 1.4796, 1.4794,1.4794
SingleSource/Benchmarks/Shootout/hash, 2.7909, 2.7692, 2.7981,2.7909
SingleSource/Benchmarks/Shootout/heapsort, 2.0363, 2.0325, 2.0317,2.0325
SingleSource/Benchmarks/Shootout/lists, 4.0841, 4.0822, 4.0819,4.0822
SingleSource/Benchmarks/Shootout/matrix, 1.0574, 1.0572, 1.0573,1.0573
SingleSource/Benchmarks/Shootout/methcall, 3.2760, 3.2760, 3.2761,3.276
SingleSource/Benchmarks/Shootout/nestedloop, 0.0009, 0.0009, 0.0009,0.0009
SingleSource/Benchmarks/Shootout/objinst, 0.0009, 0.0009, 0.0009,0.0009
SingleSource/Benchmarks/Shootout/random, 1.7449, 1.7450, 1.7449,1.7449
SingleSource/Benchmarks/Shootout/sieve, 3.4681, 3.4659, 3.4667,3.4667
SingleSource/Benchmarks/Shootout/strcat, 0.1053, 0.1052, 0.1052,0.1052
SingleSource/Benchmarks/SmallPT/smallpt, 7.5477, 7.5372, 7.5456,7.5456
SingleSource/Benchmarks/Stanford/Bubblesort, 0.0159, 0.0159, 0.0159,0.0159
SingleSource/Benchmarks/Stanford/FloatMM, 0.2012, 0.2014, 0.2012,0.2012
SingleSource/Benchmarks/Stanford/Oscar, 0.0034, 0.0034, 0.0033,0.0034
SingleSource/Benchmarks/Stanford/Perm, 0.0146, 0.0147, 0.0147,0.0147
SingleSource/Benchmarks/Stanford/Puzzle, 0.0795, 0.0795, 0.0794,0.0795
SingleSource/Benchmarks/Stanford/Queens, 0.0074, 0.0074, 0.0073,0.0074
SingleSource/Benchmarks/Stanford/Quicksort, 0.0303, 0.0303, 0.0303,0.0303
SingleSource/Benchmarks/Stanford/RealMM, 0.0016, 0.0016, 0.0016,0.0016
SingleSource/Benchmarks/Stanford/Towers, 0.0084, 0.0084, 0.0084,0.0084
SingleSource/Benchmarks/Stanford/Treesort, 0.0549, 0.0547, 0.0546,0.0547
SingleSource/Regression/C/2004-08-12-InlinerAndAllocas, 0.0015, 0.0015, 0.0015,0.0015
SingleSource/Regression/C/uint64_to_float, 0.2467, 0.2467, 0.2467,0.2467
Total elapsed time,-,-,-,586.9259
Total failure,-,-,-,0
