Benchmarks,base,base,base,base,base,median,intptr-opt,intptr-opt,intptr-opt,intptr-opt,intptr-opt,median,Slowdown(%)
SingleSource/Regression/C/uint64_to_float, 0.0652, 0.0693, 0.0685, 0.0626, 0.0641,0.0652, 0.0599, 0.0712, 0.0545, 0.0737, 0.1672,0.0712,9.202453987730074
SingleSource/Benchmarks/CoyoteBench/fftbench, 0.5537, 0.6081, 0.5588, 0.5490, 0.5923,0.5588, 0.5957, 0.5935, 0.5532, 0.5958, 0.5936,0.5936,6.227630637079473
SingleSource/Benchmarks/CoyoteBench/almabench, 0.0620, 0.0618, 0.0619, 0.0621, 0.0619,0.0619, 0.0633, 0.0633, 0.0633, 0.0634, 0.0632,0.0633,2.2617124394184174
SingleSource/Benchmarks/Misc-C++/oopack_v1p8, 0.1244, 0.1353, 0.1277, 0.1252, 0.1264,0.1264, 0.1291, 0.1233, 0.1312, 0.1281, 0.1314,0.1291,2.1360759493670667
MultiSource/Benchmarks/FreeBench/pcompress2/pcompress2, 0.2458, 0.2589, 0.2614, 0.2474, 0.2561,0.2561, 0.2611, 0.2584, 0.2614, 0.2526, 0.2494,0.2584,0.8980866848887326
SingleSource/Benchmarks/Misc-C++/stepanov_container, 0.6482, 0.6380, 0.6569, 0.6572, 0.6593,0.6569, 0.6626, 0.6640, 0.6619, 0.6628, 0.6494,0.6626,0.8677119805145184
MultiSource/Benchmarks/Trimaran/enc-3des/enc-3des, 0.2626, 0.2627, 0.2621, 0.2631, 0.2626,0.2626, 0.2647, 0.2648, 0.2649, 0.2646, 0.2649,0.2648,0.8377760853008231
SingleSource/Benchmarks/Dhrystone/dry, 0.0387, 0.0388, 0.0384, 0.0382, 0.0384,0.0384, 0.0387, 0.0387, 0.0390, 0.0389, 0.0385,0.0387,0.78125
MultiSource/Benchmarks/TSVC/ControlFlow-flt/ControlFlow-flt, 2.3554, 2.3696, 2.3663, 2.3587, 2.3498,2.3587, 2.3767, 2.3822, 2.3736, 2.3750, 2.3840,2.3767,0.7631322338576441
MultiSource/Benchmarks/TSVC/LoopRerolling-flt/LoopRerolling-flt, 2.1147, 2.1407, 2.1369, 2.1335, 2.1462,2.1369, 2.1599, 2.1559, 2.1269, 2.1502, 2.1527,2.1527,0.7393888342926758
MultiSource/Benchmarks/TSVC/Recurrences-flt/Recurrences-flt, 2.1272, 2.1452, 2.1281, 2.1277, 2.1263,2.1277, 2.1443, 2.1427, 2.1407, 2.1494, 2.1434,2.1434,0.7378859801663973
MultiSource/Benchmarks/TSVC/LoopRestructuring-dbl/LoopRestructuring-dbl, 2.4667, 2.4720, 2.4642, 2.4658, 2.4466,2.4658, 2.4866, 2.4811, 2.4849, 2.4828, 2.4820,2.4828,0.6894314218509168
MultiSource/Benchmarks/TSVC/Searching-flt/Searching-flt, 2.1233, 2.1181, 2.1088, 2.1086, 2.1094,2.1094, 2.1245, 2.1236, 2.1236, 2.1176, 2.1203,2.1236,0.6731772067886777
MultiSource/Benchmarks/TSVC/StatementReordering-dbl/StatementReordering-dbl, 2.3660, 2.3887, 2.3608, 2.3853, 2.3918,2.3853, 2.4031, 2.4008, 2.3811, 2.3967, 2.4067,2.4008,0.6498134406573541
MultiSource/Benchmarks/Trimaran/enc-md5/enc-md5, 0.1671, 0.1668, 0.1668, 0.1672, 0.1671,0.1671, 0.1680, 0.1682, 0.1681, 0.1681, 0.1680,0.1681,0.5984440454817497
MultiSource/Benchmarks/TSVC/ControlLoops-dbl/ControlLoops-dbl, 2.5049, 2.5092, 2.5118, 2.5059, 2.5057,2.5059, 2.5222, 2.5196, 2.5227, 2.5207, 2.5158,2.5207,0.5906061694401332
MultiSource/Benchmarks/TSVC/Packing-flt/Packing-flt, 2.1294, 2.1353, 2.1291, 2.1267, 2.1394,2.1294, 2.1416, 2.1453, 2.1409, 2.1398, 2.1429,2.1416,0.5729313421621196
MultiSource/Benchmarks/TSVC/Reductions-dbl/Reductions-dbl, 2.5029, 2.5013, 2.5079, 2.5115, 2.5057,2.5057, 2.5270, 2.5193, 2.5200, 2.5182, 2.5206,2.52,0.5706988067206709
MultiSource/Benchmarks/TSVC/IndirectAddressing-flt/IndirectAddressing-flt, 2.1530, 2.1735, 2.1687, 2.1684, 2.1712,2.1687, 2.1890, 2.1835, 2.1681, 2.1808, 2.1804,2.1808,0.5579379351685398
MultiSource/Benchmarks/TSVC/InductionVariable-dbl/InductionVariable-dbl, 2.4648, 2.4628, 2.4662, 2.4687, 2.4663,2.4662, 2.4856, 2.4849, 2.4798, 2.4787, 2.4780,2.4798,0.5514556808044802
MultiSource/Benchmarks/TSVC/GlobalDataFlow-flt/GlobalDataFlow-flt, 2.2128, 2.2424, 2.2362, 2.2343, 2.2353,2.2353, 2.2494, 2.2471, 2.2334, 2.2470, 2.2428,2.247,0.5234196752113673
MultiSource/Benchmarks/TSVC/Expansion-flt/Expansion-flt, 2.2434, 2.2470, 2.2263, 2.2443, 2.2429,2.2434, 2.2719, 2.2689, 2.2531, 2.2546, 2.2517,2.2546,0.49924222162789356
MultiSource/Benchmarks/TSVC/ControlFlow-dbl/ControlFlow-dbl, 2.6208, 2.5995, 2.6234, 2.6176, 2.6184,2.6184, 2.6323, 2.6353, 2.6297, 2.6290, 2.6312,2.6312,0.48884815154293104
MultiSource/Benchmarks/TSVC/Symbolics-dbl/Symbolics-dbl, 2.4384, 2.4426, 2.4370, 2.4410, 2.4329,2.4384, 2.4417, 2.4502, 2.4512, 2.4504, 2.4503,2.4503,0.48802493438320216
MultiSource/Benchmarks/TSVC/Searching-dbl/Searching-dbl, 2.3660, 2.3696, 2.3665, 2.3772, 2.3710,2.3696, 2.3846, 2.3811, 2.3803, 2.3827, 2.3788,2.3811,0.485313977042523
MultiSource/Benchmarks/TSVC/Reductions-flt/Reductions-flt, 2.2475, 2.2570, 2.2481, 2.2516, 2.2509,2.2509, 2.2600, 2.2566, 2.2617, 2.2617, 2.2622,2.2617,0.4798080767692836
MultiSource/Benchmarks/TSVC/InductionVariable-flt/InductionVariable-flt, 2.2098, 2.2116, 2.2115, 2.2186, 2.2127,2.2116, 2.2221, 2.2235, 2.2508, 2.2158, 2.2209,2.2221,0.4747693977211309
MultiSource/Benchmarks/TSVC/NodeSplitting-dbl/NodeSplitting-dbl, 2.4138, 2.4303, 2.4250, 2.4114, 2.4305,2.425, 2.4392, 2.4363, 2.4229, 2.4419, 2.4350,2.4363,0.4659793814433044
SingleSource/Benchmarks/Polybench/medley/reg_detect/reg_detect, 1.2688, 1.2675, 1.2658, 1.2721, 1.2676,1.2676, 1.2735, 1.2750, 1.2818, 1.2694, 1.2665,1.2735,0.46544651309561313
MultiSource/Benchmarks/TSVC/LinearDependence-flt/LinearDependence-flt, 2.2827, 2.2815, 2.2786, 2.2779, 2.2818,2.2815, 2.2960, 2.2921, 2.2908, 2.2915, 2.3091,2.2921,0.4646066184527786
MultiSource/Benchmarks/FreeBench/fourinarow/fourinarow, 0.3739, 0.3751, 0.3734, 0.3735, 0.3735,0.3735, 0.3753, 0.3752, 0.3748, 0.3752, 0.3753,0.3752,0.4551539491298495
SingleSource/Benchmarks/Misc/ReedSolomon, 0.2197, 0.2408, 0.2198, 0.2197, 0.2199,0.2198, 0.2208, 0.2199, 0.2368, 0.2370, 0.2201,0.2208,0.45495905368517775
MultiSource/Benchmarks/TSVC/IndirectAddressing-dbl/IndirectAddressing-dbl, 2.4088, 2.4332, 2.4225, 2.4350, 2.4328,2.4328, 2.4461, 2.4404, 2.4159, 2.4465, 2.4432,2.4432,0.42749095692207195
MultiSource/Benchmarks/TSVC/Packing-dbl/Packing-dbl, 2.3831, 2.3902, 2.3830, 2.3855, 2.3653,2.3831, 2.3764, 2.3849, 2.3987, 2.3932, 2.3963,2.3932,0.42381771641979427
MultiSource/Benchmarks/Prolangs-C++/simul/simul, 0.0489, 0.0490, 0.0489, 0.0490, 0.0490,0.049, 0.0494, 0.0490, 0.0492, 0.0495, 0.0488,0.0492,0.40816326530612734
MultiSource/Benchmarks/TSVC/Recurrences-dbl/Recurrences-dbl, 2.3856, 2.3872, 2.3846, 2.3880, 2.3865,2.3865, 2.3992, 2.3814, 2.3961, 2.3804, 2.3967,2.3961,0.4022627278441382
MultiSource/Benchmarks/TSVC/LoopRerolling-dbl/LoopRerolling-dbl, 2.4063, 2.4013, 2.3874, 2.4014, 2.4012,2.4013, 2.4140, 2.4108, 2.4084, 2.4081, 2.4109,2.4108,0.3956190396868342
MultiSource/Benchmarks/TSVC/Equivalencing-dbl/Equivalencing-dbl, 2.4505, 2.4522, 2.4552, 2.4538, 2.4516,2.4522, 2.4729, 2.4597, 2.4642, 2.4617, 2.4584,2.4617,0.38740722616426027
MultiSource/Benchmarks/TSVC/Expansion-dbl/Expansion-dbl, 2.5050, 2.4882, 2.5036, 2.5108, 2.5090,2.505, 2.5192, 2.5146, 2.5137, 2.5154, 2.5147,2.5147,0.3872255489022036
MultiSource/Benchmarks/TSVC/CrossingThresholds-dbl/CrossingThresholds-dbl, 2.4591, 2.4496, 2.4457, 2.4551, 2.4492,2.4496, 2.4679, 2.4565, 2.4590, 2.4607, 2.4584,2.459,0.38373612018287595
SingleSource/Benchmarks/Shootout-C++/hash, 0.2623, 0.2622, 0.2612, 0.2615, 0.2616,0.2616, 0.2624, 0.2613, 0.2628, 0.2626, 0.2626,0.2626,0.3822629969419067
MultiSource/Benchmarks/TSVC/LoopRestructuring-flt/LoopRestructuring-flt, 2.2304, 2.2149, 2.2114, 2.2160, 2.2148,2.2149, 2.2392, 2.2190, 2.2235, 2.2233, 2.2221,2.2233,0.3792496275226931
MultiSource/Benchmarks/PAQ8p/paq8p, 2.0468, 2.0507, 2.0484, 2.0479, 2.0560,2.0484, 2.0620, 2.0528, 2.0586, 2.0538, 2.0561,2.0561,0.37590314391720003
SingleSource/Benchmarks/Misc/salsa20, 0.0547, 0.0547, 0.0546, 0.0548, 0.0547,0.0547, 0.0549, 0.0550, 0.0550, 0.0549, 0.0547,0.0549,0.3656307129798808
MultiSource/Benchmarks/TSVC/Symbolics-flt/Symbolics-flt, 2.1661, 2.1841, 2.1738, 2.1837, 2.1851,2.1837, 2.1950, 2.1933, 2.1747, 2.1895, 2.1915,2.1915,0.35719192196730365
SingleSource/Benchmarks/Misc/richards_benchmark, 0.0585, 0.0581, 0.0582, 0.0583, 0.0585,0.0583, 0.0586, 0.0584, 0.0585, 0.0585, 0.0583,0.0585,0.34305317324185847
MultiSource/Benchmarks/VersaBench/ecbdes/ecbdes, 0.2158, 0.2155, 0.2159, 0.2162, 0.2161,0.2159, 0.2167, 0.2166, 0.2170, 0.2163, 0.2162,0.2166,0.3242241778601107
MultiSource/Benchmarks/TSVC/GlobalDataFlow-dbl/GlobalDataFlow-dbl, 2.4952, 2.4970, 2.4944, 2.4955, 2.4942,2.4952, 2.5071, 2.5020, 2.5086, 2.5031, 2.5009,2.5031,0.31660788714331645
MultiSource/Benchmarks/TSVC/LinearDependence-dbl/LinearDependence-dbl, 2.5350, 2.5453, 2.5237, 2.5463, 2.5414,2.5414, 2.5509, 2.5494, 2.5395, 2.5464, 2.5565,2.5494,0.3147871252065837
MultiSource/Benchmarks/Trimaran/enc-pc1/enc-pc1, 0.0654, 0.0653, 0.0651, 0.0653, 0.0653,0.0653, 0.0655, 0.0653, 0.0655, 0.0654, 0.0655,0.0655,0.3062787136294043
MultiSource/Benchmarks/MiBench/telecomm-adpcm/telecomm-adpcm, 0.0653, 0.0658, 0.0653, 0.0645, 0.0670,0.0653, 0.0655, 0.0651, 0.0651, 0.0660, 0.0665,0.0655,0.3062787136294043
MultiSource/Benchmarks/TSVC/CrossingThresholds-flt/CrossingThresholds-flt, 2.1837, 2.1869, 2.1819, 2.1914, 2.1988,2.1869, 2.1956, 2.1787, 2.1956, 2.1761, 2.1935,2.1935,0.30179706433763887
SingleSource/Benchmarks/Misc/oourafft, 0.2365, 0.2370, 0.2362, 0.2365, 0.2364,0.2365, 0.2379, 0.2374, 0.2372, 0.2365, 0.2366,0.2372,0.29598308668077333
SingleSource/Benchmarks/Adobe-C++/simple_types_loop_invariant, 1.8349, 1.8341, 1.8321, 1.8324, 1.8338,1.8338, 1.8414, 1.8368, 1.8392, 1.8363, 1.8414,1.8392,0.2944704984185753
MultiSource/Benchmarks/TSVC/ControlLoops-flt/ControlLoops-flt, 2.2476, 2.2847, 2.2471, 2.2511, 2.2699,2.2511, 2.2576, 2.2579, 2.2616, 2.2541, 2.2557,2.2576,0.28874772333524756
MultiSource/Benchmarks/nbench/nbench, 1.2058, 1.2106, 1.2059, 1.2066, 1.2061,1.2061, 1.2116, 1.2092, 1.2111, 1.2078, 1.2095,1.2095,0.2819003399386455
SingleSource/Benchmarks/Adobe-C++/loop_unroll, 4.8259, 4.8314, 4.8271, 4.8275, 4.8246,4.8271, 4.8469, 4.8516, 4.8404, 4.8388, 4.8342,4.8404,0.2755277495805064
MultiSource/Benchmarks/MiBench/consumer-typeset/consumer-typeset, 9.6446, 9.6497, 9.6442, 9.6406, 9.6460,9.6446, 9.6761, 9.6606, 9.6758, 9.6697, 9.6544,9.6697,0.2602492586525118
MultiSource/Benchmarks/MiBench/telecomm-FFT/telecomm-fft, 0.1545, 0.1546, 0.1560, 0.1561, 0.1548,0.1548, 0.1564, 0.1552, 0.1550, 0.1552, 0.1550,0.1552,0.25839793281654533
SingleSource/Benchmarks/Shootout-C++/hash2, 0.3214, 0.3149, 0.3144, 0.3090, 0.2985,0.3144, 0.3191, 0.3286, 0.3152, 0.3152, 0.2979,0.3152,0.2544529262086481
MultiSource/Benchmarks/tramp3d-v4/tramp3d-v4,18.5751,18.5623,18.5723,18.5369,18.5609,18.5623,18.6275,18.5984,18.6420,18.5880,18.6034,18.6034,0.2214165270467472
MultiSource/Applications/JM/lencod/lencod,14.9916,15.0031,14.9910,15.0178,15.0031,15.0031,15.0659,15.0352,15.0475,15.0343,15.0340,15.0352,0.21395578247163094
MultiSource/Benchmarks/Ptrdist/bc/bc, 0.9928, 0.9918, 0.9921, 0.9944, 0.9934,0.9928, 0.9950, 0.9948, 0.9964, 0.9926, 0.9915,0.9948,0.20145044319097583
MultiSource/Benchmarks/BitBench/five11/five11, 0.0535, 0.0536, 0.0533, 0.0533, 0.0533,0.0533, 0.0538, 0.0535, 0.0534, 0.0532, 0.0533,0.0534,0.18761726078799779
SingleSource/Benchmarks/Adobe-C++/stepanov_vector, 0.7616, 0.7584, 0.7579, 0.7575, 0.7587,0.7584, 0.7598, 0.7586, 0.7603, 0.7579, 0.7599,0.7598,0.18459915611814814
SingleSource/Benchmarks/Misc-C++-EH/spirit, 3.1215, 3.1423, 3.1333, 3.1538, 3.1495,3.1423, 3.1464, 3.1595, 3.1558, 3.1479, 3.1421,3.1479,0.17821341055914708
MultiSource/Benchmarks/MallocBench/espresso/espresso, 4.8434, 4.8399, 4.8437, 4.8418, 4.8442,4.8434, 4.8635, 4.8500, 4.8611, 4.8493, 4.8519,4.8519,0.17549655200892467
SingleSource/Benchmarks/McGill/chomp, 0.1758, 0.1757, 0.1754, 0.1754, 0.1754,0.1754, 0.1764, 0.1753, 0.1757, 0.1757, 0.1753,0.1757,0.17103762827821445
MultiSource/Benchmarks/Ptrdist/yacr2/yacr2, 0.6102, 0.6098, 0.6097, 0.6105, 0.6109,0.6102, 0.6114, 0.6112, 0.6114, 0.6108, 0.6096,0.6112,0.16388069485415713
SingleSource/Benchmarks/Adobe-C++/simple_types_constant_folding, 2.2687, 2.2699, 2.2650, 2.2649, 2.2650,2.265, 2.2685, 2.2700, 2.2688, 2.2658, 2.2518,2.2685,0.15452538631346435
SingleSource/Benchmarks/Stanford/Oscar, 0.0655, 0.0656, 0.0655, 0.0657, 0.0656,0.0656, 0.0657, 0.0655, 0.0657, 0.0657, 0.0655,0.0657,0.15243902439021628
SingleSource/Benchmarks/Linpack/linpack-pc, 0.3950, 0.3962, 0.3960, 0.3950, 0.3960,0.396, 0.3972, 0.3966, 0.3963, 0.3966, 0.3965,0.3966,0.15151515151514694
MultiSource/Benchmarks/mafft/pairlocalalign, 9.4198, 9.4322, 9.4200, 9.4295, 9.4282,9.4282, 9.4469, 9.4419, 9.4459, 9.4352, 9.4416,9.4419,0.1453087545872922
MultiSource/Applications/ClamAV/clamscan,12.9287,12.9395,12.9585,12.9275,12.9711,12.9395,12.9821,12.9475,12.9591,12.9486,12.9579,12.9579,0.1422002395764954
MultiSource/Benchmarks/mediabench/mpeg2/mpeg2dec/mpeg2decode, 1.3179, 1.3183, 1.3185, 1.3182, 1.3180,1.3182, 1.3228, 1.3194, 1.3208, 1.3196, 1.3200,1.32,0.1365498406918464
MultiSource/Applications/SIBsim4/SIBsim4, 1.2616, 1.2529, 1.2576, 1.2525, 1.2539,1.2539, 1.2589, 1.2630, 1.2554, 1.2548, 1.2544,1.2554,0.1196267644947735
SingleSource/Benchmarks/Adobe-C++/stepanov_abstraction, 0.6100, 0.6096, 0.6097, 0.6105, 0.6096,0.6097, 0.6112, 0.6101, 0.6115, 0.6104, 0.6099,0.6104,0.11481056257176547
MultiSource/Applications/sqlite3/sqlite3,12.5937,12.5972,12.5985,12.5858,12.5999,12.5972,12.6122,12.5797,12.6271,12.6115,12.5334,12.6115,0.1135172895563974
SingleSource/Benchmarks/Polybench/linear-algebra/kernels/mvt/mvt, 0.0896, 0.0892, 0.0892, 0.0895, 0.0892,0.0892, 0.0894, 0.0895, 0.0893, 0.0891, 0.0889,0.0893,0.11210762331839152
MultiSource/Benchmarks/FreeBench/neural/neural, 0.1788, 0.1788, 0.1790, 0.1793, 0.1791,0.179, 0.1795, 0.1788, 0.1793, 0.1786, 0.1792,0.1792,0.11173184357542443
MultiSource/Applications/oggenc/oggenc, 4.8490, 4.8591, 4.8487, 4.8576, 4.8672,4.8576, 4.8742, 4.8620, 4.8656, 4.8620, 4.8630,4.863,0.11116600790515019
MultiSource/Benchmarks/FreeBench/pifft/pifft, 1.0850, 1.0871, 1.0854, 1.0862, 1.0860,1.086, 1.0887, 1.0868, 1.0872, 1.0850, 1.0872,1.0872,0.11049723756904051
MultiSource/Benchmarks/Ptrdist/anagram/anagram, 0.0952, 0.0953, 0.0951, 0.0953, 0.0955,0.0953, 0.0955, 0.0954, 0.0957, 0.0952, 0.0954,0.0954,0.10493179433368471
SingleSource/Benchmarks/Polybench/linear-algebra/solvers/durbin/durbin, 0.1068, 0.1069, 0.1069, 0.1070, 0.1068,0.1069, 0.1074, 0.1069, 0.1070, 0.1070, 0.1069,0.107,0.093545369504211
MultiSource/Benchmarks/TSVC/Equivalencing-flt/Equivalencing-flt, 2.1906, 2.1990, 2.1915, 2.1953, 2.1967,2.1953, 2.2000, 2.1965, 2.1971, 2.1979, 2.1943,2.1971,0.08199334942831094
MultiSource/Applications/JM/ldecod/ldecod, 6.5556, 6.5524, 6.5536, 6.5486, 6.5431,6.5524, 6.5739, 6.5918, 6.5510, 6.5488, 6.5562,6.5562,0.05799401745925081
MultiSource/Benchmarks/MiBench/telecomm-gsm/telecomm-gsm, 1.0619, 1.0618, 1.0638, 1.0622, 1.0629,1.0622, 1.0640, 1.0610, 1.0628, 1.0629, 1.0596,1.0628,0.05648653737524434
MultiSource/Benchmarks/McCat/05-eks/eks, 0.5897, 0.5898, 0.5895, 0.5900, 0.5897,0.5897, 0.5916, 0.5900, 0.5901, 0.5890, 0.5887,0.59,0.050873325419709126
MultiSource/Applications/sgefa/sgefa, 0.3987, 0.3984, 0.3985, 0.3989, 0.3990,0.3987, 0.3993, 0.3989, 0.3994, 0.3987, 0.3981,0.3989,0.05016302984699461
MultiSource/Applications/minisat/minisat, 0.6048, 0.6051, 0.6048, 0.6056, 0.6064,0.6051, 0.6063, 0.6045, 0.6068, 0.6053, 0.6054,0.6054,0.04957858205256738
SingleSource/Benchmarks/Adobe-C++/functionobjects, 0.4615, 0.4596, 0.4603, 0.4589, 0.4598,0.4598, 0.4613, 0.4595, 0.4600, 0.4598, 0.4606,0.46,0.04349717268379294
MultiSource/Applications/lambda-0.1.3/lambda, 0.5109, 0.5111, 0.5108, 0.5108, 0.5113,0.5109, 0.5132, 0.5107, 0.5120, 0.5104, 0.5111,0.5111,0.03914660403210313
MultiSource/Benchmarks/Prolangs-C/bison/mybison, 1.5684, 1.5691, 1.5676, 1.5693, 1.5700,1.5691, 1.5727, 1.5696, 1.5724, 1.5688, 1.5683,1.5696,0.03186540054809228
MultiSource/Benchmarks/VersaBench/beamformer/beamformer, 0.3780, 0.3768, 0.3765, 0.3767, 0.3774,0.3768, 0.3776, 0.3769, 0.3772, 0.3769, 0.3768,0.3769,0.026539278131632038
MultiSource/Benchmarks/ASCI_Purple/SMG2000/smg2000, 6.0457, 6.0519, 6.0392, 6.0466, 6.0501,6.0466, 6.0581, 6.0496, 6.0470, 6.0403, 6.0394,6.047,0.006615287930400449
SingleSource/Benchmarks/Stanford/FloatMM, 0.0593, 0.0592, 0.0592, 0.0592, 0.0593,0.0592, 0.0593, 0.0594, 0.0591, 0.0592, 0.0587,0.0592,0.0
SingleSource/Benchmarks/SmallPT/smallpt, 0.0994, 0.0994, 0.0995, 0.0994, 0.0997,0.0994, 0.0998, 0.0993, 0.0995, 0.0994, 0.0993,0.0994,0.0
SingleSource/Benchmarks/Shootout/methcall, 0.0295, 0.0294, 0.0293, 0.0293, 0.0292,0.0293, 0.0293, 0.0292, 0.0293, 0.0293, 0.0291,0.0293,0.0
SingleSource/Benchmarks/Shootout/fib2, 0.0183, 0.0183, 0.0183, 0.0183, 0.0183,0.0183, 0.0183, 0.0183, 0.0182, 0.0183, 0.0181,0.0183,0.0
SingleSource/Benchmarks/Shootout-C++/sieve, 0.1783, 0.1789, 0.1785, 0.1786, 0.1791,0.1786, 0.1778, 0.1786, 0.1784, 0.1787, 0.1787,0.1786,0.0
SingleSource/Benchmarks/Shootout-C++/objinst, 0.1379, 0.1379, 0.1386, 0.1381, 0.1386,0.1381, 0.1381, 0.1383, 0.1382, 0.1380, 0.1377,0.1381,0.0
SingleSource/Benchmarks/Polybench/linear-algebra/kernels/trmm/trmm, 0.0827, 0.0826, 0.0828, 0.0828, 0.0827,0.0827, 0.0829, 0.0827, 0.0826, 0.0826, 0.0827,0.0827,0.0
SingleSource/Benchmarks/Misc/fp-convert, 0.0307, 0.0306, 0.0305, 0.0308, 0.0305,0.0306, 0.0306, 0.0308, 0.0306, 0.0305, 0.0304,0.0306,0.0
SingleSource/Benchmarks/Misc-C++/mandel-text, 0.0225, 0.0224, 0.0224, 0.0226, 0.0225,0.0225, 0.0225, 0.0224, 0.0225, 0.0225, 0.0224,0.0225,0.0
SingleSource/Benchmarks/BenchmarkGame/recursive, 0.0246, 0.0246, 0.0247, 0.0248, 0.0246,0.0246, 0.0246, 0.0246, 0.0246, 0.0247, 0.0245,0.0246,0.0
SingleSource/Benchmarks/BenchmarkGame/puzzle, 0.0552, 0.0551, 0.0551, 0.0553, 0.0553,0.0552, 0.0554, 0.0552, 0.0552, 0.0550, 0.0549,0.0552,0.0
SingleSource/Benchmarks/BenchmarkGame/Large/fasta, 0.0415, 0.0416, 0.0418, 0.0418, 0.0418,0.0418, 0.0419, 0.0414, 0.0418, 0.0418, 0.0418,0.0418,0.0
MultiSource/Benchmarks/Prolangs-C++/primes/primes, 0.0228, 0.0228, 0.0226, 0.0227, 0.0227,0.0227, 0.0227, 0.0227, 0.0228, 0.0227, 0.0224,0.0227,0.0
MultiSource/Benchmarks/NPB-serial/is/is, 0.0697, 0.0696, 0.0696, 0.0698, 0.0698,0.0697, 0.0698, 0.0697, 0.0696, 0.0697, 0.0696,0.0697,0.0
MultiSource/Benchmarks/MiBench/network-patricia/network-patricia, 0.0767, 0.0766, 0.0763, 0.0766, 0.0766,0.0766, 0.0766, 0.0764, 0.0766, 0.0766, 0.0760,0.0766,0.0
MultiSource/Benchmarks/MiBench/network-dijkstra/network-dijkstra, 0.0409, 0.0409, 0.0409, 0.0414, 0.0410,0.0409, 0.0410, 0.0408, 0.0410, 0.0409, 0.0406,0.0409,0.0
MultiSource/Benchmarks/FreeBench/mason/mason, 0.0464, 0.0465, 0.0465, 0.0466, 0.0466,0.0465, 0.0464, 0.0465, 0.0466, 0.0465, 0.0463,0.0465,0.0
MultiSource/Benchmarks/BitBench/uudecode/uudecode, 0.0428, 0.0430, 0.0427, 0.0428, 0.0428,0.0428, 0.0428, 0.0428, 0.0428, 0.0428, 0.0425,0.0428,0.0
MultiSource/Benchmarks/ASC_Sequoia/CrystalMk/CrystalMk, 0.2311, 0.2309, 0.2305, 0.2309, 0.2311,0.2309, 0.2317, 0.2306, 0.2313, 0.2309, 0.2298,0.2309,0.0
MultiSource/Applications/ALAC/encode/alacconvert-encode, 1.0327, 1.0345, 1.0333, 1.0338, 1.0321,1.0333, 1.0330, 1.0336, 1.0341, 1.0333, 1.0330,1.0333,0.0
MultiSource/Benchmarks/mediabench/jpeg/jpeg-6a/cjpeg, 4.2918, 4.2949, 4.2974, 4.2957, 4.3066,4.2957, 4.3026, 4.2955, 4.3081, 4.2923, 4.2839,4.2955,-0.004655818609311524
MultiSource/Benchmarks/Prolangs-C/agrep/agrep, 1.3107, 1.3123, 1.3098, 1.3109, 1.3112,1.3109, 1.3146, 1.3104, 1.3117, 1.3108, 1.3105,1.3108,-0.007628346937216257
MultiSource/Benchmarks/TSVC/StatementReordering-flt/StatementReordering-flt, 2.1303, 2.1363, 2.1425, 2.1332, 2.1389,2.1363, 2.1367, 2.1336, 2.1360, 2.1276, 2.1384,2.136,-0.014042971492755907
MultiSource/Benchmarks/MiBench/consumer-jpeg/consumer-jpeg, 4.2797, 4.2828, 4.2790, 4.2816, 4.2810,4.281, 4.2838, 4.2797, 4.2869, 4.2712, 4.2668,4.2797,-0.03036673674374768
MultiSource/Applications/kimwitu++/kc,10.3095,10.3203,10.3176,10.3463,10.3455,10.3203,10.3153,10.3306,10.3351,10.3154,10.3142,10.3154,-0.04747923994457004
MultiSource/Applications/SPASS/SPASS,11.8543,11.8462,11.8550,11.8596,11.8672,11.855,11.8670,11.8486,11.8660,11.8367,11.8364,11.8486,-0.0539856600590527
MultiSource/Applications/d/make_dparser, 2.5161, 2.5034, 2.5083, 2.5166, 2.5166,2.5161, 2.5200, 2.5247, 2.5147, 2.5103, 2.5105,2.5147,-0.05564166766026668
SingleSource/Benchmarks/Polybench/stencils/fdtd-2d/fdtd-2d, 0.1624, 0.1634, 0.1622, 0.1625, 0.1622,0.1624, 0.1628, 0.1625, 0.1623, 0.1622, 0.1619,0.1623,-0.061576354679793166
MultiSource/Benchmarks/MiBench/security-rijndael/security-rijndael, 0.4001, 0.3994, 0.3985, 0.3990, 0.4000,0.3994, 0.3995, 0.3991, 0.3991, 0.3992, 0.3990,0.3991,-0.07511266900349645
MultiSource/Benchmarks/Fhourstones-3.1/fhourstones3.1, 0.1289, 0.1292, 0.1291, 0.1290, 0.1292,0.1291, 0.1293, 0.1290, 0.1298, 0.1289, 0.1289,0.129,-0.07745933384971648
SingleSource/Benchmarks/Polybench/stencils/jacobi-2d-imper/jacobi-2d-imper, 0.1289, 0.1294, 0.1290, 0.1291, 0.1290,0.129, 0.1292, 0.1289, 0.1290, 0.1289, 0.1289,0.1289,-0.07751937984497026
MultiSource/Applications/ALAC/decode/alacconvert-decode, 1.0205, 1.0227, 1.0220, 1.0214, 1.0223,1.022, 1.0253, 1.0211, 1.0219, 1.0212, 1.0208,1.0212,-0.07827788649705791
SingleSource/Benchmarks/Shootout-C++/EH/except, 0.1258, 0.1266, 0.1258, 0.1264, 0.1260,0.126, 0.1254, 0.1266, 0.1259, 0.1261, 0.1257,0.1259,-0.07936507936506798
SingleSource/Benchmarks/Polybench/linear-algebra/solvers/gramschmidt/gramschmidt, 0.1255, 0.1252, 0.1251, 0.1252, 0.1252,0.1252, 0.1254, 0.1251, 0.1250, 0.1253, 0.1249,0.1251,-0.07987220447285281
MultiSource/Benchmarks/MiBench/automotive-susan/automotive-susan, 0.8711, 0.8714, 0.8719, 0.8691, 0.8761,0.8714, 0.8753, 0.8750, 0.8691, 0.8642, 0.8707,0.8707,-0.0803305026394252
SingleSource/Benchmarks/Shootout-C++/methcall, 0.1224, 0.1222, 0.1222, 0.1222, 0.1223,0.1222, 0.1217, 0.1221, 0.1227, 0.1221, 0.1217,0.1221,-0.08183306055646877
SingleSource/Benchmarks/Polybench/linear-algebra/kernels/cholesky/cholesky, 0.1144, 0.1147, 0.1145, 0.1147, 0.1146,0.1146, 0.1148, 0.1143, 0.1145, 0.1145, 0.1144,0.1145,-0.08726003490400203
MultiSource/Benchmarks/MiBench/consumer-lame/consumer-lame, 4.2355, 4.2290, 4.2162, 4.2380, 4.2364,4.2355, 4.2398, 4.2317, 4.2338, 4.2293, 4.2318,4.2318,-0.08735686459686587
SingleSource/Benchmarks/Shootout-C++/ackermann, 0.1141, 0.1142, 0.1142, 0.1148, 0.1147,0.1142, 0.1141, 0.1144, 0.1144, 0.1137, 0.1134,0.1141,-0.08756567425569628
MultiSource/Benchmarks/McCat/18-imp/imp, 0.3311, 0.3319, 0.3312, 0.3317, 0.3314,0.3314, 0.3323, 0.3311, 0.3318, 0.3306, 0.3302,0.3311,-0.09052504526251282
SingleSource/Benchmarks/Misc-C++/bigfib, 0.4269, 0.4280, 0.4261, 0.4251, 0.4266,0.4266, 0.4257, 0.4262, 0.4259, 0.4265, 0.4262,0.4262,-0.09376465072666873
SingleSource/Benchmarks/Polybench/linear-algebra/solvers/lu/lu, 0.1040, 0.1042, 0.1039, 0.1040, 0.1040,0.104, 0.1044, 0.1039, 0.1044, 0.1039, 0.1038,0.1039,-0.09615384615383471
MultiSource/Applications/hexxagon/hexxagon, 0.6954, 0.6960, 0.6965, 0.6975, 0.6982,0.6965, 0.6967, 0.6932, 0.6973, 0.6948, 0.6958,0.6958,-0.10050251256281673
MultiSource/Applications/obsequi/Obsequi, 1.0190, 1.0310, 1.0226, 1.0201, 1.0258,1.0226, 1.0341, 1.0079, 1.0273, 1.0204, 1.0215,1.0215,-0.10756894191276123
SingleSource/Benchmarks/Polybench/linear-algebra/kernels/syrk/syrk, 0.0863, 0.0863, 0.0862, 0.0863, 0.0862,0.0863, 0.0864, 0.0862, 0.0866, 0.0861, 0.0861,0.0862,-0.11587485515643925
SingleSource/Benchmarks/Polybench/medley/floyd-warshall/floyd-warshall, 0.0854, 0.0851, 0.0851, 0.0852, 0.0850,0.0851, 0.0854, 0.0850, 0.0852, 0.0849, 0.0850,0.085,-0.11750881316097139
MultiSource/Benchmarks/McCat/03-testtrie/testtrie, 0.0848, 0.0844, 0.0845, 0.0847, 0.0845,0.0845, 0.0845, 0.0841, 0.0845, 0.0844, 0.0839,0.0844,-0.11834319526627946
SingleSource/Benchmarks/Polybench/linear-algebra/kernels/bicg/bicg, 0.0840, 0.0843, 0.0840, 0.0841, 0.0839,0.084, 0.0839, 0.0837, 0.0839, 0.0837, 0.0839,0.0839,-0.11904761904761862
MultiSource/Benchmarks/ASC_Sequoia/AMGmk/AMGmk, 0.5795, 0.5799, 0.5800, 0.5802, 0.5790,0.5799, 0.5805, 0.5792, 0.5793, 0.5784, 0.5776,0.5792,-0.12071046732193835
MultiSource/Benchmarks/Fhourstones/fhourstones, 0.1589, 0.1588, 0.1596, 0.1595, 0.1590,0.159, 0.1595, 0.1588, 0.1594, 0.1587, 0.1584,0.1588,-0.12578616352201255
SingleSource/Benchmarks/Polybench/stencils/seidel-2d/seidel-2d, 0.0760, 0.0760, 0.0758, 0.0765, 0.0763,0.076, 0.0759, 0.0759, 0.0757, 0.0759, 0.0756,0.0759,-0.131578947368427
SingleSource/Benchmarks/Shootout/lists, 0.0718, 0.0717, 0.0718, 0.0717, 0.0717,0.0717, 0.0716, 0.0714, 0.0718, 0.0716, 0.0714,0.0716,-0.1394700139470073
SingleSource/Benchmarks/Misc-C++/Large/sphereflake, 0.2118, 0.2130, 0.2125, 0.2121, 0.2136,0.2125, 0.2128, 0.2114, 0.2124, 0.2121, 0.2122,0.2122,-0.14117647058823346
MultiSource/Benchmarks/VersaBench/8b10b/8b10b, 0.0692, 0.0694, 0.0692, 0.0693, 0.0694,0.0693, 0.0694, 0.0692, 0.0695, 0.0690, 0.0688,0.0692,-0.14430014430014682
MultiSource/Benchmarks/Bullet/bullet,22.4461,22.4526,22.4363,22.4543,22.4483,22.4483,22.4340,22.4089,22.4516,22.4152,22.4046,22.4152,-0.1474499182566258
MultiSource/Applications/hbd/hbd, 1.1493, 1.1455, 1.1473, 1.1488, 1.1500,1.1488, 1.1473, 1.1440, 1.1496, 1.1471, 1.1429,1.1471,-0.14798050139276375
MultiSource/Benchmarks/Prolangs-C++/employ/employ, 0.1915, 0.1927, 0.1915, 0.1923, 0.1919,0.1919, 0.1923, 0.1916, 0.1930, 0.1916, 0.1915,0.1916,-0.15633142261594069
MultiSource/Benchmarks/McCat/09-vor/vor, 0.2557, 0.2554, 0.2552, 0.2558, 0.2556,0.2556, 0.2552, 0.2553, 0.2556, 0.2548, 0.2543,0.2552,-0.15649452269170805
MultiSource/Benchmarks/7zip/7zip-benchmark,33.4691,33.5184,33.4828,33.5066,33.5250,33.5066,33.4966,33.4193,33.4944,33.4520,33.4420,33.452,-0.16295297045955115
MultiSource/Applications/siod/siod, 1.8481, 1.8555, 1.8529, 1.8499, 1.8546,1.8529, 1.8480, 1.8639, 1.8498, 1.8517, 1.8435,1.8498,-0.16730530519725173
SingleSource/Benchmarks/Misc/himenobmtxpa, 0.2363, 0.2362, 0.2361, 0.2360, 0.2365,0.2362, 0.2370, 0.2358, 0.2359, 0.2356, 0.2357,0.2358,-0.16934801016087464
MultiSource/Benchmarks/mediabench/gsm/toast/toast, 1.0609, 1.0603, 1.0608, 1.0613, 1.0603,1.0608, 1.0609, 1.0590, 1.0605, 1.0587, 1.0572,1.059,-0.16968325791855143
SingleSource/Benchmarks/BenchmarkGame/spectral-norm, 0.0559, 0.0561, 0.0559, 0.0560, 0.0561,0.056, 0.0562, 0.0559, 0.0562, 0.0559, 0.0559,0.0559,-0.17857142857143904
MultiSource/Benchmarks/VersaBench/bmm/bmm, 0.0550, 0.0550, 0.0549, 0.0550, 0.0550,0.055, 0.0549, 0.0549, 0.0548, 0.0550, 0.0548,0.0549,-0.181818181818183
MultiSource/Benchmarks/mediabench/adpcm/rawdaudio/rawdaudio, 0.0542, 0.0539, 0.0539, 0.0541, 0.0542,0.0541, 0.0541, 0.0537, 0.0540, 0.0542, 0.0536,0.054,-0.1848428835489857
SingleSource/Benchmarks/Polybench/linear-algebra/kernels/gemver/gemver, 0.1069, 0.1070, 0.1072, 0.1068, 0.1068,0.1069, 0.1070, 0.1066, 0.1069, 0.1067, 0.1066,0.1067,-0.1870907390084109
SingleSource/Benchmarks/Shootout-C++/ary, 0.1554, 0.1544, 0.1548, 0.1542, 0.1542,0.1544, 0.1541, 0.1536, 0.1542, 0.1541, 0.1537,0.1541,-0.19430051813472682
MultiSource/Benchmarks/Trimaran/enc-rc4/enc-rc4, 0.0498, 0.0497, 0.0498, 0.0503, 0.0497,0.0498, 0.0497, 0.0500, 0.0497, 0.0498, 0.0495,0.0497,-0.20080321285139702
MultiSource/Benchmarks/Prolangs-C/gnugo/gnugo, 0.6961, 0.6935, 0.6944, 0.6960, 0.6951,0.6951, 0.6946, 0.6937, 0.6947, 0.6934, 0.6895,0.6937,-0.20140986908359082
MultiSource/Benchmarks/llubenchmark/llu, 0.0492, 0.0491, 0.0491, 0.0489, 0.0492,0.0491, 0.0490, 0.0490, 0.0492, 0.0489, 0.0488,0.049,-0.20366598778003286
MultiSource/Benchmarks/DOE-ProxyApps-C/XSBench/XSBench, 0.3394, 0.3398, 0.3393, 0.3396, 0.3392,0.3394, 0.3397, 0.3387, 0.3391, 0.3377, 0.3372,0.3387,-0.20624631703004548
SingleSource/Benchmarks/Shootout/hash, 0.0481, 0.0481, 0.0480, 0.0479, 0.0482,0.0481, 0.0481, 0.0480, 0.0480, 0.0478, 0.0477,0.048,-0.20790020790020236
MultiSource/Benchmarks/Ptrdist/ks/ks, 0.1354, 0.1356, 0.1352, 0.1353, 0.1354,0.1354, 0.1356, 0.1350, 0.1355, 0.1351, 0.1348,0.1351,-0.22156573116690614
SingleSource/Benchmarks/McGill/queens, 0.0449, 0.0449, 0.0449, 0.0450, 0.0450,0.0449, 0.0449, 0.0448, 0.0448, 0.0449, 0.0446,0.0448,-0.22271714922049712
SingleSource/Benchmarks/Stanford/Towers, 0.0449, 0.0447, 0.0447, 0.0445, 0.0447,0.0447, 0.0446, 0.0446, 0.0448, 0.0446, 0.0442,0.0446,-0.22371364653243075
SingleSource/Benchmarks/Polybench/linear-algebra/kernels/syr2k/syr2k, 0.0874, 0.0874, 0.0872, 0.0874, 0.0871,0.0874, 0.0873, 0.0872, 0.0873, 0.0869, 0.0870,0.0872,-0.22883295194509046
SingleSource/Benchmarks/Polybench/linear-algebra/solvers/dynprog/dynprog, 0.0860, 0.0864, 0.0859, 0.0859, 0.0861,0.086, 0.0859, 0.0859, 0.0858, 0.0857, 0.0856,0.0858,-0.23255813953487747
SingleSource/Benchmarks/Misc-C++/stepanov_v1p2, 0.1704, 0.1705, 0.1702, 0.1703, 0.1704,0.1704, 0.1700, 0.1698, 0.1701, 0.1703, 0.1698,0.17,-0.23474178403755097
MultiSource/Benchmarks/MallocBench/gs/gs, 3.5381, 3.5304, 3.5365, 3.5365, 3.5368,3.5365, 3.5337, 3.5281, 3.5334, 3.5243, 3.5192,3.5281,-0.2375229746925056
MultiSource/Benchmarks/BitBench/uuencode/uuencode, 0.0418, 0.0419, 0.0418, 0.0417, 0.0418,0.0418, 0.0417, 0.0416, 0.0418, 0.0417, 0.0415,0.0417,-0.23923444976076125
MultiSource/Benchmarks/BitBench/drop3/drop3, 0.0412, 0.0411, 0.0411, 0.0412, 0.0412,0.0412, 0.0413, 0.0411, 0.0410, 0.0411, 0.0410,0.0411,-0.24271844660195274
MultiSource/Benchmarks/Trimaran/netbench-url/netbench-url, 0.2003, 0.2006, 0.1999, 0.2011, 0.2004,0.2004, 0.2011, 0.1995, 0.2005, 0.1999, 0.1991,0.1999,-0.24950099800399306
MultiSource/Benchmarks/FreeBench/analyzer/analyzer, 0.2387, 0.2391, 0.2392, 0.2394, 0.2395,0.2392, 0.2402, 0.2386, 0.2402, 0.2386, 0.2384,0.2386,-0.2508361204013321
SingleSource/Benchmarks/Shootout-C++/lists, 0.1575, 0.1579, 0.1577, 0.1580, 0.1579,0.1579, 0.1566, 0.1568, 0.1575, 0.1578, 0.1575,0.1575,-0.2533248891703699
SingleSource/Benchmarks/Misc/ffbench, 0.0789, 0.0789, 0.0789, 0.0790, 0.0790,0.0789, 0.0788, 0.0786, 0.0790, 0.0787, 0.0786,0.0787,-0.25348542458807355
SingleSource/Benchmarks/Shootout/heapsort, 0.0387, 0.0386, 0.0385, 0.0386, 0.0386,0.0386, 0.0385, 0.0384, 0.0385, 0.0383, 0.0385,0.0385,-0.2590673575129654
MultiSource/Benchmarks/Trimaran/netbench-crc/netbench-crc, 0.0770, 0.0771, 0.0766, 0.0771, 0.0771,0.0771, 0.0769, 0.0770, 0.0770, 0.0769, 0.0763,0.0769,-0.25940337224384935
SingleSource/Benchmarks/BenchmarkGame/n-body, 0.0756, 0.0757, 0.0756, 0.0756, 0.0756,0.0756, 0.0757, 0.0753, 0.0756, 0.0754, 0.0753,0.0754,-0.2645502645502673
MultiSource/Benchmarks/mediabench/g721/g721encode/encode, 0.1891, 0.1881, 0.1887, 0.1889, 0.1884,0.1887, 0.1891, 0.1881, 0.1888, 0.1882, 0.1874,0.1882,-0.2649708532061479
SingleSource/Benchmarks/Polybench/stencils/fdtd-apml/fdtd-apml, 0.1492, 0.1494, 0.1495, 0.1498, 0.1496,0.1495, 0.1497, 0.1491, 0.1493, 0.1490, 0.1490,0.1491,-0.26755852842808014
SingleSource/Benchmarks/Stanford/Quicksort, 0.0359, 0.0356, 0.0358, 0.0355, 0.0356,0.0356, 0.0357, 0.0354, 0.0356, 0.0355, 0.0355,0.0355,-0.2808988764045006
MultiSource/Benchmarks/Olden/perimeter/perimeter, 0.0711, 0.0709, 0.0708, 0.0714, 0.0713,0.0711, 0.0709, 0.0712, 0.0712, 0.0709, 0.0706,0.0709,-0.2812939521800173
MultiSource/Benchmarks/Olden/em3d/em3d, 0.1723, 0.1716, 0.1725, 0.1727, 0.1723,0.1723, 0.1720, 0.1718, 0.1727, 0.1717, 0.1712,0.1718,-0.29019152640742396
MultiSource/Benchmarks/Prolangs-C++/ocean/ocean, 0.1016, 0.1021, 0.1016, 0.1021, 0.1022,0.1021, 0.1028, 0.1016, 0.1018, 0.1013, 0.1018,0.1018,-0.2938295788442624
SingleSource/Benchmarks/Polybench/linear-algebra/kernels/trisolv/trisolv, 0.0678, 0.0679, 0.0676, 0.0677, 0.0677,0.0677, 0.0677, 0.0675, 0.0676, 0.0674, 0.0675,0.0675,-0.2954209748892045
SingleSource/Benchmarks/Polybench/datamining/covariance/covariance, 0.0990, 0.0992, 0.0992, 0.0994, 0.0990,0.0992, 0.0993, 0.0988, 0.0989, 0.0990, 0.0987,0.0989,-0.3024193548387011
SingleSource/Benchmarks/Shootout/ary3, 0.0329, 0.0329, 0.0329, 0.0331, 0.0329,0.0329, 0.0330, 0.0329, 0.0328, 0.0328, 0.0327,0.0328,-0.3039513677811412
MultiSource/Benchmarks/sim/sim, 0.2951, 0.2960, 0.2947, 0.2960, 0.2960,0.296, 0.2960, 0.2946, 0.2951, 0.2945, 0.2951,0.2951,-0.3040540540540593
MultiSource/Benchmarks/McCat/17-bintr/bintr, 0.0651, 0.0649, 0.0649, 0.0651, 0.0651,0.0651, 0.0653, 0.0646, 0.0649, 0.0649, 0.0643,0.0649,-0.3072196620583778
MultiSource/Benchmarks/MiBench/security-sha/security-sha, 0.1299, 0.1298, 0.1299, 0.1297, 0.1302,0.1299, 0.1301, 0.1295, 0.1296, 0.1294, 0.1295,0.1295,-0.3079291762894454
SingleSource/Benchmarks/Shootout-C++/matrix, 0.1946, 0.1941, 0.1941, 0.1951, 0.1944,0.1944, 0.1938, 0.1938, 0.1942, 0.1940, 0.1937,0.1938,-0.30864197530863224
MultiSource/Benchmarks/ASC_Sequoia/IRSmk/IRSmk, 0.0962, 0.0965, 0.0966, 0.0964, 0.0965,0.0965, 0.0962, 0.0964, 0.0964, 0.0959, 0.0957,0.0962,-0.31088082901555847
SingleSource/Benchmarks/Misc-C++/Large/ray, 0.2297, 0.2246, 0.2287, 0.2138, 0.2042,0.2246, 0.2260, 0.2117, 0.2239, 0.2292, 0.2033,0.2239,-0.3116651825467498
SingleSource/Benchmarks/Shootout-C++/ary3, 0.1579, 0.1589, 0.1586, 0.1583, 0.1583,0.1583, 0.1576, 0.1579, 0.1578, 0.1582, 0.1574,0.1578,-0.31585596967782514
MultiSource/Benchmarks/Prolangs-C++/life/life, 0.0629, 0.0628, 0.0629, 0.0627, 0.0629,0.0629, 0.0631, 0.0627, 0.0631, 0.0627, 0.0627,0.0627,-0.31796502384736636
MultiSource/Applications/viterbi/viterbi, 0.1567, 0.1564, 0.1566, 0.1569, 0.1571,0.1567, 0.1565, 0.1562, 0.1565, 0.1562, 0.1557,0.1562,-0.319081046585834
MultiSource/Benchmarks/McCat/04-bisect/bisect, 0.1248, 0.1251, 0.1253, 0.1251, 0.1252,0.1251, 0.1255, 0.1247, 0.1249, 0.1242, 0.1240,0.1247,-0.3197442046362742
SingleSource/Benchmarks/BenchmarkGame/nsieve-bits, 0.0311, 0.0311, 0.0311, 0.0311, 0.0311,0.0311, 0.0310, 0.0311, 0.0311, 0.0310, 0.0308,0.031,-0.3215434083601254
MultiSource/Benchmarks/Olden/mst/mst, 0.1242, 0.1242, 0.1238, 0.1244, 0.1243,0.1242, 0.1245, 0.1235, 0.1246, 0.1238, 0.1235,0.1238,-0.32206119162642155
SingleSource/Benchmarks/Polybench/stencils/jacobi-1d-imper/jacobi-1d-imper, 0.0905, 0.0906, 0.0903, 0.0904, 0.0903,0.0904, 0.0904, 0.0901, 0.0905, 0.0901, 0.0899,0.0901,-0.33185840707964376
SingleSource/Benchmarks/Stanford/Perm, 0.0301, 0.0298, 0.0299, 0.0301, 0.0300,0.03, 0.0299, 0.0300, 0.0298, 0.0299, 0.0298,0.0299,-0.33333333333332993
MultiSource/Benchmarks/Olden/bisort/bisort, 0.0590, 0.0591, 0.0592, 0.0589, 0.0591,0.0591, 0.0589, 0.0588, 0.0591, 0.0589, 0.0586,0.0589,-0.33840947546530664
SingleSource/Benchmarks/Polybench/linear-algebra/kernels/atax/atax, 0.0879, 0.0881, 0.0878, 0.0884, 0.0882,0.0881, 0.0878, 0.0878, 0.0878, 0.0875, 0.0875,0.0878,-0.34052213393870323
SingleSource/Benchmarks/Misc/matmul_f64_4x4, 0.0287, 0.0287, 0.0287, 0.0288, 0.0289,0.0287, 0.0286, 0.0286, 0.0285, 0.0286, 0.0285,0.0286,-0.34843205574912606
SingleSource/Benchmarks/Shootout-C++/nestedloop, 0.1134, 0.1141, 0.1135, 0.1141, 0.1138,0.1138, 0.1135, 0.1133, 0.1136, 0.1134, 0.1134,0.1134,-0.35149384885764245
SingleSource/Benchmarks/Polybench/linear-algebra/kernels/symm/symm, 0.0850, 0.0852, 0.0847, 0.0850, 0.0851,0.085, 0.0847, 0.0848, 0.0848, 0.0844, 0.0847,0.0847,-0.3529411764706003
SingleSource/Benchmarks/Shootout-C++/fibo, 0.1125, 0.1135, 0.1130, 0.1129, 0.1128,0.1129, 0.1126, 0.1121, 0.1125, 0.1134, 0.1120,0.1125,-0.3542958370239102
SingleSource/Benchmarks/Polybench/linear-algebra/kernels/doitgen/doitgen, 0.1123, 0.1121, 0.1118, 0.1123, 0.1123,0.1123, 0.1127, 0.1119, 0.1126, 0.1119, 0.1118,0.1119,-0.3561887800534236
MultiSource/Benchmarks/MallocBench/cfrac/cfrac, 0.8084, 0.8066, 0.8072, 0.8089, 0.8084,0.8084, 0.8061, 0.8053, 0.8075, 0.8055, 0.8010,0.8055,-0.35873330034636997
SingleSource/Benchmarks/Stanford/RealMM, 0.0555, 0.0558, 0.0556, 0.0559, 0.0557,0.0557, 0.0558, 0.0555, 0.0557, 0.0555, 0.0554,0.0555,-0.35906642728904536
SingleSource/Benchmarks/Shootout/matrix, 0.0821, 0.0820, 0.0821, 0.0821, 0.0820,0.0821, 0.0819, 0.0818, 0.0819, 0.0818, 0.0817,0.0818,-0.3654080389768666
SingleSource/Benchmarks/Shootout-C++/ary2, 0.1605, 0.1609, 0.1606, 0.1609, 0.1608,0.1608, 0.1600, 0.1602, 0.1601, 0.1603, 0.1603,0.1602,-0.3731343283582045
SingleSource/Benchmarks/Misc/flops-6, 0.0266, 0.0266, 0.0265, 0.0268, 0.0267,0.0266, 0.0265, 0.0265, 0.0266, 0.0264, 0.0263,0.0265,-0.3759398496240629
SingleSource/Benchmarks/Shootout-C++/heapsort, 0.1308, 0.1312, 0.1305, 0.1306, 0.1305,0.1306, 0.1297, 0.1301, 0.1301, 0.1304, 0.1297,0.1301,-0.3828483920367498
SingleSource/Benchmarks/Misc/flops-8, 0.0262, 0.0261, 0.0260, 0.0261, 0.0261,0.0261, 0.0262, 0.0260, 0.0261, 0.0258, 0.0258,0.026,-0.3831417624521216
SingleSource/Benchmarks/McGill/misr, 0.0521, 0.0521, 0.0519, 0.0525, 0.0520,0.0521, 0.0522, 0.0519, 0.0523, 0.0519, 0.0519,0.0519,-0.38387715930902067
SingleSource/Benchmarks/Polybench/stencils/adi/adi, 0.1036, 0.1035, 0.1034, 0.1036, 0.1039,0.1036, 0.1035, 0.1032, 0.1035, 0.1032, 0.1031,0.1032,-0.38610038610038533
MultiSource/Benchmarks/TSVC/NodeSplitting-flt/NodeSplitting-flt, 2.1958, 2.1963, 2.1829, 2.1731, 2.1864,2.1864, 2.1816, 2.1771, 2.1779, 2.1721, 2.1872,2.1779,-0.3887669227954471
SingleSource/Benchmarks/Misc/flops-4, 0.0258, 0.0257, 0.0257, 0.0260, 0.0256,0.0257, 0.0258, 0.0256, 0.0256, 0.0256, 0.0254,0.0256,-0.3891050583657574
MultiSource/Applications/lua/lua, 3.0698, 3.0702, 3.0688, 3.0721, 3.0729,3.0702, 3.0609, 3.0581, 3.0604, 3.0577, 3.0510,3.0581,-0.3941111328252145
SingleSource/Benchmarks/Misc/flops-7, 0.0251, 0.0251, 0.0251, 0.0251, 0.0251,0.0251, 0.0250, 0.0250, 0.0250, 0.0250, 0.0248,0.025,-0.3984063745019917
MultiSource/Benchmarks/Prolangs-C++/city/city, 0.8758, 0.8805, 0.8750, 0.8769, 0.8799,0.8769, 0.8727, 0.8734, 0.8739, 0.8747, 0.8717,0.8734,-0.3991333105257233
MultiSource/Benchmarks/SciMark2-C/scimark2, 0.3714, 0.3726, 0.3705, 0.3720, 0.3720,0.372, 0.3715, 0.3700, 0.3717, 0.3705, 0.3695,0.3705,-0.40322580645161255
SingleSource/Benchmarks/Misc/lowercase, 0.0246, 0.0245, 0.0246, 0.0246, 0.0247,0.0246, 0.0245, 0.0244, 0.0245, 0.0245, 0.0243,0.0245,-0.40650406504064707
SingleSource/Benchmarks/BenchmarkGame/fannkuch, 0.0479, 0.0478, 0.0477, 0.0478, 0.0479,0.0478, 0.0478, 0.0476, 0.0476, 0.0477, 0.0475,0.0476,-0.4184100418409997
MultiSource/Applications/aha/aha, 0.0955, 0.0950, 0.0952, 0.0953, 0.0956,0.0953, 0.0952, 0.0951, 0.0949, 0.0947, 0.0944,0.0949,-0.41972717733472775
SingleSource/Benchmarks/Stanford/Puzzle, 0.1167, 0.1171, 0.1167, 0.1171, 0.1172,0.1171, 0.1173, 0.1166, 0.1171, 0.1165, 0.1166,0.1166,-0.4269854824935915
SingleSource/Benchmarks/Polybench/linear-algebra/kernels/gesummv/gesummv, 0.0702, 0.0701, 0.0704, 0.0701, 0.0700,0.0701, 0.0699, 0.0698, 0.0699, 0.0697, 0.0697,0.0698,-0.42796005706133844
SingleSource/Benchmarks/Shootout/nestedloop, 0.0226, 0.0225, 0.0225, 0.0226, 0.0225,0.0225, 0.0224, 0.0225, 0.0225, 0.0224, 0.0223,0.0224,-0.4444444444444473
MultiSource/Benchmarks/VersaBench/dbms/dbms, 0.8734, 0.8699, 0.8720, 0.8739, 0.8732,0.8732, 0.8693, 0.8685, 0.8707, 0.8693, 0.8626,0.8693,-0.44663307375172323
MultiSource/Benchmarks/McCat/08-main/main, 0.2215, 0.2209, 0.2207, 0.2213, 0.2209,0.2209, 0.2212, 0.2199, 0.2210, 0.2198, 0.2189,0.2199,-0.45269352648257266
MultiSource/Applications/spiff/spiff, 0.7077, 0.7040, 0.7044, 0.7062, 0.7061,0.7061, 0.7053, 0.7029, 0.7051, 0.7026, 0.7014,0.7029,-0.4531935986404112
SingleSource/Benchmarks/Shootout/ackermann, 0.0217, 0.0216, 0.0216, 0.0216, 0.0217,0.0216, 0.0215, 0.0215, 0.0217, 0.0216, 0.0215,0.0215,-0.4629629629629761
MultiSource/Benchmarks/Ptrdist/ft/ft, 0.1930, 0.1937, 0.1925, 0.1937, 0.1929,0.193, 0.1928, 0.1920, 0.1923, 0.1921, 0.1912,0.1921,-0.4663212435233266
SingleSource/Benchmarks/Polybench/datamining/correlation/correlation, 0.0837, 0.0837, 0.0837, 0.0836, 0.0835,0.0837, 0.0837, 0.0835, 0.0833, 0.0833, 0.0832,0.0833,-0.4778972520907976
SingleSource/Benchmarks/Dhrystone/fldry, 0.0410, 0.0409, 0.0410, 0.0411, 0.0410,0.041, 0.0408, 0.0408, 0.0409, 0.0408, 0.0407,0.0408,-0.4878048780487809
MultiSource/Benchmarks/MiBench/automotive-bitcount/automotive-bitcount, 0.2411, 0.2413, 0.2410, 0.2416, 0.2409,0.2411, 0.2408, 0.2399, 0.2403, 0.2399, 0.2391,0.2399,-0.49771878888428267
SingleSource/Benchmarks/Shootout-C++/moments, 0.2376, 0.2387, 0.2391, 0.2374, 0.2383,0.2383, 0.2368, 0.2383, 0.2371, 0.2377, 0.2367,0.2371,-0.5035669324381042
SingleSource/Benchmarks/CoyoteBench/lpbench, 0.1944, 0.1946, 0.1943, 0.1945, 0.1943,0.1944, 0.1945, 0.1934, 0.1935, 0.1933, 0.1933,0.1934,-0.5144032921810759
SingleSource/Benchmarks/Shootout-C++/lists1, 0.1896, 0.1902, 0.1896, 0.1900, 0.1892,0.1896, 0.1883, 0.1893, 0.1886, 0.1893, 0.1880,0.1886,-0.5274261603375519
MultiSource/Benchmarks/Olden/health/health, 0.1278, 0.1278, 0.1276, 0.1281, 0.1278,0.1278, 0.1274, 0.1270, 0.1276, 0.1271, 0.1265,0.1271,-0.5477308294209782
SingleSource/Benchmarks/Misc/flops, 0.0730, 0.0729, 0.0731, 0.0729, 0.0732,0.073, 0.0728, 0.0726, 0.0726, 0.0727, 0.0725,0.0726,-0.5479452054794498
SingleSource/Benchmarks/Stanford/Treesort, 0.0362, 0.0363, 0.0362, 0.0364, 0.0364,0.0363, 0.0363, 0.0360, 0.0361, 0.0363, 0.0358,0.0361,-0.5509641873278182
MultiSource/Benchmarks/mediabench/adpcm/rawcaudio/rawcaudio, 0.0544, 0.0542, 0.0544, 0.0543, 0.0545,0.0544, 0.0541, 0.0537, 0.0542, 0.0541, 0.0539,0.0541,-0.5514705882352811
SingleSource/Regression/C/2004-08-12-InlinerAndAllocas, 0.0179, 0.0178, 0.0179, 0.0178, 0.0179,0.0179, 0.0179, 0.0177, 0.0178, 0.0179, 0.0176,0.0178,-0.5586592178770888
SingleSource/Benchmarks/Shootout-C++/random, 0.1227, 0.1224, 0.1222, 0.1226, 0.1225,0.1225, 0.1214, 0.1220, 0.1218, 0.1228, 0.1214,0.1218,-0.5714285714285672
SingleSource/Benchmarks/Misc/whetstone, 0.0686, 0.0686, 0.0684, 0.0687, 0.0685,0.0686, 0.0685, 0.0682, 0.0683, 0.0682, 0.0680,0.0682,-0.5830903790087438
SingleSource/Benchmarks/Stanford/Bubblesort, 0.0340, 0.0342, 0.0343, 0.0342, 0.0342,0.0342, 0.0341, 0.0342, 0.0339, 0.0340, 0.0338,0.034,-0.5847953216374213
MultiSource/Benchmarks/MiBench/automotive-basicmath/automotive-basicmath, 0.1358, 0.1354, 0.1350, 0.1357, 0.1354,0.1354, 0.1355, 0.1346, 0.1348, 0.1345, 0.1345,0.1346,-0.5908419497784312
MultiSource/Benchmarks/MiBench/telecomm-CRC32/telecomm-CRC32, 0.0335, 0.0331, 0.0329, 0.0329, 0.0331,0.0331, 0.0335, 0.0329, 0.0329, 0.0328, 0.0327,0.0329,-0.6042296072507503
MultiSource/Benchmarks/Olden/tsp/tsp, 0.1144, 0.1134, 0.1140, 0.1142, 0.1140,0.114, 0.1135, 0.1133, 0.1137, 0.1133, 0.1127,0.1133,-0.6140350877193002
SingleSource/Benchmarks/Misc/dt, 0.0322, 0.0321, 0.0321, 0.0322, 0.0321,0.0321, 0.0319, 0.0322, 0.0321, 0.0319, 0.0317,0.0319,-0.6230529595015577
MultiSource/Benchmarks/FreeBench/distray/distray, 0.0935, 0.0936, 0.0931, 0.0934, 0.0932,0.0934, 0.0928, 0.0928, 0.0928, 0.0928, 0.0926,0.0928,-0.6423982869379063
SingleSource/Benchmarks/Shootout-C++/strcat, 0.1223, 0.1225, 0.1224, 0.1229, 0.1226,0.1225, 0.1216, 0.1217, 0.1220, 0.1224, 0.1215,0.1217,-0.6530612244897926
SingleSource/Benchmarks/Stanford/Queens, 0.0456, 0.0455, 0.0454, 0.0455, 0.0452,0.0455, 0.0454, 0.0452, 0.0455, 0.0452, 0.0451,0.0452,-0.6593406593406681
MultiSource/Benchmarks/McCat/01-qbsort/qbsort, 0.0905, 0.0904, 0.0900, 0.0901, 0.0902,0.0902, 0.0900, 0.0896, 0.0900, 0.0896, 0.0895,0.0896,-0.6651884700665245
MultiSource/Benchmarks/Olden/bh/bh, 0.2498, 0.2507, 0.2500, 0.2512, 0.2510,0.2507, 0.2497, 0.2490, 0.2505, 0.2485, 0.2487,0.249,-0.6781013163143168
SingleSource/Benchmarks/Misc/perlin, 0.0441, 0.0442, 0.0441, 0.0443, 0.0442,0.0442, 0.0439, 0.0439, 0.0439, 0.0439, 0.0438,0.0439,-0.6787330316742168
MultiSource/Benchmarks/McCat/12-IOtest/iotest, 0.0855, 0.0854, 0.0851, 0.0855, 0.0850,0.0854, 0.0848, 0.0848, 0.0849, 0.0847, 0.0839,0.0848,-0.7025761124121788
SingleSource/Benchmarks/Shootout/random, 0.0283, 0.0283, 0.0282, 0.0283, 0.0282,0.0283, 0.0281, 0.0280, 0.0282, 0.0282, 0.0279,0.0281,-0.7067137809187218
SingleSource/Benchmarks/Misc/flops-2, 0.0273, 0.0273, 0.0271, 0.0273, 0.0272,0.0273, 0.0273, 0.0271, 0.0271, 0.0270, 0.0270,0.0271,-0.7326007326007411
SingleSource/Benchmarks/Misc/flops-5, 0.0265, 0.0266, 0.0265, 0.0267, 0.0266,0.0266, 0.0264, 0.0264, 0.0264, 0.0264, 0.0264,0.0264,-0.7518796992481147
SingleSource/Benchmarks/Misc/fbench, 0.0526, 0.0523, 0.0523, 0.0524, 0.0524,0.0524, 0.0520, 0.0518, 0.0522, 0.0521, 0.0519,0.052,-0.7633587786259666
SingleSource/Benchmarks/Misc/flops-1, 0.0257, 0.0255, 0.0255, 0.0256, 0.0255,0.0255, 0.0254, 0.0251, 0.0256, 0.0253, 0.0252,0.0253,-0.7843137254901933
SingleSource/Benchmarks/Misc/flops-3, 0.0255, 0.0254, 0.0252, 0.0254, 0.0253,0.0254, 0.0252, 0.0251, 0.0252, 0.0252, 0.0251,0.0252,-0.7874015748031482
MultiSource/Benchmarks/Olden/treeadd/treeadd, 0.0503, 0.0498, 0.0502, 0.0500, 0.0501,0.0501, 0.0497, 0.0497, 0.0498, 0.0498, 0.0493,0.0497,-0.7984031936127733
SingleSource/Benchmarks/Shootout/objinst, 0.0344, 0.0343, 0.0343, 0.0344, 0.0344,0.0344, 0.0342, 0.0341, 0.0341, 0.0343, 0.0340,0.0341,-0.8720930232558155
MultiSource/Benchmarks/Olden/power/power, 0.1209, 0.1204, 0.1203, 0.1209, 0.1211,0.1209, 0.1199, 0.1194, 0.1201, 0.1198, 0.1196,0.1198,-0.9098428453267027
SingleSource/Benchmarks/Misc/mandel, 0.0414, 0.0411, 0.0413, 0.0415, 0.0414,0.0414, 0.0411, 0.0408, 0.0410, 0.0411, 0.0409,0.041,-0.9661835748792202
SingleSource/Benchmarks/Misc/pi, 0.0198, 0.0196, 0.0197, 0.0197, 0.0197,0.0197, 0.0197, 0.0197, 0.0195, 0.0195, 0.0193,0.0195,-1.015228426395931
SingleSource/Benchmarks/BenchmarkGame/partialsums, 0.0281, 0.0280, 0.0280, 0.0281, 0.0281,0.0281, 0.0277, 0.0278, 0.0280, 0.0279, 0.0277,0.0278,-1.067615658362997
SingleSource/Benchmarks/Shootout/strcat, 0.0254, 0.0253, 0.0254, 0.0254, 0.0253,0.0254, 0.0254, 0.0251, 0.0253, 0.0251, 0.0250,0.0251,-1.1811023622047223
SingleSource/Benchmarks/Shootout/sieve, 0.0243, 0.0242, 0.0241, 0.0243, 0.0243,0.0243, 0.0241, 0.0240, 0.0240, 0.0240, 0.0240,0.024,-1.2345679012345623
MultiSource/Benchmarks/Olden/voronoi/voronoi, 0.2249, 0.2247, 0.2243, 0.2246, 0.2248,0.2247, 0.2207, 0.2201, 0.2204, 0.2204, 0.2195,0.2204,-1.9136626613262098
SingleSource/Benchmarks/CoyoteBench/huffbench, 0.0874, 0.0877, 0.0876, 0.0877, 0.0876,0.0876, 0.0859, 0.0858, 0.0858, 0.0859, 0.0857,0.0858,-2.0547945205479423
SingleSource/Benchmarks/Misc/mandel-2, 0.0343, 0.0457, 0.0365, 0.0545, 0.0294,0.0365, 0.0295, 0.0400, 0.0363, 0.0296, 0.0293,0.0296,-18.904109589041084
Total elapsed time,-,-,-,-,-,349.4136999999995,-,-,-,-,-,349.8586000000002,0.12732757759661428
Total failure,-,-,-,-,-,0,-,-,-,-,-,0,
