Benchmarks,/mnt/freezedisk/llvm-intptr-base-release/bin/clang,/mnt/freezedisk/llvm-intptr-base-release/bin/clang,/mnt/freezedisk/llvm-intptr-base-release/bin/clang,/mnt/freezedisk/llvm-intptr-base-release/bin/clang,/mnt/freezedisk/llvm-intptr-base-release/bin/clang,median,/mnt/freezedisk/llvm-intptr-intptr-release/bin/clang,/mnt/freezedisk/llvm-intptr-intptr-release/bin/clang,/mnt/freezedisk/llvm-intptr-intptr-release/bin/clang,/mnt/freezedisk/llvm-intptr-intptr-release/bin/clang,/mnt/freezedisk/llvm-intptr-intptr-release/bin/clang,median
MultiSource/Applications/ALAC/decode/alacconvert-decode, 1.0205, 1.0227, 1.0220, 1.0214, 1.0223,1.022, 1.0196, 1.0198, 1.0199, 1.0206, 1.0194,1.0198
MultiSource/Applications/ALAC/encode/alacconvert-encode, 1.0327, 1.0345, 1.0333, 1.0338, 1.0321,1.0333, 1.0334, 1.0320, 1.0333, 1.0333, 1.0328,1.0333
MultiSource/Applications/ClamAV/clamscan,12.9287,12.9395,12.9585,12.9275,12.9711,12.9395,12.9362,12.9484,12.9454,12.9404,12.9506,12.9454
MultiSource/Applications/JM/ldecod/ldecod, 6.5556, 6.5524, 6.5536, 6.5486, 6.5431,6.5524, 6.5613, 6.5481, 6.5491, 6.5532, 6.5526,6.5526
MultiSource/Applications/JM/lencod/lencod,14.9916,15.0031,14.9910,15.0178,15.0031,15.0031,15.0136,15.0056,15.0218,15.0345,15.0538,15.0218
MultiSource/Applications/SIBsim4/SIBsim4, 1.2616, 1.2529, 1.2576, 1.2525, 1.2539,1.2539, 1.2521, 1.2502, 1.2547, 1.2568, 1.2552,1.2547
MultiSource/Applications/SPASS/SPASS,11.8543,11.8462,11.8550,11.8596,11.8672,11.855,11.8278,11.8454,11.8283,11.8433,11.8417,11.8417
MultiSource/Applications/aha/aha, 0.0955, 0.0950, 0.0952, 0.0953, 0.0956,0.0953, 0.0947, 0.0947, 0.0948, 0.0948, 0.0948,0.0948
MultiSource/Applications/d/make_dparser, 2.5161, 2.5034, 2.5083, 2.5166, 2.5166,2.5161, 2.5147, 2.5118, 2.5117, 2.5191, 2.5134,2.5134
MultiSource/Applications/hbd/hbd, 1.1493, 1.1455, 1.1473, 1.1488, 1.1500,1.1488, 1.1460, 1.1490, 1.1473, 1.1484, 1.1462,1.1473
MultiSource/Applications/hexxagon/hexxagon, 0.6954, 0.6960, 0.6965, 0.6975, 0.6982,0.6965, 0.6931, 0.6956, 0.6960, 0.6951, 0.6946,0.6951
MultiSource/Applications/kimwitu++/kc,10.3095,10.3203,10.3176,10.3463,10.3455,10.3203,10.3121,10.3231,10.2991,10.3257,10.3276,10.3231
MultiSource/Applications/lambda-0.1.3/lambda, 0.5109, 0.5111, 0.5108, 0.5108, 0.5113,0.5109, 0.5089, 0.5115, 0.5104, 0.5120, 0.5109,0.5109
MultiSource/Applications/lua/lua, 3.0698, 3.0702, 3.0688, 3.0721, 3.0729,3.0702, 3.0529, 3.0584, 3.0521, 3.0592, 3.0549,3.0549
MultiSource/Applications/minisat/minisat, 0.6048, 0.6051, 0.6048, 0.6056, 0.6064,0.6051, 0.6044, 0.6062, 0.6054, 0.6056, 0.6052,0.6054
MultiSource/Applications/obsequi/Obsequi, 1.0190, 1.0310, 1.0226, 1.0201, 1.0258,1.0226, 1.0174, 1.0266, 1.0345, 1.0211, 1.0167,1.0211
MultiSource/Applications/oggenc/oggenc, 4.8490, 4.8591, 4.8487, 4.8576, 4.8672,4.8576, 4.8532, 4.8536, 4.8624, 4.8588, 4.8614,4.8588
MultiSource/Applications/sgefa/sgefa, 0.3987, 0.3984, 0.3985, 0.3989, 0.3990,0.3987, 0.3982, 0.3983, 0.3984, 0.3983, 0.3994,0.3983
MultiSource/Applications/siod/siod, 1.8481, 1.8555, 1.8529, 1.8499, 1.8546,1.8529, 1.8450, 1.8427, 1.8509, 1.8477, 1.8405,1.845
MultiSource/Applications/spiff/spiff, 0.7077, 0.7040, 0.7044, 0.7062, 0.7061,0.7061, 0.7059, 0.7035, 0.7047, 0.7040, 0.7044,0.7044
MultiSource/Applications/sqlite3/sqlite3,12.5937,12.5972,12.5985,12.5858,12.5999,12.5972,12.6202,12.6204,12.5854,12.5874,12.6130,12.613
MultiSource/Applications/viterbi/viterbi, 0.1567, 0.1564, 0.1566, 0.1569, 0.1571,0.1567, 0.1565, 0.1563, 0.1565, 0.1567, 0.1564,0.1565
MultiSource/Benchmarks/7zip/7zip-benchmark,33.4691,33.5184,33.4828,33.5066,33.5250,33.5066,33.4397,33.4616,33.4306,33.4543,33.4762,33.4543
MultiSource/Benchmarks/ASCI_Purple/SMG2000/smg2000, 6.0457, 6.0519, 6.0392, 6.0466, 6.0501,6.0466, 6.0350, 6.0368, 6.0363, 6.0393, 6.0456,6.0368
MultiSource/Benchmarks/ASC_Sequoia/AMGmk/AMGmk, 0.5795, 0.5799, 0.5800, 0.5802, 0.5790,0.5799, 0.5785, 0.5784, 0.5789, 0.5784, 0.5794,0.5785
MultiSource/Benchmarks/ASC_Sequoia/CrystalMk/CrystalMk, 0.2311, 0.2309, 0.2305, 0.2309, 0.2311,0.2309, 0.2308, 0.2305, 0.2308, 0.2310, 0.2311,0.2308
MultiSource/Benchmarks/ASC_Sequoia/IRSmk/IRSmk, 0.0962, 0.0965, 0.0966, 0.0964, 0.0965,0.0965, 0.0963, 0.0961, 0.0966, 0.0962, 0.0965,0.0963
MultiSource/Benchmarks/BitBench/drop3/drop3, 0.0412, 0.0411, 0.0411, 0.0412, 0.0412,0.0412, 0.0411, 0.0410, 0.0410, 0.0410, 0.0408,0.041
MultiSource/Benchmarks/BitBench/five11/five11, 0.0535, 0.0536, 0.0533, 0.0533, 0.0533,0.0533, 0.0533, 0.0534, 0.0534, 0.0533, 0.0533,0.0533
MultiSource/Benchmarks/BitBench/uudecode/uudecode, 0.0428, 0.0430, 0.0427, 0.0428, 0.0428,0.0428, 0.0428, 0.0429, 0.0429, 0.0428, 0.0428,0.0428
MultiSource/Benchmarks/BitBench/uuencode/uuencode, 0.0418, 0.0419, 0.0418, 0.0417, 0.0418,0.0418, 0.0418, 0.0419, 0.0419, 0.0417, 0.0416,0.0418
MultiSource/Benchmarks/Bullet/bullet,22.4461,22.4526,22.4363,22.4543,22.4483,22.4483,22.3998,22.4124,22.3922,22.4039,22.4175,22.4039
MultiSource/Benchmarks/DOE-ProxyApps-C/XSBench/XSBench, 0.3394, 0.3398, 0.3393, 0.3396, 0.3392,0.3394, 0.3388, 0.3388, 0.3381, 0.3390, 0.3390,0.3388
MultiSource/Benchmarks/Fhourstones-3.1/fhourstones3.1, 0.1289, 0.1292, 0.1291, 0.1290, 0.1292,0.1291, 0.1287, 0.1287, 0.1291, 0.1293, 0.1297,0.1291
MultiSource/Benchmarks/Fhourstones/fhourstones, 0.1589, 0.1588, 0.1596, 0.1595, 0.1590,0.159, 0.1593, 0.1588, 0.1595, 0.1594, 0.1595,0.1594
MultiSource/Benchmarks/FreeBench/analyzer/analyzer, 0.2387, 0.2391, 0.2392, 0.2394, 0.2395,0.2392, 0.2386, 0.2389, 0.2391, 0.2395, 0.2388,0.2389
MultiSource/Benchmarks/FreeBench/distray/distray, 0.0935, 0.0936, 0.0931, 0.0934, 0.0932,0.0934, 0.0927, 0.0929, 0.0928, 0.0929, 0.0931,0.0929
MultiSource/Benchmarks/FreeBench/fourinarow/fourinarow, 0.3739, 0.3751, 0.3734, 0.3735, 0.3735,0.3735, 0.3734, 0.3736, 0.3732, 0.3735, 0.3736,0.3735
MultiSource/Benchmarks/FreeBench/mason/mason, 0.0464, 0.0465, 0.0465, 0.0466, 0.0466,0.0465, 0.0465, 0.0464, 0.0466, 0.0464, 0.0467,0.0465
MultiSource/Benchmarks/FreeBench/neural/neural, 0.1788, 0.1788, 0.1790, 0.1793, 0.1791,0.179, 0.1786, 0.1787, 0.1791, 0.1788, 0.1794,0.1788
MultiSource/Benchmarks/FreeBench/pcompress2/pcompress2, 0.2458, 0.2589, 0.2614, 0.2474, 0.2561,0.2561, 0.2506, 0.2393, 0.2570, 0.2548, 0.2505,0.2506
MultiSource/Benchmarks/FreeBench/pifft/pifft, 1.0850, 1.0871, 1.0854, 1.0862, 1.0860,1.086, 1.0846, 1.0843, 1.0830, 1.0849, 1.0848,1.0846
MultiSource/Benchmarks/MallocBench/cfrac/cfrac, 0.8084, 0.8066, 0.8072, 0.8089, 0.8084,0.8084, 0.8061, 0.8049, 0.8065, 0.8062, 0.8043,0.8061
MultiSource/Benchmarks/MallocBench/espresso/espresso, 4.8434, 4.8399, 4.8437, 4.8418, 4.8442,4.8434, 4.8318, 4.8237, 4.8292, 4.8431, 4.8347,4.8318
MultiSource/Benchmarks/MallocBench/gs/gs, 3.5381, 3.5304, 3.5365, 3.5365, 3.5368,3.5365, 3.5254, 3.5248, 3.5229, 3.5266, 3.5288,3.5254
MultiSource/Benchmarks/McCat/01-qbsort/qbsort, 0.0905, 0.0904, 0.0900, 0.0901, 0.0902,0.0902, 0.0897, 0.0903, 0.0897, 0.0899, 0.0897,0.0897
MultiSource/Benchmarks/McCat/03-testtrie/testtrie, 0.0848, 0.0844, 0.0845, 0.0847, 0.0845,0.0845, 0.0844, 0.0842, 0.0845, 0.0842, 0.0844,0.0844
MultiSource/Benchmarks/McCat/04-bisect/bisect, 0.1248, 0.1251, 0.1253, 0.1251, 0.1252,0.1251, 0.1244, 0.1246, 0.1251, 0.1245, 0.1247,0.1246
MultiSource/Benchmarks/McCat/05-eks/eks, 0.5897, 0.5898, 0.5895, 0.5900, 0.5897,0.5897, 0.5900, 0.5897, 0.5903, 0.5895, 0.5901,0.59
MultiSource/Benchmarks/McCat/08-main/main, 0.2215, 0.2209, 0.2207, 0.2213, 0.2209,0.2209, 0.2202, 0.2203, 0.2202, 0.2202, 0.2209,0.2202
MultiSource/Benchmarks/McCat/09-vor/vor, 0.2557, 0.2554, 0.2552, 0.2558, 0.2556,0.2556, 0.2550, 0.2552, 0.2555, 0.2551, 0.2553,0.2552
MultiSource/Benchmarks/McCat/12-IOtest/iotest, 0.0855, 0.0854, 0.0851, 0.0855, 0.0850,0.0854, 0.0848, 0.0849, 0.0846, 0.0849, 0.0847,0.0848
MultiSource/Benchmarks/McCat/17-bintr/bintr, 0.0651, 0.0649, 0.0649, 0.0651, 0.0651,0.0651, 0.0650, 0.0645, 0.0646, 0.0649, 0.0647,0.0647
MultiSource/Benchmarks/McCat/18-imp/imp, 0.3311, 0.3319, 0.3312, 0.3317, 0.3314,0.3314, 0.3315, 0.3315, 0.3315, 0.3319, 0.3317,0.3315
MultiSource/Benchmarks/MiBench/automotive-basicmath/automotive-basicmath, 0.1358, 0.1354, 0.1350, 0.1357, 0.1354,0.1354, 0.1350, 0.1352, 0.1345, 0.1347, 0.1348,0.1348
MultiSource/Benchmarks/MiBench/automotive-bitcount/automotive-bitcount, 0.2411, 0.2413, 0.2410, 0.2416, 0.2409,0.2411, 0.2400, 0.2413, 0.2404, 0.2403, 0.2400,0.2403
MultiSource/Benchmarks/MiBench/automotive-susan/automotive-susan, 0.8711, 0.8714, 0.8719, 0.8691, 0.8761,0.8714, 0.8746, 0.8731, 0.8668, 0.8761, 0.8738,0.8738
MultiSource/Benchmarks/MiBench/consumer-jpeg/consumer-jpeg, 4.2797, 4.2828, 4.2790, 4.2816, 4.2810,4.281, 4.2761, 4.2524, 4.2735, 4.2795, 4.2815,4.2761
MultiSource/Benchmarks/MiBench/consumer-lame/consumer-lame, 4.2355, 4.2290, 4.2162, 4.2380, 4.2364,4.2355, 4.2284, 4.2179, 4.2226, 4.2281, 4.2307,4.2281
MultiSource/Benchmarks/MiBench/consumer-typeset/consumer-typeset, 9.6446, 9.6497, 9.6442, 9.6406, 9.6460,9.6446, 9.6526, 9.6456, 9.6540, 9.6472, 9.6515,9.6515
MultiSource/Benchmarks/MiBench/network-dijkstra/network-dijkstra, 0.0409, 0.0409, 0.0409, 0.0414, 0.0410,0.0409, 0.0408, 0.0409, 0.0407, 0.0409, 0.0408,0.0408
MultiSource/Benchmarks/MiBench/network-patricia/network-patricia, 0.0767, 0.0766, 0.0763, 0.0766, 0.0766,0.0766, 0.0766, 0.0765, 0.0764, 0.0768, 0.0766,0.0766
MultiSource/Benchmarks/MiBench/security-rijndael/security-rijndael, 0.4001, 0.3994, 0.3985, 0.3990, 0.4000,0.3994, 0.3998, 0.3997, 0.3991, 0.3988, 0.3991,0.3991
MultiSource/Benchmarks/MiBench/security-sha/security-sha, 0.1299, 0.1298, 0.1299, 0.1297, 0.1302,0.1299, 0.1296, 0.1295, 0.1293, 0.1298, 0.1294,0.1295
MultiSource/Benchmarks/MiBench/telecomm-CRC32/telecomm-CRC32, 0.0335, 0.0331, 0.0329, 0.0329, 0.0331,0.0331, 0.0328, 0.0329, 0.0329, 0.0329, 0.0330,0.0329
MultiSource/Benchmarks/MiBench/telecomm-FFT/telecomm-fft, 0.1545, 0.1546, 0.1560, 0.1561, 0.1548,0.1548, 0.1542, 0.1550, 0.1554, 0.1559, 0.1546,0.155
MultiSource/Benchmarks/MiBench/telecomm-adpcm/telecomm-adpcm, 0.0653, 0.0658, 0.0653, 0.0645, 0.0670,0.0653, 0.0647, 0.0648, 0.0665, 0.0652, 0.0653,0.0652
MultiSource/Benchmarks/MiBench/telecomm-gsm/telecomm-gsm, 1.0619, 1.0618, 1.0638, 1.0622, 1.0629,1.0622, 1.0616, 1.0616, 1.0611, 1.0645, 1.0625,1.0616
MultiSource/Benchmarks/NPB-serial/is/is, 0.0697, 0.0696, 0.0696, 0.0698, 0.0698,0.0697, 0.0697, 0.0695, 0.0695, 0.0696, 0.0695,0.0695
MultiSource/Benchmarks/Olden/bh/bh, 0.2498, 0.2507, 0.2500, 0.2512, 0.2510,0.2507, 0.2489, 0.2492, 0.2499, 0.2506, 0.2497,0.2497
MultiSource/Benchmarks/Olden/bisort/bisort, 0.0590, 0.0591, 0.0592, 0.0589, 0.0591,0.0591, 0.0589, 0.0591, 0.0590, 0.0590, 0.0589,0.059
MultiSource/Benchmarks/Olden/em3d/em3d, 0.1723, 0.1716, 0.1725, 0.1727, 0.1723,0.1723, 0.1714, 0.1720, 0.1718, 0.1717, 0.1722,0.1718
MultiSource/Benchmarks/Olden/health/health, 0.1278, 0.1278, 0.1276, 0.1281, 0.1278,0.1278, 0.1271, 0.1275, 0.1270, 0.1272, 0.1272,0.1272
MultiSource/Benchmarks/Olden/mst/mst, 0.1242, 0.1242, 0.1238, 0.1244, 0.1243,0.1242, 0.1241, 0.1245, 0.1240, 0.1241, 0.1241,0.1241
MultiSource/Benchmarks/Olden/perimeter/perimeter, 0.0711, 0.0709, 0.0708, 0.0714, 0.0713,0.0711, 0.0707, 0.0710, 0.0709, 0.0709, 0.0708,0.0709
MultiSource/Benchmarks/Olden/power/power, 0.1209, 0.1204, 0.1203, 0.1209, 0.1211,0.1209, 0.1202, 0.1199, 0.1199, 0.1203, 0.1199,0.1199
MultiSource/Benchmarks/Olden/treeadd/treeadd, 0.0503, 0.0498, 0.0502, 0.0500, 0.0501,0.0501, 0.0499, 0.0498, 0.0497, 0.0498, 0.0497,0.0498
MultiSource/Benchmarks/Olden/tsp/tsp, 0.1144, 0.1134, 0.1140, 0.1142, 0.1140,0.114, 0.1135, 0.1135, 0.1134, 0.1137, 0.1137,0.1135
MultiSource/Benchmarks/Olden/voronoi/voronoi, 0.2249, 0.2247, 0.2243, 0.2246, 0.2248,0.2247, 0.2217, 0.2225, 0.2219, 0.2216, 0.2216,0.2217
MultiSource/Benchmarks/PAQ8p/paq8p, 2.0468, 2.0507, 2.0484, 2.0479, 2.0560,2.0484, 2.0518, 2.0553, 2.0500, 2.0604, 2.0513,2.0518
MultiSource/Benchmarks/Prolangs-C++/city/city, 0.8758, 0.8805, 0.8750, 0.8769, 0.8799,0.8769, 0.8717, 0.8724, 0.8717, 0.8730, 0.8722,0.8722
MultiSource/Benchmarks/Prolangs-C++/employ/employ, 0.1915, 0.1927, 0.1915, 0.1923, 0.1919,0.1919, 0.1918, 0.1918, 0.1909, 0.1919, 0.1911,0.1918
MultiSource/Benchmarks/Prolangs-C++/life/life, 0.0629, 0.0628, 0.0629, 0.0627, 0.0629,0.0629, 0.0631, 0.0630, 0.0630, 0.0629, 0.0632,0.063
MultiSource/Benchmarks/Prolangs-C++/ocean/ocean, 0.1016, 0.1021, 0.1016, 0.1021, 0.1022,0.1021, 0.1019, 0.1018, 0.1017, 0.1016, 0.1019,0.1018
MultiSource/Benchmarks/Prolangs-C++/primes/primes, 0.0228, 0.0228, 0.0226, 0.0227, 0.0227,0.0227, 0.0227, 0.0225, 0.0226, 0.0226, 0.0227,0.0226
MultiSource/Benchmarks/Prolangs-C++/simul/simul, 0.0489, 0.0490, 0.0489, 0.0490, 0.0490,0.049, 0.0491, 0.0490, 0.0490, 0.0490, 0.0497,0.049
MultiSource/Benchmarks/Prolangs-C/agrep/agrep, 1.3107, 1.3123, 1.3098, 1.3109, 1.3112,1.3109, 1.3088, 1.3108, 1.3100, 1.3103, 1.3114,1.3103
MultiSource/Benchmarks/Prolangs-C/bison/mybison, 1.5684, 1.5691, 1.5676, 1.5693, 1.5700,1.5691, 1.5693, 1.5682, 1.5677, 1.5693, 1.5724,1.5693
MultiSource/Benchmarks/Prolangs-C/gnugo/gnugo, 0.6961, 0.6935, 0.6944, 0.6960, 0.6951,0.6951, 0.6950, 0.6932, 0.6932, 0.6941, 0.6923,0.6932
MultiSource/Benchmarks/Ptrdist/anagram/anagram, 0.0952, 0.0953, 0.0951, 0.0953, 0.0955,0.0953, 0.0954, 0.0952, 0.0952, 0.0954, 0.0953,0.0953
MultiSource/Benchmarks/Ptrdist/bc/bc, 0.9928, 0.9918, 0.9921, 0.9944, 0.9934,0.9928, 0.9913, 0.9919, 0.9924, 0.9924, 0.9918,0.9919
MultiSource/Benchmarks/Ptrdist/ft/ft, 0.1930, 0.1937, 0.1925, 0.1937, 0.1929,0.193, 0.1927, 0.1921, 0.1925, 0.1925, 0.1922,0.1925
MultiSource/Benchmarks/Ptrdist/ks/ks, 0.1354, 0.1356, 0.1352, 0.1353, 0.1354,0.1354, 0.1351, 0.1347, 0.1348, 0.1350, 0.1349,0.1349
MultiSource/Benchmarks/Ptrdist/yacr2/yacr2, 0.6102, 0.6098, 0.6097, 0.6105, 0.6109,0.6102, 0.6100, 0.6092, 0.6103, 0.6099, 0.6105,0.61
MultiSource/Benchmarks/SciMark2-C/scimark2, 0.3714, 0.3726, 0.3705, 0.3720, 0.3720,0.372, 0.3706, 0.3709, 0.3707, 0.3710, 0.3708,0.3708
MultiSource/Benchmarks/TSVC/ControlFlow-dbl/ControlFlow-dbl, 2.6208, 2.5995, 2.6234, 2.6176, 2.6184,2.6184, 2.6066, 2.6260, 2.6287, 2.6020, 2.6458,2.626
MultiSource/Benchmarks/TSVC/ControlFlow-flt/ControlFlow-flt, 2.3554, 2.3696, 2.3663, 2.3587, 2.3498,2.3587, 2.3667, 2.3750, 2.3505, 2.3694, 2.3729,2.3694
MultiSource/Benchmarks/TSVC/ControlLoops-dbl/ControlLoops-dbl, 2.5049, 2.5092, 2.5118, 2.5059, 2.5057,2.5059, 2.5130, 2.5142, 2.5154, 2.5194, 2.5185,2.5154
MultiSource/Benchmarks/TSVC/ControlLoops-flt/ControlLoops-flt, 2.2476, 2.2847, 2.2471, 2.2511, 2.2699,2.2511, 2.2574, 2.2577, 2.2564, 2.2634, 2.2686,2.2577
MultiSource/Benchmarks/TSVC/CrossingThresholds-dbl/CrossingThresholds-dbl, 2.4591, 2.4496, 2.4457, 2.4551, 2.4492,2.4496, 2.4566, 2.4554, 2.4561, 2.4631, 2.4664,2.4566
MultiSource/Benchmarks/TSVC/CrossingThresholds-flt/CrossingThresholds-flt, 2.1837, 2.1869, 2.1819, 2.1914, 2.1988,2.1869, 2.2172, 2.1989, 2.2010, 2.2025, 2.1894,2.201
MultiSource/Benchmarks/TSVC/Equivalencing-dbl/Equivalencing-dbl, 2.4505, 2.4522, 2.4552, 2.4538, 2.4516,2.4522, 2.4650, 2.4593, 2.4619, 2.4644, 2.4672,2.4644
MultiSource/Benchmarks/TSVC/Equivalencing-flt/Equivalencing-flt, 2.1906, 2.1990, 2.1915, 2.1953, 2.1967,2.1953, 2.2038, 2.2000, 2.2015, 2.2044, 2.2063,2.2038
MultiSource/Benchmarks/TSVC/Expansion-dbl/Expansion-dbl, 2.5050, 2.4882, 2.5036, 2.5108, 2.5090,2.505, 2.5138, 2.5110, 2.5141, 2.4918, 2.5233,2.5138
MultiSource/Benchmarks/TSVC/Expansion-flt/Expansion-flt, 2.2434, 2.2470, 2.2263, 2.2443, 2.2429,2.2434, 2.2560, 2.2559, 2.2590, 2.2594, 2.2628,2.259
MultiSource/Benchmarks/TSVC/GlobalDataFlow-dbl/GlobalDataFlow-dbl, 2.4952, 2.4970, 2.4944, 2.4955, 2.4942,2.4952, 2.5063, 2.5098, 2.5027, 2.5056, 2.5078,2.5063
MultiSource/Benchmarks/TSVC/GlobalDataFlow-flt/GlobalDataFlow-flt, 2.2128, 2.2424, 2.2362, 2.2343, 2.2353,2.2353, 2.2639, 2.2540, 2.2511, 2.2532, 2.2544,2.254
MultiSource/Benchmarks/TSVC/IndirectAddressing-dbl/IndirectAddressing-dbl, 2.4088, 2.4332, 2.4225, 2.4350, 2.4328,2.4328, 2.4372, 2.4353, 2.4364, 2.4398, 2.4407,2.4372
MultiSource/Benchmarks/TSVC/IndirectAddressing-flt/IndirectAddressing-flt, 2.1530, 2.1735, 2.1687, 2.1684, 2.1712,2.1687, 2.1823, 2.1827, 2.1838, 2.1839, 2.1870,2.1838
MultiSource/Benchmarks/TSVC/InductionVariable-dbl/InductionVariable-dbl, 2.4648, 2.4628, 2.4662, 2.4687, 2.4663,2.4662, 2.4581, 2.4751, 2.4763, 2.4692, 2.4846,2.4751
MultiSource/Benchmarks/TSVC/InductionVariable-flt/InductionVariable-flt, 2.2098, 2.2116, 2.2115, 2.2186, 2.2127,2.2116, 2.2184, 2.2179, 2.2146, 2.2234, 2.2215,2.2184
MultiSource/Benchmarks/TSVC/LinearDependence-dbl/LinearDependence-dbl, 2.5350, 2.5453, 2.5237, 2.5463, 2.5414,2.5414, 2.5453, 2.5464, 2.5538, 2.5499, 2.5509,2.5499
MultiSource/Benchmarks/TSVC/LinearDependence-flt/LinearDependence-flt, 2.2827, 2.2815, 2.2786, 2.2779, 2.2818,2.2815, 2.2652, 2.2877, 2.2913, 2.2764, 2.3040,2.2877
MultiSource/Benchmarks/TSVC/LoopRerolling-dbl/LoopRerolling-dbl, 2.4063, 2.4013, 2.3874, 2.4014, 2.4012,2.4013, 2.4080, 2.4097, 2.4098, 2.4133, 2.4143,2.4098
MultiSource/Benchmarks/TSVC/LoopRerolling-flt/LoopRerolling-flt, 2.1147, 2.1407, 2.1369, 2.1335, 2.1462,2.1369, 2.1505, 2.1482, 2.1516, 2.1518, 2.1531,2.1516
MultiSource/Benchmarks/TSVC/LoopRestructuring-dbl/LoopRestructuring-dbl, 2.4667, 2.4720, 2.4642, 2.4658, 2.4466,2.4658, 2.4783, 2.4460, 2.4540, 2.4792, 2.4788,2.4783
MultiSource/Benchmarks/TSVC/LoopRestructuring-flt/LoopRestructuring-flt, 2.2304, 2.2149, 2.2114, 2.2160, 2.2148,2.2149, 2.2005, 2.2235, 2.2188, 2.2144, 2.2241,2.2188
MultiSource/Benchmarks/TSVC/NodeSplitting-dbl/NodeSplitting-dbl, 2.4138, 2.4303, 2.4250, 2.4114, 2.4305,2.425, 2.4351, 2.4328, 2.4344, 2.4378, 2.4505,2.4351
MultiSource/Benchmarks/TSVC/NodeSplitting-flt/NodeSplitting-flt, 2.1958, 2.1963, 2.1829, 2.1731, 2.1864,2.1864, 2.1747, 2.1810, 2.1787, 2.1981, 2.1772,2.1787
MultiSource/Benchmarks/TSVC/Packing-dbl/Packing-dbl, 2.3831, 2.3902, 2.3830, 2.3855, 2.3653,2.3831, 2.3970, 2.3719, 2.3763, 2.3990, 2.3866,2.3866
MultiSource/Benchmarks/TSVC/Packing-flt/Packing-flt, 2.1294, 2.1353, 2.1291, 2.1267, 2.1394,2.1294, 2.1364, 2.1436, 2.1365, 2.1459, 2.1612,2.1436
MultiSource/Benchmarks/TSVC/Recurrences-dbl/Recurrences-dbl, 2.3856, 2.3872, 2.3846, 2.3880, 2.3865,2.3865, 2.3968, 2.3837, 2.3900, 2.3992, 2.3883,2.39
MultiSource/Benchmarks/TSVC/Recurrences-flt/Recurrences-flt, 2.1272, 2.1452, 2.1281, 2.1277, 2.1263,2.1277, 2.1378, 2.1359, 2.1381, 2.1411, 2.1416,2.1381
MultiSource/Benchmarks/TSVC/Reductions-dbl/Reductions-dbl, 2.5029, 2.5013, 2.5079, 2.5115, 2.5057,2.5057, 2.5141, 2.5175, 2.5212, 2.5106, 2.5198,2.5175
MultiSource/Benchmarks/TSVC/Reductions-flt/Reductions-flt, 2.2475, 2.2570, 2.2481, 2.2516, 2.2509,2.2509, 2.2544, 2.2540, 2.2557, 2.2606, 2.2726,2.2557
MultiSource/Benchmarks/TSVC/Searching-dbl/Searching-dbl, 2.3660, 2.3696, 2.3665, 2.3772, 2.3710,2.3696, 2.3787, 2.3794, 2.3797, 2.3836, 2.3864,2.3797
MultiSource/Benchmarks/TSVC/Searching-flt/Searching-flt, 2.1233, 2.1181, 2.1088, 2.1086, 2.1094,2.1094, 2.1223, 2.1222, 2.1236, 2.1267, 2.1314,2.1236
MultiSource/Benchmarks/TSVC/StatementReordering-dbl/StatementReordering-dbl, 2.3660, 2.3887, 2.3608, 2.3853, 2.3918,2.3853, 2.4071, 2.4013, 2.4005, 2.4067, 2.4040,2.404
MultiSource/Benchmarks/TSVC/StatementReordering-flt/StatementReordering-flt, 2.1303, 2.1363, 2.1425, 2.1332, 2.1389,2.1363, 2.1468, 2.1254, 2.1347, 2.1446, 2.1379,2.1379
MultiSource/Benchmarks/TSVC/Symbolics-dbl/Symbolics-dbl, 2.4384, 2.4426, 2.4370, 2.4410, 2.4329,2.4384, 2.4536, 2.4488, 2.4226, 2.4529, 2.4551,2.4529
MultiSource/Benchmarks/TSVC/Symbolics-flt/Symbolics-flt, 2.1661, 2.1841, 2.1738, 2.1837, 2.1851,2.1837, 2.1922, 2.1918, 2.1933, 2.1940, 2.1945,2.1933
MultiSource/Benchmarks/Trimaran/enc-3des/enc-3des, 0.2626, 0.2627, 0.2621, 0.2631, 0.2626,0.2626, 0.2655, 0.2638, 0.2653, 0.2652, 0.2640,0.2652
MultiSource/Benchmarks/Trimaran/enc-md5/enc-md5, 0.1671, 0.1668, 0.1668, 0.1672, 0.1671,0.1671, 0.1682, 0.1679, 0.1678, 0.1683, 0.1683,0.1682
MultiSource/Benchmarks/Trimaran/enc-pc1/enc-pc1, 0.0654, 0.0653, 0.0651, 0.0653, 0.0653,0.0653, 0.0654, 0.0654, 0.0655, 0.0654, 0.0654,0.0654
MultiSource/Benchmarks/Trimaran/enc-rc4/enc-rc4, 0.0498, 0.0497, 0.0498, 0.0503, 0.0497,0.0498, 0.0496, 0.0497, 0.0497, 0.0498, 0.0498,0.0497
MultiSource/Benchmarks/Trimaran/netbench-crc/netbench-crc, 0.0770, 0.0771, 0.0766, 0.0771, 0.0771,0.0771, 0.0771, 0.0770, 0.0769, 0.0770, 0.0771,0.077
MultiSource/Benchmarks/Trimaran/netbench-url/netbench-url, 0.2003, 0.2006, 0.1999, 0.2011, 0.2004,0.2004, 0.1994, 0.1998, 0.2000, 0.2001, 0.2000,0.2
MultiSource/Benchmarks/VersaBench/8b10b/8b10b, 0.0692, 0.0694, 0.0692, 0.0693, 0.0694,0.0693, 0.0690, 0.0693, 0.0690, 0.0690, 0.0690,0.069
MultiSource/Benchmarks/VersaBench/beamformer/beamformer, 0.3780, 0.3768, 0.3765, 0.3767, 0.3774,0.3768, 0.3764, 0.3768, 0.3775, 0.3773, 0.3777,0.3773
MultiSource/Benchmarks/VersaBench/bmm/bmm, 0.0550, 0.0550, 0.0549, 0.0550, 0.0550,0.055, 0.0548, 0.0546, 0.0548, 0.0548, 0.0548,0.0548
MultiSource/Benchmarks/VersaBench/dbms/dbms, 0.8734, 0.8699, 0.8720, 0.8739, 0.8732,0.8732, 0.8708, 0.8696, 0.8695, 0.8703, 0.8676,0.8696
MultiSource/Benchmarks/VersaBench/ecbdes/ecbdes, 0.2158, 0.2155, 0.2159, 0.2162, 0.2161,0.2159, 0.2170, 0.2167, 0.2163, 0.2173, 0.2172,0.217
MultiSource/Benchmarks/llubenchmark/llu, 0.0492, 0.0491, 0.0491, 0.0489, 0.0492,0.0491, 0.0491, 0.0490, 0.0490, 0.0489, 0.0491,0.049
MultiSource/Benchmarks/mafft/pairlocalalign, 9.4198, 9.4322, 9.4200, 9.4295, 9.4282,9.4282, 9.4304, 9.4209, 9.4278, 9.4390, 9.4461,9.4304
MultiSource/Benchmarks/mediabench/adpcm/rawcaudio/rawcaudio, 0.0544, 0.0542, 0.0544, 0.0543, 0.0545,0.0544, 0.0540, 0.0541, 0.0539, 0.0539, 0.0544,0.054
MultiSource/Benchmarks/mediabench/adpcm/rawdaudio/rawdaudio, 0.0542, 0.0539, 0.0539, 0.0541, 0.0542,0.0541, 0.0539, 0.0541, 0.0539, 0.0539, 0.0539,0.0539
MultiSource/Benchmarks/mediabench/g721/g721encode/encode, 0.1891, 0.1881, 0.1887, 0.1889, 0.1884,0.1887, 0.1885, 0.2078, 0.1885, 0.1887, 0.1878,0.1885
MultiSource/Benchmarks/mediabench/gsm/toast/toast, 1.0609, 1.0603, 1.0608, 1.0613, 1.0603,1.0608, 1.0599, 1.0597, 1.0592, 1.0603, 1.0608,1.0599
MultiSource/Benchmarks/mediabench/jpeg/jpeg-6a/cjpeg, 4.2918, 4.2949, 4.2974, 4.2957, 4.3066,4.2957, 4.2842, 4.2739, 4.2953, 4.2937, 4.2978,4.2937
MultiSource/Benchmarks/mediabench/mpeg2/mpeg2dec/mpeg2decode, 1.3179, 1.3183, 1.3185, 1.3182, 1.3180,1.3182, 1.3170, 1.3166, 1.3176, 1.3189, 1.3185,1.3176
MultiSource/Benchmarks/nbench/nbench, 1.2058, 1.2106, 1.2059, 1.2066, 1.2061,1.2061, 1.2068, 1.2056, 1.2057, 1.2072, 1.2068,1.2068
MultiSource/Benchmarks/sim/sim, 0.2951, 0.2960, 0.2947, 0.2960, 0.2960,0.296, 0.2946, 0.2941, 0.2950, 0.2951, 0.2956,0.295
MultiSource/Benchmarks/tramp3d-v4/tramp3d-v4,18.5751,18.5623,18.5723,18.5369,18.5609,18.5623,18.6072,18.5667,18.6114,18.5694,18.5819,18.5819
SingleSource/Benchmarks/Adobe-C++/functionobjects, 0.4615, 0.4596, 0.4603, 0.4589, 0.4598,0.4598, 0.4599, 0.4590, 0.4600, 0.4595, 0.4599,0.4599
SingleSource/Benchmarks/Adobe-C++/loop_unroll, 4.8259, 4.8314, 4.8271, 4.8275, 4.8246,4.8271, 4.8085, 4.8259, 4.8327, 4.8051, 4.8460,4.8259
SingleSource/Benchmarks/Adobe-C++/simple_types_constant_folding, 2.2687, 2.2699, 2.2650, 2.2649, 2.2650,2.265, 2.2611, 2.2621, 2.2666, 2.2633, 2.2673,2.2633
SingleSource/Benchmarks/Adobe-C++/simple_types_loop_invariant, 1.8349, 1.8341, 1.8321, 1.8324, 1.8338,1.8338, 1.8293, 1.8349, 1.8342, 1.8307, 1.8365,1.8342
SingleSource/Benchmarks/Adobe-C++/stepanov_abstraction, 0.6100, 0.6096, 0.6097, 0.6105, 0.6096,0.6097, 0.6083, 0.6090, 0.6100, 0.6104, 0.6114,0.61
SingleSource/Benchmarks/Adobe-C++/stepanov_vector, 0.7616, 0.7584, 0.7579, 0.7575, 0.7587,0.7584, 0.7565, 0.7562, 0.7581, 0.7586, 0.7584,0.7581
SingleSource/Benchmarks/BenchmarkGame/Large/fasta, 0.0415, 0.0416, 0.0418, 0.0418, 0.0418,0.0418, 0.0417, 0.0413, 0.0417, 0.0418, 0.0418,0.0417
SingleSource/Benchmarks/BenchmarkGame/fannkuch, 0.0479, 0.0478, 0.0477, 0.0478, 0.0479,0.0478, 0.0477, 0.0478, 0.0477, 0.0477, 0.0478,0.0477
SingleSource/Benchmarks/BenchmarkGame/n-body, 0.0756, 0.0757, 0.0756, 0.0756, 0.0756,0.0756, 0.0756, 0.0754, 0.0754, 0.0754, 0.0754,0.0754
SingleSource/Benchmarks/BenchmarkGame/nsieve-bits, 0.0311, 0.0311, 0.0311, 0.0311, 0.0311,0.0311, 0.0314, 0.0312, 0.0312, 0.0311, 0.0312,0.0312
SingleSource/Benchmarks/BenchmarkGame/partialsums, 0.0281, 0.0280, 0.0280, 0.0281, 0.0281,0.0281, 0.0277, 0.0277, 0.0278, 0.0278, 0.0278,0.0278
SingleSource/Benchmarks/BenchmarkGame/puzzle, 0.0552, 0.0551, 0.0551, 0.0553, 0.0553,0.0552, 0.0550, 0.0549, 0.0551, 0.0551, 0.0550,0.055
SingleSource/Benchmarks/BenchmarkGame/recursive, 0.0246, 0.0246, 0.0247, 0.0248, 0.0246,0.0246, 0.0246, 0.0246, 0.0245, 0.0246, 0.0245,0.0246
SingleSource/Benchmarks/BenchmarkGame/spectral-norm, 0.0559, 0.0561, 0.0559, 0.0560, 0.0561,0.056, 0.0557, 0.0558, 0.0556, 0.0560, 0.0560,0.0558
SingleSource/Benchmarks/CoyoteBench/almabench, 0.0620, 0.0618, 0.0619, 0.0621, 0.0619,0.0619, 0.0634, 0.0632, 0.0635, 0.0636, 0.0636,0.0635
SingleSource/Benchmarks/CoyoteBench/fftbench, 0.5537, 0.6081, 0.5588, 0.5490, 0.5923,0.5588, 0.5599, 0.5588, 0.5498, 0.5782, 0.6785,0.5599
SingleSource/Benchmarks/CoyoteBench/huffbench, 0.0874, 0.0877, 0.0876, 0.0877, 0.0876,0.0876, 0.0855, 0.0858, 0.0856, 0.0858, 0.0860,0.0858
SingleSource/Benchmarks/CoyoteBench/lpbench, 0.1944, 0.1946, 0.1943, 0.1945, 0.1943,0.1944, 0.1929, 0.1930, 0.1931, 0.1934, 0.1935,0.1931
SingleSource/Benchmarks/Dhrystone/dry, 0.0387, 0.0388, 0.0384, 0.0382, 0.0384,0.0384, 0.0380, 0.0384, 0.0387, 0.0388, 0.0383,0.0384
SingleSource/Benchmarks/Dhrystone/fldry, 0.0410, 0.0409, 0.0410, 0.0411, 0.0410,0.041, 0.0408, 0.0407, 0.0408, 0.0408, 0.0410,0.0408
SingleSource/Benchmarks/Linpack/linpack-pc, 0.3950, 0.3962, 0.3960, 0.3950, 0.3960,0.396, 0.3951, 0.3947, 0.3948, 0.3954, 0.3955,0.3951
SingleSource/Benchmarks/McGill/chomp, 0.1758, 0.1757, 0.1754, 0.1754, 0.1754,0.1754, 0.1757, 0.1753, 0.1755, 0.1760, 0.1754,0.1755
SingleSource/Benchmarks/McGill/misr, 0.0521, 0.0521, 0.0519, 0.0525, 0.0520,0.0521, 0.0522, 0.0522, 0.0521, 0.0523, 0.0523,0.0522
SingleSource/Benchmarks/McGill/queens, 0.0449, 0.0449, 0.0449, 0.0450, 0.0450,0.0449, 0.0448, 0.0448, 0.0450, 0.0449, 0.0451,0.0449
SingleSource/Benchmarks/Misc-C++-EH/spirit, 3.1215, 3.1423, 3.1333, 3.1538, 3.1495,3.1423, 3.1371, 3.1487, 3.1538, 3.1251, 3.1486,3.1486
SingleSource/Benchmarks/Misc-C++/Large/ray, 0.2297, 0.2246, 0.2287, 0.2138, 0.2042,0.2246, 0.2150, 0.2253, 0.2299, 0.2195, 0.2203,0.2203
SingleSource/Benchmarks/Misc-C++/Large/sphereflake, 0.2118, 0.2130, 0.2125, 0.2121, 0.2136,0.2125, 0.2112, 0.2119, 0.2117, 0.2115, 0.2127,0.2117
SingleSource/Benchmarks/Misc-C++/bigfib, 0.4269, 0.4280, 0.4261, 0.4251, 0.4266,0.4266, 0.4240, 0.4253, 0.4254, 0.4254, 0.4245,0.4253
SingleSource/Benchmarks/Misc-C++/mandel-text, 0.0225, 0.0224, 0.0224, 0.0226, 0.0225,0.0225, 0.0225, 0.0225, 0.0225, 0.0224, 0.0224,0.0225
SingleSource/Benchmarks/Misc-C++/oopack_v1p8, 0.1244, 0.1353, 0.1277, 0.1252, 0.1264,0.1264, 0.1258, 0.1330, 0.1288, 0.1277, 0.1266,0.1277
SingleSource/Benchmarks/Misc-C++/stepanov_container, 0.6482, 0.6380, 0.6569, 0.6572, 0.6593,0.6569, 0.6563, 0.6372, 0.6568, 0.6563, 0.6820,0.6563
SingleSource/Benchmarks/Misc-C++/stepanov_v1p2, 0.1704, 0.1705, 0.1702, 0.1703, 0.1704,0.1704, 0.1697, 0.1699, 0.1703, 0.1704, 0.1706,0.1703
SingleSource/Benchmarks/Misc/ReedSolomon, 0.2197, 0.2408, 0.2198, 0.2197, 0.2199,0.2198, 0.2205, 0.2198, 0.2201, 0.2199, 0.2200,0.22
SingleSource/Benchmarks/Misc/dt, 0.0322, 0.0321, 0.0321, 0.0322, 0.0321,0.0321, 0.0320, 0.0321, 0.0321, 0.0320, 0.0320,0.032
SingleSource/Benchmarks/Misc/fbench, 0.0526, 0.0523, 0.0523, 0.0524, 0.0524,0.0524, 0.0521, 0.0519, 0.0518, 0.0521, 0.0519,0.0519
SingleSource/Benchmarks/Misc/ffbench, 0.0789, 0.0789, 0.0789, 0.0790, 0.0790,0.0789, 0.0786, 0.0786, 0.0786, 0.0788, 0.0786,0.0786
SingleSource/Benchmarks/Misc/flops, 0.0730, 0.0729, 0.0731, 0.0729, 0.0732,0.073, 0.0726, 0.0727, 0.0727, 0.0728, 0.0726,0.0727
SingleSource/Benchmarks/Misc/flops-1, 0.0257, 0.0255, 0.0255, 0.0256, 0.0255,0.0255, 0.0252, 0.0252, 0.0252, 0.0252, 0.0253,0.0252
SingleSource/Benchmarks/Misc/flops-2, 0.0273, 0.0273, 0.0271, 0.0273, 0.0272,0.0273, 0.0271, 0.0268, 0.0271, 0.0270, 0.0271,0.0271
SingleSource/Benchmarks/Misc/flops-3, 0.0255, 0.0254, 0.0252, 0.0254, 0.0253,0.0254, 0.0251, 0.0252, 0.0250, 0.0251, 0.0250,0.0251
SingleSource/Benchmarks/Misc/flops-4, 0.0258, 0.0257, 0.0257, 0.0260, 0.0256,0.0257, 0.0255, 0.0258, 0.0253, 0.0255, 0.0255,0.0255
SingleSource/Benchmarks/Misc/flops-5, 0.0265, 0.0266, 0.0265, 0.0267, 0.0266,0.0266, 0.0263, 0.0266, 0.0263, 0.0263, 0.0264,0.0263
SingleSource/Benchmarks/Misc/flops-6, 0.0266, 0.0266, 0.0265, 0.0268, 0.0267,0.0266, 0.0263, 0.0265, 0.0265, 0.0265, 0.0264,0.0265
SingleSource/Benchmarks/Misc/flops-7, 0.0251, 0.0251, 0.0251, 0.0251, 0.0251,0.0251, 0.0249, 0.0250, 0.0249, 0.0249, 0.0248,0.0249
SingleSource/Benchmarks/Misc/flops-8, 0.0262, 0.0261, 0.0260, 0.0261, 0.0261,0.0261, 0.0260, 0.0259, 0.0261, 0.0260, 0.0259,0.026
SingleSource/Benchmarks/Misc/fp-convert, 0.0307, 0.0306, 0.0305, 0.0308, 0.0305,0.0306, 0.0306, 0.0307, 0.0306, 0.0306, 0.0306,0.0306
SingleSource/Benchmarks/Misc/himenobmtxpa, 0.2363, 0.2362, 0.2361, 0.2360, 0.2365,0.2362, 0.2360, 0.2355, 0.2357, 0.2362, 0.2361,0.236
SingleSource/Benchmarks/Misc/lowercase, 0.0246, 0.0245, 0.0246, 0.0246, 0.0247,0.0246, 0.0245, 0.0245, 0.0245, 0.0246, 0.0244,0.0245
SingleSource/Benchmarks/Misc/mandel, 0.0414, 0.0411, 0.0413, 0.0415, 0.0414,0.0414, 0.0412, 0.0411, 0.0412, 0.0412, 0.0413,0.0412
SingleSource/Benchmarks/Misc/mandel-2, 0.0343, 0.0457, 0.0365, 0.0545, 0.0294,0.0365, 0.0542, 0.0295, 0.0296, 0.0296, 0.0493,0.0296
SingleSource/Benchmarks/Misc/matmul_f64_4x4, 0.0287, 0.0287, 0.0287, 0.0288, 0.0289,0.0287, 0.0287, 0.0287, 0.0286, 0.0287, 0.0287,0.0287
SingleSource/Benchmarks/Misc/oourafft, 0.2365, 0.2370, 0.2362, 0.2365, 0.2364,0.2365, 0.2365, 0.2368, 0.2365, 0.2376, 0.2368,0.2368
SingleSource/Benchmarks/Misc/perlin, 0.0441, 0.0442, 0.0441, 0.0443, 0.0442,0.0442, 0.0439, 0.0438, 0.0438, 0.0440, 0.0441,0.0439
SingleSource/Benchmarks/Misc/pi, 0.0198, 0.0196, 0.0197, 0.0197, 0.0197,0.0197, 0.0197, 0.0196, 0.0197, 0.0196, 0.0196,0.0196
SingleSource/Benchmarks/Misc/richards_benchmark, 0.0585, 0.0581, 0.0582, 0.0583, 0.0585,0.0583, 0.0584, 0.0585, 0.0584, 0.0586, 0.0584,0.0584
SingleSource/Benchmarks/Misc/salsa20, 0.0547, 0.0547, 0.0546, 0.0548, 0.0547,0.0547, 0.0545, 0.0543, 0.0544, 0.0543, 0.0545,0.0544
SingleSource/Benchmarks/Misc/whetstone, 0.0686, 0.0686, 0.0684, 0.0687, 0.0685,0.0686, 0.0683, 0.0681, 0.0681, 0.0681, 0.0682,0.0681
SingleSource/Benchmarks/Polybench/datamining/correlation/correlation, 0.0837, 0.0837, 0.0837, 0.0836, 0.0835,0.0837, 0.0835, 0.0837, 0.0832, 0.0834, 0.0834,0.0834
SingleSource/Benchmarks/Polybench/datamining/covariance/covariance, 0.0990, 0.0992, 0.0992, 0.0994, 0.0990,0.0992, 0.0989, 0.0990, 0.0991, 0.0993, 0.0991,0.0991
SingleSource/Benchmarks/Polybench/linear-algebra/kernels/atax/atax, 0.0879, 0.0881, 0.0878, 0.0884, 0.0882,0.0881, 0.0876, 0.0877, 0.0874, 0.0878, 0.0877,0.0877
SingleSource/Benchmarks/Polybench/linear-algebra/kernels/bicg/bicg, 0.0840, 0.0843, 0.0840, 0.0841, 0.0839,0.084, 0.0837, 0.0840, 0.0841, 0.0839, 0.0841,0.084
SingleSource/Benchmarks/Polybench/linear-algebra/kernels/cholesky/cholesky, 0.1144, 0.1147, 0.1145, 0.1147, 0.1146,0.1146, 0.1144, 0.1143, 0.1149, 0.1151, 0.1150,0.1149
SingleSource/Benchmarks/Polybench/linear-algebra/kernels/doitgen/doitgen, 0.1123, 0.1121, 0.1118, 0.1123, 0.1123,0.1123, 0.1124, 0.1120, 0.1120, 0.1121, 0.1128,0.1121
SingleSource/Benchmarks/Polybench/linear-algebra/kernels/gemver/gemver, 0.1069, 0.1070, 0.1072, 0.1068, 0.1068,0.1069, 0.1066, 0.1066, 0.1074, 0.1068, 0.1067,0.1067
SingleSource/Benchmarks/Polybench/linear-algebra/kernels/gesummv/gesummv, 0.0702, 0.0701, 0.0704, 0.0701, 0.0700,0.0701, 0.0699, 0.0701, 0.0697, 0.0701, 0.0698,0.0699
SingleSource/Benchmarks/Polybench/linear-algebra/kernels/mvt/mvt, 0.0896, 0.0892, 0.0892, 0.0895, 0.0892,0.0892, 0.0892, 0.0891, 0.0889, 0.0891, 0.0894,0.0891
SingleSource/Benchmarks/Polybench/linear-algebra/kernels/symm/symm, 0.0850, 0.0852, 0.0847, 0.0850, 0.0851,0.085, 0.0843, 0.0845, 0.0848, 0.0848, 0.0852,0.0848
SingleSource/Benchmarks/Polybench/linear-algebra/kernels/syr2k/syr2k, 0.0874, 0.0874, 0.0872, 0.0874, 0.0871,0.0874, 0.0872, 0.0871, 0.0870, 0.0874, 0.0871,0.0871
SingleSource/Benchmarks/Polybench/linear-algebra/kernels/syrk/syrk, 0.0863, 0.0863, 0.0862, 0.0863, 0.0862,0.0863, 0.0861, 0.0862, 0.0861, 0.0863, 0.0865,0.0862
SingleSource/Benchmarks/Polybench/linear-algebra/kernels/trisolv/trisolv, 0.0678, 0.0679, 0.0676, 0.0677, 0.0677,0.0677, 0.0675, 0.0676, 0.0676, 0.0676, 0.0676,0.0676
SingleSource/Benchmarks/Polybench/linear-algebra/kernels/trmm/trmm, 0.0827, 0.0826, 0.0828, 0.0828, 0.0827,0.0827, 0.0827, 0.0826, 0.0825, 0.0826, 0.0826,0.0826
SingleSource/Benchmarks/Polybench/linear-algebra/solvers/durbin/durbin, 0.1068, 0.1069, 0.1069, 0.1070, 0.1068,0.1069, 0.1067, 0.1067, 0.1065, 0.1070, 0.1068,0.1067
SingleSource/Benchmarks/Polybench/linear-algebra/solvers/dynprog/dynprog, 0.0860, 0.0864, 0.0859, 0.0859, 0.0861,0.086, 0.0853, 0.0858, 0.0856, 0.0858, 0.0856,0.0856
SingleSource/Benchmarks/Polybench/linear-algebra/solvers/gramschmidt/gramschmidt, 0.1255, 0.1252, 0.1251, 0.1252, 0.1252,0.1252, 0.1250, 0.1251, 0.1253, 0.1252, 0.1252,0.1252
SingleSource/Benchmarks/Polybench/linear-algebra/solvers/lu/lu, 0.1040, 0.1042, 0.1039, 0.1040, 0.1040,0.104, 0.1043, 0.1041, 0.1038, 0.1044, 0.1042,0.1042
SingleSource/Benchmarks/Polybench/medley/floyd-warshall/floyd-warshall, 0.0854, 0.0851, 0.0851, 0.0852, 0.0850,0.0851, 0.0852, 0.0851, 0.0851, 0.0853, 0.0857,0.0852
SingleSource/Benchmarks/Polybench/medley/reg_detect/reg_detect, 1.2688, 1.2675, 1.2658, 1.2721, 1.2676,1.2676, 1.2720, 1.2698, 1.2711, 1.2740, 1.2743,1.272
SingleSource/Benchmarks/Polybench/stencils/adi/adi, 0.1036, 0.1035, 0.1034, 0.1036, 0.1039,0.1036, 0.1033, 0.1033, 0.1034, 0.1035, 0.1035,0.1034
SingleSource/Benchmarks/Polybench/stencils/fdtd-2d/fdtd-2d, 0.1624, 0.1634, 0.1622, 0.1625, 0.1622,0.1624, 0.1620, 0.1621, 0.1623, 0.1623, 0.1622,0.1622
SingleSource/Benchmarks/Polybench/stencils/fdtd-apml/fdtd-apml, 0.1492, 0.1494, 0.1495, 0.1498, 0.1496,0.1495, 0.1490, 0.1490, 0.1496, 0.1492, 0.1493,0.1492
SingleSource/Benchmarks/Polybench/stencils/jacobi-1d-imper/jacobi-1d-imper, 0.0905, 0.0906, 0.0903, 0.0904, 0.0903,0.0904, 0.0902, 0.0900, 0.0904, 0.0903, 0.0902,0.0902
SingleSource/Benchmarks/Polybench/stencils/jacobi-2d-imper/jacobi-2d-imper, 0.1289, 0.1294, 0.1290, 0.1291, 0.1290,0.129, 0.1288, 0.1290, 0.1287, 0.1289, 0.1290,0.1289
SingleSource/Benchmarks/Polybench/stencils/seidel-2d/seidel-2d, 0.0760, 0.0760, 0.0758, 0.0765, 0.0763,0.076, 0.0759, 0.0760, 0.0759, 0.0762, 0.0760,0.076
SingleSource/Benchmarks/Shootout-C++/EH/except, 0.1258, 0.1266, 0.1258, 0.1264, 0.1260,0.126, 0.1262, 0.1262, 0.1258, 0.1262, 0.1256,0.1262
SingleSource/Benchmarks/Shootout-C++/ackermann, 0.1141, 0.1142, 0.1142, 0.1148, 0.1147,0.1142, 0.1141, 0.1141, 0.1144, 0.1142, 0.1139,0.1141
SingleSource/Benchmarks/Shootout-C++/ary, 0.1554, 0.1544, 0.1548, 0.1542, 0.1542,0.1544, 0.1541, 0.1540, 0.1544, 0.1548, 0.1540,0.1541
SingleSource/Benchmarks/Shootout-C++/ary2, 0.1605, 0.1609, 0.1606, 0.1609, 0.1608,0.1608, 0.1607, 0.1604, 0.1598, 0.1603, 0.1600,0.1603
SingleSource/Benchmarks/Shootout-C++/ary3, 0.1579, 0.1589, 0.1586, 0.1583, 0.1583,0.1583, 0.1583, 0.1584, 0.1579, 0.1579, 0.1586,0.1583
SingleSource/Benchmarks/Shootout-C++/fibo, 0.1125, 0.1135, 0.1130, 0.1129, 0.1128,0.1129, 0.1128, 0.1126, 0.1125, 0.1126, 0.1129,0.1126
SingleSource/Benchmarks/Shootout-C++/hash, 0.2623, 0.2622, 0.2612, 0.2615, 0.2616,0.2616, 0.2612, 0.2616, 0.2608, 0.2618, 0.2619,0.2616
SingleSource/Benchmarks/Shootout-C++/hash2, 0.3214, 0.3149, 0.3144, 0.3090, 0.2985,0.3144, 0.3277, 0.3101, 0.3144, 0.3089, 0.3118,0.3118
SingleSource/Benchmarks/Shootout-C++/heapsort, 0.1308, 0.1312, 0.1305, 0.1306, 0.1305,0.1306, 0.1304, 0.1299, 0.1298, 0.1309, 0.1304,0.1304
SingleSource/Benchmarks/Shootout-C++/lists, 0.1575, 0.1579, 0.1577, 0.1580, 0.1579,0.1579, 0.1567, 0.1567, 0.1573, 0.1571, 0.1580,0.1571
SingleSource/Benchmarks/Shootout-C++/lists1, 0.1896, 0.1902, 0.1896, 0.1900, 0.1892,0.1896, 0.1892, 0.1880, 0.1890, 0.1893, 0.1883,0.189
SingleSource/Benchmarks/Shootout-C++/matrix, 0.1946, 0.1941, 0.1941, 0.1951, 0.1944,0.1944, 0.1953, 0.1946, 0.1946, 0.1943, 0.1948,0.1946
SingleSource/Benchmarks/Shootout-C++/methcall, 0.1224, 0.1222, 0.1222, 0.1222, 0.1223,0.1222, 0.1217, 0.1222, 0.1217, 0.1219, 0.1218,0.1218
SingleSource/Benchmarks/Shootout-C++/moments, 0.2376, 0.2387, 0.2391, 0.2374, 0.2383,0.2383, 0.2378, 0.2372, 0.2370, 0.2380, 0.2370,0.2372
SingleSource/Benchmarks/Shootout-C++/nestedloop, 0.1134, 0.1141, 0.1135, 0.1141, 0.1138,0.1138, 0.1131, 0.1135, 0.1128, 0.1134, 0.1130,0.1131
SingleSource/Benchmarks/Shootout-C++/objinst, 0.1379, 0.1379, 0.1386, 0.1381, 0.1386,0.1381, 0.1378, 0.1390, 0.1382, 0.1383, 0.1382,0.1382
SingleSource/Benchmarks/Shootout-C++/random, 0.1227, 0.1224, 0.1222, 0.1226, 0.1225,0.1225, 0.1220, 0.1231, 0.1218, 0.1221, 0.1218,0.122
SingleSource/Benchmarks/Shootout-C++/sieve, 0.1783, 0.1789, 0.1785, 0.1786, 0.1791,0.1786, 0.1784, 0.1782, 0.1781, 0.1784, 0.1781,0.1782
SingleSource/Benchmarks/Shootout-C++/strcat, 0.1223, 0.1225, 0.1224, 0.1229, 0.1226,0.1225, 0.1223, 0.1226, 0.1217, 0.1227, 0.1219,0.1223
SingleSource/Benchmarks/Shootout/ackermann, 0.0217, 0.0216, 0.0216, 0.0216, 0.0217,0.0216, 0.0217, 0.0217, 0.0216, 0.0216, 0.0213,0.0216
SingleSource/Benchmarks/Shootout/ary3, 0.0329, 0.0329, 0.0329, 0.0331, 0.0329,0.0329, 0.0329, 0.0328, 0.0328, 0.0329, 0.0330,0.0329
SingleSource/Benchmarks/Shootout/fib2, 0.0183, 0.0183, 0.0183, 0.0183, 0.0183,0.0183, 0.0183, 0.0182, 0.0182, 0.0183, 0.0183,0.0183
SingleSource/Benchmarks/Shootout/hash, 0.0481, 0.0481, 0.0480, 0.0479, 0.0482,0.0481, 0.0478, 0.0480, 0.0481, 0.0479, 0.0481,0.048
SingleSource/Benchmarks/Shootout/heapsort, 0.0387, 0.0386, 0.0385, 0.0386, 0.0386,0.0386, 0.0383, 0.0386, 0.0384, 0.0386, 0.0384,0.0384
SingleSource/Benchmarks/Shootout/lists, 0.0718, 0.0717, 0.0718, 0.0717, 0.0717,0.0717, 0.0715, 0.0715, 0.0715, 0.0716, 0.0715,0.0715
SingleSource/Benchmarks/Shootout/matrix, 0.0821, 0.0820, 0.0821, 0.0821, 0.0820,0.0821, 0.0820, 0.0822, 0.0819, 0.0820, 0.0821,0.082
SingleSource/Benchmarks/Shootout/methcall, 0.0295, 0.0294, 0.0293, 0.0293, 0.0292,0.0293, 0.0293, 0.0293, 0.0293, 0.0293, 0.0295,0.0293
SingleSource/Benchmarks/Shootout/nestedloop, 0.0226, 0.0225, 0.0225, 0.0226, 0.0225,0.0225, 0.0225, 0.0225, 0.0225, 0.0225, 0.0225,0.0225
SingleSource/Benchmarks/Shootout/objinst, 0.0344, 0.0343, 0.0343, 0.0344, 0.0344,0.0344, 0.0343, 0.0343, 0.0342, 0.0342, 0.0342,0.0342
SingleSource/Benchmarks/Shootout/random, 0.0283, 0.0283, 0.0282, 0.0283, 0.0282,0.0283, 0.0281, 0.0284, 0.0280, 0.0282, 0.0282,0.0282
SingleSource/Benchmarks/Shootout/sieve, 0.0243, 0.0242, 0.0241, 0.0243, 0.0243,0.0243, 0.0241, 0.0241, 0.0240, 0.0241, 0.0239,0.0241
SingleSource/Benchmarks/Shootout/strcat, 0.0254, 0.0253, 0.0254, 0.0254, 0.0253,0.0254, 0.0253, 0.0253, 0.0252, 0.0254, 0.0253,0.0253
SingleSource/Benchmarks/SmallPT/smallpt, 0.0994, 0.0994, 0.0995, 0.0994, 0.0997,0.0994, 0.0996, 0.0996, 0.0995, 0.0995, 0.0997,0.0996
SingleSource/Benchmarks/Stanford/Bubblesort, 0.0340, 0.0342, 0.0343, 0.0342, 0.0342,0.0342, 0.0340, 0.0341, 0.0342, 0.0341, 0.0340,0.0341
SingleSource/Benchmarks/Stanford/FloatMM, 0.0593, 0.0592, 0.0592, 0.0592, 0.0593,0.0592, 0.0592, 0.0591, 0.0594, 0.0594, 0.0594,0.0594
SingleSource/Benchmarks/Stanford/Oscar, 0.0655, 0.0656, 0.0655, 0.0657, 0.0656,0.0656, 0.0654, 0.0655, 0.0656, 0.0653, 0.0654,0.0654
SingleSource/Benchmarks/Stanford/Perm, 0.0301, 0.0298, 0.0299, 0.0301, 0.0300,0.03, 0.0298, 0.0299, 0.0298, 0.0299, 0.0299,0.0299
SingleSource/Benchmarks/Stanford/Puzzle, 0.1167, 0.1171, 0.1167, 0.1171, 0.1172,0.1171, 0.1172, 0.1169, 0.1169, 0.1172, 0.1167,0.1169
SingleSource/Benchmarks/Stanford/Queens, 0.0456, 0.0455, 0.0454, 0.0455, 0.0452,0.0455, 0.0453, 0.0455, 0.0457, 0.0453, 0.0457,0.0455
SingleSource/Benchmarks/Stanford/Quicksort, 0.0359, 0.0356, 0.0358, 0.0355, 0.0356,0.0356, 0.0357, 0.0355, 0.0357, 0.0357, 0.0355,0.0357
SingleSource/Benchmarks/Stanford/RealMM, 0.0555, 0.0558, 0.0556, 0.0559, 0.0557,0.0557, 0.0559, 0.0557, 0.0556, 0.0557, 0.0560,0.0557
SingleSource/Benchmarks/Stanford/Towers, 0.0449, 0.0447, 0.0447, 0.0445, 0.0447,0.0447, 0.0446, 0.0446, 0.0446, 0.0446, 0.0447,0.0446
SingleSource/Benchmarks/Stanford/Treesort, 0.0362, 0.0363, 0.0362, 0.0364, 0.0364,0.0363, 0.0363, 0.0361, 0.0360, 0.0359, 0.0360,0.036
SingleSource/Regression/C/2004-08-12-InlinerAndAllocas, 0.0179, 0.0178, 0.0179, 0.0178, 0.0179,0.0179, 0.0180, 0.0178, 0.0179, 0.0179, 0.0179,0.0179
SingleSource/Regression/C/uint64_to_float, 0.0652, 0.0693, 0.0685, 0.0626, 0.0641,0.0652, 0.0671, 0.0627, 0.0717, 0.0685, 0.0720,0.0685
Total elapsed time,-,-,-,-,-,349.4136999999995,-,-,-,-,-,349.5822
Total failure,-,-,-,-,-,0,-,-,-,-,-,0
