
TEST-PASS: compile /mnt/ramdisk/mysandbox/test-2017-03-23_07-28-48/SingleSource/Benchmarks/Shootout-C++/ackermann
TEST-RESULT-compile-success: pass
TEST-RESULT-compile-hash: 328ffe6aa31d1e2142532205e15da27c
TEST-RESULT-compile-time: user       0.1200
TEST-RESULT-compile-real-time: real       0.1329
