
TEST-PASS: compile /mnt/ramdisk/mysandbox/test-2017-03-23_07-28-48/SingleSource/Benchmarks/Shootout-C++/fibo
TEST-RESULT-compile-success: pass
TEST-RESULT-compile-hash: c64451647490b03b925389da08b98a55
TEST-RESULT-compile-time: user       0.1160
TEST-RESULT-compile-real-time: real       0.1310
