
TEST-PASS: compile /mnt/ramdisk/mysandbox/test-2017-03-23_07-28-48/SingleSource/Benchmarks/Shootout-C++/moments
TEST-RESULT-compile-success: pass
TEST-RESULT-compile-hash: ca4fb29a9d4df89ef72f0bf1ba8505c0
TEST-RESULT-compile-time: user       0.2480
TEST-RESULT-compile-real-time: real       0.2657
