
TEST-PASS: exec /mnt/ramdisk/mysandbox/test-2017-03-23_07-28-48/SingleSource/Benchmarks/Shootout-C++/nestedloop
TEST-RESULT-exec-success: pass
TEST-RESULT-exec-time: user       0.0000
TEST-RESULT-exec-real-time: real       0.0009
