
TEST-PASS: compile /mnt/ramdisk/mysandbox/test-2017-03-23_07-28-48/SingleSource/Benchmarks/Shootout-C++/nestedloop
TEST-RESULT-compile-success: pass
TEST-RESULT-compile-hash: ed7512a2a1bc46c99a9197d4118f210a
TEST-RESULT-compile-time: user       0.1120
TEST-RESULT-compile-real-time: real       0.1318
