Benchmarks,base-5.0,base-5.0,base-5.0,median,aafix,aafix,aafix,median,Slowdown(%)
MultiSource/Applications/ALAC/encode/alacconvert-encode, 0.9228, 0.9217, 0.9217,0.9217, 0.9251, 0.9231, 0.9232,0.9232,0.16274275794727622
MultiSource/Benchmarks/MiBench/consumer-typeset/consumer-typeset, 9.7232, 9.7103, 9.7008,9.7103, 9.7056, 9.6950, 9.6928,9.695,-0.15756464784816293
MultiSource/Benchmarks/DOE-ProxyApps-C++/CLAMR/CLAMR,17.8316,17.8124,17.8341,17.8316,17.8261,17.8035,17.7944,17.8035,-0.15758541017072414
Total elapsed time,-,-,-,362.7586,-,-,-,362.92820000000006,0.04675285437756305
Total failure,-,-,-,0,-,-,-,0,
Geom. avg slowdown,,,,,,,,,-0.0509164140731%
