Benchmarks,base-5.0,base-5.0,base-5.0,median,aafix,aafix,aafix,median,Slowdown(%)
MultiSource/Benchmarks/Ptrdist/ft/ft, 0.6523, 0.6140, 0.6244,0.6244, 0.6485, 0.6288, 0.6767,0.6485,3.8597053171044227
SingleSource/Benchmarks/Stanford/Queens, 0.0071, 0.0069, 0.0072,0.0071, 0.0073, 0.0071, 0.0073,0.0073,2.8169014084507005
SingleSource/Benchmarks/Polybench/linear-algebra/solvers/durbin/durbin, 0.3981, 0.4073, 0.3975,0.3981, 0.4075, 0.4072, 0.4076,0.4075,2.3612157749309137
MultiSource/Benchmarks/sim/sim, 2.6350, 2.6314, 2.6329,2.6329, 2.6884, 2.6901, 2.6944,2.6901,2.172509400281064
MultiSource/Benchmarks/Fhourstones/fhourstones, 0.5631, 0.5559, 0.5684,0.5631, 0.5786, 0.5635, 0.5685,0.5685,0.9589770911028195
SingleSource/Benchmarks/Shootout-C++/ary3, 0.5357, 0.5474, 0.5336,0.5357, 0.5318, 0.5404, 0.5402,0.5402,0.8400224005973511
MultiSource/Benchmarks/BitBench/drop3/drop3, 0.1820, 0.1796, 0.1857,0.182, 0.1826, 0.1849, 0.1834,0.1834,0.7692307692307665
SingleSource/Benchmarks/Misc/flops-6, 3.4194, 3.3937, 3.3943,3.3943, 3.4196, 3.4194, 3.4418,3.4196,0.745367233302896
SingleSource/Benchmarks/Polybench/linear-algebra/solvers/gramschmidt/gramschmidt, 1.5840, 1.5798, 1.5078,1.5798, 1.6467, 1.5908, 1.5650,1.5908,0.6962906697050242
MultiSource/Benchmarks/BitBench/five11/five11, 1.1084, 1.1063, 1.1046,1.1063, 1.1121, 1.1083, 1.1131,1.1121,0.5242700894874774
SingleSource/Benchmarks/Polybench/stencils/fdtd-2d/fdtd-2d, 0.4065, 0.4094, 0.4074,0.4074, 0.4128, 0.4058, 0.4095,0.4095,0.5154639175257714
SingleSource/Benchmarks/Misc/whetstone, 1.0198, 1.0198, 1.0274,1.0198, 1.0198, 1.0274, 1.0249,1.0249,0.5000980584428216
MultiSource/Applications/siod/siod, 1.1297, 1.1279, 1.1283,1.1283, 1.1329, 1.1328, 1.1321,1.1328,0.398830098378089
MultiSource/Benchmarks/TSVC/Packing-flt/Packing-flt, 2.1106, 2.0957, 2.1444,2.1106, 2.1165, 2.1181, 2.1170,2.117,0.30323130863263437
MultiSource/Applications/JM/ldecod/ldecod, 0.0362, 0.0361, 0.0361,0.0361, 0.0363, 0.0362, 0.0360,0.0362,0.27700831024930483
MultiSource/Benchmarks/McCat/01-qbsort/qbsort, 0.0390, 0.0391, 0.0390,0.039, 0.0391, 0.0391, 0.0390,0.0391,0.2564102564102555
MultiSource/Benchmarks/llubenchmark/llu, 4.1491, 4.1318, 4.1484,4.1484, 4.1557, 4.1901, 4.1590,4.159,0.25552020055925606
SingleSource/Benchmarks/Misc/ffbench, 0.5845, 0.5859, 0.5876,0.5859, 0.5870, 0.5873, 0.5879,0.5873,0.2389486260454099
MultiSource/Benchmarks/Prolangs-C++/primes/primes, 0.2128, 0.2141, 0.2131,0.2131, 0.2134, 0.2136, 0.2152,0.2136,0.2346316283434957
SingleSource/Benchmarks/Polybench/linear-algebra/kernels/gemver/gemver, 0.3173, 0.3221, 0.3213,0.3213, 0.3260, 0.3217, 0.3220,0.322,0.21786492374729072
MultiSource/Benchmarks/Olden/mst/mst, 0.0527, 0.0521, 0.0521,0.0521, 0.0527, 0.0522, 0.0521,0.0522,0.19193857965451588
SingleSource/Benchmarks/Adobe-C++/loop_unroll, 1.7722, 1.7725, 1.7764,1.7725, 1.7758, 1.7760, 1.7755,1.7758,0.18617771509168435
MultiSource/Benchmarks/Prolangs-C++/life/life, 0.7154, 0.7151, 0.7143,0.7151, 0.7142, 0.7163, 0.7167,0.7163,0.16780869808419308
MultiSource/Benchmarks/VersaBench/8b10b/8b10b, 3.6032, 3.6000, 3.6065,3.6032, 3.6089, 3.6023, 3.6126,3.6089,0.15819271758437115
MultiSource/Benchmarks/FreeBench/pifft/pifft, 0.0652, 0.0651, 0.0651,0.0651, 0.0652, 0.0654, 0.0651,0.0652,0.1536098310291667
MultiSource/Benchmarks/FreeBench/mason/mason, 0.1302, 0.1303, 0.1302,0.1302, 0.1304, 0.1304, 0.1304,0.1304,0.1536098310291667
MultiSource/Benchmarks/Olden/health/health, 0.1441, 0.1434, 0.1433,0.1434, 0.1439, 0.1435, 0.1436,0.1436,0.1394700139470073
SingleSource/Benchmarks/Polybench/datamining/correlation/correlation, 1.6684, 1.6639, 1.6571,1.6639, 1.6753, 1.6662, 1.6615,1.6662,0.1382294609050927
MultiSource/Benchmarks/TSVC/ControlLoops-flt/ControlLoops-flt, 2.3453, 2.3551, 2.3504,2.3504, 2.3490, 2.3541, 2.3536,2.3536,0.1361470388019148
SingleSource/Benchmarks/Shootout-C++/lists, 2.9598, 2.9762, 2.9712,2.9712, 2.9788, 2.9749, 2.9631,2.9749,0.12452880990845294
MultiSource/Benchmarks/Olden/bisort/bisort, 0.3621, 0.3619, 0.3612,0.3619, 0.3628, 0.3623, 0.3619,0.3623,0.11052777010223114
MultiSource/Benchmarks/TSVC/InductionVariable-flt/InductionVariable-flt, 2.5561, 2.5585, 2.5601,2.5585, 2.5613, 2.5588, 2.5622,2.5613,0.10943912448699855
MultiSource/Applications/SPASS/SPASS, 6.7067, 6.7381, 6.7227,6.7227, 6.7094, 6.7535, 6.7298,6.7298,0.10561232837997814
MultiSource/Benchmarks/MiBench/automotive-basicmath/automotive-basicmath, 0.2225, 0.2224, 0.2227,0.2225, 0.2229, 0.2225, 0.2227,0.2227,0.08988764044943753
MultiSource/Applications/obsequi/Obsequi, 1.0934, 1.0930, 1.0932,1.0932, 1.0942, 1.0934, 1.0941,1.0941,0.08232711306257467
MultiSource/Benchmarks/TSVC/IndirectAddressing-dbl/IndirectAddressing-dbl, 2.4727, 2.4695, 2.4748,2.4727, 2.4801, 2.4718, 2.4747,2.4747,0.08088324503578992
MultiSource/Benchmarks/7zip/7zip-benchmark, 6.3272, 6.3279, 6.3276,6.3276, 6.3327, 6.3353, 6.3314,6.3327,0.08059927934760402
SingleSource/Benchmarks/CoyoteBench/lpbench, 1.8177, 1.8166, 1.8204,1.8177, 1.8214, 1.8189, 1.8172,1.8189,0.06601749463606144
SingleSource/Benchmarks/Shootout-C++/hash, 0.3064, 0.3067, 0.3069,0.3067, 0.3070, 0.3069, 0.3068,0.3069,0.06521030322792498
SingleSource/Benchmarks/Shootout-C++/hash2, 1.7124, 1.7149, 1.7146,1.7146, 1.7158, 1.7151, 1.7157,1.7157,0.06415490493409948
MultiSource/Benchmarks/DOE-ProxyApps-C/Pathfinder/PathFinder, 2.0963, 2.0949, 2.0932,2.0949, 2.1143, 2.0961, 2.0956,2.0961,0.05728197049978956
SingleSource/Benchmarks/Misc/evalloop, 0.3686, 0.3681, 0.3683,0.3683, 0.3692, 0.3679, 0.3685,0.3685,0.054303556882961956
MultiSource/Benchmarks/DOE-ProxyApps-C++/PENNANT/PENNANT, 0.3696, 0.3698, 0.3696,0.3696, 0.3696, 0.3701, 0.3698,0.3698,0.054112554112561995
MultiSource/Applications/lua/lua,11.1040,11.0971,11.1198,11.104,11.1100,11.1225,11.1077,11.11,0.054034582132556075
SingleSource/Benchmarks/Misc-C++/bigfib, 0.1916, 0.1910, 0.1908,0.191, 0.1913, 0.1911, 0.1910,0.1911,0.052356020942401216
MultiSource/Benchmarks/TSVC/LoopRestructuring-dbl/LoopRestructuring-dbl, 3.6437, 3.6325, 3.6384,3.6384, 3.6403, 3.6338, 3.6434,3.6403,0.05222075637643098
MultiSource/Benchmarks/Ptrdist/anagram/anagram, 0.6003, 0.6001, 0.6001,0.6001, 0.6001, 0.6004, 0.6004,0.6004,0.049991668055326954
SingleSource/Benchmarks/Polybench/datamining/covariance/covariance, 1.6525, 1.6548, 1.6603,1.6548, 1.6556, 1.6554, 1.6567,1.6556,0.048344210780748575
MultiSource/Benchmarks/Olden/voronoi/voronoi, 0.2141, 0.2136, 0.2135,0.2136, 0.2140, 0.2136, 0.2137,0.2137,0.0468164794007464
MultiSource/Applications/sqlite3/sqlite3, 1.7737, 1.7794, 1.7758,1.7758, 1.7766, 1.7851, 1.7758,1.7766,0.04505011825655103
MultiSource/Benchmarks/TSVC/Expansion-flt/Expansion-flt, 1.1786, 1.1868, 1.1822,1.1822, 1.1808, 1.1872, 1.1827,1.1827,0.04229402808324512
SingleSource/Benchmarks/Shootout/matrix, 1.0572, 1.0574, 1.0572,1.0572, 1.0576, 1.0572, 1.0577,1.0576,0.03783579265987935
MultiSource/Benchmarks/DOE-ProxyApps-C++/miniFE/miniFE, 2.4643, 2.4659, 2.4644,2.4644, 2.4660, 2.4653, 2.4621,2.4653,0.036520045447163696
MultiSource/Benchmarks/DOE-ProxyApps-C++/CLAMR/CLAMR, 1.1202, 1.1203, 1.1201,1.1202, 1.1206, 1.1206, 1.1205,1.1206,0.03570790930189638
MultiSource/Benchmarks/TSVC/ControlLoops-dbl/ControlLoops-dbl, 2.5418, 2.5402, 2.5396,2.5402, 2.5411, 2.5410, 2.5414,2.5411,0.03543028108023982
SingleSource/Benchmarks/Shootout/fib2, 1.4783, 1.4774, 1.4778,1.4778, 1.4768, 1.4785, 1.4783,1.4783,0.033834077683048136
MultiSource/Benchmarks/MallocBench/espresso/espresso, 0.2985, 0.2987, 0.2983,0.2985, 0.2990, 0.2985, 0.2986,0.2986,0.03350083752093891
MultiSource/Benchmarks/TSVC/Searching-flt/Searching-flt, 2.4337, 2.4338, 2.4339,2.4338, 2.4346, 2.4348, 2.4327,2.4346,0.03287040841482014
SingleSource/Benchmarks/BenchmarkGame/Large/fasta, 0.6445, 0.6444, 0.6476,0.6445, 0.6445, 0.6515, 0.6447,0.6447,0.031031807602799333
MultiSource/Applications/JM/lencod/lencod, 3.1624, 3.1625, 3.1645,3.1625, 3.1624, 3.1634, 3.1686,3.1634,0.028458498023709033
MultiSource/Applications/spiff/spiff, 1.2876, 1.2828, 1.2825,1.2828, 1.2858, 1.2831, 1.2822,1.2831,0.023386342376041647
SingleSource/Benchmarks/Misc/fbench, 1.7135, 1.7136, 1.7135,1.7135, 1.7140, 1.7139, 1.7139,1.7139,0.023344032681649196
SingleSource/Benchmarks/Adobe-C++/stepanov_abstraction, 4.2660, 4.2652, 4.2656,4.2656, 4.2665, 4.2660, 4.2670,4.2665,0.021099024756177087
SingleSource/Benchmarks/Shootout/heapsort, 2.0363, 2.0382, 2.0355,2.0363, 2.0367, 2.0371, 2.0349,2.0367,0.019643471001318247
MultiSource/Benchmarks/TSVC/NodeSplitting-flt/NodeSplitting-flt, 4.6612, 4.6589, 4.6569,4.6589, 4.6607, 4.6577, 4.6598,4.6598,0.0193178647320158
MultiSource/Applications/aha/aha, 1.0373, 1.0361, 1.0376,1.0373, 1.0372, 1.0375, 1.0376,1.0375,0.0192808252193144
SingleSource/Benchmarks/Misc-C++-EH/spirit, 2.6178, 2.6198, 2.6170,2.6178, 2.6178, 2.6183, 2.6195,2.6183,0.019100007640004968
MultiSource/Applications/lambda-0.1.3/lambda, 2.6388, 2.6422, 2.6392,2.6392, 2.6397, 2.6382, 2.6409,2.6397,0.018945134889358783
MultiSource/Benchmarks/Ptrdist/yacr2/yacr2, 0.5295, 0.5299, 0.5302,0.5299, 0.5300, 0.5303, 0.5299,0.53,0.018871485185889547
SingleSource/Benchmarks/BenchmarkGame/partialsums, 0.5685, 0.5686, 0.5684,0.5685, 0.5686, 0.5686, 0.5686,0.5686,0.017590149516277798
MultiSource/Benchmarks/Trimaran/netbench-crc/netbench-crc, 0.6215, 0.6212, 0.6213,0.6213, 0.6214, 0.6215, 0.6214,0.6214,0.01609528408175187
MultiSource/Benchmarks/Ptrdist/ks/ks, 0.6569, 0.6518, 0.6551,0.6551, 0.6568, 0.6532, 0.6552,0.6552,0.01526484506182424
SingleSource/Benchmarks/Shootout-C++/ackermann, 0.6571, 0.6571, 0.6571,0.6571, 0.6572, 0.6571, 0.6572,0.6572,0.015218383807646951
SingleSource/Benchmarks/Adobe-C++/simple_types_constant_folding, 0.6645, 0.6645, 0.6645,0.6645, 0.6646, 0.6650, 0.6645,0.6646,0.015048908954096163
SingleSource/Benchmarks/Misc/dt, 0.6668, 0.6668, 0.6668,0.6668, 0.6669, 0.6668, 0.6669,0.6669,0.014997000599903387
SingleSource/Benchmarks/BenchmarkGame/recursive, 0.7042, 0.7132, 0.7042,0.7042, 0.7043, 0.7042, 0.7146,0.7043,0.014200511218409595
SingleSource/Benchmarks/Misc/mandel, 0.8336, 0.8336, 0.8336,0.8336, 0.8337, 0.8335, 0.8337,0.8337,0.011996161228400304
MultiSource/Benchmarks/SciMark2-C/scimark2,42.0698,42.0743,42.7040,42.0743,42.0730,42.0792,42.0955,42.0792,0.01164606422447978
MultiSource/Benchmarks/TSVC/GlobalDataFlow-dbl/GlobalDataFlow-dbl, 2.8505, 2.8513, 2.8519,2.8513, 2.8515, 2.8516, 2.8527,2.8516,0.010521516501227346
SingleSource/Benchmarks/Adobe-C++/functionobjects, 3.0287, 3.0290, 3.0279,3.0287, 3.0290, 3.0290, 3.0293,3.029,0.009905239871876859
SingleSource/Benchmarks/Shootout/lists, 4.0779, 4.0809, 4.0807,4.0807, 4.0813, 4.0811, 4.0807,4.0811,0.009802239811795843
MultiSource/Benchmarks/TSVC/LoopRerolling-dbl/LoopRerolling-dbl, 4.6105, 4.6103, 4.6105,4.6105, 4.6109, 4.6112, 4.6106,4.6109,0.008675848606443104
MultiSource/Benchmarks/Olden/tsp/tsp, 1.1722, 1.1719, 1.1716,1.1719, 1.1721, 1.1718, 1.1720,1.172,0.00853315129276666
SingleSource/Benchmarks/Misc/perlin, 3.8800, 3.8801, 3.8805,3.8801, 3.8805, 3.8804, 3.8799,3.8804,0.007731759490736678
SingleSource/Benchmarks/Shootout-C++/fibo, 1.4776, 1.4772, 1.4774,1.4774, 1.4777, 1.4758, 1.4775,1.4775,0.006768647624211255
SingleSource/Benchmarks/Adobe-C++/simple_types_loop_invariant, 1.5941, 1.5941, 1.5943,1.5941, 1.5942, 1.5942, 1.5947,1.5942,0.006273132174894336
MultiSource/Benchmarks/Bullet/bullet, 3.2562, 3.2524, 3.2525,3.2525, 3.2527, 3.2579, 3.2445,3.2527,0.0061491160645577025
SingleSource/Benchmarks/Shootout/random, 1.7447, 1.7448, 1.7447,1.7447, 1.7448, 1.7447, 1.7448,1.7448,0.0057316444087796015
SingleSource/Benchmarks/Misc/oourafft, 6.0369, 6.0172, 6.0177,6.0177, 6.0230, 6.0180, 6.0173,6.018,0.004985293384529577
SingleSource/Benchmarks/Misc-C++/Large/sphereflake, 5.6073, 5.6075, 5.6074,5.6074, 5.6080, 5.6075, 5.6076,5.6076,0.0035667154117735578
MultiSource/Benchmarks/TSVC/Reductions-flt/Reductions-flt, 5.9349, 5.9350, 5.9349,5.9349, 5.9349, 5.9351, 5.9351,5.9351,0.003369896712679399
SingleSource/Benchmarks/CoyoteBench/almabench,12.6253,12.6245,12.6250,12.625,12.6246,12.6275,12.6254,12.6254,0.003168316831692053
SingleSource/Benchmarks/Shootout/methcall, 3.2758, 3.2757, 3.2758,3.2758, 3.2759, 3.2760, 3.2759,3.2759,0.0030526894193805276
MultiSource/Benchmarks/ASC_Sequoia/CrystalMk/CrystalMk, 7.2733, 7.2732, 7.2732,7.2732, 7.2729, 7.2734, 7.2735,7.2734,0.0027498212616050566
SingleSource/Benchmarks/Misc/flops-5, 4.2756, 4.3232, 4.2756,4.2756, 4.3231, 4.2756, 4.2757,4.2757,0.0023388530264734086
MultiSource/Applications/hexxagon/hexxagon, 7.0584, 7.0589, 7.0583,7.0584, 7.0582, 7.0586, 7.0585,7.0585,0.0014167516717789042
SingleSource/Benchmarks/Misc-C++/stepanov_v1p2, 7.9036, 7.9038, 7.9037,7.9037, 7.9041, 7.9037, 7.9038,7.9038,0.0012652302086468836
MultiSource/Benchmarks/mafft/pairlocalalign,24.6616,24.6622,24.6612,24.6616,24.6619,24.6630,24.6605,24.6619,0.0012164660849300901
SingleSource/Benchmarks/CoyoteBench/huffbench, 9.0382, 9.0557, 9.0376,9.0382, 9.0383, 9.0400, 9.0382,9.0383,0.0011064149941342194
SingleSource/Regression/C/uint64_to_float, 0.2465, 0.2465, 0.2464,0.2465, 0.2465, 0.2465, 0.2465,0.2465,0.0
SingleSource/Regression/C/2004-08-12-InlinerAndAllocas, 0.0013, 0.0013, 0.0013,0.0013, 0.0013, 0.0013, 0.0013,0.0013,0.0
SingleSource/Benchmarks/Stanford/Towers, 0.0083, 0.0083, 0.0083,0.0083, 0.0083, 0.0083, 0.0083,0.0083,0.0
SingleSource/Benchmarks/Stanford/RealMM, 0.0014, 0.0014, 0.0014,0.0014, 0.0014, 0.0014, 0.0014,0.0014,0.0
SingleSource/Benchmarks/Stanford/Quicksort, 0.0302, 0.0302, 0.0302,0.0302, 0.0302, 0.0302, 0.0302,0.0302,0.0
SingleSource/Benchmarks/Stanford/Puzzle, 0.0794, 0.0793, 0.0794,0.0794, 0.0794, 0.0794, 0.0795,0.0794,0.0
SingleSource/Benchmarks/Stanford/Perm, 0.0145, 0.0145, 0.0145,0.0145, 0.0145, 0.0145, 0.0146,0.0145,0.0
SingleSource/Benchmarks/Stanford/Oscar, 0.0032, 0.0032, 0.0032,0.0032, 0.0032, 0.0032, 0.0032,0.0032,0.0
SingleSource/Benchmarks/Stanford/FloatMM, 0.2012, 0.2008, 0.2012,0.2012, 0.2011, 0.2012, 0.2012,0.2012,0.0
SingleSource/Benchmarks/Stanford/Bubblesort, 0.0157, 0.0157, 0.0157,0.0157, 0.0157, 0.0157, 0.0158,0.0157,0.0
SingleSource/Benchmarks/Shootout/sieve, 3.4681, 3.4674, 3.4664,3.4674, 3.4706, 3.4651, 3.4674,3.4674,0.0
SingleSource/Benchmarks/Shootout/objinst, 0.0007, 0.0007, 0.0007,0.0007, 0.0007, 0.0007, 0.0007,0.0007,0.0
SingleSource/Benchmarks/Shootout/nestedloop, 0.0007, 0.0007, 0.0007,0.0007, 0.0007, 0.0007, 0.0007,0.0007,0.0
SingleSource/Benchmarks/Shootout/ackermann, 0.0033, 0.0033, 0.0033,0.0033, 0.0033, 0.0033, 0.0033,0.0033,0.0
SingleSource/Benchmarks/Shootout-C++/strcat, 0.0405, 0.0405, 0.0405,0.0405, 0.0405, 0.0406, 0.0405,0.0405,0.0
SingleSource/Benchmarks/Shootout-C++/random, 1.7448, 1.7448, 1.7448,1.7448, 1.7448, 1.7448, 1.7448,1.7448,0.0
SingleSource/Benchmarks/Shootout-C++/objinst, 0.0008, 0.0008, 0.0008,0.0008, 0.0008, 0.0008, 0.0008,0.0008,0.0
SingleSource/Benchmarks/Shootout-C++/nestedloop, 0.0008, 0.0008, 0.0008,0.0008, 0.0008, 0.0008, 0.0008,0.0008,0.0
SingleSource/Benchmarks/Shootout-C++/moments, 0.0440, 0.0441, 0.0441,0.0441, 0.0442, 0.0441, 0.0441,0.0441,0.0
SingleSource/Benchmarks/Shootout-C++/ary2, 0.0149, 0.0149, 0.0149,0.0149, 0.0149, 0.0149, 0.0149,0.0149,0.0
SingleSource/Benchmarks/Shootout-C++/ary, 0.0141, 0.0141, 0.0141,0.0141, 0.0141, 0.0141, 0.0142,0.0141,0.0
SingleSource/Benchmarks/Polybench/stencils/seidel-2d/seidel-2d, 0.6593, 0.6593, 0.6593,0.6593, 0.6593, 0.6593, 0.6593,0.6593,0.0
SingleSource/Benchmarks/Polybench/stencils/jacobi-1d-imper/jacobi-1d-imper, 0.0036, 0.0036, 0.0035,0.0036, 0.0036, 0.0036, 0.0036,0.0036,0.0
SingleSource/Benchmarks/Polybench/medley/reg_detect/reg_detect, 0.0155, 0.0155, 0.0155,0.0155, 0.0155, 0.0155, 0.0155,0.0155,0.0
SingleSource/Benchmarks/Polybench/linear-algebra/solvers/lu/lu, 0.0021, 0.0021, 0.0021,0.0021, 0.0021, 0.0021, 0.0021,0.0021,0.0
SingleSource/Benchmarks/Polybench/linear-algebra/kernels/gesummv/gesummv, 0.3064, 0.3064, 0.3016,0.3064, 0.3064, 0.3064, 0.3015,0.3064,0.0
SingleSource/Benchmarks/Polybench/linear-algebra/kernels/bicg/bicg, 0.2125, 0.2125, 0.2125,0.2125, 0.2125, 0.2125, 0.2125,0.2125,0.0
SingleSource/Benchmarks/Polybench/linear-algebra/kernels/atax/atax, 0.1702, 0.1701, 0.1701,0.1701, 0.1701, 0.1701, 0.1702,0.1701,0.0
SingleSource/Benchmarks/Misc/richards_benchmark, 0.4975, 0.4970, 0.4974,0.4974, 0.4974, 0.4974, 0.4976,0.4974,0.0
SingleSource/Benchmarks/Misc/revertBits, 0.3294, 0.3294, 0.3294,0.3294, 0.3295, 0.3294, 0.3294,0.3294,0.0
SingleSource/Benchmarks/Misc/pi, 0.6942, 0.6942, 0.6942,0.6942, 0.6942, 0.6942, 0.6942,0.6942,0.0
SingleSource/Benchmarks/Misc/matmul_f64_4x4, 1.2951, 1.2951, 1.2951,1.2951, 1.2951, 1.2951, 1.2951,1.2951,0.0
SingleSource/Benchmarks/Misc/mandel-2, 1.2779, 1.2779, 1.2779,1.2779, 1.2779, 1.2779, 1.2779,1.2779,0.0
SingleSource/Benchmarks/Misc/lowercase, 0.0007, 0.0007, 0.0007,0.0007, 0.0007, 0.0007, 0.0007,0.0007,0.0
SingleSource/Benchmarks/Misc/fp-convert, 2.6302, 2.6302, 2.6302,2.6302, 2.6303, 2.6302, 2.6302,2.6302,0.0
SingleSource/Benchmarks/Misc/flops-8, 2.8968, 2.8969, 2.8968,2.8968, 2.8968, 2.8493, 2.8968,2.8968,0.0
SingleSource/Benchmarks/Misc/flops-7, 1.5900, 1.5900, 1.5900,1.59, 1.5901, 1.5900, 1.5900,1.59,0.0
SingleSource/Benchmarks/Misc/flops-4, 2.3271, 2.3271, 2.3271,2.3271, 2.3272, 2.2796, 2.3271,2.3271,0.0
SingleSource/Benchmarks/Misc/flops-2, 0.8625, 0.8625, 0.8625,0.8625, 0.8625, 0.8625, 0.8625,0.8625,0.0
SingleSource/Benchmarks/Misc/flops-1, 3.5822, 3.4825, 3.5829,3.5822, 3.5827, 3.5822, 3.5821,3.5822,0.0
SingleSource/Benchmarks/Misc/ReedSolomon, 3.1537, 3.1548, 3.1535,3.1537, 3.1539, 3.1534, 3.1537,3.1537,0.0
SingleSource/Benchmarks/Misc-C++/oopack_v1p8, 0.1619, 0.1619, 0.1619,0.1619, 0.1619, 0.1619, 0.1619,0.1619,0.0
SingleSource/Benchmarks/McGill/misr, 0.1013, 0.1013, 0.1013,0.1013, 0.1013, 0.1013, 0.1013,0.1013,0.0
SingleSource/Benchmarks/Dhrystone/fldry, 0.3654, 0.3654, 0.3654,0.3654, 0.3654, 0.3654, 0.3654,0.3654,0.0
SingleSource/Benchmarks/Dhrystone/dry, 0.3046, 0.3046, 0.3046,0.3046, 0.3046, 0.3046, 0.3046,0.3046,0.0
SingleSource/Benchmarks/BenchmarkGame/spectral-norm, 0.9768, 0.9768, 0.9768,0.9768, 0.9768, 0.9768, 0.9768,0.9768,0.0
SingleSource/Benchmarks/BenchmarkGame/n-body, 1.3732, 1.3732, 1.3732,1.3732, 1.3733, 1.3732, 1.3732,1.3732,0.0
SingleSource/Benchmarks/Adobe-C++/stepanov_vector, 2.3077, 2.3076, 2.3073,2.3076, 2.3076, 2.3079, 2.3076,2.3076,0.0
MultiSource/Benchmarks/mediabench/mpeg2/mpeg2dec/mpeg2decode, 0.0131, 0.0130, 0.0130,0.013, 0.0130, 0.0130, 0.0130,0.013,0.0
MultiSource/Benchmarks/mediabench/gsm/toast/toast, 0.0133, 0.0131, 0.0133,0.0133, 0.0131, 0.0133, 0.0133,0.0133,0.0
MultiSource/Benchmarks/mediabench/g721/g721encode/encode, 0.0296, 0.0296, 0.0296,0.0296, 0.0296, 0.0296, 0.0296,0.0296,0.0
MultiSource/Benchmarks/VersaBench/ecbdes/ecbdes, 1.6932, 1.6931, 1.6932,1.6932, 1.6931, 1.6932, 1.6933,1.6932,0.0
MultiSource/Benchmarks/VersaBench/bmm/bmm, 1.6460, 1.6460, 1.6460,1.646, 1.6460, 1.6460, 1.6460,1.646,0.0
MultiSource/Benchmarks/VersaBench/beamformer/beamformer, 0.7487, 0.7488, 0.7488,0.7488, 0.7488, 0.7488, 0.7488,0.7488,0.0
MultiSource/Benchmarks/Trimaran/enc-pc1/enc-pc1, 0.3440, 0.3440, 0.3440,0.344, 0.3440, 0.3440, 0.3440,0.344,0.0
MultiSource/Benchmarks/Trimaran/enc-md5/enc-md5, 1.2243, 1.2244, 1.2242,1.2243, 1.2243, 1.2243, 1.2244,1.2243,0.0
MultiSource/Benchmarks/Trimaran/enc-3des/enc-3des, 1.2897, 1.2900, 1.2896,1.2897, 1.2894, 1.2901, 1.2897,1.2897,0.0
MultiSource/Benchmarks/TSVC/Recurrences-dbl/Recurrences-dbl, 3.5011, 3.5011, 3.5012,3.5011, 3.5011, 3.5013, 3.5010,3.5011,0.0
MultiSource/Benchmarks/TSVC/IndirectAddressing-flt/IndirectAddressing-flt, 2.2433, 2.2469, 2.2456,2.2456, 2.2456, 2.2464, 2.2430,2.2456,0.0
MultiSource/Benchmarks/Prolangs-C/gnugo/gnugo, 0.0252, 0.0252, 0.0252,0.0252, 0.0252, 0.0251, 0.0252,0.0252,0.0
MultiSource/Benchmarks/Prolangs-C++/simul/simul, 0.0038, 0.0038, 0.0038,0.0038, 0.0038, 0.0038, 0.0038,0.0038,0.0
MultiSource/Benchmarks/Prolangs-C++/ocean/ocean, 0.0360, 0.0360, 0.0360,0.036, 0.0360, 0.0360, 0.0360,0.036,0.0
MultiSource/Benchmarks/Prolangs-C++/employ/employ, 0.0048, 0.0048, 0.0048,0.0048, 0.0048, 0.0048, 0.0048,0.0048,0.0
MultiSource/Benchmarks/Prolangs-C++/city/city, 0.0050, 0.0050, 0.0050,0.005, 0.0050, 0.0050, 0.0050,0.005,0.0
MultiSource/Benchmarks/Olden/treeadd/treeadd, 0.1269, 0.1266, 0.1265,0.1266, 0.1269, 0.1264, 0.1266,0.1266,0.0
MultiSource/Benchmarks/Olden/power/power, 1.0532, 1.0533, 1.0534,1.0533, 1.0532, 1.0534, 1.0533,1.0533,0.0
MultiSource/Benchmarks/Olden/perimeter/perimeter, 0.1225, 0.1221, 0.1219,0.1221, 0.1222, 0.1221, 0.1219,0.1221,0.0
MultiSource/Benchmarks/MiBench/telecomm-FFT/telecomm-fft, 0.0381, 0.0381, 0.0382,0.0381, 0.0381, 0.0381, 0.0382,0.0381,0.0
MultiSource/Benchmarks/MiBench/network-dijkstra/network-dijkstra, 0.0246, 0.0245, 0.0245,0.0245, 0.0245, 0.0246, 0.0245,0.0245,0.0
MultiSource/Benchmarks/McCat/17-bintr/bintr, 0.0816, 0.0817, 0.0814,0.0816, 0.0819, 0.0811, 0.0816,0.0816,0.0
MultiSource/Benchmarks/McCat/09-vor/vor, 0.0830, 0.0829, 0.0829,0.0829, 0.0829, 0.0829, 0.0828,0.0829,0.0
MultiSource/Benchmarks/McCat/08-main/main, 0.0427, 0.0427, 0.0427,0.0427, 0.0429, 0.0427, 0.0427,0.0427,0.0
MultiSource/Benchmarks/McCat/05-eks/eks, 0.0034, 0.0034, 0.0034,0.0034, 0.0034, 0.0034, 0.0034,0.0034,0.0
MultiSource/Benchmarks/McCat/04-bisect/bisect, 0.0748, 0.0749, 0.0749,0.0749, 0.0749, 0.0748, 0.0749,0.0749,0.0
MultiSource/Benchmarks/MallocBench/gs/gs, 0.0276, 0.0277, 0.0275,0.0276, 0.0275, 0.0276, 0.0276,0.0276,0.0
MultiSource/Benchmarks/FreeBench/pcompress2/pcompress2, 0.1052, 0.1052, 0.1052,0.1052, 0.1052, 0.1051, 0.1053,0.1052,0.0
MultiSource/Benchmarks/FreeBench/neural/neural, 0.1153, 0.1153, 0.1152,0.1153, 0.1154, 0.1153, 0.1153,0.1153,0.0
MultiSource/Benchmarks/FreeBench/fourinarow/fourinarow, 0.1756, 0.1756, 0.1756,0.1756, 0.1757, 0.1756, 0.1756,0.1756,0.0
MultiSource/Benchmarks/FreeBench/distray/distray, 0.1345, 0.1346, 0.1345,0.1345, 0.1345, 0.1345, 0.1345,0.1345,0.0
MultiSource/Applications/sgefa/sgefa, 0.1526, 0.1526, 0.1526,0.1526, 0.1526, 0.1526, 0.1526,0.1526,0.0
MultiSource/Applications/kimwitu++/kc, 0.0283, 0.0281, 0.0281,0.0281, 0.0284, 0.0280, 0.0281,0.0281,0.0
MultiSource/Applications/ALAC/encode/alacconvert-encode, 0.0265, 0.0265, 0.0265,0.0265, 0.0265, 0.0265, 0.0265,0.0265,0.0
MultiSource/Applications/ALAC/decode/alacconvert-decode, 0.0130, 0.0130, 0.0129,0.013, 0.0131, 0.0129, 0.0130,0.013,0.0
MultiSource/Benchmarks/DOE-ProxyApps-C/SimpleMOC/SimpleMOC, 3.7814, 3.7861, 3.7913,3.7861, 3.7860, 3.7834, 3.7943,3.786,-0.0026412403264508555
MultiSource/Benchmarks/TSVC/Recurrences-flt/Recurrences-flt, 3.5007, 3.5009, 3.5008,3.5008, 3.5007, 3.5010, 3.5005,3.5007,-0.0028564899451466452
MultiSource/Benchmarks/TSVC/Reductions-dbl/Reductions-dbl, 3.4400, 3.4400, 3.4400,3.44, 3.4399, 3.4400, 3.4399,3.4399,-0.002906976744176948
MultiSource/Benchmarks/TSVC/Symbolics-dbl/Symbolics-dbl, 2.4552, 2.4550, 2.4545,2.455, 2.4549, 2.4554, 2.4547,2.4549,-0.00407331975560421
MultiSource/Benchmarks/TSVC/InductionVariable-dbl/InductionVariable-dbl, 3.0487, 3.0487, 3.0470,3.0487, 3.0493, 3.0481, 3.0485,3.0485,-0.006560173188574492
MultiSource/Benchmarks/Trimaran/netbench-url/netbench-url, 2.9800, 2.9799, 2.9794,2.9799, 2.9797, 2.9798, 2.9795,2.9797,-0.006711634618628004
MultiSource/Benchmarks/nbench/nbench, 1.2718, 1.2721, 1.2722,1.2721, 1.2720, 1.2718, 1.2748,1.272,-0.00786101721562682
MultiSource/Benchmarks/TSVC/NodeSplitting-dbl/NodeSplitting-dbl, 5.0264, 5.0264, 5.0262,5.0264, 5.0260, 5.0284, 5.0260,5.026,-0.007957981855799545
MultiSource/Benchmarks/TSVC/Searching-dbl/Searching-dbl, 2.2756, 2.2752, 2.2756,2.2756, 2.2752, 2.2754, 2.2756,2.2754,-0.008788890841970876
SingleSource/Benchmarks/Shootout-C++/matrix, 1.1248, 1.1516, 1.1245,1.1248, 1.1254, 1.1246, 1.1247,1.1247,-0.00889046941678906
SingleSource/Benchmarks/Misc-C++/Large/ray, 3.1397, 3.1398, 3.1397,3.1397, 3.1394, 3.1392, 3.1395,3.1394,-0.00955505303054105
MultiSource/Benchmarks/TSVC/ControlFlow-flt/ControlFlow-flt, 3.5409, 3.5467, 3.5569,3.5467, 3.5632, 3.5463, 3.5389,3.5463,-0.011278089491639776
MultiSource/Benchmarks/Olden/em3d/em3d, 1.7021, 1.7021, 1.7017,1.7021, 1.7019, 1.7016, 1.7020,1.7019,-0.01175019094060703
SingleSource/Benchmarks/Polybench/linear-algebra/kernels/doitgen/doitgen, 0.7804, 0.7805, 0.7804,0.7804, 0.7805, 0.7801, 0.7803,0.7803,-0.012813941568423637
MultiSource/Benchmarks/TSVC/CrossingThresholds-dbl/CrossingThresholds-dbl, 2.1497, 2.1489, 2.1499,2.1497, 2.1496, 2.1485, 2.1494,2.1494,-0.013955435642187819
MultiSource/Benchmarks/DOE-ProxyApps-C/miniGMG/miniGMG, 5.2024, 5.2023, 5.2017,5.2023, 5.2014, 5.2021, 5.2015,5.2015,-0.015377813659345207
SingleSource/Benchmarks/Polybench/linear-algebra/kernels/syr2k/syr2k, 9.1869, 9.1868, 9.1862,9.1868, 9.1852, 9.1867, 9.0206,9.1852,-0.017416292942040723
SingleSource/Benchmarks/Polybench/medley/floyd-warshall/floyd-warshall, 5.9750, 5.9753, 5.9753,5.9753, 5.9736, 5.9742, 5.9782,5.9742,-0.01840911753384633
MultiSource/Benchmarks/PAQ8p/paq8p,42.6449,42.6802,42.6344,42.6449,42.6363,42.6315,42.6439,42.6363,-0.02016653808545321
SingleSource/Benchmarks/Polybench/stencils/adi/adi, 2.8046, 2.8047, 2.8053,2.8047, 2.8041, 2.8041, 2.8047,2.8041,-0.021392662316821465
MultiSource/Benchmarks/DOE-ProxyApps-C++/HPCCG/HPCCG, 0.8995, 0.8998, 0.9001,0.8998, 0.8996, 0.8995, 0.8996,0.8996,-0.022227161591470423
MultiSource/Benchmarks/TSVC/Expansion-dbl/Expansion-dbl, 1.9839, 1.9871, 1.9853,1.9853, 1.9848, 1.9841, 1.9856,1.9848,-0.025185110562642166
MultiSource/Benchmarks/ASCI_Purple/SMG2000/smg2000, 1.1669, 1.1682, 1.1671,1.1671, 1.1650, 1.1690, 1.1668,1.1668,-0.025704738240084346
SingleSource/Benchmarks/Misc-C++/stepanov_container, 3.0954, 3.0930, 3.0710,3.093, 3.0922, 3.0859, 3.1026,3.0922,-0.025864856126733837
MultiSource/Benchmarks/TSVC/LinearDependence-dbl/LinearDependence-dbl, 5.7111, 5.7076, 5.7087,5.7087, 5.7072, 5.7126, 5.7072,5.7072,-0.026275684481580353
MultiSource/Benchmarks/MallocBench/cfrac/cfrac, 0.7594, 0.7595, 0.7593,0.7594, 0.7592, 0.7589, 0.7597,0.7592,-0.026336581511721135
MultiSource/Benchmarks/TSVC/StatementReordering-dbl/StatementReordering-dbl, 2.2437, 2.2468, 2.2466,2.2466, 2.2439, 2.2467, 2.2460,2.246,-0.026707023947292186
MultiSource/Benchmarks/TSVC/Packing-dbl/Packing-dbl, 2.3259, 2.3262, 2.3247,2.3259, 2.3252, 2.3258, 2.3246,2.3252,-0.030095876864855153
SingleSource/Benchmarks/McGill/queens, 1.7520, 1.7507, 1.7518,1.7518, 1.7503, 1.7512, 1.7514,1.7512,-0.034250485215203685
SingleSource/Benchmarks/Misc-C++/mandel-text, 1.6140, 1.6153, 1.6155,1.6153, 1.6152, 1.6145, 1.6147,1.6147,-0.037144802822997036
SingleSource/Benchmarks/BenchmarkGame/fannkuch, 2.0903, 2.0885, 2.0903,2.0903, 2.0908, 2.0864, 2.0895,2.0895,-0.038272018370566485
MultiSource/Benchmarks/TSVC/LoopRerolling-flt/LoopRerolling-flt, 3.8305, 3.8383, 3.8333,3.8333, 3.8347, 3.8254, 3.8318,3.8318,-0.03913077505022233
MultiSource/Benchmarks/TSVC/Equivalencing-flt/Equivalencing-flt, 0.9689, 0.9701, 0.9676,0.9689, 0.9685, 0.9677, 0.9703,0.9685,-0.04128393023015153
MultiSource/Benchmarks/tramp3d-v4/tramp3d-v4, 0.2399, 0.2397, 0.2397,0.2397, 0.2397, 0.2396, 0.2395,0.2396,-0.04171881518564291
MultiSource/Benchmarks/DOE-ProxyApps-C/XSBench/XSBench, 2.4380, 2.4397, 2.4400,2.4397, 2.4385, 2.4385, 2.4374,2.4385,-0.04918637537403292
MultiSource/Benchmarks/TSVC/ControlFlow-dbl/ControlFlow-dbl, 3.7451, 3.7407, 3.7441,3.7441, 3.7420, 3.7427, 3.7422,3.7422,-0.050746507839005695
MultiSource/Benchmarks/Ptrdist/bc/bc, 0.3637, 0.3637, 0.3635,0.3637, 0.3635, 0.3635, 0.3636,0.3635,-0.05499037668409423
MultiSource/Benchmarks/TSVC/Equivalencing-dbl/Equivalencing-dbl, 1.3868, 1.3862, 1.3866,1.3866, 1.3868, 1.3854, 1.3858,1.3858,-0.05769508149431335
SingleSource/Benchmarks/Linpack/linpack-pc, 1.2457, 1.2423, 1.2396,1.2423, 1.2502, 1.2415, 1.2404,1.2415,-0.06439668357078876
MultiSource/Benchmarks/TSVC/StatementReordering-flt/StatementReordering-flt, 1.8254, 1.8291, 1.8275,1.8275, 1.8263, 1.8210, 1.8277,1.8263,-0.06566347469219025
MultiSource/Benchmarks/TSVC/LinearDependence-flt/LinearDependence-flt, 4.9837, 4.9799, 4.9836,4.9836, 4.9805, 4.9801, 4.9780,4.9801,-0.07023035556625867
SingleSource/Benchmarks/Polybench/linear-algebra/solvers/dynprog/dynprog, 0.2813, 0.2817, 0.2817,0.2817, 0.2821, 0.2809, 0.2815,0.2815,-0.07099751508697905
SingleSource/Benchmarks/Polybench/linear-algebra/kernels/mvt/mvt, 0.2481, 0.2433, 0.2480,0.248, 0.2438, 0.2478, 0.2484,0.2478,-0.08064516129032695
SingleSource/Benchmarks/BenchmarkGame/nsieve-bits, 0.4874, 0.4861, 0.4854,0.4861, 0.4857, 0.4901, 0.4850,0.4857,-0.08228759514502526
MultiSource/Benchmarks/Fhourstones-3.1/fhourstones3.1, 0.7720, 0.7934, 0.7717,0.772, 0.7712, 0.7713, 0.7741,0.7713,-0.09067357512954066
SingleSource/Benchmarks/Shootout/strcat, 0.1052, 0.1052, 0.1052,0.1052, 0.1051, 0.1051, 0.1051,0.1051,-0.09505703422053591
MultiSource/Benchmarks/TSVC/GlobalDataFlow-flt/GlobalDataFlow-flt, 1.5013, 1.5067, 1.4991,1.5013, 1.4983, 1.4998, 1.5023,1.4998,-0.09991340837940399
MultiSource/Benchmarks/DOE-ProxyApps-C/miniAMR/miniAMR, 0.7742, 0.7716, 0.7731,0.7731, 0.7731, 0.7722, 0.7723,0.7723,-0.10347949812443691
MultiSource/Benchmarks/ASC_Sequoia/IRSmk/IRSmk, 2.9999, 3.0064, 3.0015,3.0015, 2.9981, 3.0028, 2.9922,2.9981,-0.11327669498584214
MultiSource/Benchmarks/ASC_Sequoia/AMGmk/AMGmk, 4.9852, 4.9961, 4.9939,4.9939, 4.9817, 4.9880, 4.9934,4.988,-0.11814413584572137
SingleSource/Benchmarks/Polybench/stencils/jacobi-2d-imper/jacobi-2d-imper, 0.1494, 0.1493, 0.1493,0.1493, 0.1485, 0.1496, 0.1491,0.1491,-0.13395847287339668
MultiSource/Benchmarks/MiBench/network-patricia/network-patricia, 0.0711, 0.0711, 0.0710,0.0711, 0.0711, 0.0710, 0.0710,0.071,-0.14064697609001975
SingleSource/Benchmarks/SmallPT/smallpt, 7.5601, 7.5490, 7.5573,7.5573, 7.5464, 7.5444, 7.5524,7.5464,-0.14423140539610024
SingleSource/Benchmarks/Shootout-C++/methcall, 3.4547, 3.4548, 3.4496,3.4547, 3.4496, 3.4496, 3.4497,3.4496,-0.14762497467217806
SingleSource/Benchmarks/BenchmarkGame/puzzle, 0.1294, 0.1299, 0.1291,0.1294, 0.1291, 0.1292, 0.1294,0.1292,-0.1545595054095683
MultiSource/Benchmarks/BitBench/uudecode/uudecode, 0.0595, 0.0596, 0.0596,0.0596, 0.0595, 0.0595, 0.0596,0.0595,-0.1677852348993314
MultiSource/Benchmarks/McCat/18-imp/imp, 0.0557, 0.0556, 0.0555,0.0556, 0.0555, 0.0556, 0.0555,0.0555,-0.17985611510790145
MultiSource/Benchmarks/McCat/12-IOtest/iotest, 0.2152, 0.2146, 0.2149,0.2149, 0.2145, 0.2142, 0.2146,0.2145,-0.18613308515589289
SingleSource/Benchmarks/Polybench/linear-algebra/kernels/cholesky/cholesky, 0.4579, 0.4607, 0.4600,0.46, 0.4589, 0.4597, 0.4565,0.4589,-0.23913043478261953
SingleSource/Benchmarks/McGill/chomp, 1.3015, 1.3057, 1.3060,1.3057, 1.3001, 1.3025, 1.3036,1.3025,-0.24507926782569855
MultiSource/Benchmarks/TSVC/Symbolics-flt/Symbolics-flt, 1.3892, 1.3930, 1.3930,1.393, 1.3895, 1.3971, 1.3892,1.3895,-0.2512562814070418
SingleSource/Benchmarks/Shootout-C++/heapsort, 2.0306, 2.0286, 2.0259,2.0286, 2.0225, 2.0265, 2.0235,2.0235,-0.2514049097900095
SingleSource/Benchmarks/Shootout/hash, 2.7671, 2.7628, 2.7603,2.7628, 2.7572, 2.7530, 2.7552,2.7552,-0.27508324887794977
MultiSource/Benchmarks/TSVC/CrossingThresholds-flt/CrossingThresholds-flt, 1.6332, 1.6344, 1.6309,1.6332, 1.6243, 1.6285, 1.6492,1.6285,-0.287778594170951
MultiSource/Benchmarks/VersaBench/dbms/dbms, 0.8998, 0.8847, 0.8911,0.8911, 0.8997, 0.8842, 0.8885,0.8885,-0.29177421164853223
SingleSource/Benchmarks/Polybench/stencils/fdtd-apml/fdtd-apml, 0.7242, 0.7234, 0.7279,0.7242, 0.7219, 0.7209, 0.7241,0.7219,-0.3175918254625709
SingleSource/Benchmarks/Shootout-C++/EH/except, 0.1206, 0.1205, 0.1207,0.1206, 0.1203, 0.1202, 0.1201,0.1202,-0.3316749585406287
MultiSource/Applications/minisat/minisat, 4.1450, 4.1343, 4.1801,4.145, 4.1300, 4.1167, 4.1412,4.13,-0.3618817852834688
MultiSource/Benchmarks/DOE-ProxyApps-C/RSBench/rsbench, 0.5797, 0.5717, 0.5831,0.5797, 0.5776, 0.5843, 0.5689,0.5776,-0.3622563394859446
MultiSource/Applications/viterbi/viterbi, 1.2831, 1.2833, 1.2831,1.2831, 1.2780, 1.2784, 1.2784,1.2784,-0.366300366300365
MultiSource/Benchmarks/MiBench/security-rijndael/security-rijndael, 0.0219, 0.0219, 0.0218,0.0219, 0.0219, 0.0218, 0.0218,0.0218,-0.45662100456620447
SingleSource/Benchmarks/CoyoteBench/fftbench, 0.6397, 0.6371, 0.6304,0.6371, 0.6303, 0.6353, 0.6341,0.6341,-0.47088369172814115
SingleSource/Benchmarks/Misc/himenobmtxpa, 0.5201, 0.5130, 0.5184,0.5184, 0.5156, 0.5166, 0.5130,0.5156,-0.5401234567901314
SingleSource/Benchmarks/Stanford/Treesort, 0.0547, 0.0545, 0.0547,0.0547, 0.0544, 0.0544, 0.0546,0.0544,-0.5484460694698434
SingleSource/Benchmarks/Misc/flops,10.6653,10.6445,10.6495,10.6495,10.5900,10.6098,10.5736,10.59,-0.5587116766045397
MultiSource/Applications/d/make_dparser, 0.0159, 0.0158, 0.0157,0.0158, 0.0158, 0.0157, 0.0157,0.0157,-0.6329113924050778
MultiSource/Applications/SIBsim4/SIBsim4, 2.0702, 2.0841, 2.1044,2.0841, 2.1543, 2.0708, 2.0672,2.0708,-0.6381651552228584
SingleSource/Benchmarks/Shootout/ary3, 0.5964, 0.6041, 0.5959,0.5964, 0.5935, 0.5921, 0.5911,0.5921,-0.7209926224010843
MultiSource/Benchmarks/BitBench/uuencode/uuencode, 0.0105, 0.0104, 0.0105,0.0105, 0.0104, 0.0104, 0.0104,0.0104,-0.9523809523809601
SingleSource/Benchmarks/Polybench/linear-algebra/kernels/symm/symm,16.3860,16.0303,16.2173,16.2173,16.5883,16.0208,15.5989,16.0208,-1.2116690201204872
MultiSource/Benchmarks/MiBench/automotive-susan/automotive-susan, 0.0290, 0.0288, 0.0284,0.0288, 0.0284, 0.0289, 0.0284,0.0284,-1.388888888888884
MultiSource/Benchmarks/McCat/03-testtrie/testtrie, 0.0063, 0.0063, 0.0063,0.0063, 0.0062, 0.0062, 0.0061,0.0062,-1.5873015873015928
SingleSource/Benchmarks/Misc/flops-3, 5.4130, 5.5081, 5.5080,5.508, 5.4133, 5.4130, 5.4131,5.4131,-1.7229484386347083
MultiSource/Benchmarks/NPB-serial/is/is, 5.0226, 5.1444, 5.1508,5.1444, 5.0233, 5.0223, 5.0238,5.0233,-2.3540160174170044
SingleSource/Benchmarks/Shootout-C++/lists1, 0.1350, 0.1339, 0.1308,0.1339, 0.1327, 0.1301, 0.1300,0.1301,-2.8379387602688544
MultiSource/Benchmarks/FreeBench/analyzer/analyzer, 0.0407, 0.0393, 0.0406,0.0406, 0.0402, 0.0394, 0.0393,0.0394,-2.9556650246305383
MultiSource/Benchmarks/Olden/bh/bh, 1.3362, 1.3347, 1.3339,1.3347, 1.2771, 1.2800, 1.2785,1.2785,-4.210684048849933
Total elapsed time,-,-,-,587.7488000000001,-,-,-,587.2110999999998,-0.09148466147448353
Total failure,-,-,-,0,-,-,-,0,
Geom. avg slowdown,,,,,,,,,-0.0311226174682%
