Benchmarks,base-5.0,base-5.0,base-5.0,median,aafix,aafix,aafix,median,Slowdown(%)
MultiSource/Benchmarks/Prolangs-C++/life/life, 0.6573, 0.6596, 0.6616,0.6596, 0.6726, 0.6662, 0.6617,0.6662,1.0006064281382843
SingleSource/Benchmarks/Polybench/linear-algebra/solvers/gramschmidt/gramschmidt, 1.4110, 1.4104, 1.4169,1.411, 1.4266, 1.4168, 1.4236,1.4236,0.892983699503902
SingleSource/Benchmarks/CoyoteBench/fftbench, 0.7378, 0.7347, 0.7368,0.7368, 0.7421, 0.7479, 0.7430,0.743,0.8414766558088926
SingleSource/Benchmarks/BenchmarkGame/nsieve-bits, 0.4363, 0.4332, 0.4319,0.4332, 0.4361, 0.4372, 0.4351,0.4361,0.6694367497691589
MultiSource/Benchmarks/TSVC/ControlFlow-flt/ControlFlow-flt, 3.2199, 3.1904, 3.2174,3.2174, 3.2360, 3.2368, 3.2103,3.236,0.578106545657997
SingleSource/Benchmarks/Misc/whetstone, 0.9292, 0.9314, 0.9361,0.9314, 0.9384, 0.9362, 0.9292,0.9362,0.5153532316942266
SingleSource/Benchmarks/Misc-C++/bigfib, 0.1775, 0.1768, 0.1768,0.1768, 0.1776, 0.1777, 0.1773,0.1776,0.4524886877828038
MultiSource/Benchmarks/Ptrdist/ks/ks, 0.6009, 0.5977, 0.5971,0.5977, 0.6004, 0.5971, 0.6002,0.6002,0.4182700351346824
MultiSource/Benchmarks/Olden/mst/mst, 0.0492, 0.0489, 0.0486,0.0489, 0.0491, 0.0492, 0.0488,0.0491,0.4089979550102152
SingleSource/Benchmarks/Stanford/Quicksort, 0.0276, 0.0276, 0.0276,0.0276, 0.0277, 0.0277, 0.0276,0.0277,0.36231884057971175
MultiSource/Applications/kimwitu++/kc, 0.0279, 0.0279, 0.0279,0.0279, 0.0280, 0.0279, 0.0280,0.028,0.35842293906809264
MultiSource/Benchmarks/TSVC/Symbolics-flt/Symbolics-flt, 1.2709, 1.2767, 1.2693,1.2709, 1.2754, 1.2763, 1.2754,1.2754,0.35407978597845613
MultiSource/Benchmarks/Prolangs-C++/ocean/ocean, 0.0363, 0.0364, 0.0363,0.0363, 0.0364, 0.0364, 0.0363,0.0364,0.27548209366392573
MultiSource/Benchmarks/Olden/perimeter/perimeter, 0.1133, 0.1130, 0.1130,0.113, 0.1137, 0.1133, 0.1132,0.1133,0.26548672566371057
MultiSource/Applications/spiff/spiff, 1.1778, 1.1761, 1.1754,1.1761, 1.1820, 1.1791, 1.1780,1.1791,0.255080350310366
SingleSource/Benchmarks/BenchmarkGame/puzzle, 0.1183, 0.1181, 0.1181,0.1181, 0.1184, 0.1184, 0.1183,0.1184,0.2540220152413175
MultiSource/Benchmarks/TSVC/Expansion-flt/Expansion-flt, 1.0771, 1.0845, 1.0880,1.0845, 1.0872, 1.0902, 1.0853,1.0872,0.24896265560165887
MultiSource/Benchmarks/TSVC/GlobalDataFlow-flt/GlobalDataFlow-flt, 1.3829, 1.3700, 1.3707,1.3707, 1.3741, 1.3745, 1.3719,1.3741,0.24804844240169377
SingleSource/Benchmarks/Polybench/datamining/correlation/correlation, 1.4119, 1.4222, 1.4138,1.4138, 1.4228, 1.4173, 1.4160,1.4173,0.24755976800112656
SingleSource/Benchmarks/Polybench/stencils/jacobi-2d-imper/jacobi-2d-imper, 0.1525, 0.1518, 0.1519,0.1519, 0.1518, 0.1525, 0.1522,0.1522,0.19749835418036987
SingleSource/Benchmarks/Polybench/linear-algebra/kernels/cholesky/cholesky, 0.4156, 0.4152, 0.4164,0.4156, 0.4168, 0.4164, 0.4155,0.4164,0.19249278152069227
MultiSource/Benchmarks/Olden/bisort/bisort, 0.3270, 0.3262, 0.3271,0.327, 0.3276, 0.3274, 0.3276,0.3276,0.18348623853210455
MultiSource/Benchmarks/FreeBench/pifft/pifft, 0.0613, 0.0616, 0.0615,0.0615, 0.0617, 0.0613, 0.0616,0.0616,0.1626016260162677
MultiSource/Benchmarks/MiBench/telecomm-adpcm/telecomm-adpcm, 0.0640, 0.0639, 0.0639,0.0639, 0.0640, 0.0639, 0.0642,0.064,0.15649452269170805
MultiSource/Benchmarks/Olden/voronoi/voronoi, 0.1971, 0.1966, 0.1966,0.1966, 0.1973, 0.1969, 0.1965,0.1969,0.15259409969481386
MultiSource/Benchmarks/Olden/bh/bh, 1.1810, 1.1813, 1.1813,1.1813, 1.1834, 1.1831, 1.1811,1.1831,0.1523745026665635
MultiSource/Benchmarks/MiBench/network-patricia/network-patricia, 0.0671, 0.0672, 0.0671,0.0671, 0.0672, 0.0671, 0.0672,0.0672,0.14903129657226621
MultiSource/Benchmarks/sim/sim, 2.4075, 2.4078, 2.4090,2.4078, 2.4112, 2.4112, 2.4074,2.4112,0.14120774150676585
MultiSource/Benchmarks/BitBench/drop3/drop3, 0.1458, 0.1458, 0.1460,0.1458, 0.1460, 0.1460, 0.1459,0.146,0.137174211248281
SingleSource/Benchmarks/Polybench/datamining/covariance/covariance, 1.4080, 1.4119, 1.4041,1.408, 1.4099, 1.4147, 1.4077,1.4099,0.13494318181819231
MultiSource/Benchmarks/DOE-ProxyApps-C++/PENNANT/PENNANT, 0.3780, 0.3776, 0.3774,0.3776, 0.3782, 0.3774, 0.3781,0.3781,0.13241525423728362
MultiSource/Benchmarks/McCat/17-bintr/bintr, 0.0761, 0.0768, 0.0772,0.0768, 0.0773, 0.0767, 0.0769,0.0769,0.13020833333334814
MultiSource/Benchmarks/TSVC/Expansion-dbl/Expansion-dbl, 1.8342, 1.8348, 1.8339,1.8342, 1.8351, 1.8370, 1.8365,1.8365,0.12539526769164144
MultiSource/Benchmarks/DOE-ProxyApps-C/SimpleMOC/SimpleMOC, 3.4692, 3.4704, 3.4819,3.4704, 3.4717, 3.4955, 3.4747,3.4747,0.12390502535730707
MultiSource/Benchmarks/VersaBench/8b10b/8b10b, 3.2906, 3.3001, 3.2883,3.2906, 3.2946, 3.2869, 3.2962,3.2946,0.12155837841123507
SingleSource/Benchmarks/Polybench/linear-algebra/solvers/dynprog/dynprog, 0.2574, 0.2572, 0.2570,0.2572, 0.2571, 0.2575, 0.2580,0.2575,0.1166407465007957
MultiSource/Benchmarks/TSVC/InductionVariable-flt/InductionVariable-flt, 2.3440, 2.3460, 2.3418,2.344, 2.3496, 2.3439, 2.3466,2.3466,0.11092150170648463
MultiSource/Benchmarks/TSVC/ControlLoops-flt/ControlLoops-flt, 2.1514, 2.1562, 2.1497,2.1514, 2.1536, 2.1625, 2.1537,2.1537,0.10690713024077425
SingleSource/Benchmarks/Polybench/medley/floyd-warshall/floyd-warshall, 5.4314, 5.4339, 5.4381,5.4339, 5.4397, 5.4410, 5.4368,5.4397,0.10673733414305886
MultiSource/Benchmarks/MiBench/automotive-basicmath/automotive-basicmath, 0.2052, 0.2055, 0.2058,0.2055, 0.2057, 0.2053, 0.2058,0.2057,0.09732360097323145
MultiSource/Benchmarks/MiBench/consumer-lame/consumer-lame, 0.1089, 0.1089, 0.1088,0.1089, 0.1090, 0.1090, 0.1088,0.109,0.09182736455464191
MultiSource/Benchmarks/TSVC/IndirectAddressing-dbl/IndirectAddressing-dbl, 2.2738, 2.2777, 2.2723,2.2738, 2.2758, 2.2750, 2.2792,2.2758,0.08795848359572922
MultiSource/Benchmarks/VersaBench/dbms/dbms, 0.7967, 0.7981, 0.7968,0.7968, 0.7975, 0.7984, 0.7953,0.7975,0.0878514056224855
SingleSource/Benchmarks/Shootout-C++/heapsort, 1.9371, 1.9366, 1.9331,1.9366, 1.9381, 1.9376, 1.9387,1.9381,0.07745533409067029
MultiSource/Applications/minisat/minisat, 3.7353, 3.7420, 3.7331,3.7353, 3.7558, 3.7337, 3.7381,3.7381,0.07496051187321218
MultiSource/Benchmarks/MallocBench/espresso/espresso, 0.2745, 0.2753, 0.2747,0.2747, 0.2749, 0.2747, 0.2755,0.2749,0.07280669821623231
MultiSource/Benchmarks/DOE-ProxyApps-C++/HPCCG/HPCCG, 0.8368, 0.8374, 0.8373,0.8373, 0.8372, 0.8379, 0.8396,0.8379,0.07165890361877647
MultiSource/Benchmarks/TSVC/LinearDependence-dbl/LinearDependence-dbl, 5.2304, 5.2290, 5.2294,5.2294, 5.2299, 5.2335, 5.2331,5.2331,0.07075381496921551
MultiSource/Benchmarks/TSVC/StatementReordering-dbl/StatementReordering-dbl, 2.0587, 2.0585, 2.0594,2.0587, 2.0601, 2.0611, 2.0575,2.0601,0.06800408024481008
SingleSource/Benchmarks/Shootout-C++/fibo, 1.3500, 1.3494, 1.3510,1.35, 1.3509, 1.3503, 1.3511,1.3509,0.06666666666665932
MultiSource/Benchmarks/TSVC/LoopRestructuring-dbl/LoopRestructuring-dbl, 3.3716, 3.3801, 3.3759,3.3759, 3.3775, 3.3781, 3.3798,3.3781,0.06516780710328351
SingleSource/Benchmarks/Adobe-C++/simple_types_loop_invariant, 1.4573, 1.4571, 1.4578,1.4573, 1.4582, 1.4574, 1.4585,1.4582,0.061758045700943676
MultiSource/Benchmarks/DOE-ProxyApps-C/miniAMR/miniAMR, 0.7164, 0.7145, 0.7143,0.7145, 0.7147, 0.7156, 0.7149,0.7149,0.05598320503847898
SingleSource/Benchmarks/Stanford/FloatMM, 0.1839, 0.1839, 0.1840,0.1839, 0.1840, 0.1839, 0.1840,0.184,0.054377379010328575
MultiSource/Benchmarks/Trimaran/netbench-crc/netbench-crc, 0.5695, 0.5693, 0.5691,0.5693, 0.5699, 0.5696, 0.5696,0.5696,0.052696293693998975
MultiSource/Benchmarks/Trimaran/enc-3des/enc-3des, 1.1783, 1.1781, 1.1787,1.1783, 1.1789, 1.1786, 1.1791,1.1789,0.05092081812783089
SingleSource/Benchmarks/Polybench/stencils/fdtd-apml/fdtd-apml, 0.6655, 0.6649, 0.6691,0.6655, 0.6647, 0.6662, 0.6658,0.6658,0.04507888805409532
MultiSource/Benchmarks/Trimaran/enc-rc4/enc-rc4, 0.6658, 0.6653, 0.6656,0.6656, 0.6655, 0.6661, 0.6659,0.6659,0.04507211538462563
MultiSource/Benchmarks/DOE-ProxyApps-C/miniGMG/miniGMG, 5.0094, 5.0105, 5.0158,5.0105, 5.0127, 5.0126, 5.0116,5.0126,0.04191198483185499
SingleSource/Benchmarks/McGill/chomp, 1.2197, 1.2183, 1.2198,1.2197, 1.2215, 1.2202, 1.2200,1.2202,0.04099368697221273
MultiSource/Benchmarks/DOE-ProxyApps-C++/CLAMR/CLAMR, 1.0247, 1.0247, 1.0249,1.0247, 1.0251, 1.0252, 1.0250,1.0251,0.039035815360599635
MultiSource/Benchmarks/TSVC/IndirectAddressing-flt/IndirectAddressing-flt, 2.0545, 2.0562, 2.0559,2.0559, 2.0574, 2.0565, 2.0567,2.0567,0.038912398462986886
MultiSource/Applications/siod/siod, 1.0349, 1.0342, 1.0333,1.0342, 1.0345, 1.0352, 1.0346,1.0346,0.03867723844517279
MultiSource/Benchmarks/TSVC/NodeSplitting-flt/NodeSplitting-flt, 4.2598, 4.2629, 4.2587,4.2598, 4.2605, 4.2614, 4.2630,4.2614,0.037560448847351324
MultiSource/Benchmarks/Trimaran/enc-pc1/enc-pc1, 0.3145, 0.3146, 0.3145,0.3145, 0.3146, 0.3145, 0.3146,0.3146,0.031796502384739966
MultiSource/Applications/aha/aha, 0.9486, 0.9476, 0.9479,0.9479, 0.9478, 0.9482, 0.9485,0.9482,0.03164890811266918
MultiSource/Benchmarks/TSVC/InductionVariable-dbl/InductionVariable-dbl, 2.8009, 2.7996, 2.8020,2.8009, 2.8015, 2.8036, 2.8017,2.8017,0.028562247848906708
MultiSource/Benchmarks/7zip/7zip-benchmark, 5.8032, 5.8049, 5.8030,5.8032, 5.8048, 5.8040, 5.8047,5.8047,0.025847808105883274
MultiSource/Applications/lua/lua,10.1832,10.1809,10.1809,10.1809,10.1843,10.1788,10.1835,10.1835,0.025538017267634494
SingleSource/Benchmarks/Shootout-C++/hash2, 1.5755, 1.5778, 1.5774,1.5774, 1.5778, 1.5777, 1.5779,1.5778,0.025358184354007385
SingleSource/Benchmarks/Misc/flops, 9.7740, 9.7389, 9.7398,9.7398, 9.7421, 9.7403, 9.7555,9.7421,0.02361444793528289
MultiSource/Benchmarks/TSVC/LinearDependence-flt/LinearDependence-flt, 4.5604, 4.5616, 4.5551,4.5604, 4.5658, 4.5570, 4.5614,4.5614,0.021927901061324917
SingleSource/Benchmarks/Misc-C++/mandel-text, 1.4706, 1.4702, 1.4725,1.4706, 1.4715, 1.4694, 1.4709,1.4709,0.0203998368013103
MultiSource/Benchmarks/TSVC/ControlFlow-dbl/ControlFlow-dbl, 3.4381, 3.4419, 3.4400,3.44, 3.4454, 3.4378, 3.4407,3.4407,0.02034883720931635
MultiSource/Benchmarks/Olden/em3d/em3d, 1.5615, 1.5613, 1.5611,1.5613, 1.5616, 1.5616, 1.5617,1.5616,0.01921475693333896
SingleSource/Benchmarks/Adobe-C++/simple_types_constant_folding, 0.6077, 0.6079, 0.6076,0.6077, 0.6076, 0.6082, 0.6078,0.6078,0.016455487905209232
SingleSource/Benchmarks/Shootout/lists, 3.7554, 3.7722, 3.7652,3.7652, 3.7709, 3.7658, 3.7613,3.7658,0.015935408477640856
SingleSource/Benchmarks/Misc/flops-2, 0.7887, 0.7886, 0.7886,0.7886, 0.7886, 0.7887, 0.7887,0.7887,0.012680699974643161
MultiSource/Applications/hexxagon/hexxagon, 6.4693, 6.4696, 6.4701,6.4696, 6.4697, 6.4709, 6.4704,6.4704,0.012365524916524429
SingleSource/Benchmarks/Misc/oourafft, 5.5017, 5.5018, 5.5015,5.5017, 5.5022, 5.5018, 5.5071,5.5022,0.00908810004180971
MultiSource/Benchmarks/TSVC/Searching-flt/Searching-flt, 2.2254, 2.2247, 2.2249,2.2249, 2.2251, 2.2258, 2.2250,2.2251,0.008989168052497831
MultiSource/Benchmarks/ASC_Sequoia/AMGmk/AMGmk, 4.5880, 4.5830, 4.5809,4.583, 4.5834, 4.5839, 4.5776,4.5834,0.00872790748418506
SingleSource/Benchmarks/Misc/matmul_f64_4x4, 1.1842, 1.1843, 1.1842,1.1842, 1.1843, 1.1843, 1.1843,1.1843,0.008444519506833892
MultiSource/Benchmarks/SciMark2-C/scimark2,38.4742,38.4702,38.4665,38.4702,38.4738,38.4732,38.4705,38.4732,0.007798243835499541
SingleSource/Benchmarks/Shootout/fib2, 1.3502, 1.3511, 1.3555,1.3511, 1.3491, 1.3512, 1.3547,1.3512,0.0074013766560465655
MultiSource/Benchmarks/VersaBench/ecbdes/ecbdes, 1.5482, 1.5482, 1.5483,1.5482, 1.5483, 1.5483, 1.5483,1.5483,0.00645911380958708
SingleSource/Benchmarks/Shootout/random, 1.5955, 1.5954, 1.5954,1.5954, 1.5955, 1.5955, 1.5954,1.5955,0.006268020559097032
SingleSource/Benchmarks/Misc/perlin, 3.5486, 3.5485, 3.5484,3.5485, 3.5488, 3.5485, 3.5487,3.5487,0.005636184303225988
SingleSource/Benchmarks/BenchmarkGame/fannkuch, 1.9104, 1.9129, 1.9110,1.911, 1.9111, 1.9117, 1.9100,1.9111,0.005232862375725844
SingleSource/Benchmarks/Misc-C++-EH/spirit, 2.3832, 2.3846, 2.3836,2.3836, 2.3837, 2.3839, 2.3831,2.3837,0.004195334787726601
SingleSource/Benchmarks/Misc-C++/Large/sphereflake, 5.1270, 5.1271, 5.1270,5.127, 5.1271, 5.1272, 5.1272,5.1272,0.0039009167154269164
MultiSource/Benchmarks/Trimaran/netbench-url/netbench-url, 2.7273, 2.7272, 2.7274,2.7273, 2.7274, 2.7273, 2.7276,2.7274,0.003666630000354054
SingleSource/Benchmarks/Misc/ReedSolomon, 2.8623, 2.8622, 2.8622,2.8622, 2.8622, 2.8624, 2.8623,2.8623,0.0034938159457764684
SingleSource/Benchmarks/Shootout-C++/methcall, 3.1544, 3.1591, 3.1590,3.159, 3.1544, 3.1592, 3.1591,3.1591,0.003165558721129891
SingleSource/Benchmarks/Misc/flops-5, 3.9099, 3.9096, 3.9096,3.9096, 3.9096, 3.9097, 3.9097,3.9097,0.0025578064251963184
SingleSource/Benchmarks/Misc-C++/stepanov_v1p2, 7.2271, 7.2272, 7.2272,7.2272, 7.2272, 7.2274, 7.2273,7.2273,0.0013836617223761394
MultiSource/Benchmarks/mafft/pairlocalalign,22.5442,22.5445,22.5448,22.5445,22.5446,22.5463,22.5433,22.5446,0.00044356716715210354
SingleSource/Regression/C/uint64_to_float, 0.2254, 0.2254, 0.2254,0.2254, 0.2254, 0.2254, 0.2254,0.2254,0.0
SingleSource/Regression/C/2004-08-12-InlinerAndAllocas, 0.0012, 0.0012, 0.0012,0.0012, 0.0012, 0.0012, 0.0012,0.0012,0.0
SingleSource/Benchmarks/Stanford/Treesort, 0.0497, 0.0497, 0.0497,0.0497, 0.0497, 0.0496, 0.0497,0.0497,0.0
SingleSource/Benchmarks/Stanford/Towers, 0.0076, 0.0076, 0.0076,0.0076, 0.0076, 0.0076, 0.0076,0.0076,0.0
SingleSource/Benchmarks/Stanford/RealMM, 0.0013, 0.0013, 0.0013,0.0013, 0.0013, 0.0013, 0.0013,0.0013,0.0
SingleSource/Benchmarks/Stanford/Puzzle, 0.0726, 0.0726, 0.0725,0.0726, 0.0726, 0.0725, 0.0727,0.0726,0.0
SingleSource/Benchmarks/Stanford/Perm, 0.0133, 0.0133, 0.0133,0.0133, 0.0133, 0.0133, 0.0133,0.0133,0.0
SingleSource/Benchmarks/Stanford/Oscar, 0.0029, 0.0029, 0.0029,0.0029, 0.0029, 0.0029, 0.0029,0.0029,0.0
SingleSource/Benchmarks/Stanford/Bubblesort, 0.0143, 0.0144, 0.0144,0.0144, 0.0144, 0.0144, 0.0144,0.0144,0.0
SingleSource/Benchmarks/SmallPT/smallpt, 6.9121, 6.9115, 6.9048,6.9115, 6.9114, 6.9115, 6.9127,6.9115,0.0
SingleSource/Benchmarks/Shootout/strcat, 0.1003, 0.1003, 0.1002,0.1003, 0.1003, 0.1003, 0.1005,0.1003,0.0
SingleSource/Benchmarks/Shootout/objinst, 0.0007, 0.0007, 0.0007,0.0007, 0.0007, 0.0007, 0.0007,0.0007,0.0
SingleSource/Benchmarks/Shootout/nestedloop, 0.0007, 0.0007, 0.0007,0.0007, 0.0007, 0.0007, 0.0007,0.0007,0.0
SingleSource/Benchmarks/Shootout/matrix, 0.9675, 0.9681, 0.9684,0.9681, 0.9681, 0.9680, 0.9684,0.9681,0.0
SingleSource/Benchmarks/Shootout/ackermann, 0.0030, 0.0030, 0.0030,0.003, 0.0030, 0.0030, 0.0030,0.003,0.0
SingleSource/Benchmarks/Shootout-C++/strcat, 0.0386, 0.0386, 0.0385,0.0386, 0.0384, 0.0387, 0.0386,0.0386,0.0
SingleSource/Benchmarks/Shootout-C++/random, 1.5956, 1.5955, 1.5955,1.5955, 1.5954, 1.5955, 1.5955,1.5955,0.0
SingleSource/Benchmarks/Shootout-C++/objinst, 0.0007, 0.0007, 0.0007,0.0007, 0.0007, 0.0007, 0.0007,0.0007,0.0
SingleSource/Benchmarks/Shootout-C++/nestedloop, 0.0007, 0.0007, 0.0007,0.0007, 0.0007, 0.0007, 0.0007,0.0007,0.0
SingleSource/Benchmarks/Shootout-C++/moments, 0.0503, 0.0504, 0.0504,0.0504, 0.0504, 0.0503, 0.0504,0.0504,0.0
SingleSource/Benchmarks/Shootout-C++/ary, 0.0217, 0.0217, 0.0217,0.0217, 0.0217, 0.0217, 0.0216,0.0217,0.0
SingleSource/Benchmarks/Shootout-C++/ackermann, 0.6009, 0.6009, 0.6009,0.6009, 0.6010, 0.6009, 0.6009,0.6009,0.0
SingleSource/Benchmarks/Polybench/stencils/seidel-2d/seidel-2d, 0.6027, 0.6027, 0.6027,0.6027, 0.6026, 0.6027, 0.6027,0.6027,0.0
SingleSource/Benchmarks/Polybench/stencils/jacobi-1d-imper/jacobi-1d-imper, 0.0033, 0.0033, 0.0033,0.0033, 0.0033, 0.0033, 0.0033,0.0033,0.0
SingleSource/Benchmarks/Polybench/medley/reg_detect/reg_detect, 0.0142, 0.0142, 0.0142,0.0142, 0.0142, 0.0142, 0.0142,0.0142,0.0
SingleSource/Benchmarks/Misc/pi, 0.6348, 0.6347, 0.6348,0.6348, 0.6348, 0.6348, 0.6348,0.6348,0.0
SingleSource/Benchmarks/Misc/mandel-2, 1.1685, 1.1685, 1.1685,1.1685, 1.1685, 1.1685, 1.1685,1.1685,0.0
SingleSource/Benchmarks/Misc/mandel, 0.7622, 0.7623, 0.7623,0.7623, 0.7622, 0.7623, 0.7623,0.7623,0.0
SingleSource/Benchmarks/Misc/lowercase, 0.0007, 0.0007, 0.0007,0.0007, 0.0007, 0.0007, 0.0007,0.0007,0.0
SingleSource/Benchmarks/Misc/fp-convert, 2.4051, 2.4051, 2.4051,2.4051, 2.4051, 2.4051, 2.4051,2.4051,0.0
SingleSource/Benchmarks/Misc/flops-8, 2.6490, 2.6489, 2.6489,2.6489, 2.6489, 2.6489, 2.6489,2.6489,0.0
SingleSource/Benchmarks/Misc/flops-7, 1.4540, 1.4539, 1.4539,1.4539, 1.4539, 1.4540, 1.4539,1.4539,0.0
SingleSource/Benchmarks/Misc/flops-6, 3.1269, 3.1268, 3.1268,3.1268, 3.1268, 3.1269, 3.1268,3.1268,0.0
SingleSource/Benchmarks/Misc/flops-4, 2.1280, 2.1279, 2.1279,2.1279, 2.1279, 2.1280, 2.1279,2.1279,0.0
SingleSource/Benchmarks/Misc/fbench, 1.5669, 1.5669, 1.5669,1.5669, 1.5669, 1.5669, 1.5669,1.5669,0.0
SingleSource/Benchmarks/Misc/dt, 0.6098, 0.6098, 0.6098,0.6098, 0.6098, 0.6098, 0.6098,0.6098,0.0
SingleSource/Benchmarks/Misc-C++/oopack_v1p8, 0.1481, 0.1481, 0.1479,0.1481, 0.1481, 0.1481, 0.1481,0.1481,0.0
SingleSource/Benchmarks/Misc-C++/Large/ray, 2.8694, 2.8695, 2.8693,2.8694, 2.8694, 2.8694, 2.8694,2.8694,0.0
SingleSource/Benchmarks/McGill/misr, 0.0926, 0.0926, 0.0927,0.0926, 0.0926, 0.0926, 0.0926,0.0926,0.0
SingleSource/Benchmarks/Dhrystone/fldry, 0.3341, 0.3341, 0.3341,0.3341, 0.3341, 0.3341, 0.3340,0.3341,0.0
SingleSource/Benchmarks/Dhrystone/dry, 0.2785, 0.2785, 0.2786,0.2785, 0.2785, 0.2785, 0.2785,0.2785,0.0
SingleSource/Benchmarks/BenchmarkGame/spectral-norm, 0.8932, 0.8932, 0.8932,0.8932, 0.8932, 0.8932, 0.8932,0.8932,0.0
SingleSource/Benchmarks/BenchmarkGame/partialsums, 0.5198, 0.5199, 0.5199,0.5199, 0.5200, 0.5199, 0.5199,0.5199,0.0
SingleSource/Benchmarks/BenchmarkGame/n-body, 1.2557, 1.2557, 1.2557,1.2557, 1.2556, 1.2557, 1.2557,1.2557,0.0
MultiSource/Benchmarks/mediabench/mpeg2/mpeg2dec/mpeg2decode, 0.0137, 0.0136, 0.0136,0.0136, 0.0137, 0.0136, 0.0136,0.0136,0.0
MultiSource/Benchmarks/mediabench/jpeg/jpeg-6a/cjpeg, 0.0046, 0.0046, 0.0046,0.0046, 0.0046, 0.0046, 0.0046,0.0046,0.0
MultiSource/Benchmarks/mediabench/gsm/toast/toast, 0.0139, 0.0140, 0.0139,0.0139, 0.0139, 0.0140, 0.0139,0.0139,0.0
MultiSource/Benchmarks/mediabench/g721/g721encode/encode, 0.0290, 0.0290, 0.0290,0.029, 0.0290, 0.0290, 0.0290,0.029,0.0
MultiSource/Benchmarks/mediabench/adpcm/rawdaudio/rawdaudio, 0.0034, 0.0034, 0.0034,0.0034, 0.0034, 0.0034, 0.0034,0.0034,0.0
MultiSource/Benchmarks/VersaBench/bmm/bmm, 1.5053, 1.5054, 1.5054,1.5054, 1.5055, 1.5054, 1.5053,1.5054,0.0
MultiSource/Benchmarks/Trimaran/enc-md5/enc-md5, 1.1196, 1.1195, 1.1195,1.1195, 1.1195, 1.1195, 1.1195,1.1195,0.0
MultiSource/Benchmarks/TSVC/Symbolics-dbl/Symbolics-dbl, 2.2565, 2.2571, 2.2569,2.2569, 2.2566, 2.2571, 2.2569,2.2569,0.0
MultiSource/Benchmarks/TSVC/Reductions-flt/Reductions-flt, 5.4270, 5.4270, 5.4269,5.427, 5.4270, 5.4270, 5.4270,5.427,0.0
MultiSource/Benchmarks/TSVC/Recurrences-flt/Recurrences-flt, 3.2012, 3.2013, 3.2010,3.2012, 3.2012, 3.2011, 3.2012,3.2012,0.0
MultiSource/Benchmarks/TSVC/LoopRerolling-dbl/LoopRerolling-dbl, 4.2280, 4.2289, 4.2281,4.2281, 4.2286, 4.2281, 4.2279,4.2281,0.0
MultiSource/Benchmarks/Ptrdist/bc/bc, 0.3351, 0.3351, 0.3349,0.3351, 0.3351, 0.3351, 0.3349,0.3351,0.0
MultiSource/Benchmarks/Ptrdist/anagram/anagram, 0.5504, 0.5504, 0.5504,0.5504, 0.5505, 0.5504, 0.5504,0.5504,0.0
MultiSource/Benchmarks/Prolangs-C/gnugo/gnugo, 0.0249, 0.0250, 0.0250,0.025, 0.0251, 0.0250, 0.0250,0.025,0.0
MultiSource/Benchmarks/Prolangs-C/agrep/agrep, 0.0045, 0.0045, 0.0045,0.0045, 0.0045, 0.0045, 0.0045,0.0045,0.0
MultiSource/Benchmarks/Prolangs-C++/simul/simul, 0.0035, 0.0035, 0.0035,0.0035, 0.0035, 0.0035, 0.0035,0.0035,0.0
MultiSource/Benchmarks/Prolangs-C++/primes/primes, 0.1954, 0.1950, 0.1950,0.195, 0.1950, 0.1955, 0.1941,0.195,0.0
MultiSource/Benchmarks/Prolangs-C++/city/city, 0.0046, 0.0046, 0.0046,0.0046, 0.0046, 0.0046, 0.0046,0.0046,0.0
MultiSource/Benchmarks/Olden/health/health, 0.1404, 0.1399, 0.1405,0.1404, 0.1404, 0.1401, 0.1404,0.1404,0.0
MultiSource/Benchmarks/MiBench/telecomm-gsm/telecomm-gsm, 0.0930, 0.0931, 0.0930,0.093, 0.0930, 0.0930, 0.0930,0.093,0.0
MultiSource/Benchmarks/MiBench/telecomm-FFT/telecomm-fft, 0.0352, 0.0353, 0.0353,0.0353, 0.0353, 0.0353, 0.0353,0.0353,0.0
MultiSource/Benchmarks/MiBench/security-sha/security-sha, 0.0146, 0.0146, 0.0146,0.0146, 0.0146, 0.0146, 0.0145,0.0146,0.0
MultiSource/Benchmarks/McCat/18-imp/imp, 0.0527, 0.0528, 0.0526,0.0527, 0.0528, 0.0527, 0.0526,0.0527,0.0
MultiSource/Benchmarks/McCat/12-IOtest/iotest, 0.1968, 0.1974, 0.1987,0.1974, 0.1979, 0.1974, 0.1972,0.1974,0.0
MultiSource/Benchmarks/McCat/08-main/main, 0.0390, 0.0391, 0.0390,0.039, 0.0390, 0.0391, 0.0390,0.039,0.0
MultiSource/Benchmarks/McCat/05-eks/eks, 0.0031, 0.0031, 0.0031,0.0031, 0.0031, 0.0031, 0.0031,0.0031,0.0
MultiSource/Benchmarks/McCat/04-bisect/bisect, 0.0703, 0.0703, 0.0703,0.0703, 0.0703, 0.0703, 0.0703,0.0703,0.0
MultiSource/Benchmarks/MallocBench/cfrac/cfrac, 0.6969, 0.6972, 0.6978,0.6972, 0.6969, 0.6973, 0.6972,0.6972,0.0
MultiSource/Benchmarks/FreeBench/pcompress2/pcompress2, 0.0946, 0.0947, 0.0946,0.0946, 0.0946, 0.0946, 0.0946,0.0946,0.0
MultiSource/Benchmarks/FreeBench/neural/neural, 0.1073, 0.1073, 0.1073,0.1073, 0.1073, 0.1073, 0.1073,0.1073,0.0
MultiSource/Benchmarks/FreeBench/fourinarow/fourinarow, 0.1624, 0.1625, 0.1625,0.1625, 0.1625, 0.1625, 0.1625,0.1625,0.0
MultiSource/Benchmarks/FreeBench/distray/distray, 0.1248, 0.1248, 0.1249,0.1248, 0.1248, 0.1248, 0.1248,0.1248,0.0
MultiSource/Benchmarks/Bullet/bullet, 2.9578, 2.9534, 2.9595,2.9578, 2.9578, 2.9593, 2.9566,2.9578,0.0
MultiSource/Benchmarks/BitBench/uuencode/uuencode, 0.0114, 0.0114, 0.0114,0.0114, 0.0114, 0.0114, 0.0114,0.0114,0.0
MultiSource/Benchmarks/BitBench/uudecode/uudecode, 0.0565, 0.0564, 0.0564,0.0564, 0.0564, 0.0564, 0.0564,0.0564,0.0
MultiSource/Benchmarks/ASC_Sequoia/CrystalMk/CrystalMk, 6.6507, 6.6508, 6.6507,6.6507, 6.6507, 6.6507, 6.6508,6.6507,0.0
MultiSource/Applications/sgefa/sgefa, 0.1396, 0.1396, 0.1396,0.1396, 0.1396, 0.1397, 0.1396,0.1396,0.0
MultiSource/Applications/hbd/hbd, 0.0034, 0.0034, 0.0034,0.0034, 0.0034, 0.0034, 0.0034,0.0034,0.0
MultiSource/Applications/ALAC/encode/alacconvert-encode, 0.0262, 0.0262, 0.0262,0.0262, 0.0262, 0.0262, 0.0262,0.0262,0.0
MultiSource/Applications/ALAC/decode/alacconvert-decode, 0.0137, 0.0137, 0.0137,0.0137, 0.0137, 0.0137, 0.0137,0.0137,0.0
SingleSource/Benchmarks/Adobe-C++/stepanov_abstraction, 3.9012, 3.8997, 3.9004,3.9004, 3.9003, 3.9009, 3.9000,3.9003,-0.002563839606184448
MultiSource/Benchmarks/TSVC/Recurrences-dbl/Recurrences-dbl, 3.2016, 3.2017, 3.2016,3.2016, 3.2015, 3.2016, 3.2015,3.2015,-0.003123438280860924
MultiSource/Benchmarks/TSVC/Reductions-dbl/Reductions-dbl, 3.1455, 3.1457, 3.1456,3.1456, 3.1455, 3.1456, 3.1455,3.1455,-0.0031790437436396424
MultiSource/Benchmarks/TSVC/CrossingThresholds-dbl/CrossingThresholds-dbl, 1.9838, 1.9842, 1.9843,1.9842, 1.9843, 1.9838, 1.9841,1.9841,-0.00503981453482405
SingleSource/Benchmarks/Shootout/methcall, 2.9959, 2.9956, 2.9960,2.9959, 2.9955, 2.9957, 2.9957,2.9957,-0.006675790246668534
SingleSource/Benchmarks/Misc-C++/stepanov_container, 2.6580, 2.6474, 2.6592,2.658, 2.6553, 2.6709, 2.6578,2.6578,-0.0075244544770480815
SingleSource/Benchmarks/Polybench/stencils/adi/adi, 2.6052, 2.6051, 2.6063,2.6052, 2.6050, 2.6093, 2.6044,2.605,-0.007676953784740981
SingleSource/Benchmarks/Adobe-C++/stepanov_vector, 2.1096, 2.1098, 2.1099,2.1098, 2.1095, 2.1096, 2.1099,2.1096,-0.009479571523363095
MultiSource/Benchmarks/TSVC/Searching-dbl/Searching-dbl, 2.0806, 2.0811, 2.0813,2.0811, 2.0809, 2.0807, 2.0809,2.0809,-0.009610302244000835
MultiSource/Benchmarks/Olden/power/power, 0.9634, 0.9633, 0.9634,0.9634, 0.9633, 0.9634, 0.9633,0.9633,-0.010379904504875803
MultiSource/Benchmarks/TSVC/GlobalDataFlow-dbl/GlobalDataFlow-dbl, 2.6190, 2.6193, 2.6184,2.619, 2.6185, 2.6195, 2.6187,2.6187,-0.011454753722806021
MultiSource/Applications/JM/lencod/lencod, 2.9022, 2.8995, 2.9027,2.9022, 2.8978, 2.9018, 2.9043,2.9018,-0.013782647646609636
MultiSource/Benchmarks/VersaBench/beamformer/beamformer, 0.6857, 0.6860, 0.6860,0.686, 0.6861, 0.6859, 0.6857,0.6859,-0.014577259475234694
MultiSource/Benchmarks/TSVC/NodeSplitting-dbl/NodeSplitting-dbl, 4.6031, 4.6037, 4.6053,4.6037, 4.6030, 4.6029, 4.6033,4.603,-0.015205161066100814
MultiSource/Benchmarks/TSVC/ControlLoops-dbl/ControlLoops-dbl, 2.3333, 2.3308, 2.3304,2.3308, 2.3306, 2.3299, 2.3304,2.3304,-0.01716148961730113
SingleSource/Benchmarks/Adobe-C++/functionobjects, 2.7600, 2.7611, 2.7608,2.7608, 2.7603, 2.7611, 2.7597,2.7603,-0.01811069255288622
SingleSource/Benchmarks/Shootout/heapsort, 1.9435, 1.9454, 1.9415,1.9435, 1.9431, 1.9427, 1.9432,1.9431,-0.020581425263699327
SingleSource/Benchmarks/Misc/richards_benchmark, 0.4547, 0.4546, 0.4548,0.4547, 0.4545, 0.4546, 0.4550,0.4546,-0.021992522542335635
SingleSource/Benchmarks/CoyoteBench/almabench,11.5584,11.5607,11.5626,11.5607,11.5572,11.5598,11.5580,11.558,-0.023354987154766693
SingleSource/Benchmarks/McGill/queens, 1.6020, 1.6010, 1.6016,1.6016, 1.6012, 1.6013, 1.6009,1.6012,-0.024975024975026905
MultiSource/Benchmarks/Fhourstones-3.1/fhourstones3.1, 0.7277, 0.7273, 0.7276,0.7276, 0.7274, 0.7273, 0.7274,0.7274,-0.02748763056624748
MultiSource/Benchmarks/Olden/tsp/tsp, 1.0733, 1.0726, 1.0735,1.0733, 1.0732, 1.0730, 1.0729,1.073,-0.0279511786080322
MultiSource/Benchmarks/TSVC/Packing-dbl/Packing-dbl, 2.1456, 2.1458, 2.1459,2.1458, 2.1452, 2.1466, 2.1448,2.1452,-0.027961599403480975
MultiSource/Applications/obsequi/Obsequi, 1.0391, 1.0390, 1.0392,1.0391, 1.0388, 1.0390, 1.0387,1.0388,-0.02887113848522027
SingleSource/Benchmarks/Misc/revertBits, 0.3013, 0.3013, 0.3012,0.3013, 0.3012, 0.3012, 0.3012,0.3012,-0.033189512114173425
MultiSource/Benchmarks/DOE-ProxyApps-C/XSBench/XSBench, 2.2199, 2.2217, 2.2216,2.2216, 2.2207, 2.2227, 2.2200,2.2207,-0.04051134317609728
MultiSource/Benchmarks/Fhourstones/fhourstones, 0.4917, 0.4904, 0.4943,0.4917, 0.4915, 0.4917, 0.4905,0.4915,-0.04067520846045003
MultiSource/Benchmarks/nbench/nbench, 1.1635, 1.1638, 1.1627,1.1635, 1.1639, 1.1630, 1.1629,1.163,-0.042973785990541025
MultiSource/Benchmarks/PAQ8p/paq8p,39.0364,39.0627,39.0595,39.0595,39.0426,39.0483,39.0386,39.0426,-0.043267322930395924
MultiSource/Benchmarks/tramp3d-v4/tramp3d-v4, 0.2193, 0.2191, 0.2191,0.2191, 0.2195, 0.2190, 0.2187,0.219,-0.04564125969875876
SingleSource/Benchmarks/Polybench/linear-algebra/kernels/bicg/bicg, 0.1994, 0.1994, 0.1993,0.1994, 0.1994, 0.1992, 0.1993,0.1993,-0.05015045135405849
SingleSource/Benchmarks/CoyoteBench/huffbench, 8.2789, 8.2815, 8.2946,8.2815, 8.2773, 8.2771, 8.2827,8.2773,-0.05071545009960321
MultiSource/Benchmarks/TSVC/LoopRerolling-flt/LoopRerolling-flt, 3.5087, 3.5113, 3.5050,3.5087, 3.5050, 3.5063, 3.5077,3.5063,-0.06840140222874602
SingleSource/Benchmarks/Polybench/stencils/fdtd-2d/fdtd-2d, 0.5108, 0.5085, 0.5104,0.5104, 0.5119, 0.5088, 0.5100,0.51,-0.07836990595609938
MultiSource/Benchmarks/FreeBench/mason/mason, 0.1210, 0.1210, 0.1209,0.121, 0.1209, 0.1210, 0.1209,0.1209,-0.08264462809917106
MultiSource/Benchmarks/Olden/treeadd/treeadd, 0.1172, 0.1172, 0.1166,0.1172, 0.1173, 0.1169, 0.1171,0.1171,-0.08532423208191808
MultiSource/Benchmarks/ASCI_Purple/SMG2000/smg2000, 1.2861, 1.2848, 1.2838,1.2848, 1.2836, 1.2860, 1.2837,1.2837,-0.08561643835615085
SingleSource/Benchmarks/Shootout/sieve, 3.1698, 3.1731, 3.1742,3.1731, 3.1703, 3.1732, 3.1700,3.1703,-0.08824178248399983
MultiSource/Benchmarks/ASC_Sequoia/IRSmk/IRSmk, 2.7247, 2.7245, 2.7231,2.7245, 2.7235, 2.7195, 2.7219,2.7219,-0.09543035419341539
SingleSource/Benchmarks/BenchmarkGame/Large/fasta, 0.5906, 0.5899, 0.5906,0.5906, 0.5900, 0.5899, 0.5900,0.59,-0.10159160176093085
MultiSource/Applications/viterbi/viterbi, 1.1748, 1.1737, 1.1761,1.1748, 1.1736, 1.1738, 1.1736,1.1736,-0.10214504596527396
MultiSource/Benchmarks/Ptrdist/yacr2/yacr2, 0.4872, 0.4869, 0.4869,0.4869, 0.4864, 0.4862, 0.4868,0.4864,-0.10269049086054638
SingleSource/Benchmarks/CoyoteBench/lpbench, 2.4085, 2.3847, 2.3917,2.3917, 2.3858, 2.3892, 2.3901,2.3892,-0.10452815988627462
SingleSource/Benchmarks/Misc/evalloop, 0.3336, 0.3363, 0.3358,0.3358, 0.3354, 0.3353, 0.3359,0.3354,-0.1191185229303171
SingleSource/Benchmarks/Polybench/linear-algebra/kernels/atax/atax, 0.1605, 0.1605, 0.1603,0.1605, 0.1603, 0.1602, 0.1604,0.1603,-0.12461059190032042
MultiSource/Benchmarks/McCat/09-vor/vor, 0.0779, 0.0778, 0.0780,0.0779, 0.0778, 0.0778, 0.0779,0.0778,-0.12836970474968679
SingleSource/Benchmarks/Linpack/linpack-pc, 1.1361, 1.1344, 1.1361,1.1361, 1.1407, 1.1345, 1.1346,1.1346,-0.13203063110641677
MultiSource/Applications/oggenc/oggenc, 0.0709, 0.0709, 0.0713,0.0709, 0.0709, 0.0708, 0.0708,0.0708,-0.14104372355430161
MultiSource/Benchmarks/DOE-ProxyApps-C/Pathfinder/PathFinder, 1.9430, 1.9434, 1.9430,1.943, 1.9465, 1.9402, 1.9380,1.9402,-0.14410705095214693
SingleSource/Benchmarks/Adobe-C++/loop_unroll, 1.6254, 1.6244, 1.6248,1.6248, 1.6222, 1.6227, 1.6224,1.6224,-0.1477104874446078
SingleSource/Benchmarks/Misc/ffbench, 0.5394, 0.5403, 0.5371,0.5394, 0.5385, 0.5400, 0.5386,0.5386,-0.14831294030404063
MultiSource/Benchmarks/TSVC/CrossingThresholds-flt/CrossingThresholds-flt, 1.4951, 1.4920, 1.4881,1.492, 1.4996, 1.4874, 1.4895,1.4895,-0.16756032171580948
MultiSource/Benchmarks/TSVC/StatementReordering-flt/StatementReordering-flt, 1.6735, 1.6746, 1.6748,1.6746, 1.6714, 1.6709, 1.6746,1.6714,-0.1910904096500743
MultiSource/Benchmarks/TSVC/Equivalencing-flt/Equivalencing-flt, 0.8885, 0.8867, 0.8870,0.887, 0.8852, 0.8847, 0.8891,0.8852,-0.20293122886133608
SingleSource/Benchmarks/Shootout-C++/lists, 2.6441, 2.6528, 2.6381,2.6441, 2.6379, 2.6385, 2.6457,2.6385,-0.2117922922733606
MultiSource/Benchmarks/TSVC/Equivalencing-dbl/Equivalencing-dbl, 1.2722, 1.2732, 1.2734,1.2732, 1.2703, 1.2705, 1.2738,1.2705,-0.2120640904806903
MultiSource/Benchmarks/DOE-ProxyApps-C++/miniFE/miniFE, 2.4173, 2.4230, 2.4261,2.423, 2.4211, 2.4148, 2.4174,2.4174,-0.2311184482046924
MultiSource/Applications/JM/ldecod/ldecod, 0.0380, 0.0380, 0.0380,0.038, 0.0380, 0.0379, 0.0379,0.0379,-0.2631578947368318
SingleSource/Benchmarks/Shootout-C++/hash, 0.2857, 0.2844, 0.2840,0.2844, 0.2835, 0.2834, 0.2835,0.2835,-0.31645569620253333
MultiSource/Benchmarks/MiBench/automotive-susan/automotive-susan, 0.0277, 0.0278, 0.0278,0.0278, 0.0277, 0.0279, 0.0277,0.0277,-0.3597122302158251
MultiSource/Benchmarks/MiBench/consumer-typeset/consumer-typeset, 0.0805, 0.0807, 0.0799,0.0805, 0.0802, 0.0802, 0.0800,0.0802,-0.3726708074534235
SingleSource/Benchmarks/Shootout-C++/ary2, 0.0217, 0.0218, 0.0218,0.0218, 0.0218, 0.0217, 0.0217,0.0217,-0.4587155963302725
MultiSource/Benchmarks/MiBench/security-rijndael/security-rijndael, 0.0217, 0.0218, 0.0218,0.0218, 0.0217, 0.0217, 0.0218,0.0217,-0.4587155963302725
MultiSource/Applications/d/make_dparser, 0.0163, 0.0163, 0.0162,0.0163, 0.0162, 0.0162, 0.0162,0.0162,-0.6134969325153339
Total elapsed time,-,-,-,539.5071000000006,-,-,-,539.3771000000003,-0.02409606842993517
Total failure,-,-,-,0,-,-,-,0,
Geom. avg slowdown,,,,,,,,,0.0267958876713%
