Benchmarks,base-5.0,base-5.0,base-5.0,median,br4-aa,br4-aa,br4-aa,median,Slowdown(%)
SingleSource/Benchmarks/Adobe-C++/stepanov_vector, 0.7333, 0.7280, 0.7295,0.7295, 0.8369, 0.8369, 0.8351,0.8369,14.722412611377656
SingleSource/Benchmarks/Stanford/Oscar, 0.0614, 0.0612, 0.0612,0.0612, 0.0661, 0.0662, 0.0661,0.0661,8.006535947712434
MultiSource/Benchmarks/Olden/mst/mst, 0.1169, 0.1164, 0.1164,0.1164, 0.1204, 0.1201, 0.1204,0.1204,3.4364261168384758
MultiSource/Benchmarks/McCat/08-main/main, 0.2316, 0.2314, 0.2312,0.2314, 0.2354, 0.2356, 0.2353,0.2354,1.728608470181503
SingleSource/Benchmarks/Shootout/matrix, 0.0811, 0.0808, 0.0809,0.0809, 0.0820, 0.0821, 0.0819,0.082,1.359703337453655
SingleSource/Benchmarks/BenchmarkGame/fannkuch, 0.0504, 0.0507, 0.0503,0.0504, 0.0510, 0.0508, 0.0510,0.051,1.1904761904761862
MultiSource/Benchmarks/TSVC/Searching-dbl/Searching-dbl, 1.9365, 1.9356, 1.9332,1.9356, 1.9395, 1.9515, 1.9554,1.9515,0.8214507129572279
SingleSource/Benchmarks/Shootout/heapsort, 0.0379, 0.0378, 0.0378,0.0378, 0.0380, 0.0381, 0.0381,0.0381,0.7936507936507908
SingleSource/Benchmarks/Shootout/strcat, 0.0263, 0.0261, 0.0261,0.0261, 0.0263, 0.0262, 0.0263,0.0263,0.7662835249041988
MultiSource/Benchmarks/McCat/04-bisect/bisect, 0.1248, 0.1244, 0.1240,0.1244, 0.1253, 0.1251, 0.1253,0.1253,0.7234726688102988
SingleSource/Benchmarks/Shootout/random, 0.0289, 0.0288, 0.0288,0.0288, 0.0289, 0.0290, 0.0290,0.029,0.694444444444442
SingleSource/Benchmarks/CoyoteBench/almabench, 0.0652, 0.0650, 0.0650,0.065, 0.0654, 0.0654, 0.0654,0.0654,0.6153846153846176
MultiSource/Benchmarks/McCat/17-bintr/bintr, 0.0670, 0.0668, 0.0668,0.0668, 0.0672, 0.0671, 0.0673,0.0672,0.5988023952095745
MultiSource/Benchmarks/Olden/voronoi/voronoi, 0.2356, 0.2350, 0.2353,0.2353, 0.2366, 0.2367, 0.2368,0.2367,0.5949851253718608
MultiSource/Benchmarks/Olden/treeadd/treeadd, 0.0521, 0.0520, 0.0518,0.052, 0.0523, 0.0522, 0.0524,0.0523,0.5769230769230749
SingleSource/Benchmarks/Misc/salsa20, 0.0530, 0.0529, 0.0529,0.0529, 0.0535, 0.0532, 0.0532,0.0532,0.567107750472573
MultiSource/Benchmarks/DOE-ProxyApps-C/XSBench/XSBench, 0.3398, 0.3393, 0.3391,0.3393, 0.3413, 0.3410, 0.3412,0.3412,0.559976422045394
MultiSource/Applications/viterbi/viterbi, 0.1626, 0.1621, 0.1619,0.1621, 0.1630, 0.1627, 0.1630,0.163,0.5552128315854388
SingleSource/Benchmarks/Shootout/objinst, 0.0363, 0.0362, 0.0361,0.0362, 0.0364, 0.0363, 0.0364,0.0364,0.5524861878452914
SingleSource/Regression/C/2004-08-12-InlinerAndAllocas, 0.0185, 0.0184, 0.0184,0.0184, 0.0185, 0.0184, 0.0185,0.0185,0.5434782608695565
SingleSource/Benchmarks/Shootout/fib2, 0.0187, 0.0186, 0.0186,0.0186, 0.0187, 0.0187, 0.0187,0.0187,0.5376344086021723
MultiSource/Benchmarks/Prolangs-C/gnugo/gnugo, 0.6965, 0.6932, 0.6931,0.6932, 0.6966, 0.6947, 0.6971,0.6966,0.4904789382573549
MultiSource/Benchmarks/BitBench/drop3/drop3, 0.0418, 0.0416, 0.0416,0.0416, 0.0418, 0.0417, 0.0418,0.0418,0.48076923076922906
SingleSource/Benchmarks/Dhrystone/fldry, 0.0428, 0.0426, 0.0427,0.0427, 0.0429, 0.0428, 0.0430,0.0429,0.4683840749414525
SingleSource/Benchmarks/Shootout/ackermann, 0.0224, 0.0222, 0.0223,0.0223, 0.0224, 0.0223, 0.0224,0.0224,0.4484304932735439
SingleSource/Benchmarks/Misc-C++/mandel-text, 0.0231, 0.0230, 0.0230,0.023, 0.0231, 0.0230, 0.0231,0.0231,0.43478260869564966
SingleSource/Benchmarks/Misc/ReedSolomon, 0.1861, 0.1859, 0.1859,0.1859, 0.1867, 0.1867, 0.1864,0.1867,0.43033889187735763
MultiSource/Benchmarks/Prolangs-C++/primes/primes, 0.0239, 0.0238, 0.0238,0.0238, 0.0240, 0.0239, 0.0239,0.0239,0.42016806722688926
SingleSource/Benchmarks/Shootout/sieve, 0.0244, 0.0242, 0.0241,0.0242, 0.0243, 0.0243, 0.0243,0.0243,0.4132231404958553
SingleSource/Benchmarks/Misc/lowercase, 0.0243, 0.0241, 0.0242,0.0242, 0.0243, 0.0242, 0.0243,0.0243,0.4132231404958553
MultiSource/Benchmarks/FreeBench/mason/mason, 0.0484, 0.0483, 0.0484,0.0484, 0.0486, 0.0486, 0.0485,0.0486,0.4132231404958553
SingleSource/Benchmarks/Misc/revertBits, 0.0244, 0.0243, 0.0243,0.0243, 0.0244, 0.0243, 0.0244,0.0244,0.4115226337448652
MultiSource/Benchmarks/MiBench/automotive-bitcount/automotive-bitcount, 0.2454, 0.2442, 0.2439,0.2442, 0.2453, 0.2449, 0.2452,0.2452,0.40950040950040734
MultiSource/Benchmarks/DOE-ProxyApps-C/miniGMG/miniGMG, 0.9592, 0.9570, 0.9572,0.9572, 0.9612, 0.9608, 0.9611,0.9611,0.4074383618888344
MultiSource/Benchmarks/Olden/perimeter/perimeter, 0.0742, 0.0738, 0.0740,0.074, 0.0744, 0.0740, 0.0743,0.0743,0.40540540540541237
MultiSource/Benchmarks/DOE-ProxyApps-C/SimpleMOC/SimpleMOC, 0.8445, 0.8425, 0.8423,0.8425, 0.8457, 0.8468, 0.8459,0.8459,0.40356083086052763
SingleSource/Benchmarks/Misc/flops-1, 0.0260, 0.0261, 0.0260,0.026, 0.0261, 0.0260, 0.0261,0.0261,0.38461538461540545
MultiSource/Benchmarks/Olden/health/health, 0.1320, 0.1314, 0.1315,0.1315, 0.1322, 0.1318, 0.1320,0.132,0.3802281368821214
MultiSource/Benchmarks/mediabench/adpcm/rawdaudio/rawdaudio, 0.0533, 0.0531, 0.0531,0.0531, 0.0533, 0.0531, 0.0533,0.0533,0.37664783427495685
SingleSource/Benchmarks/Misc/flops-6, 0.0271, 0.0269, 0.0269,0.0269, 0.0270, 0.0270, 0.0270,0.027,0.3717472118959009
SingleSource/Benchmarks/Misc/flops-8, 0.0272, 0.0270, 0.0269,0.027, 0.0270, 0.0271, 0.0271,0.0271,0.37037037037037646
SingleSource/Benchmarks/Misc/matmul_f64_4x4, 0.0273, 0.0272, 0.0272,0.0272, 0.0273, 0.0273, 0.0273,0.0273,0.3676470588235503
MultiSource/Benchmarks/TSVC/ControlFlow-flt/ControlFlow-flt, 1.7962, 1.7927, 1.7932,1.7932, 1.7995, 1.8053, 1.7906,1.7995,0.35132723622575135
SingleSource/Benchmarks/Misc/fp-convert, 0.0290, 0.0290, 0.0289,0.029, 0.0291, 0.0290, 0.0291,0.0291,0.34482758620688614
MultiSource/Benchmarks/Prolangs-C++/life/life, 0.0581, 0.0581, 0.0580,0.0581, 0.0583, 0.0581, 0.0583,0.0583,0.344234079173833
SingleSource/Benchmarks/Shootout/methcall, 0.0304, 0.0304, 0.0304,0.0304, 0.0305, 0.0305, 0.0305,0.0305,0.3289473684210398
MultiSource/Benchmarks/Olden/bisort/bisort, 0.0610, 0.0608, 0.0607,0.0608, 0.0610, 0.0610, 0.0611,0.061,0.3289473684210398
SingleSource/Benchmarks/BenchmarkGame/nsieve-bits, 0.0310, 0.0309, 0.0308,0.0309, 0.0310, 0.0310, 0.0310,0.031,0.3236245954692629
SingleSource/Benchmarks/Polybench/linear-algebra/kernels/trisolv/trisolv, 0.0620, 0.0620, 0.0620,0.062, 0.0622, 0.0621, 0.0623,0.0622,0.3225806451612856
SingleSource/Benchmarks/Misc/dt, 0.0313, 0.0313, 0.0312,0.0313, 0.0314, 0.0314, 0.0314,0.0314,0.31948881789136685
MultiSource/Benchmarks/mediabench/g721/g721encode/encode, 0.1887, 0.1881, 0.1880,0.1881, 0.1887, 0.1885, 0.1888,0.1887,0.31897926634769647
MultiSource/Benchmarks/NPB-serial/is/is, 0.0631, 0.0631, 0.0631,0.0631, 0.0634, 0.0632, 0.0633,0.0633,0.31695721077653616
MultiSource/Applications/ALAC/decode/alacconvert-decode, 0.9370, 0.9344, 0.9263,0.9344, 0.9413, 0.9373, 0.9348,0.9373,0.31035958904108707
MultiSource/Benchmarks/FreeBench/analyzer/analyzer, 0.2302, 0.2296, 0.2294,0.2296, 0.2304, 0.2303, 0.2303,0.2303,0.3048780487804992
SingleSource/Benchmarks/Shootout/ary3, 0.0333, 0.0332, 0.0333,0.0333, 0.0334, 0.0334, 0.0334,0.0334,0.30030030030028243
MultiSource/Benchmarks/MiBench/telecomm-CRC32/telecomm-CRC32, 0.0339, 0.0337, 0.0338,0.0338, 0.0340, 0.0339, 0.0339,0.0339,0.2958579881656931
MultiSource/Benchmarks/VersaBench/8b10b/8b10b, 0.0711, 0.0707, 0.0705,0.0707, 0.0709, 0.0707, 0.0710,0.0709,0.28288543140029265
MultiSource/Benchmarks/Prolangs-C++/ocean/ocean, 0.1066, 0.1062, 0.1062,0.1062, 0.1064, 0.1065, 0.1067,0.1065,0.28248587570620654
MultiSource/Benchmarks/Trimaran/netbench-crc/netbench-crc, 0.0746, 0.0744, 0.0740,0.0744, 0.0746, 0.0746, 0.0747,0.0746,0.26881720430107503
SingleSource/Benchmarks/Misc/flops, 0.0758, 0.0756, 0.0756,0.0756, 0.0757, 0.0758, 0.0758,0.0758,0.2645502645502784
MultiSource/Benchmarks/Fhourstones-3.1/fhourstones3.1, 0.1148, 0.1146, 0.1146,0.1146, 0.1149, 0.1150, 0.1148,0.1149,0.2617801047120505
MultiSource/Benchmarks/Olden/power/power, 0.1235, 0.1234, 0.1230,0.1234, 0.1237, 0.1235, 0.1237,0.1237,0.2431118314424774
MultiSource/Benchmarks/BitBench/uuencode/uuencode, 0.0417, 0.0415, 0.0416,0.0416, 0.0417, 0.0416, 0.0417,0.0417,0.24038461538462563
MultiSource/Benchmarks/McCat/05-eks/eks, 0.5084, 0.5074, 0.5069,0.5074, 0.5090, 0.5086, 0.5084,0.5086,0.23649980291684525
MultiSource/Benchmarks/BitBench/uudecode/uudecode, 0.0424, 0.0423, 0.0423,0.0423, 0.0424, 0.0423, 0.0424,0.0424,0.23640661938535423
SingleSource/Benchmarks/Shootout-C++/EH/except, 0.1295, 0.1293, 0.1293,0.1293, 0.1296, 0.1295, 0.1296,0.1296,0.23201856148491462
MultiSource/Benchmarks/Bullet/bullet,22.8372,22.7590,22.7517,22.759,22.9166,22.8036,22.8112,22.8112,0.22935981370006964
SingleSource/Benchmarks/Misc/perlin, 0.0440, 0.0439, 0.0439,0.0439, 0.0440, 0.0440, 0.0441,0.044,0.227790432801811
MultiSource/Benchmarks/SciMark2-C/scimark2, 0.3565, 0.3556, 0.3553,0.3556, 0.3565, 0.3557, 0.3564,0.3564,0.22497187851517886
MultiSource/Benchmarks/MiBench/telecomm-FFT/telecomm-fft, 0.1359, 0.1354, 0.1352,0.1354, 0.1357, 0.1360, 0.1357,0.1357,0.22156573116691725
MultiSource/Benchmarks/llubenchmark/llu, 0.0457, 0.0457, 0.0456,0.0457, 0.0459, 0.0457, 0.0458,0.0458,0.2188183807439792
MultiSource/Benchmarks/Trimaran/enc-rc4/enc-rc4, 0.0484, 0.0484, 0.0484,0.0484, 0.0485, 0.0484, 0.0485,0.0485,0.20661157024794985
MultiSource/Benchmarks/Trimaran/enc-md5/enc-md5, 0.1475, 0.1470, 0.1468,0.147, 0.1473, 0.1473, 0.1476,0.1473,0.20408163265306367
SingleSource/Benchmarks/SmallPT/smallpt, 0.0985, 0.0983, 0.0981,0.0983, 0.0986, 0.0985, 0.0984,0.0985,0.20345879959309254
MultiSource/Benchmarks/VersaBench/bmm/bmm, 0.0495, 0.0495, 0.0495,0.0495, 0.0497, 0.0496, 0.0495,0.0496,0.20202020202020332
MultiSource/Applications/obsequi/Obsequi, 0.9463, 0.9447, 0.9542,0.9463, 0.9482, 0.9562, 0.9480,0.9482,0.2007819930254673
MultiSource/Benchmarks/VersaBench/ecbdes/ecbdes, 0.2055, 0.2052, 0.2049,0.2052, 0.2055, 0.2056, 0.2057,0.2056,0.19493177387914784
SingleSource/Benchmarks/McGill/misr, 0.0521, 0.0520, 0.0520,0.052, 0.0520, 0.0521, 0.0521,0.0521,0.19230769230769162
SingleSource/Benchmarks/Misc/fbench, 0.0526, 0.0525, 0.0525,0.0525, 0.0527, 0.0525, 0.0526,0.0526,0.19047619047618536
MultiSource/Benchmarks/TSVC/IndirectAddressing-flt/IndirectAddressing-flt, 1.6366, 1.6495, 1.6444,1.6444, 1.6475, 1.6557, 1.6450,1.6475,0.18851860861104353
SingleSource/Benchmarks/BenchmarkGame/spectral-norm, 0.0535, 0.0533, 0.0532,0.0533, 0.0534, 0.0533, 0.0535,0.0534,0.18761726078799779
SingleSource/Benchmarks/BenchmarkGame/puzzle, 0.0544, 0.0542, 0.0543,0.0543, 0.0544, 0.0544, 0.0544,0.0544,0.18416206261508972
SingleSource/Benchmarks/Shootout-C++/fibo, 0.1143, 0.1146, 0.1141,0.1143, 0.1147, 0.1145, 0.1142,0.1145,0.17497812773403787
SingleSource/Benchmarks/Shootout-C++/ackermann, 0.1163, 0.1161, 0.1160,0.1161, 0.1163, 0.1163, 0.1165,0.1163,0.17226528854437095
MultiSource/Benchmarks/TSVC/StatementReordering-flt/StatementReordering-flt, 1.6147, 1.6125, 1.6108,1.6125, 1.6149, 1.6151, 1.6212,1.6151,0.16124031007751505
MultiSource/Benchmarks/DOE-ProxyApps-C/miniAMR/miniAMR, 1.3200, 1.3176, 1.3168,1.3176, 1.3209, 1.3192, 1.3197,1.3197,0.15938069216758777
SingleSource/Benchmarks/Misc/whetstone, 0.0662, 0.0659, 0.0658,0.0659, 0.0660, 0.0660, 0.0660,0.066,0.15174506828528056
SingleSource/Benchmarks/Misc/ffbench, 0.0659, 0.0658, 0.0659,0.0659, 0.0659, 0.0660, 0.0660,0.066,0.15174506828528056
SingleSource/Benchmarks/BenchmarkGame/n-body, 0.0696, 0.0695, 0.0696,0.0696, 0.0696, 0.0697, 0.0697,0.0697,0.1436781609195359
SingleSource/Benchmarks/CoyoteBench/lpbench, 0.1494, 0.1490, 0.1488,0.149, 0.1492, 0.1494, 0.1491,0.1492,0.13422818791946067
MultiSource/Benchmarks/Fhourstones/fhourstones, 0.1558, 0.1556, 0.1554,0.1556, 0.1562, 0.1557, 0.1558,0.1558,0.12853470437017567
SingleSource/Benchmarks/Polybench/datamining/covariance/covariance, 0.0827, 0.0824, 0.0824,0.0824, 0.0825, 0.0825, 0.0823,0.0825,0.12135922330096527
MultiSource/Benchmarks/Olden/bh/bh, 0.2502, 0.2498, 0.2495,0.2498, 0.2503, 0.2501, 0.2500,0.2501,0.12009607686149781
SingleSource/Benchmarks/Polybench/linear-algebra/kernels/gemver/gemver, 0.0896, 0.0893, 0.0893,0.0893, 0.0894, 0.0894, 0.0894,0.0894,0.11198208286673506
MultiSource/Applications/hexxagon/hexxagon, 0.6561, 0.6542, 0.6532,0.6542, 0.6552, 0.6535, 0.6549,0.6549,0.10700091715072357
MultiSource/Applications/JM/lencod/lencod,14.6467,14.6061,14.6073,14.6073,14.6114,14.6245,14.6215,14.6215,0.09721166813851934
MultiSource/Benchmarks/7zip/7zip-benchmark,33.4898,33.4048,33.3846,33.4048,33.4343,33.4411,33.4248,33.4343,0.08831066194079362
MultiSource/Benchmarks/MiBench/security-sha/security-sha, 0.1147, 0.1143, 0.1141,0.1143, 0.1142, 0.1144, 0.1144,0.1144,0.08748906386701893
MultiSource/Benchmarks/TSVC/Symbolics-dbl/Symbolics-dbl, 1.9871, 1.9866, 1.9877,1.9871, 1.9747, 1.9911, 1.9888,1.9888,0.08555180916913763
MultiSource/Applications/ALAC/encode/alacconvert-encode, 0.9228, 0.9217, 0.9217,0.9217, 0.9223, 0.9219, 0.9224,0.9223,0.06509710317892381
MultiSource/Benchmarks/TSVC/LinearDependence-flt/LinearDependence-flt, 1.7255, 1.7224, 1.7243,1.7243, 1.7253, 1.7170, 1.7268,1.7253,0.057994548512452226
MultiSource/Applications/sqlite3/sqlite3,14.5864,14.5358,14.5662,14.5662,14.5676,14.5740,14.5902,14.574,0.05354862627178214
MultiSource/Applications/lua/lua, 3.1732, 3.1840, 3.1837,3.1837, 3.1837, 3.1849, 3.1897,3.1849,0.037691993592359196
MultiSource/Benchmarks/mediabench/gsm/toast/toast, 1.0028, 1.0007, 0.9998,1.0007, 1.0010, 0.9998, 1.0013,1.001,0.029979014689707206
MultiSource/Benchmarks/MiBench/consumer-lame/consumer-lame, 3.8839, 3.8814, 3.8783,3.8814, 3.8831, 3.8825, 3.8792,3.8825,0.02834028958622614
MultiSource/Benchmarks/TSVC/IndirectAddressing-dbl/IndirectAddressing-dbl, 1.9824, 1.9798, 1.9784,1.9798, 1.9814, 1.9799, 1.9787,1.9799,0.005051015254076141
SingleSource/Benchmarks/Stanford/Treesort, 0.0372, 0.0371, 0.0371,0.0371, 0.0371, 0.0371, 0.0371,0.0371,0.0
SingleSource/Benchmarks/Stanford/Queens, 0.0434, 0.0434, 0.0433,0.0434, 0.0434, 0.0434, 0.0435,0.0434,0.0
SingleSource/Benchmarks/Stanford/Bubblesort, 0.0328, 0.0327, 0.0326,0.0327, 0.0327, 0.0327, 0.0327,0.0327,0.0
SingleSource/Benchmarks/Shootout/nestedloop, 0.0231, 0.0231, 0.0230,0.0231, 0.0231, 0.0231, 0.0232,0.0231,0.0
SingleSource/Benchmarks/Shootout-C++/random, 0.1245, 0.1242, 0.1245,0.1245, 0.1242, 0.1245, 0.1246,0.1245,0.0
SingleSource/Benchmarks/Polybench/stencils/jacobi-2d-imper/jacobi-2d-imper, 0.1113, 0.1113, 0.1112,0.1113, 0.1113, 0.1114, 0.1113,0.1113,0.0
SingleSource/Benchmarks/Polybench/stencils/jacobi-1d-imper/jacobi-1d-imper, 0.0827, 0.0826, 0.0824,0.0826, 0.0823, 0.0826, 0.0826,0.0826,0.0
SingleSource/Benchmarks/Polybench/stencils/fdtd-2d/fdtd-2d, 0.1369, 0.1370, 0.1368,0.1369, 0.1371, 0.1369, 0.1369,0.1369,0.0
SingleSource/Benchmarks/Polybench/linear-algebra/solvers/lu/lu, 0.0882, 0.0882, 0.0881,0.0882, 0.0880, 0.0882, 0.0882,0.0882,0.0
SingleSource/Benchmarks/Polybench/linear-algebra/kernels/mvt/mvt, 0.0798, 0.0798, 0.0797,0.0798, 0.0796, 0.0798, 0.0798,0.0798,0.0
SingleSource/Benchmarks/Polybench/linear-algebra/kernels/atax/atax, 0.0788, 0.0788, 0.0787,0.0788, 0.0787, 0.0788, 0.0788,0.0788,0.0
SingleSource/Benchmarks/Misc/pi, 0.0201, 0.0200, 0.0199,0.02, 0.0200, 0.0200, 0.0200,0.02,0.0
SingleSource/Benchmarks/Misc/flops-7, 0.0259, 0.0258, 0.0257,0.0258, 0.0258, 0.0257, 0.0259,0.0258,0.0
SingleSource/Benchmarks/Misc/flops-5, 0.0271, 0.0270, 0.0270,0.027, 0.0269, 0.0270, 0.0270,0.027,0.0
SingleSource/Benchmarks/Misc/flops-4, 0.0264, 0.0264, 0.0263,0.0264, 0.0264, 0.0264, 0.0264,0.0264,0.0
SingleSource/Benchmarks/Misc/flops-3, 0.0260, 0.0259, 0.0259,0.0259, 0.0259, 0.0259, 0.0259,0.0259,0.0
SingleSource/Benchmarks/Misc/flops-2, 0.0271, 0.0270, 0.0270,0.027, 0.0271, 0.0270, 0.0270,0.027,0.0
SingleSource/Benchmarks/McGill/chomp, 0.1850, 0.1843, 0.1843,0.1843, 0.1842, 0.1843, 0.1844,0.1843,0.0
SingleSource/Benchmarks/Dhrystone/dry, 0.0398, 0.0397, 0.0397,0.0397, 0.0398, 0.0397, 0.0397,0.0397,0.0
MultiSource/Benchmarks/mediabench/adpcm/rawcaudio/rawcaudio, 0.0536, 0.0533, 0.0532,0.0533, 0.0533, 0.0532, 0.0534,0.0533,0.0
MultiSource/Benchmarks/Trimaran/enc-pc1/enc-pc1, 0.0632, 0.0633, 0.0633,0.0633, 0.0632, 0.0633, 0.0633,0.0633,0.0
MultiSource/Benchmarks/FreeBench/neural/neural, 0.1742, 0.1742, 0.1740,0.1742, 0.1744, 0.1741, 0.1742,0.1742,0.0
MultiSource/Benchmarks/FreeBench/distray/distray, 0.0920, 0.0917, 0.0918,0.0918, 0.0921, 0.0918, 0.0918,0.0918,0.0
MultiSource/Benchmarks/ASC_Sequoia/IRSmk/IRSmk, 0.0989, 0.0988, 0.0987,0.0988, 0.0990, 0.0987, 0.0988,0.0988,0.0
MultiSource/Benchmarks/TSVC/InductionVariable-flt/InductionVariable-flt, 1.6824, 1.6706, 1.6733,1.6733, 1.6732, 1.6821, 1.6727,1.6732,-0.005976214665626145
MultiSource/Benchmarks/Prolangs-C/agrep/agrep, 1.3142, 1.3126, 1.3065,1.3126, 1.3135, 1.3125, 1.3074,1.3125,-0.007618467164405285
MultiSource/Benchmarks/TSVC/ControlFlow-dbl/ControlFlow-dbl, 2.1300, 2.1302, 2.1310,2.1302, 2.1300, 2.1321, 2.1273,2.13,-0.009388789784992024
MultiSource/Benchmarks/MallocBench/gs/gs, 3.6654, 3.6392, 3.6394,3.6394, 3.6387, 3.6422, 3.6383,3.6387,-0.01923393966039022
SingleSource/Benchmarks/Adobe-C++/simple_types_loop_invariant, 1.9643, 1.9675, 1.9572,1.9643, 1.9624, 1.9639, 1.9640,1.9639,-0.02036348826554013
MultiSource/Benchmarks/FreeBench/pifft/pifft, 0.9146, 0.9150, 0.9135,0.9146, 0.9141, 0.9153, 0.9144,0.9144,-0.02186748305269548
SingleSource/Benchmarks/Polybench/medley/reg_detect/reg_detect, 0.4173, 0.4179, 0.4177,0.4177, 0.4171, 0.4176, 0.4178,0.4176,-0.023940627244434243
MultiSource/Benchmarks/nbench/nbench, 1.1063, 1.1023, 1.1018,1.1023, 1.1016, 1.1020, 1.1029,1.102,-0.02721582146421042
SingleSource/Benchmarks/Adobe-C++/simple_types_constant_folding, 2.4383, 2.4285, 2.4325,2.4325, 2.4318, 2.4347, 2.4315,2.4318,-0.028776978417277554
SingleSource/Benchmarks/Linpack/linpack-pc, 0.3050, 0.3045, 0.3042,0.3045, 0.3047, 0.3044, 0.3041,0.3044,-0.03284072249588599
MultiSource/Benchmarks/mediabench/mpeg2/mpeg2dec/mpeg2decode, 1.3115, 1.3087, 1.3051,1.3087, 1.3082, 1.3114, 1.3069,1.3082,-0.03820585313669689
MultiSource/Benchmarks/TSVC/Reductions-dbl/Reductions-dbl, 2.0404, 2.0393, 2.0392,2.0393, 2.0384, 2.0365, 2.0390,2.0384,-0.044132790663442556
MultiSource/Benchmarks/ASCI_Purple/SMG2000/smg2000, 5.5749, 5.5520, 5.5599,5.5599, 5.5571, 5.5598, 5.5515,5.5571,-0.05036061799672531
SingleSource/Benchmarks/Shootout-C++/matrix, 0.1836, 0.1833, 0.1827,0.1833, 0.1832, 0.1832, 0.1826,0.1832,-0.05455537370430141
MultiSource/Benchmarks/Olden/em3d/em3d, 0.1699, 0.1693, 0.1692,0.1693, 0.1693, 0.1691, 0.1692,0.1692,-0.05906674542234258
MultiSource/Benchmarks/TSVC/LoopRerolling-flt/LoopRerolling-flt, 1.6235, 1.6204, 1.6199,1.6204, 1.6226, 1.6193, 1.6176,1.6193,-0.06788447296964817
SingleSource/Benchmarks/Shootout-C++/heapsort, 0.1314, 0.1308, 0.1309,0.1309, 0.1309, 0.1304, 0.1308,0.1308,-0.07639419404124048
SingleSource/Benchmarks/Shootout-C++/strcat, 0.1250, 0.1252, 0.1247,0.125, 0.1249, 0.1249, 0.1252,0.1249,-0.08000000000000229
SingleSource/Benchmarks/Stanford/Puzzle, 0.1087, 0.1086, 0.1087,0.1087, 0.1087, 0.1086, 0.1086,0.1086,-0.09199632014719183
MultiSource/Benchmarks/MallocBench/espresso/espresso, 4.5268, 4.5040, 4.4958,4.504, 4.4861, 4.4997, 4.4996,4.4996,-0.0976909413854199
SingleSource/Benchmarks/Polybench/linear-algebra/solvers/gramschmidt/gramschmidt, 0.1010, 0.1006, 0.1007,0.1007, 0.1006, 0.1007, 0.1006,0.1006,-0.09930486593843213
MultiSource/Benchmarks/TSVC/CrossingThresholds-flt/CrossingThresholds-flt, 1.6600, 1.6675, 1.6581,1.66, 1.6582, 1.6596, 1.6539,1.6582,-0.10843373493976127
SingleSource/Benchmarks/Polybench/linear-algebra/kernels/cholesky/cholesky, 0.0911, 0.0908, 0.0909,0.0909, 0.0908, 0.0908, 0.0908,0.0908,-0.11001100110009654
SingleSource/Benchmarks/Polybench/stencils/adi/adi, 0.0888, 0.0888, 0.0887,0.0888, 0.0888, 0.0884, 0.0887,0.0887,-0.11261261261261701
MultiSource/Benchmarks/Prolangs-C/bison/mybison, 1.5775, 1.5747, 1.5748,1.5748, 1.5730, 1.5736, 1.5716,1.573,-0.1143002286004613
SingleSource/Benchmarks/Misc-C++/stepanov_v1p2, 0.1703, 0.1704, 0.1700,0.1703, 0.1704, 0.1701, 0.1700,0.1701,-0.11743981209630938
SingleSource/Benchmarks/Misc/himenobmtxpa, 0.1702, 0.1700, 0.1698,0.17, 0.1701, 0.1698, 0.1695,0.1698,-0.11764705882353343
SingleSource/Benchmarks/Polybench/linear-algebra/kernels/bicg/bicg, 0.0774, 0.0773, 0.0773,0.0773, 0.0771, 0.0772, 0.0772,0.0772,-0.1293661060801976
SingleSource/Benchmarks/Polybench/linear-algebra/kernels/syr2k/syr2k, 0.0769, 0.0768, 0.0766,0.0768, 0.0767, 0.0767, 0.0768,0.0767,-0.13020833333331483
MultiSource/Benchmarks/TSVC/LoopRerolling-dbl/LoopRerolling-dbl, 1.9658, 1.9577, 1.9544,1.9577, 1.9551, 1.9524, 1.9566,1.9551,-0.13280890841292914
SingleSource/Benchmarks/Polybench/linear-algebra/kernels/syrk/syrk, 0.0752, 0.0751, 0.0752,0.0752, 0.0751, 0.0751, 0.0753,0.0751,-0.13297872340426453
SingleSource/Benchmarks/Polybench/datamining/correlation/correlation, 0.0748, 0.0748, 0.0747,0.0748, 0.0747, 0.0746, 0.0751,0.0747,-0.13368983957219305
SingleSource/Benchmarks/Misc-C++/Large/sphereflake, 0.2188, 0.2204, 0.2190,0.219, 0.2184, 0.2188, 0.2187,0.2187,-0.1369863013698569
SingleSource/Benchmarks/Polybench/linear-algebra/solvers/dynprog/dynprog, 0.0720, 0.0717, 0.0717,0.0717, 0.0716, 0.0715, 0.0717,0.0716,-0.1394700139470073
MultiSource/Benchmarks/TSVC/CrossingThresholds-dbl/CrossingThresholds-dbl, 1.9994, 1.9940, 1.9915,1.994, 1.9912, 1.9894, 1.9933,1.9912,-0.1404212637913682
SingleSource/Benchmarks/Polybench/linear-algebra/kernels/trmm/trmm, 0.0712, 0.0711, 0.0710,0.0711, 0.0710, 0.0710, 0.0710,0.071,-0.14064697609001975
SingleSource/Benchmarks/Polybench/stencils/seidel-2d/seidel-2d, 0.0686, 0.0686, 0.0684,0.0686, 0.0685, 0.0686, 0.0685,0.0685,-0.1457725947521693
MultiSource/Applications/JM/ldecod/ldecod, 6.2325, 6.1990, 6.2236,6.2236, 6.2142, 6.2239, 6.2141,6.2142,-0.15103798444630057
MultiSource/Benchmarks/TSVC/Equivalencing-dbl/Equivalencing-dbl, 2.0117, 2.0012, 1.9984,2.0012, 1.9980, 1.9969, 2.0011,1.998,-0.159904057565452
SingleSource/Benchmarks/Misc/richards_benchmark, 0.0623, 0.0622, 0.0621,0.0622, 0.0621, 0.0622, 0.0621,0.0621,-0.1607717041800627
MultiSource/Benchmarks/DOE-ProxyApps-C++/HPCCG/HPCCG, 1.3859, 1.3822, 1.3817,1.3822, 1.3799, 1.3782, 1.3806,1.3799,-0.16640138908986524
SingleSource/Benchmarks/Misc-C++-EH/spirit, 3.5682, 3.5875, 3.5746,3.5746, 3.5534, 3.5721, 3.5681,3.5681,-0.1818385273876899
MultiSource/Benchmarks/TSVC/GlobalDataFlow-flt/GlobalDataFlow-flt, 1.6944, 1.6946, 1.6984,1.6946, 1.6914, 1.6932, 1.6873,1.6914,-0.18883512333294217
MultiSource/Benchmarks/BitBench/five11/five11, 0.0525, 0.0524, 0.0524,0.0524, 0.0524, 0.0522, 0.0523,0.0523,-0.1908396946564972
SingleSource/Benchmarks/Shootout-C++/ary2, 0.1558, 0.1558, 0.1554,0.1558, 0.1557, 0.1555, 0.1551,0.1555,-0.19255455712451353
SingleSource/Benchmarks/Stanford/FloatMM, 0.0519, 0.0519, 0.0518,0.0519, 0.0519, 0.0518, 0.0518,0.0518,-0.19267822736031004
MultiSource/Benchmarks/MiBench/consumer-jpeg/consumer-jpeg, 4.3497, 4.3373, 4.3388,4.3388, 4.3301, 4.3300, 4.3315,4.3301,-0.20051627178021558
MultiSource/Benchmarks/mediabench/jpeg/jpeg-6a/cjpeg, 4.4156, 4.3858, 4.3929,4.3929, 4.3854, 4.3766, 4.3840,4.384,-0.20259964943430964
SingleSource/Benchmarks/Stanford/RealMM, 0.0491, 0.0489, 0.0490,0.049, 0.0489, 0.0488, 0.0489,0.0489,-0.20408163265306367
MultiSource/Applications/sgefa/sgefa, 0.3838, 0.3831, 0.3835,0.3835, 0.3827, 0.3828, 0.3827,0.3827,-0.2086049543676749
MultiSource/Benchmarks/Trimaran/enc-3des/enc-3des, 0.2377, 0.2374, 0.2371,0.2374, 0.2370, 0.2369, 0.2368,0.2369,-0.2106149957877057
MultiSource/Applications/SIBsim4/SIBsim4, 1.1450, 1.1357, 1.1353,1.1357, 1.1318, 1.1335, 1.1333,1.1333,-0.21132341287311007
MultiSource/Benchmarks/MallocBench/cfrac/cfrac, 0.8400, 0.8397, 0.8343,0.8397, 0.8379, 0.8398, 0.8363,0.8379,-0.2143622722400873
MultiSource/Benchmarks/TSVC/LoopRestructuring-flt/LoopRestructuring-flt, 1.6723, 1.6698, 1.6758,1.6723, 1.6682, 1.6784, 1.6686,1.6686,-0.22125216767325817
MultiSource/Benchmarks/TSVC/GlobalDataFlow-dbl/GlobalDataFlow-dbl, 2.0255, 2.0212, 2.0244,2.0244, 2.0244, 2.0177, 2.0199,2.0199,-0.2222880853586351
SingleSource/Benchmarks/Polybench/linear-algebra/solvers/durbin/durbin, 0.0870, 0.0869, 0.0867,0.0869, 0.0868, 0.0867, 0.0866,0.0867,-0.23014959723821615
MultiSource/Benchmarks/Ptrdist/yacr2/yacr2, 0.5925, 0.5913, 0.5907,0.5913, 0.5906, 0.5899, 0.5896,0.5899,-0.23676644681212
MultiSource/Benchmarks/Olden/tsp/tsp, 0.1229, 0.1226, 0.1225,0.1226, 0.1223, 0.1220, 0.1224,0.1223,-0.2446982055464897
MultiSource/Benchmarks/MiBench/network-dijkstra/network-dijkstra, 0.0408, 0.0407, 0.0408,0.0408, 0.0407, 0.0406, 0.0407,0.0407,-0.2450980392156965
MultiSource/Benchmarks/TSVC/StatementReordering-dbl/StatementReordering-dbl, 1.9514, 1.9492, 1.9497,1.9497, 1.9491, 1.9449, 1.9432,1.9449,-0.24619172180334603
MultiSource/Benchmarks/TSVC/NodeSplitting-dbl/NodeSplitting-dbl, 1.9768, 1.9746, 1.9817,1.9768, 1.9716, 1.9711, 1.9718,1.9716,-0.26305139619586804
MultiSource/Benchmarks/TSVC/Reductions-flt/Reductions-flt, 1.7093, 1.7092, 1.7082,1.7092, 1.7079, 1.7044, 1.7039,1.7044,-0.2808331383103324
MultiSource/Benchmarks/Ptrdist/ks/ks, 0.1416, 0.1413, 0.1413,0.1413, 0.1411, 0.1407, 0.1409,0.1409,-0.2830856334041121
SingleSource/Benchmarks/Misc/evalloop, 0.0352, 0.0350, 0.0351,0.0351, 0.0350, 0.0349, 0.0350,0.035,-0.2849002849002691
MultiSource/Benchmarks/Prolangs-C++/employ/employ, 0.1979, 0.1970, 0.1966,0.197, 0.1971, 0.1964, 0.1964,0.1964,-0.3045685279187915
SingleSource/Benchmarks/Shootout/lists, 0.0658, 0.0656, 0.0656,0.0656, 0.0654, 0.0655, 0.0653,0.0654,-0.3048780487804992
SingleSource/Benchmarks/Polybench/stencils/fdtd-apml/fdtd-apml, 0.1303, 0.1301, 0.1299,0.1301, 0.1298, 0.1296, 0.1297,0.1297,-0.3074558032282737
MultiSource/Benchmarks/TSVC/Packing-dbl/Packing-dbl, 1.9513, 1.9546, 1.9512,1.9513, 1.9464, 1.9450, 1.9447,1.945,-0.3228616819556218
MultiSource/Benchmarks/Prolangs-C++/simul/simul, 0.0515, 0.0515, 0.0513,0.0515, 0.0514, 0.0513, 0.0513,0.0513,-0.3883495145631022
SingleSource/Benchmarks/Shootout-C++/ary, 0.1543, 0.1541, 0.1543,0.1543, 0.1541, 0.1536, 0.1537,0.1537,-0.38885288399221896
MultiSource/Benchmarks/Ptrdist/bc/bc, 0.9904, 0.9888, 0.9884,0.9888, 0.9845, 0.9849, 0.9853,0.9849,-0.39441747572815933
SingleSource/Benchmarks/Polybench/linear-algebra/kernels/symm/symm, 0.0758, 0.0757, 0.0757,0.0757, 0.0754, 0.0755, 0.0754,0.0754,-0.39630118890358057
MultiSource/Benchmarks/Ptrdist/ft/ft, 0.2010, 0.2007, 0.2001,0.2007, 0.2003, 0.1998, 0.1999,0.1999,-0.39860488290981433
SingleSource/Benchmarks/Shootout-C++/methcall, 0.1247, 0.1242, 0.1244,0.1244, 0.1239, 0.1241, 0.1238,0.1239,-0.4019292604501623
MultiSource/Benchmarks/Ptrdist/anagram/anagram, 0.0981, 0.0980, 0.0978,0.098, 0.0975, 0.0979, 0.0976,0.0976,-0.40816326530611624
MultiSource/Benchmarks/TSVC/Packing-flt/Packing-flt, 1.6136, 1.6137, 1.6114,1.6136, 1.6062, 1.6072, 1.6070,1.607,-0.4090233019335643
MultiSource/Benchmarks/TSVC/Recurrences-flt/Recurrences-flt, 1.6128, 1.6100, 1.6141,1.6128, 1.6121, 1.6055, 1.6062,1.6062,-0.40922619047618625
MultiSource/Benchmarks/TSVC/ControlLoops-dbl/ControlLoops-dbl, 2.0451, 2.0411, 2.0442,2.0442, 2.0366, 2.0356, 2.0352,2.0356,-0.42070247529595317
MultiSource/Benchmarks/TSVC/Searching-flt/Searching-flt, 1.6070, 1.6025, 1.6006,1.6025, 1.5973, 1.5941, 1.5957,1.5957,-0.42433697347894483
MultiSource/Benchmarks/TSVC/Expansion-dbl/Expansion-dbl, 2.0372, 2.0372, 2.0330,2.0372, 2.0277, 2.0284, 2.0289,2.0284,-0.4319654427645703
SingleSource/Benchmarks/Shootout-C++/sieve, 0.1849, 0.1844, 0.1840,0.1844, 0.1834, 0.1836, 0.1838,0.1836,-0.433839479392617
SingleSource/Benchmarks/Polybench/linear-algebra/kernels/gesummv/gesummv, 0.0660, 0.0660, 0.0658,0.066, 0.0657, 0.0657, 0.0659,0.0657,-0.454545454545463
MultiSource/Applications/ClamAV/clamscan,14.2951,14.2419,14.2360,14.2419,14.1727,14.1770,14.1798,14.177,-0.45569762461469265
MultiSource/Benchmarks/TSVC/Expansion-flt/Expansion-flt, 1.7035, 1.7063, 1.7007,1.7035, 1.6961, 1.6955, 1.6955,1.6955,-0.46962136777223273
MultiSource/Benchmarks/MiBench/security-rijndael/security-rijndael, 0.3928, 0.3934, 0.3933,0.3933, 0.3914, 0.3912, 0.3914,0.3914,-0.48309178743960457
MultiSource/Benchmarks/DOE-ProxyApps-C++/PENNANT/PENNANT, 4.0365, 4.0352, 4.0309,4.0352, 4.0158, 4.0155, 4.0135,4.0155,-0.48820380650276274
MultiSource/Benchmarks/PAQ8p/paq8p, 1.8918, 1.8843, 1.8820,1.8843, 1.8809, 1.8721, 1.8748,1.8748,-0.5041660032903517
SingleSource/Benchmarks/Adobe-C++/loop_unroll, 4.3081, 4.2972, 4.3084,4.3081, 4.2863, 4.2580, 4.2913,4.2863,-0.5060235370580979
MultiSource/Benchmarks/FreeBench/fourinarow/fourinarow, 0.3345, 0.3346, 0.3345,0.3345, 0.3328, 0.3328, 0.3328,0.3328,-0.508221225710026
MultiSource/Benchmarks/TSVC/NodeSplitting-flt/NodeSplitting-flt, 1.6438, 1.6413, 1.6464,1.6438, 1.6412, 1.6353, 1.6354,1.6354,-0.511011071906553
MultiSource/Benchmarks/TSVC/Recurrences-dbl/Recurrences-dbl, 1.9477, 1.9471, 1.9461,1.9471, 1.9374, 1.9371, 1.9370,1.9371,-0.5135843048636457
MultiSource/Benchmarks/TSVC/InductionVariable-dbl/InductionVariable-dbl, 2.0127, 2.0101, 2.0112,2.0112, 2.0005, 1.9999, 2.0006,2.0005,-0.5320206841686548
MultiSource/Benchmarks/mafft/pairlocalalign, 8.6496, 8.6451, 8.6391,8.6451, 8.5988, 8.5993, 8.5963,8.5988,-0.5355634983979174
MultiSource/Benchmarks/TSVC/ControlLoops-flt/ControlLoops-flt, 1.7083, 1.7045, 1.7025,1.7045, 1.6976, 1.6930, 1.6953,1.6953,-0.5397477266060324
MultiSource/Applications/SPASS/SPASS,12.0835,12.0533,12.0596,12.0596,11.9735,12.0025,11.9930,11.993,-0.5522571229559792
SingleSource/Benchmarks/Shootout-C++/lists, 0.1611, 0.1611, 0.1608,0.1611, 0.1603, 0.1596, 0.1602,0.1602,-0.5586592178770888
SingleSource/Benchmarks/Shootout-C++/ary3, 0.1585, 0.1581, 0.1576,0.1581, 0.1574, 0.1572, 0.1571,0.1572,-0.5692599620493288
MultiSource/Applications/oggenc/oggenc, 4.8008, 4.7942, 4.8008,4.8008, 4.7719, 4.7783, 4.7683,4.7719,-0.6019830028328621
MultiSource/Benchmarks/sim/sim, 0.2806, 0.2806, 0.2809,0.2806, 0.2788, 0.2792, 0.2787,0.2788,-0.6414825374198241
MultiSource/Applications/hbd/hbd, 1.1695, 1.1680, 1.1594,1.168, 1.1673, 1.1605, 1.1593,1.1605,-0.6421232876712146
MultiSource/Benchmarks/tramp3d-v4/tramp3d-v4,19.9502,19.9675,19.9702,19.9675,19.8310,19.8347,19.8387,19.8347,-0.6650807562288752
MultiSource/Benchmarks/TSVC/Symbolics-flt/Symbolics-flt, 1.6441, 1.6688, 1.6585,1.6585, 1.6469, 1.6467, 1.6481,1.6469,-0.6994271932469154
MultiSource/Applications/d/make_dparser, 2.5743, 2.5723, 2.5714,2.5723, 2.5496, 2.5522, 2.5557,2.5522,-0.7814018582591342
MultiSource/Benchmarks/McCat/09-vor/vor, 0.2652, 0.2647, 0.2645,0.2647, 0.2624, 0.2621, 0.2624,0.2624,-0.8689081979599389
MultiSource/Benchmarks/DOE-ProxyApps-C++/miniFE/miniFE, 2.5496, 2.5471, 2.5441,2.5471, 2.5242, 2.5203, 2.5229,2.5229,-0.9501001138549681
MultiSource/Applications/siod/siod, 1.9382, 1.9378, 1.9361,1.9378, 1.9269, 1.9129, 1.9184,1.9184,-1.0011353080813246
MultiSource/Benchmarks/MiBench/consumer-typeset/consumer-typeset, 9.7232, 9.7103, 9.7008,9.7103, 9.5887, 9.5845, 9.5892,9.5887,-1.252278508388005
MultiSource/Benchmarks/DOE-ProxyApps-C++/CLAMR/CLAMR,17.8316,17.8124,17.8341,17.8316,17.5827,17.6007,17.5774,17.5827,-1.3958366046793458
SingleSource/Benchmarks/CoyoteBench/fftbench, 0.5539, 0.5550, 0.5533,0.5539, 0.5409, 0.5468, 0.5459,0.5459,-1.444304025997456
SingleSource/Benchmarks/Shootout-C++/hash, 0.2697, 0.2686, 0.2694,0.2694, 0.2655, 0.2660, 0.2653,0.2655,-1.4476614699331702
SingleSource/Benchmarks/Shootout-C++/moments, 0.2438, 0.2440, 0.2432,0.2438, 0.2381, 0.2380, 0.2373,0.238,-2.37899917965545
SingleSource/Benchmarks/Adobe-C++/functionobjects, 0.4522, 0.4528, 0.4517,0.4522, 0.4363, 0.4373, 0.4368,0.4368,-3.4055727554179516
SingleSource/Benchmarks/Adobe-C++/stepanov_abstraction, 0.6054, 0.6057, 0.6057,0.6057, 0.5406, 0.5392, 0.5397,0.5397,-10.896483407627544
Total elapsed time,-,-,-,362.7586,-,-,-,361.8399000000001,-0.25325381672547387
Total failure,-,-,-,0,-,-,-,0,
Geom. avg slowdown,,,,,,,,,0.0270933926113%
