Benchmarks,/mnt/freezedisk/llvm-intptr-base-5.0-release/bin/clang,/mnt/freezedisk/llvm-intptr-base-5.0-release/bin/clang,/mnt/freezedisk/llvm-intptr-base-5.0-release/bin/clang,median,/mnt/freezedisk/llvm-intptr-br4-aa-release/bin/clang,/mnt/freezedisk/llvm-intptr-br4-aa-release/bin/clang,/mnt/freezedisk/llvm-intptr-br4-aa-release/bin/clang,median
MultiSource/Applications/ALAC/decode/alacconvert-decode, 0.8724, 0.8700, 0.8692,0.87, 0.8805, 0.8730, 0.8723,0.873
MultiSource/Applications/ALAC/encode/alacconvert-encode, 0.8711, 0.8697, 0.8689,0.8697,*, 0.8736, 0.8720,-
MultiSource/Applications/ClamAV/clamscan,13.2908,13.2998,13.2841,13.2908,13.3036,13.2835,13.2744,13.2835
MultiSource/Applications/JM/ldecod/ldecod, 5.8120, 5.8161, 5.7956,5.812, 5.8243, 5.8166, 5.8213,5.8213
MultiSource/Applications/JM/lencod/lencod,13.4706,13.4765,13.4591,13.4706,13.5270,13.5247,13.5126,13.5247
MultiSource/Applications/SIBsim4/SIBsim4, 1.0651, 1.0594, 1.0710,1.0651, 1.0641, 1.0652, 1.0709,1.0652
MultiSource/Applications/SPASS/SPASS,11.1845,11.1909,11.1707,11.1845,11.1655,11.1701,11.1721,11.1701
MultiSource/Applications/aha/aha, 0.0914, 0.0911, 0.0909,0.0911, 0.0916, 0.0917, 0.0919,0.0917
MultiSource/Applications/d/make_dparser, 2.4153, 2.4201, 2.4281,2.4201, 2.4152, 2.4149, 2.4178,2.4152
MultiSource/Applications/hbd/hbd, 1.1115, 1.1099, 1.1094,1.1099, 1.1091, 1.1092, 1.1090,1.1091
MultiSource/Applications/hexxagon/hexxagon, 0.6097, 0.6098, 0.6098,0.6098,*, 0.6109, 0.6113,-
MultiSource/Applications/kimwitu++/kc,10.0986,10.1197,10.1078,10.1078,10.0430,10.0490,10.0599,10.049
MultiSource/Applications/lambda-0.1.3/lambda, 0.5085, 0.5084, 0.5080,0.5084, 0.5086, 0.5089, 0.5088,0.5088
MultiSource/Applications/lua/lua, 2.9724, 2.9691, 2.9676,2.9691, 2.9867, 2.9852, 2.9819,2.9852
MultiSource/Applications/minisat/minisat, 0.5674, 0.5696, 0.5710,0.5696,*, 0.5728, 0.5718,-
MultiSource/Applications/obsequi/Obsequi, 0.9014, 0.9097, 0.9098,0.9097, 0.9064, 0.9068, 0.9109,0.9068
MultiSource/Applications/oggenc/oggenc, 4.3726, 4.3812, 4.3683,4.3726, 4.3697, 4.3713, 4.3589,4.3697
MultiSource/Applications/sgefa/sgefa, 0.3593, 0.3590, 0.3583,0.359, 0.3600, 0.3601, 0.3595,0.36
MultiSource/Applications/siod/siod, 1.8344, 1.8269, 1.8418,1.8344, 1.8103, 1.8210, 1.8280,1.821
MultiSource/Applications/spiff/spiff, 0.6972, 0.6936, 0.6929,0.6936, 0.6963, 0.6963, 0.6958,0.6963
MultiSource/Applications/sqlite3/sqlite3,13.3446,13.3448,13.3269,13.3446,13.3698,13.3711,13.3735,13.3711
MultiSource/Applications/viterbi/viterbi, 0.1553, 0.1565, 0.1565,0.1565, 0.1576, 0.1577, 0.1576,0.1576
MultiSource/Benchmarks/7zip/7zip-benchmark,31.1589,31.1577,31.1503,31.1577,31.1535,31.1698,31.1628,31.1628
MultiSource/Benchmarks/ASCI_Purple/SMG2000/smg2000, 5.1773, 5.1753, 5.1708,5.1753, 5.2043, 5.2042, 5.1973,5.2042
MultiSource/Benchmarks/ASC_Sequoia/AMGmk/AMGmk, 0.5409, 0.5406, 0.5401,0.5406, 0.5425, 0.5428, 0.5419,0.5425
MultiSource/Benchmarks/ASC_Sequoia/CrystalMk/CrystalMk, 0.2059, 0.2068, 0.2068,0.2068, 0.2083, 0.2083, 0.2080,0.2083
MultiSource/Benchmarks/ASC_Sequoia/IRSmk/IRSmk, 0.0963, 0.0959, 0.0958,0.0959, 0.0969, 0.0971, 0.0969,0.0969
MultiSource/Benchmarks/BitBench/drop3/drop3, 0.0404, 0.0402, 0.0402,0.0402, 0.0405, 0.0403, 0.0404,0.0404
MultiSource/Benchmarks/BitBench/five11/five11, 0.0502, 0.0500, 0.0500,0.05, 0.0502, 0.0502, 0.0502,0.0502
MultiSource/Benchmarks/BitBench/uudecode/uudecode, 0.0409, 0.0408, 0.0407,0.0408, 0.0410, 0.0408, 0.0409,0.0409
MultiSource/Benchmarks/BitBench/uuencode/uuencode, 0.0402, 0.0400, 0.0401,0.0401, 0.0403, 0.0403, 0.0403,0.0403
MultiSource/Benchmarks/Bullet/bullet,21.1085,21.1314,21.1198,21.1198,21.2195,21.2264,21.2288,21.2264
MultiSource/Benchmarks/DOE-ProxyApps-C++/CLAMR/CLAMR,16.4317,16.4361,16.4200,16.4317,16.2804,16.2976,16.2811,16.2811
MultiSource/Benchmarks/DOE-ProxyApps-C++/HPCCG/HPCCG, 1.3001, 1.2994, 1.3008,1.3001, 1.3038, 1.3031, 1.3041,1.3038
MultiSource/Benchmarks/DOE-ProxyApps-C++/PENNANT/PENNANT, 3.7277, 3.7287, 3.7274,3.7277, 3.7208, 3.7238, 3.7244,3.7238
MultiSource/Benchmarks/DOE-ProxyApps-C++/miniFE/miniFE, 2.3582, 2.3537, 2.3521,2.3537, 2.3358, 2.3371, 2.3384,2.3371
MultiSource/Benchmarks/DOE-ProxyApps-C/Pathfinder/PathFinder, 0.7475, 0.7456, 0.7449,0.7456, 0.7480, 0.7480, 0.7475,0.748
MultiSource/Benchmarks/DOE-ProxyApps-C/RSBench/rsbench, 0.3634, 0.3621, 0.3624,0.3624, 0.3650, 0.3649, 0.3647,0.3649
MultiSource/Benchmarks/DOE-ProxyApps-C/SimpleMOC/SimpleMOC, 0.7954, 0.7927, 0.7937,0.7937, 0.7986, 0.7984, 0.7976,0.7984
MultiSource/Benchmarks/DOE-ProxyApps-C/XSBench/XSBench, 0.3291, 0.3223, 0.3226,0.3226, 0.3250, 0.3251, 0.3246,0.325
MultiSource/Benchmarks/DOE-ProxyApps-C/miniAMR/miniAMR, 1.2359, 1.2344, 1.2336,1.2344, 1.2420, 1.2425, 1.2405,1.242
MultiSource/Benchmarks/DOE-ProxyApps-C/miniGMG/miniGMG, 0.8901, 0.8904, 0.8892,0.8901, 0.8964, 0.8965, 0.8958,0.8964
MultiSource/Benchmarks/Fhourstones-3.1/fhourstones3.1, 0.1077, 0.1076, 0.1076,0.1076, 0.1077, 0.1079, 0.1077,0.1077
MultiSource/Benchmarks/Fhourstones/fhourstones, 0.1512, 0.1507, 0.1505,0.1507, 0.1513, 0.1514, 0.1512,0.1513
MultiSource/Benchmarks/FreeBench/analyzer/analyzer, 0.2216, 0.2208, 0.2204,0.2208, 0.2222, 0.2220, 0.2219,0.222
MultiSource/Benchmarks/FreeBench/distray/distray, 0.0862, 0.0861, 0.0860,0.0861, 0.0866, 0.0865, 0.0864,0.0865
MultiSource/Benchmarks/FreeBench/fourinarow/fourinarow, 0.3083, 0.3078, 0.3078,0.3078, 0.3063, 0.3066, 0.3063,0.3063
MultiSource/Benchmarks/FreeBench/mason/mason, 0.0465, 0.0464, 0.0464,0.0464, 0.0467, 0.0467, 0.0466,0.0467
MultiSource/Benchmarks/FreeBench/neural/neural, 0.1617, 0.1616, 0.1615,0.1616, 0.1622, 0.1623, 0.1621,0.1622
MultiSource/Benchmarks/FreeBench/pcompress2/pcompress2, 0.2291, 0.2285, 0.2281,0.2285, 0.2297, 0.2298, 0.2296,0.2297
MultiSource/Benchmarks/FreeBench/pifft/pifft, 0.8409, 0.8414, 0.8399,0.8409, 0.8427, 0.8432, 0.8424,0.8427
MultiSource/Benchmarks/MallocBench/cfrac/cfrac, 0.8205, 0.8162, 0.8154,0.8162, 0.8220, 0.8217, 0.8210,0.8217
MultiSource/Benchmarks/MallocBench/espresso/espresso, 4.1960, 4.1909, 4.1889,4.1909, 4.1958, 4.1996, 4.1950,4.1958
MultiSource/Benchmarks/MallocBench/gs/gs, 3.4620, 3.4537, 3.4514,3.4537, 3.4638, 3.4632, 3.4613,3.4632
MultiSource/Benchmarks/McCat/01-qbsort/qbsort, 0.0911, 0.0906, 0.0907,0.0907, 0.0912, 0.0913, 0.0912,0.0912
MultiSource/Benchmarks/McCat/03-testtrie/testtrie, 0.0858, 0.0853, 0.0855,0.0855, 0.0861, 0.0861, 0.0861,0.0861
MultiSource/Benchmarks/McCat/04-bisect/bisect, 0.1200, 0.1196, 0.1197,0.1197, 0.1207, 0.1207, 0.1204,0.1207
MultiSource/Benchmarks/McCat/05-eks/eks, 0.4796, 0.4791, 0.4788,0.4791, 0.4813, 0.4817, 0.4808,0.4813
MultiSource/Benchmarks/McCat/08-main/main, 0.2209, 0.2202, 0.2202,0.2202, 0.2251, 0.2253, 0.2248,0.2251
MultiSource/Benchmarks/McCat/09-vor/vor, 0.2550, 0.2543, 0.2543,0.2543, 0.2538, 0.2535, 0.2535,0.2535
MultiSource/Benchmarks/McCat/12-IOtest/iotest, 0.0894, 0.0890, 0.0889,0.089, 0.0900, 0.0900, 0.0900,0.09
MultiSource/Benchmarks/McCat/17-bintr/bintr, 0.0659, 0.0655, 0.0654,0.0655, 0.0662, 0.0660, 0.0660,0.066
MultiSource/Benchmarks/McCat/18-imp/imp, 0.3034, 0.3031, 0.3030,0.3031, 0.3039, 0.3040, 0.3036,0.3039
MultiSource/Benchmarks/MiBench/automotive-basicmath/automotive-basicmath, 0.1354, 0.1348, 0.1350,0.135, 0.1360, 0.1359, 0.1357,0.1359
MultiSource/Benchmarks/MiBench/automotive-bitcount/automotive-bitcount, 0.2421, 0.2412, 0.2410,0.2412, 0.2432, 0.2427, 0.2426,0.2427
MultiSource/Benchmarks/MiBench/automotive-susan/automotive-susan, 0.5720, 0.5698, 0.5786,0.572, 0.5744, 0.5813, 0.5752,0.5752
MultiSource/Benchmarks/MiBench/consumer-jpeg/consumer-jpeg, 4.0947, 4.0881, 4.0847,4.0881, 4.0929,*, 4.0897,-
MultiSource/Benchmarks/MiBench/consumer-lame/consumer-lame, 3.6207, 3.6172, 3.6142,3.6172, 3.6323, 3.6328, 3.6284,3.6323
MultiSource/Benchmarks/MiBench/consumer-typeset/consumer-typeset, 8.9759, 8.9772, 8.9750,8.9759, 8.9068, 8.9351, 8.9081,8.9081
MultiSource/Benchmarks/MiBench/network-dijkstra/network-dijkstra, 0.0394, 0.0392, 0.0392,0.0392, 0.0394, 0.0393, 0.0393,0.0393
MultiSource/Benchmarks/MiBench/network-patricia/network-patricia, 0.0757, 0.0755, 0.0754,0.0755, 0.0760, 0.0759, 0.0758,0.0759
MultiSource/Benchmarks/MiBench/security-rijndael/security-rijndael, 0.3643, 0.3642, 0.3638,0.3642, 0.3682, 0.3681, 0.3685,0.3682
MultiSource/Benchmarks/MiBench/security-sha/security-sha, 0.1088, 0.1086, 0.1085,0.1086, 0.1091, 0.1090, 0.1090,0.109
MultiSource/Benchmarks/MiBench/telecomm-CRC32/telecomm-CRC32, 0.0332, 0.0330, 0.0331,0.0331, 0.0332, 0.0331, 0.0332,0.0332
MultiSource/Benchmarks/MiBench/telecomm-FFT/telecomm-fft, 0.1302, 0.1298, 0.1301,0.1301, 0.1309, 0.1308, 0.1306,0.1308
MultiSource/Benchmarks/MiBench/telecomm-adpcm/telecomm-adpcm, 0.0528, 0.0525, 0.0525,0.0525, 0.0531, 0.0531, 0.0530,0.0531
MultiSource/Benchmarks/MiBench/telecomm-gsm/telecomm-gsm, 0.9633, 0.9603, 0.9592,0.9603, 0.9677, 0.9663, 0.9661,0.9663
MultiSource/Benchmarks/NPB-serial/is/is, 0.0600, 0.0598, 0.0598,0.0598, 0.0602, 0.0601, 0.0601,0.0601
MultiSource/Benchmarks/Olden/bh/bh, 0.2371, 0.2367, 0.2365,0.2367, 0.2381, 0.2382, 0.2377,0.2381
MultiSource/Benchmarks/Olden/bisort/bisort, 0.0603, 0.0600, 0.0600,0.06, 0.0605, 0.0604, 0.0604,0.0604
MultiSource/Benchmarks/Olden/em3d/em3d, 0.1696, 0.1650, 0.1646,0.165, 0.1661, 0.1660, 0.1659,0.166
MultiSource/Benchmarks/Olden/health/health, 0.1286, 0.1282, 0.1282,0.1282, 0.1292, 0.1290, 0.1289,0.129
MultiSource/Benchmarks/Olden/mst/mst, 0.1151, 0.1146, 0.1145,0.1146, 0.1194, 0.1189, 0.1191,0.1191
MultiSource/Benchmarks/Olden/perimeter/perimeter, 0.0742, 0.0737, 0.0737,0.0737, 0.0744, 0.0743, 0.0742,0.0743
MultiSource/Benchmarks/Olden/power/power, 0.1189, 0.1186, 0.1185,0.1186, 0.1195, 0.1195, 0.1195,0.1195
MultiSource/Benchmarks/Olden/treeadd/treeadd, 0.0539, 0.0534, 0.0533,0.0534, 0.0541, 0.0541, 0.0540,0.0541
MultiSource/Benchmarks/Olden/tsp/tsp, 0.1210, 0.1202, 0.1199,0.1202, 0.1205, 0.1205, 0.1201,0.1205
MultiSource/Benchmarks/Olden/voronoi/voronoi, 0.2237, 0.2230, 0.2233,0.2233, 0.2254, 0.2255, 0.2254,0.2254
MultiSource/Benchmarks/PAQ8p/paq8p, 1.7292, 1.7310, 1.7274,1.7292, 1.7310, 1.7335, 1.7311,1.7311
MultiSource/Benchmarks/Prolangs-C++/city/city, 0.8311, 0.8317, 0.8326,0.8317, 0.8332, 0.8326, 0.8341,0.8332
MultiSource/Benchmarks/Prolangs-C++/employ/employ, 0.1850, 0.1847, 0.1852,0.185, 0.1855, 0.1852, 0.1855,0.1855
MultiSource/Benchmarks/Prolangs-C++/life/life, 0.0556, 0.0554, 0.0554,0.0554, 0.0557, 0.0557, 0.0556,0.0557
MultiSource/Benchmarks/Prolangs-C++/ocean/ocean, 0.1007, 0.1009, 0.1007,0.1007, 0.1010, 0.1009, 0.1010,0.101
MultiSource/Benchmarks/Prolangs-C++/primes/primes, 0.0240, 0.0238, 0.0238,0.0238, 0.0240, 0.0240, 0.0241,0.024
MultiSource/Benchmarks/Prolangs-C++/simul/simul, 0.0493, 0.0494, 0.0495,0.0494, 0.0497, 0.0496, 0.0496,0.0496
MultiSource/Benchmarks/Prolangs-C/agrep/agrep, 1.2238, 1.2223, 1.2217,1.2223, 1.2257, 1.2259, 1.2243,1.2257
MultiSource/Benchmarks/Prolangs-C/bison/mybison, 1.4872, 1.4810, 1.4795,1.481, 1.4831, 1.4834, 1.4817,1.4831
MultiSource/Benchmarks/Prolangs-C/gnugo/gnugo, 0.6896, 0.6863, 0.6859,0.6863, 0.6930, 0.6919, 0.6918,0.6919
MultiSource/Benchmarks/Ptrdist/anagram/anagram, 0.0919, 0.0918, 0.0917,0.0918, 0.0920, 0.0920, 0.0919,0.092
MultiSource/Benchmarks/Ptrdist/bc/bc, 0.9281, 0.9273, 0.9262,0.9273, 0.9263, 0.9261, 0.9252,0.9261
MultiSource/Benchmarks/Ptrdist/ft/ft, 0.1946, 0.1938, 0.1939,0.1939, 0.1941, 0.1942, 0.1941,0.1941
MultiSource/Benchmarks/Ptrdist/ks/ks, 0.1336, 0.1335, 0.1332,0.1335, 0.1338, 0.1340, 0.1338,0.1338
MultiSource/Benchmarks/Ptrdist/yacr2/yacr2, 0.5580, 0.5575, 0.5562,0.5575, 0.5578, 0.5574, 0.5572,0.5574
MultiSource/Benchmarks/SciMark2-C/scimark2, 0.3471, 0.3455, 0.3455,0.3455, 0.3483, 0.3479, 0.3472,0.3479
MultiSource/Benchmarks/TSVC/ControlFlow-dbl/ControlFlow-dbl, 1.9451, 1.9451, 1.9455,1.9451, 1.9473, 1.9482, 1.9438,1.9473
MultiSource/Benchmarks/TSVC/ControlFlow-flt/ControlFlow-flt, 1.6428, 1.6492, 1.6423,1.6428, 1.6418, 1.6423, 1.6398,1.6418
MultiSource/Benchmarks/TSVC/ControlLoops-dbl/ControlLoops-dbl, 1.8710, 1.8681, 1.8647,1.8681, 1.8621, 1.8613, 1.8600,1.8613
MultiSource/Benchmarks/TSVC/ControlLoops-flt/ControlLoops-flt, 1.5641, 1.5688, 1.5615,1.5641, 1.5606, 1.5606, 1.5585,1.5606
MultiSource/Benchmarks/TSVC/CrossingThresholds-dbl/CrossingThresholds-dbl, 1.8138, 1.8154, 1.8146,1.8146, 1.8230, 1.8244, 1.8216,1.823
MultiSource/Benchmarks/TSVC/CrossingThresholds-flt/CrossingThresholds-flt, 1.5124, 1.5168, 1.5133,1.5133, 1.5175, 1.5213, 1.5212,1.5212
MultiSource/Benchmarks/TSVC/Equivalencing-dbl/Equivalencing-dbl, 1.8242, 1.8296, 1.8261,1.8261, 1.8288, 1.8285, 1.8296,1.8288
MultiSource/Benchmarks/TSVC/Equivalencing-flt/Equivalencing-flt, 1.5195, 1.5218, 1.5190,1.5195, 1.5214, 1.5184, 1.5176,1.5184
MultiSource/Benchmarks/TSVC/Expansion-dbl/Expansion-dbl, 1.8595, 1.8610, 1.8591,1.8595, 1.8609, 1.8600, 1.8595,1.86
MultiSource/Benchmarks/TSVC/Expansion-flt/Expansion-flt, 1.5538, 1.5554, 1.5577,1.5554, 1.5586, 1.5590, 1.5566,1.5586
MultiSource/Benchmarks/TSVC/GlobalDataFlow-dbl/GlobalDataFlow-dbl, 1.8520, 1.8531, 1.8507,1.852, 1.8543, 1.8487, 1.8487,1.8487
MultiSource/Benchmarks/TSVC/GlobalDataFlow-flt/GlobalDataFlow-flt, 1.5524, 1.5537, 1.5547,1.5537, 1.5505, 1.5514, 1.5677,1.5514
MultiSource/Benchmarks/TSVC/IndirectAddressing-dbl/IndirectAddressing-dbl, 1.8094, 1.8097, 1.8084,1.8094, 1.8130, 1.8122, 1.7879,1.8122
MultiSource/Benchmarks/TSVC/IndirectAddressing-flt/IndirectAddressing-flt, 1.5071, 1.5110, 1.5038,1.5071, 1.5145, 1.5094, 1.5069,1.5094
MultiSource/Benchmarks/TSVC/InductionVariable-dbl/InductionVariable-dbl, 1.8286, 1.8319, 1.8298,1.8298, 1.8324, 1.8316, 1.8306,1.8316
MultiSource/Benchmarks/TSVC/InductionVariable-flt/InductionVariable-flt, 1.5271, 1.5295, 1.5261,1.5271, 1.5331, 1.5349, 1.5312,1.5331
MultiSource/Benchmarks/TSVC/LinearDependence-dbl/LinearDependence-dbl, 1.8724, 1.8725, 1.8698,1.8724, 1.8712, 1.8725, 1.8694,1.8712
MultiSource/Benchmarks/TSVC/LinearDependence-flt/LinearDependence-flt, 1.5705, 1.5740, 1.5708,1.5708, 1.5713, 1.5732, 1.5703,1.5713
MultiSource/Benchmarks/TSVC/LoopRerolling-dbl/LoopRerolling-dbl, 1.7929, 1.7943, 1.7988,1.7943, 1.7924, 1.7929, 1.7886,1.7924
MultiSource/Benchmarks/TSVC/LoopRerolling-flt/LoopRerolling-flt, 1.4901, 1.4919, 1.4889,1.4901, 1.4878, 1.4886, 1.4864,1.4878
MultiSource/Benchmarks/TSVC/LoopRestructuring-dbl/LoopRestructuring-dbl, 1.8296, 1.8319, 1.8288,1.8296, 1.8330, 1.8346, 1.8339,1.8339
MultiSource/Benchmarks/TSVC/LoopRestructuring-flt/LoopRestructuring-flt, 1.5279, 1.5284, 1.5258,1.5279, 1.5312, 1.5316, 1.5298,1.5312
MultiSource/Benchmarks/TSVC/NodeSplitting-dbl/NodeSplitting-dbl, 1.8024, 1.8072, 1.8019,1.8024, 1.8082, 1.8081, 1.8048,1.8081
MultiSource/Benchmarks/TSVC/NodeSplitting-flt/NodeSplitting-flt, 1.5033, 1.5084, 1.5018,1.5033, 1.5045, 1.5049, 1.5093,1.5049
MultiSource/Benchmarks/TSVC/Packing-dbl/Packing-dbl, 1.7810, 1.7815, 1.7575,1.781, 1.7802, 1.7808, 1.7797,1.7802
MultiSource/Benchmarks/TSVC/Packing-flt/Packing-flt, 1.4788, 1.4801, 1.4821,1.4801, 1.4727, 1.4766, 1.4699,1.4727
MultiSource/Benchmarks/TSVC/Recurrences-dbl/Recurrences-dbl, 1.7795, 1.7808, 1.7604,1.7795, 1.7791, 1.7794, 1.7771,1.7791
MultiSource/Benchmarks/TSVC/Recurrences-flt/Recurrences-flt, 1.4757, 1.4779, 1.4742,1.4757, 1.4770, 1.4751, 1.4734,1.4751
MultiSource/Benchmarks/TSVC/Reductions-dbl/Reductions-dbl, 1.8745, 1.8679, 1.8667,1.8679, 1.8663, 1.8681, 1.8643,1.8663
MultiSource/Benchmarks/TSVC/Reductions-flt/Reductions-flt, 1.5639, 1.5682, 1.5624,1.5639, 1.5641, 1.5692, 1.5626,1.5641
MultiSource/Benchmarks/TSVC/Searching-dbl/Searching-dbl, 1.7665, 1.7691, 1.7659,1.7665, 1.7679, 1.7675, 1.7653,1.7675
MultiSource/Benchmarks/TSVC/Searching-flt/Searching-flt, 1.4664, 1.4697, 1.4662,1.4664, 1.4648, 1.4651, 1.4650,1.465
MultiSource/Benchmarks/TSVC/StatementReordering-dbl/StatementReordering-dbl, 1.7774, 1.7785, 1.7765,1.7774, 1.7783, 1.7803, 1.7789,1.7789
MultiSource/Benchmarks/TSVC/StatementReordering-flt/StatementReordering-flt, 1.4734, 1.4744, 1.4723,1.4734, 1.4785, 1.4798, 1.4779,1.4785
MultiSource/Benchmarks/TSVC/Symbolics-dbl/Symbolics-dbl, 1.8118, 1.8150, 1.8131,1.8131, 1.8170, 1.8182, 1.8150,1.817
MultiSource/Benchmarks/TSVC/Symbolics-flt/Symbolics-flt, 1.5097, 1.5243, 1.5073,1.5097, 1.5108, 1.5133, 1.5104,1.5108
MultiSource/Benchmarks/Trimaran/enc-3des/enc-3des, 0.2186, 0.2186, 0.2195,0.2186, 0.2190, 0.2192, 0.2190,0.219
MultiSource/Benchmarks/Trimaran/enc-md5/enc-md5, 0.1364, 0.1363, 0.1361,0.1363, 0.1375, 0.1374, 0.1373,0.1374
MultiSource/Benchmarks/Trimaran/enc-pc1/enc-pc1, 0.0600, 0.0599, 0.0599,0.0599, 0.0601, 0.0602, 0.0600,0.0601
MultiSource/Benchmarks/Trimaran/enc-rc4/enc-rc4, 0.0466, 0.0464, 0.0465,0.0465, 0.0466, 0.0467, 0.0466,0.0466
MultiSource/Benchmarks/Trimaran/netbench-crc/netbench-crc, 0.0723, 0.0718, 0.0719,0.0719, 0.0725, 0.0724, 0.0724,0.0724
MultiSource/Benchmarks/Trimaran/netbench-url/netbench-url, 0.1913, 0.1909, 0.1906,0.1909, 0.1917, 0.1916, 0.1916,0.1916
MultiSource/Benchmarks/VersaBench/8b10b/8b10b, 0.0708, 0.0706, 0.0706,0.0706, 0.0713, 0.0712, 0.0711,0.0712
MultiSource/Benchmarks/VersaBench/beamformer/beamformer, 0.2756, 0.2753, 0.2748,0.2753, 0.2784, 0.2784, 0.2780,0.2784
MultiSource/Benchmarks/VersaBench/bmm/bmm, 0.0475, 0.0473, 0.0473,0.0473, 0.0475, 0.0475, 0.0474,0.0475
MultiSource/Benchmarks/VersaBench/dbms/dbms, 0.9088, 0.9043, 0.9038,0.9043, 0.9144, 0.9126, 0.9128,0.9128
MultiSource/Benchmarks/VersaBench/ecbdes/ecbdes, 0.1964, 0.1958, 0.1958,0.1958, 0.1973, 0.1971, 0.1970,0.1971
MultiSource/Benchmarks/llubenchmark/llu, 0.0443, 0.0440, 0.0440,0.044, 0.0443, 0.0442, 0.0441,0.0442
MultiSource/Benchmarks/mafft/pairlocalalign, 7.9639, 7.9683, 7.9558,7.9639, 7.9577, 7.9604, 7.9524,7.9577
MultiSource/Benchmarks/mediabench/adpcm/rawcaudio/rawcaudio, 0.0529, 0.0526, 0.0527,0.0527, 0.0533, 0.0532, 0.0531,0.0532
MultiSource/Benchmarks/mediabench/adpcm/rawdaudio/rawdaudio, 0.0529, 0.0525, 0.0525,0.0525, 0.0530, 0.0530, 0.0530,0.053
MultiSource/Benchmarks/mediabench/g721/g721encode/encode, 0.1848, 0.1841, 0.1837,0.1841, 0.1856, 0.1852, 0.1855,0.1855
MultiSource/Benchmarks/mediabench/gsm/toast/toast, 0.9637, 0.9602, 0.9597,0.9602, 0.9674, 0.9665, 0.9658,0.9665
MultiSource/Benchmarks/mediabench/jpeg/jpeg-6a/cjpeg, 4.1327, 4.1267, 4.1235,4.1267, 4.1343, 4.1328, 4.1292,4.1328
MultiSource/Benchmarks/mediabench/mpeg2/mpeg2dec/mpeg2decode, 1.2214, 1.2214, 1.2200,1.2214, 1.2275, 1.2276, 1.2259,1.2275
MultiSource/Benchmarks/nbench/nbench, 1.0209, 1.0206, 1.0192,1.0206, 1.0224, 1.0228, 1.0229,1.0228
MultiSource/Benchmarks/sim/sim, 0.2590, 0.2592, 0.2588,0.259, 0.2591, 0.2599, 0.2590,0.2591
MultiSource/Benchmarks/tramp3d-v4/tramp3d-v4,18.3672,18.3775,18.3348,18.3672,18.2601,18.2738,18.2728,18.2728
SingleSource/Benchmarks/Adobe-C++/functionobjects, 0.4186, 0.4189, 0.4181,0.4186, 0.4040, 0.4042, 0.4042,0.4042
SingleSource/Benchmarks/Adobe-C++/loop_unroll, 3.9263, 3.9326, 3.9259,3.9263, 3.9253, 3.9265, 3.9245,3.9253
SingleSource/Benchmarks/Adobe-C++/simple_types_constant_folding, 2.2311, 2.2290, 2.2268,2.229, 2.2305, 2.2304, 2.2319,2.2305
SingleSource/Benchmarks/Adobe-C++/simple_types_loop_invariant, 1.8038, 1.8056, 1.8022,1.8038, 1.8012, 1.8018, 1.8022,1.8018
SingleSource/Benchmarks/Adobe-C++/stepanov_abstraction, 0.5582, 0.5585, 0.5578,0.5582, 0.4981, 0.4985, 0.4979,0.4981
SingleSource/Benchmarks/Adobe-C++/stepanov_vector, 0.6861, 0.6789, 0.6803,0.6803, 0.7799, 0.7830, 0.7787,0.7799
SingleSource/Benchmarks/BenchmarkGame/Large/fasta, 0.0532, 0.0553, 0.0538,0.0538, 0.0486, 0.0513, 0.0488,0.0488
SingleSource/Benchmarks/BenchmarkGame/fannkuch, 0.0481, 0.0480, 0.0479,0.048, 0.0490, 0.0490, 0.0489,0.049
SingleSource/Benchmarks/BenchmarkGame/n-body, 0.0658, 0.0656, 0.0657,0.0657, 0.0659, 0.0659, 0.0658,0.0659
SingleSource/Benchmarks/BenchmarkGame/nsieve-bits, 0.0304, 0.0302, 0.0302,0.0302, 0.0305, 0.0304, 0.0304,0.0304
SingleSource/Benchmarks/BenchmarkGame/partialsums, 0.0283, 0.0282, 0.0282,0.0282, 0.0284, 0.0284, 0.0285,0.0284
SingleSource/Benchmarks/BenchmarkGame/puzzle, 0.0518, 0.0518, 0.0517,0.0518, 0.0519, 0.0520, 0.0519,0.0519
SingleSource/Benchmarks/BenchmarkGame/recursive, 0.0252, 0.0251, 0.0250,0.0251, 0.0253, 0.0253, 0.0253,0.0253
SingleSource/Benchmarks/BenchmarkGame/spectral-norm, 0.0507, 0.0508, 0.0507,0.0507, 0.0509, 0.0508, 0.0508,0.0508
SingleSource/Benchmarks/CoyoteBench/almabench, 0.0617, 0.0616, 0.0616,0.0616, 0.0621, 0.0621, 0.0621,0.0621
SingleSource/Benchmarks/CoyoteBench/fftbench, 0.5572, 0.5496, 0.5565,0.5565, 0.5638, 0.5591, 0.5612,0.5612
SingleSource/Benchmarks/CoyoteBench/huffbench, 0.0789, 0.0786, 0.0787,0.0787, 0.0791, 0.0791, 0.0788,0.0791
SingleSource/Benchmarks/CoyoteBench/lpbench, 0.1386, 0.1385, 0.1384,0.1385, 0.1388, 0.1388, 0.1386,0.1388
SingleSource/Benchmarks/Dhrystone/dry, 0.0441, 0.0447, 0.0484,0.0447, 0.0492, 0.0464, 0.0425,0.0464
SingleSource/Benchmarks/Dhrystone/fldry, 0.0414, 0.0411, 0.0412,0.0412, 0.0415, 0.0414, 0.0413,0.0414
SingleSource/Benchmarks/Linpack/linpack-pc, 0.2807, 0.2812, 0.2806,0.2807, 0.2819, 0.2814, 0.2808,0.2814
SingleSource/Benchmarks/McGill/chomp, 0.1712, 0.1711, 0.1708,0.1711, 0.1714, 0.1713, 0.1711,0.1713
SingleSource/Benchmarks/McGill/misr, 0.0498, 0.0497, 0.0496,0.0497, 0.0499, 0.0499, 0.0498,0.0499
SingleSource/Benchmarks/McGill/queens, 0.0421, 0.0420, 0.0418,0.042, 0.0421, 0.0421, 0.0420,0.0421
SingleSource/Benchmarks/Misc-C++-EH/spirit, 3.3780, 3.3760, 3.3773,3.3773, 3.3853, 3.3808, 3.3889,3.3853
SingleSource/Benchmarks/Misc-C++/Large/ray, 0.2148, 0.2063, 0.2166,0.2148, 0.2085, 0.2143, 0.2088,0.2088
SingleSource/Benchmarks/Misc-C++/Large/sphereflake, 0.2021, 0.2021, 0.2021,0.2021, 0.2026, 0.2024, 0.2026,0.2026
SingleSource/Benchmarks/Misc-C++/bigfib, 0.4264, 0.4339, 0.4304,0.4304, 0.4302, 0.4290, 0.4341,0.4302
SingleSource/Benchmarks/Misc-C++/mandel-text, 0.0231, 0.0230, 0.0230,0.023, 0.0232, 0.0232, 0.0232,0.0232
SingleSource/Benchmarks/Misc-C++/oopack_v1p8, 0.1198, 0.1142, 0.1144,0.1144, 0.1156, 0.1128, 0.1142,0.1142
SingleSource/Benchmarks/Misc-C++/stepanov_container, 0.6745, 0.6656, 0.6727,0.6727, 0.6502, 0.6517, 0.6546,0.6517
SingleSource/Benchmarks/Misc-C++/stepanov_v1p2, 0.1588, 0.1587, 0.1587,0.1587, 0.1585, 0.1585, 0.1585,0.1585
SingleSource/Benchmarks/Misc/ReedSolomon, 0.1725, 0.1725, 0.1722,0.1725, 0.1732, 0.1731, 0.1739,0.1732
SingleSource/Benchmarks/Misc/dt, 0.0304, 0.0303, 0.0304,0.0304, 0.0307, 0.0306, 0.0306,0.0306
SingleSource/Benchmarks/Misc/evalloop, 0.0341, 0.0339, 0.0339,0.0339, 0.0342, 0.0342, 0.0341,0.0342
SingleSource/Benchmarks/Misc/fbench, 0.0501, 0.0500, 0.0500,0.05, 0.0504, 0.0503, 0.0502,0.0503
SingleSource/Benchmarks/Misc/ffbench, 0.0623, 0.0622, 0.0621,0.0622, 0.0625, 0.0625, 0.0624,0.0625
SingleSource/Benchmarks/Misc/flops, 0.0712, 0.0711, 0.0710,0.0711, 0.0718, 0.0716, 0.0717,0.0717
SingleSource/Benchmarks/Misc/flops-1, 0.0257, 0.0255, 0.0256,0.0256, 0.0258, 0.0258, 0.0257,0.0258
SingleSource/Benchmarks/Misc/flops-2, 0.0266, 0.0264, 0.0264,0.0264, 0.0267, 0.0267, 0.0267,0.0267
SingleSource/Benchmarks/Misc/flops-3, 0.0255, 0.0253, 0.0254,0.0254, 0.0257, 0.0257, 0.0255,0.0257
SingleSource/Benchmarks/Misc/flops-4, 0.0260, 0.0259, 0.0259,0.0259, 0.0261, 0.0261, 0.0261,0.0261
SingleSource/Benchmarks/Misc/flops-5, 0.0265, 0.0264, 0.0264,0.0264, 0.0267, 0.0267, 0.0266,0.0267
SingleSource/Benchmarks/Misc/flops-6, 0.0265, 0.0264, 0.0265,0.0265, 0.0267, 0.0267, 0.0267,0.0267
SingleSource/Benchmarks/Misc/flops-7, 0.0255, 0.0252, 0.0253,0.0253, 0.0256, 0.0256, 0.0255,0.0256
SingleSource/Benchmarks/Misc/flops-8, 0.0266, 0.0265, 0.0264,0.0265, 0.0268, 0.0267, 0.0267,0.0267
SingleSource/Benchmarks/Misc/fp-convert, 0.0285, 0.0284, 0.0284,0.0284, 0.0287, 0.0287, 0.0286,0.0287
SingleSource/Benchmarks/Misc/himenobmtxpa, 0.1581, 0.1581, 0.1577,0.1581, 0.1586, 0.1584, 0.1583,0.1584
SingleSource/Benchmarks/Misc/lowercase, 0.0242, 0.0241, 0.0240,0.0241, 0.0242, 0.0242, 0.0241,0.0242
SingleSource/Benchmarks/Misc/mandel, 0.0413, 0.0413, 0.0413,0.0413, 0.0414, 0.0413, 0.0413,0.0413
SingleSource/Benchmarks/Misc/mandel-2, 0.0512, 0.0475, 0.0517,0.0512, 0.0454, 0.0437, 0.0431,0.0437
SingleSource/Benchmarks/Misc/matmul_f64_4x4, 0.0270, 0.0267, 0.0268,0.0268, 0.0271, 0.0271, 0.0271,0.0271
SingleSource/Benchmarks/Misc/oourafft, 0.2067, 0.2001, 0.2049,0.2049, 0.2008, 0.2026, 0.2051,0.2026
SingleSource/Benchmarks/Misc/perlin, 0.0424, 0.0421, 0.0422,0.0422, 0.0424, 0.0425, 0.0424,0.0424
SingleSource/Benchmarks/Misc/pi, 0.0203, 0.0202, 0.0202,0.0202, 0.0204, 0.0204, 0.0204,0.0204
SingleSource/Benchmarks/Misc/revertBits, 0.0243, 0.0241, 0.0242,0.0242, 0.0245, 0.0244, 0.0244,0.0244
SingleSource/Benchmarks/Misc/richards_benchmark, 0.0592, 0.0590, 0.0590,0.059, 0.0592, 0.0592, 0.0591,0.0592
SingleSource/Benchmarks/Misc/salsa20, 0.0506, 0.0505, 0.0504,0.0505, 0.0511, 0.0511, 0.0511,0.0511
SingleSource/Benchmarks/Misc/whetstone, 0.0624, 0.0622, 0.0623,0.0623, 0.0631, 0.0626, 0.0625,0.0626
SingleSource/Benchmarks/Polybench/datamining/correlation/correlation, 0.0708, 0.0706, 0.0709,0.0708, 0.0711, 0.0711, 0.0710,0.0711
SingleSource/Benchmarks/Polybench/datamining/covariance/covariance, 0.0775, 0.0774, 0.0773,0.0774, 0.0777, 0.0778, 0.0777,0.0777
SingleSource/Benchmarks/Polybench/linear-algebra/kernels/atax/atax, 0.0741, 0.0740, 0.0739,0.074, 0.0745, 0.0744, 0.0743,0.0744
SingleSource/Benchmarks/Polybench/linear-algebra/kernels/bicg/bicg, 0.0727, 0.0726, 0.0724,0.0726, 0.0730, 0.0731, 0.0729,0.073
SingleSource/Benchmarks/Polybench/linear-algebra/kernels/cholesky/cholesky, 0.0850, 0.0850, 0.0848,0.085, 0.0854, 0.0854, 0.0853,0.0854
SingleSource/Benchmarks/Polybench/linear-algebra/kernels/doitgen/doitgen, 0.0899, 0.0899, 0.0897,0.0899, 0.0900, 0.0901, 0.0900,0.09
SingleSource/Benchmarks/Polybench/linear-algebra/kernels/gemver/gemver, 0.0839, 0.0837, 0.0836,0.0837, 0.0840, 0.0840, 0.0840,0.084
SingleSource/Benchmarks/Polybench/linear-algebra/kernels/gesummv/gesummv, 0.0607, 0.0620, 0.0621,0.062, 0.0625, 0.0626, 0.0625,0.0625
SingleSource/Benchmarks/Polybench/linear-algebra/kernels/mvt/mvt, 0.0748, 0.0747, 0.0747,0.0747, 0.0752, 0.0751, 0.0751,0.0751
SingleSource/Benchmarks/Polybench/linear-algebra/kernels/symm/symm, 0.0709, 0.0708, 0.0708,0.0708, 0.0713, 0.0713, 0.0711,0.0713
SingleSource/Benchmarks/Polybench/linear-algebra/kernels/syr2k/syr2k, 0.0724, 0.0722, 0.0722,0.0722, 0.0726, 0.0726, 0.0724,0.0726
SingleSource/Benchmarks/Polybench/linear-algebra/kernels/syrk/syrk, 0.0707, 0.0705, 0.0705,0.0705, 0.0711, 0.0711, 0.0710,0.0711
SingleSource/Benchmarks/Polybench/linear-algebra/kernels/trisolv/trisolv, 0.0589, 0.0588, 0.0588,0.0588, 0.0592, 0.0592, 0.0591,0.0592
SingleSource/Benchmarks/Polybench/linear-algebra/kernels/trmm/trmm, 0.0671, 0.0670, 0.0670,0.067, 0.0673, 0.0673, 0.0672,0.0673
SingleSource/Benchmarks/Polybench/linear-algebra/solvers/durbin/durbin, 0.0813, 0.0812, 0.0812,0.0812, 0.0815, 0.0815, 0.0813,0.0815
SingleSource/Benchmarks/Polybench/linear-algebra/solvers/dynprog/dynprog, 0.0675, 0.0675, 0.0673,0.0675, 0.0677, 0.0676, 0.0675,0.0676
SingleSource/Benchmarks/Polybench/linear-algebra/solvers/gramschmidt/gramschmidt, 0.0944, 0.0944, 0.0944,0.0944, 0.0945, 0.0946, 0.0944,0.0945
SingleSource/Benchmarks/Polybench/linear-algebra/solvers/lu/lu, 0.0827, 0.0825, 0.0826,0.0826, 0.0830, 0.0829, 0.0828,0.0829
SingleSource/Benchmarks/Polybench/medley/floyd-warshall/floyd-warshall, 0.0699, 0.0698, 0.0698,0.0698, 0.0702, 0.0702, 0.0701,0.0702
SingleSource/Benchmarks/Polybench/medley/reg_detect/reg_detect, 0.3831, 0.3836, 0.3834,0.3834, 0.3845, 0.3848, 0.3841,0.3845
SingleSource/Benchmarks/Polybench/stencils/adi/adi, 0.0833, 0.0832, 0.0832,0.0832, 0.0836, 0.0836, 0.0834,0.0836
SingleSource/Benchmarks/Polybench/stencils/fdtd-2d/fdtd-2d, 0.1268, 0.1266, 0.1265,0.1266, 0.1281, 0.1282, 0.1280,0.1281
SingleSource/Benchmarks/Polybench/stencils/fdtd-apml/fdtd-apml, 0.1210, 0.1210, 0.1209,0.121, 0.1218, 0.1216, 0.1215,0.1216
SingleSource/Benchmarks/Polybench/stencils/jacobi-1d-imper/jacobi-1d-imper, 0.0776, 0.0775, 0.0774,0.0775, 0.0779, 0.0780, 0.0778,0.0779
SingleSource/Benchmarks/Polybench/stencils/jacobi-2d-imper/jacobi-2d-imper, 0.1038, 0.1038, 0.1036,0.1038, 0.1042, 0.1042, 0.1040,0.1042
SingleSource/Benchmarks/Polybench/stencils/seidel-2d/seidel-2d, 0.0647, 0.0646, 0.0646,0.0646, 0.0651, 0.0651, 0.0650,0.0651
SingleSource/Benchmarks/Shootout-C++/EH/except, 0.1424, 0.1374, 0.1348,0.1374, 0.1387, 0.1414, 0.1484,0.1414
SingleSource/Benchmarks/Shootout-C++/ackermann, 0.1086, 0.1086, 0.1086,0.1086, 0.1086, 0.1085, 0.1087,0.1086
SingleSource/Benchmarks/Shootout-C++/ary, 0.1428, 0.1429, 0.1430,0.1429, 0.1431, 0.1429, 0.1432,0.1431
SingleSource/Benchmarks/Shootout-C++/ary2, 0.1442, 0.1443, 0.1444,0.1443, 0.1444, 0.1441, 0.1445,0.1444
SingleSource/Benchmarks/Shootout-C++/ary3, 0.1462, 0.1462, 0.1464,0.1462, 0.1463, 0.1462, 0.1464,0.1463
SingleSource/Benchmarks/Shootout-C++/fibo, 0.1068, 0.1067, 0.1069,0.1068, 0.1069, 0.1068, 0.1070,0.1069
SingleSource/Benchmarks/Shootout-C++/hash, 0.2477, 0.2480, 0.2479,0.2479, 0.2459, 0.2460, 0.2461,0.246
SingleSource/Benchmarks/Shootout-C++/hash2, 0.3186, 0.3121, 0.3127,0.3127, 0.3138, 0.3107, 0.3176,0.3138
SingleSource/Benchmarks/Shootout-C++/heapsort, 0.1216, 0.1216, 0.1218,0.1216, 0.1215, 0.1215, 0.1215,0.1215
SingleSource/Benchmarks/Shootout-C++/lists, 0.1537, 0.1620, 0.1549,0.1549, 0.1597, 0.1533, 0.1569,0.1569
SingleSource/Benchmarks/Shootout-C++/lists1, 0.1789, 0.1791, 0.1791,0.1791, 0.1780, 0.1780, 0.1781,0.178
SingleSource/Benchmarks/Shootout-C++/matrix, 0.1698, 0.1698, 0.1698,0.1698, 0.1701, 0.1700, 0.1703,0.1701
SingleSource/Benchmarks/Shootout-C++/methcall, 0.1157, 0.1156, 0.1157,0.1157, 0.1156, 0.1156, 0.1158,0.1156
SingleSource/Benchmarks/Shootout-C++/moments, 0.3463, 0.3465, 0.3517,0.3465, 0.3477, 0.3424, 0.3447,0.3447
SingleSource/Benchmarks/Shootout-C++/nestedloop, 0.1074, 0.1074, 0.1076,0.1074, 0.1077, 0.1074, 0.1077,0.1077
SingleSource/Benchmarks/Shootout-C++/objinst, 0.1307, 0.1309, 0.1310,0.1309, 0.1310, 0.1310, 0.1311,0.131
SingleSource/Benchmarks/Shootout-C++/random, 0.1156, 0.1155, 0.1159,0.1156, 0.1158, 0.1158, 0.1160,0.1158
SingleSource/Benchmarks/Shootout-C++/sieve, 0.1666, 0.1666, 0.1667,0.1666, 0.1668, 0.1667, 0.1669,0.1668
SingleSource/Benchmarks/Shootout-C++/strcat, 0.1164, 0.1164, 0.1166,0.1164, 0.1166, 0.1165, 0.1167,0.1166
SingleSource/Benchmarks/Shootout/ackermann, 0.0225, 0.0223, 0.0223,0.0223, 0.0225, 0.0225, 0.0224,0.0225
SingleSource/Benchmarks/Shootout/ary3, 0.0326, 0.0325, 0.0324,0.0325, 0.0326, 0.0326, 0.0326,0.0326
SingleSource/Benchmarks/Shootout/fib2, 0.0191, 0.0189, 0.0188,0.0189, 0.0192, 0.0192, 0.0191,0.0192
SingleSource/Benchmarks/Shootout/hash, 0.0480, 0.0478, 0.0478,0.0478, 0.0480, 0.0481, 0.0479,0.048
SingleSource/Benchmarks/Shootout/heapsort, 0.0367, 0.0365, 0.0365,0.0365, 0.0369, 0.0369, 0.0368,0.0369
SingleSource/Benchmarks/Shootout/lists, 0.0624, 0.0623, 0.0622,0.0623, 0.0623, 0.0623, 0.0622,0.0623
SingleSource/Benchmarks/Shootout/matrix, 0.0763, 0.0763, 0.0762,0.0763, 0.0776, 0.0776, 0.0776,0.0776
SingleSource/Benchmarks/Shootout/methcall, 0.0299, 0.0298, 0.0298,0.0298, 0.0300, 0.0300, 0.0299,0.03
SingleSource/Benchmarks/Shootout/nestedloop, 0.0232, 0.0230, 0.0230,0.023, 0.0232, 0.0232, 0.0231,0.0232
SingleSource/Benchmarks/Shootout/objinst, 0.0353, 0.0351, 0.0352,0.0352, 0.0355, 0.0355, 0.0354,0.0355
SingleSource/Benchmarks/Shootout/random, 0.0284, 0.0283, 0.0283,0.0283, 0.0284, 0.0285, 0.0284,0.0284
SingleSource/Benchmarks/Shootout/sieve, 0.0243, 0.0241, 0.0241,0.0241, 0.0243, 0.0243, 0.0242,0.0243
SingleSource/Benchmarks/Shootout/strcat, 0.0260, 0.0258, 0.0259,0.0259, 0.0261, 0.0261, 0.0260,0.0261
SingleSource/Benchmarks/SmallPT/smallpt, 0.0920, 0.0921, 0.0920,0.092, 0.0925, 0.0925, 0.0925,0.0925
SingleSource/Benchmarks/Stanford/Bubblesort, 0.0320, 0.0319, 0.0318,0.0319, 0.0320, 0.0321, 0.0321,0.0321
SingleSource/Benchmarks/Stanford/FloatMM, 0.0496, 0.0494, 0.0494,0.0494, 0.0496, 0.0495, 0.0494,0.0495
SingleSource/Benchmarks/Stanford/Oscar, 0.0581, 0.0580, 0.0579,0.058, 0.0627, 0.0627, 0.0627,0.0627
SingleSource/Benchmarks/Stanford/Perm, 0.0296, 0.0295, 0.0295,0.0295, 0.0298, 0.0296, 0.0297,0.0297
SingleSource/Benchmarks/Stanford/Puzzle, 0.1019, 0.1017, 0.1016,0.1017, 0.1021, 0.1021, 0.1020,0.1021
SingleSource/Benchmarks/Stanford/Queens, 0.0418, 0.0416, 0.0417,0.0417, 0.0420, 0.0419, 0.0419,0.0419
SingleSource/Benchmarks/Stanford/Quicksort, 0.0352, 0.0351, 0.0350,0.0351, 0.0352, 0.0352, 0.0352,0.0352
SingleSource/Benchmarks/Stanford/RealMM, 0.0468, 0.0466, 0.0465,0.0466, 0.0468, 0.0468, 0.0467,0.0468
SingleSource/Benchmarks/Stanford/Towers, 0.0449, 0.0448, 0.0447,0.0448, 0.0451, 0.0451, 0.0451,0.0451
SingleSource/Benchmarks/Stanford/Treesort, 0.0361, 0.0360, 0.0360,0.036, 0.0361, 0.0361, 0.0360,0.0361
SingleSource/Regression/C/2004-08-12-InlinerAndAllocas, 0.0189, 0.0187, 0.0187,0.0187, 0.0173, 0.0189, 0.0189,0.0189
SingleSource/Regression/C/uint64_to_float, 0.0622, 0.0676, 0.0560,0.0622, 0.0657, 0.0673, 0.0629,0.0657
Total elapsed time,-,-,-,336.34570000000025,-,-,-,330.26109999999954
Total failure,-,-,-,0,-,-,-,4
