Benchmarks,base-5.0,base-5.0,base-5.0,median,br4-aa,br4-aa,br4-aa,median,Slowdown(%)
SingleSource/Benchmarks/Adobe-C++/stepanov_vector, 0.6684, 0.6697, 0.6663,0.6684, 0.7719, 0.7718, 0.7715,0.7718,15.469778575703174
SingleSource/Benchmarks/Stanford/Oscar, 0.0576, 0.0575, 0.0574,0.0575, 0.0622, 0.0619, 0.0620,0.062,7.826086956521738
MultiSource/Benchmarks/Olden/mst/mst, 0.1139, 0.1134, 0.1135,0.1135, 0.1177, 0.1171, 0.1173,0.1173,3.3480176211453827
MultiSource/Benchmarks/McCat/08-main/main, 0.2184, 0.2181, 0.2178,0.2181, 0.2228, 0.2223, 0.2222,0.2223,1.925722145804687
SingleSource/Benchmarks/BenchmarkGame/fannkuch, 0.0470, 0.0470, 0.0471,0.047, 0.0480, 0.0478, 0.0478,0.0478,1.7021276595744705
MultiSource/Applications/minisat/minisat, 0.5482, 0.5491, 0.5490,0.549, 0.5582, 0.5576, 0.5580,0.558,1.6393442622950838
SingleSource/Benchmarks/Shootout/matrix, 0.0752, 0.0751, 0.0750,0.0751, 0.0763, 0.0761, 0.0763,0.0763,1.5978695073235683
MultiSource/Benchmarks/VersaBench/beamformer/beamformer, 0.2715, 0.2716, 0.2714,0.2715, 0.2752, 0.2744, 0.2747,0.2747,1.178637200736632
SingleSource/Benchmarks/Misc/flops-5, 0.0260, 0.0261, 0.0260,0.026, 0.0263, 0.0263, 0.0261,0.0263,1.1538461538461497
MultiSource/Benchmarks/MiBench/security-rijndael/security-rijndael, 0.3566, 0.3559, 0.3556,0.3559, 0.3604, 0.3595, 0.3600,0.36,1.152008991289688
SingleSource/Benchmarks/Polybench/stencils/fdtd-2d/fdtd-2d, 0.1242, 0.1243, 0.1243,0.1243, 0.1256, 0.1256, 0.1255,0.1256,1.045856798069189
SingleSource/Benchmarks/Misc/pi, 0.0200, 0.0201, 0.0200,0.02, 0.0202, 0.0201, 0.0202,0.0202,1.0000000000000009
MultiSource/Benchmarks/Trimaran/enc-md5/enc-md5, 0.1338, 0.1336, 0.1336,0.1336, 0.1349, 0.1348, 0.1349,0.1349,0.9730538922155585
MultiSource/Benchmarks/Olden/voronoi/voronoi, 0.2208, 0.2209, 0.2205,0.2208, 0.2231, 0.2222, 0.2228,0.2228,0.9057971014492683
SingleSource/Benchmarks/Misc/flops, 0.0698, 0.0698, 0.0697,0.0698, 0.0704, 0.0703, 0.0704,0.0704,0.8595988538681931
MultiSource/Benchmarks/DOE-ProxyApps-C/miniGMG/miniGMG, 0.8739, 0.8747, 0.8734,0.8739, 0.8821, 0.8798, 0.8814,0.8814,0.8582217645039414
SingleSource/Benchmarks/Polybench/linear-algebra/kernels/mvt/mvt, 0.0732, 0.0732, 0.0732,0.0732, 0.0739, 0.0736, 0.0738,0.0738,0.819672131147553
SingleSource/Benchmarks/Misc/salsa20, 0.0498, 0.0497, 0.0498,0.0498, 0.0503, 0.0502, 0.0502,0.0502,0.8032128514056325
MultiSource/Benchmarks/McCat/12-IOtest/iotest, 0.0884, 0.0881, 0.0881,0.0881, 0.0892, 0.0884, 0.0888,0.0888,0.7945516458569779
MultiSource/Benchmarks/MiBench/telecomm-adpcm/telecomm-adpcm, 0.0520, 0.0518, 0.0518,0.0518, 0.0525, 0.0520, 0.0522,0.0522,0.7722007722007707
SingleSource/Benchmarks/BenchmarkGame/partialsums, 0.0278, 0.0277, 0.0277,0.0277, 0.0280, 0.0279, 0.0279,0.0279,0.7220216606498298
SingleSource/Benchmarks/Shootout/random, 0.0279, 0.0278, 0.0277,0.0278, 0.0281, 0.0278, 0.0280,0.028,0.7194244604316724
SingleSource/Benchmarks/Misc/fp-convert, 0.0281, 0.0282, 0.0281,0.0281, 0.0283, 0.0282, 0.0283,0.0283,0.7117437722419906
SingleSource/Benchmarks/Polybench/linear-algebra/kernels/bicg/bicg, 0.0713, 0.0712, 0.0712,0.0712, 0.0717, 0.0717, 0.0717,0.0717,0.7022471910112404
SingleSource/Benchmarks/Shootout-C++/ary3, 0.1448, 0.1457, 0.1448,0.1448, 0.1459, 0.1457, 0.1458,0.1458,0.6906077348066253
MultiSource/Benchmarks/Bullet/bullet,20.8266,20.9475,20.9128,20.9128,21.0678,21.0275,21.0570,21.057,0.6895298573122544
SingleSource/Benchmarks/Misc/mandel-2, 0.0292, 0.0294, 0.0292,0.0292, 0.0294, 0.0294, 0.0293,0.0294,0.6849315068493178
SingleSource/Benchmarks/Misc/dt, 0.0299, 0.0300, 0.0299,0.0299, 0.0302, 0.0300, 0.0301,0.0301,0.6688963210702337
SingleSource/Benchmarks/SmallPT/smallpt, 0.0905, 0.0907, 0.0905,0.0905, 0.0911, 0.0911, 0.0911,0.0911,0.6629834254143763
MultiSource/Benchmarks/McCat/05-eks/eks, 0.4707, 0.4700, 0.4700,0.47, 0.4731, 0.4724, 0.4735,0.4731,0.6595744680851112
SingleSource/Benchmarks/Polybench/stencils/jacobi-1d-imper/jacobi-1d-imper, 0.0759, 0.0761, 0.0759,0.0759, 0.0765, 0.0764, 0.0763,0.0764,0.6587615283267567
MultiSource/Benchmarks/TSVC/Expansion-flt/Expansion-flt, 1.5672, 1.5665, 1.5648,1.5665, 1.5768, 1.5791, 1.5753,1.5768,0.657516757101817
SingleSource/Benchmarks/Polybench/linear-algebra/kernels/gesummv/gesummv, 0.0610, 0.0611, 0.0611,0.0611, 0.0616, 0.0612, 0.0615,0.0615,0.6546644844517058
SingleSource/Benchmarks/Misc/whetstone, 0.0611, 0.0610, 0.0612,0.0611, 0.0616, 0.0615, 0.0613,0.0615,0.6546644844517058
SingleSource/Benchmarks/Polybench/stencils/seidel-2d/seidel-2d, 0.0634, 0.0637, 0.0635,0.0635, 0.0640, 0.0639, 0.0639,0.0639,0.6299212598425141
MultiSource/Benchmarks/DOE-ProxyApps-C/XSBench/XSBench, 0.3189, 0.3180, 0.3179,0.318, 0.3206, 0.3195, 0.3200,0.32,0.6289308176100628
SingleSource/Benchmarks/Shootout-C++/strcat, 0.1153, 0.1156, 0.1154,0.1154, 0.1164, 0.1158, 0.1161,0.1161,0.60658578856152
SingleSource/Benchmarks/Polybench/linear-algebra/kernels/cholesky/cholesky, 0.0831, 0.0832, 0.0831,0.0831, 0.0837, 0.0836, 0.0836,0.0836,0.6016847172081841
SingleSource/Benchmarks/Misc/ReedSolomon, 0.1690, 0.1690, 0.1687,0.169, 0.1697, 0.1700, 0.1715,0.17,0.591715976331364
MultiSource/Benchmarks/FreeBench/distray/distray, 0.0847, 0.0846, 0.0848,0.0847, 0.0852, 0.0848, 0.0852,0.0852,0.5903187721369552
SingleSource/Benchmarks/Polybench/stencils/fdtd-apml/fdtd-apml, 0.1188, 0.1183, 0.1186,0.1186, 0.1193, 0.1191, 0.1193,0.1193,0.590219224283306
SingleSource/Benchmarks/Polybench/medley/floyd-warshall/floyd-warshall, 0.0687, 0.0686, 0.0687,0.0687, 0.0691, 0.0697, 0.0689,0.0691,0.5822416302765587
MultiSource/Applications/obsequi/Obsequi, 0.8785, 0.8769, 0.8770,0.877, 0.8840, 0.8805, 0.8821,0.8821,0.5815279361459424
SingleSource/Benchmarks/CoyoteBench/fftbench, 0.2927, 0.2937, 0.2935,0.2935, 0.2937, 0.2952, 0.2960,0.2952,0.5792163543441253
MultiSource/Benchmarks/DOE-ProxyApps-C/SimpleMOC/SimpleMOC, 0.7806, 0.7812, 0.7794,0.7806, 0.7861, 0.7851, 0.7844,0.7851,0.5764796310530507
SingleSource/Benchmarks/Misc-C++/Large/ray, 0.1932, 0.1938, 0.1930,0.1932, 0.1943, 0.1943, 0.1941,0.1943,0.5693581780538359
SingleSource/Benchmarks/Polybench/linear-algebra/kernels/syr2k/syr2k, 0.0709, 0.0711, 0.0709,0.0709, 0.0713, 0.0711, 0.0713,0.0713,0.5641748942172065
MultiSource/Benchmarks/MiBench/network-patricia/network-patricia, 0.0747, 0.0742, 0.0743,0.0743, 0.0748, 0.0744, 0.0747,0.0747,0.5383580080753569
SingleSource/Benchmarks/Shootout/fib2, 0.0189, 0.0188, 0.0187,0.0188, 0.0190, 0.0189, 0.0189,0.0189,0.5319148936170137
SingleSource/Benchmarks/Misc/oourafft, 0.1894, 0.1898, 0.1893,0.1894, 0.1908, 0.1903, 0.1904,0.1904,0.5279831045406524
MultiSource/Benchmarks/TSVC/CrossingThresholds-dbl/CrossingThresholds-dbl, 1.8329, 1.8327, 1.8335,1.8329, 1.8429, 1.8425, 1.8408,1.8425,0.5237601614927145
MultiSource/Benchmarks/TSVC/NodeSplitting-flt/NodeSplitting-flt, 1.5108, 1.5117, 1.5081,1.5108, 1.5187, 1.5177, 1.5188,1.5187,0.522901773894624
SingleSource/Benchmarks/Misc/himenobmtxpa, 0.1550, 0.1548, 0.1546,0.1548, 0.1560, 0.1555, 0.1556,0.1556,0.5167958656330685
MultiSource/Benchmarks/Trimaran/enc-3des/enc-3des, 0.2123, 0.2140, 0.2141,0.214, 0.2148, 0.2151, 0.2151,0.2151,0.5140186915888023
MultiSource/Benchmarks/Olden/power/power, 0.1182, 0.1177, 0.1175,0.1177, 0.1185, 0.1183, 0.1183,0.1183,0.5097706032285432
MultiSource/Benchmarks/NPB-serial/is/is, 0.0593, 0.0592, 0.0592,0.0592, 0.0596, 0.0595, 0.0594,0.0595,0.5067567567567544
MultiSource/Benchmarks/BitBench/uuencode/uuencode, 0.0397, 0.0395, 0.0395,0.0395, 0.0398, 0.0397, 0.0397,0.0397,0.5063291139240533
SingleSource/Benchmarks/Shootout-C++/EH/except, 0.1197, 0.1198, 0.1196,0.1197, 0.1203, 0.1202, 0.1203,0.1203,0.5012531328320913
MultiSource/Applications/JM/lencod/lencod,13.2944,13.2996,13.2901,13.2944,13.3620,13.3439,13.3608,13.3608,0.4994584185822548
SingleSource/Benchmarks/Misc/mandel, 0.0405, 0.0405, 0.0404,0.0405, 0.0408, 0.0407, 0.0405,0.0407,0.49382716049382047
MultiSource/Benchmarks/TSVC/StatementReordering-flt/StatementReordering-flt, 1.4854, 1.4850, 1.4819,1.485, 1.4926, 1.4898, 1.4922,1.4922,0.48484848484846577
SingleSource/Benchmarks/McGill/queens, 0.0415, 0.0414, 0.0414,0.0414, 0.0416, 0.0414, 0.0420,0.0416,0.48309178743961567
MultiSource/Benchmarks/McCat/03-testtrie/testtrie, 0.0846, 0.0847, 0.0845,0.0846, 0.0853, 0.0849, 0.0850,0.085,0.47281323877070847
MultiSource/Benchmarks/VersaBench/ecbdes/ecbdes, 0.1931, 0.1926, 0.1930,0.193, 0.1957, 0.1939, 0.1936,0.1939,0.4663212435233044
MultiSource/Benchmarks/mediabench/gsm/toast/toast, 0.9462, 0.9447, 0.9446,0.9447, 0.9506, 0.9473, 0.9491,0.9491,0.46575632475918116
MultiSource/Applications/lua/lua, 2.9301, 2.9317, 2.9254,2.9301, 2.9437, 2.9396, 2.9445,2.9437,0.46414798129756907
SingleSource/Benchmarks/Polybench/linear-algebra/kernels/doitgen/doitgen, 0.0881, 0.0881, 0.0880,0.0881, 0.0886, 0.0883, 0.0885,0.0885,0.4540295119182636
SingleSource/Benchmarks/Shootout/ackermann, 0.0221, 0.0221, 0.0221,0.0221, 0.0222, 0.0221, 0.0222,0.0222,0.4524886877828038
MultiSource/Benchmarks/FreeBench/mason/mason, 0.0458, 0.0457, 0.0456,0.0457, 0.0459, 0.0459, 0.0459,0.0459,0.4376367614879806
SingleSource/Benchmarks/Shootout-C++/random, 0.1148, 0.1151, 0.1148,0.1148, 0.1158, 0.1150, 0.1153,0.1153,0.435540069686402
MultiSource/Benchmarks/FreeBench/pifft/pifft, 0.8340, 0.8337, 0.8337,0.8337, 0.8373, 0.8354, 0.8373,0.8373,0.4318100035984207
SingleSource/Benchmarks/Polybench/datamining/correlation/correlation, 0.0694, 0.0697, 0.0697,0.0697, 0.0700, 0.0698, 0.0700,0.07,0.43041606886657924
MultiSource/Benchmarks/Olden/bh/bh, 0.2361, 0.2353, 0.2350,0.2353, 0.2370, 0.2363, 0.2358,0.2363,0.4249893752656275
MultiSource/Benchmarks/McCat/04-bisect/bisect, 0.1180, 0.1177, 0.1176,0.1177, 0.1187, 0.1181, 0.1182,0.1182,0.4248088360237823
MultiSource/Benchmarks/MiBench/telecomm-gsm/telecomm-gsm, 0.9464, 0.9442, 0.9449,0.9449, 0.9525, 0.9475, 0.9489,0.9489,0.42332521959995706
SingleSource/Benchmarks/Misc/lowercase, 0.0238, 0.0236, 0.0237,0.0237, 0.0239, 0.0237, 0.0238,0.0238,0.42194092827005925
SingleSource/Benchmarks/Misc/revertBits, 0.0239, 0.0240, 0.0239,0.0239, 0.0242, 0.0240, 0.0240,0.024,0.4184100418409997
SingleSource/Benchmarks/Shootout-C++/lists, 0.1471, 0.1474, 0.1470,0.1471, 0.1477, 0.1479, 0.1473,0.1477,0.40788579197823527
SingleSource/Benchmarks/Misc/fbench, 0.0494, 0.0493, 0.0492,0.0493, 0.0495, 0.0494, 0.0495,0.0495,0.40567951318459805
MultiSource/Benchmarks/ASCI_Purple/SMG2000/smg2000, 5.0904, 5.0888, 5.0857,5.0888, 5.1189, 5.1094, 5.1074,5.1094,0.4048105643766675
MultiSource/Benchmarks/TSVC/NodeSplitting-dbl/NodeSplitting-dbl, 1.8149, 1.8171, 1.8146,1.8149, 1.8236, 1.8204, 1.8222,1.8222,0.40222601796242596
SingleSource/Benchmarks/BenchmarkGame/recursive, 0.0248, 0.0249, 0.0249,0.0249, 0.0251, 0.0249, 0.0250,0.025,0.40160642570281624
SingleSource/Benchmarks/BenchmarkGame/spectral-norm, 0.0499, 0.0500, 0.0499,0.0499, 0.0502, 0.0501, 0.0500,0.0501,0.4008016032064132
SingleSource/Benchmarks/Misc/flops-3, 0.0251, 0.0252, 0.0250,0.0251, 0.0253, 0.0252, 0.0252,0.0252,0.3984063745019917
SingleSource/Benchmarks/Misc/flops-1, 0.0253, 0.0252, 0.0252,0.0252, 0.0254, 0.0253, 0.0253,0.0253,0.3968253968253954
SingleSource/Benchmarks/Polybench/stencils/jacobi-2d-imper/jacobi-2d-imper, 0.1017, 0.1019, 0.1018,0.1018, 0.1023, 0.1021, 0.1022,0.1022,0.39292730844793233
SingleSource/Benchmarks/Misc/flops-4, 0.0255, 0.0256, 0.0254,0.0255, 0.0257, 0.0256, 0.0256,0.0256,0.39215686274511885
MultiSource/Benchmarks/DOE-ProxyApps-C/RSBench/rsbench, 0.3582, 0.3578, 0.3569,0.3578, 0.3602, 0.3585, 0.3592,0.3592,0.39128004471771227
MultiSource/Benchmarks/TSVC/InductionVariable-flt/InductionVariable-flt, 1.5406, 1.5439, 1.5390,1.5406, 1.5453, 1.5472, 1.5465,1.5465,0.38296767493184447
SingleSource/Benchmarks/Misc/flops-8, 0.0262, 0.0262, 0.0261,0.0262, 0.0263, 0.0263, 0.0262,0.0263,0.3816793893129722
MultiSource/Benchmarks/FreeBench/neural/neural, 0.1580, 0.1581, 0.1579,0.158, 0.1590, 0.1585, 0.1586,0.1586,0.37974683544304
MultiSource/Benchmarks/MiBench/automotive-susan/automotive-susan, 0.5547, 0.5550, 0.5547,0.5547, 0.5568, 0.5563, 0.5580,0.5568,0.37858301784747805
MultiSource/Benchmarks/PAQ8p/paq8p, 1.7219, 1.7184, 1.7198,1.7198, 1.7262, 1.7253, 1.7267,1.7262,0.3721362949180129
SingleSource/Benchmarks/Polybench/linear-algebra/solvers/lu/lu, 0.0810, 0.0810, 0.0810,0.081, 0.0816, 0.0812, 0.0813,0.0813,0.37037037037035425
MultiSource/Benchmarks/FreeBench/analyzer/analyzer, 0.2175, 0.2173, 0.2168,0.2173, 0.2182, 0.2177, 0.2181,0.2181,0.36815462494246276
SingleSource/Benchmarks/Polybench/stencils/adi/adi, 0.0819, 0.0817, 0.0818,0.0818, 0.0821, 0.0819, 0.0821,0.0821,0.3667481662591898
MultiSource/Benchmarks/Prolangs-C++/life/life, 0.0548, 0.0547, 0.0547,0.0547, 0.0549, 0.0548, 0.0549,0.0549,0.3656307129798808
MultiSource/Benchmarks/VersaBench/dbms/dbms, 0.8969, 0.8946, 0.8938,0.8946, 0.9005, 0.8978, 0.8965,0.8978,0.35770176615248506
SingleSource/Benchmarks/Shootout-C++/matrix, 0.1680, 0.1681, 0.1680,0.168, 0.1687, 0.1686, 0.1684,0.1686,0.3571428571428559
SingleSource/Benchmarks/Shootout-C++/ary, 0.1416, 0.1420, 0.1420,0.142, 0.1428, 0.1419, 0.1425,0.1425,0.35211267605634866
MultiSource/Benchmarks/SciMark2-C/scimark2, 0.3429, 0.3418, 0.3417,0.3418, 0.3444, 0.3420, 0.3430,0.343,0.3510825043885335
SingleSource/Benchmarks/Stanford/Perm, 0.0293, 0.0292, 0.0292,0.0292, 0.0294, 0.0292, 0.0293,0.0293,0.3424657534246478
SingleSource/Benchmarks/Misc/richards_benchmark, 0.0585, 0.0585, 0.0583,0.0585, 0.0588, 0.0585, 0.0587,0.0587,0.34188034188034067
MultiSource/Benchmarks/Trimaran/enc-pc1/enc-pc1, 0.0588, 0.0587, 0.0587,0.0587, 0.0589, 0.0587, 0.0589,0.0589,0.34071550255536653
SingleSource/Benchmarks/BenchmarkGame/nsieve-bits, 0.0297, 0.0297, 0.0296,0.0297, 0.0299, 0.0297, 0.0298,0.0298,0.33670033670032407
MultiSource/Benchmarks/McCat/01-qbsort/qbsort, 0.0899, 0.0896, 0.0896,0.0896, 0.0901, 0.0896, 0.0899,0.0899,0.33482142857141906
MultiSource/Benchmarks/mediabench/mpeg2/mpeg2dec/mpeg2decode, 1.2012, 1.1985, 1.1994,1.1994, 1.2049, 1.2014, 1.2034,1.2034,0.3335000833750268
SingleSource/Benchmarks/Polybench/linear-algebra/solvers/gramschmidt/gramschmidt, 0.0922, 0.0922, 0.0921,0.0922, 0.0925, 0.0924, 0.0925,0.0925,0.32537960954446277
MultiSource/Applications/viterbi/viterbi, 0.1537, 0.1537, 0.1536,0.1537, 0.1547, 0.1542, 0.1542,0.1542,0.3253090435914041
MultiSource/Benchmarks/Prolangs-C++/employ/employ, 0.1844, 0.1849, 0.1845,0.1845, 0.1851, 0.1854, 0.1850,0.1851,0.3252032520325132
MultiSource/Benchmarks/ASC_Sequoia/IRSmk/IRSmk, 0.0949, 0.0946, 0.0944,0.0946, 0.0951, 0.0949, 0.0948,0.0949,0.3171247357293794
SingleSource/Benchmarks/Shootout/ary3, 0.0319, 0.0319, 0.0319,0.0319, 0.0320, 0.0319, 0.0320,0.032,0.31347962382446415
MultiSource/Benchmarks/Prolangs-C/gnugo/gnugo, 0.6761, 0.6747, 0.6771,0.6761, 0.6818, 0.6761, 0.6782,0.6782,0.3106049400976252
SingleSource/Benchmarks/BenchmarkGame/n-body, 0.0647, 0.0645, 0.0646,0.0646, 0.0649, 0.0648, 0.0648,0.0648,0.3095975232197956
MultiSource/Applications/sqlite3/sqlite3,13.5996,13.6016,13.6037,13.6016,13.6436,13.6138,13.6462,13.6436,0.3087872015057114
SingleSource/Benchmarks/Shootout-C++/objinst, 0.1295, 0.1301, 0.1298,0.1298, 0.1307, 0.1300, 0.1302,0.1302,0.30816640986133237
SingleSource/Benchmarks/Polybench/linear-algebra/kernels/trmm/trmm, 0.0659, 0.0660, 0.0659,0.0659, 0.0661, 0.0660, 0.0661,0.0661,0.3034901365705611
MultiSource/Benchmarks/MiBench/automotive-basicmath/automotive-basicmath, 0.1327, 0.1325, 0.1326,0.1326, 0.1334, 0.1330, 0.1329,0.133,0.3016591251885359
SingleSource/Benchmarks/Stanford/Puzzle, 0.0999, 0.0998, 0.0999,0.0999, 0.1003, 0.0999, 0.1002,0.1002,0.30030030030030463
MultiSource/Benchmarks/Prolangs-C++/ocean/ocean, 0.1000, 0.0999, 0.0997,0.0999, 0.1002, 0.0997, 0.1003,0.1002,0.30030030030030463
SingleSource/Benchmarks/McGill/chomp, 0.1686, 0.1689, 0.1684,0.1686, 0.1694, 0.1687, 0.1691,0.1691,0.29655990510082386
SingleSource/Benchmarks/CoyoteBench/lpbench, 0.1362, 0.1361, 0.1358,0.1361, 0.1366, 0.1364, 0.1365,0.1365,0.29390154298309934
SingleSource/Benchmarks/Stanford/Quicksort, 0.0348, 0.0347, 0.0347,0.0347, 0.0350, 0.0348, 0.0347,0.0348,0.28818443804032867
SingleSource/Benchmarks/Polybench/medley/reg_detect/reg_detect, 0.3902, 0.3899, 0.3904,0.3902, 0.3913, 0.3914, 0.3911,0.3913,0.2819067145053866
MultiSource/Benchmarks/Trimaran/netbench-crc/netbench-crc, 0.0710, 0.0711, 0.0711,0.0711, 0.0716, 0.0712, 0.0713,0.0713,0.2812939521800395
MultiSource/Benchmarks/nbench/nbench, 1.0067, 1.0066, 1.0076,1.0067, 1.0099, 1.0090, 1.0095,1.0095,0.27813648554684267
SingleSource/Benchmarks/Shootout-C++/ackermann, 0.1080, 0.1085, 0.1082,0.1082, 0.1085, 0.1085, 0.1082,0.1085,0.27726432532346745
MultiSource/Benchmarks/TSVC/LoopRestructuring-dbl/LoopRestructuring-dbl, 1.8483, 1.8471, 1.8464,1.8471, 1.8537, 1.8483, 1.8521,1.8521,0.2706946023496304
MultiSource/Benchmarks/Fhourstones/fhourstones, 0.1493, 0.1490, 0.1489,0.149, 0.1497, 0.1492, 0.1494,0.1494,0.26845637583894355
SingleSource/Benchmarks/BenchmarkGame/Large/fasta, 0.0377, 0.0376, 0.0375,0.0376, 0.0377, 0.0376, 0.0377,0.0377,0.26595744680850686
MultiSource/Benchmarks/TSVC/GlobalDataFlow-dbl/GlobalDataFlow-dbl, 1.8669, 1.8691, 1.8667,1.8669, 1.8771, 1.8718, 1.8696,1.8718,0.2624671916010346
MultiSource/Benchmarks/TSVC/ControlLoops-flt/ControlLoops-flt, 1.5715, 1.5728, 1.5671,1.5715, 1.5756, 1.5758, 1.5751,1.5756,0.2608972319440017
SingleSource/Benchmarks/Shootout-C++/methcall, 0.1153, 0.1150, 0.1147,0.115, 0.1156, 0.1149, 0.1153,0.1153,0.2608695652173809
MultiSource/Applications/lambda-0.1.3/lambda, 0.5040, 0.5034, 0.5027,0.5034, 0.5050, 0.5047, 0.5046,0.5047,0.25824394119986493
MultiSource/Benchmarks/BitBench/drop3/drop3, 0.0398, 0.0396, 0.0396,0.0396, 0.0397, 0.0396, 0.0397,0.0397,0.2525252525252375
SingleSource/Benchmarks/Polybench/linear-algebra/solvers/durbin/durbin, 0.0799, 0.0796, 0.0796,0.0796, 0.0799, 0.0798, 0.0798,0.0798,0.2512562814070307
MultiSource/Benchmarks/Prolangs-C/agrep/agrep, 1.2031, 1.2014, 1.1988,1.2014, 1.2057, 1.2029, 1.2044,1.2044,0.2497086732145659
MultiSource/Benchmarks/ASC_Sequoia/CrystalMk/CrystalMk, 0.2034, 0.2029, 0.2025,0.2029, 0.2041, 0.2031, 0.2034,0.2034,0.2464268112370549
MultiSource/Benchmarks/TSVC/StatementReordering-dbl/StatementReordering-dbl, 1.7918, 1.7915, 1.7925,1.7918, 1.7973, 1.7953, 1.7962,1.7962,0.2455631208840181
SingleSource/Benchmarks/Polybench/linear-algebra/kernels/gemver/gemver, 0.0820, 0.0821, 0.0819,0.082, 0.0825, 0.0821, 0.0822,0.0822,0.24390243902439046
SingleSource/Benchmarks/Stanford/Queens, 0.0413, 0.0413, 0.0413,0.0413, 0.0414, 0.0414, 0.0415,0.0414,0.2421307506053072
SingleSource/Benchmarks/Misc/perlin, 0.0414, 0.0414, 0.0413,0.0414, 0.0415, 0.0415, 0.0416,0.0415,0.24154589371980784
MultiSource/Benchmarks/TSVC/LoopRerolling-flt/LoopRerolling-flt, 1.4990, 1.4971, 1.4957,1.4971, 1.5013, 1.5004, 1.5007,1.5007,0.24046489880433786
MultiSource/Benchmarks/Olden/health/health, 0.1268, 0.1268, 0.1269,0.1268, 0.1274, 0.1269, 0.1271,0.1271,0.23659305993690705
MultiSource/Benchmarks/TSVC/Searching-dbl/Searching-dbl, 1.7789, 1.7873, 1.7805,1.7805, 1.7869, 1.7815, 1.7847,1.7847,0.23588879528222417
MultiSource/Benchmarks/7zip/7zip-benchmark,30.6786,30.8041,30.7512,30.7512,30.8506,30.7905,30.8235,30.8235,0.2351127760867877
MultiSource/Benchmarks/McCat/18-imp/imp, 0.3001, 0.2992, 0.2990,0.2992, 0.3003, 0.2999, 0.2997,0.2999,0.23395721925132396
MultiSource/Applications/hexxagon/hexxagon, 0.6053, 0.6064, 0.6050,0.6053, 0.6070, 0.6062, 0.6067,0.6067,0.2312902692879648
SingleSource/Benchmarks/Stanford/Towers, 0.0445, 0.0445, 0.0444,0.0445, 0.0446, 0.0446, 0.0446,0.0446,0.22471910112360494
MultiSource/Benchmarks/MallocBench/cfrac/cfrac, 0.8073, 0.8052, 0.8041,0.8052, 0.8106, 0.8070, 0.8069,0.807,0.22354694485842153
MultiSource/Applications/ALAC/decode/alacconvert-decode, 0.8565, 0.8569, 0.8547,0.8565, 0.8589, 0.8573, 0.8584,0.8584,0.22183304144776095
MultiSource/Benchmarks/Ptrdist/anagram/anagram, 0.0911, 0.0910, 0.0911,0.0911, 0.0913, 0.0910, 0.0913,0.0913,0.2195389681668658
MultiSource/Applications/JM/ldecod/ldecod, 5.6739, 5.6717, 5.6771,5.6739, 5.6901, 5.6860, 5.6849,5.686,0.21325719522726772
MultiSource/Benchmarks/TSVC/CrossingThresholds-flt/CrossingThresholds-flt, 1.5265, 1.5302, 1.5239,1.5265, 1.5287, 1.5297, 1.5308,1.5297,0.2096298722568113
MultiSource/Benchmarks/BitBench/five11/five11, 0.0495, 0.0495, 0.0493,0.0495, 0.0497, 0.0494, 0.0496,0.0496,0.20202020202020332
MultiSource/Benchmarks/TSVC/LinearDependence-flt/LinearDependence-flt, 1.5862, 1.5863, 1.5862,1.5862, 1.5889, 1.5898, 1.5894,1.5894,0.20174000756523203
SingleSource/Benchmarks/Misc-C++/Large/sphereflake, 0.2010, 0.2007, 0.2005,0.2007, 0.2016, 0.2011, 0.2010,0.2011,0.19930244145491827
MultiSource/Applications/sgefa/sgefa, 0.3525, 0.3529, 0.3522,0.3525, 0.3539, 0.3531, 0.3532,0.3532,0.1985815602836949
SingleSource/Benchmarks/Misc-C++/oopack_v1p8, 0.1017, 0.1020, 0.1021,0.102, 0.1024, 0.1022, 0.1021,0.1022,0.19607843137254832
MultiSource/Applications/SIBsim4/SIBsim4, 1.0351, 1.0347, 1.0345,1.0347, 1.0387, 1.0354, 1.0367,1.0367,0.19329274185755363
MultiSource/Benchmarks/mediabench/adpcm/rawdaudio/rawdaudio, 0.0522, 0.0522, 0.0520,0.0522, 0.0524, 0.0523, 0.0523,0.0523,0.19157088122605526
MultiSource/Benchmarks/mediabench/adpcm/rawcaudio/rawcaudio, 0.0522, 0.0522, 0.0521,0.0522, 0.0526, 0.0523, 0.0523,0.0523,0.19157088122605526
SingleSource/Benchmarks/Misc-C++/stepanov_v1p2, 0.1568, 0.1568, 0.1566,0.1568, 0.1568, 0.1574, 0.1571,0.1571,0.1913265306122458
MultiSource/Benchmarks/TSVC/Reductions-dbl/Reductions-dbl, 1.8860, 1.8876, 1.8847,1.886, 1.8885, 1.8914, 1.8896,1.8896,0.1908801696712592
MultiSource/Applications/spiff/spiff, 0.6833, 0.6827, 0.6827,0.6827, 0.6865, 0.6835, 0.6840,0.684,0.19042038962941987
MultiSource/Benchmarks/MiBench/security-sha/security-sha, 0.1071, 0.1070, 0.1070,0.107, 0.1076, 0.1071, 0.1072,0.1072,0.18691588785046953
SingleSource/Benchmarks/Shootout-C++/nestedloop, 0.1071, 0.1073, 0.1068,0.1071, 0.1073, 0.1073, 0.1075,0.1073,0.18674136321195078
MultiSource/Benchmarks/Prolangs-C++/city/city, 0.8286, 0.8297, 0.8275,0.8286, 0.8322, 0.8301, 0.8301,0.8301,0.1810282404054897
SingleSource/Benchmarks/Adobe-C++/simple_types_constant_folding, 2.2644, 2.2670, 2.2622,2.2644, 2.2739, 2.2684, 2.2485,2.2684,0.17664723547077266
MultiSource/Benchmarks/TSVC/Equivalencing-dbl/Equivalencing-dbl, 1.8438, 1.8427, 1.8403,1.8427, 1.8459, 1.8530, 1.8445,1.8459,0.17365821891790478
MultiSource/Benchmarks/TSVC/ControlFlow-dbl/ControlFlow-dbl, 1.9713, 1.9682, 1.9698,1.9698, 1.9745, 1.9697, 1.9732,1.9732,0.17260635597522445
MultiSource/Benchmarks/TSVC/LoopRerolling-dbl/LoopRerolling-dbl, 1.8049, 1.8055, 1.8049,1.8049, 1.8092, 1.8042, 1.8080,1.808,0.1717546678486448
MultiSource/Benchmarks/Trimaran/netbench-url/netbench-url, 0.1889, 0.1887, 0.1883,0.1887, 0.1898, 0.1886, 0.1890,0.189,0.15898251192367763
MultiSource/Benchmarks/MiBench/telecomm-FFT/telecomm-fft, 0.1281, 0.1293, 0.1274,0.1281, 0.1288, 0.1281, 0.1283,0.1283,0.15612802498048417
MultiSource/Benchmarks/McCat/17-bintr/bintr, 0.0651, 0.0650, 0.0651,0.0651, 0.0654, 0.0652, 0.0652,0.0652,0.1536098310291667
MultiSource/Applications/ALAC/encode/alacconvert-encode, 0.8578, 0.8570, 0.8548,0.857, 0.8597, 0.8580, 0.8583,0.8583,0.15169194865811697
SingleSource/Benchmarks/Polybench/linear-algebra/solvers/dynprog/dynprog, 0.0663, 0.0662, 0.0663,0.0663, 0.0665, 0.0662, 0.0664,0.0664,0.15082956259426794
MultiSource/Benchmarks/TSVC/Packing-dbl/Packing-dbl, 1.7932, 1.7958, 1.7937,1.7937, 1.7964, 1.7963, 1.7982,1.7964,0.15052684395382432
MultiSource/Benchmarks/TSVC/ControlLoops-dbl/ControlLoops-dbl, 1.8798, 1.8809, 1.8787,1.8798, 1.8832, 1.8804, 1.8825,1.8825,0.14363230130864935
MultiSource/Benchmarks/VersaBench/8b10b/8b10b, 0.0699, 0.0695, 0.0698,0.0698, 0.0703, 0.0697, 0.0699,0.0699,0.14326647564470996
MultiSource/Benchmarks/Prolangs-C/bison/mybison, 1.4598, 1.4604, 1.4588,1.4598, 1.4625, 1.4596, 1.4618,1.4618,0.13700506918756794
MultiSource/Benchmarks/ASC_Sequoia/AMGmk/AMGmk, 0.5312, 0.5315, 0.5303,0.5312, 0.5339, 0.5318, 0.5319,0.5319,0.13177710843375046
SingleSource/Benchmarks/CoyoteBench/huffbench, 0.0773, 0.0773, 0.0771,0.0773, 0.0774, 0.0774, 0.0773,0.0774,0.1293661060802087
MultiSource/Benchmarks/MallocBench/espresso/espresso, 4.1322, 4.1286, 4.1246,4.1286, 4.1378, 4.1308, 4.1339,4.1339,0.12837281402897638
MultiSource/Benchmarks/mediabench/jpeg/jpeg-6a/cjpeg, 4.0641, 4.0598, 4.0558,4.0598, 4.0723, 4.0574, 4.0650,4.065,0.12808512734618915
MultiSource/Benchmarks/Olden/em3d/em3d, 0.1638, 0.1632, 0.1631,0.1632, 0.1638, 0.1634, 0.1634,0.1634,0.1225490196078205
MultiSource/Benchmarks/TSVC/LoopRestructuring-flt/LoopRestructuring-flt, 1.5375, 1.5413, 1.5408,1.5408, 1.5426, 1.5486, 1.5417,1.5426,0.1168224299065379
MultiSource/Applications/aha/aha, 0.0901, 0.0902, 0.0897,0.0901, 0.0907, 0.0901, 0.0902,0.0902,0.11098779134295356
MultiSource/Benchmarks/mediabench/g721/g721encode/encode, 0.1828, 0.1824, 0.1820,0.1824, 0.1831, 0.1825, 0.1826,0.1826,0.10964912280702066
SingleSource/Benchmarks/Adobe-C++/loop_unroll, 3.9888, 4.0003, 3.9860,3.9888, 3.9928, 3.9914, 3.9998,3.9928,0.10028078620136771
MultiSource/Benchmarks/Fhourstones-3.1/fhourstones3.1, 0.1066, 0.1064, 0.1064,0.1064, 0.1065, 0.1064, 0.1066,0.1065,0.09398496240602405
MultiSource/Benchmarks/TSVC/Symbolics-dbl/Symbolics-dbl, 1.8323, 1.8323, 1.8285,1.8323, 1.8375, 1.8337, 1.8340,1.834,0.09277956666484677
MultiSource/Benchmarks/TSVC/Reductions-flt/Reductions-flt, 1.5765, 1.5801, 1.5811,1.5801, 1.5822, 1.5794, 1.5815,1.5815,0.088601987215986
MultiSource/Benchmarks/TSVC/Equivalencing-flt/Equivalencing-flt, 1.5314, 1.5371, 1.5270,1.5314, 1.5341, 1.5327, 1.5321,1.5327,0.0848896434634927
MultiSource/Benchmarks/TSVC/GlobalDataFlow-flt/GlobalDataFlow-flt, 1.5624, 1.5613, 1.5496,1.5613, 1.5645, 1.5626, 1.5621,1.5626,0.08326394671107629
MultiSource/Benchmarks/TSVC/Expansion-dbl/Expansion-dbl, 1.8794, 1.8769, 1.8768,1.8769, 1.8796, 1.8773, 1.8784,1.8784,0.0799190153977225
MultiSource/Benchmarks/DOE-ProxyApps-C++/PENNANT/PENNANT, 3.6716, 3.6979, 3.6948,3.6948, 3.6995, 3.6977, 3.6976,3.6977,0.07848868680309096
MultiSource/Benchmarks/TSVC/LinearDependence-dbl/LinearDependence-dbl, 1.8916, 1.8910, 1.8922,1.8916, 1.8953, 1.8914, 1.8930,1.893,0.07401141890464036
MultiSource/Benchmarks/mafft/pairlocalalign, 7.8611, 7.8619, 7.8539,7.8611, 7.8668, 7.8553, 7.8709,7.8668,0.07250893640837752
SingleSource/Benchmarks/Shootout-C++/ary2, 0.1429, 0.1437, 0.1436,0.1436, 0.1437, 0.1432, 0.1437,0.1437,0.0696378830083555
SingleSource/Benchmarks/Shootout-C++/sieve, 0.1684, 0.1682, 0.1675,0.1682, 0.1684, 0.1683, 0.1683,0.1683,0.05945303210463937
MultiSource/Benchmarks/TSVC/IndirectAddressing-flt/IndirectAddressing-flt, 1.5220, 1.5185, 1.5233,1.522, 1.5228, 1.5215, 1.5231,1.5228,0.05256241787121585
SingleSource/Benchmarks/Misc-C++-EH/spirit, 3.3071, 3.3114, 3.3021,3.3071, 3.3057, 3.3087, 3.3098,3.3087,0.04838075655406726
MultiSource/Benchmarks/MiBench/automotive-bitcount/automotive-bitcount, 0.2387, 0.2383, 0.2383,0.2383, 0.2396, 0.2382, 0.2384,0.2384,0.04196391103650221
MultiSource/Benchmarks/sim/sim, 0.2552, 0.2555, 0.2549,0.2552, 0.2553, 0.2554, 0.2553,0.2553,0.03918495297807745
SingleSource/Benchmarks/Adobe-C++/simple_types_loop_invariant, 1.8280, 1.8330, 1.8315,1.8315, 1.8271, 1.8322, 1.8322,1.8322,0.03822003822004927
MultiSource/Benchmarks/TSVC/InductionVariable-dbl/InductionVariable-dbl, 1.8532, 1.8499, 1.8477,1.8499, 1.8534, 1.8485, 1.8506,1.8506,0.03783988323693421
MultiSource/Benchmarks/DOE-ProxyApps-C/Pathfinder/PathFinder, 0.7373, 0.7370, 0.7346,0.737, 0.7372, 0.7359, 0.7384,0.7372,0.027137042062408412
MultiSource/Benchmarks/TSVC/Searching-flt/Searching-flt, 1.4766, 1.4792, 1.4731,1.4766, 1.4770, 1.4751, 1.4786,1.477,0.027089259108770136
MultiSource/Benchmarks/TSVC/ControlFlow-flt/ControlFlow-flt, 1.6597, 1.6610, 1.6598,1.6598, 1.6601, 1.6658, 1.6591,1.6601,0.018074466803219558
MultiSource/Benchmarks/TSVC/Recurrences-dbl/Recurrences-dbl, 1.7953, 1.7951, 1.7933,1.7951, 1.7962, 1.7929, 1.7954,1.7954,0.016712160882415006
SingleSource/Benchmarks/Shootout/sieve, 0.0239, 0.0239, 0.0237,0.0239, 0.0239, 0.0238, 0.0239,0.0239,0.0
SingleSource/Benchmarks/Shootout-C++/heapsort, 0.1214, 0.1209, 0.1212,0.1212, 0.1211, 0.1212, 0.1213,0.1212,0.0
SingleSource/Benchmarks/Misc/flops-2, 0.0261, 0.0261, 0.0261,0.0261, 0.0263, 0.0261, 0.0261,0.0261,0.0
SingleSource/Benchmarks/McGill/misr, 0.0492, 0.0492, 0.0491,0.0492, 0.0493, 0.0492, 0.0492,0.0492,0.0
MultiSource/Benchmarks/llubenchmark/llu, 0.0433, 0.0434, 0.0431,0.0433, 0.0434, 0.0433, 0.0432,0.0433,0.0
MultiSource/Benchmarks/VersaBench/bmm/bmm, 0.0467, 0.0466, 0.0467,0.0467, 0.0467, 0.0466, 0.0467,0.0467,0.0
MultiSource/Benchmarks/Ptrdist/ft/ft, 0.1919, 0.1923, 0.1918,0.1919, 0.1920, 0.1907, 0.1919,0.1919,0.0
MultiSource/Benchmarks/Prolangs-C++/simul/simul, 0.0488, 0.0487, 0.0485,0.0487, 0.0489, 0.0487, 0.0487,0.0487,0.0
MultiSource/Benchmarks/Prolangs-C++/primes/primes, 0.0237, 0.0237, 0.0235,0.0237, 0.0238, 0.0235, 0.0237,0.0237,0.0
MultiSource/Benchmarks/Olden/bisort/bisort, 0.0596, 0.0595, 0.0598,0.0596, 0.0600, 0.0596, 0.0595,0.0596,0.0
MultiSource/Benchmarks/MiBench/network-dijkstra/network-dijkstra, 0.0389, 0.0388, 0.0388,0.0388, 0.0389, 0.0388, 0.0387,0.0388,0.0
MultiSource/Benchmarks/BitBench/uudecode/uudecode, 0.0402, 0.0403, 0.0401,0.0402, 0.0404, 0.0402, 0.0402,0.0402,0.0
MultiSource/Benchmarks/MallocBench/gs/gs, 3.4251, 3.4206, 3.4159,3.4206, 3.4254, 3.4155, 3.4196,3.4196,-0.029234637198150004
SingleSource/Benchmarks/Linpack/linpack-pc, 0.2764, 0.2764, 0.2762,0.2764, 0.2772, 0.2758, 0.2763,0.2763,-0.03617945007236001
MultiSource/Benchmarks/TSVC/Recurrences-flt/Recurrences-flt, 1.4811, 1.4870, 1.4864,1.4864, 1.4848, 1.4858, 1.4893,1.4858,-0.04036598493002419
MultiSource/Applications/ClamAV/clamscan,12.9937,12.9935,12.9860,12.9935,13.0056,12.9730,12.9881,12.9881,-0.041559241159039306
MultiSource/Benchmarks/Ptrdist/yacr2/yacr2, 0.5497, 0.5505, 0.5474,0.5497, 0.5493, 0.5471, 0.5491,0.5491,-0.10915044569763666
MultiSource/Benchmarks/Ptrdist/bc/bc, 0.9120, 0.9130, 0.9117,0.912, 0.9110, 0.9081, 0.9113,0.911,-0.10964912280702066
MultiSource/Applications/SPASS/SPASS,11.0359,11.0351,11.0168,11.0351,11.0263,11.0101,11.0222,11.0222,-0.11689971092242457
MultiSource/Applications/oggenc/oggenc, 4.4045, 4.3990, 4.4047,4.4045, 4.3966, 4.4046, 4.3983,4.3983,-0.1407651265750931
MultiSource/Benchmarks/tramp3d-v4/tramp3d-v4,18.5736,18.6171,18.5789,18.5789,18.5466,18.5049,18.5548,18.5466,-0.17385313446974804
MultiSource/Benchmarks/McCat/09-vor/vor, 0.2522, 0.2513, 0.2509,0.2513, 0.2508, 0.2521, 0.2503,0.2508,-0.19896538002387443
MultiSource/Benchmarks/TSVC/Packing-flt/Packing-flt, 1.4895, 1.4878, 1.4856,1.4878, 1.4873, 1.4840, 1.4847,1.4847,-0.20836133888963992
SingleSource/Benchmarks/Stanford/Treesort, 0.0358, 0.0357, 0.0358,0.0358, 0.0359, 0.0357, 0.0357,0.0357,-0.27932960893853886
MultiSource/Applications/kimwitu++/kc,10.0896,10.0878,10.0639,10.0878,10.0595,10.0475,10.0618,10.0595,-0.28053688613969285
MultiSource/Applications/d/make_dparser, 2.3351, 2.3364, 2.3303,2.3351, 2.3315, 2.3257, 2.3276,2.3276,-0.32118538820608
MultiSource/Applications/hbd/hbd, 1.0940, 1.0911, 1.0930,1.093, 1.0927, 1.0883, 1.0894,1.0894,-0.3293687099725551
MultiSource/Benchmarks/FreeBench/fourinarow/fourinarow, 0.3022, 0.3022, 0.3015,0.3022, 0.3013, 0.3004, 0.3010,0.301,-0.3970880211780381
SingleSource/Benchmarks/Shootout-C++/hash, 0.2452, 0.2464, 0.2458,0.2458, 0.2448, 0.2445, 0.2435,0.2445,-0.5288852725793269
MultiSource/Benchmarks/Olden/tsp/tsp, 0.1187, 0.1184, 0.1186,0.1186, 0.1184, 0.1178, 0.1179,0.1179,-0.5902192242832949
MultiSource/Benchmarks/DOE-ProxyApps-C++/miniFE/miniFE, 2.3407, 2.3497, 2.3478,2.3478, 2.3366, 2.3339, 2.3312,2.3339,-0.5920436152994313
SingleSource/Benchmarks/Shootout-C++/lists1, 0.1824, 0.1825, 0.1820,0.1824, 0.1814, 0.1813, 0.1813,0.1813,-0.6030701754386025
SingleSource/Benchmarks/Misc-C++/bigfib, 0.4043, 0.4041, 0.4034,0.4041, 0.4011, 0.4013, 0.4011,0.4011,-0.7423904974016349
MultiSource/Benchmarks/MiBench/consumer-typeset/consumer-typeset, 8.9003, 8.9041, 8.9033,8.9033, 8.8357, 8.8365, 8.8462,8.8365,-0.750283602709112
MultiSource/Applications/siod/siod, 1.7768, 1.7754, 1.7732,1.7754, 1.7613, 1.7616, 1.7647,1.7616,-0.7772896248732675
MultiSource/Benchmarks/DOE-ProxyApps-C++/CLAMR/CLAMR,16.4431,16.4327,16.3991,16.4327,16.2972,16.2908,16.2944,16.2944,-0.8416145855519863
SingleSource/Benchmarks/Shootout-C++/hash2, 0.2777, 0.2782, 0.2783,0.2782, 0.2756, 0.2754, 0.2753,0.2754,-1.006470165348683
SingleSource/Benchmarks/Shootout-C++/moments, 0.2237, 0.2239, 0.2244,0.2239, 0.2190, 0.2196, 0.2193,0.2193,-2.0544886109870486
SingleSource/Benchmarks/Misc-C++/stepanov_container, 0.6068, 0.6070, 0.6081,0.607, 0.5896, 0.5906, 0.5907,0.5906,-2.7018121911037807
SingleSource/Benchmarks/Adobe-C++/functionobjects, 0.4130, 0.4143, 0.4124,0.413, 0.3994, 0.3996, 0.3993,0.3994,-3.2929782082324444
SingleSource/Benchmarks/Adobe-C++/stepanov_abstraction, 0.5537, 0.5544, 0.5529,0.5537, 0.4945, 0.4950, 0.4925,0.4945,-10.691710312443558
Total elapsed time,-,-,-,333.8871000000001,-,-,-,334.26819999999987,0.1141403785889894
Total failure,-,-,-,0,-,-,-,0,
Geom. avg slowdown,,,,,,,,,0.309055509594%
