Benchmarks,base-4.0,base-4.0,base-4.0,base-4.0,base-4.0,median,nogvn,nogvn,nogvn,nogvn,nogvn,median,Slowdown(%)
MultiSource/Benchmarks/McCat/08-main/main, 0.3828, 0.3841, 0.3838, 0.3855, 0.3841,0.3841, 0.3883, 0.4060, 0.3876, 0.3874, 0.3850,0.3876,0.9112210361885031
SingleSource/Benchmarks/Misc-C++/Large/ray, 0.3888, 0.3930, 0.3831, 0.3863, 0.3806,0.3863, 0.3928, 0.3963, 0.3898, 0.3745, 0.3756,0.3898,0.9060315816722841
MultiSource/Applications/JM/ldecod/ldecod, 9.8596, 9.8749, 9.8693, 9.8729, 9.8686,9.8693, 9.9540, 9.9454, 9.9545, 9.9529, 9.9498,9.9529,0.8470712208565878
MultiSource/Applications/minisat/minisat, 0.9805, 0.9847, 0.9717, 0.9861, 0.9823,0.9823, 0.9869, 0.9913, 0.9904, 0.9917, 0.9904,0.9904,0.8245953374732773
SingleSource/Benchmarks/Shootout-C++/lists1, 0.3474, 0.3498, 0.3477, 0.3499, 0.3476,0.3477, 0.3502, 0.3501, 0.3513, 0.3502, 0.3497,0.3502,0.719010641357487
MultiSource/Benchmarks/Prolangs-C/agrep/agrep, 2.1736, 2.1749, 2.1745, 2.1796, 2.1738,2.1745, 2.1899, 2.1916, 2.1898, 2.1880, 2.1859,2.1898,0.7036100252931554
MultiSource/Benchmarks/mafft/pairlocalalign,15.1631,15.2037,15.1886,15.1981,15.1942,15.1942,15.2996,15.2926,15.3068,15.3007,15.2910,15.2996,0.6936857485092984
MultiSource/Benchmarks/MiBench/consumer-typeset/consumer-typeset,16.5021,16.5031,16.5224,16.5169,16.4828,16.5031,16.6175,16.6200,16.6082,16.6170,16.6058,16.617,0.6901733613684735
MultiSource/Applications/spiff/spiff, 1.2140, 1.2148, 1.2151, 1.2160, 1.2140,1.2148, 1.2258, 1.2229, 1.2228, 1.2224, 1.2211,1.2228,0.6585446163977604
MultiSource/Applications/SPASS/SPASS,19.6240,19.6306,19.6387,19.6645,19.6158,19.6306,19.7731,19.7415,19.7587,19.7643,19.7276,19.7587,0.6525526473974308
MultiSource/Benchmarks/7zip/7zip-benchmark,55.9079,56.0974,55.9690,56.0770,55.9303,55.969,56.3906,56.3310,56.3381,56.3189,56.2537,56.331,0.6467866140184686
MultiSource/Applications/hbd/hbd, 2.0054, 2.0110, 2.0075, 2.0109, 2.0084,2.0084, 2.0214, 2.0212, 2.0192, 2.0230, 2.0171,2.0212,0.637323242381993
MultiSource/Applications/d/make_dparser, 4.1616, 4.1614, 4.1623, 4.1639, 4.1589,4.1616, 4.1879, 4.1839, 4.1880, 4.1910, 4.1880,4.188,0.6343713956170616
MultiSource/Benchmarks/MallocBench/espresso/espresso, 7.8122, 7.8249, 7.8224, 7.8352, 7.8174,7.8224, 7.8846, 7.8773, 7.8706, 7.8714, 7.8578,7.8714,0.6264062180405094
MultiSource/Benchmarks/Bullet/bullet,38.2201,38.2952,38.2550,38.3038,38.2512,38.255,38.5007,38.4576,38.4816,38.4732,38.4309,38.4732,0.5703829564762675
MultiSource/Benchmarks/Olden/mst/mst, 0.2110, 0.2112, 0.2109, 0.2114, 0.2120,0.2112, 0.2128, 0.2125, 0.2119, 0.2124, 0.2121,0.2124,0.5681818181818121
MultiSource/Applications/SIBsim4/SIBsim4, 2.0294, 2.0155, 2.0296, 2.0154, 2.0155,2.0155, 2.0428, 2.0240, 2.0251, 2.0264, 2.0275,2.0264,0.5408087323244937
SingleSource/Benchmarks/Misc-C++/stepanov_container, 1.1098, 1.1304, 1.1122, 1.1160, 1.1351,1.116, 1.1295, 1.1322, 1.1044, 1.1220, 1.0853,1.122,0.5376344086021501
MultiSource/Applications/ClamAV/clamscan,20.4125,20.4146,20.4217,20.4291,20.4144,20.4146,20.5709,20.5307,20.5103,20.5222,20.5219,20.5222,0.5270737609358145
MultiSource/Applications/kimwitu++/kc,17.9035,17.9589,17.9344,17.9429,17.9196,17.9344,18.0218,18.1519,18.0234,18.0257,17.9957,18.0234,0.4962530109733132
MultiSource/Benchmarks/VersaBench/dbms/dbms, 1.5660, 1.5623, 1.5617, 1.5690, 1.5610,1.5623, 1.5706, 1.5719, 1.5663, 1.5700, 1.5621,1.57,0.4928630864750705
MultiSource/Applications/sqlite3/sqlite3,20.2253,20.1333,20.2137,20.2042,20.0727,20.2042,20.3003,20.3056,20.2984,20.3033,20.3158,20.3033,0.49049207590501354
MultiSource/Benchmarks/Prolangs-C++/employ/employ, 0.3476, 0.3476, 0.3469, 0.3487, 0.3477,0.3476, 0.3493, 0.3484, 0.3496, 0.3500, 0.3492,0.3493,0.4890678941311899
MultiSource/Benchmarks/MallocBench/gs/gs, 5.8455, 5.8474, 5.8477, 5.8623, 5.8449,5.8474, 5.8761, 5.8825, 5.8735, 5.8754, 5.8662,5.8754,0.4788452987652514
SingleSource/Benchmarks/Adobe-C++/functionobjects, 0.7247, 0.7251, 0.7256, 0.7260, 0.7251,0.7251, 0.7277, 0.7282, 0.7289, 0.7285, 0.7289,0.7285,0.4689008412632756
SingleSource/Benchmarks/Misc-C++-EH/spirit, 5.3877, 5.3969, 5.3849, 5.3930, 5.3962,5.393, 5.4035, 5.4187, 5.4122, 5.4177, 5.4166,5.4166,0.4376043018728071
MultiSource/Applications/lambda-0.1.3/lambda, 0.8315, 0.8308, 0.8314, 0.8318, 0.8293,0.8314, 0.8345, 0.8341, 0.8344, 0.8355, 0.8360,0.8345,0.3728650469088324
MultiSource/Benchmarks/MallocBench/cfrac/cfrac, 1.3765, 1.3733, 1.3731, 1.3775, 1.3749,1.3749, 1.3793, 1.3794, 1.3824, 1.3800, 1.3782,1.3794,0.3272965306567732
SingleSource/Benchmarks/Adobe-C++/stepanov_abstraction, 0.9689, 0.9703, 0.9685, 0.9692, 0.9691,0.9691, 0.9721, 0.9719, 0.9743, 0.9718, 0.9721,0.9721,0.30956557630792414
MultiSource/Benchmarks/Ptrdist/ks/ks, 0.2262, 0.2262, 0.2263, 0.2264, 0.2253,0.2262, 0.2269, 0.2272, 0.2270, 0.2267, 0.2268,0.2269,0.30946065428822944
MultiSource/Benchmarks/tramp3d-v4/tramp3d-v4,29.6285,29.6014,29.6188,29.6040,29.5881,29.604,29.6392,29.7093,29.6979,29.6781,29.6923,29.6923,0.29827050398594235
MultiSource/Benchmarks/McCat/09-vor/vor, 0.4382, 0.4403, 0.4391, 0.4394, 0.4390,0.4391, 0.4410, 0.4284, 0.4406, 0.4399, 0.4398,0.4399,0.18219084491004622
MultiSource/Benchmarks/Olden/tsp/tsp, 0.1972, 0.1971, 0.1973, 0.1979, 0.1969,0.1972, 0.1971, 0.1981, 0.1971, 0.1973, 0.1966,0.1971,-0.050709939148063654
SingleSource/Benchmarks/Shootout-C++/moments, 0.5153, 0.5219, 0.5226, 0.5157, 0.5108,0.5157, 0.5104, 0.5152, 0.5345, 0.5150, 0.5098,0.515,-0.135737832072913
SingleSource/Benchmarks/Adobe-C++/stepanov_vector, 1.2655, 1.2667, 1.2662, 1.2668, 1.2667,1.2667, 1.2636, 1.2632, 1.2649, 1.2632, 1.2635,1.2635,-0.2526249309228623
MultiSource/Applications/siod/siod, 2.9925, 2.9877, 2.9831, 2.9902, 2.9848,2.9877, 2.9684, 2.9496, 2.9881, 2.9869, 2.9682,2.9684,-0.645981858955047
Total elapsed time,-,-,-,-,-,564.1726000000006,-,-,-,-,-,567.2295000000001,0.5418377283830544
Total failure,-,-,-,-,-,0,-,-,-,-,-,0,
