Benchmarks,base-4.0,base-4.0,base-4.0,base-4.0,base-4.0,median,nogvn,nogvn,nogvn,nogvn,nogvn,median,Slowdown(%)
MultiSource/Benchmarks/MiBench/telecomm-CRC32/telecomm-CRC32, 0.0346, 0.0346, 0.0345, 0.0345, 0.0349,0.0346, 0.0350, 0.0347, 0.0348, 0.0351, 0.0351,0.035,1.1560693641618602
SingleSource/Benchmarks/Misc-C++-EH/spirit, 3.1147, 3.1208, 3.1121, 3.1241, 3.1136,3.1147, 3.1408, 3.1678, 3.1275, 3.1157, 3.1414,3.1408,0.837961922496544
SingleSource/Benchmarks/Shootout-C++/hash, 0.2568, 0.2570, 0.2578, 0.2579, 0.2570,0.257, 0.2589, 0.2580, 0.2585, 0.2588, 0.2591,0.2588,0.7003891050583633
SingleSource/Benchmarks/Shootout-C++/ary2, 0.1619, 0.1614, 0.1619, 0.1616, 0.1614,0.1616, 0.1627, 0.1629, 0.1624, 0.1631, 0.1617,0.1627,0.6806930693069368
SingleSource/Benchmarks/Misc/mandel, 0.0367, 0.0366, 0.0366, 0.0366, 0.0366,0.0366, 0.0368, 0.0371, 0.0366, 0.0369, 0.0368,0.0368,0.5464480874316946
SingleSource/Benchmarks/Shootout-C++/lists, 0.1573, 0.1581, 0.1575, 0.1585, 0.1575,0.1575, 0.1573, 0.1580, 0.1583, 0.1583, 0.1583,0.1583,0.5079365079365017
SingleSource/Benchmarks/Shootout/heapsort, 0.0404, 0.0406, 0.0403, 0.0404, 0.0405,0.0404, 0.0404, 0.0406, 0.0406, 0.0408, 0.0406,0.0406,0.4950495049504955
MultiSource/Benchmarks/TSVC/Recurrences-flt/Recurrences-flt, 2.2665, 2.2590, 2.2632, 2.2713, 2.2624,2.2632, 2.2756, 2.2671, 2.2742, 2.2756, 2.2701,2.2742,0.48603746907034395
SingleSource/Benchmarks/Shootout-C++/random, 0.1238, 0.1236, 0.1235, 0.1249, 0.1247,0.1238, 0.1236, 0.1239, 0.1244, 0.1244, 0.1244,0.1244,0.4846526655896577
MultiSource/Benchmarks/nbench/nbench, 1.1713, 1.1743, 1.1722, 1.1832, 1.1702,1.1722, 1.1750, 1.1776, 1.1771, 1.1792, 1.1812,1.1776,0.4606722402320518
SingleSource/Benchmarks/BenchmarkGame/Large/fasta, 0.0436, 0.0436, 0.0435, 0.0437, 0.0436,0.0436, 0.0436, 0.0438, 0.0436, 0.0438, 0.0438,0.0438,0.4587155963302614
SingleSource/Benchmarks/Shootout-C++/ackermann, 0.1161, 0.1153, 0.1157, 0.1154, 0.1157,0.1157, 0.1164, 0.1162, 0.1161, 0.1163, 0.1162,0.1162,0.4321521175453702
MultiSource/Benchmarks/FreeBench/neural/neural, 0.1772, 0.1763, 0.1761, 0.1765, 0.1774,0.1765, 0.1772, 0.1767, 0.1774, 0.1770, 0.1772,0.1772,0.3966005665722472
SingleSource/Benchmarks/Polybench/linear-algebra/kernels/doitgen/doitgen, 0.1065, 0.1061, 0.1060, 0.1063, 0.1062,0.1062, 0.1065, 0.1066, 0.1065, 0.1067, 0.1068,0.1066,0.37664783427495685
SingleSource/Benchmarks/BenchmarkGame/puzzle, 0.0573, 0.0569, 0.0567, 0.0568, 0.0570,0.0569, 0.0568, 0.0571, 0.0569, 0.0571, 0.0572,0.0571,0.35149384885764245
MultiSource/Benchmarks/Ptrdist/anagram/anagram, 0.0856, 0.0860, 0.0858, 0.0856, 0.0861,0.0858, 0.0856, 0.0861, 0.0859, 0.0862, 0.0861,0.0861,0.34965034965035446
MultiSource/Benchmarks/TSVC/Equivalencing-dbl/Equivalencing-dbl, 2.0870, 2.0776, 2.0772, 2.0768, 2.0805,2.0776, 2.0881, 2.0848, 2.0832, 2.0884, 2.0819,2.0848,0.34655371582594796
SingleSource/Benchmarks/Polybench/medley/reg_detect/reg_detect, 0.4053, 0.4036, 0.4041, 0.4045, 0.4045,0.4045, 0.4066, 0.4066, 0.4052, 0.4059, 0.4055,0.4059,0.3461063040790968
SingleSource/Benchmarks/Misc/matmul_f64_4x4, 0.0306, 0.0306, 0.0307, 0.0308, 0.0306,0.0306, 0.0306, 0.0307, 0.0306, 0.0307, 0.0308,0.0307,0.32679738562091387
MultiSource/Benchmarks/TSVC/Searching-flt/Searching-flt, 2.2537, 2.2471, 2.2513, 2.2487, 2.2495,2.2495, 2.2533, 2.2584, 2.2551, 2.2585, 2.2566,2.2566,0.31562569459882006
SingleSource/Benchmarks/Misc/fp-convert, 0.0326, 0.0326, 0.0326, 0.0326, 0.0327,0.0326, 0.0327, 0.0327, 0.0328, 0.0329, 0.0327,0.0327,0.30674846625766694
SingleSource/Benchmarks/BenchmarkGame/nsieve-bits, 0.0330, 0.0330, 0.0331, 0.0332, 0.0331,0.0331, 0.0330, 0.0332, 0.0333, 0.0332, 0.0332,0.0332,0.30211480362538623
MultiSource/Applications/siod/siod, 1.8151, 1.8161, 1.8159, 1.8213, 1.8233,1.8161, 1.8166, 1.8255, 1.8178, 1.8215, 1.8260,1.8215,0.2973404548207714
SingleSource/Benchmarks/Stanford/Bubblesort, 0.0360, 0.0360, 0.0359, 0.0361, 0.0359,0.036, 0.0362, 0.0360, 0.0359, 0.0361, 0.0361,0.0361,0.2777777777777768
SingleSource/Benchmarks/Polybench/linear-algebra/kernels/gemver/gemver, 0.1082, 0.1079, 0.1080, 0.1080, 0.1082,0.108, 0.1086, 0.1084, 0.1079, 0.1083, 0.1082,0.1083,0.2777777777777768
MultiSource/Benchmarks/TSVC/ControlFlow-flt/ControlFlow-flt, 2.4923, 2.4841, 2.4934, 2.4842, 2.4601,2.4842, 2.4837, 2.4910, 2.5045, 2.5004, 2.4872,2.491,0.2737299734320908
MultiSource/Benchmarks/Olden/perimeter/perimeter, 0.0771, 0.0772, 0.0771, 0.0773, 0.0770,0.0771, 0.0773, 0.0771, 0.0774, 0.0773, 0.0769,0.0773,0.25940337224383825
MultiSource/Benchmarks/Trimaran/enc-md5/enc-md5, 0.1629, 0.1630, 0.1634, 0.1629, 0.1626,0.1629, 0.1631, 0.1634, 0.1633, 0.1635, 0.1632,0.1633,0.24554941682013443
MultiSource/Benchmarks/BitBench/drop3/drop3, 0.0422, 0.0424, 0.0422, 0.0422, 0.0426,0.0422, 0.0421, 0.0424, 0.0423, 0.0423, 0.0423,0.0423,0.23696682464453556
MultiSource/Benchmarks/MiBench/network-dijkstra/network-dijkstra, 0.0432, 0.0431, 0.0430, 0.0433, 0.0431,0.0431, 0.0432, 0.0432, 0.0432, 0.0431, 0.0433,0.0432,0.23201856148491462
MultiSource/Benchmarks/TSVC/ControlLoops-flt/ControlLoops-flt, 2.3838, 2.3759, 2.3813, 2.3750, 2.3875,2.3813, 2.3866, 2.3853, 2.3747, 2.3923, 2.3880,2.3866,0.2225675051442444
SingleSource/Benchmarks/Misc/himenobmtxpa, 0.2365, 0.2358, 0.2363, 0.2362, 0.2369,0.2363, 0.2362, 0.2364, 0.2368, 0.2370, 0.2369,0.2368,0.21159542953872457
MultiSource/Benchmarks/TSVC/IndirectAddressing-flt/IndirectAddressing-flt, 2.3107, 2.3062, 2.2845, 2.3052, 2.3076,2.3062, 2.3070, 2.3077, 2.3109, 2.3203, 2.3201,2.3109,0.20379845633511362
SingleSource/Benchmarks/Shootout/hash, 0.0497, 0.0498, 0.0498, 0.0499, 0.0500,0.0498, 0.0502, 0.0499, 0.0499, 0.0500, 0.0499,0.0499,0.20080321285140812
MultiSource/Benchmarks/Prolangs-C++/simul/simul, 0.0502, 0.0503, 0.0499, 0.0504, 0.0507,0.0503, 0.0503, 0.0506, 0.0500, 0.0504, 0.0506,0.0504,0.19880715705766772
SingleSource/Benchmarks/BenchmarkGame/fannkuch, 0.0514, 0.0513, 0.0513, 0.0516, 0.0514,0.0514, 0.0515, 0.0514, 0.0514, 0.0515, 0.0515,0.0515,0.1945525291828787
MultiSource/Applications/sgefa/sgefa, 0.4281, 0.4265, 0.4266, 0.4266, 0.4276,0.4266, 0.4270, 0.4274, 0.4263, 0.4282, 0.4275,0.4274,0.18752930145335966
MultiSource/Benchmarks/BitBench/five11/five11, 0.0558, 0.0559, 0.0556, 0.0558, 0.0559,0.0558, 0.0556, 0.0559, 0.0561, 0.0560, 0.0559,0.0559,0.17921146953403522
SingleSource/Benchmarks/Shootout-C++/fibo, 0.1144, 0.1141, 0.1144, 0.1142, 0.1139,0.1142, 0.1144, 0.1142, 0.1149, 0.1150, 0.1144,0.1144,0.17513134851139256
MultiSource/Benchmarks/TSVC/StatementReordering-dbl/StatementReordering-dbl, 2.0181, 2.0191, 2.0163, 2.0153, 2.0169,2.0169, 2.0313, 2.0204, 2.0199, 2.0231, 2.0204,2.0204,0.17353364073577904
SingleSource/Benchmarks/BenchmarkGame/spectral-norm, 0.0581, 0.0579, 0.0583, 0.0580, 0.0579,0.058, 0.0579, 0.0580, 0.0581, 0.0582, 0.0581,0.0581,0.17241379310344307
SingleSource/Benchmarks/Shootout-C++/methcall, 0.1226, 0.1228, 0.1230, 0.1228, 0.1228,0.1228, 0.1231, 0.1228, 0.1229, 0.1230, 0.1241,0.123,0.16286644951140072
MultiSource/Benchmarks/MiBench/consumer-lame/consumer-lame, 3.8760, 3.8701, 3.8703, 3.8688, 3.8736,3.8703, 3.8642, 3.8764, 3.8732, 3.8803, 3.8869,3.8764,0.1576105211482215
SingleSource/Benchmarks/BenchmarkGame/n-body, 0.0663, 0.0662, 0.0664, 0.0660, 0.0666,0.0663, 0.0662, 0.0664, 0.0664, 0.0664, 0.0667,0.0664,0.15082956259426794
MultiSource/Benchmarks/Olden/health/health, 0.1327, 0.1324, 0.1326, 0.1327, 0.1329,0.1327, 0.1329, 0.1329, 0.1330, 0.1328, 0.1329,0.1329,0.15071590052748718
MultiSource/Benchmarks/TSVC/Searching-dbl/Searching-dbl, 2.0031, 2.0027, 2.0133, 2.0039, 2.0004,2.0031, 1.9992, 2.0100, 2.0061, 2.0080, 2.0048,2.0061,0.1497678598172847
MultiSource/Benchmarks/McCat/17-bintr/bintr, 0.0687, 0.0689, 0.0689, 0.0688, 0.0692,0.0689, 0.0691, 0.0689, 0.0689, 0.0691, 0.0690,0.069,0.14513788098693414
MultiSource/Benchmarks/Trimaran/netbench-url/netbench-url, 0.2078, 0.2071, 0.2068, 0.2073, 0.2079,0.2073, 0.2075, 0.2076, 0.2074, 0.2081, 0.2080,0.2076,0.14471780028944004
SingleSource/Benchmarks/Polybench/linear-algebra/kernels/trisolv/trisolv, 0.0698, 0.0701, 0.0697, 0.0699, 0.0699,0.0699, 0.0699, 0.0701, 0.0700, 0.0701, 0.0698,0.07,0.14306151645206988
MultiSource/Benchmarks/sim/sim, 0.2936, 0.2935, 0.2929, 0.2939, 0.2937,0.2936, 0.2942, 0.2933, 0.2935, 0.2944, 0.2940,0.294,0.13623978201633413
SingleSource/Benchmarks/Adobe-C++/loop_unroll, 4.7132, 4.6956, 4.6993, 4.6993, 4.7066,4.6993, 4.6920, 4.6974, 4.7057, 4.7119, 4.7280,4.7057,0.13619049645692272
SingleSource/Benchmarks/Misc/flops, 0.0757, 0.0757, 0.0760, 0.0756, 0.0757,0.0757, 0.0755, 0.0758, 0.0758, 0.0757, 0.0762,0.0758,0.13210039630118242
SingleSource/Benchmarks/Shootout/matrix, 0.0760, 0.0758, 0.0758, 0.0758, 0.0763,0.0758, 0.0759, 0.0759, 0.0758, 0.0760, 0.0762,0.0759,0.13192612137202797
MultiSource/Benchmarks/Bullet/bullet,22.2980,22.2940,22.2814,22.3246,22.3073,22.298,22.3083,22.3142,22.3240,22.3666,22.3445,22.324,0.11660238586421734
SingleSource/Benchmarks/Polybench/medley/floyd-warshall/floyd-warshall, 0.0864, 0.0861, 0.0860, 0.0861, 0.0862,0.0861, 0.0860, 0.0863, 0.0859, 0.0862, 0.0863,0.0862,0.11614401858304202
SingleSource/Benchmarks/Polybench/linear-algebra/kernels/symm/symm, 0.0867, 0.0864, 0.0866, 0.0865, 0.0868,0.0866, 0.0864, 0.0867, 0.0866, 0.0867, 0.0874,0.0867,0.11547344110853786
SingleSource/Benchmarks/Adobe-C++/functionobjects, 0.4399, 0.4380, 0.4374, 0.4390, 0.4383,0.4383, 0.4387, 0.4380, 0.4390, 0.4399, 0.4388,0.4388,0.11407711613049543
SingleSource/Benchmarks/Shootout-C++/sieve, 0.1793, 0.1790, 0.1790, 0.1788, 0.1792,0.179, 0.1796, 0.1792, 0.1795, 0.1789, 0.1791,0.1792,0.11173184357542443
SingleSource/Benchmarks/Polybench/linear-algebra/kernels/atax/atax, 0.0899, 0.0896, 0.0896, 0.0896, 0.0897,0.0896, 0.0894, 0.0897, 0.0896, 0.0903, 0.0898,0.0897,0.11160714285713969
MultiSource/Benchmarks/McCat/03-testtrie/testtrie, 0.0903, 0.0907, 0.0904, 0.0905, 0.0904,0.0904, 0.0904, 0.0905, 0.0904, 0.0907, 0.0908,0.0905,0.11061946902655162
MultiSource/Benchmarks/TSVC/Expansion-dbl/Expansion-dbl, 2.1353, 2.1301, 2.1369, 2.1386, 2.1346,2.1353, 2.1331, 2.1396, 2.1348, 2.1375, 2.1440,2.1375,0.10303001920106691
MultiSource/Applications/JM/ldecod/ldecod, 6.0374, 6.0251, 6.0243, 6.0228, 6.0420,6.0251, 6.0281, 6.0226, 6.0312, 6.0398, 6.0309,6.0309,0.09626396242385926
MultiSource/Applications/kimwitu++/kc,10.2129,10.2011,10.2071,10.2807,10.2230,10.2129,10.1917,10.2206,10.2256,10.2227,10.2410,10.2227,0.09595707389673525
MultiSource/Benchmarks/TSVC/Recurrences-dbl/Recurrences-dbl, 2.0274, 2.0193, 2.0261, 2.0214, 2.0213,2.0214, 2.0231, 2.0201, 2.0233, 2.0246, 2.0243,2.0233,0.09399426140299649
MultiSource/Benchmarks/mafft/pairlocalalign, 9.4609, 9.4349, 9.4520, 9.4323, 9.4438,9.4438, 9.4353, 9.4519, 9.4368, 9.4621, 9.4697,9.4519,0.08577055846163972
MultiSource/Benchmarks/TSVC/Reductions-flt/Reductions-flt, 2.4004, 2.3823, 2.3852, 2.3842, 2.3796,2.3842, 2.3763, 2.3862, 2.3851, 2.3936, 2.3892,2.3862,0.08388558006879876
MultiSource/Benchmarks/TSVC/ControlLoops-dbl/ControlLoops-dbl, 2.1391, 2.1301, 2.1356, 2.1323, 2.1442,2.1356, 2.1373, 2.1320, 2.1389, 2.1367, 2.1464,2.1373,0.07960292189548301
SingleSource/Benchmarks/Shootout-C++/EH/except, 0.1267, 0.1280, 0.1270, 0.1273, 0.1268,0.127, 0.1270, 0.1271, 0.1271, 0.1271, 0.1276,0.1271,0.07874015748030594
SingleSource/Benchmarks/Shootout-C++/objinst, 0.1275, 0.1276, 0.1281, 0.1285, 0.1280,0.128, 0.1283, 0.1281, 0.1280, 0.1275, 0.1287,0.1281,0.07812499999999556
MultiSource/Benchmarks/Olden/mst/mst, 0.1319, 0.1319, 0.1320, 0.1323, 0.1320,0.132, 0.1316, 0.1322, 0.1318, 0.1321, 0.1322,0.1321,0.07575757575757347
MultiSource/Benchmarks/tramp3d-v4/tramp3d-v4,18.1247,18.0907,18.0935,18.0895,18.0870,18.0907,18.0616,18.1028,18.0718,18.1122,18.1196,18.1028,0.06688519515551938
MultiSource/Applications/ClamAV/clamscan,12.5339,12.5325,12.5403,12.5528,12.5355,12.5355,12.5146,12.5315,12.5452,12.5590,12.5427,12.5427,0.057436879262895424
SingleSource/Benchmarks/Misc/ReedSolomon, 0.2013, 0.2005, 0.2005, 0.2008, 0.2016,0.2008, 0.2004, 0.2013, 0.2008, 0.2009, 0.2010,0.2009,0.04980079681273786
MultiSource/Benchmarks/Prolangs-C/agrep/agrep, 1.3389, 1.3370, 1.3367, 1.3517, 1.3392,1.3389, 1.3365, 1.3395, 1.3368, 1.3399, 1.3411,1.3395,0.04481290611695332
MultiSource/Benchmarks/DOE-ProxyApps-C/XSBench/XSBench, 0.3296, 0.3300, 0.3299, 0.3303, 0.3301,0.33, 0.3297, 0.3309, 0.3297, 0.3301, 0.3306,0.3301,0.030303030303024947
MultiSource/Applications/lua/lua, 3.1102, 3.1062, 3.1053, 3.1062, 3.1153,3.1062, 3.0991, 3.1069, 3.1050, 3.1117, 3.1173,3.1069,0.02253557401326045
MultiSource/Applications/lambda-0.1.3/lambda, 0.5094, 0.5098, 0.5096, 0.5103, 0.5095,0.5096, 0.5082, 0.5097, 0.5114, 0.5087, 0.5097,0.5097,0.01962323390893861
MultiSource/Benchmarks/7zip/7zip-benchmark,33.2466,33.2100,33.1868,33.1975,33.2261,33.21,33.1614,33.2164,33.1956,33.2245,33.2581,33.2164,0.019271303824153208
MultiSource/Applications/ALAC/decode/alacconvert-decode, 1.0088, 1.0061, 1.0067, 1.0071, 1.0087,1.0071, 1.0046, 1.0065, 1.0072, 1.0089, 1.0079,1.0072,0.009929500546124181
MultiSource/Benchmarks/TSVC/Symbolics-flt/Symbolics-flt, 2.3283, 2.3248, 2.3251, 2.3280, 2.3275,2.3275, 2.3432, 2.3240, 2.3270, 2.3290, 2.3276,2.3276,0.004296455424257495
SingleSource/Regression/C/2004-08-12-InlinerAndAllocas, 0.0200, 0.0201, 0.0202, 0.0201, 0.0201,0.0201, 0.0200, 0.0201, 0.0201, 0.0200, 0.0201,0.0201,0.0
SingleSource/Benchmarks/Stanford/Treesort, 0.0379, 0.0378, 0.0380, 0.0380, 0.0378,0.0379, 0.0380, 0.0380, 0.0378, 0.0379, 0.0378,0.0379,0.0
SingleSource/Benchmarks/Stanford/Towers, 0.0413, 0.0414, 0.0413, 0.0414, 0.0416,0.0414, 0.0415, 0.0413, 0.0414, 0.0415, 0.0414,0.0414,0.0
SingleSource/Benchmarks/Stanford/RealMM, 0.0440, 0.0440, 0.0439, 0.0439, 0.0438,0.0439, 0.0439, 0.0438, 0.0439, 0.0439, 0.0439,0.0439,0.0
SingleSource/Benchmarks/Stanford/Quicksort, 0.0373, 0.0375, 0.0375, 0.0374, 0.0376,0.0375, 0.0375, 0.0375, 0.0376, 0.0375, 0.0374,0.0375,0.0
SingleSource/Benchmarks/Stanford/Queens, 0.0470, 0.0469, 0.0472, 0.0471, 0.0471,0.0471, 0.0470, 0.0469, 0.0471, 0.0471, 0.0471,0.0471,0.0
SingleSource/Benchmarks/Stanford/Perm, 0.0308, 0.0309, 0.0309, 0.0309, 0.0310,0.0309, 0.0308, 0.0309, 0.0310, 0.0310, 0.0309,0.0309,0.0
SingleSource/Benchmarks/Stanford/FloatMM, 0.0444, 0.0443, 0.0446, 0.0446, 0.0445,0.0445, 0.0444, 0.0444, 0.0445, 0.0445, 0.0445,0.0445,0.0
SingleSource/Benchmarks/SmallPT/smallpt, 0.0954, 0.0954, 0.0955, 0.0957, 0.0956,0.0955, 0.0956, 0.0954, 0.0955, 0.0956, 0.0954,0.0955,0.0
SingleSource/Benchmarks/Shootout/sieve, 0.0260, 0.0261, 0.0261, 0.0261, 0.0261,0.0261, 0.0260, 0.0261, 0.0261, 0.0261, 0.0261,0.0261,0.0
SingleSource/Benchmarks/Shootout/random, 0.0300, 0.0301, 0.0300, 0.0301, 0.0301,0.0301, 0.0299, 0.0304, 0.0300, 0.0301, 0.0303,0.0301,0.0
SingleSource/Benchmarks/Shootout/objinst, 0.0362, 0.0363, 0.0363, 0.0363, 0.0363,0.0363, 0.0363, 0.0362, 0.0362, 0.0363, 0.0363,0.0363,0.0
SingleSource/Benchmarks/Shootout/nestedloop, 0.0246, 0.0248, 0.0246, 0.0247, 0.0245,0.0246, 0.0246, 0.0247, 0.0246, 0.0246, 0.0246,0.0246,0.0
SingleSource/Benchmarks/Shootout/methcall, 0.0313, 0.0314, 0.0313, 0.0314, 0.0314,0.0314, 0.0314, 0.0314, 0.0314, 0.0314, 0.0315,0.0314,0.0
SingleSource/Benchmarks/Shootout/lists, 0.0737, 0.0733, 0.0734, 0.0736, 0.0734,0.0734, 0.0732, 0.0731, 0.0736, 0.0734, 0.0735,0.0734,0.0
SingleSource/Benchmarks/Shootout/fib2, 0.0204, 0.0205, 0.0205, 0.0205, 0.0205,0.0205, 0.0204, 0.0205, 0.0205, 0.0205, 0.0205,0.0205,0.0
SingleSource/Benchmarks/Shootout/ary3, 0.0351, 0.0350, 0.0350, 0.0351, 0.0351,0.0351, 0.0351, 0.0353, 0.0351, 0.0352, 0.0350,0.0351,0.0
SingleSource/Benchmarks/Shootout/ackermann, 0.0237, 0.0237, 0.0236, 0.0236, 0.0238,0.0237, 0.0239, 0.0237, 0.0237, 0.0236, 0.0238,0.0237,0.0
SingleSource/Benchmarks/Shootout-C++/ary3, 0.1594, 0.1591, 0.1585, 0.1588, 0.1593,0.1591, 0.1586, 0.1591, 0.1591, 0.1595, 0.1589,0.1591,0.0
SingleSource/Benchmarks/Shootout-C++/ary, 0.1550, 0.1547, 0.1551, 0.1548, 0.1546,0.1548, 0.1552, 0.1547, 0.1547, 0.1548, 0.1554,0.1548,0.0
SingleSource/Benchmarks/Polybench/stencils/seidel-2d/seidel-2d, 0.0777, 0.0774, 0.0773, 0.0778, 0.0774,0.0774, 0.0771, 0.0775, 0.0774, 0.0773, 0.0777,0.0774,0.0
SingleSource/Benchmarks/Polybench/stencils/jacobi-1d-imper/jacobi-1d-imper, 0.0919, 0.0920, 0.0916, 0.0917, 0.0918,0.0918, 0.0915, 0.0919, 0.0917, 0.0918, 0.0920,0.0918,0.0
SingleSource/Benchmarks/Polybench/stencils/adi/adi, 0.1049, 0.1047, 0.1051, 0.1047, 0.1051,0.1049, 0.1049, 0.1049, 0.1048, 0.1049, 0.1050,0.1049,0.0
SingleSource/Benchmarks/Polybench/linear-algebra/solvers/gramschmidt/gramschmidt, 0.1290, 0.1280, 0.1287, 0.1283, 0.1285,0.1285, 0.1284, 0.1286, 0.1283, 0.1285, 0.1290,0.1285,0.0
SingleSource/Benchmarks/Polybench/linear-algebra/kernels/mvt/mvt, 0.0906, 0.0905, 0.0907, 0.0905, 0.0909,0.0906, 0.0908, 0.0904, 0.0906, 0.0907, 0.0906,0.0906,0.0
SingleSource/Benchmarks/Polybench/datamining/covariance/covariance, 0.1011, 0.1007, 0.1009, 0.1009, 0.1011,0.1009, 0.1007, 0.1007, 0.1009, 0.1009, 0.1010,0.1009,0.0
SingleSource/Benchmarks/Misc/whetstone, 0.0679, 0.0681, 0.0679, 0.0682, 0.0682,0.0681, 0.0680, 0.0681, 0.0679, 0.0681, 0.0681,0.0681,0.0
SingleSource/Benchmarks/Misc/salsa20, 0.0490, 0.0490, 0.0489, 0.0490, 0.0489,0.049, 0.0489, 0.0490, 0.0490, 0.0490, 0.0491,0.049,0.0
SingleSource/Benchmarks/Misc/pi, 0.0218, 0.0218, 0.0218, 0.0218, 0.0218,0.0218, 0.0219, 0.0218, 0.0218, 0.0218, 0.0219,0.0218,0.0
SingleSource/Benchmarks/Misc/lowercase, 0.0257, 0.0256, 0.0257, 0.0256, 0.0257,0.0257, 0.0257, 0.0256, 0.0256, 0.0258, 0.0257,0.0257,0.0
SingleSource/Benchmarks/Misc/flops-7, 0.0272, 0.0273, 0.0272, 0.0273, 0.0272,0.0272, 0.0271, 0.0272, 0.0273, 0.0272, 0.0273,0.0272,0.0
SingleSource/Benchmarks/Misc/flops-6, 0.0285, 0.0287, 0.0286, 0.0288, 0.0286,0.0286, 0.0285, 0.0287, 0.0285, 0.0286, 0.0286,0.0286,0.0
SingleSource/Benchmarks/Misc/flops-5, 0.0287, 0.0286, 0.0285, 0.0286, 0.0286,0.0286, 0.0285, 0.0286, 0.0284, 0.0286, 0.0286,0.0286,0.0
SingleSource/Benchmarks/Misc/flops-3, 0.0273, 0.0273, 0.0273, 0.0274, 0.0273,0.0273, 0.0273, 0.0274, 0.0272, 0.0273, 0.0275,0.0273,0.0
SingleSource/Benchmarks/Misc/flops-2, 0.0293, 0.0294, 0.0292, 0.0292, 0.0292,0.0292, 0.0292, 0.0293, 0.0292, 0.0292, 0.0294,0.0292,0.0
SingleSource/Benchmarks/Misc/ffbench, 0.0719, 0.0718, 0.0717, 0.0716, 0.0719,0.0718, 0.0717, 0.0722, 0.0716, 0.0718, 0.0721,0.0718,0.0
SingleSource/Benchmarks/Misc/dt, 0.0343, 0.0340, 0.0339, 0.0340, 0.0341,0.034, 0.0339, 0.0341, 0.0340, 0.0341, 0.0340,0.034,0.0
SingleSource/Benchmarks/Misc-C++/mandel-text, 0.0247, 0.0246, 0.0247, 0.0247, 0.0247,0.0247, 0.0246, 0.0248, 0.0247, 0.0248, 0.0247,0.0247,0.0
SingleSource/Benchmarks/McGill/misr, 0.0538, 0.0540, 0.0542, 0.0541, 0.0540,0.054, 0.0540, 0.0540, 0.0538, 0.0540, 0.0539,0.054,0.0
SingleSource/Benchmarks/CoyoteBench/huffbench, 0.0888, 0.0892, 0.0889, 0.0886, 0.0887,0.0888, 0.0884, 0.0888, 0.0888, 0.0889, 0.0890,0.0888,0.0
SingleSource/Benchmarks/CoyoteBench/almabench, 0.0574, 0.0577, 0.0576, 0.0577, 0.0574,0.0576, 0.0572, 0.0572, 0.0576, 0.0576, 0.0576,0.0576,0.0
SingleSource/Benchmarks/BenchmarkGame/recursive, 0.0267, 0.0267, 0.0267, 0.0267, 0.0268,0.0267, 0.0266, 0.0267, 0.0267, 0.0268, 0.0267,0.0267,0.0
SingleSource/Benchmarks/BenchmarkGame/partialsums, 0.0299, 0.0299, 0.0299, 0.0297, 0.0299,0.0299, 0.0298, 0.0300, 0.0299, 0.0301, 0.0299,0.0299,0.0
MultiSource/Benchmarks/Trimaran/enc-rc4/enc-rc4, 0.0518, 0.0517, 0.0516, 0.0517, 0.0519,0.0517, 0.0517, 0.0517, 0.0515, 0.0517, 0.0516,0.0517,0.0
MultiSource/Benchmarks/Prolangs-C++/life/life, 0.0656, 0.0654, 0.0652, 0.0655, 0.0654,0.0654, 0.0654, 0.0656, 0.0653, 0.0657, 0.0653,0.0654,0.0
MultiSource/Benchmarks/Olden/treeadd/treeadd, 0.0561, 0.0564, 0.0564, 0.0569, 0.0566,0.0564, 0.0563, 0.0564, 0.0565, 0.0565, 0.0563,0.0564,0.0
MultiSource/Benchmarks/NPB-serial/is/is, 0.0718, 0.0716, 0.0717, 0.0715, 0.0721,0.0717, 0.0716, 0.0717, 0.0719, 0.0718, 0.0717,0.0717,0.0
MultiSource/Benchmarks/MiBench/network-patricia/network-patricia, 0.0771, 0.0772, 0.0771, 0.0770, 0.0770,0.0771, 0.0769, 0.0774, 0.0772, 0.0768, 0.0771,0.0771,0.0
MultiSource/Benchmarks/FreeBench/analyzer/analyzer, 0.2425, 0.2423, 0.2418, 0.2425, 0.2425,0.2425, 0.2419, 0.2426, 0.2424, 0.2425, 0.2431,0.2425,0.0
MultiSource/Benchmarks/Fhourstones/fhourstones, 0.1640, 0.1647, 0.1642, 0.1643, 0.1646,0.1643, 0.1638, 0.1646, 0.1644, 0.1641, 0.1643,0.1643,0.0
MultiSource/Benchmarks/MiBench/consumer-typeset/consumer-typeset, 9.8311, 9.8258, 9.8262, 9.8409, 9.8440,9.8311, 9.8309, 9.8173, 9.8075, 9.8309, 9.8411,9.8309,-0.002034360346248043
MultiSource/Benchmarks/PAQ8p/paq8p, 2.0714, 2.0679, 2.0639, 2.0634, 2.0646,2.0646, 2.0570, 2.0611, 2.0645, 2.0658, 2.0737,2.0645,-0.004843553230660103
MultiSource/Benchmarks/Prolangs-C/bison/mybison, 1.6193, 1.6165, 1.6151, 1.6181, 1.6178,1.6178, 1.6144, 1.6163, 1.6180, 1.6198, 1.6176,1.6176,-0.012362467548521217
MultiSource/Benchmarks/Ptrdist/yacr2/yacr2, 0.6227, 0.6213, 0.6218, 0.6235, 0.6221,0.6221, 0.6211, 0.6220, 0.6218, 0.6223, 0.6222,0.622,-0.016074586079406483
MultiSource/Benchmarks/Ptrdist/bc/bc, 1.0235, 1.0198, 1.0201, 1.0220, 1.0242,1.022, 1.0201, 1.0218, 1.0204, 1.0252, 1.0230,1.0218,-0.019569471624258927
MultiSource/Benchmarks/mediabench/jpeg/jpeg-6a/cjpeg, 4.1967, 4.1931, 4.1916, 4.2161, 4.2060,4.1967, 4.1908, 4.1958, 4.2006, 4.1911, 4.2013,4.1958,-0.021445421402521703
SingleSource/Benchmarks/Adobe-C++/simple_types_loop_invariant, 1.8127, 1.8092, 1.8063, 1.8082, 1.8103,1.8092, 1.8033, 1.8030, 1.8088, 1.8124, 1.8103,1.8088,-0.022109219544552694
MultiSource/Benchmarks/TSVC/LoopRestructuring-flt/LoopRestructuring-flt, 2.3546, 2.3468, 2.3559, 2.3533, 2.3550,2.3546, 2.3540, 2.3501, 2.3567, 2.3508, 2.3718,2.354,-0.025482035165202976
MultiSource/Benchmarks/TSVC/IndirectAddressing-dbl/IndirectAddressing-dbl, 2.0679, 2.0626, 2.0624, 2.0643, 2.0679,2.0643, 2.0670, 2.0607, 2.0515, 2.0636, 2.0756,2.0636,-0.03390979993216359
MultiSource/Benchmarks/MiBench/telecomm-gsm/telecomm-gsm, 1.1726, 1.1737, 1.1722, 1.1727, 1.1728,1.1727, 1.1708, 1.1717, 1.1723, 1.1736, 1.1734,1.1723,-0.03410932037181125
MultiSource/Benchmarks/TSVC/Packing-flt/Packing-flt, 2.2703, 2.2655, 2.2670, 2.2710, 2.2706,2.2703, 2.2696, 2.2663, 2.2695, 2.2689, 2.2717,2.2695,-0.03523763379290612
MultiSource/Benchmarks/Olden/bh/bh, 0.2558, 0.2552, 0.2547, 0.2554, 0.2556,0.2554, 0.2550, 0.2553, 0.2548, 0.2562, 0.2557,0.2553,-0.03915426781518905
MultiSource/Benchmarks/Olden/voronoi/voronoi, 0.2304, 0.2299, 0.2297, 0.2306, 0.2303,0.2303, 0.2296, 0.2303, 0.2302, 0.2302, 0.2309,0.2302,-0.043421623968742384
SingleSource/Benchmarks/Misc-C++/Large/sphereflake, 0.2125, 0.2135, 0.2124, 0.2124, 0.2120,0.2124, 0.2118, 0.2121, 0.2125, 0.2124, 0.2123,0.2123,-0.04708097928437516
MultiSource/Benchmarks/TSVC/LinearDependence-flt/LinearDependence-flt, 2.4228, 2.4272, 2.4235, 2.4302, 2.4412,2.4272, 2.4231, 2.4294, 2.4352, 2.4253, 2.4260,2.426,-0.04943968358601669
MultiSource/Applications/hexxagon/hexxagon, 0.7026, 0.7042, 0.7019, 0.7027, 0.7024,0.7026, 0.7019, 0.7022, 0.7013, 0.7039, 0.7040,0.7022,-0.056931397665804795
SingleSource/Benchmarks/Shootout-C++/matrix, 0.1712, 0.1726, 0.1718, 0.1716, 0.1726,0.1718, 0.1719, 0.1715, 0.1714, 0.1717, 0.1720,0.1717,-0.058207217695005475
MultiSource/Benchmarks/TSVC/InductionVariable-flt/InductionVariable-flt, 2.3522, 2.3441, 2.3451, 2.3543, 2.3509,2.3509, 2.3495, 2.3511, 2.3495, 2.3486, 2.3468,2.3495,-0.059551661065981865
SingleSource/Benchmarks/Polybench/stencils/fdtd-apml/fdtd-apml, 0.1501, 0.1500, 0.1500, 0.1499, 0.1501,0.15, 0.1500, 0.1494, 0.1496, 0.1499, 0.1500,0.1499,-0.06666666666665932
MultiSource/Benchmarks/MiBench/telecomm-FFT/telecomm-fft, 0.1439, 0.1439, 0.1435, 0.1441, 0.1436,0.1439, 0.1436, 0.1438, 0.1436, 0.1439, 0.1441,0.1438,-0.06949270326614965
MultiSource/Applications/JM/lencod/lencod,13.3931,13.3748,13.3618,13.4040,13.3902,13.3902,13.3782,13.3681,13.3799,13.3960,13.3902,13.3799,-0.07692192797718045
SingleSource/Benchmarks/Polybench/stencils/jacobi-2d-imper/jacobi-2d-imper, 0.1279, 0.1272, 0.1275, 0.1272, 0.1274,0.1274, 0.1271, 0.1280, 0.1276, 0.1271, 0.1273,0.1273,-0.07849293563580995
SingleSource/Benchmarks/Shootout-C++/strcat, 0.1233, 0.1235, 0.1234, 0.1235, 0.1235,0.1235, 0.1235, 0.1234, 0.1231, 0.1242, 0.1231,0.1234,-0.08097165991902688
MultiSource/Benchmarks/FreeBench/pcompress2/pcompress2, 0.2444, 0.2446, 0.2440, 0.2434, 0.2436,0.244, 0.2438, 0.2443, 0.2435, 0.2438, 0.2443,0.2438,-0.08196721311475308
SingleSource/Benchmarks/Stanford/Puzzle, 0.1196, 0.1196, 0.1195, 0.1193, 0.1197,0.1196, 0.1191, 0.1195, 0.1193, 0.1200, 0.1198,0.1195,-0.08361204013378476
MultiSource/Benchmarks/ASC_Sequoia/CrystalMk/CrystalMk, 0.2371, 0.2371, 0.2377, 0.2382, 0.2375,0.2375, 0.2369, 0.2373, 0.2370, 0.2374, 0.2375,0.2373,-0.08421052631577552
MultiSource/Applications/oggenc/oggenc, 4.7732, 4.7643, 4.7554, 4.7481, 4.7852,4.7643, 4.7515, 4.7599, 4.7577, 4.7744, 4.7681,4.7599,-0.09235354616629055
SingleSource/Benchmarks/Adobe-C++/simple_types_constant_folding, 2.3608, 2.3537, 2.3596, 2.3570, 2.3574,2.3574, 2.3566, 2.3523, 2.3538, 2.3589, 2.3550,2.355,-0.10180707559176438
SingleSource/Benchmarks/McGill/chomp, 0.1911, 0.1904, 0.1907, 0.1911, 0.1916,0.1911, 0.1909, 0.1906, 0.1909, 0.1916, 0.1913,0.1909,-0.10465724751439476
MultiSource/Benchmarks/MiBench/consumer-jpeg/consumer-jpeg, 4.1508, 4.1573, 4.1560, 4.1586, 4.1601,4.1573, 4.1528, 4.1502, 4.1570, 4.1607, 4.1513,4.1528,-0.10824333100810657
SingleSource/Benchmarks/Polybench/linear-algebra/kernels/syr2k/syr2k, 0.0892, 0.0890, 0.0892, 0.0891, 0.0893,0.0892, 0.0889, 0.0889, 0.0891, 0.0892, 0.0894,0.0891,-0.11210762331839152
SingleSource/Benchmarks/Misc-C++/stepanov_v1p2, 0.1711, 0.1703, 0.1706, 0.1705, 0.1709,0.1706, 0.1703, 0.1702, 0.1710, 0.1704, 0.1708,0.1704,-0.11723329425556983
SingleSource/Benchmarks/Polybench/datamining/correlation/correlation, 0.0849, 0.0847, 0.0846, 0.0849, 0.0850,0.0849, 0.0845, 0.0849, 0.0847, 0.0848, 0.0852,0.0848,-0.11778563015312216
SingleSource/Benchmarks/Polybench/linear-algebra/kernels/trmm/trmm, 0.0848, 0.0849, 0.0847, 0.0845, 0.0846,0.0847, 0.0846, 0.0846, 0.0847, 0.0846, 0.0847,0.0846,-0.11806375442738881
MultiSource/Benchmarks/TSVC/GlobalDataFlow-flt/GlobalDataFlow-flt, 2.3847, 2.3808, 2.3747, 2.3797, 2.3864,2.3808, 2.3777, 2.3699, 2.3807, 2.3723, 2.3818,2.3777,-0.13020833333332593
SingleSource/Benchmarks/Polybench/linear-algebra/kernels/gesummv/gesummv, 0.0713, 0.0713, 0.0714, 0.0711, 0.0713,0.0713, 0.0712, 0.0713, 0.0711, 0.0711, 0.0713,0.0712,-0.14025245441795509
MultiSource/Benchmarks/TSVC/NodeSplitting-dbl/NodeSplitting-dbl, 2.0651, 2.0573, 2.0581, 2.0615, 2.0596,2.0596, 2.0527, 2.0603, 2.0603, 2.0558, 2.0566,2.0566,-0.14565935133036279
MultiSource/Benchmarks/MiBench/automotive-basicmath/automotive-basicmath, 0.1361, 0.1361, 0.1361, 0.1360, 0.1358,0.1361, 0.1359, 0.1365, 0.1357, 0.1364, 0.1357,0.1359,-0.14695077149154967
SingleSource/Benchmarks/Stanford/Oscar, 0.0666, 0.0665, 0.0666, 0.0664, 0.0666,0.0666, 0.0663, 0.0666, 0.0664, 0.0665, 0.0665,0.0665,-0.15015015015015232
MultiSource/Benchmarks/McCat/04-bisect/bisect, 0.1307, 0.1306, 0.1306, 0.1305, 0.1304,0.1306, 0.1304, 0.1303, 0.1304, 0.1305, 0.1306,0.1304,-0.15313935681470214
MultiSource/Benchmarks/TSVC/GlobalDataFlow-dbl/GlobalDataFlow-dbl, 2.1314, 2.1238, 2.1244, 2.1299, 2.1295,2.1295, 2.1307, 2.1239, 2.1262, 2.1263, 2.1225,2.1262,-0.1549659544494153
MultiSource/Applications/d/make_dparser, 2.5472, 2.5437, 2.5476, 2.5512, 2.5501,2.5476, 2.5436, 2.5382, 2.5364, 2.5470, 2.5443,2.5436,-0.1570105197048255
SingleSource/Benchmarks/CoyoteBench/lpbench, 0.1896, 0.1892, 0.1894, 0.1893, 0.1893,0.1893, 0.1887, 0.1890, 0.1890, 0.1891, 0.1890,0.189,-0.15847860538826808
MultiSource/Benchmarks/TSVC/Reductions-dbl/Reductions-dbl, 2.1549, 2.1355, 2.1364, 2.1381, 2.1412,2.1381, 2.1346, 2.1334, 2.1421, 2.1363, 2.1344,2.1346,-0.16369674009636404
SingleSource/Benchmarks/Misc/richards_benchmark, 0.0601, 0.0599, 0.0600, 0.0600, 0.0599,0.06, 0.0601, 0.0598, 0.0599, 0.0598, 0.0599,0.0599,-0.1666666666666594
MultiSource/Applications/sqlite3/sqlite3,12.6997,12.6614,12.7275,12.6601,12.7267,12.6997,12.6839,12.6970,12.6316,12.6783,12.6501,12.6783,-0.1685079175098636
SingleSource/Benchmarks/Polybench/stencils/fdtd-2d/fdtd-2d, 0.1702, 0.1697, 0.1700, 0.1698, 0.1702,0.17, 0.1696, 0.1697, 0.1697, 0.1701, 0.1698,0.1697,-0.17647058823531125
MultiSource/Applications/SPASS/SPASS,11.7493,11.7569,11.7554,11.7602,11.7714,11.7569,11.7275,11.7341,11.7357,11.7636,11.7572,11.7357,-0.18031964208252704
SingleSource/Benchmarks/Adobe-C++/stepanov_abstraction, 0.6036, 0.6028, 0.6008, 0.6012, 0.6029,0.6028, 0.6002, 0.6017, 0.6010, 0.6019, 0.6051,0.6017,-0.18248175182481452
SingleSource/Benchmarks/Misc/fbench, 0.0541, 0.0541, 0.0540, 0.0541, 0.0540,0.0541, 0.0540, 0.0539, 0.0539, 0.0541, 0.0540,0.054,-0.1848428835489857
MultiSource/Benchmarks/FreeBench/pifft/pifft, 1.0577, 1.0546, 1.0547, 1.0521, 1.0553,1.0547, 1.0511, 1.0520, 1.0527, 1.0528, 1.0539,1.0527,-0.1896273821939909
MultiSource/Benchmarks/FreeBench/fourinarow/fourinarow, 0.2848, 0.2843, 0.2848, 0.2840, 0.2846,0.2846, 0.2836, 0.2840, 0.2831, 0.2846, 0.2840,0.284,-0.21082220660577633
MultiSource/Benchmarks/FreeBench/distray/distray, 0.0946, 0.0947, 0.0948, 0.0948, 0.0944,0.0947, 0.0945, 0.0945, 0.0944, 0.0945, 0.0946,0.0945,-0.21119324181626542
MultiSource/Benchmarks/TSVC/LinearDependence-dbl/LinearDependence-dbl, 2.1727, 2.1687, 2.1687, 2.1722, 2.1734,2.1722, 2.1673, 2.1616, 2.1713, 2.1672, 2.1697,2.1673,-0.22557775527115576
SingleSource/Benchmarks/McGill/queens, 0.0441, 0.0439, 0.0438, 0.0440, 0.0438,0.0439, 0.0438, 0.0439, 0.0438, 0.0439, 0.0437,0.0438,-0.2277904328018332
SingleSource/Benchmarks/Polybench/linear-algebra/kernels/bicg/bicg, 0.0862, 0.0855, 0.0859, 0.0859, 0.0862,0.0859, 0.0854, 0.0857, 0.0856, 0.0858, 0.0860,0.0857,-0.2328288707799886
SingleSource/Benchmarks/Polybench/linear-algebra/solvers/dynprog/dynprog, 0.0858, 0.0851, 0.0854, 0.0853, 0.0855,0.0854, 0.0852, 0.0853, 0.0852, 0.0852, 0.0856,0.0852,-0.23419203747073736
MultiSource/Benchmarks/MallocBench/cfrac/cfrac, 0.8650, 0.8668, 0.8686, 0.8705, 0.8720,0.8686, 0.8685, 0.8602, 0.8665, 0.8671, 0.8619,0.8665,-0.24176836288279935
MultiSource/Benchmarks/Olden/tsp/tsp, 0.1217, 0.1221, 0.1216, 0.1219, 0.1220,0.1219, 0.1211, 0.1217, 0.1214, 0.1218, 0.1216,0.1216,-0.24610336341263084
MultiSource/Benchmarks/TSVC/Equivalencing-flt/Equivalencing-flt, 2.3306, 2.3280, 2.3402, 2.3374, 2.3499,2.3374, 2.3299, 2.3316, 2.3209, 2.3353, 2.3363,2.3316,-0.24813895781639062
MultiSource/Benchmarks/ASCI_Purple/SMG2000/smg2000, 6.2364, 6.2338, 6.2131, 6.2075, 6.2328,6.2328, 6.1963, 6.2129, 6.2163, 6.2409, 6.2254,6.2163,-0.2647285329225979
MultiSource/Benchmarks/TSVC/Packing-dbl/Packing-dbl, 2.0300, 2.0224, 2.0236, 2.0300, 2.0261,2.0261, 2.0186, 2.0250, 2.0207, 2.0206, 2.0211,2.0207,-0.2665218893440513
SingleSource/Benchmarks/Polybench/linear-algebra/solvers/durbin/durbin, 0.1083, 0.1084, 0.1080, 0.1081, 0.1082,0.1082, 0.1078, 0.1077, 0.1079, 0.1081, 0.1079,0.1079,-0.27726432532347856
MultiSource/Benchmarks/Ptrdist/ks/ks, 0.1393, 0.1393, 0.1388, 0.1390, 0.1393,0.1393, 0.1389, 0.1393, 0.1387, 0.1396, 0.1388,0.1389,-0.2871500358937573
MultiSource/Benchmarks/TSVC/Symbolics-dbl/Symbolics-dbl, 2.0638, 2.0746, 2.0842, 2.0803, 2.0819,2.0803, 2.0742, 2.0724, 2.0795, 2.0751, 2.0733,2.0742,-0.2932269384223418
MultiSource/Benchmarks/McCat/09-vor/vor, 0.2691, 0.2696, 0.2691, 0.2691, 0.2692,0.2691, 0.2681, 0.2683, 0.2681, 0.2690, 0.2691,0.2683,-0.2972872538089977
MultiSource/Benchmarks/Olden/bisort/bisort, 0.0632, 0.0629, 0.0627, 0.0631, 0.0630,0.063, 0.0628, 0.0628, 0.0628, 0.0631, 0.0632,0.0628,-0.31746031746032743
MultiSource/Benchmarks/TSVC/CrossingThresholds-flt/CrossingThresholds-flt, 2.3298, 2.3217, 2.3254, 2.3302, 2.3344,2.3298, 2.3200, 2.3120, 2.3304, 2.3268, 2.3224,2.3224,-0.31762383037170494
MultiSource/Benchmarks/mediabench/mpeg2/mpeg2dec/mpeg2decode, 1.3085, 1.3040, 1.3112, 1.3102, 1.3072,1.3085, 1.2997, 1.3023, 1.3043, 1.3090, 1.3081,1.3043,-0.3209782193351107
MultiSource/Benchmarks/TSVC/LoopRestructuring-dbl/LoopRestructuring-dbl, 2.1225, 2.0994, 2.1137, 2.1057, 2.0997,2.1057, 2.1045, 2.0986, 2.0973, 2.1008, 2.0980,2.0986,-0.33718003514272565
SingleSource/Benchmarks/Polybench/linear-algebra/kernels/syrk/syrk, 0.0887, 0.0884, 0.0887, 0.0884, 0.0888,0.0887, 0.0885, 0.0883, 0.0883, 0.0884, 0.0885,0.0884,-0.33821871476887866
SingleSource/Benchmarks/Misc/flops-4, 0.0277, 0.0278, 0.0278, 0.0277, 0.0278,0.0278, 0.0276, 0.0278, 0.0278, 0.0277, 0.0277,0.0277,-0.3597122302158251
SingleSource/Benchmarks/Shootout-C++/heapsort, 0.1321, 0.1322, 0.1321, 0.1325, 0.1322,0.1322, 0.1319, 0.1316, 0.1315, 0.1318, 0.1317,0.1317,-0.3782148260211837
SingleSource/Benchmarks/Polybench/linear-algebra/solvers/lu/lu, 0.1051, 0.1048, 0.1051, 0.1049, 0.1051,0.1051, 0.1047, 0.1048, 0.1049, 0.1047, 0.1047,0.1047,-0.38058991436726863
MultiSource/Benchmarks/Prolangs-C++/primes/primes, 0.0249, 0.0247, 0.0248, 0.0248, 0.0247,0.0248, 0.0247, 0.0247, 0.0247, 0.0248, 0.0247,0.0247,-0.40322580645161255
MultiSource/Benchmarks/FreeBench/mason/mason, 0.0482, 0.0481, 0.0481, 0.0482, 0.0480,0.0481, 0.0478, 0.0480, 0.0479, 0.0478, 0.0480,0.0479,-0.4158004158004158
SingleSource/Benchmarks/Shootout-C++/moments, 0.2402, 0.2391, 0.2383, 0.2386, 0.2398,0.2391, 0.2380, 0.2381, 0.2380, 0.2399, 0.2382,0.2381,-0.4182350480970265
SingleSource/Benchmarks/Adobe-C++/stepanov_vector, 0.7885, 0.7878, 0.7861, 0.7830, 0.7911,0.7878, 0.7796, 0.7843, 0.7859, 0.7863, 0.7804,0.7843,-0.44427519675043214
MultiSource/Benchmarks/BitBench/uudecode/uudecode, 0.0451, 0.0450, 0.0451, 0.0449, 0.0449,0.045, 0.0447, 0.0448, 0.0450, 0.0448, 0.0450,0.0448,-0.4444444444444473
SingleSource/Benchmarks/Polybench/linear-algebra/kernels/cholesky/cholesky, 0.1105, 0.1108, 0.1102, 0.1109, 0.1110,0.1108, 0.1103, 0.1103, 0.1103, 0.1106, 0.1105,0.1103,-0.4512635379061325
MultiSource/Benchmarks/BitBench/uuencode/uuencode, 0.0440, 0.0439, 0.0437, 0.0439, 0.0437,0.0439, 0.0435, 0.0439, 0.0437, 0.0438, 0.0437,0.0437,-0.4555808656036442
SingleSource/Benchmarks/Dhrystone/fldry, 0.0424, 0.0426, 0.0423, 0.0427, 0.0427,0.0426, 0.0422, 0.0425, 0.0424, 0.0424, 0.0427,0.0424,-0.46948356807511304
MultiSource/Benchmarks/McCat/05-eks/eks, 0.5679, 0.5641, 0.5635, 0.5662, 0.5661,0.5661, 0.5567, 0.5586, 0.5647, 0.5655, 0.5622,0.5622,-0.6889242183359845
Total elapsed time,-,-,-,-,-,341.2491,-,-,-,-,-,341.3345999999997,0.025055011134011984
Total failure,-,-,-,-,-,0,-,-,-,-,-,0,
